method,Energy,Time,RawEnergy
SingleByteCharsetConverter.<clinit>,17.123549912395315,11.50506512301013,10.474271498944406
NonRegisteringDriver.connect,4.00543723855242,3.400868306801737,2.450078244477257
Tokens.<clinit>,2.6421023411575657,1.5918958031837915,1.6161425283228443
WorkloadState.addToQueue,2.101481369446785,2.7496382054992763,1.2854511200172078
BenchmarkState.getState,2.0534312123129315,2.894356005788712,1.256059411290818
JDBCStatementBase.performPostExecute,1.96601697866905,1.2301013024602026,1.2025891658836205
WorkloadState.getCurrentPhase,1.7971622797325737,2.894356005788712,1.099302758007827
ThreadBench.runRateLimitedMultiPhase,1.7851978670423096,5.571635311143271,1.0919842692899866
JDBCConnection.getMetaData,1.2220644519543642,0.7959479015918958,0.7475222675476269
AbstractDOMParser.startDocument,1.0269001345170692,0.6512301013024602,0.6281425794454157
DBWorkload.main,0.8376629919326273,0.5065123010130246,0.5123884735938545
Session.<init>,0.8007267475455977,0.43415340086830684,0.4897950129013928
MysqlIO.buildResultSetWithRows,0.7823550375191348,0.6512301013024602,0.478557256729248
ConnectionImpl.getMetaData,0.6059087428106659,0.5065123010130246,0.370627160153804
XML11Configuration.<init>,0.5818446826220365,0.43415340086830684,0.3559074611969779
UnsafeFieldAccessorFactory.newFieldAccessor,0.5670818682822871,0.361794500723589,0.3468772235258096
SmallBankBenchmark.makeWorkersImpl,0.5070269046326217,0.2894356005788712,0.3101423176596788
DocumentBuilderImpl.<init>,0.44134231051894035,0.2894356005788712,0.26996383390108397
StringUtil.<clinit>,0.4413355977174985,0.361794500723589,0.2699597277604075
ConnectionImpl.clientPrepareStatement,0.4307411524766302,0.5065123010130246,0.2634792318117709
ConnectionImpl.coreConnect,0.4245271617377385,0.361794500723589,0.2596782077002949
ConnectionImpl.<init>,0.3756200693672878,0.2894356005788712,0.22976232189782841
Catalog.getOriginalTableNames,0.35679952277638805,0.21707670043415342,0.21825001774593533
JDBCDriver.getConnection,0.3424062464080382,0.1447178002894356,0.2094458220497902
Gregorian.newCalendarDate,0.33700648279783196,0.21707670043415342,0.206142850973537
Worker.<init>,0.3183034758921301,0.1447178002894356,0.1947024444469005
JRELocaleProviderAdapter.getCurrencyNameProvider,0.3029117156053319,0.21707670043415342,0.18528748803217404
Messages.getString,0.2961031602897226,0.21707670043415342,0.18112277585180714
ConnectionImpl.createStatement,0.2909388108813725,0.21707670043415342,0.17796380483848268
XMLEntityManager.<init>,0.28832168360142046,0.21707670043415342,0.17636293925758648
Chaperone.retire,0.28686687024518226,0.10853835021707671,0.17547304725788504
IOUtils.<clinit>,0.25232371012263255,0.1447178002894356,0.15434340770264376
Logger.newStore,0.2460828685211927,0.1447178002894356,0.15052595923840512
XMLConfiguration.createDelegate,0.24587762159109916,0.1447178002894356,0.1504004121362491
XMLEntityManager.expandSystemIdStrictOff,0.24130056958906698,0.1447178002894356,0.1476006839502514
URLClassPath$JarLoader.getResource,0.24105303124763747,0.1447178002894356,0.14744926769557315
PatternParser$DatePatternConverter.<init>,0.24054353133736023,0.1447178002894356,0.14713761266982006
DeferredDocumentImpl.getNodeObject,0.23902306309810462,0.1447178002894356,0.14620756036028365
JDBCConnection.createStatement,0.23659036720151297,0.1447178002894356,0.14471950925956978
ElementImpl.getAttributes,0.23194762428574264,0.1447178002894356,0.14187959872417444
NonRegisteringDriver.parseURL,0.22814127129104658,0.1447178002894356,0.13955129794009424
SystemUtils.<clinit>,0.22796367869593598,0.0723589001447178,0.13944266666521798
TreeCompiler.function,0.21849003843715004,0.1447178002894356,0.133647753772651
ResultSetImpl.checkClosed,0.21215174157931024,0.1447178002894356,0.12977069308899786
XMLEntityManager.setupCurrentEntity,0.20628902906290802,0.1447178002894356,0.12618454168165416
XMLDocumentFragmentScannerImpl$ElementStack.<init>,0.20553285660758341,0.0723589001447178,0.12572199999855607
Catalog.init,0.20508643083936517,0.1447178002894356,0.12544892667413646
CtClassType.getInterfaces,0.2032933453600811,0.0723589001447178,0.12435211764639853
AbstractConfiguration.getSubstitutor,0.20112756129289744,0.0723589001447178,0.12302733333217475
JXPathContextReferenceImpl.getEvalContext,0.20112756129289744,0.0723589001447178,0.12302733333217475
CharsetMapping.<clinit>,0.19940290209015063,0.1447178002894356,0.1219723798426739
JarFileFactory.getConnection,0.1988790376404663,0.0723589001447178,0.12165193819928155
ConnectionImpl.<clinit>,0.19347660307842326,0.0723589001447178,0.1183473333336072
XMLSecurityManager.getSystemProperty,0.19344961404994224,0.1447178002894356,0.11833082446638928
JXPathContextReferenceImpl.compileExpression,0.18861616215899485,0.1447178002894356,0.11537425952267853
JXPathContextReferenceImpl.<init>,0.18674848726541432,0.1447178002894356,0.11423182503875393
InitialContext.<init>,0.1790193437119689,0.0723589001447178,0.1095039999997122
TypeChecker.atCallExpr,0.1790193437119689,0.0723589001447178,0.1095039999997122
ParallelListResourceBundle.<init>,0.1788014052955121,0.0723589001447178,0.1093706896665338
MysqlIO.loadAuthenticationPlugins,0.17818855030314085,0.1447178002894356,0.10899581356827025
WorkloadConfiguration.initializeState,0.1762679414286115,0.0723589001447178,0.10782099999876966
ColumnBase.isNullable,0.17463164823444519,0.0723589001447178,0.10682009894406684
IndexAVL.balance,0.1710484173575987,0.1447178002894356,0.10462827930155671
Session.execute,0.16957693300654603,0.1447178002894356,0.10372818985291868
SimplePathInterpreter.createNullPointer,0.1692931364615332,0.0723589001447178,0.1035545948870305
XPathParser.jj_3R_18,0.1692931364615332,0.0723589001447178,0.1035545948870305
ISO_8859_1$Decoder.decodeArrayLoop,0.16890955812710806,0.1447178002894356,0.10331996458919876
Index.<clinit>,0.16477951323352213,0.0723589001447178,0.10079366532651296
TreeCompiler.equal,0.16140851631533457,0.0723589001447178,0.09873166666830002
GranteeManager.<clinit>,0.1462989637141604,0.0723589001447178,0.08948933333310075
ParserDQL.readColumnOrFunctionExpression,0.1458700958983759,0.0723589001447178,0.08922699999902761
MethodInfo.rebuildStackMap,0.14394628840261747,0.0723589001447178,0.08805022987102445
HierarchicalConfiguration.<init>,0.14118465117691253,0.0723589001447178,0.08636096927777058
LongKeyHashMap.values,0.1375662377222822,0.0723589001447178,0.08414762887153877
ListOrderedMap$EntrySetView.iterator,0.13676591772575492,0.0723589001447178,0.08365808266338991
Table.getColumn,0.13607909484133215,0.0723589001447178,0.0832379612866931
ClassFile.addMethod2,0.13540323408359953,0.0723589001447178,0.08282454531230747
MysqlIO.send,0.13516638355793967,0.0723589001447178,0.08267966666721804
XMLDTDValidator.validate,0.13485948189322589,0.0723589001447178,0.08249193857484607
ArrayUtil.toAdjustedArray,0.13365298597303235,0.0723589001447178,0.08175393939271806
ByteArrayRow.isNull,0.13342312035318868,0.0723589001447178,0.08161333333130945
Category.forcedLog,0.1333402399316104,0.0723589001447178,0.08156263636473424
CalendarDataUtility.retrieveFirstDayOfWeek,0.13319598727383278,0.0723589001447178,0.0814743987323661
ValuePool.initPool,0.13232090097707183,0.0723589001447178,0.0809391188690099
TypeData.make,0.13065096368749723,0.0723589001447178,0.07991763812192754
StatementSchema.getResult,0.13015685460658358,0.0723589001447178,0.07961539748315456
XPathParser.jj_3_4,0.1291477961858009,0.0723589001447178,0.07899816846746296
IndexAVL.next,0.1277655528188483,0.0723589001447178,0.0781526666657252
LanguageTag.<clinit>,0.12720535445633888,0.0723589001447178,0.07781000000068161
XMLDocumentScannerImpl.<init>,0.12503685712342175,0.0723589001447178,0.07648355601413014
JarFileFactory.getCachedJarFile,0.12493043754750661,0.0723589001447178,0.07641846042725474
DatabaseInformationMain.SYSTEM_COLUMNS,0.12210417070167001,0.0723589001447178,0.07468966666525981
XMLScanner.scanPseudoAttribute,0.12126997648390435,0.0723589001447178,0.07417939999950249
XPathExpressionEngine.<clinit>,0.11848480018851255,0.0723589001447178,0.07247574083772783
BundleHandler.getString,0.11744536501359366,0.0723589001447178,0.07183993072339095
CodeIterator.insertGap2,0.11727386137232972,0.0723589001447178,0.0717350239890487
JDBCDatabaseMetaData.<init>,0.11719801184785035,0.0723589001447178,0.07168862773847406
Tracer.doInvokeMethod,0.11698202020817788,0.0723589001447178,0.07155650822546386
ParserDDL.readFKReferences,0.11672058955141547,0.0723589001447178,0.0713965942069872
Tracer.doOpcode,0.11593670995050877,0.0723589001447178,0.07091710439299496
DefaultProxySelector.select,0.11495542803709331,0.0723589001447178,0.0703168659359752
IndexAVL.compareRowForInsertOrDelete,0.11484359116943633,0.0723589001447178,0.07024845665627423
LoggingEvent.getLocationInformation,0.11429793950913382,0.0723589001447178,0.06991468803568457
PropertyConfigurator.parseAdditivityForLogger,0.11417256836335854,0.0723589001447178,0.06983799999928428
CharacterType.compare,0.11401119345052811,0.0723589001447178,0.0697392888874674
ConstPool.getItem,0.11259547762270251,0.0723589001447178,0.06887331238015076
Descriptor.toCtClass,0.1123853360357545,0.0723589001447178,0.06874477127470396
UnsafeFieldAccessorImpl.<init>,0.1117130633091245,0.0723589001447178,0.06833355005620179
URLClassPath$JarLoader$2.getCodeSourceURL,0.11166552833745147,0.0723589001447178,0.06830447348028468
Logger.<init>,0.11150422135922755,0.0723589001447178,0.06820580392325734
PerfCounter.addElapsedTimeFrom,0.11112934966538739,0.0723589001447178,0.06797649937375451
QName.<init>,0.1106970103104216,0.0723589001447178,0.06771204254051855
XPathParser.ReInit,0.1106970103104216,0.0723589001447178,0.06771204254051855
ParserRoutine.compileCreateProcedureOrFunction,0.11022117997170897,0.0723589001447178,0.06742098279060635
MysqlIO.proceedHandshakeWithPluggableAuthentication,0.10838918007920657,0.0723589001447178,0.06630037027986657
XMLScanner.<init>,0.10830159426609398,0.0723589001447178,0.06624679508134229
ClassFile.<init>,0.10777094559650532,0.0723589001447178,0.06592220361145078
XPathParserTokenManager.getNextToken,0.10629815966125761,0.0723589001447178,0.06502131799926562
Expression.getCheckSelect,0.10540377701017767,0.0723589001447178,0.06447423478583826
PatternParser.finalizeConverter,0.10477629453478397,0.0723589001447178,0.06409041123045821
BasicBlock$Maker.makeMarks,0.103298834729025,0.0723589001447178,0.06318666666735831
ParseUtil.encodePath,0.1019060761367499,0.0723589001447178,0.06233473282755229
ThreadLocalCoders$Cache.forName,0.1004122127792528,0.0723589001447178,0.061420954407259726
ResultSetImpl.next,0.1004122127792528,0.0723589001447178,0.061420954407259726
ExpressionLogical.<init>,0.10040225184715383,0.0723589001447178,0.06141486142375334
ValuePoolHashMap.getOrAddInteger,0.1002743569403923,0.0723589001447178,0.061336629632821785
AbstractConfiguration.setLogger,0.09920439229467147,0.0723589001447178,0.06068214500487444
LineGroupReader.getSection,0.09916156172088975,0.0723589001447178,0.06065594605310681
RowStoreAVLMemory.getNewCachedObject,0.09742710575033965,0.0723589001447178,0.05959499999744367
CtClassType.getClassFile3,0.0959156146772364,0.0723589001447178,0.058670438913503126
JXPathContextReferenceImpl.<clinit>,0.09563218223327141,0.0723589001447178,0.0584970666638886
DOMParser.<init>,0.09446590155846583,0.0723589001447178,0.05778366666830456
ResultSetImpl.getLong,0.0923672567914729,0.0723589001447178,0.05649995066421765
ValuePool.<clinit>,0.08925307714370229,0.0723589001447178,0.05459504407101033
FieldInfo.<init>,0.08903406672009662,0.0723589001447178,0.054461078003829134
DatabaseInformationMain.SYSTEM_SEQUENCES,0.08865847550690857,0.0723589001447178,0.05423133333291239
MysqlIO.nextRowFast,0.08822018933402018,0.0723589001447178,0.05396323890199401
StreamEncoder.flushLeftoverChar,0.0871516585776125,0.0723589001447178,0.05330963136705847
FDBigInteger.mult,0.08692349545384134,0.0723589001447178,0.0531700667022166
DefaultProxySelector$3.run,0.08609877065202817,0.0723589001447178,0.052665592365394004
MethodAccessorGenerator.generate,0.08574662750848862,0.43415340086830684,0.05245019059935861
ClassClassPath.openClassfile,0.08571712512121661,0.0723589001447178,0.05243214434050838
MysqlIO.unpackField,0.0849365501003511,0.21707670043415342,0.0519546758987619
ConstPool.readOne,0.08445348325866323,0.0723589001447178,0.05165918966618381
FieldInfo.read,0.08294369592587035,0.0723589001447178,0.0507356707398955
Category.isDebugEnabled,0.08268947281786135,0.0723589001447178,0.050580165493132136
NodeAVL.getBalance,0.08169414174432145,0.0723589001447178,0.049971333332223374
WriterAppender.setWriter,0.08018113578068743,0.0723589001447178,0.049045845607791135
PreparedStatement.<init>,0.07992246759547744,0.0723589001447178,0.048887621360255436
Right.add,0.07969261991006998,0.0723589001447178,0.048747026269127816
AbsoluteTimeDateFormat.format,0.07957490861278049,0.0723589001447178,0.048675023670799136
Util.stackTraceToString,0.07838309442924046,0.0723589001447178,0.04794600513208745
LocationInfo.<clinit>,0.07833216115046507,0.0723589001447178,0.04791484985219782
XMLEntityScanner.<clinit>,0.07669867636608636,0.0723589001447178,0.04691566666830719
XPathParser.<init>,0.07657061545354545,0.0723589001447178,0.04683733333361791
XPathParser.jj_3R_86,0.07497225676085979,0.0723589001447178,0.045859636361580094
StringUtils.<clinit>,0.07494178966293541,0.0723589001447178,0.045841000000715816
IndexAVL.insert,0.0737003486202793,0.0723589001447178,0.0450816253034575
ZoneInfoFile.load,0.07351840626657273,0.0723589001447178,0.04497033333306415
MysqlIO.reuseAndReadPacket,0.0707656040208582,0.361794500723589,0.04328647699182465
SmallBankWorker.executeWork,0.06877051626457566,0.2894356005788712,0.0420661055775774
MysqlIO.readPacket,0.0684641866685486,0.361794500723589,0.0418787274128064
RangeVariable.<init>,0.0662338609217495,0.0723589001447178,0.040514463722007725
AugmentationsImpl.<init>,0.06410591486338851,0.0723589001447178,0.039212824467039484
ZoneInfo.getTimeZone,0.06336457535044769,0.0723589001447178,0.03875935591810172
AttributeInfo.read,0.06335756381906693,0.0723589001447178,0.03875506704788023
AbsoluteTimeDateFormat.<init>,0.061583824298623045,0.0723589001447178,0.037670091712708166
CalendarSystem.<clinit>,0.061583824298623045,0.0723589001447178,0.037670091712708166
URLClassPath$FileLoader.findResource,0.06123044630388378,0.0723589001447178,0.03745393460290395
CodeIterator.<init>,0.06087737027737556,0.0723589001447178,0.0372379622034695
DepositChecking.run,0.05868479646693697,0.0723589001447178,0.035896790922426626
Reflection.getCallerClass,0.05706241222387834,0.0723589001447178,0.03490439780742747
NodeAVL.getLeft,0.05400856466303938,0.0723589001447178,0.03303639563309667
MysqlIO.nextRow,0.05191535847494568,0.0723589001447178,0.031756006342935926
ClassFile.read,0.049715329062720616,0.0723589001447178,0.030410274559094324
MemberrefInfo.<init>,0.04600313761983693,0.0723589001447178,0.02813957127456827
CtClassType.getDeclaredField2,0.04521294885982765,0.0723589001447178,0.027656222223110184
CalendarDataUtility$CalendarWeekParameterGetter.<init>,0.04420510842571012,0.0723589001447178,0.027039738235352512
RangeVariable.addTableColumns,0.04414399060783839,0.0723589001447178,0.027002353194219883
SecuritySupport.getFileExists,0.04393623668257669,0.0723589001447178,0.026875272592983848
StatementImpl.closeAllOpenResults,0.0416088970530802,0.0723589001447178,0.025451666665806744
PreparedStatement.executeInternal,0.041357498046945815,0.1447178002894356,0.025297888888518274
OptionValidator.isValidChar,0.0401871484808721,0.0723589001447178,0.02458200000061576
StatementImpl.realClose,0.037056765300456124,0.0723589001447178,0.022667181899512133
GeneratedConstructorAccessor2.newInstance,0.03653838184024365,0.2894356005788712,0.022350092912088018
Logger.newIndex,0.03501784722664522,0.0723589001447178,0.021420000002156787
UTF_8$Encoder.encodeArrayLoop,0.03483291639361724,0.0723589001447178,0.021306880014562456
ConfigurationUtils.constructFile,0.033503040901226036,0.0723589001447178,0.020493411017867173
ConnectionImpl.commit,0.033263658448242535,0.1447178002894356,0.02034698362299519
ZoneInfoFile.<clinit>,0.031353125428617006,0.0723589001447178,0.019178333333911723
SmallBankWorker.generateCustIds,0.028121103117971037,0.0723589001447178,0.01720134378761174
StringUtils.fixDecimalExponent,0.028044031505099737,0.0723589001447178,0.017154200000125762
PreparedStatement.fillSendPacket,0.026576600925648952,0.21707670043415342,0.016256590195286483
ResultSetImpl.<init>,0.02643332060624487,0.21707670043415342,0.016168947330718574
MysqlIO.sqlQueryDirect,0.026213784198167042,0.2894356005788712,0.01603465952510149
ResultSetImpl.getInstance,0.02323691335240234,0.1447178002894356,0.014213743090404681
MysqlIO.setServerSlowQueryFlags,0.019061708569743718,0.0723589001447178,0.011659820061535478
MysqlIO.invokeStatementInterceptorsPost,0.01864253513590687,0.0723589001447178,0.011403416665416444
ConnectionPropertiesImpl.getIncludeThreadNamesAsStatementComment,0.011612146566254701,0.0723589001447178,0.0071030117261165985
MysqlIO.sendCommand,0.011466492170534533,0.1447178002894356,0.007013916667347075
URLClassPath$JarLoader.checkResource,0.010970154566480143,0.0723589001447178,0.006710312867515944
PreparedStatement.setLong,0.009676246176048899,0.0723589001447178,0.005918844518635288
ConnectionImpl.execSQL,0.008793380211747491,0.21707670043415342,0.0053788059253190535
ResultSetImpl.initializeWithMetadata,0.007043691617768168,0.1447178002894356,0.004308542255361256
FloatingDecimal$BinaryToASCIIBuffer.getChars,0.005286950472170279,0.2894356005788712,0.0032339646235911524
ConnectionImpl.getId,0.0,0.0723589001447178,0.0
ConnectionImpl.getCharsetNameForIndex,0.0,0.0723589001447178,0.0
AbstractFileConfiguration.load,0.0,0.0723589001447178,0.0
FloatingDecimal$BinaryToASCIIBuffer.dtoa,0.0,0.0723589001447178,0.0
WorkloadState.fetchWork,0.0,0.0723589001447178,0.0
AbstractRepository.getReifier,0.0,0.0723589001447178,0.0
Field.<init>,0.0,0.0723589001447178,0.0
Amalgamate.run,0.0,0.1447178002894356,0.0
Balance.run,0.0,0.0723589001447178,0.0
Buffer.writeByte,0.0,0.1447178002894356,0.0
ByteVectorFactory.create,0.0,0.0723589001447178,0.0
ClassPool.get,0.0,0.0723589001447178,0.0
Worker.doWork,0.0,0.0723589001447178,0.0
CoreReflectionFactory.makeParameterizedType,0.0,0.0723589001447178,0.0
ConnectionPropertiesImpl.getUseLegacyDatetimeCode,0.0,0.0723589001447178,0.0
Worker.run,0.0,0.1447178002894356,0.0
MysqlIO.checkForOutstandingStreamingData,0.0,0.0723589001447178,0.0
FloatingDecimal.getBinaryToASCIIConverter,0.0,0.0723589001447178,0.0
Label.add,0.0,0.0723589001447178,0.0
Reflection.getClassAccessFlags,0.0,0.1447178002894356,0.0
ResultSetImpl.getString,0.0,0.0723589001447178,0.0
ResultSetRow.getString,0.0,0.0723589001447178,0.0
ReflectUtil.isVMAnonymousClass,0.0,0.0723589001447178,0.0
RowDataStatic.size,0.0,0.0723589001447178,0.0
ReadAheadInputStream.available,0.0,0.0723589001447178,0.0
PreparedStatement.setObject,0.0,0.0723589001447178,0.0
PreparedStatement.setInternal,0.0,0.0723589001447178,0.0
SingleByteCharsetConverter.toString,0.0,0.0723589001447178,0.0
PreparedStatement.setDouble,0.0,0.1447178002894356,0.0
PreparedStatement.isEscapeNeededForString,0.0,0.0723589001447178,0.0
StatementImpl.resetCancelledState,0.0,0.0723589001447178,0.0
PreparedStatement.executeQuery,0.0,0.1447178002894356,0.0
Phase.totalWeight,0.0,0.1447178002894356,0.0
StringUtils.getBytes,0.0,0.1447178002894356,0.0
Phase.chooseTransaction,0.0,0.0723589001447178,0.0
NativeConstructorAccessorImpl.newInstance,0.0,0.0723589001447178,0.0
MysqlIO.readSingleRowSet,0.0,0.0723589001447178,0.0
MysqlIO.getResultSet,0.0,0.0723589001447178,0.0
TypeResolver.resolve,0.0,0.0723589001447178,0.0
MethodAccessorGenerator.emitInvoke,0.0,0.0723589001447178,0.0
Unsafe.compareAndSwapInt,0.0,0.0723589001447178,0.0
MessageHeader.grow,0.0,0.0723589001447178,0.0
Util.isJdbc4,0.0,0.0723589001447178,0.0
LatencyRecord$Sample.<init>,0.0,0.0723589001447178,0.0
MysqlIO.readResultsForQueryOrUpdate,0.0,0.0723589001447178,0.0
