method,hits
ANTLRStringStream.rewind,2
AnnotationReader.<init>,2
Arithmetic$py.call_function,2
Arithmetic$py.test$11,16
Arithmetic$py.test$14,26
Arithmetic$py.test$2,34
Arithmetic$py.test$5,58
Arithmetic$py.test$8,30
AstAdapters.<clinit>,2
BaseParser.setupParser,24
Benchmark.deleteTree,8
Benchmark.fileFromInputStream,96
BinOp$PyExposer.<init>,2
BreakIteratorProviderImpl.getBreakInstance,2
BuiltinFunctions.__call__,2
BytecodeLoader.makeCode,6
CachedJarsPackageManager.addZipEntry,8
CachedJarsPackageManager.filterByName,6
CachedJarsPackageManager.getZipPackages,170
CachedJarsPackageManager.listToString,6
Call$PyExposer.<init>,2
Calls$py.test$16,8
Calls$py.test$2,6
ClassFile.addMethod,2
ClassFile.read,2
ClassReader.accept,2
ClassWriter.visitMethod,2
CodeAttribute.<init>,2
CommonTokenStream.LT,2
CommonTokenStream.fillBuffer,2
CommonTokenStream.getTokens,2
ConstPool.readOne,2
Constructs$py.test$2,24
Constructs$py.test$5,2
Constructs$py.test$8,12
DacapoClassLoader.loadClass,56
DecimalFormatSymbolsProviderImpl.getInstance,2
Dict$py.test$11,12
Dict$py.test$14,14
Dict$py.test$2,4
Dict$py.test$5,6
Dict$py.test$8,10
Exceptions$py.test$5,6
FieldInfo.read,4
FloatingDecimal.readJavaFormatString,34
Generic.list,4
IfExp$PyExposer.<init>,2
ImportFunction.__call__,4
Imports$py.test$2,2
JavaImportHelper.buildLoadedPackages,8
Launcher$AppClassLoader.loadClass,4
Lists$py.<init>,2
Lists$py.test$2,22
Lists$py.test$8,6
Lookups$py.test$12,10
Lookups$py.test$17,16
Lookups$py.test$2,12
Lookups$py.test$22,4
Lookups$py.test$7,6
MakeProxies.makeProxy,2
MemberrefInfo.<init>,2
MethodWriter.visitJumpInsn,2
Module.PyCode,6
Module.compile,2
Native.initIDs,2
Native.loadNativeLibrary,2
NewInstances$py.__init__$6,2
Numbers$py.test$11,6
Numbers$py.test$2,20
Numbers$py.test$5,6
Numbers$py.test$8,4
PackageManager.checkAccess,386
ParseUtil.encodePath,2
ParserFacade.prepBufReader,2
Py.getThreadState,6
Py.initClassExceptions,2
Py.make_array,2
Py.newInteger,2
Py.unpackSequence,6
PyArray.setup,2
PyBaseCode.call,4
PyBaseException$exposed___new__.createOfSubtype,2
PyBaseString.<init>,2
PyClass.__setattr__,2
PyComplex._mul,2
PyDictionary$PyExposer.<init>,2
PyDictionary.<init>,6
PyDictionary.__finditem__,6
PyDictionary.dict___delitem__,6
PyDictionary.dict___setitem__,8
PyException.fillInStackTrace,146
PyFastSequenceIter.__iternext__,2
PyFile$PyExposer.<init>,2
PyFloat.__div__,2
PyFloat.float___div__,2
PyFloat.float___hash__,2
PyFrame.<init>,12
PyFrame.getLocals,4
PyFrame.getlocal,30
PyFrame.setline,14
PyFrame.setlocal,26
PyInstance.__findattr_ex__,4
PyInteger.canCoerce,2
PyInteger.divide,2
PyInteger.int_hashCode,2
PyJavaPackage.addPackage,2
PyJavaPackage.addPlaceholders,4
PyJavaType.init,6
PyJavaType.wrapJavaObject,2
PyList$list_append_exposer.__call__,4
PyList$list_append_exposer.bind,2
PyList$list_sort_exposer.bind,2
PyList.<init>,2
PyList.getslice,6
PyList.list___iter__,2
PyList.list___len__,6
PyList.pyadd,4
PyList.pyget,14
PyList.setslicePyList,2
PyLong.long___add__,4
PyMethod$PyExposer.<init>,2
PyMethodDescr.method_descriptor___get__,2
PyObject.<init>,8
PyObject.__call__,8
PyObject.__getattr__,8
PyObject.__getitem__,2
PyObject._basic_add,2
PyObject._gt,4
PyObject._lt,8
PyObject._try__cmp__,2
PyObject.dispatch__init__,2
PyObject.getType,8
PyObject.object___findattr__,4
PyObjectDerived.dispatch__init__,2
PySequence$1.<init>,2
PySequence.<init>,8
PySequenceIter.__iternext__,2
PySlice$PyExposer.<init>,2
PySlice.indicesEx,2
PyString$str_isdigit_exposer.__call__,2
PyString.__tojava__,2
PyString.atoi,50
PyString.fromSubstring,2
PyString.getslice,2
PyString.splitfields,4
PyString.str___add__,4
PyString.str___gt__,2
PyString.str_find,2
PyString.str_islower,4
PyString.str_istitle,2
PyString.str_isupper,2
PyString.str_lower,8
PyString.str_title,14
PyString.str_upper,10
PyStringMap.__finditem__,52
PyStringMap.__setitem__,40
PyTableCode.call,6
PyTuple.<init>,2
PyTuple.getslice,2
PyTuple.pyget,2
PyType.fastGetDict,2
PyType.fromClass,36
PyType.invoke_new_,2
PyType.lookup,4
PyUnicode$PyExposer.<init>,2
PyUnicode$unicode_isalnum_exposer.<init>,2
PyUnicode.unicode___add__,12
PyXRange.pyget,2
PythonLexer$DFA44.specialStateTransition,2
PythonLexer.<clinit>,2
PythonLexer.mTRIQUOTE,4
PythonParser.<clinit>,6
PythonParser.<init>,2
PythonParser.and_test,4
PythonParser.atom,2
PythonParser.break_stmt,2
PythonParser.defparameter,2
PythonParser.expr,2
PythonParser.expr_stmt,2
PythonParser.suite,2
PythonParser.synpred2_Python,4
PythonParser.test,4
PythonTree.getChild,2
PythonTree.getChildCount,2
Raise$PyExposer.<init>,2
Reflection.getCallerClass,2
Resource.getBytes,22
RewriteRuleElementStream.<init>,2
RuleReturnScope.<init>,2
ScopesCompiler.<init>,2
SequenceIndexDelegate.checkIdxAndFindItem,2
SequenceIndexDelegate.fixindex,2
Strings$py.test$11,30
Strings$py.test$14,2
Strings$py.test$17,2
Strings$py.test$2,6
Strings$py.test$20,6
Strings$py.test$5,54
Strings$py.test$8,86
SyspathJavaLoader.loadClass,2
ThreadStateMapping.getThreadState,26
TransformerManager.transform,2
Tuples$py.test$2,4
Tuples$py.test$5,10
URLClassPath$JarLoader$2.getInputStream,8
URLClassPath.getLoader,2
Unicode$py.test$11,2
Unicode$py.test$14,2
Unicode$py.test$17,6
Unicode$py.test$2,2
Unicode$py.test$20,2
Unicode$py.test$5,26
Unicode$py.test$8,2
Utf8Info.<init>,6
codecs.PyUnicode_EncodeIntLimited,2
exceptions.classDictInit,2
imp.compileSource,2
imp.import_name,2
imp.import_next,16
imp.readCode,2
unicodedata$py.get_int$1,2
unicodedata$py.init_east_asian_width$5,6
unicodedata$py.init_unicodedata$4,14
