method,package1,dram1,energy
ANTLRStringStream.LA|PythonLexer.mTRIQUOTE|PythonLexer.mSTRING,0.04112773560786695,0.005830147078057975,0.04695788268592493
ANTLRStringStream.consume|PythonLexer.mTRIQUOTE|PythonLexer.mSTRING,0.02225043673712986,0.0022635315981472397,0.0245139683352771
AlgorithmDecomposer.<clinit>|DisabledAlgorithmConstraints.<init>|SignatureFileVerifier.<clinit>,0.04640551282127256,0.0051153846154473,0.05152089743671986
Arithmetic$py.test$11|Arithmetic$py.call_function|PyTableCode.call,0.3028972000033328,0.02864621428509833,0.33154341428843115
Arithmetic$py.test$14|Arithmetic$py.call_function|PyTableCode.call,0.6139768846101689,0.0471596153852144,0.6611364999953833
Arithmetic$py.test$2|Arithmetic$py.call_function|PyTableCode.call,0.513418368814069,0.04415621600636323,0.5575745848204322
Arithmetic$py.test$5|Arithmetic$py.call_function|PyTableCode.call,0.7197283585875797,0.06368840909062508,0.7834167676782048
Arithmetic$py.test$8|Arithmetic$py.call_function|PyTableCode.call,0.7375989314820294,0.060258166666877784,0.7978570981489072
AttributeInfo.remove|ClassFile.addAttribute|ClassFile.read,0.027517400072208542,0.0032297488387736262,0.030747148910982167
BaseParser.setupParser|BaseParser.parseModule|CompileMode$3.dispatch,0.4673148177102686,0.06329340126730215,0.5306082189775707
Benchmark.fileFromInputStream|Benchmark.extractFileResource|Benchmark.prepareJars,0.421021432236987,0.042225329670681946,0.46324676190766895
Benchmark.fileFromInputStream|Benchmark.unpackZipStream|Benchmark.unpackZipFileResource,1.58130848260464,0.1542767913133043,1.7355852739179443
BuiltinFunctions.__call__|PyObject.__call__|unicodedata$py.init_unicodedata$4,0.0553519016498066,0.004300435257462354,0.059652336907268955
BytecodeLoader$Loader.loadClassFromBytes|BytecodeLoader.makeClass|BytecodeLoader.makeCode,0.07794616285375927,0.009020725108979286,0.08696688796273856
CachedJarsPackageManager.addPackages|CachedJarsPackageManager.addJarToPackages|CachedJarsPackageManager.addJarToPackages,0.03473866647868643,0.003603394674839464,0.0383420611535259
CachedJarsPackageManager.addZipEntry|CachedJarsPackageManager.getZipPackages|CachedJarsPackageManager.addJarToPackages,0.15831608807317793,0.01737581406573769,0.1756919021389156
CachedJarsPackageManager.filterByName|CachedJarsPackageManager.addZipEntry|CachedJarsPackageManager.getZipPackages,0.007664476668123566,0.0008799588809124181,0.008544435549035985
CachedJarsPackageManager.getZipPackages|CachedJarsPackageManager.addJarToPackages|CachedJarsPackageManager.addJarToPackages,2.8549994123329747,0.4153522546960422,3.2703516670290167
Calls$py.f$28|Calls$py.call_function|PyTableCode.call,0.07232666666580674,0.008799999999610009,0.08112666666541675
Calls$py.g$5|Calls$py.call_function|PyTableCode.call,0.020350488888410227,0.002322666666845584,0.02267315555525581
Calls$py.test$16|Calls$py.call_function|PyTableCode.call,0.1313171666697599,0.013752500000919099,0.145069666670679
Calls$py.test$2|Calls$py.call_function|PyTableCode.call,0.07762453333545838,0.006860333333113683,0.08448486666857206
ClassDef$PyExposer.<init>|ClassDef.<clinit>|PythonParser.classdef,0.030727873580063018,0.004567549347253407,0.035295422927316425
ClassFile.read|ClassFile.<init>|CtClassType.<init>,0.03060990718899556,0.0033046582682634967,0.03391456545725906
ClassReader.accept|ClassReader.accept|AnnotationReader.<init>,0.017620964355878673,0.0024181338445597948,0.02003909820043847
ClassicPyObjectAdapter$8.<init>|ClassicPyObjectAdapter.<init>|PySystemState.initialize,0.03481189743764937,0.0029261538457388105,0.03773805128338818
ClassicPyObjectAdapter$9.adapt|ExtensiblePyObjectAdapter.adapt|ClassicPyObjectAdapter.adapt,0.04223277777782642,0.0034666666659985725,0.045699444443824996
CommonTokenStream.LT|CommonTokenStream.LA|PythonParser.power,0.07494786968073652,0.006693636704683104,0.08164150638541963
CommonTokenStream.fillBuffer|CommonTokenStream.LT|PythonParser.file_input,0.02580272871633324,0.002825366376784014,0.028628095093117253
CommonTokenStream.fillBuffer|CommonTokenStream.LT|PythonTokenSource.insertImaginaryIndentDedentTokens,0.03881020625373316,0.005456435946150198,0.044266642199883355
CompilerFlags.isFlagSet|PyBaseCode.call|PyBaseCode.call,0.03463175654341556,0.0041326265591148,0.03876438310253036
ConstPool.readOne|ConstPool.read|ConstPool.<init>,0.02007411186775333,0.0024294602185825553,0.022503572086335886
Constructs$py.test$2|Constructs$py.call_function|PyTableCode.call,0.4121052378109839,0.03451777712084562,0.44662301493182954
Constructs$py.test$5|Constructs$py.call_function|PyTableCode.call,0.10731446804370193,0.014527153028852102,0.12184162107255403
Constructs$py.test$8|Constructs$py.call_function|PyTableCode.call,0.1666591970448677,0.015074551602772055,0.18173374864763975
DFA.predict|PythonLexer.mTokens|PythonLexer.nextToken,0.03881020625373316,0.005456435946150198,0.044266642199883355
DFA.unpackEncodedStringToUnsignedChars|PythonParser.<clinit>|BaseParser.setupParser,0.02958544847699829,0.0036843466463279016,0.03326979512332619
DFA.unpackEncodedString|PythonLexer.<clinit>|BaseParser.setupParser,0.05104328531768995,0.005854257475189324,0.05689754279287928
DacapoClassLoader.loadClass|ClassLoader.loadClass|AnnotationReader.<init>,0.023559419695234857,0.0026713466699387423,0.0262307663651736
DacapoClassLoader.loadClass|ClassLoader.loadClass|BaseParser.setupParser,0.09078104633378348,0.011824962354397641,0.10260600868818112
DacapoClassLoader.loadClass|ClassLoader.loadClass|ClassFile.addMethod,0.04331246125072426,0.0036888274471878436,0.0470012886979121
DacapoClassLoader.loadClass|ClassLoader.loadClass|ClassLoader.defineClass1,0.037962913255089915,0.005151940862119475,0.04311485411720939
DacapoClassLoader.loadClass|ClassLoader.loadClass|For$PyExposer.<init>,0.0204734954845272,0.0034766313087016888,0.02395012679322889
DacapoClassLoader.loadClass|ClassLoader.loadClass|Native.initIDs,0.02506511111278087,0.003243333333456475,0.028308444446237344
DacapoClassLoader.loadClass|ClassLoader.loadClass|PyDictionary$PyExposer.<init>,0.028387027087567157,0.003213778077256034,0.03160080516482319
DacapoClassLoader.loadClass|ClassLoader.loadClass|PyFile$PyExposer.<init>,0.027872568990116503,0.003350700590114586,0.03122326958023109
DacapoClassLoader.loadClass|ClassLoader.loadClass|PyFloat$PyExposer.<init>,0.023160274692620608,0.0028406033851939984,0.026000878077814607
DacapoClassLoader.loadClass|ClassLoader.loadClass|PyInteger$PyExposer.<init>,0.039578000001104854,0.003593333333507568,0.04317133333461242
DacapoClassLoader.loadClass|ClassLoader.loadClass|PyJavaType.getCollectionProxies,0.026957250000123167,0.002715000000231764,0.029672250000354932
DacapoClassLoader.loadClass|ClassLoader.loadClass|PySystemState.<init>,0.07132066203414775,0.008387609486900054,0.0797082715210478
DacapoClassLoader.loadClass|ClassLoader.loadClass|PySystemState.initStaticFields,0.02487097435947269,0.002390769230446611,0.0272617435899193
DacapoClassLoader.loadClass|ClassLoader.loadClass|PyTuple$PyExposer.<init>,0.02986656410100225,0.0027538461540527162,0.032620410255054966
DacapoClassLoader.loadClass|ClassLoader.loadClass|PythonParser.<init>,0.037962913255089915,0.005151940862119475,0.04311485411720939
DacapoClassLoader.loadClass|ClassLoader.loadClass|Subscript.<clinit>,0.0344083665494702,0.005249358824086571,0.039657725373556774
DacapoClassLoader.loadClass|ClassLoader.loadClass|While$PyExposer.<init>,0.0279726007920928,0.003078818395689717,0.03105141918778252
DacapoClassLoader.loadClass|ClassLoader.loadClass|Yield$PyExposer.<init>,0.032549921550978404,0.0028638662599300337,0.03541378781090844
Dict$py.test$11|Dict$py.call_function|PyTableCode.call,0.0633550512492478,0.004487041003126774,0.06784209225237457
Dict$py.test$14|Dict$py.call_function|PyTableCode.call,0.1619282491586578,0.017569696968347356,0.17949794612700515
Dict$py.test$2|Dict$py.call_function|PyTableCode.call,0.2230255467514505,0.022476482311100304,0.2455020290625508
Dict$py.test$5|Dict$py.call_function|PyTableCode.call,0.11457351443320529,0.010217581743927706,0.12479109617713299
Dict$py.test$8|Dict$py.call_function|PyTableCode.call,0.06771418201491033,0.007219564128560082,0.07493374614347041
Exceptions$py.test$2|Exceptions$py.call_function|PyTableCode.call,0.36542511212880496,0.03002640941506576,0.3954515215438707
Exceptions$py.test$5|Exceptions$py.call_function|PyTableCode.call,0.27937184527994946,0.031467328220746285,0.31083917350069573
FileURLConnection.getPermission|JarFileFactory.getPermission|JarFileFactory.getCachedJarFile,0.04239594871820046,0.004808461538442104,0.047204410256642564
FloatingDecimal.readJavaFormatString|FloatingDecimal.parseDouble|Double.parseDouble,0.4804162475202171,0.03960260488572545,0.5200188524059426
FunctionDef$PyExposer.<init>|FunctionDef.<clinit>|GrammarActions.makeFuncdef,0.027461637637403846,0.0044421789237142064,0.03190381656111805
Future.preprocessFutures|Module.compile|imp.compileSource,0.04554488139578407,0.004296023729526551,0.04984090512531062
GrammarActions.castExpr|PythonParser.test|PythonParser.argument,0.038240341881576635,0.003751282050979769,0.041991623932556406
Handler.parseURL|URL.<init>|URL.<init>,0.02506511111278087,0.003243333333456475,0.028308444446237344
ImportFunction.__call__|PyObject.__call__|__builtin__.__import__,0.22069362471477694,0.023239755245550907,0.24393337996032785
Imports$py.test$2|Imports$py.call_function|PyTableCode.call,0.17287149998931756,0.020992500001739245,0.1938639999910568
Imports$py.test$8|Imports$py.call_function|PyTableCode.call,0.03578506060655468,0.0043463636361455865,0.04013142424270027
Instances$py.test$2|Instances$py.call_function|PyTableCode.call,0.01966457553433151,0.002640219358773285,0.022304794893104794
Item.a|ClassWriter.a|ClassWriter.a,0.07742145836604976,0.00851670588726925,0.08593816425331902
JavaImportHelper.buildLoadedPackages|JavaImportHelper.tryAddPackage|imp.import_next,0.0290788333352086,0.0004188888888165821,0.02949772222402518
Lists$py.test$2|Lists$py.call_function|PyTableCode.call,0.3907403647714479,0.04029125116764757,0.4310316159390955
Lists$py.test$8|Lists$py.call_function|PyTableCode.call,0.2291994666758304,0.022487999999430033,0.25168746667526043
Lookups$py.test$12|Lookups$py.call_function|PyTableCode.call,0.35994389320267967,0.03194044367045675,0.3918843368731364
Lookups$py.test$17|Lookups$py.call_function|PyTableCode.call,0.1599120000005415,0.015147000000110385,0.1750590000006519
Lookups$py.test$22|Lookups$py.call_function|PyTableCode.call,0.04881125392173504,0.0031395949963229784,0.05195084891805802
Lookups$py.test$2|Lookups$py.call_function|PyTableCode.call,0.11090873104354657,0.010099765237983211,0.12100849628152978
Lookups$py.test$7|Lookups$py.call_function|PyTableCode.call,0.1316978250521558,0.009781354060273542,0.14147917911242935
Module.PyCode|Module.compile|imp.compileSource,0.039502226037400376,0.0033645308508606373,0.04286675688826101
Module.compile|imp.compileSource|imp.createFromSource,0.0485733225479744,0.0035399015085863608,0.052113224056560756
NativeLibrary.getFunction|NativeLibrary.getFunction|BaseNativePOSIX.hasMethod,0.05520288889076457,0.005980000000110722,0.061182888890875295
NewInstances$py.test$3|NewInstances$py.call_function|PyTableCode.call,0.0381519880882528,0.005745958352333038,0.04389794644058584
Numbers$py.test$11|Numbers$py.call_function|PyTableCode.call,0.13031016666597375,0.013227499999629798,0.14353766666560355
Numbers$py.test$2|Numbers$py.call_function|PyTableCode.call,0.6070841400553434,0.058193634452286216,0.6652777745076296
Numbers$py.test$5|Numbers$py.call_function|PyTableCode.call,0.06228449999980512,0.0049092187499582,0.06719371874976332
Numbers$py.test$8|Numbers$py.call_function|PyTableCode.call,0.13805399999788884,0.009331875000346674,0.14738587499823552
PackageManager.checkAccess|CachedJarsPackageManager.addZipEntry|CachedJarsPackageManager.getZipPackages,4.796023299297828,0.5623850058692231,5.3584083051670515
ParserFacade.prepBufReader|ParserFacade.prepBufReader|ParserFacade.parse,0.046379706586531816,0.005267662851579352,0.05164736943811117
Pass$PyExposer.<init>|Pass.<clinit>|PythonParser.pass_stmt,0.020071561763850287,0.003299916276403903,0.02337147804025419
ProxyGenerator$ConstantPool$ValueEntry.write|ProxyGenerator$ConstantPool.write|ProxyGenerator.generateClassFile,0.04626466666619914,0.004053333333609367,0.05031799999980851
Py.newInteger|PyInteger.int___add__|PyInteger.__add__,0.02385458333366033,0.0018645833334731935,0.025719166667133524
Py.newLong|PyLong.long___sub__|PyLong.__sub__,0.020350952381877938,0.00200571428563091,0.022356666667508848
Py.unpackSequence|unicodedata$py.get_numeric$3|unicodedata$py.call_function,0.18654389935500676,0.018906779922522855,0.2054506792775296
PyBaseCode.call|PyBaseCode.call|PyFunction.__call__,0.04538216230341918,0.004959363334424071,0.050341525637843255
PyBaseCode.call|PyFunction.__call__|PyMethod.__call__,0.0632953142880329,0.006339428571352203,0.06963474285938509
PyBaseException.<init>|PyBaseExceptionDerived.<init>|PyBaseException$exposed___new__.createOfSubtype,0.013656352610801292,0.001588077792024765,0.015244430402826057
PyClass.__findattr_ex__|PyObject.__getattr__|Lookups$py.test$2,0.06348402842453514,0.003821932877587568,0.06730596130212271
PyComplex$PyExposer.<init>|PyComplex.<clinit>|__builtin__.fillWithBuiltins,0.05701219233704623,0.006319487007420225,0.06333167934446646
PyComplex.coerce|PyComplex.complex___add__|PyComplex.__add__,0.04599856410342723,0.006101538461501686,0.05210010256492892
PyDictionary$PyExposer.<init>|PyDictionary.<clinit>|PySystemState.<init>,0.027517400072208542,0.0032297488387736262,0.030747148910982167
PyDictionary.<init>|Dict$py.test$2|Dict$py.call_function,0.11587850819087668,0.012358238391110714,0.1282367465819874
PyDictionary.__finditem__|PyObject.__getitem__|Dict$py.test$14,0.029472575759317613,0.003834090908970789,0.0333066666682884
PyDictionary.__finditem__|PyObject.__getitem__|Dict$py.test$5,0.02191526492919044,0.0022010794772828967,0.024116344406473336
PyDictionary.__finditem__|PyObject.__getitem__|Dict$py.test$8,0.016749087566914515,0.002059147428584113,0.018808234995498628
PyDictionary.dict___delitem__|PyDictionary.__delitem__|Dict$py.test$14,0.037367037035033315,0.003500000000510934,0.04086703703554425
PyDictionary.dict___setitem__|PyDictionary.__setitem__|Dict$py.test$11,0.07410022308285519,0.0060414708924926026,0.08014169397534779
PyDictionary.dict___setitem__|PyDictionary.__setitem__|Dict$py.test$14,0.07977518518735585,0.011088888889019101,0.09086407407637495
PyDictionary.dict_has_key|PyDictionary$dict_has_key_exposer.__call__|PyObject.__call__,0.05545776094289799,0.006895202019553504,0.06235296296245149
PyException.doRaise|Py.makeException|Py.makeException,0.07100778801826707,0.0055764156348425435,0.07658420365310961
PyException.fillInStackTrace|Throwable.<init>|Exception.<init>,3.4619138395745686,0.322760623445442,3.7846744630200106
PyFile.file___init__|PyFile$exposed___new__.createOfType|PyOverridableNew.new_impl,0.0527989176109449,0.005168870957467651,0.05796778856841255
PyFloat.__sub__|PyObject._basic_sub|PyObject._sub,0.03608183333320388,0.002657499999865346,0.038739333333069226
PyFloat.float___div__|PyFloat.__div__|PyObject._basic_div,0.04254149999906076,0.0042924999997921995,0.04683399999885296
PyFloat.float___hash__|PyFloat.hashCode|ConcurrentHashMap.putVal,0.030963419997074974,0.0029949212457411533,0.033958341242816124
PyFloat.float_new|PyFloat$exposed___new__.new_impl|PyType.invoke_new_,0.08187846464253115,0.008264848485299752,0.0901433131278309
PyFrame.<init>|PyFrame.<init>|PyBaseCode.call,0.18435390562424303,0.018467965988180013,0.20282187161242304
PyFrame.doGetglobal|PyFrame.getglobal|Calls$py.f$28,0.03465783333376748,0.004087500000120295,0.03874533333388777
PyFrame.doGetglobal|PyFrame.getglobal|Calls$py.test$27,0.07232666666580674,0.008799999999610009,0.08112666666541675
PyFrame.doGetglobal|PyFrame.getglobal|site$py.__init__$16,0.012860901734594426,0.0010977616374047313,0.013958663371999157
PyFrame.getlocal|Arithmetic$py.test$11|Arithmetic$py.call_function,0.04796539999758048,0.0036890000001828095,0.05165439999776329
PyFrame.getlocal|Arithmetic$py.test$2|Arithmetic$py.call_function,0.029468974359751418,0.00310192307715158,0.032570897436903
PyFrame.getlocal|Arithmetic$py.test$5|Arithmetic$py.call_function,0.0781402861951205,0.006504696969971607,0.08464498316509211
PyFrame.getlocal|Lists$py.test$2|Lists$py.call_function,0.009724952380305955,0.0010057142856004203,0.010730666665906375
PyFrame.getlocal|Lookups$py.test$7|Lookups$py.call_function,0.02041145769880145,0.0012983285463705435,0.021709786245171996
PyFrame.getlocal|Strings$py.test$2|Strings$py.call_function,0.012067837360553791,0.0011031122007034372,0.01317094956125723
PyFrame.getlocal|Strings$py.test$5|Strings$py.call_function,0.035414318180383736,0.003655227272412793,0.03906954545279653
PyFrame.getlocal|Strings$py.test$8|Strings$py.call_function,0.1653346212646496,0.01567473022042211,0.1810093514850717
PyFrame.setline|Arithmetic$py.test$5|Arithmetic$py.call_function,0.059701606060006074,0.006082500000157972,0.06578410606016405
PyFrame.setline|Constructs$py.test$8|Constructs$py.call_function,0.03347683277248041,0.00291660697653408,0.03639343974901449
PyFrame.setline|Strings$py.test$20|Strings$py.call_function,0.05085191507081576,0.0055890451242302,0.056440960195045964
PyFrame.setline|Strings$py.test$5|Strings$py.call_function,0.05061847619279953,0.006214285714252452,0.056832761907051985
PyFrame.setline|Strings$py.test$8|Strings$py.call_function,0.07464548148283803,0.007260444444168738,0.08190592592700677
PyFrame.setline|Unicode$py.test$5|Unicode$py.call_function,0.025146555554884896,0.0014966666668543539,0.02664322222173925
PyFrame.setline|unicodedata$py.get_codepoint$9|unicodedata$py.call_function,0.09599880769103317,0.00846461538528204,0.1044634230763152
PyFrame.setlocal|Constructs$py.test$8|Constructs$py.call_function,0.04004435733967044,0.0037660182134759577,0.043810375553146395
PyFrame.setlocal|Tuples$py.test$5|Tuples$py.call_function,0.0513712499984346,0.005493749999914144,0.05686499999834874
PyFrame.setlocal|unicodedata$py.check_segments$8|unicodedata$py.call_function,0.07954948571665832,0.006727999999843416,0.08627748571650173
PyFunction.__call__|Calls$py.test$2|Calls$py.call_function,0.0255263111114295,0.0021226666667239946,0.027648977778153495
PyInstance.__findattr_ex__|PyObject.__getattr__|Lookups$py.test$12,0.06356789780034781,0.006548393167247275,0.07011629096759509
PyInstance.ifindlocal|PyInstance.__findattr_ex__|PyObject.__getattr__,0.08125294730753213,0.00784659652815517,0.0890995438356873
PyInteger$PyExposer.<init>|PyInteger.<clinit>|Py.<clinit>,0.019232833332757257,0.001783333333353059,0.021016166666110316
PyInteger.canCoerce|PyInteger.int___floordiv__|PyInteger.__floordiv__,0.05627433333575027,0.0049425000003490505,0.06121683333609932
PyInteger.canCoerce|PyInteger.int___sub__|PyInteger.__sub__,0.021328969698074757,0.002003636363290504,0.023332606061365262
PyInteger.divide|PyInteger.int___div__|PyInteger.__div__,0.1229763185186096,0.010958444444016398,0.133934762962626
PyInteger.int___div__|PyInteger.__div__|PyObject._basic_div,0.01192593939468321,0.0010763636365123657,0.013002303031195575
PyJavaPackage.addPackage|PyJavaPackage.addPackage|PyJavaPackage.addPackage,0.027089649796103496,0.0039636979789657465,0.031053347775069243
PyJavaType.init|PyType.createType|PyType.addFromClass,0.056067361110763166,0.004814166665912328,0.06088152777667549
PyList.<init>|PyList.<init>|Lists$py.test$8,0.032942666664409134,0.0022079999995185057,0.03515066666392764
PyList.getslice|PySequence$1.getSlice|SequenceIndexDelegate.getSlice,0.16376346738750733,0.018108598631157505,0.18187206601866485
PyList.list___len__|PyList.__len__|PySequence$1.len,0.033104543629780415,0.002905155576711761,0.03600969920649218
PyList.list_append|PyList$list_append_exposer.__call__|PyObject.__call__,0.045516296296328716,0.0041166666670943855,0.0496329629634231
PyList.pyget|PySequence$1.getItem|SequenceIndexDelegate.checkIdxAndFindItem,0.19267386542566728,0.017615599643701484,0.21028946506936877
PyList.size|PyList.list___len__|PyList.__len__,0.03744330395252511,0.003135570132849371,0.040578874085374486
PyLong.canCoerce|PyLong.long___sub__|PyLong.__sub__,0.02972223333636065,0.002614499999738958,0.032336733336099606
PyLong.divide|PyLong.long___div__|PyLong.__div__,0.05705139999724147,0.005480999999902753,0.06253239999714423
PyLong.long___mul__|PyLong.__mul__|PyObject._basic_mul,0.05705139999724147,0.005480999999902753,0.06253239999714423
PyLong.long___sub__|PyLong.__sub__|PyObject._basic_sub,0.061403576189228,0.004815714285411689,0.06621929047463969
PyMethod$exposed___new__.<init>|PyMethod$PyExposer.<init>|PyMethod.<clinit>,0.020129725641083642,0.0024972542213010547,0.022626979862384697
PyModule$PyExposer.<init>|PyModule.<clinit>|PySystemState.<init>,0.020129725641083642,0.0024972542213010547,0.022626979862384697
PyObject.<init>|PyFrame.<init>|PyFrame.<init>,0.049679473687367706,0.003856578948072733,0.05353605263544044
PyObject.<init>|PyInteger.<init>|PyInteger.<init>,0.06568099999780175,0.00631211538431951,0.07199311538212126
PyObject.<init>|PyLong.<init>|PyLong.<init>,0.0179384761889066,0.0019457142857607407,0.01988419047466734
PyObject.<init>|PySequence.<init>|PyBaseString.<init>,0.04255313423781807,0.005292071462807828,0.0478452057006259
PyObject.__getattr__|Strings$py.test$17|Strings$py.call_function,0.06761479847508603,0.005371818457722235,0.07298661693280827
PyObject._basic_add|PyObject._add|bisect$py.bisect_left$4,0.06550007692623275,0.006009230769240486,0.07150930769547323
PyObject._basic_div|PyObject._div|Arithmetic$py.test$5,0.028288939394053268,0.0035500000001665094,0.03183893939421978
PyObject._cmp_unsafe|PyObject._gt|Numbers$py.test$5,0.02732278124949516,0.00247359375009637,0.02979637499959153
PyObject._eq|PyObject.equals|PySequence.cmp,0.03429416666828425,0.003671875000084886,0.03796604166836914
PyObject._lt|Numbers$py.test$5|Numbers$py.call_function,0.02010731250084064,0.0013331250000874204,0.02144043750092806
PyObject._lt|Numbers$py.test$8|Numbers$py.call_function,0.08130150000336774,0.00800187499999083,0.08930337500335857
PyObject.getType|PyObject._add|Arithmetic$py.test$5,0.028727333333032824,0.0023599999993974856,0.03108733333243031
PyObject.getType|PyObject._eq|Strings$py.test$8,0.11250844190773066,0.0106371428567772,0.12314558476450785
PyObject.getType|PyObject._ge|Strings$py.test$8,0.04809568000026047,0.004939199999789707,0.053034880000050175
PyObject.getType|PyObject._gt|Numbers$py.test$11,0.04867437036914957,0.004915555555338937,0.0535899259244885
PyObject.isDataDescr|PyObject.object___findattr__|PyObject.__findattr_ex__,0.13572681825278862,0.01083816666664389,0.1465649849194325
PyObject.object___findattr__|PyObject.__findattr_ex__|PyObject.__getattr__,0.08828438836020906,0.008933013898125607,0.09721740225833467
PyObject.object___setattr__|PyObject$object___setattr___exposer.__call__|PyObjectDerived.__setattr__,0.048513854353160885,0.005580989809794347,0.05409484416295523
PyOverridableNew.new_impl|PyType.invoke_new_|PyType.type___call__,0.04083319681863816,0.004522175866443693,0.04535537268508185
PyProperty.<clinit>|__builtin__.fillWithBuiltins|PySystemState$DefaultBuiltinsHolder.fillin,0.04920511373432742,0.004627926994844387,0.053833040729171805
PySequence$1.getItem|SequenceIndexDelegate.checkIdxAndFindItem|PySequence.seq___finditem__,0.05856327794083835,0.003939156081126169,0.06250243402196452
PySequence$1.len|SequenceIndexDelegate.fixindex|SequenceIndexDelegate.checkIdxAndFindItem,0.035784426656870094,0.0038091037007771658,0.03959353035764726
PySequence.<init>|PyBaseString.<init>|PyString.<init>,0.1777126740861408,0.015309090217967941,0.19302176430410875
PySequence.<init>|PySequenceList.<init>|PyTuple.<init>,0.06777437500204543,0.006350000000262904,0.07412437500230834
PySequence.sliceLength|PyTuple.getslice|PySequence$1.getSlice,0.11359962955824013,0.009438268886421101,0.12303789844466123
PySequenceIter.__iternext__|Imports$py.test$5|Imports$py.call_function,0.030781999999211013,0.003989999999248539,0.03477199999845955
PySlot$PyExposer.<init>|PySlot.<clinit>|PyType.createAllSlots,0.02104599982916188,0.002850118867472519,0.0238961186966344
PyString$str_upper_exposer.__call__|PyObject.__call__|Strings$py.test$17,0.06580986871380723,0.005135849903653991,0.07094571861746123
PyString.__tojava__|ArgParser.getArg|ArgParser.getArg,0.061666000003848837,0.005844999999681022,0.06751100000352986
PyString.atoi|PyString.__int__|PyInteger.asPyInteger,0.7096900740636352,0.07261568591046529,0.7823057599741005
PyString.coerce|PyString.str___ge__|PyString.__ge__,0.035481777776860526,0.003917333333649568,0.039399111110510095
PyString.coerce|PyString.str___gt__|PyString.__gt__,0.10252521739601143,0.011055420288660873,0.1135806376846723
PyString.coerce|PyString.str___lt__|PyString.__lt__,0.03507481481345301,0.003731111111442765,0.038805925924895776
PyString.getslice|PySequence$1.getSlice|SequenceIndexDelegate.getSlice,0.03892490196021218,0.0022235294119466328,0.04114843137215881
PyString.getslice|PyUnicode.getslice|PySequence$1.getSlice,0.052018399998390426,0.005468000000109896,0.057486399998500325
PyString.str___add__|PyString.__add__|PyObject._basic_add,0.16412375829498088,0.01752886556585018,0.18165262386083106
PyString.str___gt__|PyString.__gt__|PyObject._gt,0.033486666667765036,0.0030921875001392127,0.03657885416790425
PyString.str_islower|PyString$str_islower_exposer.__call__|PyObject.__call__,0.04865490123082601,0.004665106339375707,0.05332000757020172
PyString.str_isspace|PyString$str_isspace_exposer.__call__|PyObject.__call__,0.0426458767700009,0.0041131970774692175,0.04675907384747012
PyString.str_lower|PyString$str_lower_exposer.__call__|PyObject.__call__,0.06761479847508603,0.005371818457722235,0.07298661693280827
PyString.str_lower|PyUnicode.unicode_lower|PyUnicode$unicode_lower_exposer.__call__,0.11929921994595233,0.011048735999408966,0.1303479559453613
PyString.str_title|PyString$str_title_exposer.__call__|PyObject.__call__,0.1713790667614192,0.015149693744076407,0.1865287605054956
PyString.str_title|PyUnicode.unicode_title|PyUnicode$unicode_title_exposer.__call__,0.13108427452631286,0.012105942668464202,0.14319021719477706
PyString.str_upper|PyString$str_upper_exposer.__call__|PyObject.__call__,0.3713965452353311,0.033386665695172846,0.40478321093050396
PyString.str_upper|PyUnicode.unicode_upper|PyUnicode$unicode_upper_exposer.__call__,0.03732274025291763,0.0035572123587064844,0.04087995261162412
PyStringMap.<init>|PyStringMap.<init>|PyType.instDict,0.04538216230341918,0.004959363334424071,0.050341525637843255
PyStringMap.__finditem__|PyFrame.doGetglobal|PyFrame.getglobal,0.2944006952293815,0.03033281389469899,0.3247335091240805
PyStringMap.__finditem__|PyInstance.ifindlocal|PyInstance.__findattr_ex__,0.03080922222094765,0.0027916666666796012,0.03360088888762725
PyStringMap.__finditem__|PyType.lookup|PyObject.object___findattr__,0.23397188366139376,0.02036520471718818,0.25433708837858193
PyStringMap.__finditem__|PyType.lookup|PyType.type___call__,0.03836637735499479,0.0042302740826374715,0.04259665143763226
PyStringMap.__finditem__|__builtin__.__import__|__builtin__.__import__,0.035979363637814066,0.002981363636288072,0.03896072727410214
PyStringMap.__finditem__|imp.import_next|imp.import_name,0.06864883333428923,0.005180961538056951,0.07382979487234617
PyStringMap.__setitem__|PyClass.__setattr__|Lookups$py.test$2,0.23952588696293892,0.0194029890556525,0.25892887601859144
PyStringMap.__setitem__|PyClass.__setattr__|Lookups$py.test$7,0.06217660474004241,0.004928398382074485,0.0671050031221169
PyStringMap.__setitem__|PyFrame.getLocals|imp.importOne,0.036041166667322,0.00232750000031956,0.03836866666764156
PyStringMap.__setitem__|PyInstance.instance___setattr__|PyInstance.__setattr__,0.1609279809773515,0.01877608845641159,0.1797040694337631
PyStringMap.__setitem__|PyJavaPackage.addPlaceholders|PackageManager.makeJavaPackage,0.031123854737774143,0.002559143790680186,0.03368299852845433
PyStringMap.__setitem__|PyObject.object___setattr__|PyObject.object___setattr__,0.06920925567715315,0.007757813392900583,0.07696706907005374
PySystemState.<clinit>|Class.forName0|Class.forName,0.047225538462113865,0.004587692307839648,0.05181323076995351
PyTableCode.call|PyBaseCode.call|PyFunction.__call__,0.05393466666767684,0.005289999999755914,0.05922466666743275
PyTimeTuple$PyExposer.<init>|PyTimeTuple.<clinit>|Time.classDictInit,0.03679840476252138,0.004616071428678143,0.04141447619119952
PyTuple.<init>|PyTuple.<init>|Calls$py.g$5,0.032907999996192906,0.002142499999536085,0.03505049999572899
PyTuple.<init>|PyTuple.<init>|Calls$py.h$6,0.032907999996192906,0.002142499999536085,0.03505049999572899
PyTuple.<init>|PyTuple.fromArrayNoCopy|PyTuple.getslice,0.030326875000052187,0.0030656249994838922,0.03339249999953608
PyTuple.fromArrayNoCopy|PyTuple.getslice|PySequence$1.getSlice,0.05,0.004535999999886069,0.05453599999988607
PyTuple.getslice|PySequence$1.getSlice|SequenceIndexDelegate.getSlice,0.030326875000052187,0.0030656249994838922,0.03339249999953608
PyTuple.size|PyTuple.tuple___len__|PyTuple.__len__,0.07452640952376116,0.006442142856671819,0.08096855238043298
PyType$MROMergeState.getCandidate|PyType$MROMergeState.noteMerged|PyType.computeMro,0.02104599982916188,0.002850118867472519,0.0238961186966344
PyType.fromClass|PyObject.<init>|AST.<init>,0.08068873818022226,0.011611750102606984,0.09230048828282925
PyType.fromClass|PyObject.<init>|PyDictionary.<init>,0.02552900950456781,0.0024790487911685445,0.028008058295736354
PyType.fromClass|PyObject.<init>|PyFrame.<init>,0.3759387004209627,0.032641478843211905,0.4085801792641746
PyType.fromClass|PyObject.<init>|PyIterator.<init>,0.03744330395252511,0.003135570132849371,0.040578874085374486
PyType.fromClass|PyObject.<init>|PyMethod.<init>,0.02091466666509708,0.0018575000000661626,0.022772166665163244
PyType.init|PyType.createType|PyType.addFromClass,0.01962955555548736,0.0017975000001671203,0.02142705555565448
PyType.invoke_new_|PyType.type___call__|PyType.__call__,0.09699958696258865,0.009747514333119456,0.10674710129570811
PyType.lookup|PyObject.object___findattr__|PyObject.__findattr_ex__,0.0,0.0,0.0
PyType.setupProxy|PyType.newType|PyType.type___new__,0.042538055555875566,0.0034500000007634908,0.045988055556639054
PyUnicode$unicode_splitlines_exposer.<init>|PyUnicode$PyExposer.<init>|PyUnicode.<clinit>,0.0459225108590104,0.005224011679942522,0.05114652253895292
PyUnicode.<init>|PyUnicode.<init>|PyUnicode.unicode___add__,0.04482028954775708,0.00676539196993991,0.05158568151769699
PyUnicode.<init>|PyUnicode.<init>|PyUnicode.unicode_upper,0.03732274025291763,0.0035572123587064844,0.04087995261162412
PyUnicode.unicode___add__|PyUnicode.__add__|PyObject._basic_add,0.10883330672857729,0.013538771957350664,0.12237207868592795
PythonLexer.<clinit>|BaseParser.setupParser|BaseParser.parseModule,0.04124525083223822,0.0054401106525137355,0.046685361484751955
PythonLexer.mEQUAL|PythonLexer.mTokens|PythonLexer.nextToken,0.038980126212496184,0.005200977176892835,0.04418110338938902
PythonLexer.mTRIQUOTE|PythonLexer.mSTRING|PythonLexer.mTokens,0.038980126212496184,0.005200977176892835,0.04418110338938902
PythonParser.<clinit>|BaseParser.setupParser|BaseParser.parseModule,0.02958544847699829,0.0036843466463279016,0.03326979512332619
PythonParser.attr|PythonParser.trailer|PythonParser.power,0.03163039905357009,0.0032619057058122553,0.03489230475938235
PythonParser.classdef|PythonParser.compound_stmt|PythonParser.stmt,0.027461637637403846,0.0044421789237142064,0.03190381656111805
PythonParser.comparison|PythonParser.not_test|PythonParser.and_test,0.02299848646751765,0.0016071340529720385,0.02460562052048969
PythonParser.expr_stmt|PythonParser.small_stmt|PythonParser.simple_stmt,0.08394630224877464,0.008656889373066247,0.09260319162184089
PythonParser.factor|PythonParser.term|PythonParser.arith_expr,0.04081928879261259,0.0068535593487956455,0.047672848141408236
PythonParser.import_as_names|PythonParser.import_from|PythonParser.import_stmt,0.02299848646751765,0.0016071340529720385,0.02460562052048969
PythonParser.subscript|PythonParser.subscriptlist|PythonParser.trailer,0.0344083665494702,0.005249358824086571,0.039657725373556774
PythonParser.testlist_gexp|PythonParser.atom|PythonParser.power,0.05083756998324269,0.009256857312524278,0.060094427295766965
PythonParser.testlist|PythonParser.expr_stmt|PythonParser.small_stmt,0.050982898940320674,0.007416518777448188,0.05839941771776886
PythonParser.trailer|PythonParser.power|PythonParser.factor,0.08408926095386114,0.007515609376303192,0.09160487033016433
PythonTokenSource.enqueueHiddens|PythonTokenSource.enqueue|PythonTokenSource.insertImaginaryIndentDedentTokens,0.035372287977678926,0.005324639146144705,0.04069692712382363
ReflectionFactory.copyMethod|Class.searchMethods|Class.privateGetMethodRecursive,0.02366320301700367,0.002889448687416129,0.0265526517044198
Resource.getBytes|URLClassLoader.defineClass|URLClassLoader.access$100,0.2941855085801581,0.034450678635365876,0.32863618721552396
ScopesCompiler.beginScope|ScopesCompiler.visitClassDef|ClassDef.accept,0.0485733225479744,0.0035399015085863608,0.052113224056560756
SequenceIndexDelegate.checkIdxAndSetItem|PySequence.seq___setitem__|PySequence.__setitem__,0.04244203703786263,0.004966666666506272,0.04740870370436891
SequenceIndexDelegate.fixindex|SequenceIndexDelegate.checkIdxAndFindItem|PySequence.seq___finditem__,0.030177256328686095,0.004590277952508714,0.034767534281194806
StreamIO.isatty|BufferedIOMixin.isatty|TextIOBase.isatty,0.024593864015338227,0.0033794157060898404,0.027973279721428067
StringUtil.fromBytes|StringUtil.fromBytes|BinaryIOWrapper.readall,0.10196876340635527,0.0088395006890032,0.11080826409535847
Strings$py.test$11|Strings$py.call_function|PyTableCode.call,0.13627338806092498,0.016204038275790013,0.152477426336715
Strings$py.test$14|Strings$py.call_function|PyTableCode.call,0.04877342194021018,0.006165189208266161,0.05493861114847634
Strings$py.test$17|Strings$py.call_function|PyTableCode.call,0.06898081905963048,0.00667565758428691,0.07565647664391739
Strings$py.test$20|Strings$py.call_function|PyTableCode.call,0.13281997261448308,0.014810451599279361,0.14763042421376243
Strings$py.test$2|Strings$py.call_function|PyTableCode.call,0.03864433528307469,0.004328742638465924,0.04297307792154061
Strings$py.test$5|Strings$py.call_function|PyTableCode.call,0.9131518954691735,0.10144442821116453,1.0145963236803381
Strings$py.test$8|Strings$py.call_function|PyTableCode.call,2.31957869027031,0.23249834304871028,2.5520770333190206
ThreadCoreMapInjector.transform|TransformerManager.transform|InstrumentationImpl.transform,0.04112773560786695,0.005830147078057975,0.04695788268592493
ThreadStateMapping.getThreadState|Py.getThreadState|Py.getThreadState,0.19722944494504274,0.01727901785820796,0.2145084628032507
Time.classDictInit|NativeMethodAccessorImpl.invoke0|NativeMethodAccessorImpl.invoke,0.04288899999872748,0.0053664285721121505,0.04825542857083963
TryExcept.<init>|GrammarActions.makeTryExcept|PythonParser.try_stmt,0.030803716734196775,0.0025603594325575548,0.03336407616675433
Tuple$PyExposer.<init>|Tuple.<clinit>|PythonParser.testlist_gexp,0.0204734954845272,0.0034766313087016888,0.02395012679322889
Tuples$py.test$2|Tuples$py.call_function|PyTableCode.call,0.12445006746194762,0.009987249564622434,0.13443731702657005
Tuples$py.test$5|Tuples$py.call_function|PyTableCode.call,0.39649443333376744,0.0420525000012276,0.43854693333499506
URLClassPath$JarLoader.getResource|URLClassPath.getResource|URLClassLoader$1.run,0.04914919460711171,0.005672487687801006,0.054821682294912716
URLClassPath.getLoader|URLClassPath.getNextLoader|URLClassPath.getResource,0.023699414254977274,0.002885603905728704,0.026585018160705978
UTF_8$Decoder.decode|ZipCoder.toString|ZipFile.getZipEntry,0.0369446468663838,0.003512564925165987,0.04045721179154979
Unicode$py.test$11|Unicode$py.call_function|PyTableCode.call,0.056786933331750326,0.00563599999974637,0.0624229333314967
Unicode$py.test$17|Unicode$py.call_function|PyTableCode.call,0.07466179487267091,0.007862884615044608,0.08252467948771552
Unicode$py.test$20|Unicode$py.call_function|PyTableCode.call,0.4222306849875314,0.037602137954000234,0.45983282294153166
Unicode$py.test$2|Unicode$py.call_function|PyTableCode.call,0.06701554842074461,0.008996799296314082,0.0760123477170587
Unicode$py.test$5|Unicode$py.call_function|PyTableCode.call,0.473623482305128,0.03728368087160619,0.5109071631767342
Unicode$py.test$8|Unicode$py.call_function|PyTableCode.call,0.06468903340302883,0.007049623571506796,0.07173865697453562
Utf8Info.<init>|ConstPool.readOne|ConstPool.read,0.10855806414762904,0.012685343785386032,0.12124340793301508
WrappedIterIterator.getNext|PyObject$1$1.next|PyObject$1$1.next,0.05,0.004535999999886069,0.05453599999988607
__builtin__.__import__|__builtin__.__import__|imp.importOne,0.024759833332306396,0.001972500000192668,0.026732333332499063
__builtin__.fillWithBuiltins|PySystemState$DefaultBuiltinsHolder.fillin|PySystemState$DefaultBuiltinsHolder.<clinit>,0.028948524692738106,0.003135689243704629,0.032084213936442736
exceptions.classDictInit|NativeMethodAccessorImpl.invoke0|NativeMethodAccessorImpl.invoke,0.03060990718899556,0.0033046582682634967,0.03391456545725906
imp.import_name|imp.importName|ImportFunction.__call__,0.052518512821130264,0.004998636363794791,0.05751714918492506
imp.import_next|imp.import_logic|imp.import_name,0.1113549090908582,0.011294825174172091,0.12264973426503029
imp.import_next|imp.import_name|imp.importName,0.1665078484839989,0.017074999998592168,0.18358284848259107
unicodedata$py.check_segments$8|unicodedata$py.call_function|PyTableCode.call,0.05431099999987055,0.005234999999932673,0.05954599999980323
unicodedata$py.init_unicodedata$4|unicodedata$py.call_function|PyTableCode.call,0.1858968371255172,0.014560028448947375,0.20045686557446457
