method,package1,package2,dram1,dram2,energy
,8.939113735884536,2.979865019785721,0.8882412557858916,0.4149724413419473,13.222192452798094
javassist,0.0,0.01812339999984639,0.0,0.0017020000000532796,0.01982539999989967
javassist.bytecode,0.0,0.07293024899305868,0.0,0.007763335856925373,0.08069358484998405
org.antlr.runtime,0.0,0.14412733962468172,0.0,0.021630191970561218,0.16575753159524292
org.apache.commons.cli,0.0,0.0,0.0,0.0,0.0
org.dacapo.harness,0.0,0.1848143333336338,0.0,0.02335499999996197,0.20816933333359577
org.objectweb.asm,0.0,0.1565852572340251,0.0,0.02073652672087571,0.17732178395490084
org.python.antlr,0.014664138275100762,0.9881728415671543,0.0017984697561452593,0.14807017687689172,1.1527056264752922
org.python.antlr.ast,0.0,0.3756181846131281,0.0,0.054031592689375234,0.42964977730250337
org.python.compiler,0.0,0.1239694260759455,0.0,0.015314294903093013,0.13928372097903852
org.python.core,5.885371515103932,1.0853834281708827,0.5902189412358405,0.14320633495331925,7.704180219463975
org.python.core.packagecache,0.05697633333087045,0.0,0.007400000000416185,0.0,0.06437633333128664
org.python.modules.zipimport,0.0,0.04357952635263613,0.0,0.007612195039383178,0.05119172139201931
sun.nio.cs,0.01616702381094607,0.09165433333449376,0.0018785714287549208,0.010900000000522898,0.12059992857471764
sun.reflect,0.0749660731703554,0.03815933333007032,0.008584024390562795,0.005176111111217728,0.12688554200220625
