method,package1,package2,dram1,dram2,energy
ANTLRStringStream.substring|CommonToken.getText|PythonTokenSource.insertImaginaryIndentDedentTokens,0.0,0.06819852008171899,0.0,0.009224669874255308,0.0774231899559743
ArgParser.getList|PyBaseException.BaseException___init__|PyBaseException$BaseException___init___exposer.__call__,0.04231750512071994,0.0,0.0045740304969290255,0.0,0.046891535617648965
Arithmetic$py.test$11|Arithmetic$py.call_function|PyTableCode.call,0.13217766169197576,0.0,0.015426627486121926,0.0,0.14760428917809768
Arithmetic$py.test$14|Arithmetic$py.call_function|PyTableCode.call,0.4822796405464735,0.0,0.04620194770385476,0.0,0.5284815882503282
Arithmetic$py.test$2|Arithmetic$py.call_function|PyTableCode.call,0.9319050065410581,0.0,0.07812858115885854,0.0,1.0100335876999167
Arithmetic$py.test$5|Arithmetic$py.call_function|PyTableCode.call,0.8739736602663266,0.0,0.09052558637294052,0.0,0.9644992466392671
Arithmetic$py.test$8|Arithmetic$py.call_function|PyTableCode.call,0.6105080279899885,0.0,0.0598022412219509,0.0,0.6703102692119394
BaseParser.setupParser|BaseParser.parseModule|CompileMode$3.dispatch,0.0,0.4561654124010939,0.0,0.07426312253029617,0.5304285349313901
Benchmark.unpackZipStream|Benchmark.unpackZipFileResource|Benchmark.prepare,0.0,0.1848143333336338,0.0,0.02335499999996197,0.20816933333359577
CachedJarsPackageManager.addZipEntry|CachedJarsPackageManager.getZipPackages|CachedJarsPackageManager.addJarToPackages,0.05697633333087045,0.0,0.007400000000416185,0.0,0.06437633333128664
Calls$py.test$13|Calls$py.call_function|PyTableCode.call,0.05241222222199818,0.019751456808599837,0.004939166666291486,0.0019458946311675211,0.07904874032805703
Calls$py.test$16|Calls$py.call_function|PyTableCode.call,0.024063373033199442,0.0,0.002834831377643625,0.0,0.026898204410843066
Calls$py.test$2|Calls$py.call_function|PyTableCode.call,0.07094211215458411,0.0,0.0059395839593304346,0.0,0.07688169611391454
ClassFile.addMethod|Module.PyCode|Module.compile,0.0,0.06871324561530479,0.0,0.007668651561397406,0.07638189717670218
ClassPool.getDefault|ThreadCoreMapInjector.transform|TransformerManager.transform,0.0,0.01812339999984639,0.0,0.0017020000000532796,0.01982539999989967
ClassReader.accept|ClassReader.accept|AnnotationReader.<init>,0.0,0.045012644442936615,0.0,0.005548666666840695,0.05056131110977731
ClassWriter.visitMethod|ClassFile.addMethod|Module.PyCode,0.0,0.03370763383998433,0.0,0.005868080111198517,0.03957571395118285
CommonTokenStream.skipOffTokenChannels|CommonTokenStream.consume|BaseRecognizer.match,0.0,0.07592881954296274,0.0,0.01240552209630591,0.08833434163926865
CompilerFlags.isFlagSet|PyFrame.<init>|PyFrame.<init>,0.03347452084236373,0.0,0.002965354910385327,0.0,0.036439875752749054
ConstPool.readOne|ConstPool.read|ConstPool.<init>,0.0,0.07293024899305868,0.0,0.007763335856925373,0.08069358484998405
Constructs$py.test$2|Constructs$py.call_function|PyTableCode.call,0.1486855455732113,0.0,0.013314350690095128,0.0,0.1619998962633064
Constructs$py.test$5|Constructs$py.call_function|PyTableCode.call,0.11358188085877433,0.0,0.011361850547271311,0.0,0.12494373140604564
Constructs$py.test$8|Constructs$py.call_function|PyTableCode.call,0.09772460962070798,0.0,0.010653488801461459,0.0,0.10837809842216943
Delete$PyExposer.<init>|Delete.<clinit>|PythonParser.del_stmt,0.0,0.04453786139499368,0.0,0.007684257178254994,0.052222118573248676
Dict$py.test$11|Dict$py.call_function|PyTableCode.call,0.12883118044640485,0.0,0.013290616403531814,0.0,0.14212179684993667
Dict$py.test$14|Dict$py.call_function|PyTableCode.call,0.09248452758313472,0.0,0.007811652997215652,0.0,0.10029618058035036
Dict$py.test$2|Dict$py.call_function|PyTableCode.call,0.16032105779398495,0.0,0.024093651467690914,0.0,0.18441470926167586
Dict$py.test$5|Dict$py.call_function|PyTableCode.call,0.07134031990670159,0.0,0.007522680885353201,0.0,0.07886300079205479
Dict$py.test$8|Dict$py.call_function|PyTableCode.call,0.06625898352115414,0.0,0.00710445736590848,0.0,0.07336344088706262
Exceptions$py.test$2|Exceptions$py.call_function|PyTableCode.call,0.1871805112571125,0.0,0.01554012085690655,0.0,0.20272063211401903
Exceptions$py.test$5|Exceptions$py.call_function|PyTableCode.call,0.18006029270695942,0.0,0.012247782626487284,0.0,0.1923080753334467
For$PyExposer.<init>|For.<clinit>|GrammarActions.makeFor,0.0,0.04279827197919304,0.0,0.005518981544657311,0.04831725352385035
Frame.a|MethodWriter.visitMaxs|Code.visitMaxs,0.0,0.07786497895110417,0.0,0.009319779942836498,0.08718475889394067
GrammarActions.castExprs|GrammarActions.castExprs|PythonParser.trailer,0.0,0.09902005463588216,0.0,0.012107336062034055,0.11112739069791622
GrammarActions.makeArgumentsType|PythonParser.varargslist|PythonParser.parameters,0.0,0.04453786139499368,0.0,0.007684257178254994,0.052222118573248676
GrammarActions.makeKeywords|PythonParser.trailer|PythonParser.power,0.0,0.03211829012684623,0.0,0.005565480371643746,0.03768377049848998
IfExp$PyExposer.<init>|IfExp.<clinit>|PythonParser.test,0.0,0.06570859141197198,0.0,0.009252760782899223,0.07496135219487121
ImportFunction.__call__|PyObject.__call__|__builtin__.__import__,0.01772572179390006,0.0,0.0019535339480599755,0.0,0.019679255741960035
Imports$py.test$5|Imports$py.call_function|PyTableCode.call,0.034776925847487025,0.0,0.003651562780285028,0.0,0.03842848862777205
Instances$py.test$2|Instances$py.call_function|PyTableCode.call,0.04569729411741719,0.0,0.0037623529411468883,0.0,0.04945964705856408
JavaImportHelper.buildLoadedPackages|JavaImportHelper.tryAddPackage|imp.import_next,0.0,0.05063096780147737,0.0,0.004758712817837434,0.055389680619314804
Lists$py.test$2|Lists$py.call_function|PyTableCode.call,0.6406011127250352,0.0,0.0645684255665341,0.0,0.7051695382915693
Lists$py.test$8|Lists$py.call_function|PyTableCode.call,0.3151816797027574,0.0,0.02955583221488111,0.0,0.3447375119176385
Lookups$py.test$12|Lookups$py.call_function|PyTableCode.call,0.2688687516763887,0.0,0.027008846456098284,0.0,0.295877598132487
Lookups$py.test$17|Lookups$py.call_function|PyTableCode.call,0.2419511603589853,0.0,0.021985879306920888,0.0,0.2639370396659062
Lookups$py.test$22|Lookups$py.call_function|PyTableCode.call,0.0,0.13806606485249487,0.0,0.012900808639090775,0.15096687349158563
Lookups$py.test$2|Lookups$py.call_function|PyTableCode.call,0.29280959062445366,0.0,0.03165678921060879,0.0,0.32446637983506244
Lookups$py.test$7|Lookups$py.call_function|PyTableCode.call,0.20685263289801073,0.0,0.022687490570702885,0.0,0.2295401234687136
Numbers$py.test$11|Numbers$py.call_function|PyTableCode.call,0.0,0.12362195186804403,0.0,0.01757559491283097,0.141197546780875
Numbers$py.test$2|Numbers$py.call_function|PyTableCode.call,0.0,0.18044258011996145,0.0,0.02962438566584446,0.21006696578580591
Numbers$py.test$5|Numbers$py.call_function|PyTableCode.call,0.0,0.17422823473535645,0.0,0.01578790027493468,0.19001613501029113
Numbers$py.test$8|Numbers$py.call_function|PyTableCode.call,0.0,0.02950134876387705,0.0,0.0029233155734096853,0.03242466433728673
OptionValidator.isValidChar|OptionValidator.isValidOpt|OptionValidator.validateOption,0.0,0.0,0.0,0.0,0.0
Py.getThreadState|Py.getThreadState|Py.getSystemState,0.0490296086950013,0.0,0.004669416888421015,0.0,0.053699025583422315
Py.initClassExceptions|PySystemState.doInitialize|PySystemState.initialize,0.0,0.03481628571171313,0.0,0.005395714285571427,0.04021199999728456
PyBaseCode.call|PyBaseCode.call|PyFunction.__call__,0.045797323571960244,0.0,0.005067325818793269,0.0,0.05086464939075351
PyBaseCode.call|PyFunction.__call__|PyMethod.__call__,0.07357848958402731,0.0,0.005774218749934335,0.0,0.07935270833396164
PyBaseCode.call|PyFunction.__call__|unicodedata$py.get$11,0.01914062222155432,0.0,0.003138666666604371,0.0,0.02227928888815869
PyBaseException$PyExposer.<init>|PyBaseException.<clinit>|exceptions.classDictInit,0.0,0.02528672222332615,0.0,0.0031655555555213746,0.028452277778847526
PyBaseException$exposed___new__.createOfSubtype|PyOverridableNew.new_impl|PyType.invoke_new_,0.0,0.028554296297241107,0.0,0.003686666666672628,0.03224096296391373
PyClass.lookup|PyClass.__findattr_ex__|PyObject.__getattr__,0.023342798619303527,0.0,0.002431921036181541,0.0,0.025774719655485067
PyComplex.<init>|PyComplex.<init>|PyComplex._mul,0.054665777775355515,0.0,0.005949333333410322,0.0,0.060615111108765836
PyComplex._div|PyComplex.complex___div__|PyComplex.__div__,0.08648108239413488,0.0,0.00688684198128435,0.0,0.09336792437541923
PyDictionary$dict_has_key_exposer.bind|PyMethodDescr.method_descriptor___get__|PyMethodDescr.__get__,0.0,0.008330285737417188,0.0,0.0010867634589035698,0.009417049196320759
PyDictionary.<init>|Dict$py.test$2|Dict$py.call_function,0.02230362990976684,0.0,0.0030247018931559184,0.0,0.02532833180292276
PyDictionary.__finditem__|PyObject.__getitem__|Dict$py.test$8,0.03048929410174985,0.0,0.003303247048440601,0.0,0.03379254115019045
PyDictionary.dict___setitem__|PyDictionary.__setitem__|Dict$py.test$8,0.030126301226620224,0.0,0.0035704897342238506,0.0,0.033696790960844075
PyDictionary.dict_get|PyDictionary$dict_get_exposer.__call__|PyObject.__call__,0.0292598787875084,0.0,0.003381818181492925,0.0,0.03264169696900132
PyEnumerate$PyExposer.<init>|PyEnumerate.<clinit>|__builtin__.fillWithBuiltins,0.0,0.013974142858170948,0.0,0.0022435714286291927,0.01621771428680014
PyFastSequenceIter.__iternext__|Constructs$py.test$5|Constructs$py.call_function,0.045204748094072864,0.0,0.0039877350180195096,0.0,0.04919248311209237
PyFloat.<init>|PyFloat.<init>|PyFloat.float___add__,0.02798170698372337,0.0,0.0025284415502437657,0.0,0.030510148533967135
PyFloat.float___add__|PyFloat.__add__|PyObject._basic_add,0.035095290684982725,0.0,0.002681044050014029,0.0,0.03777633473499675
PyFloat.float___cmp__|PyFloat.__cmp__|PyObject._try__cmp__,0.0,0.009800517006593495,0.0,0.0009404081632173303,0.010740925169810825
PyFrame.<init>|PyFrame.<init>|PyBaseCode.call,0.2497802970232888,0.0,0.025970008896504568,0.0,0.2757503059197934
PyFrame.getglobal|Tuples$py.test$5|Tuples$py.call_function,0.06076618428028415,0.0,0.007685680601179852,0.0,0.068451864881464
PyFrame.getglobal|unicodedata$py.get$11|unicodedata$py.call_function,0.0442930909092397,0.0,0.004703636363212188,0.0,0.048996727272451884
PyFrame.getglobal|unicodedata$py.get_codepoint$9|unicodedata$py.call_function,0.04814642835078621,0.0,0.005389780612774238,0.0,0.05353620896356045
PyFrame.getlocal|Arithmetic$py.test$11|Arithmetic$py.call_function,0.056215662787750184,0.0,0.0057485053139302925,0.0,0.06196416810168048
PyFrame.getlocal|Arithmetic$py.test$14|Arithmetic$py.call_function,0.0481258084068696,0.0,0.003756048997134136,0.0,0.05188185740400374
PyFrame.getlocal|Arithmetic$py.test$2|Arithmetic$py.call_function,0.03790157001745436,0.0,0.0047635002974576205,0.0,0.04266507031491198
PyFrame.getlocal|Arithmetic$py.test$5|Arithmetic$py.call_function,0.1078828600045815,0.0,0.008411219183607998,0.0,0.1162940791881895
PyFrame.getlocal|Arithmetic$py.test$8|Arithmetic$py.call_function,0.06969409143984773,0.0,0.007612829555855237,0.0,0.07730692099570297
PyFrame.getlocal|Calls$py.k$20|Calls$py.call_function,0.020127663025531227,0.0,0.002769154594702697,0.0,0.022896817620233923
PyFrame.getlocal|Lookups$py.test$17|Lookups$py.call_function,0.029137721866805664,0.0,0.0025526631372199864,0.0,0.03169038500402565
PyFrame.getlocal|Lookups$py.test$2|Lookups$py.call_function,0.042010980021140204,0.0,0.003988276491005945,0.0,0.04599925651214615
PyFrame.getlocal|Strings$py.test$11|Strings$py.call_function,0.06094108454209704,0.0,0.0050740662508853025,0.0,0.06601515079298234
PyFrame.getlocal|Strings$py.test$2|Strings$py.call_function,0.0,0.045180239122889716,0.0,0.0075484933333936355,0.05272873245628335
PyFrame.getlocal|Strings$py.test$8|Strings$py.call_function,0.0,0.0681588940700505,0.0,0.010279715685108598,0.07843860975515911
PyFrame.getlocal|Unicode$py.test$2|Unicode$py.call_function,0.02900771929840598,0.0,0.003534210526387987,0.0,0.032541929824793966
PyFrame.getlocal|Unicode$py.test$5|Unicode$py.call_function,0.0,0.02061616723142313,0.0,0.0029885451093292826,0.023604712340752412
PyFrame.getlocal|unicodedata$py.mirrored$19|unicodedata$py.call_function,0.03005890908940328,0.0,0.0039472727274352856,0.0,0.034006181816838565
PyFrame.setline|Arithmetic$py.test$5|Arithmetic$py.call_function,0.03827101494398096,0.0,0.003316470345944017,0.0,0.04158748528992498
PyFrame.setline|Constructs$py.test$8|Constructs$py.call_function,0.018788755070992397,0.0,0.001363550571460389,0.0,0.020152305642452784
PyFrame.setline|Dict$py.test$14|Dict$py.call_function,0.09159402114785178,0.0,0.009653341815624024,0.0,0.1012473629634758
PyFrame.setlocal|Arithmetic$py.test$14|Arithmetic$py.call_function,0.054665777775355515,0.0,0.005949333333410322,0.0,0.060615111108765836
PyFrame.setlocal|Constructs$py.test$5|Constructs$py.call_function,0.026790952184395603,0.0,0.002650086570657833,0.0,0.029441038755053436
PyFrame.setlocal|Dict$py.test$2|Dict$py.call_function,0.02552738776586616,0.0,0.00408378401688561,0.0,0.029611171782751772
PyFrame.setlocal|Lookups$py.test$2|Lookups$py.call_function,0.06873227891666693,0.0,0.007419886037665373,0.0,0.0761521649543323
PyFrame.setlocal|Strings$py.test$11|Strings$py.call_function,0.11876939583529142,0.0,0.009894843749520987,0.0,0.1286642395848124
PyFrame.setlocal|Tuples$py.test$5|Tuples$py.call_function,0.1207153431939787,0.0,0.012384092444039548,0.0,0.13309943563801824
PyFrame.setlocal|Unicode$py.test$8|Unicode$py.call_function,0.05405649630365937,0.0,0.006233436997493172,0.0,0.060289933301152544
PyFrame.setlocal|bisect$py.bisect_left$4|bisect$py.call_function,0.01930181818104095,0.0,0.0020345454549621513,0.0,0.0213363636360031
PyFunction.__call__|Calls$py.test$2|Calls$py.call_function,0.05406980634809943,0.0,0.004935369477021794,0.0,0.05900517582512122
PyInteger.divide|PyInteger.int___div__|PyInteger.__div__,0.17095320042227238,0.0,0.017837557508771803,0.0,0.1887907579310442
PyJavaType.init|PyType.createType|PyType.addFromClass,0.0,0.09605932593015193,0.0,0.01141211230712345,0.10747143823727538
PyList$PyExposer.<init>|PyList.<clinit>|PySystemState.<clinit>,0.0,0.058706461541497924,0.0,0.006720000000010865,0.06542646154150879
PyList$list_append_exposer.__call__|PyObject.__call__|Lists$py.test$2,0.11147610030790842,0.0,0.012366910794285393,0.0,0.12384301110219381
PyList.<init>|PyList.<init>|__builtin__.range,0.011647541666510126,0.0,0.001187500000014552,0.0,0.012835041666524678
PyList.<init>|PyList.fromList|PyList.getslice,0.02784191968757997,0.0,0.002913416268539656,0.0,0.030755335956119623
PyList.list___len__|PyList.__len__|Constructs$py.test$5,0.06068951211521547,0.0,0.005527455147636848,0.0,0.06621696726285231
PyList.list___len__|PyList.__len__|PySequence$1.len,0.10295667650591875,0.0,0.009754127182173966,0.0,0.11271080368809272
PyList.list___len__|PyList.__len__|__builtin__.len,0.016998901960951298,0.0,0.0022364705880903,0.0,0.019235372549041597
PyList.pyget|PySequence$1.getItem|SequenceIndexDelegate.checkIdxAndFindItem,0.12766776728594503,0.0,0.013090190181170976,0.0,0.140757957467116
PyLong$PyExposer.<init>|PyLong.<clinit>|__builtin__.fillWithBuiltins,0.0,0.01971000000256546,0.0,0.0023849999999713744,0.022095000002536835
PyLong.canCoerce|PyLong.long___cmp__|PyLong.__cmp__,0.0,0.03027018648830664,0.0,0.004647660807098748,0.03491784729540539
PyObject$1.<init>|PyObject.asIterable|MinFunction.min,0.0749660731703554,0.0,0.008584024390562795,0.0,0.0835500975609182
PyObject.<init>|PyInstance.<init>|PyInstance.<init>,0.038028588236021975,0.0,0.003164117646948024,0.0,0.04119270588297
PyObject.__call__|PyObject.__call__|unicodedata$py.get_numeric$3,0.0,0.012557996272403999,0.0,0.002002000190562927,0.014559996462966926
PyObject.__getitem__|Dict$py.test$14|Dict$py.call_function,0.01460310707949285,0.0,0.001696517604126172,0.0,0.01629962468361902
PyObject.__lt__|PyObject._lt|Numbers$py.test$2,0.0,0.02288375086010291,0.0,0.003568726998901465,0.026452477859004377
PyObject.__lt__|PyObject._lt|Numbers$py.test$8,0.0,0.009500861565345664,0.0,0.0009787419426250878,0.010479603507970751
PyObject._basic_sub|PyObject._sub|Arithmetic$py.test$2,0.053982262727561896,0.0,0.0037893274833191797,0.0,0.057771590210881074
PyObject._cmpeq_unsafe|PyObject._eq|Constructs$py.test$2,0.02831804125574306,0.0,0.002507074136528865,0.0,0.030825115392271927
PyObject._cmp|__builtin__.cmp|BuiltinFunctions.__call__,0.0,0.019550865025016927,0.0,0.0017688762070057176,0.021319741232022644
PyObject._div|Arithmetic$py.test$5|Arithmetic$py.call_function,0.04632219642481188,0.0,0.004755162744119175,0.0,0.05107735916893106
PyObject._eq|Numbers$py.test$11|Numbers$py.call_function,0.0,0.03027018648830664,0.0,0.004647660807098748,0.03491784729540539
PyObject._eq|unicodedata$py.get_codepoint$9|unicodedata$py.call_function,0.01210172549027073,0.0,0.0014117647058846355,0.0,0.013513490196155364
PyObject._gt|Numbers$py.test$5|Numbers$py.call_function,0.0,0.0214092094165621,0.0,0.0019244242648968368,0.023333633681458937
PyObject._gt|Numbers$py.test$8|Numbers$py.call_function,0.0,0.015072954658881046,0.0,0.0016493862471305106,0.016722340906011556
PyObject._lt|Numbers$py.test$5|Numbers$py.call_function,0.0,0.0214092094165621,0.0,0.0019244242648968368,0.023333633681458937
PyObject.getType|PyObject._sub|unicodedata$py.check_segments$8,0.017290901961078978,0.0,0.0022282352943233594,0.0,0.019519137255402337
PyObject.object___findattr__|PyObject.__findattr_ex__|PyObject.__getattr__,0.0,0.007285715391553994,0.0,0.0006400965038434941,0.007925811895397488
PyObjectDerived.<init>|PyObject$exposed___new__.createOfSubtype|PyOverridableNew.new_impl,0.036415999998217034,0.0,0.00271652173925785,0.0,0.03913252173747488
PySequence$1.len|SequenceIndexDelegate.fixindex|SequenceIndexDelegate.checkIdx,0.044563711202392116,0.0,0.0053981450333859225,0.0,0.049961856235778035
PySequence$1.setItem|SequenceIndexDelegate.checkIdxAndSetItem|SequenceIndexDelegate.checkIdxAndSetItem,0.05204486456444237,0.0,0.00552704090535839,0.0,0.05757190546980076
PySequence.cmp|PySequence.seq___lt__|PySequence.__lt__,0.062479038460878634,0.0,0.005547115385455142,0.0,0.06802615384633377
PySequence.seq___finditem__|PyFastSequenceIter.__iternext__|Constructs$py.test$8,0.016623765139857694,0.0,0.0017132574168102824,0.0,0.018337022556667977
PySequence.sliceLength|PyTuple.getslice|PySequence$1.getSlice,0.06269004387931094,0.0,0.006415559195643468,0.0,0.06910560307495442
PySlice.indicesEx|SequenceIndexDelegate.getSlice|PySequence.seq___getslice__,0.053052570855997835,0.0,0.004514742792376424,0.0,0.05756731364837426
PyString$str_isalnum_exposer.bind|PyMethodDescr.method_descriptor___get__|PyMethodDescr.__get__,0.043272441299049384,0.0,0.005938883839632142,0.0,0.049211325138681525
PyString.<init>|PyString.<init>|PyString.createInstance,0.031490043932524414,0.0,0.0025183153848820808,0.0,0.03400835931740649
PyString.str___add__|PyString.__add__|PyObject._basic_add,0.13346717961406696,0.0,0.012515531657790041,0.0,0.145982711271857
PyString.str_isupper|PyUnicode.unicode_isupper|PyUnicode$unicode_isupper_exposer.__call__,0.08267349130289127,0.0,0.007820799807420864,0.0,0.09049429111031214
PyString.str_partition|PyString$str_partition_exposer.__call__|PyObject.__call__,0.0,0.01734122063019338,0.0,0.0021906042986510684,0.01953182492884445
PyString.str_title|PyString$str_title_exposer.__call__|PyObject.__call__,0.08668937745513683,0.0,0.007521607331308368,0.0,0.0942109847864452
PyString.str_title|PyUnicode.unicode_title|PyUnicode$unicode_title_exposer.__call__,0.054058809518007206,0.0,0.003880258179567524,0.0,0.05793906769757473
PyString.toString|PyString.coerce|PyString.str___lt__,0.0,0.01573441275649827,0.0,0.0021786443808470566,0.017913057137345326
PyStringMap.__finditem__|PyFrame.doGetglobal|PyFrame.getglobal,0.24336304932820127,0.0,0.02428208747949922,0.0,0.26764513680770047
PyStringMap.__finditem__|PyType.lookup|PyBaseExceptionDerived.dispatch__init__,0.0,0.034371565030544886,0.0,0.006045002725807743,0.04041656775635263
PyStringMap.__finditem__|PyType.lookup|PyObject.object___findattr__,0.0,0.02669008054631284,0.0,0.002426951391507374,0.029117031937820215
PyStringMap.__finditem__|PyType.lookup|PyObject.object___setattr__,0.06961901449139457,0.0,0.006758260869664018,0.0,0.0763772753610586
PyStringMap.__finditem__|imp.import_next|imp.import_logic,0.035272712462763686,0.0,0.0038723664085424047,0.0,0.03914507887130609
PyStringMap.__finditem__|imp.import_next|imp.import_name,0.041466169875511806,0.0,0.004158590889202765,0.0,0.04562476076471457
PySystemState$DefaultBuiltinsHolder.fillin|PySystemState$DefaultBuiltinsHolder.<clinit>|PySystemState.getDefaultBuiltins,0.0,0.012404666666129958,0.0,0.002192142857113919,0.014596809523243878
PySystemState.initStaticFields|PySystemState.doInitialize|PySystemState.initialize,0.0,0.028432187500584405,0.0,0.0034124999998160392,0.03184468750040045
PyTableCode.call|PyBaseCode.call|PyFunction.__call__,0.045724043989364305,0.0,0.005924789445655634,0.0,0.05164883343501994
PyTuple.<init>|PyTuple.<init>|ArgParser.getList,0.08723261114315012,0.0,0.008385011851386754,0.0,0.09561762299453687
PyTuple.<init>|PyTuple.<init>|Tuples$py.test$5,0.056445053114283515,0.0,0.006869746846863991,0.0,0.0633147999611475
PyTuple.<init>|PyTuple.<init>|unicodedata$py.init_unicodedata$4,0.0,0.026009731598682008,0.0,0.004798942856184069,0.030808674454866077
PyTuple.<init>|PyTuple.fromArrayNoCopy|PyTuple.getslice,0.14987878694684836,0.0,0.016372374226074557,0.0,0.16625116117292293
PyTuple.<init>|Tuples$py.test$5|Tuples$py.call_function,0.08868411760189228,0.0,0.009196374602497151,0.0,0.09788049220438944
PyTuple.getslice|PySequence$1.getSlice|SequenceIndexDelegate.getSlice,0.05307880176563262,0.0,0.004741295378486892,0.0,0.057820097144119516
PyType.createType|PyType.addFromClass|PyType.fromClass,0.0,0.02348528985538101,0.0,0.002527173912998135,0.026012463768379145
PyType.fromClass|PyObject.<init>|AST.<init>,0.0,0.08255365691632972,0.0,0.012275653340496923,0.09482931025682664
PyType.fromClass|PyObject.<init>|PyFrame.<init>,0.37948918600769993,0.0,0.037225194362674324,0.0,0.4167143803703742
PyType.fromClass|PyObject.<init>|PyIterator.<init>,0.045204748094072864,0.0,0.0039877350180195096,0.0,0.04919248311209237
PyType.fromClass|PyObject.<init>|PyMethod.<init>,0.025613088324531973,0.01395901637784398,0.003579391265371847,0.0015442956061008266,0.04469579157384862
PyType.isSubType|PyDescriptor.checkGetterType|PyMethodDescr.method_descriptor___get__,0.032311258710411885,0.0,0.0028911620638810997,0.0,0.03520242077429298
PyType.isSubType|PyObject._eq|Numbers$py.test$8,0.0,0.009141911617759506,0.0,0.0014751371113478125,0.010617048729107318
PyType.lookup|PyBaseExceptionDerived.dispatch__init__|PyType.invoke_new_,0.0,0.03857344004475826,0.0,0.005215489933960208,0.04378892997871847
PyType.lookup|PyObject.object___findattr__|PyObject.__findattr_ex__,0.0,0.00996391388036104,0.0,0.0009144513915175604,0.0108783652718786
PyType.lookup|PyObjectDerived.dispatch__init__|PyType.invoke_new_,0.10084057971160264,0.0,0.008264347825678524,0.0,0.10910492753728115
PyType.lookup|PyType.type___call__|PyType.__call__,0.02517609453914442,0.0,0.0018887175542967253,0.0,0.027064812093441144
PyUnicode$unicode_isnumeric_exposer.bind|PyMethodDescr.method_descriptor___get__|PyMethodDescr.__get__,0.08705628525216381,0.0,0.007944491741750383,0.0,0.0950007769939142
PyUnicode$unicode_upper_exposer.<init>|PyUnicode$unicode_upper_exposer.bind|PyMethodDescr.method_descriptor___get__,0.059364300659385374,0.0,0.004448998741781957,0.0,0.06381329940116733
PyUnicode.getslice|PySequence$1.getSlice|SequenceIndexDelegate.getSlice,0.02347004444390121,0.0,0.003238666667150229,0.0,0.02670871111105144
PyUnicode.unicode___add__|PyUnicode.__add__|PyObject._basic_add,0.10159686603144748,0.0,0.012316746411188881,0.0,0.11391361244263636
PyXRange.pyget|PySequence$1.getItem|SequenceIndexDelegate.checkIdxAndFindItem,0.03651842809865803,0.0,0.004655282929332841,0.0,0.041173711027990875
PythonLexer$DFA44.specialStateTransition|DFA.predict|PythonLexer.mTokens,0.014664138275100762,0.03608533333236765,0.0017984697561452593,0.004624999999982214,0.05717294136359589
PythonLexer.<clinit>|BaseParser.setupParser|BaseParser.parseModule,0.0,0.04640342028890871,0.0,0.006205434782727472,0.05260885507163618
PythonLexer.mSTRING|PythonLexer.mTokens|PythonLexer.nextToken,0.0,0.03608533333236765,0.0,0.004624999999982214,0.040710333332349864
PythonParser$DFA132.<init>|PythonParser.<init>|PythonParser.<init>,0.0,0.0313313333349975,0.0,0.0043083333334329324,0.03563966666843043
PythonParser.<clinit>|BaseParser.setupParser|BaseParser.parseModule,0.0,0.10346133333061716,0.0,0.013536666666267492,0.11699799999688465
PythonParser.comp_op|PythonParser.comparison|PythonParser.not_test,0.0,0.045537357979620184,0.0,0.008246201645555628,0.05378355962517581
PythonParser.not_test|PythonParser.and_test|PythonParser.or_test,0.0,0.057427111409459525,0.0,0.006903344306714835,0.06433045571617436
Raise$PyExposer.<init>|Raise.<clinit>|PythonParser.raise_stmt,0.0,0.05092318281447026,0.0,0.005889206956437554,0.056812389770907815
Reflection.quickCheckMemberAccess|Method.invoke|PyReflectedFunction.__call__,0.0749660731703554,0.0,0.008584024390562795,0.0,0.0835500975609182
ScopesCompiler.beginScope|ScopesCompiler.visitModule|Module.accept,0.0,0.0552561804606407,0.0,0.007645643341695606,0.0629018238023363
Strings$py.test$11|Strings$py.call_function|PyTableCode.call,0.3695837877685212,0.0,0.0340481056746565,0.0,0.4036318934431777
Strings$py.test$14|Strings$py.call_function|PyTableCode.call,0.22584328548473426,0.0,0.021171173235825756,0.0,0.24701445872056002
Strings$py.test$17|Strings$py.call_function|PyTableCode.call,0.06469478355439845,0.0,0.00786190209788511,0.0,0.07255668565228356
Strings$py.test$20|Strings$py.call_function|PyTableCode.call,0.3191648639382008,0.0,0.042106469728931416,0.0,0.3612713336671322
Strings$py.test$2|Strings$py.call_function|PyTableCode.call,0.0,0.09952997932353763,0.0,0.01780520660213902,0.11733518592567665
Strings$py.test$5|Strings$py.call_function|PyTableCode.call,0.0,0.7068969661339082,0.0,0.09980547827831297,0.8067024444122212
Strings$py.test$8|Strings$py.call_function|PyTableCode.call,0.0,0.9410122567307674,0.0,0.13535505703149034,1.0763673137622578
ThreadStateMapping.getThreadState|Py.getThreadState|Py.getThreadState,0.03858336889925409,0.0,0.003057804649515297,0.0,0.04164117354876939
TryExcept$PyExposer.<init>|TryExcept.<clinit>|GrammarActions.makeTryExcept,0.0,0.03211829012684623,0.0,0.005565480371643746,0.03768377049848998
Tuples$py.test$2|Tuples$py.call_function|PyTableCode.call,0.10613137262163046,0.0,0.009256038170863318,0.0,0.11538741079249377
Tuples$py.test$5|Tuples$py.call_function|PyTableCode.call,0.3411844587754982,0.0,0.03776439513732699,0.0,0.3789488539128252
UTF_8$Decoder.decode|ZipCoder.toString|ZipCoder.toStringUTF8,0.01616702381094607,0.09165433333449376,0.0018785714287549208,0.010900000000522898,0.12059992857471764
Unicode$py.test$11|Unicode$py.call_function|PyTableCode.call,0.03866106666650415,0.0,0.00571333333403648,0.0,0.04437440000054063
Unicode$py.test$17|Unicode$py.call_function|PyTableCode.call,0.22123127746985333,0.0,0.01741848492669197,0.0,0.23864976239654528
Unicode$py.test$20|Unicode$py.call_function|PyTableCode.call,0.35140251377658394,0.0,0.03551168476427437,0.0,0.3869141985408583
Unicode$py.test$5|Unicode$py.call_function|PyTableCode.call,0.0,0.2698185273986718,0.0,0.03487385962057819,0.30469238701925
Unicode$py.test$8|Unicode$py.call_function|PyTableCode.call,0.20522327893954945,0.0,0.02287424434196764,0.0,0.22809752328151708
UnsafeFieldAccessorFactory.newFieldAccessor|ReflectionFactory.newFieldAccessor|Field.acquireFieldAccessor,0.0,0.03815933333007032,0.0,0.005176111111217728,0.04333544444128805
__builtin__.fillWithBuiltins|PySystemState$DefaultBuiltinsHolder.fillin|PySystemState$DefaultBuiltinsHolder.<clinit>,0.0,0.040902285716063996,0.0,0.005837142857022367,0.04673942857308636
__builtin__.map|BuiltinFunctions.fancyCall|BuiltinFunctions.__call__,0.05641715595075545,0.0,0.005788678931938279,0.0,0.06220583488269373
alias$PyExposer.<init>|alias.<clinit>|PythonParser.dotted_as_name,0.0,0.09012053333378088,0.0,0.012552000000626626,0.10267253333440751
bisect$py.bisect_left$4|bisect$py.call_function|PyTableCode.call,0.017290901961078978,0.0,0.0022282352943233594,0.0,0.019519137255402337
comprehension$PyExposer.<init>|comprehension.<clinit>|PythonParser.list_for,0.0,0.04941145355187202,0.0,0.007568905854855776,0.0569803594067278
imp.import_name|imp.importName|ImportFunction.__call__,0.0,0.035784807915879686,0.0,0.003808945244597658,0.03959375316047734
imp.import_next|imp.import_name|imp.importName,0.0362124770040398,0.0,0.0035794790604303218,0.0,0.03979195606447013
unicodedata$py.get$11|unicodedata$py.call_function|PyTableCode.call,0.20723238326369986,0.0,0.020670791443017138,0.0,0.227903174706717
unicodedata$py.get_int$1|unicodedata$py.call_function|PyTableCode.call,0.0,0.030371244063646118,0.0,0.0028176543491916423,0.03318889841283776
unicodedata$py.init_east_asian_width$5|unicodedata$py.call_function|PyTableCode.call,0.0,0.04408933333336161,0.0,0.00424076923072556,0.04833010256408717
unicodedata$py.init_unicodedata$4|unicodedata$py.call_function|PyTableCode.call,0.0,0.22253507565349478,0.0,0.03931651653223146,0.26185159218572623
zipimporter$PyExposer.<init>|zipimporter.<clinit>|PySystemState.<init>,0.0,0.04357952635263613,0.0,0.007612195039383178,0.05119172139201931
