method,hits
AnnotationReader.<init>,2
ArgParser.<init>,2
Arithmetic$py.test$11,14
Arithmetic$py.test$14,24
Arithmetic$py.test$2,36
Arithmetic$py.test$5,42
Arithmetic$py.test$8,26
AttributeInfo.<init>,2
BaseParser.setupParser,22
BaseTypeBuilder.getDict,2
BreakIteratorProviderImpl.getBreakInstance,2
BuiltinFunctions.__call__,2
CachedJarsPackageManager.outCreateCacheFile,2
Calls$py.f$28,2
Calls$py.test$16,10
Calls$py.test$2,14
Calls$py.test$27,2
Chaperone.retire,2
ClassPool.compress,2
ClassPool.createCtClass,2
ClassPool.getDefault,2
ClassReader.readUTF8,2
CodeCompiler.visitAttribute,2
CommonTokenStream.skipOffTokenChannelsReverse,2
CompilerFlags.isFlagSet,2
Constructs$py.test$2,12
Constructs$py.test$5,4
Constructs$py.test$8,8
CtClassType.<init>,2
DFA.unpackEncodedString,2
Dict$py.test$11,12
Dict$py.test$14,12
Dict$py.test$2,6
Dict$py.test$5,12
Dict$py.test$8,8
ExceptHandler$PyExposer.<init>,2
ExceptionTable.<init>,2
Exceptions$py.test$2,4
Exceptions$py.test$5,6
FieldInfo.read,2
Imports$py.test$2,2
Imports$py.test$8,4
LinuxPOSIX.allocateStat,2
Lists$py.test$2,26
Lists$py.test$8,10
Lookups$py.test$12,10
Lookups$py.test$17,8
Lookups$py.test$2,16
Lookups$py.test$7,8
Module.PyCode,2
Native.initIDs,2
NewInstances$py.test$3,4
NotFoundException.<init>,2
Numbers$py.test$11,2
Numbers$py.test$2,14
Numbers$py.test$5,2
Numbers$py.test$8,10
POSIXFactory.loadLibC,2
PackageManager.checkAccess,2
Py.<clinit>,2
Py.ImportError,2
Py.getThreadState,4
Py.newBoolean,2
Py.newInteger,2
PyArray$PyExposer.<init>,4
PyBaseCode.call,6
PyBaseException$exposed___new__.createOfSubtype,2
PyClass.__call__,4
PyClass.__findattr_ex__,2
PyComplex.complex___div__,2
PyDictionary$dict_get_exposer.bind,2
PyDictionary.__finditem__,2
PyFastSequenceIter.__iternext__,2
PyFloat.<init>,2
PyFloat.__cmp__,2
PyFloat.canCoerce,2
PyFloat.float___div__,2
PyFloat.float___sub__,2
PyFrame.<init>,2
PyFrame.doGetglobal,4
PyFrame.getlocal,22
PyFrame.setline,26
PyFrame.setlocal,8
PyFrame.setupEnv,2
PyInstance.__findattr_ex__,6
PyInteger.coerce,2
PyInteger.divide,2
PyInteger.int___cmp__,2
PyList.list___len__,2
PyList.pyget,12
PyList.pyset,2
PyLong.divide,2
PyLong.long___add__,2
PyMethodDescr.method_descriptor___get__,2
PyObject.<init>,8
PyObject.__getattr__,4
PyObject.__lt__,2
PyObject._basic_div,2
PyObject._div,2
PyObject._eq,2
PyObject._gt,4
PyObject._lt,2
PyObject._ne,2
PyObject.getType,6
PyObject.object___findattr__,4
PySequence$1.getSlice,2
PySequence.seq___finditem__,2
PyString$PyExposer.<init>,2
PyString.<init>,2
PyString.__add__,4
PyString._isalnum,2
PyString.atoi,2
PyString.coerce,2
PyString.str___gt__,2
PyString.str___hash__,2
PyString.str_title,2
PyString.toString,2
PyStringMap.__finditem__,8
PySystemState.<init>,2
PyTraceback.<init>,2
PyTuple.<init>,4
PyTuple.getList,2
PyTuple.pyget,2
PyType.fromClass,22
PyType.isSubType,4
PyType.lookup,6
PyUnicode$PyExposer.<init>,2
PyUnicode$unicode_islower_exposer.bind,2
PyUnicode.unicode___add__,2
PyUnicode.unicode_isalnum,2
PyUnicode.unicode_isspace,2
PyXRange.xrange___new__,2
PythonLexer$DFA44.specialStateTransition,2
PythonLexer.<clinit>,2
PythonLexer.mTRIQUOTE,2
PythonParser.<clinit>,4
PythonParser.file_input,2
PythonParser.fpdef,2
PythonParser.or_test,2
PythonTreeAdaptor.rulePostProcessing,2
RewriteRuleElementStream.<init>,2
SequenceIndexDelegate.fixindex,4
Strings$py.test$11,16
Strings$py.test$14,4
Strings$py.test$17,4
Strings$py.test$2,2
Strings$py.test$20,8
Strings$py.test$5,20
Strings$py.test$8,24
ThreadStateMapping.getThreadState,2
Tuple.getInternalCtx,2
Tuples$py.test$2,2
Tuples$py.test$5,10
URLClassPath.getLookupCache,2
Unicode$py.test$11,6
Unicode$py.test$17,8
Unicode$py.test$2,2
Unicode$py.test$20,12
Unicode$py.test$5,28
Unicode$py.test$8,2
While.<init>,2
__builtin__.fillWithBuiltins,2
bisect$py.bisect_left$4,6
imp.import_name,2
unicodedata$py.combining$18,2
unicodedata$py.decimal$12,2
unicodedata$py.get_codepoint$9,2
unicodedata$py.init_east_asian_width$5,4
unicodedata$py.init_unicodedata$4,2
