method,package1,package2,dram1,dram2,energy
java.io,0.3068715971835253,5.078091629156351,0.038777685487061675,0.626774210652783,6.0505151224797205
java.lang,6.010927401472381,0.22630270923689672,0.6654022356545468,0.026831806220599316,6.929464152584424
java.math,0.15991339903774088,0.0,0.014778605769175229,0.0,0.1746920048069161
java.nio,0.0194364946995979,0.0,0.0028033405819700738,0.0,0.022239835281567973
java.text,0.06567574978084147,0.0,0.007738819003121991,0.0,0.07341456878396346
java.util,0.7862795359213226,0.12291335030146004,0.09510941744066144,0.017425149494380815,1.0217274531578249
java.util.concurrent,0.920770114605485,0.0,0.09817583624269921,0.0,1.0189459508481842
java.util.regex,0.032091372549093285,0.0,0.002799999999885639,0.0,0.03489137254897892
java.util.zip,0.43504311634152565,14.760846443037387,0.060520960602620584,1.9982874607687122,17.254697980750244
