method,package1,package2,dram1,dram2,energy
ANTLRStringStream.LA|PythonLexer.mTRIQUOTE|PythonLexer.mSTRING,0.0,0.09177633333213936,0.0,0.01644000000063291,0.10821633333277227
AbstractAlgorithmConstraints.getAlgorithms|DisabledAlgorithmConstraints.<init>|DisabledAlgorithmConstraints.<init>,0.0,0.017729285713617822,0.0,0.001744285714136952,0.019473571427754775
AbstractCollection.toArray|ArrayList.<init>|PyList.getslice,0.4158949155387808,0.0,0.047373212670477755,0.0,0.46326812820925856
ArgParser.getString|ImportFunction.__call__|PyObject.__call__,0.029480000002270874,0.0,0.002920000000206831,0.0,0.032400000002477704
Arithmetic$py.test$11|Arithmetic$py.call_function|PyTableCode.call,0.11121669565150313,0.0,0.0173513043479508,0.0,0.12856799999945392
Arithmetic$py.test$14|Arithmetic$py.call_function|PyTableCode.call,0.47216709202041973,0.0,0.04644719356023424,0.0,0.5186142855806539
Arithmetic$py.test$2|Arithmetic$py.call_function|PyTableCode.call,0.4544203453764622,0.0,0.048922615474129634,0.0,0.5033429608505918
Arithmetic$py.test$5|Arithmetic$py.call_function|PyTableCode.call,0.813786966176688,0.0,0.08404772975309638,0.0,0.8978346959297844
Arithmetic$py.test$8|Arithmetic$py.call_function|PyTableCode.call,0.3925666597940188,0.0,0.047928286042988696,0.0,0.4404949458370075
ArrayDeque.add|ZipFile.releaseInflater|ZipFile.access$100,0.0,0.040470614034698836,0.0,0.004194736842085453,0.04466535087678429
ArrayList$SubList$1.next|AbstractCollection.toArray|ArrayList.<init>,0.04275589743748499,0.0,0.0044000000000382075,0.0,0.04715589743752319
ArrayList.<init>|PythonParser.shift_expr|PythonParser.and_expr,0.0,0.03935426529222247,0.0,0.00613621199156769,0.04549047728379016
ArrayList.elementData|ArrayList.get|PyList.pyget,0.044423333332815666,0.0,0.004787500000020373,0.0,0.04921083333283604
ArrayList.rangeCheckForAdd|ArrayList.addAll|PyList.setslicePyList,0.03387091304171338,0.0,0.004105869565018625,0.0,0.037976782606732006
Arrays.copyOfRange|String.<init>|String.substring,0.2952996684390043,0.0,0.034390626535687044,0.0,0.3296902949746913
Arrays.copyOf|ArrayList.grow|ArrayList.ensureExplicitCapacity,0.046560913042808134,0.0,0.0064039130434600565,0.0,0.052964826086268194
Arrays.copyOf|String.concat|PyString.str___add__,0.2770491087353621,0.0,0.039776945186114875,0.0,0.31682605392147695
Arrays.copyOf|String.concat|PyUnicode.unicode___add__,0.15789895970811435,0.0,0.023507142857225837,0.0,0.18140610256534018
AttributeInfo.read|CodeAttribute.<init>|AttributeInfo.read,0.0,0.03086584292471829,0.0,0.004686368162370974,0.03555221108708927
Attributes$Name.hashCode|HashMap.hash|HashMap.put,0.0,0.0,0.0,0.0,0.0
Attributes.put|Attributes.putValue|Attributes.read,0.0,0.017729285713617822,0.0,0.001744285714136952,0.019473571427754775
BaseCalendar.isLeapYear|BaseCalendar.getCalendarDateFromFixedDate|GregorianCalendar.computeFields,0.00835707692357783,0.0,0.0012080769232013086,0.0,0.00956515384677914
BaseParser.setupParser|BaseParser.parseModule|CompileMode$3.dispatch,0.0,0.8408409166659112,0.0,0.12622499999861245,0.9670659166645237
Benchmark.fileFromInputStream|Benchmark.extractFileResource|Benchmark.prepareJars,0.0,0.04495129630042895,0.0,0.005322222222174686,0.05027351852260363
BigInteger.compareTo|PyString.atoi|PyInteger.int_new,0.05789507246421029,0.0,0.008235652173280487,0.0,0.06613072463749077
BufferedInputStream.<init>|BufferedInputStream.<init>|ClassPool.makeClass,0.0,0.01601487096813407,0.0,0.0015253225805848755,0.017540193548718944
BufferedInputStream.fill|BufferedInputStream.read1|BufferedInputStream.read,0.0,0.04414866666775197,0.0,0.006860000000718475,0.05100866666847044
BufferedInputStream.read1|BufferedInputStream.read|FilterInputStream.read,0.06540149976489337,0.04679377778019342,0.00737258998312086,0.006813333333815939,0.1263812008620236
BufferedInputStream.read|DataInputStream.readInt|AttributeInfo.<init>,0.022655924861102374,0.0,0.0022798114894895826,0.0,0.024935736350591958
BufferedInputStream.read|DataInputStream.readUnsignedByte|ConstPool.readOne,0.0,0.1445968417321874,0.0,0.020884119667271876,0.16548096139945928
BufferedInputStream.read|DataInputStream.readUnsignedShort|MethodInfo.read,0.0,0.01601487096813407,0.0,0.0015253225805848755,0.017540193548718944
BufferedInputStream.read|DataInputStream.readUnsignedShort|NameAndTypeInfo.<init>,0.0,0.015380749995529188,0.0,0.002021249999870633,0.01740199999539982
BufferedInputStream.read|DataInputStream.readUnsignedShort|StringInfo.<init>,0.0,0.029777466595882877,0.0,0.004520182197823547,0.03429764879370642
BufferedInputStream.read|FilterInputStream.read|PushbackInputStream.read,0.36339467799555725,0.2362750666552326,0.03990882357617924,0.03624233333276708,0.6758209015597361
BufferedOutputStream.<init>|Benchmark.fileFromInputStream|Benchmark.unpackZipStream,0.0,0.01369843478112117,0.0,0.0014139130433487364,0.015112347824469907
CRC32.update|ZipInputStream.read|Benchmark.fileFromInputStream,0.0,0.02778533333427428,0.0,0.003807999999723203,0.031593333333997484
CRC32.update|ZipInputStream.read|InflaterInputStream.read,0.05056268959708149,0.0,0.005579106623316957,0.0,0.05614179622039844
CachedJarsPackageManager.filterByName|CachedJarsPackageManager.addZipEntry|CachedJarsPackageManager.getZipPackages,0.016066858802635087,0.0,0.0016062099658940927,0.0,0.017673068768529178
Calls$py.h$6|Calls$py.call_function|PyTableCode.call,0.034451111110953475,0.0,0.002722222222170482,0.0,0.037173333333123955
Calls$py.k$20|Calls$py.call_function|PyTableCode.call,0.05352766666813598,0.0,0.008140000000518436,0.0,0.06166766666865441
Calls$py.test$13|Calls$py.call_function|PyTableCode.call,0.07760530037670926,0.0,0.009893863731740813,0.0,0.08749916410845007
Calls$py.test$16|Calls$py.call_function|PyTableCode.call,0.23962433333023606,0.0,0.035249999999602245,0.0,0.2748743333298383
Calls$py.test$27|Calls$py.call_function|PyTableCode.call,0.036888571428356776,0.0,0.004971428571956321,0.0,0.0418600000003131
Calls$py.test$2|Calls$py.call_function|PyTableCode.call,0.2474249697036364,0.0,0.036421818180701164,0.0,0.28384678788433754
Chaperone.retire|Chaperone.dismiss|Chaperone.main,0.061176238095434925,0.0,0.006411428570486134,0.0,0.06758766666592106
Character.isHighSurrogate|Character.codePointAtImpl|String.codePointAt,0.07849133333365899,0.0,0.010840000000219636,0.0,0.08933133333387862
Character.isLowerCase|Character.isLowerCase|PyString.str_title,0.040327955555726984,0.0,0.005980333333880279,0.0,0.046308288889607266
Character.isUpperCase|Character.isUpperCase|PyString.str_title,0.024739555556960918,0.0,0.002469999999852411,0.0,0.027209555556813328
Character.toLowerCase|Character.toLowerCase|PyString.str_title,0.06881099999591242,0.0,0.009094499999991968,0.0,0.07790549999590439
Character.toUpperCaseEx|String.toUpperCase|String.toUpperCase,0.04130628571424278,0.0,0.004477142857337768,0.0,0.04578342857158055
CharacterData00.getPropertiesEx|CharacterData00.isOtherUppercase|Character.isUpperCase,0.053745435901547366,0.0,0.00685384615411376,0.0,0.060599282055661126
CharacterData00.getProperties|CharacterData00.toUpperCaseEx|Character.toUpperCaseEx,0.06414180000429041,0.0,0.008055000000604195,0.0,0.0721968000048946
CharacterDataLatin1.getProperties|CharacterDataLatin1.toLowerCase|Character.toLowerCase,0.05381460000062361,0.0,0.006642000000283589,0.0,0.0604566000009072
CharacterDataLatin1.getProperties|CharacterDataLatin1.toUpperCaseEx|Character.toUpperCaseEx,0.02481411111107768,0.0,0.0029799999999037628,0.0,0.027794111110981443
CharacterDataLatin1.toLowerCase|Character.toLowerCase|Character.toLowerCase,0.024739555556960918,0.0,0.002469999999852411,0.0,0.027209555556813328
CharacterDataLatin1.toUpperCase|CharacterDataLatin1.toTitleCase|Character.toTitleCase,0.02194830000080401,0.0,0.0032640000001265433,0.0,0.025212300000930554
Class.forName0|Class.forName|ConstantSet.getEnumClass,0.0,0.029889859359254537,0.0,0.005698843339542146,0.03558870269879668
Class.forName0|Class.forName|SyspathJavaLoader.loadClass,0.0,0.0846673535825413,0.0,0.013677424901274614,0.09834477848381591
Class.getDeclaredConstructors0|Class.privateGetDeclaredConstructors|Class.getConstructor0,0.18198252173646184,0.0,0.01762901185832277,0.0,0.19961153359478462
ClassFile.read|ClassFile.<init>|CtClassType.getClassFile3,0.03118084252186496,0.0,0.00323059302924736,0.0,0.03441143555111232
ClassLoader.checkCerts|ClassLoader.preDefineClass|ClassLoader.defineClass,0.03449563427426223,0.0,0.004016231530246114,0.0,0.03851186580450834
ClassLoader.defineClass1|ClassLoader.defineClass|BytecodeLoader$Loader.loadClassFromBytes,0.1851160489721796,0.0,0.019218510824394318,0.0,0.20433455979657392
ClassLoader.defineClass1|ClassLoader.defineClass|SecureClassLoader.defineClass,0.11257901094649389,0.2140866389836968,0.01151389640330517,0.030484345739938117,0.368663892073434
ClassLoader.findBootstrapClass|ClassLoader.findBootstrapClassOrNull|ClassLoader.loadClass,0.0,0.018457873562490037,0.0,0.0016379310345028305,0.020095804596992867
ClassLoader.loadClass|ClassLoader.defineClass1|ClassLoader.defineClass,0.0,0.06165445045726337,0.0,0.009332418570430507,0.07098686902769388
ClassPool.compress|ClassPool.makeClass|ClassPool.makeClass,0.0,0.049617260142664384,0.0,0.007350336188596218,0.056967596331260605
ClassReader.accept|ClassReader.accept|AnnotationReader.<init>,0.11755137254630088,0.2179773333482444,0.008955294117970644,0.02932999999878423,0.37381400001130016
ClassWriter.c|ClassWriter.a|Frame.a,0.0,0.04166344075948075,0.0,0.006191526487931189,0.04785496724741194
ClassicPyObjectAdapter$7.adapt|ExtensiblePyObjectAdapter.adapt|ClassicPyObjectAdapter.adapt,0.04581700000077641,0.0,0.0053400000009181285,0.0,0.05115700000169454
Code.ldc|CodeCompiler.makeStrings|PyCodeConstant.put,0.0,0.024679465442914515,0.0,0.003550818351348808,0.028230283794263324
CodeCompiler.visitImportFrom|ImportFrom.accept|Visitor.visit,0.0,0.024679465442914515,0.0,0.003550818351348808,0.028230283794263324
Collections.synchronizedList|ClassFile.<init>|Module.<init>,0.0,0.06165445045726337,0.0,0.009332418570430507,0.07098686902769388
CommonTokenStream.LB|CommonTokenStream.LT|PythonParser.test,0.0,0.08278892679828599,0.0,0.011435453719195916,0.09422438051748191
CommonTokenStream.LT|PythonParser.defparameter|PythonParser.varargslist,0.0,0.05373790194163938,0.0,0.00830246752494208,0.062040369466581466
CommonTokenStream.fillBuffer|CommonTokenStream.LT|PythonTokenSource.insertImaginaryIndentDedentTokens,0.0,0.08323166665892738,0.0,0.014020000000527943,0.09725166665945532
CompilerFlags.<init>|PyTableCode.<init>|Py.newCode,0.09399439802400283,0.0,0.008685479889821709,0.0,0.10267987791382455
CompilerFlags.isFlagSet|PyBaseCode.call|PyFunction.__call__,0.029480000002270874,0.0,0.002920000000206831,0.0,0.032400000002477704
ConcurrentHashMap.addCount|ConcurrentHashMap.putVal|ConcurrentHashMap.put,0.13507959166781802,0.0,0.020381124998615024,0.0,0.15546071666643305
ConcurrentHashMap.casTabAt|ConcurrentHashMap.putVal|ConcurrentHashMap.put,0.10005613333099367,0.0,0.016151750000972243,0.0,0.11620788333196591
ConcurrentHashMap.casTabAt|ConcurrentHashMap.transfer|ConcurrentHashMap.addCount,0.08485468297052041,0.0,0.011873682065595567,0.0,0.09672836503611598
ConcurrentHashMap.get|ConcurrentHashMap.containsKey|PyDictionary.dict_has_key,0.02364768431848521,0.0,0.002365478876033909,0.0,0.02601316319451912
ConcurrentHashMap.get|LocaleResources.getDecimalFormatSymbolsData|DecimalFormatSymbols.initialize,0.04815017543692272,0.0,0.005723421052830976,0.0,0.05387359648975369
ConcurrentHashMap.get|PyStringMap.__finditem__|PyClass.lookup,0.04175943750215083,0.0,0.0043987500000639565,0.0,0.04615818750221479
ConcurrentHashMap.get|PyStringMap.__finditem__|PyFrame.doGetglobal,0.1478854440078946,0.0,0.016106561265504835,0.0,0.16399200527339944
ConcurrentHashMap.get|PyStringMap.__finditem__|PyJavaPackage.addPackage,0.03329478593397179,0.0,0.003572011247032911,0.0,0.0368667971810047
ConcurrentHashMap.get|PyStringMap.__finditem__|PyType.lookup,0.07649094570818976,0.0,0.008234071969853159,0.0,0.08472501767804291
ConcurrentHashMap.get|PyStringMap.__finditem__|imp.import_next,0.046127109564818594,0.0,0.005483804588668674,0.0,0.051610914153487265
ConcurrentHashMap.initTable|ConcurrentHashMap.putVal|ConcurrentHashMap.put,0.05765799999870878,0.0,0.008053333332807394,0.0,0.06571133333151617
ConcurrentHashMap.putVal|ConcurrentHashMap.put|PyDictionary.dict___setitem__,0.2580041777765102,0.0,0.017802666667827264,0.0,0.27580684444433745
ConcurrentHashMap.putVal|ConcurrentHashMap.put|PyStringMap.__setitem__,0.43262207423893206,0.0,0.052016401783409175,0.0,0.4846384760223412
ConcurrentHashMap.replaceNode|ConcurrentHashMap.remove|PyDictionary.dict___delitem__,0.015383102085519434,0.0,0.0014630586276257855,0.0,0.01684616071314522
ConcurrentHashMap.spread|ConcurrentHashMap.get|PyStringMap.__finditem__,0.028245421711950082,0.0,0.003944704254110657,0.0,0.03219012596606074
ConcurrentHashMap.tabAt|ConcurrentHashMap.get|PyDictionary.__finditem__,0.02507829989854399,0.0,0.002452112869514633,0.0,0.027530412768058624
ConcurrentHashMap.tabAt|ConcurrentHashMap.get|PyStringMap.__finditem__,0.08130485913546479,0.0,0.012565255140733343,0.0,0.09387011427619812
ConcurrentHashMap.tabAt|ConcurrentHashMap.putVal|ConcurrentHashMap.put,0.11195915969801812,0.0,0.015234698385624742,0.0,0.12719385808364286
ConcurrentHashMap.transfer|ConcurrentHashMap.addCount|ConcurrentHashMap.putVal,0.09551521677739427,0.0,0.014457493297412586,0.0,0.10997271007480686
ConstPool.read|ConstPool.<init>|ClassFile.read,0.0,0.02510184946285951,0.0,0.002447741935396553,0.027549591398256062
Constructs$py.test$2|Constructs$py.call_function|PyTableCode.call,0.15262462393288417,0.0,0.01047858974356458,0.0,0.16310321367644876
Constructs$py.test$5|Constructs$py.call_function|PyTableCode.call,0.15056698610937422,0.0,0.019639583333224034,0.0,0.17020656944259827
Constructs$py.test$8|Constructs$py.call_function|PyTableCode.call,0.07591296969666005,0.0,0.005770909091083784,0.0,0.08168387878774383
DataInputStream.readByte|PackageManager.checkAccess|CachedJarsPackageManager.addZipEntry,0.0,0.046400222222372466,0.0,0.007239999999809595,0.05364022222218206
DataInputStream.readFully|DataInputStream.readUTF|DataInputStream.readUTF,0.0,0.07051600000704639,0.0,0.0102999999999156,0.08081600000696199
DataInputStream.skipBytes|PackageManager.checkAccess|CachedJarsPackageManager.addZipEntry,0.0,0.12451171429295625,0.0,0.012882857143267756,0.13739457143622402
DecimalFormat.applyPattern|DecimalFormat.<init>|NumberFormatProviderImpl.getInstance,0.06652833333242192,0.0,0.008950000000267109,0.0,0.07547833333268902
Delete$repr_descriptor.<init>|Delete$PyExposer.<init>|Delete.<clinit>,0.0,0.07210489692097978,0.0,0.011487841173587322,0.0835927380945671
Dict$py.test$11|Dict$py.call_function|PyTableCode.call,0.3829607111147467,0.0,0.02523555555413218,0.0,0.4081962666688789
Dict$py.test$14|Dict$py.call_function|PyTableCode.call,0.21556734735477645,0.0,0.020749742623067124,0.0,0.23631708997784356
Dict$py.test$2|Dict$py.call_function|PyTableCode.call,0.3897518333348368,0.0,0.05560375000095519,0.0,0.445355583335792
Dict$py.test$5|Dict$py.call_function|PyTableCode.call,0.16422272054008158,0.0,0.010466666666346741,0.0,0.17468938720642832
Dict$py.test$8|Dict$py.call_function|PyTableCode.call,0.38257893333211535,0.0,0.04453200000021348,0.0,0.4271109333323288
Exceptions$py.test$2|Exceptions$py.call_function|PyTableCode.call,0.06796097222225703,0.0,0.006070833333069459,0.0,0.07403180555532649
Exceptions$py.test$5|Exceptions$py.call_function|PyTableCode.call,0.24143180952108065,0.0,0.03594285714331947,0.0,0.27737466666440014
FileDispatcherImpl.read0|FileDispatcherImpl.read|IOUtil.readIntoNativeBuffer,0.03585371428718125,0.0,0.005339999999705468,0.0,0.04119371428688672
FileInputStream.available0|FileInputStream.available|BufferedInputStream.read,0.022131327044221518,0.1593824163987758,0.002718687628266385,0.01755871657796515,0.20179114764922884
FileInputStream.readBytes|FileInputStream.read|BufferedInputStream.fill,0.08295298209214538,0.6033817638035949,0.00868909679217628,0.08295886681054063,0.7779827094984573
FileOutputStream.<init>|Benchmark.fileFromInputStream|Benchmark.unpackZipStream,0.0,0.03799999999938774,0.0,0.006111111111008709,0.04411111111039645
FileOutputStream.<init>|FileOutputStream.<init>|Benchmark.fileFromInputStream,0.0,0.05101320000054936,0.0,0.00768249999988863,0.05869570000043799
FileOutputStream.open0|FileOutputStream.open|FileOutputStream.<init>,0.0,0.17686573333339764,0.0,0.023372999999931685,0.2002387333333293
FileOutputStream.writeBytes|FileOutputStream.write|BufferedOutputStream.flushBuffer,0.027785526613123702,0.40268053972604834,0.0029928445371322546,0.05218438383911629,0.4856432947154206
FileOutputStream.writeBytes|FileOutputStream.write|BufferedOutputStream.write,0.0,0.2264628703710278,0.0,0.03251499999981509,0.2589778703708429
For$PyExposer.<init>|For.<clinit>|GrammarActions.makeFor,0.0,0.049617260142664384,0.0,0.007350336188596218,0.056967596331260605
Frame.a|Frame.a|MethodWriter.visitMethodInsn,0.08628333333278229,0.0,0.009855000000243308,0.0,0.0961383333330256
Frame.a|MethodWriter.visitMaxs|Code.visitMaxs,0.0,0.039623456463893265,0.0,0.0056962914892997275,0.04531974795319299
Frame.b|Frame.a|MethodWriter.visitTypeInsn,0.0,0.04020055218189921,0.0,0.006433034817986705,0.046633586999885915
Generic.concurrentMap|PyDictionary.<init>|PyDictionary.<init>,0.05011413333316645,0.0,0.00756800000090152,0.0,0.05768213333406797
Global$PyExposer.<init>|Global.<clinit>|PythonParser.global_stmt,0.0,0.04298893386555694,0.0,0.006584844763804068,0.04957377862936101
Handler.hostsEqual|URLStreamHandler.sameFile|URLStreamHandler.equals,0.0,0.038254035086873424,0.0,0.0038526315791131576,0.04210666666598658
HashMap.getNode|HashMap.get|CachedJarsPackageManager.addZipEntry,0.07933810480673179,0.0,0.008301101838155182,0.0,0.08763920664488697
HashMap.getNode|HashMap.get|PyType.fromClass,0.22751573099647768,0.0,0.029370837317995512,0.0,0.2568865683144732
HashSet.<init>|ArgParser.check|ArgParser.<init>,0.0598647770565597,0.0,0.007720569161264056,0.0,0.06758534621782376
Hashtable$Enumerator.nextElement|ClassPool.compress|ClassPool.makeClass,0.0,0.037465999997039034,0.0,0.004422031250120047,0.041888031247159084
Hashtable.rehash|Hashtable.addEntry|Hashtable.put,0.0,0.04364367494909751,0.0,0.007066590882687919,0.05071026583178543
If.<clinit>|PythonParser.if_stmt|PythonParser.compound_stmt,0.0,0.05207368774934775,0.0,0.00837579962513877,0.06044948737448652
ImportFrom$PyExposer.<init>|ImportFrom.<clinit>|PythonParser.import_from,0.0,0.05967518820190028,0.0,0.00791383802019271,0.067589026222093
Inflater.finished|InflaterInputStream.read|ZipInputStream.read,0.0,0.1252164270171859,0.0,0.015160915032502803,0.1403773420496887
Inflater.inflateBytes|Inflater.inflate|InflaterInputStream.read,2.675918674729467,5.937115469936842,0.30480541697350744,0.7687682635927509,9.686607825232567
Inflater.inflate|InflaterInputStream.read|ZipInputStream.read,0.14738063539040305,0.3502681413769678,0.016797588558988275,0.03980761941642125,0.5542539847427803
Inflater.needsInput|InflaterInputStream.read|ZipInputStream.read,0.0,0.07257354761878515,0.0,0.010410714285691418,0.08298426190447657
Inflater.setInput|InflaterInputStream.fill|InflaterInputStream.read,0.0,0.04683433333896876,0.0,0.0064399999995051384,0.0532743333384739
InflaterInputStream.read|ZipInputStream.read|InflaterInputStream.read,0.021297237321752583,0.0,0.002837769066212166,0.0,0.024135006387964748
JRELocaleProviderAdapter.getCalendarDataProvider|JRELocaleProviderAdapter.getLocaleServiceProvider|LocaleServiceProviderPool.<init>,0.024789692306792583,0.0,0.0033369230768585108,0.0,0.028126615383651094
JavaImportHelper.buildLoadedPackages|JavaImportHelper.tryAddPackage|imp.import_next,0.0,0.05396091410209156,0.0,0.010771878239968346,0.0647327923420599
Lists$py.test$2|Lists$py.call_function|PyTableCode.call,0.41450643273934745,0.0,0.043793519182402825,0.0,0.45829995192175027
Lists$py.test$8|Lists$py.call_function|PyTableCode.call,0.2800592549057339,0.0,0.03649941176441715,0.0,0.3165586666701511
Lookups$py.test$12|Lookups$py.call_function|PyTableCode.call,0.309450592595062,0.0,0.03301388888859138,0.0,0.3424644814836534
Lookups$py.test$17|Lookups$py.call_function|PyTableCode.call,0.24044462962558977,0.0,0.02228888888836351,0.0,0.26273351851395327
Lookups$py.test$22|Lookups$py.call_function|PyTableCode.call,0.1633489972656295,0.0,0.021776185202736272,0.0,0.18512518246836576
Lookups$py.test$2|Lookups$py.call_function|PyTableCode.call,0.5804036524240989,0.0,0.06684564102602636,0.0,0.6472492934501253
Lookups$py.test$7|Lookups$py.call_function|PyTableCode.call,0.26308700925713957,0.0,0.026846041667930105,0.0,0.28993305092506966
Math.floor|PyFloat.float___hash__|PyFloat.hashCode,0.048977333334429815,0.0,0.006190000000060536,0.0,0.05516733333449035
MethodWriter.visitLabel|MethodWriter.<init>|ClassWriter.visitMethod,0.0,0.042019375290941616,0.0,0.006401948335764338,0.04842132362670595
Module.PyCode|Module.compile|imp.compileSource,0.0,0.029777466595882877,0.0,0.004520182197823547,0.03429764879370642
Module.PyInteger|CodeCompiler.visitNum|Num.accept,0.0,0.0352529184076542,0.0,0.005449989308153733,0.04070290771580794
Module.compile|imp.compileSource|imp.createFromSource,0.0,0.062373361503992475,0.0,0.008159857068235523,0.070533218572228
MutableBigInteger.clear|MutableBigInteger.divideKnuth|BigInteger.divideKnuth,0.060422289134294524,0.0,0.0075031139588806126,0.0,0.06792540309317513
Numbers$py.test$11|Numbers$py.call_function|PyTableCode.call,0.08548619782115362,0.0,0.005399669289226973,0.0,0.09088586711038059
Numbers$py.test$2|Numbers$py.call_function|PyTableCode.call,0.1693292431137201,0.0,0.02070651103213572,0.0,0.19003575414585583
Numbers$py.test$5|Numbers$py.call_function|PyTableCode.call,0.13873243277334682,0.0,0.0157572323260987,0.0,0.1544896650994455
Numbers$py.test$8|Numbers$py.call_function|PyTableCode.call,0.044951410383039216,0.0,0.005623092546918518,0.0,0.050574502929957736
Object.clone|Method.getExceptionTypes|PyJavaType.ignore,0.01437011844292526,0.0,0.0016042236168043284,0.0,0.01597434205972959
PackageManager.checkAccess|CachedJarsPackageManager.addZipEntry|CachedJarsPackageManager.getZipPackages,0.04881041780924962,0.04679377778019342,0.006285195366486907,0.006813333333815939,0.10870272428974588
Pattern$Branch.match|Pattern$BranchConn.match|Pattern$GroupTail.match,0.11997819354479773,0.0,0.01344000000002173,0.0,0.13341819354481946
Pattern$Curly.match|Pattern$GroupHead.match|Pattern$Branch.match,0.10001600000153606,0.0,0.01020499999989018,0.0,0.11022100000142623
PerfCounter.get|PerfCounter.add|PerfCounter.addElapsedTimeFrom,0.0,0.006347599998116493,0.0,0.0008159999993949895,0.007163599997511483
PushbackInputStream.read|InflaterInputStream.fill|InflaterInputStream.read,0.0,0.016770564103260256,0.0,0.002172307692093548,0.018942871795353804
PushbackInputStream.read|ZipInputStream.read|InflaterInputStream.read,0.04265620644657333,0.0,0.004107141601689812,0.0,0.04676334804826314
Py.<clinit>|PyType.init|PyType.createType,0.0,0.02879333333354831,0.0,0.0027050000000296373,0.031498333333577946
Py.getThreadState|Py.getThreadState|Py.getSystemState,0.0334574999991067,0.0,0.004750000000058208,0.0,0.03820749999916491
Py.getThreadState|Py.getThreadState|PyObject._gt,0.08880633333077034,0.0,0.011014999998830413,0.0,0.09982133332960076
Py.make_array|PyTuple.tuple_new|PyTuple$exposed___new__.new_impl,0.04186923188251017,0.0,0.006296521739083497,0.0,0.048165753621593664
Py.newBoolean|PyString$str_isupper_exposer.__call__|PyObject.__call__,0.06968166667017309,0.0,0.009070000000065193,0.0,0.07875166667023828
Py.newBoolean|PyUnicode$unicode_isalpha_exposer.__call__|PyObject.__call__,0.04959313333092722,0.0,0.00639466666608415,0.0,0.05598779999701137
Py.newInteger|BuiltinFunctions.__call__|PyObject.__call__,0.0012877582416327279,0.0,0.00025318681326717813,0.0,0.001540945054899906
Py.newInteger|PyInteger.int___mul__|PyInteger.__mul__,0.031792156076269784,0.0,0.003132308892557277,0.0,0.03492446496882706
Py.newInteger|PyString.__int__|PyInteger.asPyInteger,0.048905666667689064,0.0,0.00416020270257594,0.0,0.053065869370265
PyBaseCode.call|PyBaseCode.call|PyFunction.__call__,0.06642666667175945,0.0,0.009500000000116415,0.0,0.07592666667187586
PyBaseCode.call|PyFunction.__call__|PyFunction.__call__,0.03383951514931113,0.0,0.004916363636518574,0.0,0.03875587878582971
PyBaseException$BaseException___init___exposer.__call__|PyBaseExceptionDerived.dispatch__init__|PyType.invoke_new_,0.021862285714762817,0.0,0.002055714285580463,0.0,0.02391800000034328
PyBaseException$exposed___new__.createOfSubtype|PyOverridableNew.new_impl|PyType.invoke_new_,0.02102470815807882,0.0,0.0024903564724601465,0.0,0.023515064630538967
PyBaseString.<init>|PyString.<init>|PyString.<init>,0.0516254166662596,0.0,0.006118750000041473,0.0,0.057744166666301076
PyClass.__call__|PyObject.__call__|PyObject.__call__,0.015136666668695398,0.0,0.0012800000004062895,0.0,0.016416666669101687
PyClass.lookup|PyClass.__findattr_ex__|PyObject.__getattr__,0.03752537037211436,0.0,0.004022222221667309,0.0,0.04154759259378167
PyComplex.<init>|PyComplex.<init>|PyComplex._sub,0.04807289127161219,0.0,0.005099538045593361,0.0,0.053172429317205554
PyComplex._mul|PyComplex.complex___mul__|PyComplex.__mul__,0.026008984320107027,0.0,0.00280851282111538,0.0,0.028817497141222406
PyDictionary.<init>|Dict$py.test$2|Dict$py.call_function,0.16750571666610387,0.0,0.024809249999149567,0.0,0.19231496666525344
PyDictionary.__finditem__|PyObject.__getitem__|Dict$py.test$5,0.02616829629685661,0.0,0.002431111111137498,0.0,0.028599407407994108
PyException.isExceptionInstance|PyException.normalize|Py.setException,0.04429409523782808,0.0,0.005520000000528635,0.0,0.04981409523835672
PyException.normalize|PyException.match|PyString.__int__,0.04901128571405673,0.0,0.0065078571429434545,0.0,0.05551914285700019
PyException.tracebackHere|Py.setException|Exceptions$py.test$2,0.0287340000019564,0.0,0.0025900000000547148,0.0,0.03132400000201111
PyFastSequenceIter.__iternext__|Constructs$py.test$8|Constructs$py.call_function,0.06463600000036725,0.0,0.003569999999551025,0.0,0.06820599999991828
PyFloat.<init>|PyFloat.<init>|PyFloat.float___sub__,0.026047851145488948,0.0,0.003366189443987905,0.0,0.02941404058947685
PyFloat.float___add__|PyFloat.__add__|PyObject._basic_add,0.019979120740873955,0.0,0.0017946346057443113,0.0,0.021773755346618268
PyFloat.float___div__|PyFloat.__div__|PyObject._basic_div,0.041773649415023865,0.0,0.003960439115096024,0.0,0.04573408853011989
PyFrame.<init>|PyFrame.<init>|PyBaseCode.call,0.02333807407369561,0.0,0.003513333332698999,0.0,0.026851407406394606
PyFrame.getLocals|imp.importOne|Imports$py.test$2,0.03215534855454037,0.0,0.004656399361431844,0.0,0.036811747915972214
PyFrame.getlocal|Arithmetic$py.test$14|Arithmetic$py.call_function,0.11808425007897892,0.0,0.014833587605295196,0.0,0.13291783768427412
PyFrame.getlocal|Arithmetic$py.test$2|Arithmetic$py.call_function,0.025281818461324573,0.0,0.00241864886400078,0.0,0.027700467325325353
PyFrame.getlocal|Arithmetic$py.test$5|Arithmetic$py.call_function,0.03373605633827898,0.0,0.003762427656525366,0.0,0.03749848399480435
PyFrame.getlocal|Strings$py.test$5|Strings$py.call_function,0.13648422222435733,0.0,0.010720000000421552,0.0,0.14720422222477889
PyFrame.getlocal|Strings$py.test$8|Strings$py.call_function,0.14313833831500078,0.0,0.014202410354115031,0.0,0.15734074866911582
PyFrame.getlocal|Unicode$py.test$11|Unicode$py.call_function,0.0859919444458986,0.0,0.01018333333377086,0.0,0.09617527777966946
PyFrame.getlocal|Unicode$py.test$5|Unicode$py.call_function,0.03691099999923608,0.0,0.0024074999998144144,0.0,0.039318499999050495
PyFrame.setline|Arithmetic$py.test$5|Arithmetic$py.call_function,0.0755845834180569,0.0,0.008145619870929708,0.0,0.08373020328898662
PyFrame.setline|Calls$py.j$19|Calls$py.call_function,0.05352766666813598,0.0,0.008140000000518436,0.0,0.06166766666865441
PyFrame.setline|Constructs$py.test$8|Constructs$py.call_function,0.0861409999973451,0.0,0.006140000000110982,0.0,0.09228099999745609
PyFrame.setline|Lists$py.test$2|Lists$py.call_function,0.05374200110549908,0.0,0.006419217240720146,0.0,0.06016121834621922
PyFrame.setline|Lookups$py.test$7|Lookups$py.call_function,0.0792848078742652,0.0,0.008420972221731266,0.0,0.08770578009599647
PyFrame.setline|Numbers$py.test$2|Numbers$py.call_function,0.04197984047911271,0.0,0.004751517316189113,0.0,0.046731357795301826
PyFrame.setline|Strings$py.test$8|Strings$py.call_function,0.02758803376338617,0.0,0.002678825403413671,0.0,0.03026685916679984
PyFrame.setlocal|Arithmetic$py.test$14|Arithmetic$py.call_function,0.026008984320107027,0.0,0.00280851282111538,0.0,0.028817497141222406
PyFrame.setlocal|Constructs$py.test$5|Constructs$py.call_function,0.054049999998824205,0.0,0.00631249999969441,0.0,0.060362499998518615
PyFrame.setlocal|Constructs$py.test$8|Constructs$py.call_function,0.08909099999679408,0.0,0.007994999999937136,0.0,0.09708599999673122
PyFrame.setlocal|Tuples$py.test$5|Tuples$py.call_function,0.08771808406135354,0.0,0.012103565217599362,0.0,0.0998216492789529
PyFrame.setlocal|Unicode$py.test$8|Unicode$py.call_function,0.10880460000120191,0.0,0.013361714285877365,0.0,0.12216631428707928
PyInstance$PyExposer.<init>|PyInstance.<clinit>|PyClass.__call__,0.03681441666655398,0.0,0.0030225000000427826,0.0,0.039836916666596764
PyInstance.instance___setattr__|PyInstance.__setattr__|Instances$py.__init__$7,0.02660237036912736,0.0,0.0038377777781096038,0.0,0.030440148147236966
PyInteger$PyExposer.<init>|PyInteger.<clinit>|Py.<clinit>,0.0,0.02007850574767056,0.0,0.0018758620689337039,0.021954367816604266
PyInteger.<clinit>|Py.<clinit>|PyType.init,0.0,0.02893280702042638,0.0,0.002669736842156118,0.0316025438625825
PyInteger.__cmp__|PyObject._try__cmp__|PyObject._cmp_unsafe,0.09279366666548107,0.0,0.012009999998554122,0.0,0.10480366666403519
PyInteger.canCoerce|PyInteger.int___add__|PyInteger.__add__,0.0234415532001834,0.0,0.002403337897430655,0.0,0.025844891097614058
PyInteger.canCoerce|PyInteger.int___cmp__|PyInteger.__cmp__,0.0390012800079927,0.0,0.004983874279021482,0.0,0.04398515428701419
PyInteger.canCoerce|PyInteger.int___sub__|PyInteger.__sub__,0.02508245374269676,0.0,0.002723426228988987,0.0,0.027805879971685748
PyInteger.divide|PyInteger.int___div__|PyInteger.__div__,0.07335552231548252,0.0,0.009628457935268467,0.0,0.08298398025075099
PyInteger.int___mul__|PyInteger.__mul__|PyObject._basic_mul,0.02694383411153904,0.0,0.003381959659788349,0.0,0.03032579377132739
PyInteger.int___sub__|PyInteger.__sub__|PyObject._basic_sub,0.028235628762730645,0.0,0.0032184230865879657,0.0,0.03145405184931861
PyList$exposed___new__.createOfType|PyOverridableNew.new_impl|PyType.invoke_new_,0.034521217392993735,0.0,0.005369565217457104,0.0,0.03989078261045084
PyList$list_append_exposer.bind|PyMethodDescr.method_descriptor___get__|PyMethodDescr.__get__,0.024370648936669632,0.0,0.003429778096613739,0.0,0.02780042703328337
PyList$list_insert_exposer.bind|PyMethodDescr.method_descriptor___get__|PyMethodDescr.__get__,0.041899058217185516,0.0,0.005496381525356225,0.0,0.04739543974254174
PyList.<init>|PyList.<init>|PyDictionary.dict_items,0.06657916666881647,0.0,0.00904166666663918,0.0,0.07562083333545565
PyList.<init>|PyList.<init>|__builtin__.range,0.018174384615401957,0.0,0.0027403846154181967,0.0,0.020914769230820154
PyList.list___len__|PyList.__len__|PySequence$1.len,0.027528727273668417,0.0,0.002698181818369917,0.0,0.030226909092038335
PyList.pyget|PySequence$1.getItem|SequenceIndexDelegate.checkIdxAndFindItem,0.32548664116773446,0.0,0.035825894676914063,0.0,0.3613125358446485
PyList.size|PyList.list___len__|PyList.__len__,0.0647786666668253,0.0,0.00488499999967947,0.0,0.06966366666650477
PyLong.long___div__|PyLong.__div__|PyObject._basic_div,0.06042491200071664,0.0,0.008158975635719707,0.0,0.06858388763643634
PyMethod$PyExposer.<init>|PyMethod.<clinit>|PyReflectedFunction._doget,0.021454204147653727,0.0,0.00224365210638584,0.0,0.023697856254039567
PyObject.<init>|PyBuiltinCallable.<init>|PyBuiltinMethod.<init>,0.05891795555653515,0.0,0.00774400000001252,0.0,0.06666195555654768
PyObject.<init>|PyIterator.<init>|PyFastSequenceIter.<init>,0.11791866667226714,0.0,0.010206874999388067,0.0,0.1281255416716552
PyObject.<init>|PySequence.<init>|PyBaseString.<init>,0.0258265714281671,0.0,0.0038914285713482454,0.0,0.029717999999515344
PyObject.<init>|PyTraceback.<init>|PyException.tracebackHere,0.032484680049462755,0.0,0.0028365294620863856,0.0,0.03532120951154914
PyObject.__call__|Lists$py.test$2|Lists$py.call_function,0.05198014369682018,0.0,0.006703320136134477,0.0,0.058683463832954655
PyObject.__getattr__|Py.initExc|Py.initClassExceptions,0.01961833114802993,0.0,0.002295049812452165,0.0,0.021913380960482096
PyObject.__getattr__|unicodedata$py.get$11|unicodedata$py.call_function,0.0690713333315216,0.0,0.010084999999283657,0.0,0.07915633333080525
PyObject.__lt__|PyObject._gt|Numbers$py.test$2,0.015783476919095037,0.0,0.0018237700087353856,0.0,0.017607246927830424
PyObject._basic_div|PyObject._div|Arithmetic$py.test$8,0.024333268968634844,0.0,0.003312236282776008,0.0,0.02764550525141085
PyObject._cmp_unsafe|PyObject._lt|Numbers$py.test$8,0.02137887905834969,0.0,0.0025031505651507547,0.0,0.023882029623500445
PyObject._cmp|__builtin__.cmp|BuiltinFunctions.__call__,0.029324061552400464,0.0,0.003853609157527,0.0,0.03317767070992746
PyObject._div|Arithmetic$py.test$14|Arithmetic$py.call_function,0.022106094864121212,0.0,0.0019665503846350526,0.0,0.024072645248756266
PyObject._eq|Constructs$py.test$2|Constructs$py.call_function,0.06757061538519338,0.0,0.00768923076975625,0.0,0.07525984615494963
PyObject._eq|Strings$py.test$8|Strings$py.call_function,0.019249144887414308,0.0,0.001909578304262288,0.0,0.021158723191676596
PyObject._eq|Unicode$py.test$5|Unicode$py.call_function,0.01988388888841857,0.0,0.001946666666804554,0.0,0.021830555555223126
PyObject._ge|Strings$py.test$8|Strings$py.call_function,0.03857121049926248,0.0,0.004346093516149593,0.0,0.04291730401541207
PyObject._gt|Numbers$py.test$11|Numbers$py.call_function,0.0269165714292155,0.0,0.0016757142854787938,0.0,0.028592285714694295
PyObject._gt|Numbers$py.test$2|Numbers$py.call_function,0.04197984047911271,0.0,0.004751517316189113,0.0,0.046731357795301826
PyObject._gt|Numbers$py.test$5|Numbers$py.call_function,0.048041051361217446,0.0,0.0057820168924820215,0.0,0.053823068253699466
PyObject._gt|Numbers$py.test$8|Numbers$py.call_function,0.02258692880729353,0.0,0.002636976322369654,0.0,0.025223905129663184
PyObject._lt|Numbers$py.test$5|Numbers$py.call_function,0.034064850771735565,0.0,0.0039712640505584615,0.0,0.03803611482229403
PyObject._lt|StringIO$py.readline$11|StringIO$py.call_function,0.035240662163257205,0.0,0.0030335135130158744,0.0,0.03827417567627308
PyObject.getType|PyObject._add|Strings$py.test$11,0.05622850000145263,0.0,0.007260000000314902,0.0,0.06348850000176753
PyObject.getType|PyObject._eq|Numbers$py.test$11,0.0439191428574434,0.0,0.003338571428944955,0.0,0.04725771428638836
PyObject.getType|PyObject._eq|Numbers$py.test$2,0.02330017724848089,0.0,0.002802222414226309,0.0,0.0261023996627072
PyObject.object___findattr__|PyObject.__findattr_ex__|PyObject.__getattr__,0.024370648936669632,0.0,0.003429778096613739,0.0,0.02780042703328337
PyObject.object___setattr__|PyObject.object___setattr__|PyObject$object___setattr___exposer.__call__,0.05084733333599918,0.0,0.0076700000003408295,0.0,0.05851733333634001
PyObjectDerived.__setattr__|NewInstances$py.__init__$8|NewInstances$py.call_function,0.05993920833194957,0.0,0.00872625000026043,0.0,0.06866545833221001
PySequence.<init>|PyBaseString.<init>|PyString.<init>,0.13498529999633319,0.0,0.017236500000944944,0.0,0.15222179999727814
PySequence.<init>|PySequenceList.<init>|PyTuple.<init>,0.017390358975181017,0.0,0.0024769230770359104,0.0,0.01986728205221693
PySet$PyExposer.<init>|PySet.<clinit>|__builtin__.fillWithBuiltins,0.03118084252186496,0.0,0.00323059302924736,0.0,0.03441143555111232
PySlot$PyExposer.<init>|PySlot.<clinit>|PyType.createAllSlots,0.01437011844292526,0.0,0.0016042236168043284,0.0,0.01597434205972959
PyString$exposed___new__.new_impl|PyType.invoke_new_|PyType.type___call__,0.027052111112021108,0.0,0.0033600000000054324,0.0,0.03041211111202654
PyString$str_index_exposer.bind|PyMethodDescr.method_descriptor___get__|PyMethodDescr.__get__,0.03124237500014715,0.0,0.004080000000158179,0.0,0.03532237500030533
PyString$str_isdigit_exposer.__call__|PyObject.__call__|Strings$py.test$20,0.021942099998705087,0.0,0.002795999999943888,0.0,0.024738099998648976
PyString$str_upper_exposer.bind|PyMethodDescr.method_descriptor___get__|PyMethodDescr.__get__,0.03619104761829865,0.0,0.004502857142748932,0.0,0.04069390476104758
PyString.<init>|PyString.fromInterned|PyObjectDerived.__setattr__,0.06603999999788357,0.0,0.009974999999940335,0.0,0.0760149999978239
PyString.atoi|PyString.__int__|PyInteger.asPyInteger,0.10349100000166801,0.0,0.01304100000015751,0.0,0.11653200000182552
PyString.createInstance|PyString.fromSubstring|PyString.str_partition,0.03018187499947089,0.0,0.0034350000000813448,0.0,0.03361687499955223
PyString.str___add__|PyString.__add__|PyObject._basic_add,0.07110020634648945,0.0,0.010697857143058504,0.0,0.08179806348954795
PyString.str_islower|PyUnicode.unicode_islower|PyUnicode$unicode_islower_exposer.__call__,0.06352817777790025,0.0,0.0076450000002902625,0.0,0.07117317777819052
PyString.str_title|PyUnicode.unicode_title|PyUnicode$unicode_title_exposer.__call__,0.06914070000057107,0.0,0.009467999999833408,0.0,0.07860870000040449
PyStringMap.__finditem__|PyFrame.doGetglobal|PyFrame.getglobal,0.11973336667061732,0.0,0.016634166666376078,0.0,0.1363675333369934
PyStringMap.__finditem__|PyFrame.doGetglobal|PyFrame.getname,0.0905901147180464,0.0,0.010944890759125091,0.0,0.1015350054771715
PyStringMap.__finditem__|PyType.lookup|PyObject.object___findattr__,0.11563276521738389,0.0,0.014098318840519318,0.0,0.1297310840579032
PyTableCode.call|PyBaseCode.call|PyBaseCode.call,0.05084733333599918,0.0,0.0076700000003408295,0.0,0.05851733333634001
PyTableCode.call|PyBaseCode.call|PyFunction.__call__,0.09163433333257368,0.0,0.013480000000223905,0.0,0.10511433333279759
PyTuple.<init>|PyTuple.fromArrayNoCopy|PyTuple.getslice,0.07837613333152453,0.0,0.010027333333305756,0.0,0.08840346666483029
PyType.addFromClass|PyType.fromClass|PyObject.<init>,0.0,0.018966494252886518,0.0,0.0019301724137483105,0.02089666666663483
PyType.fastGetDict|PyType.lookup|PyObject.object___findattr__,0.028245421711950082,0.0,0.003944704254110657,0.0,0.03219012596606074
PyType.fromClass|PyObject.<init>|PyFrame.<init>,0.38948404012299687,0.0,0.04815974206413946,0.0,0.43764378218713634
PyType.fromClass|PyObject.<init>|PyIterator.<init>,0.07125861110883609,0.0,0.007941666667142676,0.0,0.07920027777597877
PyType.fromClass|PyObject.<init>|PyStringMap.<init>,0.06603999999788357,0.0,0.009974999999940335,0.0,0.0760149999978239
PyType.fromClass|PyObject.<init>|PyTraceback.<init>,0.09243296642058753,0.0,0.009877444717697558,0.0,0.10231041113828508
PyType.isSubType|PyDescriptor.checkGetterType|PyMethodDescr.method_descriptor___get__,0.03995771428647761,0.0,0.0044971428571790005,0.0,0.044454857143656615
PyType.isSubType|PyException.isExceptionClass|PyException.normalize,0.036093760000076136,0.0,0.0045072000002255655,0.0,0.0406009600003017
PyType.isSubType|PyObject._eq|Numbers$py.test$8,0.02258692880729353,0.0,0.002636976322369654,0.0,0.025223905129663184
PyType.isSubType|PyObject._lt|Numbers$py.test$8,0.04516072773981245,0.0,0.005115889408707078,0.0,0.05027661714851953
PyType.lookup|PyObject.object___findattr__|PyObject.__findattr_ex__,0.1977219900847384,0.0,0.02676089006082659,0.0,0.224482880145565
PyType.lookup|PyObjectDerived.__setattr__|NewInstances$py.__init__$8,0.05993920833194957,0.0,0.00872625000026043,0.0,0.06866545833221001
PyType.lookup|PyObjectDerived.dispatch__init__|PyType.invoke_new_,0.05416991666697868,0.0,0.00721093749962165,0.0,0.06138085416660033
PyType.lookup|PyType.type___call__|PyType.__call__,0.024285222220997736,0.0,0.002629999999852669,0.0,0.026915222220850406
PyUnicode$PyExposer.<init>|PyUnicode.<clinit>|__builtin__.fillWithBuiltins,0.02486007133322337,0.0,0.0028803039329578523,0.0,0.02774037526618122
PyUnicode.getslice|PySequence$1.getSlice|SequenceIndexDelegate.getSlice,0.06445309091147712,0.0,0.007236363637000038,0.0,0.07168945454847715
PyUnicode.unicode___add__|PyUnicode.__add__|PyObject._basic_add,0.035306461538241886,0.0,0.005914615384356764,0.0,0.04122107692259865
PyUnicode.unicode_isalpha|PyUnicode$unicode_isalpha_exposer.__call__|PyObject.__call__,0.14831551965967846,0.0,0.02036438461518239,0.0,0.16867990427486085
PyUnicode.unicode_isdigit|PyUnicode$unicode_isdigit_exposer.__call__|PyObject.__call__,0.040327955555726984,0.0,0.005980333333880279,0.0,0.046308288889607266
PyUnicode.unicode_new|PyUnicode$exposed___new__.new_impl|PyType.invoke_new_,0.1037240450479969,0.0,0.010745270270605149,0.0,0.11446931531860205
PythonLexer.mTRIQUOTE|PythonLexer.mSTRING|PythonLexer.mTokens,0.0,0.08323166665892738,0.0,0.014020000000527943,0.09725166665945532
PythonLexer.mTokens|PythonLexer.nextToken|BaseParser$PyLexer.nextToken,0.0,0.08207199999984974,0.0,0.011459999999715365,0.0935319999995651
PythonParser.<clinit>|BaseParser.setupParser|BaseParser.parseModule,0.0,0.278258999993947,0.0,0.03981000000082228,0.3180689999947693
PythonParser.<init>|PythonParser.<init>|PythonParser.<init>,0.0,0.1559043333400041,0.0,0.02266999999968296,0.17857433333968706
PythonParser.atom|PythonParser.power|PythonParser.factor,0.17264833333319984,0.0,0.01926000000094064,0.0,0.19190833333414048
PythonParser.for_stmt|PythonParser.compound_stmt|PythonParser.stmt,0.0,0.03591538684705203,0.0,0.004614199715889397,0.04052958656294143
PythonParser.not_test|PythonParser.and_test|PythonParser.or_test,0.0,0.04002006000038378,0.0,0.0063705031497218135,0.04639056315010559
PythonParser.small_stmt|PythonParser.simple_stmt|PythonParser.stmt,0.09105540740872836,0.0,0.00926666666594058,0.0,0.10032207407466895
RegularEnumSet.contains|CompilerFlags.isFlagSet|PyBaseCode.call,0.055216333334101364,0.0,0.008045000001099348,0.0,0.06326133333520072
Return$PyExposer.<init>|Return.<clinit>|PythonParser.return_stmt,0.0,0.05207368774934775,0.0,0.00837579962513877,0.06044948737448652
RewriteRuleElementStream.<init>|RewriteRuleTokenStream.<init>|PythonParser.and_expr,0.0,0.03935426529222247,0.0,0.00613621199156769,0.04549047728379016
SequenceIndexDelegate.fixindex|SequenceIndexDelegate.checkIdxAndFindItem|PySequence.seq___finditem__,0.1615912753643014,0.0,0.017010760869052843,0.0,0.17860203623335424
SimpleCharStream.getBeginColumn|ConfigFileTokenManager.jjFillToken|ConfigFileTokenManager.getNextToken,0.0,0.045727600000100205,0.0,0.00657900000041991,0.05230660000052011
StreamIO.isatty|BufferedIOMixin.isatty|TextIOBase.isatty,0.01961833114802993,0.0,0.002295049812452165,0.0,0.021913380960482096
String.<init>|PyUnicode.<init>|Py.makeCharacter,0.058461666666820136,0.0,0.0069825000008070974,0.0,0.06544416666762723
String.<init>|String.substring|PyString.fromSubstring,0.017676564413365486,0.0,0.001757436236367657,0.0,0.019434000649733142
String.charAt|DecimalFormatSymbols.initialize|DecimalFormatSymbols.<init>,0.07933002150672618,0.0,0.01005290322595962,0.0,0.08938292473268579
String.charAt|PyString.atoi|PyString.__int__,0.016612367429427347,0.0,0.0015586180295666294,0.0,0.018170985458993975
String.codePointAt|__builtin__.ord|BuiltinFunctions.__call__,0.07849133333365899,0.0,0.010840000000219636,0.0,0.08933133333387862
String.getChars|String.concat|PyString.str___add__,0.027052222220744517,0.0,0.003086666666301123,0.0,0.03013888888704564
String.hashCode|ConcurrentHashMap.get|PyStringMap.__finditem__,0.08851111926807315,0.0,0.01161701124813226,0.0,0.10012813051620541
String.hashCode|PyString.str___hash__|PyString.hashCode,0.02915536231686955,0.0,0.003993478260952912,0.0,0.03314884057782246
String.indexOf|String.indexOf|PyString.str_find,0.022137959255976298,0.0,0.00208637712315554,0.0,0.024224336379131836
String.intern|ImportFunction.__call__|PyObject.__call__,0.10942761300923794,0.0,0.014281348908715043,0.0,0.12370896191795298
String.intern|imp.import_next|imp.import_name,0.11968269063682588,0.0,0.016093147128140313,0.0,0.13577583776496618
String.substring|CachedJarsPackageManager.addZipEntry|CachedJarsPackageManager.getZipPackages,0.022933237688929527,0.0,0.0021367763249207725,0.0,0.025070014013850297
String.substring|PyString.fromSubstring|PyString.splitfields,0.037513750001380686,0.0,0.004473749999760912,0.0,0.0419875000011416
String.substring|PyType.getName|PyBaseException.BaseException___init__,0.03765527777634108,0.0,0.004291666666884137,0.0,0.04194694444322522
String.substring|PyUnicode.fromSubstring|PyString.getslice,0.06445309091147712,0.0,0.007236363637000038,0.0,0.07168945454847715
String.toLowerCase|String.toLowerCase|PyString.str_lower,0.15723124444355357,0.0,0.01955283333425339,0.0,0.17678407777780697
String.toUpperCase|String.toUpperCase|PyString.str_upper,0.048185684212704034,0.0,0.0059431578947145396,0.0,0.05412884210741857
StringBuilder.append|StringBuilder.<init>|Currency.getInstance,0.06937479924629303,0.0,0.006957611377547679,0.0,0.0763324106238407
StringBuilder.append|StringBuilder.<init>|imp.import_name,0.0334574999991067,0.0,0.004750000000058208,0.0,0.03820749999916491
StringBuilder.append|imp.import_next|imp.import_name,0.03862499999862242,0.0,0.005234999999932673,0.0,0.043859999998555096
StringBuilder.toString|imp.import_next|imp.import_name,0.03862499999862242,0.0,0.005234999999932673,0.0,0.043859999998555096
StringIO$py.readline$11|StringIO$py.call_function|PyTableCode.call,0.05518272463814355,0.0,0.0063608695654429675,0.0,0.061543594203586516
Strings$py.test$11|Strings$py.call_function|PyTableCode.call,0.28495496825746075,0.0,0.03598886904660864,0.0,0.3209438373040694
Strings$py.test$14|Strings$py.call_function|PyTableCode.call,0.08166000000225418,0.0,0.013093750000431706,0.0,0.09475375000268589
Strings$py.test$17|Strings$py.call_function|PyTableCode.call,0.03553980952295075,0.0,0.003911428571362713,0.0,0.039451238094313466
Strings$py.test$20|Strings$py.call_function|PyTableCode.call,0.27613883332984795,0.0,0.031138750000233507,0.0,0.3072775833300815
Strings$py.test$2|Strings$py.call_function|PyTableCode.call,0.07754141829977895,0.0,0.012352352941306413,0.0,0.08989377124108537
Strings$py.test$5|Strings$py.call_function|PyTableCode.call,0.8676880908439925,0.0,0.056007197802768374,0.0,0.9236952886467609
Strings$py.test$8|Strings$py.call_function|PyTableCode.call,1.105804937085561,0.0,0.09840224846616877,0.0,1.2042071855517298
ThreadLocal$ThreadLocalMap.access$000|ThreadLocal.get|ThreadStateMapping.getThreadState,0.0439191428574434,0.0,0.003338571428944955,0.0,0.04725771428638836
ThreadLocal$ThreadLocalMap.getEntry|ThreadLocal$ThreadLocalMap.access$000|ThreadLocal.get,0.3058762034900459,0.04474555555498228,0.03412228936547532,0.006426666666407578,0.39117071507691104
ThreadLocal.get|ThreadStateMapping.getThreadState|Py.getThreadState,0.10141330709287105,0.0,0.011574829575961338,0.0,0.1129881366688324
ThreadStateMapping.getThreadState|Py.getThreadState|Py.getThreadState,0.02010206744018564,0.0,0.001975462252188698,0.0,0.022077529692374337
Throwable.fillInStackTrace|Throwable.fillInStackTrace|PyException.fillInStackTrace,4.268095192832898,0.0,0.5027263610864778,0.0,4.770821553919376
Throwable.fillInStackTrace|Throwable.fillInStackTrace|Throwable.<init>,1.9204775991811711,0.0,0.2122043365404181,0.0,2.1326819357215894
Time._timefields|Time.localtime|NativeMethodAccessorImpl.invoke0,0.024789692306792583,0.0,0.0033369230768585108,0.0,0.028126615383651094
TreeMap.setColor|TreeMap.fixAfterInsertion|TreeMap.put,0.0,0.05396091410209156,0.0,0.010771878239968346,0.0647327923420599
Tuples$py.test$2|Tuples$py.call_function|PyTableCode.call,0.09836994871819534,0.0,0.013618461538825594,0.0,0.11198841025702093
Tuples$py.test$5|Tuples$py.call_function|PyTableCode.call,0.3596334777790212,0.0,0.04165683333396575,0.0,0.40129031111298696
URL.isValidProtocol|URL.<init>|URL.<init>,0.0,0.05985362659014248,0.0,0.012916665923698178,0.07277029251384065
URLClassLoader.defineClass|URLClassLoader.access$100|URLClassLoader$1.run,0.0,0.02007850574767056,0.0,0.0018758620689337039,0.021954367816604266
UTF_8$Decoder.decode|ZipCoder.toString|ZipInputStream.readLOC,0.0,0.015569761904078487,0.0,0.0015492857143856648,0.017119047618464153
Unicode$py.test$11|Unicode$py.call_function|PyTableCode.call,0.12333819696946055,0.0,0.015936212120754814,0.0,0.13927440909021538
Unicode$py.test$17|Unicode$py.call_function|PyTableCode.call,0.3145703846183516,0.0,0.03893576923170864,0.0,0.35350615385006023
Unicode$py.test$2|Unicode$py.call_function|PyTableCode.call,0.09750995604506217,0.0,0.01785065934082313,0.0,0.1153606153858853
Unicode$py.test$5|Unicode$py.call_function|PyTableCode.call,0.3085140277798928,0.0,0.025437500000104283,0.0,0.3339515277799971
Unicode$py.test$8|Unicode$py.call_function|PyTableCode.call,0.12962240000100184,0.0,0.019631999998819084,0.0,0.14925439999982093
UnixFileSystem.delete0|UnixFileSystem.delete|File.delete,0.057483380952492426,0.0,0.00612857142905774,0.0,0.06361195238155017
UnixFileSystem.getBooleanAttributes0|UnixFileSystem.getBooleanAttributes|File.isDirectory,0.048970666665506236,0.0,0.005690000000565003,0.0,0.054660666666071236
While$PyExposer.<init>|While.<clinit>|GrammarActions.makeWhile,0.0,0.04845359595210425,0.0,0.007699101498646371,0.05615269745075062
ZStreamRef.address|Inflater.inflate|InflaterInputStream.read,0.01855572596830073,0.0,0.001957271685486036,0.0,0.020512997653786766
ZipFile.getEntry|ZipFile.getEntry|JarFile.getEntry,0.0,0.06931648000143467,0.0,0.007848000000230967,0.07716448000166563
ZipFile.read|ZipFile.access$1400|ZipFile$ZipFileInputStream.read,0.0,0.02804888889012444,0.0,0.003666666666605225,0.03171555555672967
ZipFile.releaseInflater|ZipFile.access$100|ZipFile$ZipFileInflaterInputStream.close,0.0,0.018966494252886518,0.0,0.0019301724137483105,0.02089666666663483
ZipInputStream.createZipEntry|ZipInputStream.readLOC|ZipInputStream.getNextEntry,0.0,0.06800666666175756,0.0,0.010133333333619196,0.07813999999537675
ZipInputStream.ensureOpen|ZipInputStream.read|InflaterInputStream.read,0.03242169618609237,0.1078307017543059,0.0034384574591901987,0.012043684210527171,0.15573453961011563
ZipInputStream.ensureOpen|ZipInputStream.read|ZipInputStream.skip,0.0,0.04631695237808993,0.0,0.0065599999995486396,0.05287695237763857
ZipInputStream.readFully|ZipInputStream.readLOC|ZipInputStream.getNextEntry,0.05056268959708149,0.0,0.005579106623316957,0.0,0.05614179622039844
ZipInputStream.read|InflaterInputStream.read|DataInputStream.readInt,0.0,0.04908853333132962,0.0,0.008479999999852023,0.05756853333118164
ZipInputStream.read|InflaterInputStream.read|DataInputStream.readUnsignedShort,0.09616079073140543,0.0836471428573575,0.01073601723814067,0.008757142856796105,0.1993010936836997
ZipInputStream.read|ZipInputStream.skip|DataInputStream.skipBytes,0.01949576068367077,0.0,0.0018707692308966308,0.0,0.0213665299145674
__builtin__.cmp|BuiltinFunctions.__call__|PyObject.__call__,0.018174384615401957,0.0,0.0027403846154181967,0.0,0.020914769230820154
__builtin__.fillWithBuiltins|PySystemState$DefaultBuiltinsHolder.fillin|PySystemState$DefaultBuiltinsHolder.<clinit>,0.02709842833996286,0.0,0.0031684595886672,0.0,0.03026688792863006
arguments$PyExposer.<init>|arguments.<clinit>|PythonParser.parameters,0.0,0.06350034487522825,0.0,0.009248615482480464,0.07274896035770871
imp.getSyspathJavaLoader|Py.findClassEx|imp.loadBuiltin,0.02125678878625469,0.0,0.0025479076457213365,0.0,0.023804696431976025
imp.import_name|imp.importName|ImportFunction.__call__,0.04773966666834895,0.0,0.00608500000028774,0.0,0.053824666668636695
unicodedata$py.get$11|unicodedata$py.call_function|PyTableCode.call,0.1725259999996827,0.0,0.022744999998394633,0.0,0.19527099999807734
unicodedata$py.get_int$1|unicodedata$py.call_function|PyTableCode.call,0.02509935483742024,0.0,0.0031664516131821715,0.0,0.028265806450602414
unicodedata$py.init_east_asian_width$5|unicodedata$py.call_function|PyTableCode.call,0.18603159420013402,0.0,0.030160869565789006,0.0,0.21619246376592302
unicodedata$py.init_unicodedata$4|unicodedata$py.call_function|PyTableCode.call,0.0763298941921112,0.0,0.009218245161314222,0.0,0.08554813935342542
