method,hits
ANTLRStringStream.mark,2
AbstractAlgorithmConstraints.getAlgorithms,2
AbstractCollection.toArray,10
AbstractStringBuilder.ensureCapacityInternal,2
AnnotationReader.<init>,2
ArgParser.<init>,4
Arithmetic$py.test$11,18
Arithmetic$py.test$14,20
Arithmetic$py.test$2,36
Arithmetic$py.test$5,52
Arithmetic$py.test$8,34
ArrayDeque.addLast,2
ArrayList.access$000,2
ArrayList.addAll,2
ArrayList.elementData,6
ArrayList.rangeCheckForAdd,2
Arrays.copyOf,20
Arrays.copyOfRange,10
BaseParser.setupParser,26
BigInteger.<clinit>,2
BigInteger.add,2
BigInteger.compareTo,2
BigInteger.divideKnuth,2
BigInteger.equals,2
BitSet.<init>,2
BufferedIOMixin.closed,2
BufferedInputStream.getBufIfOpen,2
BufferedInputStream.read,34
BufferedInputStream.read1,8
BufferedOutputStream.flush,2
BuiltinFunctions.__call__,2
CRC32.update,4
CachedJarsPackageManager.addZipEntry,2
Calls$py.call_function,2
Calls$py.f$28,4
Calls$py.h$6,2
Calls$py.test$13,2
Calls$py.test$16,8
Calls$py.test$2,6
Character.getType,2
Character.toLowerCase,2
Character.toUpperCaseEx,4
CharacterData00.getProperties,2
CharacterDataLatin1.toUpperCase,6
CharacterDataLatin1.toUpperCaseEx,2
Class$MethodArray.addIfNotPresent,2
Class.createAnnotationData,2
Class.forName0,4
Class.isAssignableFrom,2
ClassLoader.defineClass1,48
ClassLoader.findLoadedClass0,2
ClassReader.accept,2
ClassReader.readUTF8,2
ClassWriter.<init>,2
ClassWriter.a,2
ClassWriter.newUTF8,2
Code.getstatic,2
CodeCompiler.suite,2
CommonTokenStream.LT,6
CommonTokenStream.fillBuffer,2
CompilerFlags.isFlagSet,2
ConcurrentHashMap.addCount,8
ConcurrentHashMap.casTabAt,2
ConcurrentHashMap.get,14
ConcurrentHashMap.initTable,2
ConcurrentHashMap.putVal,32
ConcurrentHashMap.replaceNode,8
ConcurrentHashMap.spread,4
ConcurrentHashMap.tabAt,14
ConcurrentHashMap.transfer,4
Constructs$py.test$2,38
Constructs$py.test$5,4
Constructs$py.test$8,6
Currency.getMainTableEntry,2
DFA.predict,2
DataInputStream.readShort,2
DataInputStream.readUnsignedShort,4
DataInputStream.skipBytes,2
DecimalFormatSymbols.initialize,2
Dict$py.test$11,14
Dict$py.test$14,16
Dict$py.test$2,8
Dict$py.test$5,4
Dict$py.test$8,6
Exceptions$py.test$2,6
Exceptions$py.test$5,8
FileInputStream.available0,4
FileInputStream.readBytes,8
FileOutputStream.close0,4
FileOutputStream.open0,14
FileOutputStream.writeBytes,40
FilterInputStream.read,2
FloatingDecimal.parseDouble,2
For$PyExposer.<init>,2
Formatter$Conversion.isValid,2
Formatter.format,2
Frame.a,4
FunctionDef$PyExposer.<init>,2
FutureFeature.<clinit>,2
Generic.concurrentMap,2
Generic.list,2
Gregorian.newCalendarDate,2
HashMap.getNode,2
HashMap.hash,4
HashSet.<init>,2
Hashtable.put,2
Inflater.inflate,22
Inflater.inflateBytes,446
Inflater.setInput,2
InflaterInputStream.read,6
JarFile.getManifestFromReference,2
JavaImportHelper.buildLoadedPackages,2
Lists$py.test$2,32
Lists$py.test$8,6
Lookups$py.test$12,10
Lookups$py.test$17,10
Lookups$py.test$2,12
Lookups$py.test$22,2
Lookups$py.test$7,10
Math.floor,2
Member.accept,2
Modifier.isPublic,2
Module.PyCode,2
Native.initIDs,2
Numbers$py.call_function,2
Numbers$py.test$11,4
Numbers$py.test$2,18
Numbers$py.test$5,4
Numbers$py.test$8,8
Object.<init>,2
Object.clone,2
PackageManager.checkAccess,4
Pattern$GroupHead.match,2
PushbackInputStream.read,6
Py.JavaError,2
Py.getThreadState,8
Py.initClassExceptions,2
Py.newInteger,2
PyArray$PyExposer.<init>,2
PyBaseCode.call,8
PyBaseException$PyExposer.<init>,2
PyBoolean$PyExposer.<init>,2
PyBoolean.__nonzero__,2
PyClass.__findattr_ex__,2
PyClass.__setattr__,2
PyComplex$PyExposer.<init>,2
PyDictionary$PyExposer.<init>,2
PyDictionary.<init>,2
PyDictionary.__finditem__,4
PyException.match,4
PyFile$PyExposer.<init>,2
PyFile.createBuffer,2
PyFloat$exposed___new__.new_impl,2
PyFloat.<init>,2
PyFrame.<init>,16
PyFrame.doGetglobal,2
PyFrame.getglobal,6
PyFrame.getlocal,32
PyFrame.setline,12
PyFrame.setlocal,16
PyFrame.setupEnv,4
PyInstance.__findattr_ex__,2
PyInteger.canCoerce,2
PyInteger.divide,2
PyInteger.int___cmp__,2
PyInteger.int___mod__,2
PyJavaType.wrapJavaObject,2
PyList$list_append_exposer.__call__,4
PyList$list_append_exposer.bind,2
PyList.<init>,2
PyList.pyget,8
PyList.size,4
PyLong$PyExposer.<init>,2
PyLong.<clinit>,2
PyLong.long___cmp__,2
PyObject.<init>,2
PyObject.__call__,4
PyObject.__eq__,2
PyObject.__getattr__,2
PyObject.__lt__,2
PyObject._basic_mul,2
PyObject._basic_sub,2
PyObject._cmp_unsafe,2
PyObject._eq,2
PyObject._gt,4
PyObject._lt,8
PyObject._ne,2
PyObject._try__cmp__,2
PyObject.fastGetDict,2
PyObject.getType,16
PyObject.object___setattr__,2
PyObjectDerived.dispatch__init__,2
PySequence$1.getItem,2
PySequence.seq___setitem__,2
PySet$PyExposer.<init>,2
PySlice.indicesEx,2
PySlot$PyExposer.<init>,2
PyString$str_isupper_exposer.bind,2
PyString.createInstance,2
PyString.fromSubstring,2
PyString.splitfields,2
PyString.str___add__,4
PyString.str___eq__,2
PyString.str___lt__,2
PyString.str_isalpha,2
PyString.str_isdigit,2
PyString.str_islower,2
PyString.str_lower,2
PyString.str_split,2
PyString.str_title,8
PyStringMap.__finditem__,16
PyStringMap.clear,2
PySystemState.<init>,2
PyTableCode.call,6
PyTuple.<init>,6
PyType.computeMro,2
PyType.createType,2
PyType.fromClass,20
PyType.isSubType,6
PyType.lookup,6
PyUnicode$PyExposer.<init>,2
PyUnicode$unicode_islower_exposer.__call__,2
PyUnicode.<init>,2
PyUnicode.unicode_isalnum,2
PythonLexer.<clinit>,4
PythonLexer.mNAME,2
PythonLexer.mSTRING,2
PythonLexer.mTRIQUOTE,2
PythonParser$elif_clause_return.<init>,2
PythonParser.<clinit>,2
PythonParser.<init>,4
PythonParser.expr_stmt,2
PythonParser.factor,2
PythonParser.for_stmt,2
PythonParser.if_stmt,2
PythonParser.list_for,2
PythonParser.return_stmt,2
PythonParser.simple_stmt,2
PythonParser.term,4
PythonParser.test,4
PythonTokenSource.insertImaginaryIndentDedentTokens,2
PythonTree.getChild,2
Raise$PyExposer.<init>,2
ReentrantLock$Sync.tryRelease,2
RegularEnumSet.contains,4
ScopeInfo.addBound,2
ScopeInfo.setup_closure,2
SequenceIndexDelegate.checkIdxAndGetItem,2
SequenceIndexDelegate.fixindex,8
String.<init>,6
String.charAt,4
String.hashCode,2
String.indexOf,4
String.intern,20
String.replace,2
String.substring,4
String.toLowerCase,4
String.toUpperCase,6
StringCoding$StringEncoder.encode,2
Strings$py.test$11,12
Strings$py.test$14,10
Strings$py.test$2,10
Strings$py.test$20,10
Strings$py.test$5,58
Strings$py.test$8,82
System.arraycopy,2
TextIOInputStream.read,2
ThreadLocal$ThreadLocalMap.getEntry,10
ThreadLocal.get,2
ThreadLocal.getMap,2
ThreadStateMapping.getThreadState,4
Throwable.fillInStackTrace,190
Time._timefields,2
TryExcept$PyExposer.<init>,2
Tuples$py.test$2,8
Tuples$py.test$5,12
URL.isValidProtocol,2
URLClassLoader.isSealed,2
US_ASCII.newDecoder,2
Unicode$py.test$11,4
Unicode$py.test$17,6
Unicode$py.test$2,2
Unicode$py.test$20,14
Unicode$py.test$5,30
Unicode$py.test$8,2
UnixFileSystem.delete0,14
UnixFileSystem.getBooleanAttributes0,2
UnixFileSystem.list,2
Vector.addElement,2
Visitor.<init>,2
ZipCoder.encoder,2
ZipCoder.toString,2
ZipFile.getEntry,2
ZipFile.getEntryTime,2
ZipFile.read,6
ZipInputStream.read,4
ZipInputStream.readLOC,2
ZipInputStream.skip,2
__builtin__.fillWithBuiltins,8
__builtin__.range,2
aliases$py.<init>,2
keyword$PyExposer.<init>,2
os$py.<init>,2
unicodedata$py.get$11,6
unicodedata$py.get_codepoint$9,2
unicodedata$py.init_unicodedata$4,8
