method,package1,package2,dram1,dram2,energy
ANTLRStringStream.LA,0.0,0.0,0.0,0.0,0.0
ANTLRStringStream.consume,0.07062177718118175,0.0,0.005627400308325205,0.0,0.07624917748950695
ANTLRStringStream.seek,0.0,0.0,0.0,0.0,0.0
AlgorithmDecomposer.<clinit>,0.0643877278641576,0.0,0.0073313913977929406,0.0,0.07171911926195054
Arithmetic$py.test$11,0.0,0.17581713212381367,0.0,0.025815201315095675,0.20163233343890935
Arithmetic$py.test$14,0.0,0.24814947277355073,0.0,0.03816109574989679,0.2863105685234475
Arithmetic$py.test$2,0.0,0.36804032561704275,0.0,0.06381532785113447,0.4318556534681772
Arithmetic$py.test$5,0.0,0.4760196338956756,0.0,0.08576822286232379,0.5617878567579994
Arithmetic$py.test$8,0.0,0.29390439188115486,0.0,0.05504672190459976,0.3489511137857546
Assign$PyExposer.<init>,0.0,0.0,0.0,0.0,0.0
AttributeInfo.<init>,0.08596884704093624,0.0,0.0019067769624584278,0.0,0.08787562400339467
AttributeInfo.read,0.023586949072792438,0.0,0.0018922323999410954,0.0,0.025479181472733533
BaseParser.setupParser,0.12883867964161608,0.0,0.002136684759517177,0.0,0.13097536440113325
Benchmark.deleteTree,0.0,0.22009161197081878,0.0,0.02611350106511124,0.24620511303593
Benchmark.fileFromInputStream,0.9364067976836474,0.0,0.05177129250627591,0.0,0.9881780901899233
BoolOp$PyExposer.<init>,0.038849248275430966,0.0,0.002614950703939126,0.0,0.04146419897937009
BytecodeLoader.makeCode,0.07387045294855915,0.0,0.0041249104495569636,0.0,0.07799536339811611
CachedJarsPackageManager.addZipEntry,0.18241145353475316,0.0,0.018364682749215964,0.0,0.20077613628396912
CachedJarsPackageManager.getZipPackages,5.237849484362333,0.0,0.4446147619379033,0.0,5.682464246300237
CachedJarsPackageManager.listToString,0.0,0.0,0.0,0.0,0.0
Calls$py.call_function,0.0,0.0,0.0,0.0,0.0
Calls$py.f$28,0.0,0.04777948333223415,0.0,0.010515640060534407,0.05829512339276856
Calls$py.test$13,0.0,0.0,0.0,0.0,0.0
Calls$py.test$16,0.0,0.0,0.0,0.0,0.0
Calls$py.test$27,0.0,0.0,0.0,0.0,0.0
ClassFile.getInterfaces,0.045552452825614924,0.0,0.0025539077122021725,0.0,0.0481063605378171
ClassFile.read,0.0,0.0,0.0,0.0,0.0
ClassPool.makeClass,0.0,0.0,0.0,0.0,0.0
ClassReader.<init>,0.08610841229934972,0.0,0.00749727839187816,0.0,0.09360569069122789
ClassReader.accept,0.037798050097711824,0.0,0.0,0.0,0.037798050097711824
CodeAttribute.<init>,0.0,0.0,0.0,0.0,0.0
CodeCompiler.visitFunctionDef,0.03638486915235237,0.0,0.002773065821027521,0.0,0.03915793497337989
CommonToken.getType,0.09529819155264882,0.0,0.009547129377871355,0.0,0.10484532093052018
CommonTokenStream.LT,0.0,0.0,0.0,0.0,0.0
CompilerFlags.isFlagSet,0.0,0.0,0.0,0.0,0.0
ConfigFile.<init>,0.0,0.0,0.0,0.0,0.0
ConstPool.addItem,0.0,0.0,0.0,0.0,0.0
ConstPool.readOne,0.032161893090771235,0.0,0.0005883930876884595,0.0,0.032750286178459695
ConstantSet.<init>,0.02642505987058455,0.0,0.0010658179733680467,0.0,0.027490877843952596
Constructs$py.test$2,0.0,0.28544904919944464,0.0,0.04504693002645154,0.3304959792258962
Constructs$py.test$5,0.0,0.05953287705734221,0.0,0.010738392209514558,0.07027126926685677
Constructs$py.test$8,0.0,0.0,0.0,0.0,0.0
CtClassType.getInterfaces,0.07170101008959684,0.0,0.005182149309790185,0.0,0.07688315939938703
DFA.predict,0.08095842982412506,0.0,0.004313031048977336,0.0,0.08527146087310239
DFA.unpackEncodedString,0.04173955303080057,0.0,0.002308881368868233,0.0,0.0440484343996688
DacapoClassLoader.loadClass,0.35006109707830974,0.0,0.015783852050621647,0.0,0.3658449491289314
Dict$py.test$11,0.0,0.11484554595809285,0.0,0.0220209953710156,0.13686654132910844
Dict$py.test$14,0.0,0.047348849430102674,0.0,0.005559464757025244,0.052908314187127915
Dict$py.test$2,0.0,0.22453283545201771,0.0,0.050380519800665366,0.27491335525268307
Dict$py.test$5,0.0,0.15783339489461606,0.0,0.029625721733828998,0.18745911662844505
Dict$py.test$8,0.0,0.12127642915763089,0.0,0.019305106871353676,0.14058153602898457
Exceptions$py.test$2,0.0,0.09657925301604257,0.0,0.011455270918227092,0.10803452393426967
Exceptions$py.test$5,0.0,0.04350788610736382,0.0,0.00808790194908933,0.05159578805645315
FloatingDecimal.readJavaFormatString,0.12777116136501632,0.0,0.008573920481227897,0.0,0.13634508184624422
Frame.a,0.0,0.0,0.0,0.0,0.0
Future.<init>,0.0,0.0,0.0,0.0,0.0
Gregorian.newCalendarDate,0.07019585969943168,0.0,0.0068476255132317535,0.0,0.07704348521266344
ImportFunction.__call__,0.0,0.1494092544399564,0.0,0.021107597074864003,0.1705168515148204
JarURLConnection.<init>,0.0,0.0,0.0,0.0,0.0
Lexer.emit,0.0,0.0,0.0,0.0,0.0
Lexer.match,0.0,0.0,0.0,0.0,0.0
Lists$py.test$2,0.0,0.21165465582452261,0.0,0.010853219339907157,0.22250787516442977
Lists$py.test$8,0.0,0.0,0.0,0.0,0.0
LocaleData$1.run,0.0,0.0,0.0,0.0,0.0
LongVector.addElement,0.0,0.0,0.0,0.0,0.0
Lookups$py.test$12,0.0,0.09205346467816874,0.0,0.005327127614406764,0.09738059229257551
Lookups$py.test$17,0.0,0.09395835695082262,0.0,0.009314758687006583,0.1032731156378292
Lookups$py.test$2,0.0,0.0441749853321589,0.0,0.00520808598501119,0.04938307131717009
Lookups$py.test$22,0.0,0.12081650000315372,0.0,0.018369375000778138,0.13918587500393187
Lookups$py.test$7,0.0,0.11769287671740111,0.0,0.010452177119408648,0.12814505383680977
MethodInfo.read,0.0,0.0,0.0,0.0,0.0
MethodWriter.visitLabel,0.0,0.0,0.0,0.0,0.0
Module.PyCode,0.13020676174497683,0.0,0.006760238533090601,0.0,0.13696700027806744
Module.compile,0.051601638323175006,0.0,0.0010306757090795787,0.0,0.05263231403225459
Native.initIDs,0.0,0.0,0.0,0.0,0.0
Num$PyExposer.<init>,0.0,0.0,0.0,0.0,0.0
Numbers$py.test$11,0.0,0.12345366666704648,0.0,0.0068399999994047285,0.1302936666664512
Numbers$py.test$2,0.0,0.23838300000109786,0.0,0.05023500000000543,0.28861800000110327
Numbers$py.test$5,0.0,0.10144033333199332,0.0,0.019940000003164947,0.12138033333515827
Numbers$py.test$8,0.0,0.05348022222137337,0.0,0.0073200000010223846,0.060800222222395756
OpenListResourceBundle.loadLookup,0.0,0.0,0.0,0.0,0.0
PackageManager.checkAccess,4.781843686568763,0.0,0.29248556764845507,0.0,5.0743292542172185
Py.getThreadState,0.0,0.10676399999809089,0.0,0.018709999999878664,0.12547399999796954
Py.newBoolean,0.0,0.0,0.0,0.0,0.0
Py.newInteger,0.0,0.0,0.0,0.0,0.0
Py.unpackSequence,0.1459995974848458,0.0,0.010940544105085298,0.0,0.1569401415899311
PyArray$PyExposer.<init>,0.0770164619231435,0.0,0.005213344229498294,0.0,0.08222980615264179
PyBaseCode.call,0.0,0.05732843359889692,0.0,0.007866389532825781,0.0651948231317227
PyBaseException$exposed___new__.createOfSubtype,0.0,0.0,0.0,0.0,0.0
PyBuiltinCallable.<init>,0.0,0.0,0.0,0.0,0.0
PyClass.__setattr__,0.0,0.04944753070214927,0.0,0.0028369289653427604,0.05228445966749203
PyComplex$PyExposer.<init>,0.027532069224089108,0.0,0.00042026564241752403,0.0,0.027952334866506633
PyComplex.complex___add__,0.0,0.057657971290227525,0.0,0.008446259914183437,0.06610423120441096
PyDictionary$PyExposer.<init>,0.0,0.0,0.0,0.0,0.0
PyDictionary.<init>,0.0,0.05253014030832495,0.0,0.01074617830143504,0.06327631860975999
PyDictionary.__finditem__,0.0,0.0,0.0,0.0,0.0
PyDictionary.dict___delitem__,0.0,0.037893487638761214,0.0,0.004633913868001268,0.042527401506762486
PyDictionary.dict___setitem__,0.05331137190377309,0.19827004765229436,0.003846302236828014,0.03035191113362285,0.2857796329265183
PyException.fillInStackTrace,0.3359969197768213,0.6550073472101885,0.020409628684647074,0.08877982934461406,1.100193725016271
PyException.isExceptionClass,0.0,0.10420129518923146,0.0,0.015849180804459295,0.12005047599369076
PyFile$PyExposer.<init>,0.021230968885043732,0.0,0.00033233682596375087,0.0,0.021563305711007483
PyFloat$PyExposer.<init>,0.02376872768504694,0.0,0.0,0.0,0.02376872768504694
PyFloat.__eq__,0.0,0.0,0.0,0.0,0.0
PyFloat.float___cmp__,0.0,0.0,0.0,0.0,0.0
PyFrame.<init>,0.0,0.08447266666674598,0.0,0.011559999999008141,0.09603266666575412
PyFrame.doGetglobal,0.0,0.0,0.0,0.0,0.0
PyFrame.getLocals,0.0,0.08732626337992176,0.0,0.010637779672324524,0.09796404305224629
PyFrame.getglobal,0.0,0.10176599999977044,0.0,0.014539999998911902,0.11630599999868235
PyFrame.getlocal,0.0,0.32459443037568514,0.0,0.04409952947708387,0.368693959852769
PyFrame.setline,0.0,0.41480244807961586,0.0,0.05538678350889357,0.47018923158850945
PyFrame.setlocal,0.0,0.06447307712174982,0.0,0.00960637063029163,0.07407944775204145
PyFrame.setupEnv,0.0,0.03969353336677246,0.0,0.005776416408793729,0.04546994977556619
PyFunction.__call__,0.0,0.0,0.0,0.0,0.0
PyInteger.__div__,0.0,0.07288165063356504,0.0,0.009188172391739096,0.08206982302530413
PyInteger._sub,0.0,0.041757367731936536,0.0,0.004922692569215992,0.04668006030115253
PyInteger.canCoerce,0.0,0.06809466666648707,0.0,0.014480000000427632,0.08257466666691471
PyInteger.divide,0.0,0.07446079890214795,0.0,0.010653619001229256,0.0851144179033772
PyInteger.int___add__,0.0,0.0518596666661324,0.0,0.00883999999981218,0.06069966666594458
PyJavaPackage.addPackage,0.0,0.0,0.0,0.0,0.0
PyJavaPackage.addPlaceholders,0.03741128666300009,0.0,0.0049740161894637844,0.0,0.04238530285246387
PyJavaType.init,0.0,0.0,0.0,0.0,0.0
PyList$list_append_exposer.__call__,0.0,0.0561523718234333,0.0,0.0064170787087099775,0.06256945053214327
PyList$list_append_exposer.bind,0.0,0.0,0.0,0.0,0.0
PyList.<init>,0.0,0.0,0.0,0.0,0.0
PyList.getslice,0.0,0.228444255047518,0.0,0.03556399356859409,0.2640082486161121
PyList.list___len__,0.0,0.0,0.0,0.0,0.0
PyList.pyadd,0.0,0.05418823431457511,0.0,0.007268324700627189,0.0614565590152023
PyList.pyget,0.0,0.0,0.0,0.0,0.0
PyList.size,0.0,0.0,0.0,0.0,0.0
PyLong.canCoerce,0.0,0.0,0.0,0.0,0.0
PyLong.divide,0.0,0.07282619451984038,0.0,0.011845305494279295,0.08467150001411967
PyObject.<init>,0.0,0.06655325989476284,0.0,0.017839883088740634,0.08439314298350348
PyObject.__call__,0.06167904914016889,0.0,0.003775934881721962,0.0,0.06545498402189086
PyObject.__getattr__,0.0,0.0,0.0,0.0,0.0
PyObject.__gt__,0.0,0.035543000000567794,0.0,0.0,0.035543000000567794
PyObject._cmp_unsafe,0.0,0.0,0.0,0.0,0.0
PyObject._eq,0.0,0.058838549620517676,0.0,0.008352079569067118,0.0671906291895848
PyObject._ge,0.0,0.039631999999983236,0.0,0.006824999999177331,0.046456999999160566
PyObject._lt,0.0,0.0,0.0,0.0,0.0
PyObject._try__cmp__,0.0,0.06479233008692882,0.0,0.009244254639415668,0.07403658472634449
PyObject.delete_token,0.05221564048614232,0.0,0.00404724642354078,0.0,0.056262886909683105
PyObject.getType,0.0,0.15705884356419492,0.0,0.028041816943529158,0.18510066050772409
PyOverridableNew.new_impl,0.0,0.0,0.0,0.0,0.0
PySequence$1.getItem,0.0,0.0,0.0,0.0,0.0
PySequence$1.getSlice,0.0,0.0,0.0,0.0,0.0
PySequence$1.len,0.0,0.06756921779215944,0.0,0.010757560872165287,0.07832677866432472
PySequence.<init>,0.0,0.08309178036212231,0.0,0.020120963006534896,0.10321274336865721
PySet$PyExposer.<init>,0.0,0.0,0.0,0.0,0.0
PySlice.<init>,0.0,0.0,0.0,0.0,0.0
PyString$str_isspace_exposer.bind,0.0,0.0,0.0,0.0,0.0
PyString.atoi,0.3232853664729756,0.0,0.027181600970706054,0.0,0.35046696744368167
PyString.fromSubstring,0.05389744713330522,0.0,0.0040562336467532675,0.0,0.05795368078005849
PyString.str___add__,0.0,0.0,0.0,0.0,0.0
PyString.str___eq__,0.0,0.0523276666693467,0.0,0.01021500000206288,0.06254266667140958
PyString.str_isalpha,0.0,0.0,0.0,0.0,0.0
PyString.str_isdecimal,0.0,0.0,0.0,0.0,0.0
PyString.str_islower,0.0,0.10146099999838044,0.0,0.010240000000824995,0.11170099999920544
PyString.str_isspace,0.0,0.052270253562380666,0.0,0.0093154810893091,0.06158573465168977
PyString.str_isupper,0.0,0.11897766666515965,0.0,0.01575999999962126,0.1347376666647809
PyString.str_lower,0.0,0.11740925769236821,0.0,0.015537085818645054,0.13294634351101325
PyString.str_title,0.0,0.4555540183591059,0.0,0.0614021654915962,0.5169561838507021
PyString.str_upper,0.0,0.198626172603246,0.0,0.02238850917925532,0.22101468178250133
PyStringMap.<init>,0.0,0.09883633333083708,0.0,0.013354999997924702,0.11219133332876179
PyStringMap.__finditem__,0.0,0.6926462011801404,0.0,0.10663397532689603,0.7992801765070364
PyStringMap.__setitem__,0.0,0.23842760412416913,0.0,0.027253673222632856,0.26568127734680197
PyStringMap.merge,0.0,0.0,0.0,0.0,0.0
PySystemState.<init>,0.0,0.0,0.0,0.0,0.0
PySystemState.getPath,0.0,0.0,0.0,0.0,0.0
PySystemState.initPackages,0.045248038324908924,0.0,0.0037105193571391787,0.0,0.048958557682048105
PyTableCode.call,0.0,0.1351723333330786,0.0,0.018665000000813357,0.15383733333389196
PyTuple.tuple_new,0.0,0.0,0.0,0.0,0.0
PyType.attachSubclass,0.0,0.0,0.0,0.0,0.0
PyType.fastGetDict,0.0,0.19544540351068318,0.0,0.02385000000108368,0.21929540351176685
PyType.findMostDerivedMetatype,0.0,0.0,0.0,0.0,0.0
PyType.fromClass,0.028036689261246157,0.5436278494362543,0.0014223844947224337,0.0879832146242525,0.6610701378164754
PyType.instDict,0.0,0.0,0.0,0.0,0.0
PyType.invoke_new_,0.053848466878070614,0.0,0.004110482098768221,0.0,0.057958948976838835
PyType.lookup,0.0,0.09456400000150704,0.0,0.013420000000526972,0.10798400000203401
PyType.type___call__,0.08399043385693714,0.0,0.004501681465101384,0.0,0.08849211532203852
PyUnicode$PyExposer.<init>,0.0,0.0,0.0,0.0,0.0
PyUnicode$unicode_isspace_exposer.<init>,0.0,0.07452715789539771,0.0,0.010366315788001214,0.08489347368339892
PyUnicode.<init>,0.0,0.0,0.0,0.0,0.0
PyUnicode.fromSubstring,0.0,0.07097112864777393,0.0,0.014212031206524568,0.0851831598542985
PyUnicode.unicode___add__,0.0,0.23610899999948742,0.0,0.0576325000001816,0.29374149999966903
PythonLexer.<init>,0.0,0.0,0.0,0.0,0.0
PythonLexer.mTRY,0.0,0.0,0.0,0.0,0.0
PythonParser$DFA34.specialStateTransition,0.0,0.0,0.0,0.0,0.0
PythonParser$suite_scope.<init>,0.0,0.0,0.0,0.0,0.0
PythonParser.<clinit>,0.033888815160456866,0.0,0.0011335229895015348,0.0,0.0350223381499584
PythonParser.<init>,0.09550263671056283,0.0,0.007533705608668107,0.0,0.10303634231923094
PythonParser.and_test,0.07853361285636938,0.0,0.008644140019193917,0.0,0.0871777528755633
PythonParser.arith_expr,0.0,0.0,0.0,0.0,0.0
PythonParser.atom,0.04307310479773711,0.0,0.0035040800623273487,0.0,0.046577184860064465
PythonParser.except_clause,0.0,0.0,0.0,0.0,0.0
PythonParser.expr,0.041398162876690486,0.0,0.001010154844504731,0.0,0.042408317721195216
PythonParser.small_stmt,0.04026024196172811,0.0,0.0004850144594455807,0.0,0.04074525642117369
PythonParser.synpred3_Python,0.042413593890390185,0.0,0.0005831383229033421,0.0,0.042996732213293525
PythonParser.synpred6_Python_fragment,0.0,0.0,0.0,0.0,0.0
PythonParser.trailer,0.04553233935050169,0.0,0.001146698165047727,0.0,0.046679037515549415
PythonTokenSource.insertImaginaryIndentDedentTokens,0.028232830916429138,0.0,0.002583995270520588,0.0,0.030816826186949725
Resource.getBytes,0.18163841343431347,0.0,0.00801180397195899,0.0,0.18965021740627247
RewriteRuleElementStream.<init>,0.06021555858467741,0.0,0.004107782462288663,0.0,0.06432334104696608
ScopesCompiler.visitFunctionDef,0.0,0.0,0.0,0.0,0.0
SequenceIndexDelegate.checkIdxAndFindItem,0.0,0.05820062724042002,0.0,0.01073358252273725,0.06893420976315727
SequenceIndexDelegate.checkIdxAndGetItem,0.0,0.0,0.0,0.0,0.0
SequenceIndexDelegate.getSlice,0.0,0.0,0.0,0.0,0.0
StringUtil.fromBytes,0.0,0.0,0.0,0.0,0.0
Strings$py.test$14,0.0,0.05369792798172597,0.0,0.009925643805949241,0.0636235717876752
Strings$py.test$2,0.0,0.03075009523724605,0.0,0.008159999998973771,0.03891009523621982
Strings$py.test$20,0.0,0.17965850121562488,0.0,0.021600300264371562,0.20125880147999645
Strings$py.test$5,0.0,0.4580690000002505,0.0,0.00254999999985254,0.4606190000001031
Strings$py.test$8,0.0,1.19140253703706,0.0,0.2373008333329549,1.428703370370015
SyspathJavaLoader.loadClass,0.0,0.0,0.0,0.0,0.0
TestHarness.main,0.0,0.0,0.0,0.0,0.0
TestHarness.rmdir,0.0,0.0,0.0,0.0,0.0
ThreadCoreMapInjector.isRunnable,0.051553843620590276,0.0,0.0006985898972813372,0.0,0.052252433517871615
ThreadStateMapping.getThreadState,0.0,0.3006011584022229,0.0,0.042234454395254896,0.3428356127974778
Tuples$py.test$2,0.0,0.04358826726767525,0.0,0.006923874062761189,0.05051214133043644
Tuples$py.test$5,0.0,0.1130322427197194,0.0,0.016290241469136862,0.12932248418885625
URLClassPath$JarLoader$2.getInputStream,0.0,0.0,0.0,0.0,0.0
URLClassPath$JarLoader.getResource,0.0,0.0,0.0,0.0,0.0
URLClassPath.getResource,0.0,0.0,0.0,0.0,0.0
Unicode$py.test$11,0.0,0.0588239630735168,0.0,0.014594489638033416,0.07341845271155022
Unicode$py.test$17,0.0,0.15537600000102988,0.0,0.020471578945912283,0.17584757894694217
Unicode$py.test$2,0.0,0.0,0.0,0.0,0.0
Unicode$py.test$20,0.0,0.20424887219337273,0.0,0.03039209548338671,0.23464096767675943
Unicode$py.test$5,0.0,0.4031327333349811,0.0,0.07953199999804687,0.482664733333028
Unicode$py.test$8,0.0,0.0,0.0,0.0,0.0
Utf8Info.<init>,0.0,0.0,0.0,0.0,0.0
Version.getVersion,0.05697025631740368,0.0,0.00457342989154839,0.0,0.061543686208952064
VisitorBase.visitAttribute,0.03248830056710587,0.0,0.0022784458243658447,0.0,0.03476674639147171
Yield.<clinit>,0.04279082501237804,0.0,0.002310829887149727,0.0,0.04510165489952777
ZoneInfo.getTimeZone,0.0,0.0,0.0,0.0,0.0
bisect$py.bisect_left$4,0.0,0.11411533333254435,0.0,0.014810000000579747,0.1289253333331241
errno.classDictInit,0.0,0.0,0.0,0.0,0.0
excepthandler$PyExposer.<init>,0.035932254044364766,0.0,0.0011061750853596428,0.0,0.03703842912972441
exceptions.bindStaticJavaMethod,0.03887440111866526,0.0,0.0008475729695518492,0.0,0.03972197408821711
imp.import_name,0.0,0.053006935569854835,0.0,0.007247380337604541,0.060254315907459374
imp.import_next,0.0,0.08747826458430329,0.0,0.011174511414090885,0.09865277599839417
unicodedata$py.get$11,0.0,0.0,0.0,0.0,0.0
unicodedata$py.get_codepoint$9,0.0,0.18731700000110624,0.0,0.021885000001930166,0.2092020000030364
unicodedata$py.init_east_asian_width$5,0.04353628381038457,0.0,0.0031981587709188,0.0,0.04673444258130337
unicodedata$py.init_unicodedata$4,0.0,0.0,0.0,0.0,0.0
zipimporter.<clinit>,0.04314252774325916,0.0,0.002324672081350581,0.0,0.04546719982460974
