method,package1,package2,dram1,dram2,energy
AnnotationReader.<init>,0.0,0.04877079246163892,0.0,0.009128248785226488,0.05789904124686541
ArgParser.check,0.06794749999971827,0.0,0.0035549999975046376,0.0,0.07150249999722291
ArgParser.getList,0.0,0.0,0.0,0.0,0.0
Arithmetic$py.test$11,0.2902860758607905,0.0,0.01887283904393783,0.0,0.30915891490472835
Arithmetic$py.test$14,0.3528443333331476,0.0,0.011244999991807465,0.0,0.364089333324955
Arithmetic$py.test$2,0.3235089762515744,0.0,0.01799851451952005,0.0,0.34150749077109444
Arithmetic$py.test$5,0.5522522857143138,0.0,0.04119071428396551,0.0,0.5934429999982793
Arithmetic$py.test$8,0.31189685453258525,0.0,0.020268189719702394,0.0,0.33216504425228766
BaseLocale.getLanguage,0.049092666666183504,0.0,0.002979999997478444,0.0,0.05207266666366195
BaseParser.setupParser,0.0,0.17238350848813067,0.0,0.02070381232925102,0.1930873208173817
Benchmark.deleteTree,0.22705066666761314,0.0,0.01502500000060536,0.0,0.2420756666682185
Benchmark.fileFromInputStream,1.6406345359392795,0.0,0.10099130877661788,0.0,1.7416258447158974
Benchmark.unpackZipStream,0.02344887020226204,0.0,0.0011325657742701151,0.0,0.024581435976532156
BuiltinFunctions.__call__,0.0,0.0,0.0,0.0,0.0
BytecodeLoader.makeCode,0.0,0.0,0.0,0.0,0.0
CachedJarsPackageManager.addZipEntry,0.05198930932371999,0.049214666668073434,0.006139547321764116,0.008285000001099736,0.11562852331465727
CachedJarsPackageManager.filterByName,0.0,0.04860433333184725,0.0,0.002365000000281725,0.050969333332128976
CachedJarsPackageManager.getZipPackages,4.421655240386312,0.0,0.333580015076066,0.0,4.755235255462378
Call$PyExposer.<init>,0.0,0.0,0.0,0.0,0.0
Calls$py.f1$4,0.05930600000040916,0.0,0.004139999999703528,0.0,0.06344600000011269
Calls$py.test$16,0.09527566666656638,0.0,0.003574999997605725,0.0,0.09885066666417211
Calls$py.test$2,0.1694133333330683,0.0,0.00884000000708814,0.0,0.17825333334015644
Chaperone.retire,0.14721666666567518,0.0,0.010260000000319751,0.0,0.15747666666599494
ClassFile.<init>,0.0,0.04688521576204599,0.0,0.007252912917308707,0.0541381286793547
Code.sigSize,0.0,0.09489100700705064,0.0,0.019957308546177995,0.11484831555322864
CompilerFlags.isFlagSet,0.058959999999691114,0.0,0.003579999999298403,0.0,0.06253999999898952
ConstPool.readOne,0.0,0.0,0.0,0.0,0.0
Constructs$py.test$2,0.4584353333326968,0.0,0.03382500000346529,0.0,0.4922603333361621
Constructs$py.test$5,0.1346966000004613,0.0,0.009648000005108771,0.0,0.14434460000557006
Constructs$py.test$8,0.06829833333298059,0.0,0.0053250000006907295,0.0,0.07362333333367133
CtClassType.getMethod0,0.0,0.0,0.0,0.0,0.0
DFA.predict,0.0,0.05498029611229198,0.0,0.006387230423760213,0.061367526536052194
DFA.unpackEncodedString,0.0,0.0,0.0,0.0,0.0
DacapoClassLoader.loadClass,0.0,0.25524160724186784,0.0,0.032776026203798644,0.2880176334456665
Dict$py.test$11,0.14180499999990084,0.0,0.001485000003109841,0.0,0.14329000000301068
Dict$py.test$14,0.07822666666712999,0.0,0.002074999999119124,0.0,0.08030166666624912
Dict$py.test$2,0.07516127777786027,0.0,0.0010197222249256877,0.0,0.07618100000278596
Dict$py.test$5,0.0,0.0,0.0,0.0,0.0
Dict$py.test$8,0.10426833333319034,0.0,0.004229999998642597,0.0,0.10849833333183294
ExceptionTable.<init>,0.0,0.055244885948986515,0.0,0.008536044935699877,0.0637809308846864
Exceptions$py.test$2,0.14925133333357127,0.0,0.009790000003704334,0.0,0.1590413333372756
Exceptions$py.test$5,0.0745520208332664,0.0,0.00626843749978434,0.0,0.08082045833305074
FloatingDecimal.readJavaFormatString,0.10791103787817455,0.0,0.007722121210371359,0.0,0.1156331590885459
Frame.a,0.0,0.06479767965171275,0.0,0.01128622411361543,0.07608390376532818
Generic.list,0.07124175088233058,0.0,0.007700765209544207,0.0,0.07894251609187478
Handler.parseURL,0.0,0.0,0.0,0.0,0.0
IfExp.<clinit>,0.0,0.0,0.0,0.0,0.0
ImportFunction.__call__,0.06272899999976289,0.0,0.002204999998866697,0.0,0.06493399999862959
Imports$py.test$2,0.0,0.0,0.0,0.0,0.0
Imports$py.test$5,0.10215233333353048,0.0,0.005335000001650768,0.0,0.10748733333518125
JavaImportHelper.buildLoadedPackages,0.0,0.039476960283131614,0.0,0.0038124876014797374,0.04328944788461135
Launcher$AppClassLoader.loadClass,0.0,0.0,0.0,0.0,0.0
Lists$py.test$2,0.360172426050239,0.0,0.02082751830613977,0.0,0.3809999443563788
Lists$py.test$8,0.12148729376370104,0.0,0.008614463521946935,0.0,0.130101757285648
Lookups$py.test$12,0.08688994617282346,0.0,0.004575747108055002,0.0,0.09146569328087846
Lookups$py.test$17,0.12500813333354016,0.0,0.001963000000978354,0.0,0.1269711333345185
Lookups$py.test$2,0.128536676371764,0.0,0.0023929728314368193,0.0,0.13092964920320083
Lookups$py.test$22,0.0,0.0,0.0,0.0,0.0
Lookups$py.test$7,0.11612960000008268,0.0,0.0,0.0,0.11612960000008268
MakeProxies.makeProxy,0.0,0.0,0.0,0.0,0.0
Module.PyCode,0.0,0.0,0.0,0.0,0.0
Module.compile,0.0,0.05009000894576782,0.0,0.005830584772979708,0.055920593718747524
Native.initIDs,0.0,0.0,0.0,0.0,0.0
Native.loadNativeLibraryFromJar,0.0,0.0,0.0,0.0,0.0
NewInstances$py.test$3,0.09505199999997177,0.0,0.0088400000022375,0.0,0.10389200000220927
Numbers$py.test$11,0.3163336913584328,0.0,0.020125740741930735,0.0,0.33645943210036355
Numbers$py.test$2,0.27743546666649,0.0,0.016850499998933323,0.0,0.29428596666542334
Numbers$py.test$5,0.055307384615634184,0.0,0.003821538463503553,0.0,0.05912892307913774
Numbers$py.test$8,0.1483966666667887,0.0,0.009200000000419093,0.0,0.15759666666720779
PackageManager.checkAccess,2.758509638717158,0.5828770107629354,0.1914630242187967,0.044124076947282424,3.5769737506461725
ParseUtil.canonizeString,0.0,0.0,0.0,0.0,0.0
ProxyGenerator.code_ipush,0.0,0.0,0.0,0.0,0.0
Py.<clinit>,0.0,0.054321333334276765,0.0,0.0069399999993038355,0.0612613333335806
Py.getThreadState,0.22667975000028187,0.0,0.013381250001354296,0.0,0.24006100000163616
Py.newBoolean,0.08968100000007931,0.0,0.005939999997887449,0.0,0.09562099999796676
Py.newUnicode,0.06465666666675436,0.0,0.004750000000058208,0.0,0.06940666666681257
Py.unpackSequence,0.0,0.0,0.0,0.0,0.0
PyArray$PyExposer.<init>,0.0,0.048852619852989686,0.0,0.007192964548512761,0.056045584401502445
PyBaseCode.call,0.21250399999977768,0.0,0.013429999996636372,0.0,0.22593399999641406
PyBaseException$PyExposer.<init>,0.0,0.052493995286401314,0.0,0.007126607999969252,0.05962060328637057
PyBaseException$exposed___new__.createOfSubtype,0.0,0.0,0.0,0.0,0.0
PyBoolean$PyExposer.<init>,0.0,0.0,0.0,0.0,0.0
PyClass.__findattr_ex__,0.04705386666658645,0.0,0.002880000000974784,0.0,0.049933866667561236
PyClass.__setattr__,0.054248266666642536,0.0,0.004415999999037011,0.0,0.058664266665679546
PyComplex.__radd__,0.0,0.0,0.0,0.0,0.0
PyDictionary$dict_get_exposer.bind,0.0,0.0,0.0,0.0,0.0
PyDictionary.<init>,0.29301488888894606,0.0,0.01680527777878322,0.0,0.30982016666772927
PyDictionary.__finditem__,0.1207276666676383,0.0,0.0,0.0,0.1207276666676383
PyDictionary.dict___delitem__,0.051432333333650604,0.0,0.0008950000022499199,0.0,0.052327333335900526
PyDictionary.dict___setitem__,0.24275991111070547,0.0,0.012433999998676074,0.0,0.25519391110938155
PyException.doRaise,0.06011966666604469,0.0,0.003544999999576248,0.0,0.06366466666562093
PyException.fillInStackTrace,1.1021489333336856,0.0,0.05738370833221576,0.0,1.1595326416659013
PyFastSequenceIter.__iternext__,0.11175533333395529,0.0,0.0071150000027652505,0.0,0.11887033333672055
PyFloat.__cmp__,0.0,0.0,0.0,0.0,0.0
PyFloat.canCoerce,0.0,0.0,0.0,0.0,0.0
PyFloat.float___hash__,0.0,0.0,0.0,0.0,0.0
PyFrame.<init>,0.2177326666672646,0.0,0.013429999999061693,0.0,0.2311626666663263
PyFrame.doGetglobal,0.11181633333399076,0.0,0.004730000002988769,0.0,0.11654633333697953
PyFrame.getLocals,0.10068766666699958,0.0,0.005940000002738088,0.0,0.10662766666973766
PyFrame.getglobal,0.1422347058817061,0.0,0.009361470589104939,0.0,0.15159617647081106
PyFrame.getlocal,0.2164985100303144,0.0,0.012811970664322395,0.0,0.22931048069463678
PyFrame.setline,0.2073566666664798,0.0,0.01434499999838105,0.0,0.22170166666486085
PyFrame.setlocal,0.24341290753978043,0.0,0.014563584150253031,0.0,0.25797649169003345
PyFunction.function___get__,0.09945030303049752,0.0,0.005163636363277239,0.0,0.10461393939377477
PyInstance$PyExposer.<init>,0.0,0.0,0.0,0.0,0.0
PyInstance.ifindlocal,0.0,0.0,0.0,0.0,0.0
PyInteger$PyExposer.<init>,0.0,0.049194333335132484,0.0,0.004530000000765236,0.05372433333589772
PyInteger.divide,0.1176756666664005,0.0,0.00788500000150331,0.0,0.1255606666679038
PyJavaPackage.addPackage,0.07536594312834957,0.0,0.005193761045133162,0.0,0.08055970417348274
PyJavaType.init,0.0,0.0,0.0,0.0,0.0
PyJavaType.normalize,0.0,0.05072598865817216,0.0,0.006381694959989119,0.05710768361816128
PyList$list_append_exposer.__call__,0.06462408013768453,0.0,0.004913983198579557,0.0,0.06953806333626408
PyList.getslice,0.312589702066367,0.0,0.021615646716151158,0.0,0.3342053487825182
PyList.pyget,0.0,0.0,0.0,0.0,0.0
PyList.size,0.05244966666699232,0.0,0.005929999999352732,0.0,0.05837966666634505
PyObject$PyExposer.<init>,0.0,0.046725272728177836,0.0,0.0065577272722624575,0.05328300000044029
PyObject.<init>,0.08009833333320178,0.0,0.005354999998720207,0.0,0.08545333333192198
PyObject.__repr__,0.062296666666346326,0.0,0.00608000000162671,0.0,0.06837666666797304
PyObject._div,0.04882833333370702,0.0,0.002685000001899122,0.0,0.05151333333560614
PyObject._eq,0.18444833333342103,0.0,0.010654999998223502,0.0,0.19510333333164454
PyObject._lt,0.15300092307678334,0.0,0.00875076923134307,0.0,0.16175169230812642
PyObject.getType,0.09885361904750989,0.0,0.0052114285710905235,0.0,0.10406504761860041
PyObjectDerived.<init>,0.06958000000050753,0.0,0.0037636363655716796,0.0,0.07334363636607921
PyOverridableNew.new_impl,0.0,0.0,0.0,0.0,0.0
PySequence$1.getSlice,0.06744399999964419,0.0,0.005529999997330984,0.0,0.07297399999697518
PySequence$1.len,0.05945951997173168,0.0,0.0040697483080023465,0.0,0.06352926827973403
PySequence.<init>,0.052562773950338884,0.0,0.003804470773416545,0.0,0.05636724472375543
PySlice.indicesEx,0.0,0.0,0.0,0.0,0.0
PyString$str_isdigit_exposer.bind,0.0,0.0,0.0,0.0,0.0
PyString$str_isupper_exposer.bind,0.03500269782651834,0.0,0.0026123598591836004,0.0,0.03761505768570194
PyString.atoi,0.19237500000092428,0.0,0.013123636364374155,0.0,0.20549863636529844
PyString.fromSubstring,0.0,0.0,0.0,0.0,0.0
PyString.getslice,0.05391433333352325,0.0,0.005095000000437722,0.0,0.059009333333960974
PyString.str___add__,0.3331913333337676,0.0,0.020265000004049703,0.0,0.3534563333378173
PyString.str_islower,0.09384588408192154,0.0,0.0047637775076775895,0.0,0.09860966158959913
PyString.str_isupper,0.068623835745941,0.0,0.00448836768001591,0.0,0.07311220342595691
PyString.str_lower,0.1702118632027046,0.0,0.011167614000262092,0.0,0.18137947720296668
PyString.str_title,0.07759334858523455,0.0,0.004026614165568533,0.0,0.08161996275080308
PyString.str_upper,0.0,0.0,0.0,0.0,0.0
PyStringMap.__finditem__,0.5659996666678732,0.0,0.03615500000402487,0.0,0.602154666671898
PyStringMap.__setitem__,0.520186385116316,0.0,0.027913498748942424,0.0,0.5480998838652584
PySuper$PyExposer.<init>,0.0,0.0,0.0,0.0,0.0
PyTableCode.call,0.2634069999991576,0.0,0.018554999999954212,0.0,0.2819619999991118
PyTuple.<init>,0.0,0.0,0.0,0.0,0.0
PyTuple.getslice,0.04488133333325095,0.0,0.0018049999998766,0.0,0.04668633333312755
PyType.fromClass,0.48055374545371954,0.1573622317633876,0.031861999998518235,0.024594602941807937,0.6943725801574333
PyType.lookup,0.06321457891878346,0.0,0.00436284230237566,0.0,0.06757742122115912
PyUnicode$unicode_isdigit_exposer.bind,0.10622133333345117,0.0,0.007890000000770671,0.0,0.11411133333422184
PyUnicode.<init>,0.08052566666628991,0.0,0.007869999996425273,0.0,0.08839566666271519
PyUnicode.fromSubstring,0.07971200000004804,0.0,0.005944999999580128,0.0,0.08565699999962817
PyUnicode.unicode___add__,0.05523700000048848,0.0,0.0035599999973783274,0.0,0.058796999997866806
PyUnicode.unicode___len__,0.0,0.0,0.0,0.0,0.0
PythonLexer.mNAME,0.0,0.0,0.0,0.0,0.0
PythonParser.<clinit>,0.0,0.0,0.0,0.0,0.0
PythonParser.<init>,0.0,0.0418852921933373,0.0,0.001712370346845307,0.04359766254018261
PythonParser.arglist,0.0,0.0,0.0,0.0,0.0
PythonParser.atom,0.10121666666661136,0.0,0.004750000000058208,0.0,0.10596666666666957
PythonParser.or_test,0.0,0.0578055602798903,0.0,0.005588016547312614,0.06339357682720291
PythonParser.power,0.0,0.090463287621265,0.0,0.016008913446540127,0.10647220106780513
PythonParser.suite,0.0,0.0,0.0,0.0,0.0
PythonParser.term,0.0,0.0922725417595969,0.0,0.017215326757856773,0.10948786851745368
PythonParser.try_stmt,0.0,0.04910534004647469,0.0,0.004367529985458963,0.053472870031933656
PythonTokenSource.insertImaginaryIndentDedentTokens,0.0,0.03871820220287589,0.0,0.0063785721684265426,0.04509677437130243
PythonTokenSource.nextToken,0.0,0.0,0.0,0.0,0.0
Resource.getBytes,0.0,0.23625943809249242,0.0,0.033329534330795045,0.26958897242328744
RewriteRuleElementStream.<init>,0.0,0.09547638452334767,0.0,0.016621354611553455,0.11209773913490112
SequenceIndexDelegate.checkIdxAndGetItem,0.0,0.0,0.0,0.0,0.0
StringFormatter.formatFloatDecimal,0.05438233333309957,0.0,0.0070500000001629815,0.0,0.06143233333326255
Strings$py.test$11,0.1978574242422672,0.0,0.01277954545278617,0.0,0.21063696969505338
Strings$py.test$14,0.0,0.0,0.0,0.0,0.0
Strings$py.test$2,0.042297272727327334,0.0,0.00563318182023729,0.0,0.04793045454756462
Strings$py.test$20,0.0,0.0,0.0,0.0,0.0
Strings$py.test$5,0.18731666666584107,0.0,0.012434999996912666,0.0,0.19975166666275374
Strings$py.test$8,0.29492603703706494,0.0,0.02025000000193594,0.0,0.3151760370390009
TestHarness.main,0.0,0.0,0.0,0.0,0.0
TextIOInputStream.read,0.0,0.06481281856487382,0.0,0.011035600386822523,0.07584841895169635
ThreadStateMapping.getThreadState,0.338298743589803,0.0,0.022620480776542815,0.0,0.3609192243663458
Tuples$py.test$2,0.041178333332936745,0.0,0.0017950000013418805,0.0,0.04297333333427863
Tuples$py.test$5,0.08980160607957688,0.0,0.004600636749666738,0.0,0.09440224282924362
URLClassPath.getLookupCache,0.0,0.0,0.0,0.0,0.0
Unicode$py.test$11,0.08439133333316325,0.0,0.010610000002391946,0.0,0.09500133333555519
Unicode$py.test$14,0.08656833333346488,0.0,0.005335000004076088,0.0,0.09190333333754097
Unicode$py.test$17,0.0,0.0,0.0,0.0,0.0
Unicode$py.test$20,0.06854266666717497,0.0,0.004759999998592925,0.0,0.0733026666657679
Unicode$py.test$5,0.23647066666732522,0.0,0.0172600000029585,0.0,0.2537306666702837
Unicode$py.test$8,0.05493166666625863,0.0,0.0036000000012184796,0.0,0.05853166666747711
Utf8Info.<init>,0.0,0.0851652507006736,0.0,0.008736214718916238,0.09390146541958984
Visitor.traverse,0.0,0.0,0.0,0.0,0.0
__builtin__.globals,0.11661393939434535,0.0,0.007250000000402161,0.0,0.1238639393947475
__builtin__.intern,0.06247560000010707,0.0,0.004297499998938292,0.0,0.06677309999904536
bisect$py.bisect_left$4,0.15852525490228409,0.0,0.013464117646114628,0.0,0.17198937254839872
exceptions.classDictInit,0.0,0.0,0.0,0.0,0.0
imp.cacheCompiledSource,0.0,0.061709554405043464,0.0,0.012114240999584741,0.0738237954046282
imp.getParent,0.0,0.0,0.0,0.0,0.0
imp.import_name,0.20928966666663956,0.0,0.014479999998002311,0.0,0.22376966666464188
imp.import_next,0.0715943333331476,0.0,0.004759999998592925,0.0,0.07635433333174053
unicodedata$py.check_segments$8,0.0,0.0,0.0,0.0,0.0
unicodedata$py.get$11,0.06762666666630443,0.0,0.005940000000312769,0.0,0.0735666666666172
zipimporter$PyExposer.<init>,0.0,0.04786356315668516,0.0,0.004523495190538797,0.05238705834722396
