method,package1,package2,dram1,dram2,energy
AnnotationReader.<init>,0.10266133333364752,0.0,0.008634999998321291,0.0,0.11129633333196881
AnnotationType$1.run,0.0,0.08006526315722637,0.0,0.01567421052497689,0.09573947368220326
ArgParser.getList,0.0,0.0,0.0,0.0,0.0
Arithmetic$py.test$11,0.0,0.048787333333166316,0.0,0.006329999998949157,0.05511733333211547
Arithmetic$py.test$14,0.0,0.29321027976160013,0.0,0.03863848214249239,0.3318487619040925
Arithmetic$py.test$2,0.0,0.30869566666418297,0.0,0.019145000000814125,0.3278406666649971
Arithmetic$py.test$5,0.0,0.47719333333225217,0.0,0.0626750000010361,0.5398683333332883
Arithmetic$py.test$8,0.0,0.40855641666530573,0.0,0.0333012499962327,0.4418576666615384
AttributeInfo.<init>,0.0,0.0,0.0,0.0,0.0
BaseParser.setupParser,0.04560199999988461,0.0,0.003342857143642114,0.0,0.04894485714352673
Benchmark.deleteTree,0.0,0.0,0.0,0.0,0.0
Benchmark.fileFromInputStream,0.0,1.0512817371697132,0.0,0.1711661221856729,1.222447859355386
Benchmark.unpackZipStream,0.0,0.053888638607871735,0.0,0.007858839178066937,0.06174747778593867
BuiltinFunctions.__call__,0.04675667047587001,0.0,0.004022782861229793,0.0,0.0507794533370998
BytecodeLoader$Loader.loadClassFromBytes,0.0,0.08176345098078908,0.0,0.015444705881379254,0.09720815686216833
CachedJarsPackageManager.addZipEntry,0.0,0.0,0.0,0.0,0.0
CachedJarsPackageManager.getZipPackages,1.4307956125000953,0.0,0.10193984819770198,0.0,1.5327354606977974
Calls$py.j$19,0.0,0.04478257142805626,0.0,0.005194285711955411,0.04997685714001167
Calls$py.test$13,0.0,0.07708460205767005,0.0,0.013339104033886148,0.0904237060915562
Calls$py.test$2,0.0,0.04642142857067353,0.0,0.007221428571418592,0.053642857142092125
ClassFile.<init>,0.0,0.0,0.0,0.0,0.0
ClassPool.getCached,0.0,0.0,0.0,0.0,0.0
ClassPool.makeClass,0.0,0.04175857498251947,0.0,0.006502588801685935,0.048261163784205405
CodeAttribute.<init>,0.1152956666664977,0.0,0.008295000002059776,0.0,0.12359066666855748
CodeCompiler.visitBoolOp,0.0,0.0,0.0,0.0,0.0
CommonTokenStream.fillBuffer,0.0,0.0,0.0,0.0,0.0
CompilerFlags.isFlagSet,0.0,0.0,0.0,0.0,0.0
ConstPool.readOne,0.04437266666597376,0.0,0.0035599999973783274,0.0,0.04793266666335209
Constructs$py.test$2,0.0,0.263061666667151,0.0,0.02554999999847496,0.28861166666562593
Constructs$py.test$5,0.0,0.1246088888890679,0.0,0.01965277777883414,0.14426166666790205
Constructs$py.test$8,0.0,0.03987633333357128,0.0,0.0036399999977826756,0.043516333331353955
DacapoClassLoader.loadClass,0.6100185396829305,0.08115633333363803,0.049518571435155104,0.01305999999992006,0.7537534444516437
Dict$py.test$11,0.0,0.03819275000023481,0.0,0.0031049999997776467,0.041297750000012456
Dict$py.test$14,0.0,0.20241299999906914,0.0,0.02606500000062321,0.22847799999969234
Dict$py.test$2,0.0,0.10809333333357547,0.0,0.014094999998633284,0.12218833333220876
Dict$py.test$5,0.0,0.10119633333427674,0.0,0.0013799999990927365,0.10257633333336948
Dict$py.test$8,0.0,0.08792928571451089,0.0,0.007676071428899638,0.09560535714341054
Exceptions$py.test$2,0.0,0.11252833333370896,0.0,0.01699999999740006,0.12952833333110902
Exceptions$py.test$5,0.0,0.10727966666793995,0.0,0.012105000001611188,0.11938466666955114
FloatingDecimal$BinaryToASCIIBuffer.dtoa,0.05719619869012615,0.0,0.0046069077179290785,0.0,0.061803106408055225
FloatingDecimal.readJavaFormatString,0.0,0.4651142530927739,0.0,0.062431256929186885,0.5275455100219608
For$PyExposer.<init>,0.0848186666668577,0.0,0.0059250000000853715,0.0,0.09074366666694307
GrammarActions.extractString,0.0,0.07273507692242184,0.0,0.01637076922969964,0.08910584615212148
GrammarActions.extractStrings,0.0,0.0,0.0,0.0,0.0
ISO_8859_1.newEncoder,0.0,0.07616263978554427,0.0,0.01233027498988068,0.08849291477542495
If$PyExposer.<init>,0.051350666666621685,0.0,0.004190000002078401,0.0,0.055540666668700084
ImportFunction.__call__,0.0,0.0,0.0,0.0,0.0
JavaImportHelper.buildLoadedPackages,0.0,0.0,0.0,0.0,0.0
Launcher$AppClassLoader.loadClass,0.0,0.0,0.0,0.0,0.0
ListComp$PyExposer.<init>,0.0,0.0,0.0,0.0,0.0
Lists$py.test$2,0.0,0.3108588888911375,0.0,0.02712499999971543,0.3379838888908529
Lists$py.test$8,0.0,0.0,0.0,0.0,0.0
Lookups$py.test$12,0.0,0.09729033333375506,0.0,0.006874999999126885,0.10416533333288194
Lookups$py.test$17,0.0,0.1565549999989647,0.0,0.008570000000569657,0.16512499999953434
Lookups$py.test$2,0.0,0.0,0.0,0.0,0.0
Lookups$py.test$22,0.0,0.04683564078701873,0.0,0.006390228415412203,0.053225869202430935
Lookups$py.test$7,0.0,0.15981033333324984,0.0,0.012780000002142817,0.17259033333539267
MemberrefInfo.<init>,0.04279222222208368,0.0,0.002786666665795362,0.0,0.045578888887879046
MethodAccessorGenerator.emitInvoke,0.0,0.0,0.0,0.0,0.0
MethodWriter.e,0.0,0.0,0.0,0.0,0.0
Module.PyCode,0.05468733333388324,0.0,0.004949999999856421,0.0,0.05963733333373966
Native.initIDs,0.0681559999993624,0.0,0.007470000001679485,0.0,0.07562600000104187
Native.loadNativeLibraryFromJar,0.0,0.0,0.0,0.0,0.0
Num$PyExposer.<init>,0.0947873333334428,0.0,0.0059250000000853715,0.0,0.10071233333352818
Numbers$py.test$11,0.0,0.16656500000196198,0.0,0.014294999998431495,0.18086000000039348
Numbers$py.test$2,0.0,0.12462504389887802,0.0,0.019630504386653015,0.14425554828553103
Numbers$py.test$5,0.0,0.1373790004152169,0.0,0.021384106191755205,0.1587631066069721
Numbers$py.test$8,0.0,0.10756917651559159,0.0,0.016907198105742236,0.12447637462133382
POSIXFactory.loadLinuxPOSIX,0.055643666666583165,0.0,0.004759999996167608,0.0,0.06040366666275077
PackageManager.checkAccess,2.5223610394349287,0.0,0.16941646130178029,0.0,2.691777500736709
Py.getThreadState,0.0,0.1690138063839923,0.0,0.026919576709026408,0.19593338309301872
Py.make_array,0.0,0.0,0.0,0.0,0.0
Py.newInteger,0.0,0.08180161946760657,0.0,0.010383427221676926,0.0921850466892835
Py.unpackSequence,0.0,0.10116987030862899,0.0,0.014348557056605794,0.1155184273652348
PyBaseException$exposed___new__.createOfSubtype,0.0,0.0,0.0,0.0,0.0
PyBuiltinCallable.<init>,0.0,0.0,0.0,0.0,0.0
PyClass.__findattr_ex__,0.0,0.055211851851911166,0.0,0.006502222222345018,0.061714074074256185
PyComplex.canCoerce,0.0,0.04022233333186402,0.0,0.005055000001448207,0.04527733333331223
PyDictionary.<init>,0.0,0.038431666667747784,0.0,0.0044899999993504025,0.042921666667098186
PyDictionary.__finditem__,0.0,0.0636596666687789,0.0,0.003320000001015917,0.06697966666979481
PyDictionary.dict___delitem__,0.0,0.05202233333451052,0.0,0.005419999998897159,0.05744233333340768
PyDictionary.dict___setitem__,0.0,0.27714461228044657,0.0,0.028888446222243215,0.3060330585026898
PyDictionary.dict_get,0.0,0.06565366666715514,0.0,0.012889999998151323,0.07854366666530646
PyException.fillInStackTrace,0.0,2.0909128010629154,0.0,0.2989144379977621,2.3898272390606774
PyFloat.__div__,0.0,0.05281566666720512,0.0,0.00721000000097168,0.060025666668176804
PyFrame.<init>,0.1195583334023772,0.13037100000067203,0.009043334472359141,0.022039285713704188,0.2810119535891126
PyFrame.doGetglobal,0.13935970244080126,0.0,0.010188960112374773,0.0,0.14954866255317603
PyFrame.getLocals,0.0,0.0,0.0,0.0,0.0
PyFrame.getglobal,0.06259276191974733,0.0,0.004608056090926143,0.0,0.06720081801067347
PyFrame.getlocal,0.0,0.21066457143058953,0.0,0.02494214285702799,0.23560671428761754
PyFrame.setline,0.0,0.14975966666861495,0.0,0.014827500002259814,0.16458716667087478
PyFrame.setlocal,0.0,0.17658199999924462,0.0,0.024471666667118877,0.20105366666636348
PyFrame.setupEnv,0.0,0.0,0.0,0.0,0.0
PyFunction.__call__,0.0,0.04785166666745984,0.0,0.010510000000067521,0.05836166666752736
PyInstance$PyExposer.<init>,0.0,0.08892799999739509,0.0,0.015860000001945686,0.10478799999934077
PyInstance.__findattr_ex__,0.0,0.0,0.0,0.0,0.0
PyInteger$PyExposer.<init>,0.0,0.0,0.0,0.0,0.0
PyInteger.int___cmp__,0.0,0.04892035612214577,0.0,0.007997336580420044,0.05691769270256582
PyInteger.int___mod__,0.0,0.05747466666556041,0.0,0.006294999996801683,0.0637696666623621
PyJavaType.wrapJavaObject,0.03401688888859805,0.0,0.0019866666666025086,0.0,0.03600355555520056
PyList$exposed___new__.createOfType,0.0,0.05585169230919116,0.0,0.007624615384534432,0.06347630769372559
PyList.<init>,0.0,0.0603839999991275,0.0,0.013094999999642216,0.07347899999876971
PyList.getslice,0.0,0.0975543333333917,0.0,0.011819999999715947,0.10937433333310764
PyList.pyadd,0.0,0.1114423076908749,0.0,0.01880000000006149,0.1302423076909364
PyList.pyget,0.0,0.09017825925898418,0.0,0.011057777778424442,0.10123603703740862
PyLong.long___add__,0.0,0.06046566666676274,0.0,0.0067799999984951365,0.06724566666525787
PyLong.long___sub__,0.0,0.05202233333451052,0.0,0.00562000000112069,0.05764233333563121
PyObject$exposed___new__.createOfSubtype,0.0,0.049458666665789984,0.0,0.006120000000616225,0.05557866666640621
PyObject.<init>,0.0,0.04585799999767914,0.0,0.012739999998302665,0.0585979999959818
PyObject._basic_add,0.0,0.039986857144478034,0.0,0.006840000001830049,0.04682685714630808
PyObject._basic_sub,0.0,0.0,0.0,0.0,0.0
PyObject._cmp_unsafe,0.0,0.0,0.0,0.0,0.0
PyObject._eq,0.0,0.0,0.0,0.0,0.0
PyObject._gt,0.0,0.05177799999849715,0.0,0.005520000001221584,0.057297999999718734
PyObject.equals,0.061416666666597536,0.0,0.0033500000017738785,0.0,0.06476666666837141
PyObject.getType,0.0,0.11877382753680585,0.0,0.01851799710898637,0.1372918246457922
PyObject.object___findattr__,0.0,0.04296866666603212,0.0,0.00893999999971129,0.05190866666574341
PySequence$1.len,0.0,0.05778000000039658,0.0,0.007614999999835466,0.06539500000023205
PySequence.<init>,0.0,0.0961762500014629,0.0,0.02699718750045577,0.12317343750191867
PySequence.sliceLength,0.0,0.0,0.0,0.0,0.0
PyString$str_isupper_exposer.bind,0.0,0.0,0.0,0.0,0.0
PyString.__add__,0.0,0.0,0.0,0.0,0.0
PyString.atoi,0.0,0.5236150350708111,0.0,0.07428598138543654,0.5979010164562476
PyString.createInstance,0.0,0.0,0.0,0.0,0.0
PyString.fromSubstring,0.0,0.0,0.0,0.0,0.0
PyString.splitfields,0.0,0.0,0.0,0.0,0.0
PyString.str___add__,0.0,0.21632900000258815,0.0,0.05731499999577256,0.2736439999983607
PyString.str___lt__,0.0,0.04553233333232735,0.0,0.004139999999703528,0.049672333332030874
PyString.str_find,0.0,0.08684845658660016,0.0,0.015916485993034867,0.10276494257963503
PyString.str_isalnum,0.0,0.05033366666611983,0.0,0.009540000001531249,0.05987366666765108
PyString.str_isdigit,0.0,0.0,0.0,0.0,0.0
PyString.str_islower,0.0,0.0,0.0,0.0,0.0
PyString.str_isupper,0.0,0.06490066666689623,0.0,0.0082599999999123,0.07316066666680852
PyString.str_lower,0.0,0.124158999999458,0.0,0.02025333333383767,0.14441233333329567
PyString.str_title,0.0,0.22853611110891775,0.0,0.03544333333357591,0.26397944444249366
PyString.str_upper,0.0,0.04087325925987291,0.0,0.0057166666665580115,0.04658992592643092
PyStringMap.__finditem__,0.2153052821090094,0.2580083970207562,0.013422169805977815,0.0326216749750966,0.51935752391084
PyStringMap.__setitem__,0.0,0.5206437086317413,0.0,0.05454971912271082,0.575193427754452
PySystemState.<init>,0.16964166666683148,0.0,0.010046666664830235,0.0,0.1796883333316617
PyTableCode.call,0.06280448198628341,0.033830857145533494,0.004550420678493628,0.004950000000202895,0.10613575981051342
PyTuple.<init>,0.0,0.04430215384435052,0.0,0.006553846153950033,0.05085599999830055
PyTuple.getslice,0.0,0.04530833333410556,0.0,0.007034999999935583,0.05234333333404115
PyType.fromClass,0.0,0.052101333332420494,0.0,0.008515555553862617,0.06061688888628311
PyType.lookup,0.0,0.0517576666631309,0.0,0.00622500000220801,0.05798266666533891
PyUnicode.<init>,0.0,0.061035333334681724,0.0,0.0075800000001133095,0.06861533333479504
PyUnicode.fromSubstring,0.07050208976381718,0.0,0.006784591265983296,0.0,0.07728668102980048
PyUnicode.unicode___add__,0.0,0.16260143750165906,0.0,0.03242156249810553,0.19502299999976458
PyUnicode.unicode_isupper,0.0,0.08317033333393434,0.0,0.015840000000025608,0.09901033333395995
PyXRange.pyget,0.0,0.0,0.0,0.0,0.0
PythonLexer.mTRIQUOTE,0.08408599999953972,0.0,0.005905000000590613,0.0,0.08999100000013034
PythonLexer.nextToken,0.0,0.0,0.0,0.0,0.0
PythonParser.<clinit>,0.06253485714270418,0.0,0.004538571428773658,0.0,0.06707342857147784
PythonParser.arith_expr,0.0,0.04150835825333978,0.0,0.008348600072883431,0.049856958326223215
PythonParser.atom,0.10640983333360055,0.0,0.007274999999329642,0.0,0.11368483333293018
PythonParser.comparison,0.04899599999998827,0.0,0.0035399999997025593,0.0,0.05253599999969083
PythonParser.except_clause,0.055358666666506906,0.0,0.004949999999856421,0.0,0.06030866666636333
PythonParser.return_stmt,0.0,0.0,0.0,0.0,0.0
PythonParser.subscriptlist,0.04667675000018789,0.0,0.0035550000011426164,0.0,0.050231750001330504
PythonTree.addChild,0.0,0.058186999999937435,0.0,0.009560000001026006,0.06774700000096344
Resource.cachedInputStream,0.0,0.0,0.0,0.0,0.0
Resource.getBytes,0.07183833333328947,0.0,0.005360000000412886,0.0,0.07719833333370235
SequenceIndexDelegate.fixindex,0.0,0.0656740000025214,0.0,0.007549999999658516,0.0732240000021799
StringFormatter.formatFloatDecimal,0.0,0.0,0.0,0.0,0.0
StringIO$py.call_function,0.0,0.0,0.0,0.0,0.0
StringIO$py.readline$11,0.0,0.06677870985336046,0.0,0.008674674174029959,0.07545338402739042
Strings$py.test$11,0.0,0.2189416000037454,0.0,0.05111300000183595,0.27005460000558135
Strings$py.test$14,0.0,0.02925125000001572,0.0,0.003165000001899898,0.032416250001915614
Strings$py.test$2,0.0,0.04512533333278649,0.0,0.011630000000877772,0.05675533333366426
Strings$py.test$20,0.0,0.1549886666665164,0.0,0.023460000001553752,0.17844866666807013
Strings$py.test$5,0.0,0.4931251538468925,0.0,0.029658846153184783,0.5227840000000773
Strings$py.test$8,0.0,0.5818686666704405,0.0,0.0921800000044944,0.6740486666749349
SyspathJavaLoader.loadClass,0.0,0.0,0.0,0.0,0.0
TestHarness.twoDecimalPlaces,0.0,0.0,0.0,0.0,0.0
ThreadStateMapping.getThreadState,0.0,0.36001299976250345,0.0,0.0425469768790633,0.40255997664156673
Tuples$py.test$2,0.0,0.0,0.0,0.0,0.0
Tuples$py.test$5,0.0,0.04807692307692308,0.0,0.005695384613668116,0.053772307690591194
URLClassPath$JarLoader.getResource,0.1014609999995931,0.0,0.007505000003826959,0.0,0.10896600000342006
Unicode$py.test$17,0.0,0.11592599999858066,0.0,0.022960000002058223,0.1388860000006389
Unicode$py.test$2,0.0,0.045695000000705484,0.0,0.004750000000058208,0.05044500000076369
Unicode$py.test$20,0.07358056280492291,0.0,0.0069744609305066475,0.0,0.08055502373542955
Unicode$py.test$5,0.0,0.26257299999997485,0.0,0.0195400000011432,0.28211300000111805
Unicode$py.test$8,0.0,0.0,0.0,0.0,0.0
UniversalIOWrapper.read,0.0,0.07675000196085792,0.0,0.01397365068970337,0.09072365265056129
Utf8Info.<init>,0.13873300000038094,0.0,0.011209999999361266,0.0,0.1499429999997422
Version.getBuildInfo,0.08966066666653205,0.0,0.00652500000190533,0.0,0.09618566666843738
Yield$_fields_descriptor.<init>,0.0,0.0,0.0,0.0,0.0
__builtin__.cmp,0.0,0.07618206807136506,0.0,0.01108497306819801,0.08726704113956307
arguments$PyExposer.<init>,0.07187900000038401,0.0,0.005334999996800129,0.0,0.07721399999718415
imp.importName,0.0,0.0,0.0,0.0,0.0
imp.import_name,0.0,0.04906212500130398,0.0,0.005503749999964687,0.05456587500126867
imp.import_next,0.0,0.15374766666839906,0.0,0.018859999998918887,0.17260766666731794
re$py.f$0,0.0,0.0,0.0,0.0,0.0
stmt.<init>,0.0,0.0,0.0,0.0,0.0
unicodedata$py.get$11,0.0,0.0,0.0,0.0,0.0
unicodedata$py.get_numeric$3,0.0,0.0,0.0,0.0,0.0
unicodedata$py.init_east_asian_width$5,0.0,0.077430630602305,0.0,0.015499674558357357,0.09293030516066235
unicodedata$py.init_unicodedata$4,0.0,0.13954626916231608,0.0,0.018882598356216238,0.1584288675185323
