method,package1,package2,dram1,dram2,energy
AnnotationParser$1.run,0.0,0.0,0.0,0.0,0.0
AnnotationReader.<init>,0.044382007841609186,0.0,0.003916382473074504,0.0,0.04829839031468369
ArgParser.getRequiredArg,0.0,0.0,0.0,0.0,0.0
Arithmetic$py.test$11,0.0,0.076611466666994,0.0,0.00829600000094312,0.08490746666793712
Arithmetic$py.test$14,0.3532059597017228,0.0,0.017019838680846135,0.0,0.3702257983825689
Arithmetic$py.test$2,0.29577070657830506,0.0,0.015286468463246654,0.0,0.3110571750415517
Arithmetic$py.test$5,0.2743102286331286,0.0,0.015210593634530652,0.0,0.28952082226765924
Arithmetic$py.test$8,0.2344331096321136,0.0,0.01120971142365353,0.0,0.24564282105576715
AttributeInfo.<init>,0.0,0.0,0.0,0.0,0.0
BaseParser.<init>,0.06328969639731565,0.0,0.004379552616345835,0.0,0.06766924901366148
BaseParser.setupParser,0.24659303188773424,0.0,0.02196871861457444,0.0,0.2685617505023087
Benchmark.deleteTree,0.0,0.04001451488776542,0.0,0.00634889114281615,0.04636340603058157
Benchmark.fileFromInputStream,0.0,2.303293911114188,0.0,0.37080041666716473,2.674094327781353
Benchmark.run,0.8925127278843498,0.0,0.05339224040080137,0.0,0.9459049682851511
Benchmark.unpackZipStream,0.0,0.1316326666686412,0.0,0.022035000001778826,0.15366766667042003
BytecodeLoader$Loader.loadClassFromBytes,0.0,0.0,0.0,0.0,0.0
BytecodeLoader.makeCode,0.19021645080845467,0.0,0.01251791364704362,0.0,0.2027343644554983
CachedJarsPackageManager.addZipEntry,0.0,0.0,0.0,0.0,0.0
CachedJarsPackageManager.filterByName,0.0,0.0,0.0,0.0,0.0
CachedJarsPackageManager.getZipPackages,5.413471345888759,0.0,0.49679216817043964,0.0,5.910263514059198
Calls$py.test$13,0.0,0.0,0.0,0.0,0.0
Calls$py.test$2,0.07769142582956748,0.0,0.0055973279208107385,0.0,0.08328875375037821
Calls$py.test$27,0.0,0.0,0.0,0.0,0.0
Chaperone.retire,0.0,0.0,0.0,0.0,0.0
ClassReader.accept,0.054974536779363516,0.0,0.0034565206420333968,0.0,0.05843105742139691
ClassReader.readConst,0.0,0.0,0.0,0.0,0.0
ClassWriter.visitMethod,0.03355959538866315,0.0,0.0025423287425315124,0.0,0.03610192413119466
Code.freeLocal,0.0,0.0,0.0,0.0,0.0
CodeCompiler.visitFunctionDef,0.0,0.0,0.0,0.0,0.0
CodeFlag$1.iterator,0.08074273127801326,0.0,0.005061942146874231,0.0,0.0858046734248875
CommandLineArgs.extractBenchmarkSet,0.0,0.0,0.0,0.0,0.0
CommonTokenStream.LT,0.06009132857255412,0.0,0.0034460415516234274,0.0,0.06353737012417755
CommonTokenStream.consume,0.07472047707663565,0.0,0.004348240918176597,0.0,0.07906871799481224
Compare$PyExposer.<init>,0.0,0.0,0.0,0.0,0.0
ConfigFile.<init>,0.0,0.0,0.0,0.0,0.0
ConfigFileTokenManager.jjMoveNfa_0,0.0,0.10734033333331656,0.0,0.01644499999868761,0.12378533333200417
ConstPool.read,0.0,0.0,0.0,0.0,0.0
Constructs$py.test$2,0.06896609983906847,0.0,0.0046326470483118104,0.0,0.07359874688738029
Constructs$py.test$5,0.0,0.0,0.0,0.0,0.0
Constructs$py.test$8,0.10532838496509715,0.0,0.007548102061068505,0.0,0.11287648702616565
DFA.unpackEncodedString,0.06389862506867668,0.0,0.0042161262457230606,0.0,0.06811475131439973
DacapoClassLoader.loadClass,0.5433457319527252,0.0,0.039325623694144864,0.0,0.58267135564687
Dict$py.test$11,0.045865348495635935,0.0,0.002863601362791469,0.0,0.048728949858427406
Dict$py.test$14,0.10936856916102335,0.0,0.005407772978542716,0.0,0.11477634213956606
Dict$py.test$2,0.05727932145198696,0.0,0.0043565993351437375,0.0,0.0616359207871307
Dict$py.test$5,0.12477150837107309,0.0,0.005694306106527153,0.0,0.13046581447760025
Dict$py.test$8,0.054922522557564205,0.0,0.0031739349759429512,0.0,0.05809645753350716
Exceptions$py.test$2,0.0,0.0,0.0,0.0,0.0
Exceptions$py.test$5,0.0,0.03187050000027132,0.0,0.0008275000000139697,0.03269800000028529
FileURLConnection.getPermission,0.0,0.0,0.0,0.0,0.0
FloatingDecimal.readJavaFormatString,0.1336857190252001,0.0,0.007199533224212049,0.0,0.14088525224941215
Frame.a,0.07955449623015834,0.0,0.004561117999861127,0.0,0.08411561423001947
Future.<init>,0.06525010042328645,0.0,0.004653513196615354,0.0,0.0699036136199018
GrammarActions.makeFor,0.06334128411089336,0.0,0.004200434884153128,0.0,0.06754171899504649
GrammarActions.makeFuncdef,0.0,0.0,0.0,0.0,0.0
GrammarActions.makeTryExcept,0.0,0.0,0.0,0.0,0.0
Handler.parseContextSpec,0.0,0.0,0.0,0.0,0.0
If$PyExposer.<init>,0.06679155372822038,0.0,0.004050965080233543,0.0,0.07084251880845392
ImportFunction.__call__,0.0,0.0,0.0,0.0,0.0
Imports$py.test$2,0.0,0.0,0.0,0.0,0.0
Instances$py.__init__$7,0.04562231770630322,0.0,0.003926903874012019,0.0,0.04954922158031524
JarFileFactory.getConnection,0.0,0.0,0.0,0.0,0.0
Launcher$AppClassLoader.loadClass,0.051859555718019576,0.0,0.004425153694200726,0.0,0.0562847094122203
Lexer.emit,0.05589356038525397,0.0,0.004666664663886819,0.0,0.06056022504914079
Lists$py.test$2,0.0,0.2522380000009434,0.0,0.008135000001251076,0.26037300000219443
Lists$py.test$8,0.0,0.11535633333066168,0.0,0.011145000001609635,0.12650133333227132
Lookups$py.test$12,0.0,0.14695233333623037,0.0,0.0013799999990927365,0.1483323333353231
Lookups$py.test$17,0.05001328557442048,0.0,0.003508279271192325,0.0,0.05352156484561281
Lookups$py.test$2,0.0,0.13795269696878895,0.0,0.0032922727270598634,0.14124496969584882
Lookups$py.test$22,0.13995182291684688,0.0,0.015328124999314241,0.0,0.15527994791616112
Lookups$py.test$7,0.1356150728816296,0.0,0.011773063852650409,0.0,0.14738813673428003
MethodWriter.visitLineNumber,0.0,0.0,0.0,0.0,0.0
Module.PyCode,0.07390269546405741,0.0,0.004590993497784391,0.0,0.07849368896184179
Native.initIDs,0.04875496874727952,0.0,0.004336728984485283,0.0,0.0530916977317648
NewInstances$py.__init__$8,0.0,0.0,0.0,0.0,0.0
NumberFormatProviderImpl.getInstance,0.0,0.0,0.0,0.0,0.0
Numbers$py.test$11,0.06945885760780846,0.0,0.0025729908112198606,0.0,0.07203184841902832
Numbers$py.test$2,0.11012867222738151,0.0,0.00826284477199499,0.0,0.1183915169993765
Numbers$py.test$5,0.20491533333370165,0.0,0.011304999999993015,0.0,0.21622033333369467
Numbers$py.test$8,0.1731569999998707,0.0,0.011885000002318215,0.0,0.1850420000021889
OpenListResourceBundle.<init>,0.0,0.0,0.0,0.0,0.0
POSIXFactory.loadLibC,0.04360880386115452,0.0,0.0034712347445225705,0.0,0.04708003860567709
PackageManager.checkAccess,4.054552917176502,0.0,0.30799041990680615,0.0,4.362543337083308
ParseUtil.encodePath,0.0,0.0,0.0,0.0,0.0
Py.<clinit>,0.0,0.0,0.0,0.0,0.0
Py.getThreadState,0.0,0.0,0.0,0.0,0.0
Py.initClassExceptions,0.0,0.0,0.0,0.0,0.0
Py.newInteger,0.06299159337680152,0.0,0.0040554410681144905,0.0,0.06704703444491601
Py.newLong,0.0,0.0,0.0,0.0,0.0
Py.py2int,0.0,0.04578860000037821,0.0,0.008837999998650047,0.05462659999902826
Py.unpackSequence,0.06300866666667085,0.0,0.002999999999398521,0.0,0.06600866666606937
PyArray.setup,0.0,0.0,0.0,0.0,0.0
PyBaseException$exposed___new__.createOfSubtype,0.0,0.0,0.0,0.0,0.0
PyBaseExceptionDerived.dispatch__init__,0.0,0.0,0.0,0.0,0.0
PyComplex._div,0.0,0.0,0.0,0.0,0.0
PyComplex.coerce,0.0,0.0,0.0,0.0,0.0
PyDictionary.<init>,0.12579361656534777,0.0,0.009051413977191908,0.0,0.13484503054253968
PyDictionary.dict___setitem__,0.13288926879540883,0.0,0.008284283444168492,0.0,0.1411735522395773
PyException.<init>,0.0,0.0,0.0,0.0,0.0
PyException.fillInStackTrace,0.5113257217784064,0.506778416668011,0.03329740948916739,0.05932885416298935,1.1107304020985742
PyFile$PyExposer.<init>,0.07073966666636503,0.0,0.004744999998365529,0.0,0.07548466666473055
PyFloat.__div__,0.0,0.0,0.0,0.0,0.0
PyFloat.__sub__,0.07848509485935876,0.0,0.0040679363422039035,0.0,0.08255303120156265
PyFloat.canCoerce,0.0,0.0,0.0,0.0,0.0
PyFloat.float___hash__,0.05348618205876355,0.0,0.0056527292630375,0.0,0.059138911321801046
PyFrame.<init>,0.13274229279397048,0.0,0.007905948336246405,0.0,0.1406482411302169
PyFrame.doGetglobal,0.0,0.04726282352930866,0.0,0.00815647058805232,0.05541929411736098
PyFrame.getlocal,0.31947646309525757,0.0,0.017120008061529055,0.0,0.33659647115678665
PyFrame.setline,0.14923168887480523,0.04210705882424543,0.009839991719777213,0.007214117646285827,0.20839285706511368
PyFrame.setlocal,0.12247411401582198,0.0,0.008129909117948916,0.0,0.1306040231337709
PyFunction.__call__,0.0479901838962691,0.0,0.002910731875452003,0.0,0.0509009157717211
PyInstance.__findattr_ex__,0.0,0.0,0.0,0.0,0.0
PyInteger$PyExposer.<init>,0.06704525033375666,0.0,0.007545778678689859,0.0,0.07459102901244652
PyInteger.__mul__,0.0507900788259956,0.0,0.0030756633642976647,0.0,0.05386574219029327
PyInteger.canCoerce,0.0462253245840968,0.0,0.002330420544688451,0.0,0.04855574512878525
PyInteger.int___sub__,0.04307458682341117,0.0,0.002118995141224354,0.0,0.04519358196463553
PyJavaPackage.addPackage,0.0474837938963836,0.0,0.005605841448666022,0.0,0.053089635345049624
PyJavaPackage.addPlaceholders,0.0,0.0,0.0,0.0,0.0
PyJavaType.init,0.07364308252512962,0.0,0.005499016224662963,0.0,0.07914209874979258
PyJavaType.wrapJavaObject,0.07975041465023082,0.0,0.0043900399352398735,0.0,0.08414045458547069
PyList.getslice,0.0,0.0,0.0,0.0,0.0
PyList.list___len__,0.0,0.0,0.0,0.0,0.0
PyList.pyget,0.23006673212359693,0.0,0.019923538862060237,0.0,0.24999027098565718
PyList.setslicePyList,0.0,0.2302856666671384,0.0,0.045469999997294515,0.2757556666644329
PyLong.canCoerce,0.0,0.045133333333069466,0.0,0.004800000000977888,0.049933333334047356
PyLong.divide,0.0,0.0,0.0,0.0,0.0
PyLong.long___add__,0.0,0.03481440000080814,0.0,0.0038879999987936273,0.03870239999960177
PyLong.long___mul__,0.0,0.14754233333320976,0.0,0.01652900000141623,0.16407133333462598
PyLong.long___sub__,0.0,0.0,0.0,0.0,0.0
PyObject.<init>,0.04995908521169254,0.024719230769290168,0.001527217522017022,0.00572307692401899,0.08192861042701872
PyObject._cmp_unsafe,0.041219000000031265,0.0,0.0033299999995506373,0.0,0.0445489999995819
PyObject._div,0.06507525633074128,0.0,0.004349719685250696,0.0,0.06942497601599197
PyObject._eq,0.06853703650943731,0.0,0.004572694452687745,0.0,0.07310973096212506
PyObject._floordiv,0.0,0.04195543333359334,0.0,0.007916999999482262,0.0498724333330756
PyObject._ge,0.04662126409773077,0.0,0.003357370349725498,0.0,0.04997863444745627
PyObject._lt,0.0,0.0,0.0,0.0,0.0
PyObject._try__cmp__,0.0,0.0,0.0,0.0,0.0
PyObject.getType,0.04548323837412988,0.0,0.0036060657844571727,0.0,0.049089304158587053
PyObject.isDataDescr,0.08811433333357854,0.0504376296303235,0.00849000000016531,0.005337777778213084,0.15237974074228045
PyObject.object___setattr__,0.08474387475518395,0.0,0.004677874013448972,0.0,0.08942174876863293
PySequence$1.getItem,0.0,0.0,0.0,0.0,0.0
PySequence.<init>,0.0,0.030090333333646413,0.0,0.008977500000279784,0.039067833333926195
PySequence.__lt__,0.0,0.0534914333341779,0.0,0.010794000000654095,0.064285433334832
PySequence.sliceLength,0.0,0.11517333333419325,0.0,0.013539999999920838,0.12871333333411408
PyString$str_isspace_exposer.bind,0.0,0.051656000000851535,0.0,0.01059000000047187,0.0622460000013234
PyString.<init>,0.0,0.0,0.0,0.0,0.0
PyString._isalnum,0.0,0.0,0.0,0.0,0.0
PyString.atoi,0.5808191573737573,0.0,0.035046942208550654,0.0,0.615866099582308
PyString.fromSubstring,0.0,0.020385666666697944,0.0,0.006107500000022506,0.026493166666720448
PyString.splitfields,0.0,0.0,0.0,0.0,0.0
PyString.str___add__,0.1095607264667934,0.0,0.009018157079411443,0.0,0.11857888354620486
PyString.str___ge__,0.05079524258655736,0.0,0.004049079751062079,0.0,0.05484432233761944
PyString.str___gt__,0.0,0.0,0.0,0.0,0.0
PyString.str_find,0.060599279755247926,0.0,0.003984262133519818,0.0,0.06458354188876775
PyString.str_isalpha,0.0,0.0,0.0,0.0,0.0
PyString.str_istitle,0.0,0.0,0.0,0.0,0.0
PyString.str_isupper,0.0,0.04403115789356984,0.0,0.007797894737960998,0.051829052631530835
PyString.str_lower,0.0,0.0,0.0,0.0,0.0
PyString.str_new,0.05828762455761102,0.0,0.005546156378829533,0.0,0.06383378093644056
PyString.str_title,0.0,0.23281612820555425,0.0,0.03637846153698122,0.26919458974253546
PyString.str_upper,0.0,0.19674531578825655,0.0,0.023852368424725184,0.22059768421298173
PyStringMap.<init>,0.0,0.0,0.0,0.0,0.0
PyStringMap.__finditem__,0.18403711955653712,0.1433331296270976,0.0100360448940092,0.015501111111613376,0.35290740518925734
PyStringMap.__setitem__,0.6452601347982387,0.10257933333195977,0.03538618417026202,0.006859999998899486,0.7900856522993601
PySystemState.initPackages,0.0,0.0,0.0,0.0,0.0
PyTableCode.call,0.0443341917581388,0.0,0.0022460193439549896,0.0,0.04658021110209379
PyTraceback.<init>,0.0,0.0,0.0,0.0,0.0
PyTuple.<init>,0.0,0.0,0.0,0.0,0.0
PyType.fromClass,0.16803703364094186,0.0,0.010819159974519665,0.0,0.1788561936154615
PyType.instDict,0.0,0.0,0.0,0.0,0.0
PyType.invoke_new_,0.09497693515886396,0.0,0.004561879781384968,0.0,0.09953881494024892
PyType.isSubType,0.0,0.0,0.0,0.0,0.0
PyType.lookup,0.07798266666638179,0.05678299999999581,0.004795000000740402,0.006285000000692283,0.1458456666678103
PyType.newType,0.0,0.0,0.0,0.0,0.0
PyUnicode.fromSubstring,0.0,0.0,0.0,0.0,0.0
PyUnicode.unicode___add__,0.047908684746829,0.0,0.004600527750875378,0.0,0.05250921249770438
PyXRange.pyget,0.0,0.0,0.0,0.0,0.0
PythonLexer.mCOMMENT,0.07383894729542975,0.0,0.00646993944952737,0.0,0.08030888674495712
PythonLexer.mNEWLINE,0.0,0.0,0.0,0.0,0.0
PythonParser$DFA37.<init>,0.06010561929033788,0.0,0.004685576776928679,0.0,0.06479119606726656
PythonParser.<clinit>,0.06672753874183156,0.0,0.004615868388796332,0.0,0.0713434071306279
PythonParser.argument,0.0,0.0,0.0,0.0,0.0
PythonParser.atom,0.10751615774863793,0.0,0.010550031385602994,0.0,0.11806618913424093
PythonParser.simple_stmt,0.0,0.0,0.0,0.0,0.0
PythonParser.small_stmt,0.06375336801785296,0.0,0.004010122419957972,0.0,0.06776349043781094
PythonParser.term,0.05113997125504605,0.0,0.003979715348274469,0.0,0.05511968660332052
PythonParser.testlist_gexp,0.0,0.0,0.0,0.0,0.0
PythonParser.trailer,0.06364967160632501,0.0,0.004633385384557436,0.0,0.06828305699088244
Resource.getBytes,0.08680185430078377,0.0,0.00916930112529268,0.0,0.09597115542607645
RewriteRuleElementStream.<init>,0.07143844725050351,0.0,0.004319671461957799,0.0,0.07575811871246131
ScopesCompiler.visitFunctionDef,0.05412331985963901,0.0,0.004427580450918369,0.0,0.058550900310557374
SequenceIndexDelegate.checkIdx,0.0716004757934319,0.0,0.004016224042814082,0.0,0.07561669983624598
SequenceIndexDelegate.checkIdxAndSetSlice,0.0,0.05424000000251301,0.0,0.01209999999991851,0.06634000000243151
Strings$py.test$11,0.2507998920233781,0.0,0.015051196722554193,0.0,0.2658510887459323
Strings$py.test$14,0.0,0.0,0.0,0.0,0.0
Strings$py.test$17,0.0,0.0575153333338676,0.0,0.010039999998601465,0.06755533333246906
Strings$py.test$2,0.09629964967162745,0.0,0.007830347669742747,0.0,0.1041299973413702
Strings$py.test$20,0.0,0.03870074073913403,0.0,0.003128888889612561,0.04182962962874659
Strings$py.test$5,0.5373589789975608,0.0,0.026732969411994628,0.0,0.5640919484095555
Strings$py.test$8,0.6821722239591627,0.0,0.04628622110190277,0.0,0.7284584450610654
SyspathJavaLoader.loadClass,0.0,0.0,0.0,0.0,0.0
TestHarness.<init>,0.0,0.0,0.0,0.0,0.0
ThreadStateMapping.getThreadState,0.19390542063726468,0.07827316666610867,0.012634917643343511,0.016637647061882078,0.30145115200859895
Tuples$py.test$5,0.0,0.3181464848486498,0.0,0.03762136363344105,0.35576784848209086
URLClassPath$FileLoader.getResource,0.0,0.0,0.0,0.0,0.0
URLClassPath$JarLoader$2.getCodeSigners,0.0,0.0,0.0,0.0,0.0
URLClassPath$JarLoader$2.getInputStream,0.0,0.0,0.0,0.0,0.0
URLClassPath$JarLoader.getResource,0.0,0.0,0.0,0.0,0.0
Unicode$py.test$11,0.0,0.05909380775050522,0.0,0.013698986345164917,0.07279279409567013
Unicode$py.test$2,0.0399427449054646,0.0,0.0034668175452118558,0.0,0.04340956245067646
Unicode$py.test$5,0.1501873806672504,0.0,0.007226668259721486,0.0,0.1574140489269719
Unicode$py.test$8,0.0694522589605973,0.0,0.0047798436752588035,0.0,0.0742321026358561
Utf8Info.<init>,0.06893878070364606,0.0,0.004335791470431883,0.0,0.07327457217407794
WrappedIterIterator.hasNext,0.0,0.0,0.0,0.0,0.0
ZoneInfoFile.load,0.08004142717735195,0.0,0.005139964906709675,0.0,0.08518139208406163
__builtin__.fillWithBuiltins,0.0,0.0,0.0,0.0,0.0
imp.importName,0.0936738557214413,0.0,0.004305215936241706,0.0,0.097979071657683
imp.import_name,0.0,0.0,0.0,0.0,0.0
imp.import_next,0.4840034030070248,0.0,0.031293336128997845,0.0,0.5152967391360227
unicodedata$py.decimal$12,0.0,0.0,0.0,0.0,0.0
unicodedata$py.get$11,0.0,0.0,0.0,0.0,0.0
unicodedata$py.init_unicodedata$4,0.0641073333335953,0.0,0.004159999996772967,0.0,0.06826733333036827
