method,package1,package2,dram1,dram2,energy
,0.0,7.708734927183979,0.0,1.0169578104921486,8.725692737676127
javassist.bytecode,0.0,0.13665766666235868,0.0,0.01797500000005433,0.15463266666241302
org.antlr.runtime,0.0,0.09471723167172134,0.0,0.02193360468909036,0.11665083636081171
org.objectweb.asm,0.0,0.08357766666692137,0.0,0.010850000001179675,0.09442766666810105
org.python.antlr,0.0,0.606391430335223,0.0,0.049694396555569266,0.6560858268907923
org.python.antlr.ast,0.0,0.22612483517611448,0.0,0.036716380447889115,0.2628412156240036
org.python.antlr.base,0.0,0.039164333332640425,0.0,0.005819999998493586,0.04498433333113401
org.python.compiler,0.0,0.04923499999858905,0.0,0.00488000000041211,0.054114999999001163
org.python.core,0.0,4.8609692677186,0.0,0.6946135295519656,5.555582797270565
org.python.core.io,0.0,0.03628194444293816,0.0,0.004516666667768732,0.040798611110706894
org.python.core.packagecache,0.057315365123526425,0.0,0.004544432018027924,0.0,0.061859797141554346
org.python.modules,0.0,0.034564789645586555,0.0,0.008513762621543129,0.043078552267129686
org.python.modules.time,0.0,0.06337466666688366,0.0,0.01239999999961583,0.07577466666649949
sun.misc,0.0,0.04003419978408889,0.0,0.006434359359219735,0.04646855914330863
sun.reflect.annotation,0.0,0.0,0.0,0.0,0.0
sun.util.calendar,0.0,0.056620333334043,0.0,0.009580000000520764,0.06620033333456377
