method,package1,package2,dram1,dram2,energy
,7.347195500334361,0.0696209999975205,0.4404862610565525,0.015664999998989515,7.872967761387423
chappie,0.11783426575583783,0.0,0.01032583982769218,0.0,0.12816010558353
javassist,0.0,0.04831966666824883,0.0,0.005884999998670537,0.054204666666919366
javassist.bytecode,0.0,0.0,0.0,0.0,0.0
org.antlr.runtime,0.0,0.0,0.0,0.0,0.0
org.dacapo.harness,0.0,0.1200763846155053,0.0,0.01981230769104933,0.13988869230655462
org.dacapo.parser,0.0,0.0,0.0,0.0,0.0
org.objectweb.asm,0.0,0.06434136904707494,0.0,0.013973214284609032,0.07831458333168397
org.python.antlr,0.0,0.7593334264683836,0.0,0.10981549019490167,0.8691489166632853
org.python.antlr.ast,0.0,0.18541347618537696,0.0,0.02620428571563458,0.21161776190101153
org.python.compiler,0.0,0.04976399999820084,0.0,0.004864999997759393,0.05462899999596023
org.python.core,2.53134895451171,0.290450521369967,0.14218419777266372,0.039704871799562495,3.0036885454539033
org.python.core.io,0.0,0.08992500000022119,0.0,0.017284999999295298,0.10720999999951648
org.python.modules,0.0,0.0,0.0,0.0,0.0
sun.misc,0.0,0.0709230000017366,0.0,0.01464999999977105,0.08557300000150765
sun.util.locale.provider,0.07408980590919244,0.0,0.004516195547104133,0.0,0.07860600145629656
sun.util.resources,0.0,0.0,0.0,0.0,0.0
