method,package1,package2,dram1,dram2,energy
AbstractCollection.toArray|ArrayList.<init>|PyList.getslice,0.0,0.228444255047518,0.0,0.03556399356859409,0.2640082486161121
AbstractStringBuilder.<init>|StringBuilder.<init>|imp.import_name,0.0,0.0,0.0,0.0,0.0
AbstractStringBuilder.append|StringBuilder.append|StringBuilder.<init>,0.0,0.053006935569854835,0.0,0.007247380337604541,0.060254315907459374
ArrayList.add|PyList.pyadd|PyList.list_append,0.0,0.05418823431457511,0.0,0.007268324700627189,0.0614565590152023
Arrays.copyOfRange|String.<init>|String.substring,0.0,0.07097112864777393,0.0,0.014212031206524568,0.0851831598542985
Arrays.copyOf|AbstractStringBuilder.ensureCapacityInternal|AbstractStringBuilder.append,0.0,0.0,0.0,0.0,0.0
Arrays.copyOf|ArrayList.grow|ArrayList.ensureExplicitCapacity,0.0,0.0,0.0,0.0,0.0
Arrays.copyOf|String.concat|PyString.str___add__,0.0,0.0,0.0,0.0,0.0
Arrays.copyOf|String.concat|PyUnicode.unicode___add__,0.0,0.17423966666622923,0.0,0.04317249999924873,0.21741216666547797
BigInteger.<init>|PyString.atoi|PyString.__int__,0.06730711452686318,0.0,0.005228730950376824,0.0,0.07253584547724
BigInteger.divide|PyLong.divide|PyLong.long___div__,0.0,0.0,0.0,0.0,0.0
BufferedInputStream.<init>|BufferedInputStream.<init>|ClassPool.makeClass,0.0,0.0,0.0,0.0,0.0
BufferedInputStream.read1|BufferedInputStream.read|FilterInputStream.read,0.20006013306657544,0.0,0.02598064038872294,0.0,0.22604077345529838
BufferedInputStream.read|DataInputStream.readInt|AttributeInfo.<init>,0.08596884704093624,0.0,0.0019067769624584278,0.0,0.08787562400339467
BufferedInputStream.read|DataInputStream.readUnsignedByte|ConstPool.readOne,0.032161893090771235,0.0,0.0005883930876884595,0.0,0.032750286178459695
BufferedInputStream.read|DataInputStream.readUnsignedShort|CodeAttribute.<init>,0.0,0.0,0.0,0.0,0.0
BufferedInputStream.read|DataInputStream.readUnsignedShort|MethodInfo.read,0.0,0.0,0.0,0.0,0.0
BufferedInputStream.read|FilterInputStream.read|PushbackInputStream.read,0.6879692025476698,0.0,0.05852351351342787,0.0,0.7464927160610977
Byte.toUnsignedInt|InflaterInputStream.read|DataInputStream.readUnsignedShort,0.04336517067172918,0.0,0.006424303256487777,0.0,0.049789473928216955
CRC32.update|ZipInputStream.read|InflaterInputStream.read,0.05439424386352744,0.0,0.004287810870034193,0.0,0.05868205473356163
CRC32.update|ZipInputStream.read|ZipInputStream.skip,0.0,0.0,0.0,0.0,0.0
Character.getType|Character.isTitleCase|Character.isTitleCase,0.0,0.07969052000846162,0.0,0.012037463618405523,0.09172798362686714
Character.getType|Character.isUpperCase|Character.isUpperCase,0.0,0.0,0.0,0.0,0.0
Character.isUpperCase|Character.isUpperCase|PyString.str_title,0.0,0.08808188235122417,0.0,0.010272941177747413,0.09835482352897158
Character.toTitleCase|Character.toTitleCase|PyString.str_title,0.0,0.0,0.0,0.0,0.0
CharacterData.of|Character.toLowerCase|Character.toLowerCase,0.0,0.0,0.0,0.0,0.0
CharacterData00.getPropertiesEx|CharacterData00.isOtherUppercase|Character.isUpperCase,0.0,0.0,0.0,0.0,0.0
CharacterData00.getProperties|CharacterData00.toLowerCase|Character.toLowerCase,0.0,0.06681300000006253,0.0,0.010240000000824995,0.07705300000088752
CharacterData00.toUpperCaseEx|Character.toUpperCaseEx|String.toUpperCase,0.0,0.0,0.0,0.0,0.0
CharacterDataLatin1.getType|Character.getType|Character.isTitleCase,0.0,0.0,0.0,0.0,0.0
CharacterDataLatin1.isWhitespace|Character.isWhitespace|Character.isWhitespace,0.0,0.052270253562380666,0.0,0.0093154810893091,0.06158573465168977
CharacterDataLatin1.toUpperCase|CharacterDataLatin1.toTitleCase|Character.toTitleCase,0.0,0.07621802583599048,0.0,0.010981607223965514,0.087199633059956
Class.forName0|Class.forName|SyspathJavaLoader.loadClass,0.0,0.0,0.0,0.0,0.0
Class.getDeclaredClasses0|Class.getDeclaredClasses|Class$2.run,0.028036689261246157,0.0,0.0014223844947224337,0.0,0.02945907375596859
Class.getDeclaredConstructors0|Class.privateGetDeclaredConstructors|Class.getConstructor0,0.07387045294855915,0.0,0.0041249104495569636,0.0,0.07799536339811611
Class.getDeclaredMethods0|Class.privateGetDeclaredMethods|Class.privateGetPublicMethods,0.0,0.0,0.0,0.0,0.0
ClassLoader.defineClass1|ClassLoader.defineClass|SecureClassLoader.defineClass,0.35006109707830974,0.0,0.015783852050621647,0.0,0.3658449491289314
ConcurrentHashMap$EntrySetView.iterator|ConcurrentHashMap.putAll|PyStringMap.merge,0.0,0.0,0.0,0.0,0.0
ConcurrentHashMap.addCount|ConcurrentHashMap.putVal|ConcurrentHashMap.put,0.0,0.04645531827949314,0.0,0.005908099477044629,0.052363417756537765
ConcurrentHashMap.casTabAt|ConcurrentHashMap.putVal|ConcurrentHashMap.put,0.0,0.13775096101452128,0.0,0.019010444106008054,0.15676140512052933
ConcurrentHashMap.get|PyStringMap.__finditem__|PyFrame.doGetglobal,0.0,0.15075044056091388,0.0,0.019997319856778085,0.17074776041769196
ConcurrentHashMap.get|PyStringMap.__finditem__|PyType.lookup,0.0,0.04861604744933597,0.0,0.006752094557206993,0.05536814200654296
ConcurrentHashMap.putVal|ConcurrentHashMap.put|PyDictionary.<init>,0.0,0.05253014030832495,0.0,0.01074617830143504,0.06327631860975999
ConcurrentHashMap.putVal|ConcurrentHashMap.put|PyDictionary.dict___setitem__,0.0,0.10923810169116252,0.0,0.019393367549582187,0.1286314692407447
ConcurrentHashMap.putVal|ConcurrentHashMap.put|PyStringMap.__setitem__,0.0,0.14325327079128655,0.0,0.013293673223620836,0.15654694401490737
ConcurrentHashMap.replaceNode|ConcurrentHashMap.remove|PyDictionary.dict___delitem__,0.0,0.037893487638761214,0.0,0.004633913868001268,0.042527401506762486
ConcurrentHashMap.spread|ConcurrentHashMap.get|PyStringMap.__finditem__,0.0,0.10362325865780396,0.0,0.023843554576697883,0.12746681323450185
ConcurrentHashMap.tabAt|ConcurrentHashMap.get|PyStringMap.__finditem__,0.0,0.09541029330355763,0.0,0.01580752973392041,0.11121782303747804
ConcurrentHashMap.tabAt|ConcurrentHashMap.putVal|ConcurrentHashMap.put,0.0,0.0,0.0,0.0,0.0
ConcurrentHashMap.tableSizeFor|ConcurrentHashMap.<init>|PyStringMap.<init>,0.0,0.09883633333083708,0.0,0.013354999997924702,0.11219133332876179
ConcurrentHashMap.transfer|ConcurrentHashMap.addCount|ConcurrentHashMap.putVal,0.05331137190377309,0.0,0.003846302236828014,0.0,0.0571576741406011
DataInputStream.readUTF|DataInputStream.readUTF|Utf8Info.<init>,0.0,0.0,0.0,0.0,0.0
DataInputStream.readUnsignedShort|PackageManager.checkAccess|CachedJarsPackageManager.addZipEntry,0.05501984915349371,0.0,0.0046059872240530545,0.0,0.059625836377546766
EnumSet.noneOf|EnumSet.allOf|ConstantSet.<init>,0.02642505987058455,0.0,0.0010658179733680467,0.0,0.027490877843952596
FileInputStream.available0|FileInputStream.available|BufferedInputStream.read,0.36356687885652345,0.0,0.03382496779993041,0.0,0.3973918466564539
FileInputStream.readBytes|FileInputStream.read|BufferedInputStream.fill,0.9213711396016013,0.0,0.08605434831566303,0.0,1.0074254879172644
FileOutputStream.close0|FileOutputStream.access$000|FileOutputStream$1.close,0.0,0.0,0.0,0.0,0.0
FileOutputStream.open0|FileOutputStream.open|FileOutputStream.<init>,0.13913723783816184,0.0,0.011198729564386053,0.0,0.1503359674025479
FileOutputStream.writeBytes|FileOutputStream.write|BufferedOutputStream.flushBuffer,0.09215944898146625,0.0,0.005208335407657886,0.0,0.09736778438912413
FileOutputStream.writeBytes|FileOutputStream.write|BufferedOutputStream.write,0.09880706496720812,0.0,0.005178436394816977,0.0,0.1039855013620251
FilterInputStream.read|PushbackInputStream.read|ZipInputStream.read,0.0,0.0,0.0,0.0,0.0
HashMap.getNode|HashMap.get|CachedJarsPackageManager.addZipEntry,0.0,0.0,0.0,0.0,0.0
Inflater.finished|InflaterInputStream.read|ZipInputStream.read,0.0547358554300085,0.0,0.004370083170325261,0.0,0.059105938600333766
Inflater.inflateBytes|Inflater.inflate|InflaterInputStream.read,7.375057114077491,0.0,0.47077783164971143,0.0,7.845834945727203
Inflater.inflate|InflaterInputStream.read|ZipInputStream.read,0.4195804385506988,0.0,0.030344560884045434,0.0,0.44992499943474423
Inflater.needsDictionary|InflaterInputStream.read|ZipInputStream.read,0.04022413109583595,0.0,0.0005009509029095792,0.0,0.04072508199874553
Inflater.needsInput|InflaterInputStream.read|ZipInputStream.read,0.0,0.0,0.0,0.0,0.0
Inflater.setInput|InflaterInputStream.fill|InflaterInputStream.read,0.0,0.0,0.0,0.0,0.0
InflaterInputStream.ensureOpen|InflaterInputStream.fill|InflaterInputStream.read,0.04537763073972498,0.0,0.008432324481526456,0.0,0.05380995522125143
InflaterInputStream.fill|InflaterInputStream.read|ZipInputStream.read,0.0,0.0,0.0,0.0,0.0
InflaterInputStream.read|DataInputStream.readUnsignedShort|PackageManager.checkAccess,0.03865314838324694,0.0,0.00285418321721348,0.0,0.04150733160046042
InflaterInputStream.read|ZipInputStream.read|ZipInputStream.closeEntry,0.0,0.0,0.0,0.0,0.0
JarURLConnection.parseSpecs|JarURLConnection.<init>|JarURLConnection.<init>,0.0,0.0,0.0,0.0,0.0
Long.getChars|Long.toString|Long.toString,0.0,0.0,0.0,0.0,0.0
MutableBigInteger.<init>|BigInteger.divideKnuth|BigInteger.divide,0.0,0.07282619451984038,0.0,0.011845305494279295,0.08467150001411967
Object.<init>|PyObject.<init>|PyFrame.<init>,0.0,0.0,0.0,0.0,0.0
Object.<init>|PyObject.<init>|PySequence.<init>,0.0,0.06655325989476284,0.0,0.017839883088740634,0.08439314298350348
Object.clone|Arrays$ArrayList.toArray|ArrayList.<init>,0.0,0.0,0.0,0.0,0.0
Pattern$CharProperty.match|Pattern$GroupHead.match|Pattern$Branch.match,0.08717082872341324,0.0,0.0055457065452225365,0.0,0.09271653526863577
Pattern.newSlice|Pattern.atom|Pattern.sequence,0.0643877278641576,0.0,0.0073313913977929406,0.0,0.07171911926195054
PushbackInputStream.read|ZipInputStream.readFully|ZipInputStream.readLOC,0.033230415250464884,0.0,0.0033911347875736075,0.0,0.03662155003803849
PushbackInputStream.read|ZipInputStream.read|InflaterInputStream.read,0.06499225843380113,0.0,0.004626676169261631,0.0,0.06961893460306276
PushbackInputStream.read|ZipInputStream.read|ZipInputStream.skip,0.0,0.0,0.0,0.0,0.0
RegularEnumSet.contains|CompilerFlags.isFlagSet|PyBaseCode.call,0.0,0.0,0.0,0.0,0.0
Stack.peek|PythonParser.expr|PythonParser.comparison,0.0,0.0,0.0,0.0,0.0
Stack.pop|PythonParser.expr|PythonParser.comparison,0.041398162876690486,0.0,0.001010154844504731,0.0,0.042408317721195216
String.<init>|StringUtil.fromBytes|StringUtil.fromBytes,0.0,0.0,0.0,0.0,0.0
String.charAt|PyString.atoi|PyString.__int__,0.07136226181971908,0.0,0.004605233877190908,0.0,0.07596749569690998
String.concat|PyString.str___add__|PyString.__add__,0.0,0.0,0.0,0.0,0.0
String.equals|HashMap.getNode|HashMap.get,0.06252414498030225,0.0,0.005222290242049655,0.0,0.0677464352223519
String.equals|ThreadCoreMapInjector.isRunnable|ThreadCoreMapInjector.transform,0.027773664857207076,0.0,0.0004145116900854416,0.0,0.02818817654729252
String.hashCode|HashMap.hash|HashMap.get,0.056658348083028436,0.0,0.0060795728265389,0.0,0.06273792090956734
String.hashCode|HashMap.hash|HashMap.put,0.0,0.0,0.0,0.0,0.0
String.intern|ImportFunction.__call__|PyObject.__call__,0.0,0.10198456812281656,0.0,0.011425464974973706,0.11341003309779027
String.intern|PyJavaPackage.addPackage|PyJavaPackage.addPackage,0.0,0.0,0.0,0.0,0.0
String.intern|PyJavaPackage.addPlaceholders|PackageManager.makeJavaPackage,0.03741128666300009,0.0,0.0049740161894637844,0.0,0.04238530285246387
String.intern|imp.import_next|imp.import_logic,0.0,0.0,0.0,0.0,0.0
String.intern|imp.import_next|imp.import_name,0.0,0.08747826458430329,0.0,0.011174511414090885,0.09865277599839417
String.replace|CachedJarsPackageManager.addZipEntry|CachedJarsPackageManager.getZipPackages,0.06322896047142249,0.0,0.007062819680627411,0.0,0.0702917801520499
String.substring|PyString.fromSubstring|PyString.splitfields,0.05389744713330522,0.0,0.0040562336467532675,0.0,0.05795368078005849
String.toCharArray|PyString.str_title|PyString$str_title_exposer.__call__,0.0,0.06821407612893905,0.0,0.009304308369258822,0.07751838449819787
String.toLowerCase|String.toLowerCase|PyString.str_lower,0.0,0.050596257692305684,0.0,0.005297085817820057,0.05589334351012574
String.toUpperCase|String.toUpperCase|PyString.str_upper,0.0,0.198626172603246,0.0,0.02238850917925532,0.22101468178250133
ThreadLocal$ThreadLocalMap.getEntry|ThreadLocal$ThreadLocalMap.access$000|ThreadLocal.get,0.0,0.2639529361795832,0.0,0.034884454395394594,0.2988373905749778
ThreadLocal.get|ThreadStateMapping.getThreadState|Py.getThreadState,0.0,0.0,0.0,0.0,0.0
Throwable.fillInStackTrace|Throwable.fillInStackTrace|PyException.fillInStackTrace,0.3359969197768213,0.6550073472101885,0.020409628684647074,0.08877982934461406,1.100193725016271
Throwable.fillInStackTrace|Throwable.fillInStackTrace|Throwable.<init>,0.31238715149140966,0.0,0.02592155662436622,0.0,0.3383087081157759
UnixFileSystem.delete0|UnixFileSystem.delete|File.delete,0.0,0.22009161197081878,0.0,0.02611350106511124,0.24620511303593
UnixFileSystem.list|File.list|File.listFiles,0.0,0.0,0.0,0.0,0.0
ZStreamRef.address|Inflater.inflate|InflaterInputStream.read,0.0,0.0,0.0,0.0,0.0
ZipFile$ZipFileInflaterInputStream.<init>|ZipFile.getInputStream|JarFile.getInputStream,0.0,0.0,0.0,0.0,0.0
ZipFile.getEntryFlag|ZipFile.getZipEntry|ZipFile.getEntry,0.0,0.0,0.0,0.0,0.0
ZipFile.read|ZipFile.access$1400|ZipFile$ZipFileInputStream.read,0.046529926056703225,0.0,0.0005782669167565985,0.0,0.04710819297345982
ZipInputStream.getNextEntry|CachedJarsPackageManager.getZipPackages|CachedJarsPackageManager.addJarToPackages,0.0,0.0,0.0,0.0,0.0
ZipInputStream.readFully|ZipInputStream.readLOC|ZipInputStream.getNextEntry,0.0,0.0,0.0,0.0,0.0
ZipInputStream.read|InflaterInputStream.read|DataInputStream.readByte,0.0,0.0,0.0,0.0,0.0
ZipInputStream.read|InflaterInputStream.read|DataInputStream.readShort,0.18234785910191437,0.0,0.01513466585908273,0.0,0.1974825249609971
ZipInputStream.read|InflaterInputStream.read|DataInputStream.readUnsignedShort,0.04968787559952698,0.0,0.004025294621259605,0.0,0.05371317022078659
ZipInputStream.read|ZipInputStream.closeEntry|CachedJarsPackageManager.getZipPackages,0.035429214801091104,0.0,0.0028764934179045113,0.0,0.038305708218995614
ZipInputStream.read|ZipInputStream.skip|DataInputStream.skipBytes,0.09604214498059113,0.0,0.007683887251842726,0.0,0.10372603223243386
