method,package1,package2,dram1,dram2,energy
java.io,0.2932492141041968,2.468180799986557,0.027612983956428184,0.3475515000068197,3.1365944980540017
java.lang,2.7706643747424096,1.7143859326580113,0.1858580853871847,0.231608511328763,4.902516904116369
java.lang.reflect,0.0,0.0450743333324984,0.0,0.0061600000008184,0.0512343333333168
java.math,0.08260990918832722,0.0,0.003580376002264946,0.0,0.08619028519059217
java.net,0.0,0.04616699999896809,0.0,0.007400999999663326,0.05356799999863142
java.security,0.0,0.0,0.0,0.0,0.0
java.util,0.5183065957928643,0.16023733332986012,0.021587452412668056,0.02334499999900193,0.7234763815343944
java.util.concurrent,0.7680137789652208,0.0,0.03746678297400929,0.0,0.8054805619392301
java.util.regex,0.06254066666648819,0.0,0.003559999999803646,0.0,0.06610066666629184
java.util.zip,3.882666262767088,6.9452249795936885,0.32374884262863723,0.9861779341976511,12.137818019187064
