method,package1,package2,dram1,dram2,energy
AbstractCollection.toArray|ArrayList.<init>|PyList.getslice,0.0,0.046447666667518206,0.0,0.007000000000213428,0.05344766666773163
AbstractStringBuilder.ensureCapacityInternal|AbstractStringBuilder.append|StringBuilder.append,0.0,0.06075033333278649,0.0,0.0061599999996057395,0.06691033333239223
AnnotationReader.<init>|imp.readCode|imp.createFromPyClass,0.10266133333364752,0.0,0.008634999998321291,0.0,0.11129633333196881
ArgParser.getList|PyBaseException.BaseException___init__|PyBaseException$BaseException___init___exposer.__call__,0.0,0.0,0.0,0.0,0.0
Arithmetic$py.test$11|Arithmetic$py.call_function|PyTableCode.call,0.0,0.048787333333166316,0.0,0.006329999998949157,0.05511733333211547
Arithmetic$py.test$14|Arithmetic$py.call_function|PyTableCode.call,0.0,0.29321027976160013,0.0,0.03863848214249239,0.3318487619040925
Arithmetic$py.test$2|Arithmetic$py.call_function|PyTableCode.call,0.0,0.30869566666418297,0.0,0.019145000000814125,0.3278406666649971
Arithmetic$py.test$5|Arithmetic$py.call_function|PyTableCode.call,0.0,0.47719333333225217,0.0,0.0626750000010361,0.5398683333332883
Arithmetic$py.test$8|Arithmetic$py.call_function|PyTableCode.call,0.0,0.40855641666530573,0.0,0.0333012499962327,0.4418576666615384
ArrayList$SubList$1.next|AbstractCollection.toArray|ArrayList.<init>,0.0,0.05110666666587349,0.0,0.004819999999502518,0.05592666666537601
ArrayList.add|Py.make_array|PyTuple.tuple_new,0.0,0.0,0.0,0.0,0.0
ArrayList.add|PyList.pyadd|PyList.list_append,0.0,0.051533999998355284,0.0,0.012019999999514159,0.06355399999786944
ArrayList.ensureExplicitCapacity|ArrayList.ensureCapacityInternal|ArrayList.add,0.0,0.058186999999937435,0.0,0.009560000001026006,0.06774700000096344
Arrays.copyOfRange|String.<init>|String.substring,0.0,0.0,0.0,0.0,0.0
Arrays.copyOf|ArrayList.grow|ArrayList.ensureExplicitCapacity,0.0,0.05990830769251961,0.0,0.006780000000547332,0.06668830769306694
Arrays.copyOf|String.concat|PyString.str___add__,0.0,0.09134933333552908,0.0,0.026694999998047322,0.1180443333335764
Arrays.copyOf|String.concat|PyUnicode.unicode___add__,0.0,0.11763877083482537,0.0,0.023351562500465658,0.140990333335291
BaseParser.setupParser|BaseParser.parseModule|CompileMode$3.dispatch,0.04560199999988461,0.0,0.003342857143642114,0.0,0.04894485714352673
BigInteger.add|BigInteger.add|PyLong.long___add__,0.0,0.06046566666676274,0.0,0.0067799999984951365,0.06724566666525787
BigInteger.subtract|BigInteger.subtract|PyLong.long___sub__,0.0,0.05202233333451052,0.0,0.00562000000112069,0.05764233333563121
BufferedInputStream.<init>|BufferedInputStream.<init>|ClassPool.makeClass,0.0,0.04175857498251947,0.0,0.006502588801685935,0.048261163784205405
BufferedInputStream.read1|BufferedInputStream.read|FilterInputStream.read,0.07029233333317582,0.0,0.0072999999999107485,0.0,0.07759233333308657
BufferedInputStream.read|DataInputStream.readInt|AttributeInfo.<init>,0.0,0.0,0.0,0.0,0.0
BufferedInputStream.read|DataInputStream.readInt|CodeAttribute.<init>,0.07017033333310488,0.0,0.004720000002028732,0.0,0.0748903333351336
BufferedInputStream.read|DataInputStream.readUnsignedByte|ConstPool.readOne,0.04437266666597376,0.0,0.0035599999973783274,0.0,0.04793266666335209
BufferedInputStream.read|DataInputStream.readUnsignedShort|CodeAttribute.<init>,0.04512533333339282,0.0,0.003575000000031044,0.0,0.04870033333342386
BufferedInputStream.read|DataInputStream.readUnsignedShort|DataInputStream.readUTF,0.13873300000038094,0.0,0.011209999999361266,0.0,0.1499429999997422
BufferedInputStream.read|DataInputStream.readUnsignedShort|MemberrefInfo.<init>,0.04279222222208368,0.0,0.002786666665795362,0.0,0.045578888887879046
BufferedInputStream.read|FilterInputStream.read|PushbackInputStream.read,0.2580403666677133,0.0,0.019337999999455253,0.0,0.27737836666716853
BufferedOutputStream.<init>|Benchmark.fileFromInputStream|Benchmark.unpackZipStream,0.0,0.0,0.0,0.0,0.0
BuiltinFunctions.__call__|PyObject.__call__|bisect$py.bisect_left$4,0.04675667047587001,0.0,0.004022782861229793,0.0,0.0507794533370998
BuiltinFunctions.__call__|PyObject.__call__|unicodedata$py.get_codepoint$9,0.0,0.0,0.0,0.0,0.0
CRC32.update|ZipInputStream.read|InflaterInputStream.read,0.0,0.0,0.0,0.0,0.0
Calls$py.j$19|Calls$py.call_function|PyTableCode.call,0.0,0.04478257142805626,0.0,0.005194285711955411,0.04997685714001167
Calls$py.test$13|Calls$py.call_function|PyTableCode.call,0.0,0.07708460205767005,0.0,0.013339104033886148,0.0904237060915562
Calls$py.test$2|Calls$py.call_function|PyTableCode.call,0.0,0.04642142857067353,0.0,0.007221428571418592,0.053642857142092125
Character.getType|Character.isDigit|Character.isDigit,0.0,0.0,0.0,0.0,0.0
Character.getType|Character.isLowerCase|Character.isLowerCase,0.0,0.06490066666689623,0.0,0.0082599999999123,0.07316066666680852
Character.getType|Character.isUpperCase|Character.isUpperCase,0.0,0.05417899999883957,0.0,0.009400000000217307,0.06357899999905688
Character.isLowerCase|Character.isLowerCase|PyString.str_title,0.0,0.038768592591858816,0.0,0.006175555556115729,0.044944148147974546
Character.isUpperCase|Character.isUpperCase|PyString.str_title,0.0,0.05147299999953248,0.0,0.006220000000515332,0.05769300000004782
Character.toUpperCaseEx|String.toUpperCase|String.toUpperCase,0.0,0.04087325925987291,0.0,0.0057166666665580115,0.04658992592643092
CharacterData.of|Character.getType|Character.isUpperCase,0.0,0.0,0.0,0.0,0.0
CharacterData.of|Character.toLowerCase|Character.toLowerCase,0.0,0.0,0.0,0.0,0.0
CharacterData00.getProperties|CharacterData00.getType|Character.getType,0.0,0.0,0.0,0.0,0.0
CharacterData00.getProperties|CharacterData00.toLowerCase|Character.toLowerCase,0.0,0.051404999998744136,0.0,0.008533333334020829,0.059938333332764965
CharacterDataLatin1.getProperties|CharacterDataLatin1.digit|Character.digit,0.0,0.09225729526885128,0.0,0.012711026787968595,0.10496832205681987
CharacterDataLatin1.getProperties|CharacterDataLatin1.toLowerCase|Character.toLowerCase,0.0,0.03542985185265058,0.0,0.0066577777774741494,0.04208762963012473
CharacterDataLatin1.toLowerCase|Character.toLowerCase|Character.toLowerCase,0.0,0.07275400000071386,0.0,0.01171999999981684,0.0844740000005307
Class.getDeclaredMethods0|Class.privateGetDeclaredMethods|Class.getDeclaredMethods,0.0,0.08006526315722637,0.0,0.01567421052497689,0.09573947368220326
ClassLoader.defineClass1|ClassLoader.defineClass|BytecodeLoader$Loader.loadClassFromBytes,0.0,0.08176345098078908,0.0,0.015444705881379254,0.09720815686216833
ClassLoader.defineClass1|ClassLoader.defineClass|SecureClassLoader.defineClass,0.49681876190565133,0.0,0.03851523810047342,0.0,0.5353340000061247
ClassLoader.findLoadedClass0|ClassLoader.findLoadedClass|DacapoClassLoader.loadClass,0.0,0.0,0.0,0.0,0.0
CodeCompiler.visitBoolOp|BoolOp.accept|Visitor.visit,0.0,0.0,0.0,0.0,0.0
CodeSource.matchCerts|CodeSource.equals|HashMap.getNode,0.0,0.08115633333363803,0.0,0.01305999999992006,0.09421633333355808
Collections.synchronizedList|ClassFile.<init>|Module.<init>,0.0,0.0,0.0,0.0,0.0
CommonTokenStream.fillBuffer|CommonTokenStream.LT|PythonTokenSource.insertImaginaryIndentDedentTokens,0.0,0.0,0.0,0.0,0.0
CompilerFlags.isFlagSet|PyBaseCode.call|PyFunction.__call__,0.0,0.0,0.0,0.0,0.0
ConcurrentHashMap$Node.<init>|ConcurrentHashMap.putVal|ConcurrentHashMap.put,0.0,0.20300333333094991,0.0,0.01575000000351186,0.21875333333446179
ConcurrentHashMap.addCount|ConcurrentHashMap.putVal|ConcurrentHashMap.put,0.0,0.038431666667747784,0.0,0.0044899999993504025,0.042921666667098186
ConcurrentHashMap.addCount|ConcurrentHashMap.replaceNode|ConcurrentHashMap.remove,0.0,0.0,0.0,0.0,0.0
ConcurrentHashMap.casTabAt|ConcurrentHashMap.putVal|ConcurrentHashMap.put,0.0,0.08016886227883842,0.0,0.011098446220547046,0.09126730849938547
ConcurrentHashMap.get|PyDictionary.dict_get|PyDictionary$dict_get_exposer.__call__,0.0,0.0,0.0,0.0,0.0
ConcurrentHashMap.get|PyStringMap.__finditem__|PyClass.lookup,0.0,0.0,0.0,0.0,0.0
ConcurrentHashMap.get|PyStringMap.__finditem__|PyFrame.doGetglobal,0.1467709661080358,0.0,0.010047884956087246,0.0,0.15681885106412305
ConcurrentHashMap.get|PyStringMap.__finditem__|PyInstance.ifindlocal,0.0,0.06553599684073161,0.0,0.010872831798419502,0.0764088286391511
ConcurrentHashMap.get|PyStringMap.__finditem__|PyType.lookup,0.06853431600097358,0.09597540017896411,0.0033742848498905693,0.017598843178438846,0.18548284420826713
ConcurrentHashMap.get|PyStringMap.__finditem__|imp.getParent,0.0,0.0,0.0,0.0,0.0
ConcurrentHashMap.putVal|ConcurrentHashMap.put|PyDictionary.dict___setitem__,0.0,0.03724675000012212,0.0,0.001260000000911532,0.03850675000103365
ConcurrentHashMap.putVal|ConcurrentHashMap.put|PyStringMap.__setitem__,0.0,0.16867855555559913,0.0,0.0130385714286286,0.18171712698422773
ConcurrentHashMap.replaceNode|ConcurrentHashMap.remove|PyDictionary.dict___delitem__,0.0,0.05202233333451052,0.0,0.005419999998897159,0.05744233333340768
ConcurrentHashMap.tabAt|ConcurrentHashMap.putVal|ConcurrentHashMap.put,0.0,0.2498324864116918,0.0,0.03542114769149547,0.28525363410318727
ConditionalSpecialCasing.<clinit>|String.toLowerCase|String.toLowerCase,0.0,0.0,0.0,0.0,0.0
ConstPool.readOne|ConstPool.read|ConstPool.<init>,0.0,0.0,0.0,0.0,0.0
Constructs$py.test$2|Constructs$py.call_function|PyTableCode.call,0.0,0.263061666667151,0.0,0.02554999999847496,0.28861166666562593
Constructs$py.test$5|Constructs$py.call_function|PyTableCode.call,0.0,0.1246088888890679,0.0,0.01965277777883414,0.14426166666790205
Constructs$py.test$8|Constructs$py.call_function|PyTableCode.call,0.0,0.03987633333357128,0.0,0.0036399999977826756,0.043516333331353955
DataInputStream.readFully|DataInputStream.readFully|AttributeInfo.<init>,0.0,0.0,0.0,0.0,0.0
Dict$py.test$11|Dict$py.call_function|PyTableCode.call,0.0,0.03819275000023481,0.0,0.0031049999997776467,0.041297750000012456
Dict$py.test$14|Dict$py.call_function|PyTableCode.call,0.0,0.20241299999906914,0.0,0.02606500000062321,0.22847799999969234
Dict$py.test$2|Dict$py.call_function|PyTableCode.call,0.0,0.10809333333357547,0.0,0.014094999998633284,0.12218833333220876
Dict$py.test$5|Dict$py.call_function|PyTableCode.call,0.0,0.10119633333427674,0.0,0.0013799999990927365,0.10257633333336948
Dict$py.test$8|Dict$py.call_function|PyTableCode.call,0.0,0.08792928571451089,0.0,0.007676071428899638,0.09560535714341054
Exceptions$py.test$2|Exceptions$py.call_function|PyTableCode.call,0.0,0.11252833333370896,0.0,0.01699999999740006,0.12952833333110902
Exceptions$py.test$5|Exceptions$py.call_function|PyTableCode.call,0.0,0.10727966666793995,0.0,0.012105000001611188,0.11938466666955114
FileInputStream.available0|FileInputStream.available|BufferedInputStream.read,0.071472333333683,0.0,0.00473499999740549,0.0,0.07620733333108849
FileInputStream.readBytes|FileInputStream.read|BufferedInputStream.fill,0.21884496296297584,0.0,0.014378333330063872,0.0,0.23322329629303973
FileOutputStream.close0|FileOutputStream.access$000|FileOutputStream$1.close,0.0,0.0,0.0,0.0,0.0
FileOutputStream.open0|FileOutputStream.open|FileOutputStream.<init>,0.0,0.053207544215916745,0.0,0.008781396238423136,0.06198894045433988
FileOutputStream.writeBytes|FileOutputStream.write|BufferedOutputStream.flushBuffer,0.0,0.2785031027010205,0.0,0.04460747997217007,0.3231105826731906
FileOutputStream.writeBytes|FileOutputStream.write|BufferedOutputStream.write,0.0,0.2469826802488772,0.0,0.04093358169497549,0.28791626194385267
FileOutputStream.writeBytes|FileOutputStream.write|Native.loadNativeLibraryFromJar,0.0,0.0,0.0,0.0,0.0
FloatingDecimal$BinaryToASCIIBuffer.dtoa|FloatingDecimal$BinaryToASCIIBuffer.access$100|FloatingDecimal.getBinaryToASCIIConverter,0.05719619869012615,0.0,0.0046069077179290785,0.0,0.061803106408055225
For$PyExposer.<init>|For.<clinit>|GrammarActions.makeFor,0.0848186666668577,0.0,0.0059250000000853715,0.0,0.09074366666694307
GrammarActions.extractStrings|PythonParser.atom|PythonParser.power,0.0,0.0,0.0,0.0,0.0
GrammarActions.extractString|GrammarActions.extractStrings|PythonParser.atom,0.0,0.07273507692242184,0.0,0.01637076922969964,0.08910584615212148
HashMap.get|CachedJarsPackageManager.addZipEntry|CachedJarsPackageManager.getZipPackages,0.0,0.0,0.0,0.0,0.0
HashMap.hash|HashMap.get|PyType.fromClass,0.0,0.0,0.0,0.0,0.0
Hashtable.get|ClassPool.getCached|ClassPool.get0,0.0,0.0,0.0,0.0,0.0
ISO_8859_1.newEncoder|StringCoding$StringEncoder.<init>|StringCoding$StringEncoder.<init>,0.0,0.07616263978554427,0.0,0.01233027498988068,0.08849291477542495
If$PyExposer.<init>|If.<clinit>|PythonParser.if_stmt,0.051350666666621685,0.0,0.004190000002078401,0.0,0.055540666668700084
Inflater.inflateBytes|Inflater.inflate|InflaterInputStream.read,3.0404252806370797,0.2753294900486793,0.20683278867344237,0.04583166864982072,3.568419228009022
Inflater.inflate|InflaterInputStream.read|ZipInputStream.read,0.24914058333433783,0.0,0.016128437498385512,0.0,0.26526902083272336
Inflater.reset|ZipInputStream.getNextEntry|CachedJarsPackageManager.getZipPackages,0.0,0.0,0.0,0.0,0.0
InflaterInputStream.ensureOpen|InflaterInputStream.read|ZipInputStream.read,0.0,0.06338315827545417,0.0,0.010590067454022474,0.07397322572947665
ListComp$PyExposer.<init>|ListComp.<clinit>|PythonParser.listmaker,0.0,0.0,0.0,0.0,0.0
Lists$py.test$2|Lists$py.call_function|PyTableCode.call,0.0,0.3108588888911375,0.0,0.02712499999971543,0.3379838888908529
Lists$py.test$8|Lists$py.call_function|PyTableCode.call,0.0,0.0,0.0,0.0,0.0
Locale.getDefault|Formatter.<init>|String.format,0.0,0.0,0.0,0.0,0.0
Lookups$py.test$12|Lookups$py.call_function|PyTableCode.call,0.0,0.09729033333375506,0.0,0.006874999999126885,0.10416533333288194
Lookups$py.test$17|Lookups$py.call_function|PyTableCode.call,0.0,0.1565549999989647,0.0,0.008570000000569657,0.16512499999953434
Lookups$py.test$22|Lookups$py.call_function|PyTableCode.call,0.0,0.04683564078701873,0.0,0.006390228415412203,0.053225869202430935
Lookups$py.test$2|Lookups$py.call_function|PyTableCode.call,0.0,0.0,0.0,0.0,0.0
Lookups$py.test$7|Lookups$py.call_function|PyTableCode.call,0.0,0.15981033333324984,0.0,0.012780000002142817,0.17259033333539267
Matcher.find|Formatter.parse|Formatter.format,0.0,0.10116987030862899,0.0,0.014348557056605794,0.1155184273652348
MethodAccessorGenerator.emitInvoke|MethodAccessorGenerator.generate|MethodAccessorGenerator.generateMethod,0.0,0.0,0.0,0.0,0.0
MethodWriter.e|MethodWriter.visitInsn|Code.areturn,0.0,0.0,0.0,0.0,0.0
Module.PyCode|Module.compile|imp.compileSource,0.05468733333388324,0.0,0.004949999999856421,0.0,0.05963733333373966
Native.initIDs|Native.<clinit>|POSIXFactory.loadLibC,0.0681559999993624,0.0,0.007470000001679485,0.0,0.07562600000104187
Num$PyExposer.<init>|Num.<clinit>|PythonParser.atom,0.0947873333334428,0.0,0.0059250000000853715,0.0,0.10071233333352818
NumberFormat.getInstance|NumberFormat.getInstance|StringFormatter.formatFloatDecimal,0.0,0.0,0.0,0.0,0.0
Numbers$py.test$11|Numbers$py.call_function|PyTableCode.call,0.0,0.16656500000196198,0.0,0.014294999998431495,0.18086000000039348
Numbers$py.test$2|Numbers$py.call_function|PyTableCode.call,0.0,0.12462504389887802,0.0,0.019630504386653015,0.14425554828553103
Numbers$py.test$5|Numbers$py.call_function|PyTableCode.call,0.0,0.1373790004152169,0.0,0.021384106191755205,0.1587631066069721
Numbers$py.test$8|Numbers$py.call_function|PyTableCode.call,0.0,0.10756917651559159,0.0,0.016907198105742236,0.12447637462133382
POSIXFactory.loadLinuxPOSIX|POSIXFactory.getPOSIX|NativeMethodAccessorImpl.invoke0,0.055643666666583165,0.0,0.004759999996167608,0.0,0.06040366666275077
Package.getSystemPackage0|Package.getSystemPackages|ClassLoader.getPackages,0.0,0.0,0.0,0.0,0.0
Pattern$Curly.match0|Pattern$Curly.match|Pattern$GroupHead.match,0.0,0.0,0.0,0.0,0.0
PushbackInputStream.ensureOpen|PushbackInputStream.read|ZipInputStream.read,0.0,0.0,0.0,0.0,0.0
Py.getThreadState|Py.getSystemState|imp.import_name,0.0,0.06504300000233343,0.0,0.012780000002142815,0.07782300000447624
Py.getThreadState|Py.getThreadState|PyObject._gt,0.0,0.056811139713209814,0.0,0.010039576706169579,0.0668507164193794
Py.getThreadState|Py.getThreadState|PyObject._ne,0.0,0.04715966666844906,0.0,0.004100000000714013,0.051259666669163075
Py.newInteger|PyString.__int__|PyInteger.asPyInteger,0.0,0.08180161946760657,0.0,0.010383427221676926,0.0921850466892835
PyBaseException$exposed___new__.createOfSubtype|PyOverridableNew.new_impl|PyType.invoke_new_,0.0,0.0,0.0,0.0,0.0
PyBuiltinCallable.<init>|PyBuiltinMethod.<init>|PyBuiltinMethodNarrow.<init>,0.0,0.0,0.0,0.0,0.0
PyClass.__findattr_ex__|PyObject.__getattr__|Lookups$py.test$7,0.0,0.055211851851911166,0.0,0.006502222222345018,0.061714074074256185
PyComplex.canCoerce|PyComplex.complex___div__|PyComplex.__div__,0.0,0.04022233333186402,0.0,0.005055000001448207,0.04527733333331223
PyDictionary.__finditem__|PyObject.__getitem__|Dict$py.test$5,0.0,0.0636596666687789,0.0,0.003320000001015917,0.06697966666979481
PyDictionary.__finditem__|PyObject.__getitem__|Dict$py.test$8,0.0,0.0,0.0,0.0,0.0
PyDictionary.dict___setitem__|PyDictionary.__setitem__|Dict$py.test$14,0.0,0.058858333334986426,0.0,0.006869999999859525,0.06572833333484596
PyDictionary.dict_get|PyDictionary$dict_get_exposer.__call__|PyObject.__call__,0.0,0.06565366666715514,0.0,0.012889999998151323,0.07854366666530646
PyFloat.__div__|PyObject._basic_div|PyObject._div,0.0,0.05281566666720512,0.0,0.00721000000097168,0.060025666668176804
PyFrame.<init>|PyFrame.<init>|PyBaseCode.call,0.1195583334023772,0.13037100000067203,0.009043334472359141,0.022039285713704188,0.2810119535891126
PyFrame.doGetglobal|PyFrame.getglobal|unicodedata$py.get$11,0.0710683343658672,0.0,0.005030778897966805,0.0,0.076099113263834
PyFrame.doGetglobal|PyFrame.getglobal|unicodedata$py.get_codepoint$9,0.06829136807493408,0.0,0.005158181214407968,0.0,0.07344954928934205
PyFrame.getLocals|imp.importOne|Imports$py.test$5,0.0,0.0,0.0,0.0,0.0
PyFrame.getglobal|unicodedata$py.get$11|unicodedata$py.call_function,0.06259276191974733,0.0,0.004608056090926143,0.0,0.06720081801067347
PyFrame.getlocal|Arithmetic$py.test$2|Arithmetic$py.call_function,0.0,0.057129000000713866,0.0,0.002755000001343433,0.0598840000020573
PyFrame.getlocal|Arithmetic$py.test$5|Arithmetic$py.call_function,0.0,0.11857100000149026,0.0,0.017609999997754734,0.136180999999245
PyFrame.getlocal|Arithmetic$py.test$8|Arithmetic$py.call_function,0.0,0.0,0.0,0.0,0.0
PyFrame.getlocal|Calls$py.test$2|Calls$py.call_function,0.0,0.034964571428385424,0.0,0.004577142857929825,0.03954171428631525
PyFrame.getlocal|Dict$py.test$11|Dict$py.call_function,0.0,0.0,0.0,0.0,0.0
PyFrame.getlocal|Lookups$py.test$7|Lookups$py.call_function,0.0,0.0,0.0,0.0,0.0
PyFrame.getlocal|Strings$py.test$8|Strings$py.call_function,0.0,0.0,0.0,0.0,0.0
PyFrame.setline|Calls$py.f1$4|Calls$py.call_function,0.0,0.05230700000295958,0.0,0.005830000001878943,0.05813700000483853
PyFrame.setline|Strings$py.test$5|Strings$py.call_function,0.0,0.09745266666565536,0.0,0.008997500000380871,0.10645016666603623
PyFrame.setline|Strings$py.test$8|Strings$py.call_function,0.0,0.0,0.0,0.0,0.0
PyFrame.setline|Unicode$py.test$5|Unicode$py.call_function,0.0,0.0,0.0,0.0,0.0
PyFrame.setlocal|Constructs$py.test$5|Constructs$py.call_function,0.0,0.0460816666673054,0.0,0.00787999999981063,0.05396166666711603
PyFrame.setlocal|Constructs$py.test$8|Constructs$py.call_function,0.0,0.0955203333336006,0.0,0.009065000000797834,0.10458533333439844
PyFrame.setlocal|Lookups$py.test$12|Lookups$py.call_function,0.0,0.0,0.0,0.0,0.0
PyFrame.setlocal|Strings$py.test$11|Strings$py.call_function,0.0,0.03497999999833862,0.0,0.007526666666510411,0.04250666666484903
PyFrame.setlocal|Tuples$py.test$5|Tuples$py.call_function,0.0,0.0,0.0,0.0,0.0
PyFrame.setlocal|Unicode$py.test$8|Unicode$py.call_function,0.0,0.0,0.0,0.0,0.0
PyFrame.setupEnv|PyTableCode.call|PyBaseCode.call,0.0,0.0,0.0,0.0,0.0
PyFunction.__call__|Calls$py.f$28|Calls$py.call_function,0.0,0.04785166666745984,0.0,0.010510000000067521,0.05836166666752736
PyInstance$PyExposer.<init>|PyInstance.<clinit>|PyClass.__call__,0.0,0.08892799999739509,0.0,0.015860000001945686,0.10478799999934077
PyInstance.__findattr_ex__|PyObject.__getattr__|Lookups$py.test$17,0.0,0.0,0.0,0.0,0.0
PyInteger$PyExposer.<init>|PyInteger.<clinit>|Py.<clinit>,0.0,0.0,0.0,0.0,0.0
PyInteger.int___cmp__|PyInteger.__cmp__|PyObject._try__cmp__,0.0,0.04892035612214577,0.0,0.007997336580420044,0.05691769270256582
PyInteger.int___mod__|PyInteger.__mod__|PyObject._basic_mod,0.0,0.05747466666556041,0.0,0.006294999996801683,0.0637696666623621
PyJavaType.wrapJavaObject|ClassicPyObjectAdapter.adapt|Py.java2py,0.03401688888859805,0.0,0.0019866666666025086,0.0,0.03600355555520056
PyList$exposed___new__.createOfType|PyOverridableNew.new_impl|PyType.invoke_new_,0.0,0.05585169230919116,0.0,0.007624615384534432,0.06347630769372559
PyList.<init>|PyList.fromList|PyList.getslice,0.0,0.0603839999991275,0.0,0.013094999999642216,0.07347899999876971
PyList.pyget|PySequence$1.getItem|SequenceIndexDelegate.checkIdxAndFindItem,0.0,0.09017825925898418,0.0,0.011057777778424442,0.10123603703740862
PyObject$exposed___new__.createOfSubtype|PyOverridableNew.new_impl|PyType.invoke_new_,0.0,0.049458666665789984,0.0,0.006120000000616225,0.05557866666640621
PyObject.<init>|PySequence.<init>|PyBaseString.<init>,0.0,0.04585799999767914,0.0,0.012739999998302665,0.0585979999959818
PyObject._basic_add|PyObject._add|Arithmetic$py.test$14,0.0,0.039986857144478034,0.0,0.006840000001830049,0.04682685714630808
PyObject._basic_sub|PyObject._sub|Arithmetic$py.test$5,0.0,0.0,0.0,0.0,0.0
PyObject._cmp_unsafe|PyObject._lt|Numbers$py.test$8,0.0,0.0,0.0,0.0,0.0
PyObject._eq|Numbers$py.test$5|Numbers$py.call_function,0.0,0.0,0.0,0.0,0.0
PyObject._eq|unicodedata$py.get_codepoint$9|unicodedata$py.call_function,0.0,0.0,0.0,0.0,0.0
PyObject._gt|Numbers$py.test$11|Numbers$py.call_function,0.0,0.05177799999849715,0.0,0.005520000001221584,0.057297999999718734
PyObject._gt|Numbers$py.test$2|Numbers$py.call_function,0.0,0.0,0.0,0.0,0.0
PyObject._gt|Numbers$py.test$8|Numbers$py.call_function,0.0,0.0,0.0,0.0,0.0
PyObject._gt|Strings$py.test$5|Strings$py.call_function,0.0,0.0,0.0,0.0,0.0
PyObject._gt|unicodedata$py.get_codepoint$9|unicodedata$py.call_function,0.0,0.0,0.0,0.0,0.0
PyObject.equals|Hashtable.get|Module.getScopeInfo,0.061416666666597536,0.0,0.0033500000017738785,0.0,0.06476666666837141
PyObject.getType|PyObject._gt|Numbers$py.test$2,0.0,0.07348582753806655,0.0,0.012047997106297951,0.0855338246443645
PyObject.getType|PyObject._mul|Arithmetic$py.test$5,0.0,0.045287999998739295,0.0,0.006470000002688417,0.05175800000142771
PyObject.object___findattr__|PyObject.__findattr_ex__|PyObject.__getattr__,0.0,0.04296866666603212,0.0,0.00893999999971129,0.05190866666574341
PySequence$1.len|SequenceIndexDelegate.fixindex|SequenceIndexDelegate.checkIdxAndFindItem,0.0,0.05778000000039658,0.0,0.007614999999835466,0.06539500000023205
PySequence.<init>|PyBaseString.<init>|PyString.<init>,0.0,0.0961762500014629,0.0,0.02699718750045577,0.12317343750191867
PySequence.sliceLength|PyTuple.getslice|PySequence$1.getSlice,0.0,0.0,0.0,0.0,0.0
PyString$str_isupper_exposer.bind|PyMethodDescr.method_descriptor___get__|PyMethodDescr.__get__,0.0,0.0,0.0,0.0,0.0
PyString.__add__|PyObject._basic_add|PyObject._add,0.0,0.0,0.0,0.0,0.0
PyString.createInstance|PyString.fromSubstring|PyString.getslice,0.0,0.0,0.0,0.0,0.0
PyString.str___lt__|PyString.__lt__|PyObject._lt,0.0,0.04553233333232735,0.0,0.004139999999703528,0.049672333332030874
PyString.str_isalnum|PyString$str_isalnum_exposer.__call__|PyObject.__call__,0.0,0.05033366666611983,0.0,0.009540000001531249,0.05987366666765108
PyString.str_title|PyString$str_title_exposer.__call__|PyObject.__call__,0.0,0.04868566666603631,0.0,0.0069899999992533894,0.055675666665289704
PyStringMap.__finditem__|PyClass.lookup|PyClass.__findattr_ex__,0.0,0.09649700000106046,0.0,0.004149999998238248,0.1006469999992987
PyStringMap.__finditem__|PyType.lookup|PyObject.object___findattr__,0.0,0.0,0.0,0.0,0.0
PySystemState.<init>|PySystemState.doInitialize|PySystemState.initialize,0.16964166666683148,0.0,0.010046666664830235,0.0,0.1796883333316617
PyTableCode.call|PyBaseCode.call|PyBaseCode.call,0.0,0.033830857145533494,0.0,0.004950000000202895,0.03878085714573639
PyTableCode.call|PyBaseCode.call|PyFunction.__call__,0.06280448198628341,0.0,0.004550420678493628,0.0,0.06735490266477703
PyTuple.<init>|PyTuple.fromArrayNoCopy|PyTuple.getslice,0.0,0.04430215384435052,0.0,0.006553846153950033,0.05085599999830055
PyTuple.getslice|PySequence$1.getSlice|SequenceIndexDelegate.getSlice,0.0,0.04530833333410556,0.0,0.007034999999935583,0.05234333333404115
PyType.fromClass|PyObject.<init>|PyDictionary.<init>,0.0,0.0,0.0,0.0,0.0
PyType.fromClass|PyObject.<init>|PyFrame.<init>,0.0,0.0,0.0,0.0,0.0
PyType.fromClass|PyObject.<init>|PyIterator.<init>,0.0,0.052101333332420494,0.0,0.008515555553862617,0.06061688888628311
PyType.lookup|PyBaseExceptionDerived.dispatch__init__|PyType.invoke_new_,0.0,0.0517576666631309,0.0,0.00622500000220801,0.05798266666533891
PyType.lookup|PyObject.object___findattr__|PyObject.__findattr_ex__,0.0,0.0,0.0,0.0,0.0
PyUnicode.<init>|PyUnicode.<init>|PyUnicode.unicode_upper,0.0,0.061035333334681724,0.0,0.0075800000001133095,0.06861533333479504
PyUnicode.fromSubstring|PyString.getslice|PyUnicode.getslice,0.07050208976381718,0.0,0.006784591265983296,0.0,0.07728668102980048
PyUnicode.unicode___add__|PyUnicode.__add__|PyObject._basic_add,0.0,0.0,0.0,0.0,0.0
PyUnicode.unicode_isupper|PyUnicode$unicode_isupper_exposer.__call__|PyObject.__call__,0.0,0.08317033333393434,0.0,0.015840000000025608,0.09901033333395995
PyXRange.pyget|PySequence$1.getItem|SequenceIndexDelegate.checkIdxAndFindItem,0.0,0.0,0.0,0.0,0.0
PythonLexer.mTRIQUOTE|PythonLexer.mSTRING|PythonLexer.mTokens,0.08408599999953972,0.0,0.005905000000590613,0.0,0.08999100000013034
PythonLexer.nextToken|BaseParser$PyLexer.nextToken|CommonTokenStream.fillBuffer,0.0,0.0,0.0,0.0,0.0
PythonParser.<clinit>|BaseParser.setupParser|BaseParser.parseModule,0.06253485714270418,0.0,0.004538571428773658,0.0,0.06707342857147784
PythonParser.arith_expr|PythonParser.shift_expr|PythonParser.and_expr,0.0,0.04150835825333978,0.0,0.008348600072883431,0.049856958326223215
PythonParser.atom|PythonParser.power|PythonParser.factor,0.10640983333360055,0.0,0.007274999999329642,0.0,0.11368483333293018
PythonParser.comparison|PythonParser.not_test|PythonParser.and_test,0.04899599999998827,0.0,0.0035399999997025593,0.0,0.05253599999969083
PythonParser.except_clause|PythonParser.try_stmt|PythonParser.compound_stmt,0.055358666666506906,0.0,0.004949999999856421,0.0,0.06030866666636333
PythonParser.return_stmt|PythonParser.flow_stmt|PythonParser.small_stmt,0.0,0.0,0.0,0.0,0.0
PythonParser.subscriptlist|PythonParser.trailer|PythonParser.power,0.04667675000018789,0.0,0.0035550000011426164,0.0,0.050231750001330504
Resource.cachedInputStream|Resource.getByteBuffer|URLClassLoader.defineClass,0.0,0.0,0.0,0.0,0.0
SequenceIndexDelegate.fixindex|SequenceIndexDelegate.checkIdxAndFindItem|PySequence.seq___finditem__,0.0,0.0656740000025214,0.0,0.007549999999658516,0.0732240000021799
String.format|Version.getBuildInfo|Version.getVersion,0.08966066666653205,0.0,0.00652500000190533,0.0,0.09618566666843738
String.getChars|String.concat|PyString.str___add__,0.0,0.12497966666705905,0.0,0.030619999997725238,0.15559966666478428
String.getChars|String.concat|PyUnicode.unicode___add__,0.0,0.044962666666833684,0.0,0.009069999997639872,0.05403266666447355
String.hashCode|HashMap.hash|HashMap.put,0.0,0.0,0.0,0.0,0.0
String.indexOf|String.indexOf|PyString.str_find,0.0,0.08684845658660016,0.0,0.015916485993034867,0.10276494257963503
String.intern|ImportFunction.__call__|PyObject.__call__,0.0,0.0,0.0,0.0,0.0
String.intern|imp.import_next|imp.import_logic,0.0,0.0,0.0,0.0,0.0
String.intern|imp.import_next|imp.import_name,0.0,0.09299733333561258,0.0,0.012699999999313148,0.10569733333492573
String.length|PyString.splitfields|PyString.str_split,0.0,0.0,0.0,0.0,0.0
String.replace|URLClassLoader.isSealed|URLClassLoader.getAndVerifyPackage,0.049113111111283705,0.0,0.003133333333405769,0.0,0.052246444444689476
String.toLowerCase|String.toLowerCase|PyString.str_lower,0.0,0.0,0.0,0.0,0.0
String.toUpperCase|String.toUpperCase|PyString.str_upper,0.0,0.0,0.0,0.0,0.0
StringIO$py.call_function|PyTableCode.call|PyBaseCode.call,0.0,0.0,0.0,0.0,0.0
StringIO$py.readline$11|StringIO$py.call_function|PyTableCode.call,0.0,0.06677870985336046,0.0,0.008674674174029959,0.07545338402739042
Strings$py.test$11|Strings$py.call_function|PyTableCode.call,0.0,0.2189416000037454,0.0,0.05111300000183595,0.27005460000558135
Strings$py.test$14|Strings$py.call_function|PyTableCode.call,0.0,0.02925125000001572,0.0,0.003165000001899898,0.032416250001915614
Strings$py.test$20|Strings$py.call_function|PyTableCode.call,0.0,0.1549886666665164,0.0,0.023460000001553752,0.17844866666807013
Strings$py.test$2|Strings$py.call_function|PyTableCode.call,0.0,0.04512533333278649,0.0,0.011630000000877772,0.05675533333366426
Strings$py.test$5|Strings$py.call_function|PyTableCode.call,0.0,0.4931251538468925,0.0,0.029658846153184783,0.5227840000000773
Strings$py.test$8|Strings$py.call_function|PyTableCode.call,0.0,0.5818686666704405,0.0,0.0921800000044944,0.6740486666749349
TestHarness.twoDecimalPlaces|TestHarness.<clinit>|Harness.main,0.0,0.0,0.0,0.0,0.0
Thread.currentThread|ReentrantLock$NonfairSync.lock|ReentrantLock.lock,0.0,0.0,0.0,0.0,0.0
ThreadLocal$ThreadLocalMap.access$000|ThreadLocal.get|ThreadStateMapping.getThreadState,0.0,0.1138310000023921,0.0,0.00854999999864958,0.12238100000104168
ThreadLocal$ThreadLocalMap.getEntry|ThreadLocal$ThreadLocalMap.access$000|ThreadLocal.get,0.0,0.2461819997601114,0.0,0.03399697688041372,0.2801789766405251
Throwable.fillInStackTrace|PyException.fillInStackTrace|Throwable.<init>,0.0,0.06844333696048878,0.0,0.009071818185731877,0.07751515514622065
Throwable.fillInStackTrace|Throwable.fillInStackTrace|PyException.fillInStackTrace,0.0,2.022469464102427,0.0,0.2898426198120302,2.312312083914457
Throwable.fillInStackTrace|Throwable.fillInStackTrace|Throwable.<init>,0.0,0.8964719928947337,0.0,0.12400621152665484,1.0204782044213885
Tuples$py.test$2|Tuples$py.call_function|PyTableCode.call,0.0,0.0,0.0,0.0,0.0
Tuples$py.test$5|Tuples$py.call_function|PyTableCode.call,0.0,0.04807692307692308,0.0,0.005695384613668116,0.053772307690591194
URLClassLoader.defineClass|URLClassLoader.access$100|URLClassLoader$1.run,0.06408666666599552,0.0,0.007870000001275912,0.0,0.07195666666727144
Unicode$py.test$17|Unicode$py.call_function|PyTableCode.call,0.0,0.11592599999858066,0.0,0.022960000002058223,0.1388860000006389
Unicode$py.test$20|Unicode$py.call_function|PyTableCode.call,0.07358056280492291,0.0,0.0069744609305066475,0.0,0.08055502373542955
Unicode$py.test$2|Unicode$py.call_function|PyTableCode.call,0.0,0.045695000000705484,0.0,0.004750000000058208,0.05044500000076369
Unicode$py.test$5|Unicode$py.call_function|PyTableCode.call,0.0,0.26257299999997485,0.0,0.0195400000011432,0.28211300000111805
Unicode$py.test$8|Unicode$py.call_function|PyTableCode.call,0.0,0.0,0.0,0.0,0.0
UniversalIOWrapper.read|TextIOInputStream.read|StreamDecoder.readBytes,0.0,0.07675000196085792,0.0,0.01397365068970337,0.09072365265056129
UnixFileSystem.delete0|UnixFileSystem.delete|File.delete,0.0,0.0,0.0,0.0,0.0
UnixFileSystem.getBooleanAttributes0|UnixFileSystem.getBooleanAttributes|File.isDirectory,0.0,0.0,0.0,0.0,0.0
Yield$_fields_descriptor.<init>|Yield$PyExposer.<init>|Yield.<clinit>,0.0,0.0,0.0,0.0,0.0
ZipFile$ZipFileInflaterInputStream.available|FilterInputStream.available|BufferedInputStream.read,0.0,0.05393981180025127,0.0,0.009192826203196265,0.06313263800344754
ZipFile.freeEntry|ZipFile.getEntry|JarFile.getEntry,0.0,0.0,0.0,0.0,0.0
ZipFile.getEntry|ZipFile.getEntry|JarFile.getEntry,0.1014609999995931,0.0,0.007505000003826959,0.0,0.10896600000342006
ZipFile.read|ZipFile.access$1400|ZipFile$ZipFileInputStream.read,0.0,0.13382458848738582,0.0,0.0190879411511317,0.15291252963851754
ZipInputStream.ensureOpen|ZipInputStream.read|InflaterInputStream.read,0.0,0.0,0.0,0.0,0.0
ZipInputStream.skip|DataInputStream.skipBytes|PackageManager.checkAccess,0.04870600000018991,0.0,0.003559999999803646,0.0,0.052265999999993554
ZipUtils.get32|ZipInputStream.readLOC|ZipInputStream.getNextEntry,0.06807312499915953,0.0,0.004443750001428271,0.0,0.0725168750005878
__builtin__.cmp|BuiltinFunctions.__call__|PyObject.__call__,0.0,0.07618206807136506,0.0,0.01108497306819801,0.08726704113956307
arguments$PyExposer.<init>|arguments.<clinit>|PythonParser.parameters,0.07187900000038401,0.0,0.005334999996800129,0.0,0.07721399999718415
imp.import_name|imp.importName|ImportFunction.__call__,0.0,0.04906212500130398,0.0,0.005503749999964687,0.05456587500126867
re$py.f$0|re$py.call_function|PyTableCode.call,0.0,0.0,0.0,0.0,0.0
stmt.<init>|Assign.<init>|PythonParser.expr_stmt,0.0,0.0,0.0,0.0,0.0
unicodedata$py.get$11|unicodedata$py.call_function|PyTableCode.call,0.0,0.0,0.0,0.0,0.0
unicodedata$py.get_numeric$3|unicodedata$py.call_function|PyTableCode.call,0.0,0.0,0.0,0.0,0.0
unicodedata$py.init_east_asian_width$5|unicodedata$py.call_function|PyTableCode.call,0.0,0.077430630602305,0.0,0.015499674558357357,0.09293030516066235
unicodedata$py.init_unicodedata$4|unicodedata$py.call_function|PyTableCode.call,0.0,0.13954626916231608,0.0,0.018882598356216238,0.1584288675185323
