method,hits
AbstractCalendar.getCalendarDate,10
AbstractCalendar.setTimeOfDay,18
BaseCalendar.getCalendarDateFromFixedDate,10
BaseCalendar.getFixedDate,8
BaseCalendar.getGregorianYearFromFixedDate,2
BaseCalendar.isLeapYear,6
BaseIndex.compareKeys,10
BaseIndex.compareRows,150
BaseIndex.compareValues,26
Benchmark.fileFromInputStream,26
ByteVectorImpl.add,2
CacheObject.<init>,2
CalendarDate.setDayOfMonth,2
CalendarDate.setHours,2
CalendarDate.setMinutes,6
CalendarDate.setSeconds,6
CodeAttribute.<init>,2
Column.convert,8
Column.getColumnId,18
Column.validateConvertUpdateSequence,8
Command.checkCanceled,4
Command.executeQueryLocal,20
Command.executeUpdate,108
Command.stop,6
CompareMode.compareString,6
Comparison.compareNotNull,2
Comparison.getValue,20
Comparison.isEverything,2
ConditionAndOr.getValue,6
ConditionAndOr.isEverything,2
ConditionExists.getValue,2
ConditionNot.getValue,2
ConnectionInfo.<clinit>,2
DacapoClassLoader.loadClass,4
Database.isReconnectNeeded,2
Delete.update,4
Driver.connect,2
Engine.getSession,2
Expression.getBooleanValue,4
ExpressionColumn.getValue,28
ExpressionColumn.isEverything,4
ExpressionColumn.mapColumns,2
ExpressionVisitor.<init>,2
ExpressionVisitor.getQueryLevel,2
ExpressionVisitor.getType,2
ExpressionVisitor.incrementQueryLevel,4
Gregorian.newCalendarDate,2
IndexCondition.getCurrentValue,2
IndexCursor.find,4
IndexCursor.get,2
IndexCursor.getSearchRow,10
IndexCursor.isAlwaysFalse,2
Insert.insertRows,6
JdbcConnection.checkClosed,30
JdbcPreparedStatement.setParameter,6
JdbcResultSet.checkClosed,8
JdbcResultSet.checkOnValidRow,2
JdbcResultSet.get,4
JdbcResultSet.getColumnIndex,4
JdbcResultSet.getString,8
JdbcResultSet.nextRow,2
JdbcSQLException.<init>,6
JdbcStatement.checkClosed,4
JdbcStatement.setExecutingStatement,2
LocalResult.addRow,2
LocalResult.done,2
LocalResult.getList,2
LocalResult.next,6
LocalResult.setLimit,2
MathUtils.compare,16
MathUtils.setScale,2
MethodInfo.read,2
MultiVersionCursor.getSearchRow,22
MultiVersionCursor.loadNext,20
MultiVersionCursor.next,36
MultiVersionCursor.step,18
MultiVersionIndex.<init>,2
MultiVersionIndex.add,2
MultiVersionIndex.compareRows,4
MultiVersionIndex.find,6
New.hashMap,2
OERandom.randomAString,4
OERandom.randomAString24,6
OERandom.randomAString26_50,2
OERandom.randomDecimalString,4
OERandom.randomInt,18
OERandom.randomNString,2
ObjectArray$ObjectArrayIterator.<init>,2
ObjectArray$ObjectArrayIterator.hasNext,4
ObjectArray.add,2
ObjectArray.clear,2
ObjectArray.createArray,14
ObjectArray.get,14
ObjectArray.newInstance,4
ObjectArray.sort,12
ObjectArray.swap,8
ObjectArray.toArray,2
ObjectUtils.arrayCopy,2
Parser.parseUpdate,2
Parser.readIf,2
PerfCounter.get,2
Prepared.checkCanceled,2
Prepared.getParameters,2
Query.isEverything,4
Query.query,14
Query.sameResultAsLast,2
RandomUtils.nextInt,2
Row.getValue,82
Row.isEmpty,2
RowList.next,2
ScanIndex.add,4
ScanIndex.commit,8
ScanIndex.getNextRow,22
ScanIndex.incrementRowCount,2
ScanIndex.remove,2
ScriptReader.read,2
Select.isEverything,12
Select.queryFlat,28
Select.queryWithoutCache,4
Session.getAutoCommit,2
Session.isClosed,4
Session.isReconnectNeeded,14
Session.rollbackTo,2
Session.unlockAll,2
Session.waitIfExclusiveModeEnabled,2
SimpleInsert.customerTable,4
SimpleInsert.stockTable,4
Standard.getOrderStatusForCustomer,2
Standard.newOrder,4
Standard.payment,2
Standard.paymentById,2
StatementHelper.reset,4
StreamDecoder.readBytes,2
StringCache.get,20
StringUtils.toUpperEnglish,6
Submitter.runNewOrder,4
Submitter.runPayment,2
TPCC.calculateSumDB,42
TPCCSubmitter.runTransactions,2
Table.compareTypeSave,8
Table.fireRow,2
Table.getTemplateRow,8
Table.validateConvertUpdateSequence,8
TableData$1.compare,10
TableData.addIndex,8
TableData.addRowsToIndex,6
TableData.doLock,4
TableData.getIndexes,2
TableData.lock,6
TableData.unlock,4
TableFilter.getSelect,4
TableFilter.getValue,8
TableFilter.isOk,4
TableFilter.next,4
Trace.isEnabled,4
TraceSystem.<init>,4
TraceSystem.getTrace,4
TraceSystem.isEnabled,2
TreeCursor.<init>,2
TreeCursor.next,4
TreeIndex.add,18
TreeIndex.balance,20
TreeIndex.find,4
TreeIndex.findFirstNode,10
TreeIndex.next,28
TreeIndex.replace,2
TreeIndex.set,2
URLClassPath$JarLoader$2.getInputStream,2
UndoLogRecord.commit,4
Update.update,2
Utf8Info.<init>,2
Value.<clinit>,2
Value.cache,4
Value.checkPrecision,2
Value.compareTo,4
Value.compareTypeSave,18
Value.convertTo,30
ValueDecimal.<init>,2
ValueDecimal.get,2
ValueDecimal.getPrecision,12
ValueDecimal.getString,4
ValueExpression.isEverything,18
ValueInt.compareSecure,24
ValueInt.getString,49
ValueShort.compareSecure,8
ValueShort.equals,2
ValueShort.getString,70
ValueString.<init>,2
ValueString.get,2
ValueStringBase.getPrecision,2
ValueStringFixed.trimRight,4
ValueTimestamp.convertScale,18
ValueTimestamp.get,2
ValueTimestamp.getNoCopy,2
ValueTimestamp.getString,278
ViewCursor.next,6
Warehouse.setName,2
ZoneInfo.getOffsets,4
ZoneInfo.getTransitionIndex,6
ZoneInfoFile.addTrans,2
