method,package1,package2,dram1,dram2,energy
AbstractCalendar.getCalendarDate|Gregorian.getCalendarDate|Gregorian.getCalendarDate,0.0,0.13953175277682828,0.0,0.019999541666756056,0.15953129444358433
AbstractCalendar.setTimeOfDay|AbstractCalendar.getCalendarDate|Gregorian.getCalendarDate,0.0,0.31879393055581506,0.0,0.047186624999388485,0.36598055555520353
AlgorithmDecomposer.<clinit>|DisabledAlgorithmConstraints.<init>|SignatureFileVerifier.<clinit>,0.0,0.09261934809456747,0.0,0.013251873990046388,0.10587122208461386
AttributeInfo.<init>|LocalVariableAttribute.<init>|LocalVariableTypeAttribute.<init>,0.0,0.06281565166326841,0.0,0.008382268896782846,0.07119792056005125
AttributeInfo.read|CodeAttribute.<init>|AttributeInfo.read,0.0,0.045493733613139985,0.0,0.00717418114645265,0.052667914759592635
BaseCalendar.getCalendarDateFromFixedDate|AbstractCalendar.getCalendarDate|Gregorian.getCalendarDate,0.0,0.09434000000571056,0.0,0.014970000000175787,0.10931000000588635
BaseCalendar.getFixedDate|BaseCalendar.getCalendarDateFromFixedDate|AbstractCalendar.getCalendarDate,0.0,0.20338125000356133,0.0,0.02888349999966522,0.23226475000322655
BaseCalendar.getGregorianYearFromFixedDate|BaseCalendar.getCalendarDateFromFixedDate|AbstractCalendar.getCalendarDate,0.0,0.1916909999999916,0.0,0.028630000000096814,0.22032100000008842
BaseCalendar.isLeapYear|AbstractCalendar.getCalendarDate|Gregorian.getCalendarDate,0.0,0.0575909523814473,0.0,0.007785714285654693,0.06537666666710198
BaseCalendar.isLeapYear|BaseCalendar.isLeapYear|AbstractCalendar.getCalendarDate,0.0,0.046278222221493096,0.0,0.007266666666611046,0.053544888888104145
BaseIndex.compareKeys|TreeIndex.add|MultiVersionIndex.add,0.365190615759317,0.0,0.04917107139526035,0.0,0.41436168715457733
BaseIndex.compareRows|MultiVersionIndex.compareRows|TableData$1.compare,0.6518023756285382,0.0,0.08123494395203225,0.0,0.7330373195805704
BaseIndex.compareRows|TreeCursor.next|MultiVersionCursor.step,0.24556356930785112,0.39774188141602024,0.03420944222849487,0.057751725832397335,0.7352666187847635
BaseIndex.compareRows|TreeCursor.next|MultiVersionIndex.removeIfExists,0.0,0.08846628571544507,0.0,0.012012857142898221,0.10047914285834329
BaseIndex.compareRows|TreeIndex.add|MultiVersionIndex.add,0.4503236722206442,0.0,0.06123175429220534,0.0,0.5115554265128495
BaseIndex.compareRows|TreeIndex.add|MultiVersionIndex.remove,0.0,0.054228481479825584,0.0,0.007956666666561633,0.06218514814638722
BaseIndex.compareRows|TreeIndex.findFirstNode|TreeIndex.find,0.5753757086564,0.35883765741216067,0.08562443227418719,0.04528869047619332,1.0651264888189411
BaseIndex.compareRows|TreeIndex.findFirstNode|TreeIndex.remove,0.012849292307733918,0.27975789814350993,0.00194307692313137,0.03435222222159845,0.3289024895959737
BaseIndex.compareValues|BaseIndex.compareRows|MultiVersionIndex.compareRows,0.2561801718619934,0.0,0.033182731259810826,0.0,0.2893629031218042
BaseIndex.compareValues|BaseIndex.compareRows|TreeCursor.next,0.0,0.009259227195446513,0.0,0.0017533023841741794,0.011012529579620692
BaseIndex.compareValues|BaseIndex.compareRows|TreeIndex.add,0.27187149478765515,0.054228481479825584,0.03914335586866462,0.007956666666561633,0.373199998802707
BaseIndex.compareValues|BaseIndex.compareRows|TreeIndex.findFirstNode,0.19740996941124905,0.23382084391223976,0.025596120729026384,0.03644150793601386,0.49326844198852904
BaseIndex.getCostRangeIndex|TreeIndex.getCost|MultiVersionIndex.getCost,0.0,0.0,0.0,0.0,0.0
BaseIndex.initBaseIndex|TreeIndex.<init>|MultiVersionIndex.<init>,0.03966068121868365,0.0,0.004851712758705181,0.0,0.044512393977388834
Benchmark.fileFromInputStream|Benchmark.extractFileResource|Benchmark.prepareJars,0.0,0.5085865446930147,0.0,0.07597629533445337,0.5845628400274681
CacheObject.<init>|Record.<init>|Row.<init>,0.01686200000015864,0.0,0.002695999999802249,0.0,0.019557999999960888
CalendarDate.setHours|AbstractCalendar.setTimeOfDay|AbstractCalendar.getCalendarDate,0.0,0.12318238888514718,0.0,0.01568083333303447,0.13886322221818165
CalendarDate.setMinutes|AbstractCalendar.setTimeOfDay|AbstractCalendar.getCalendarDate,0.0,0.04331466666189954,0.0,0.006819999999909972,0.05013466666180951
CalendarDate.setNormalized|AbstractCalendar.setTimeOfDay|AbstractCalendar.getCalendarDate,0.0,0.13564860000721335,0.0,0.021534000000247033,0.15718260000746037
CalendarDate.setSeconds|AbstractCalendar.setTimeOfDay|AbstractCalendar.getCalendarDate,0.0,0.03646511111098031,0.0,0.004586666666606711,0.04105177777758702
CalendarProviderImpl.getInstance|Calendar.createCalendar|Calendar.getInstance,0.0,0.0566457246011684,0.0,0.008543015834846863,0.06518874043601526
Chaperone.retire|Chaperone.dismiss|Chaperone.main,0.0,0.0,0.0,0.0,0.0
ClassFile.read|ClassFile.<init>|CtClassType.<init>,0.0,0.047259478200882034,0.0,0.006486272676974407,0.05374575087785644
ClassFile.read|ClassFile.<init>|CtClassType.getClassFile3,0.0,0.01271597943779261,0.0,0.0016114174466954347,0.014327396884488044
ClassPool.compress|ClassPool.makeClass|ClassPool.makeClass,0.0,0.05654663193080025,0.0,0.007491508371506608,0.06403814030230685
ClassPool.makeClass|ClassPool.makeClass|ThreadCoreMapInjector.transform,0.0,0.02818653584016208,0.0,0.003605425909501565,0.031791961749663644
Column.convert|IndexCursor.find|TableFilter.next,0.022158906250600317,0.4502911249981566,0.002153125000290857,0.06243508928545929,0.5370382455345071
Column.getColumnId|TableFilter.getValue|ExpressionColumn.getValue,0.5311761473183442,0.0,0.07406058249051342,0.0,0.6052367298088576
Column.updateSequenceIfRequired|Column.validateConvertUpdateSequence|Table.validateConvertUpdateSequence,0.046287511338591235,0.0,0.006175933024938332,0.0,0.052463444363529566
Column.validateConvertUpdateSequence|Table.validateConvertUpdateSequence|Insert.insertRows,0.1687640246008529,0.0,0.023457584357386912,0.0,0.1922216089582398
Column.validateConvertUpdateSequence|Table.validateConvertUpdateSequence|Update.update,0.0,0.03176738095221697,0.0,0.0038892857143461392,0.03565666666656311
Command.checkCanceled|Prepared.checkCanceled|Prepared.setCurrentRowNumber,0.031088945452584508,0.0,0.003040923309602723,0.0,0.03412986876218723
Command.executeQueryLocal|Command.executeQuery|JdbcPreparedStatement.executeQuery,0.0,0.09634683211212373,0.0,0.01306862167144634,0.10941545378357008
Command.executeUpdate|JdbcPreparedStatement.executeUpdateInternal|JdbcPreparedStatement.executeUpdate,0.0,0.0,0.0,0.0,0.0
Command.stop|Command.executeUpdate|JdbcConnection.commit,0.0,0.08282555205958081,0.0,0.010885271452692462,0.09371082351227328
Command.stop|Command.executeUpdate|JdbcConnection.rollbackInternal,0.07047086613616296,0.06350066666676535,0.010496919781659356,0.00972636363608079,0.15419481622066847
Command.stop|Command.executeUpdate|JdbcPreparedStatement.executeUpdateInternal,0.27397910512137214,0.05516945353699166,0.03801020939541207,0.007782717647740995,0.37494148570151686
CommandLineArgs.extractBenchmarkSet|CommandLineArgs.<init>|TestHarness.main,0.0,0.0,0.0,0.0,0.0
CompareMode.compareString|ValueString.compareSecure|Value.compareTo,0.01666266666628265,0.07533537359256348,0.002724999999979142,0.011829924466506058,0.10655296472533134
CompareMode.compareString|ValueString.compareSecure|Value.compareTypeSave,0.021496923076950062,0.0,0.002864615384262437,0.0,0.0243615384612125
Comparison.compareNotNull|Comparison.getValue|Expression.getBooleanValue,0.03102543259701065,0.0,0.004912610832434695,0.0,0.03593804342944534
Comparison.getValue|ConditionAndOr.getValue|Expression.getBooleanValue,0.4287877246704473,0.05849971794836724,0.056230991546035856,0.006235384615557939,0.5497538187804083
Comparison.getValue|Expression.getBooleanValue|Delete.update,0.0,0.08044000000141008,0.0,0.012822222222220495,0.09326222222363058
Comparison.getValue|Expression.getBooleanValue|Select.queryFlat,0.07654004444403754,0.0,0.01373600000002221,0.0,0.09027604444405976
Comparison.isEverything|ConditionAndOr.isEverything|ConditionAndOr.isEverything,0.0,0.05466716666948438,0.0,0.007072499999897748,0.06173966666938213
Comparison.isEverything|ConditionAndOr.isEverything|Select.isEverything,0.2682775575850759,0.0,0.04256114422128768,0.0,0.3108387018063635
ConditionAndOr.getValue|ConditionAndOr.getValue|ConditionAndOr.getValue,0.0,0.04482800000084517,0.0,0.005713076922732468,0.050541076923577635
ConditionAndOr.getValue|ConditionAndOr.getValue|Expression.getBooleanValue,0.0,0.07966375757700228,0.0,0.011040000000238331,0.09070375757724061
ConditionAndOr.getValue|Expression.getBooleanValue|Select.queryFlat,0.11067062119842841,0.0,0.013154687580633151,0.0,0.12382530877906156
ConditionAndOr.getValue|Expression.getBooleanValue|Select.queryGroup,0.0,0.02486134317016259,0.0,0.0035421077482615726,0.028403450918424163
ConditionAndOr.getValue|Expression.getBooleanValue|Update.update,0.0,0.07068548148068926,0.0,0.009811666666387787,0.08049714814707705
ConditionAndOr.isEverything|ConditionAndOr.isEverything|Select.isEverything,0.11688602224592703,0.0,0.01715788118611444,0.0,0.13404390343204148
ConditionAndOr.isEverything|Select.isEverything|Query.isEverything,0.03292090012583978,0.07629399999859743,0.005604223607082647,0.014523333333474713,0.1293424570649946
ConditionNot.getValue|Expression.getBooleanValue|Select.queryFlat,0.0663204894519039,0.0,0.010835781546131205,0.0,0.0771562709980351
Config.parse|TestHarness.<init>|TestHarness.main,0.0,0.05243079484195843,0.0,0.005907744696139796,0.05833853953809823
ConfigFile.<init>|ConfigFile.<init>|Config.parse,0.0,0.006289924985448993,0.0,0.0008760694868697702,0.007165994472318763
DacapoClassLoader.loadClass|ClassLoader.loadClass|DbObjectBase.getSQL,0.0,0.06281565166326841,0.0,0.008382268896782846,0.07119792056005125
DacapoClassLoader.loadClass|ClassLoader.loadClass|Driver.connect,0.0,0.045493733613139985,0.0,0.00717418114645265,0.052667914759592635
DacapoClassLoader.loadClass|ClassLoader.loadClass|Engine.getSession,0.0,0.02423341862759625,0.0,0.003675320598003596,0.027908739225599846
Database.areEqual|Comparison.compareNotNull|Comparison.getValue,0.0,0.0,0.0,0.0,0.0
Database.checkWritingAllowed|Table.checkWritingAllowed|User.checkRight,0.0,0.027467101000985573,0.0,0.002870428807146873,0.030337529808132445
Database.getModificationMetaId|Prepared.needRecompile|CommandContainer.recompileIfRequired,0.0,0.0,0.0,0.0,0.0
Database.isReconnectNeeded|Session.isReconnectNeeded|JdbcConnection.checkClosed,0.0,0.0502165000034438,0.0,0.008171249999577412,0.05838775000302121
DbObjectBase.getSQL|SchemaObjectBase.getSQL|BaseIndex.getCreateSQL,0.0,0.07418850738418205,0.0,0.010486013722398648,0.08467452110658069
Delete.update|CommandContainer.update|Command.executeUpdate,0.0,0.14671842592522605,0.0,0.019624722222235706,0.16634314814746176
ExpressionColumn.getValue|Comparison.getValue|ConditionAndOr.getValue,0.03987633333357128,0.07779336122475583,0.004834999999729917,0.01089071522431472,0.13339540978237174
ExpressionColumn.getValue|IndexCondition.getCurrentValue|IndexCursor.find,0.05720276269024417,0.05772895833312456,0.010247028869365734,0.007846874999965317,0.13302562489269978
ExpressionColumn.getValue|Select.queryFlat|Select.queryWithoutCache,0.03544429156061018,0.09321500000126738,0.004895562710977975,0.0148360000000442,0.14839085427289972
ExpressionColumn.isEverything|Comparison.isEverything|ConditionAndOr.isEverything,0.04727877297656705,0.13665781249953093,0.006740687962136142,0.015153437499937656,0.2058307109381718
ExpressionColumn.isEverything|Select.isEverything|Query.isEverything,0.08740969697064062,0.0,0.00883636363656166,0.0,0.09624606060720228
ExpressionVisitor.<init>|ExpressionVisitor.get|Query.isEverything,0.15906669053479366,0.0,0.022336906191230944,0.0,0.1814035967260246
ExpressionVisitor.get|Query.isEverything|Query.sameResultAsLast,0.0972734622257698,0.0,0.015215335035741602,0.0,0.1124887972615114
ExpressionVisitor.incrementQueryLevel|Select.isEverything|Query.isEverything,0.030567675788339282,0.0,0.005928613646663642,0.0,0.036496289435002924
FieldInfo.read|FieldInfo.<init>|ClassFile.read,0.0,0.06262773200390566,0.0,0.006737491189840382,0.06936522319374604
Function.getSimpleValue|Function.getValueWithArgs|Function.getValue,0.014568341886223303,0.0,0.001643487205867412,0.0,0.016211829092090714
Gregorian.getCalendarDate|Gregorian.getCalendarDate|Gregorian.getCalendarDate,0.0,0.09511972222147354,0.0,0.014076666666773638,0.10919638888824718
IndexCondition.getCurrentValue|IndexCursor.find|TableFilter.next,0.07504610254244032,0.1979876666737255,0.010860112640600984,0.030412500000238648,0.3143063818570055
IndexCursor.find|TableFilter.next|Select.queryFlat,0.20477678235314817,0.18002720588450685,0.02637018813112047,0.02521676470626641,0.43639094107504195
IndexCursor.getSearchRow|IndexCursor.find|TableFilter.next,0.08193959999844083,0.01344406666660992,0.009801000000152271,0.0019789999999678307,0.10716366666517085
IndexCursor.getSearchRow|TableFilter.next|Select.queryFlat,0.037331393939287714,0.0,0.004963636363038059,0.0,0.04229503030232577
IndexCursor.getSearchRow|TableFilter.next|Select.queryGroup,0.0,0.0,0.0,0.0,0.0
IndexCursor.next|TableFilter.next|Select.queryFlat,0.12618252023030624,0.10445438095242328,0.01974366814652903,0.01332357142819958,0.2637041407574581
Insert.insertRows|Insert.update|CommandContainer.update,0.26752167295906365,0.07425927632922268,0.033566386729350924,0.0076934530528979155,0.3830407890705352
JdbcConnection.checkClosedForWrite|JdbcConnection.commit|SimpleInsert.orderTable,0.027099666667102916,0.0,0.004712500000096043,0.0,0.03181216666719896
JdbcConnection.checkClosed|JdbcConnection.checkClosed|JdbcResultSet.checkClosed,0.0,0.43326925317180986,0.0,0.06893071428679443,0.5021999674586043
JdbcConnection.checkClosed|JdbcResultSet.checkClosed|JdbcResultSet.next,0.0,0.30934023411885836,0.0,0.046826964284769526,0.35616719840362787
JdbcConnection.checkClosed|JdbcStatement.checkClosed|JdbcPreparedStatement.checkClosed,0.0,0.3246778944463181,0.0,0.049905916667588215,0.3745838111139063
JdbcConnection.commit|JdbcConnection.setTransactionIsolation|Standard.stockLevel,0.0,0.0,0.0,0.0,0.0
JdbcPreparedStatement.setParameter|JdbcPreparedStatement.setInt|SimpleInsert.stockTable,0.019571745033085442,0.0,0.0027134115547039783,0.0,0.02228515658778942
JdbcResultSet.checkClosed|JdbcResultSet.checkColumnIndex|JdbcResultSet.get,0.0,0.20484088888851046,0.0,0.030050000000200167,0.23489088888871062
JdbcResultSet.checkClosed|JdbcResultSet.next|TPCC.calculateSumDB,0.0,0.03382159999843376,0.0,0.005535999999847264,0.03935759999828102
JdbcResultSet.checkOnValidRow|JdbcResultSet.get|JdbcResultSet.getString,0.0,0.03760444444196765,0.0,0.006261111110924739,0.04386555555289239
JdbcResultSet.getColumnIndex|JdbcResultSet.get|JdbcResultSet.getString,0.025580352256370717,0.0,0.003171768185157026,0.0,0.028752120441527744
JdbcResultSet.getColumnIndex|JdbcResultSet.get|JdbcResultSet.getTimestamp,0.0,0.0,0.0,0.0,0.0
JdbcResultSet.getString|TPCC.calculateSumDB|TPCC.calculateSumDB,0.0,0.14441802698163198,0.0,0.018766507936327666,0.16318453491795964
JdbcResultSet.get|JdbcResultSet.getString|TPCC.calculateSumDB,0.0,0.048696511113020174,0.0,0.008881333333111897,0.05757784444613207
JdbcResultSet.nextRow|JdbcResultSet.next|TPCC.calculateSumDB,0.0,0.09404924999863497,0.0,0.014846250000068218,0.10889549999870318
JdbcSQLException.<init>|Message.getSQLException|Message.getSQLException,0.0,0.0,0.0,0.0,0.0
JdbcStatement.checkClosed|JdbcPreparedStatement.checkClosed|JdbcStatement.checkClosed,0.0202597514608281,0.08298753333171285,0.002727195064220697,0.012139999999756883,0.11811447985651854
JdbcStatement.checkClosed|JdbcPreparedStatement.executeQuery|Standard.paymentById,0.034576333332855334,0.0,0.004680000000007567,0.0,0.0392563333328629
Launcher$AppClassLoader.loadClass|ClassLoader.loadClass|DacapoClassLoader.loadClass,0.0,0.06262773200390566,0.0,0.006737491189840382,0.06936522319374604
Launcher$AppClassLoader.loadClass|ClassLoader.loadClass|TestHarness.main,0.0,0.0,0.0,0.0,0.0
LocalResult.<init>|Select.queryWithoutCache|Query.query,0.037555554719629854,0.0,0.0059965825156694606,0.0,0.04355213723529931
LocalResult.next|JdbcResultSet.nextRow|JdbcResultSet.next,0.0,0.08439251428866382,0.0,0.011595714285699832,0.09598822857436365
LocalResult.next|ViewCursor.next|IndexCursor.next,0.12284288397024154,0.04785155555711955,0.01596552814713561,0.009703333333163757,0.19636330100766045
LocalResult.setLimit|Select.queryWithoutCache|Query.query,0.06874304761905001,0.0,0.009491428571415043,0.0,0.07823447619046506
MathUtils.compare|ValueInt.compareSecure|Value.compareTypeSave,0.03597534983363153,0.0,0.005278410649563037,0.0,0.04125376048319457
MathUtils.compare|ValueShort.compareSecure|Value.compareTypeSave,0.20265532494125324,0.0,0.03044396993947044,0.0,0.23309929488072367
MathUtils.setScale|ValueTimestamp.convertScale|Column.validateConvertUpdateSequence,0.13078358269915807,0.0,0.015817359643302675,0.0,0.14660094234246074
Message.<clinit>|DropTable.prepareDrop|DropTable.update,0.0,0.08129619224401315,0.0,0.008047670385527492,0.08934386262954064
Message.translate|Message.getSQLException|Message.getSQLException,0.0,0.034714466836344465,0.0,0.0052076055802959395,0.039922072416640406
MethodAccessorGenerator$1.run|MethodAccessorGenerator$1.run|AccessController.doPrivileged,0.0,0.08573400000265488,0.0,0.009554999999939657,0.09528900000259453
MultiVersionCursor.getSearchRow|IndexCursor.getSearchRow|TableFilter.next,0.33915463781997757,0.10530590118422388,0.04624703055415356,0.012250903927428614,0.5029584734857837
MultiVersionCursor.loadNext|MultiVersionCursor.next|IndexCursor.next,0.09680284885824683,0.0,0.01567972419388304,0.0,0.11248257305212987
MultiVersionCursor.next|IndexCursor.next|TableFilter.next,1.0391962696061035,0.3206314632096697,0.14577942304542346,0.04400510806294512,1.5496122639241416
MultiVersionCursor.step|MultiVersionCursor.loadNext|MultiVersionCursor.next,0.25867912871331533,0.02667427939698723,0.034943154977980166,0.004584145398554983,0.32488070848683775
MultiVersionIndex.add|TableData.addRowsToIndex|TableData.addIndex,0.09688226923073018,0.0,0.012197884615372271,0.0,0.10908015384610245
MultiVersionIndex.compareRows|TableData$1.compare|TableData$1.compare,0.13383742856387112,0.0,0.01900600015108548,0.0,0.1528434287149566
MultiVersionIndex.find|IndexCursor.find|TableFilter.next,0.032823924862258415,0.0,0.0044514497102873885,0.0,0.0372753745725458
OERandom.randomAString|SimpleInsert.customerTable|SimpleInsert.populateForOneWarehouse,0.06551908333391718,0.0,0.011976500000067366,0.0,0.07749558333398454
OERandom.randomDecimalString|SimpleInsert.orderTable|SimpleInsert.populateForOneWarehouse,0.08843592557345581,0.0,0.011003795713162684,0.0,0.09943972128661849
OERandom.randomIntPerm|SimpleInsert.orderTable|SimpleInsert.populateForOneWarehouse,0.02479317863797689,0.0,0.004249320620334398,0.0,0.02904249925831129
OERandom.randomInt|OERandom.randomAString24|SimpleInsert.orderTable,0.026062060605468243,0.0,0.004279545454857836,0.0,0.030341606060326078
OERandom.randomInt|OERandom.randomAString24|SimpleInsert.stockTable,0.04973678207093328,0.0,0.008144522666048438,0.0,0.05788130473698172
OERandom.randomInt|OERandom.randomAString26_50|OERandom.randomData,0.0340037647063796,0.0,0.004867941175796338,0.0,0.038871705882175936
OERandom.randomInt|OERandom.randomAString|SimpleInsert.customerTable,0.023446518519281027,0.0,0.004528888888739015,0.0,0.027975407408020042
OERandom.randomInt|OERandom.randomIntPerm|SimpleInsert.orderTable,0.0732716313490255,0.0,0.011195608287623494,0.0,0.084467239636649
OERandom.randomInt|OERandom.randomNString|OERandom.randomZIP,0.04912844242926009,0.0,0.006497079367520893,0.0,0.05562552179678098
OERandom.randomInt|OERandom.randomNString|SimpleInsert.customerTable,0.09129024337679753,0.0,0.013022951694995837,0.0,0.10431319507179337
OERandom.randomInt|SimpleInsert.orderTable|SimpleInsert.populateForOneWarehouse,0.07252875931873257,0.0,0.009663609311290988,0.0,0.08219236863002355
ObjectArray$ObjectArrayIterator.hasNext|Select.isEverything|Query.isEverything,0.028385096037502156,0.0,0.004005606931319072,0.0,0.032390702968821225
ObjectArray$ObjectArrayIterator.hasNext|UndoLogRecord.commit|Session.commit,0.03378541666582653,0.0,0.0058624999989357685,0.0,0.0396479166647623
ObjectArray.createArray|ObjectArray.ensureCapacity|ObjectArray.add,0.0,0.01989750000029744,0.0,0.003060000000004948,0.02295750000030239
ObjectArray.get|Insert.insertRows|Insert.update,0.0,0.0,0.0,0.0,0.0
ObjectArray.get|LocalResult.next|JdbcResultSet.nextRow,0.0,0.2526943666697965,0.0,0.04101724999988316,0.29371161666967965
ObjectArray.get|ObjectArray$ObjectArrayIterator.next|Select.isEverything,0.0,0.0,0.0,0.0,0.0
ObjectArray.get|ObjectArray$ObjectArrayIterator.next|TableData.addRowsToIndex,0.052438929824571115,0.0,0.006947368421063864,0.0,0.05938629824563498
ObjectArray.get|Select.queryFlat|Select.queryWithoutCache,0.0,0.0548299999985223,0.0,0.008139999999912106,0.0629699999984344
ObjectArray.iterator|Select.isEverything|Query.isEverything,0.04048380462148831,0.0,0.005772138972069404,0.0,0.04625594359355771
ObjectArray.sort|ObjectArray.sort|ObjectArray.sort,0.33581063216667534,0.0,0.041700473709520916,0.0,0.37751110587619624
ObjectArray.swap|ObjectArray.sort|ObjectArray.sort,0.15095414490709194,0.0,0.019278438980335807,0.0,0.17023258388742774
ObjectUtils.arrayCopy|ObjectArray.toArray|LocalResult.getList,0.10046025640920749,0.01344406666660992,0.017423076922910757,0.0019789999999678307,0.133306399998696
Operation.optimize|Insert.insertRows|Insert.update,0.0,0.0633264615384038,0.0,0.008213076922961941,0.07153953846136574
Parameter.getParamValue|Parameter.getValue|Insert.insertRows,0.023844400000719662,0.0,0.004376000000047497,0.0,0.02822040000076716
Parameter.isEverything|Comparison.isEverything|ConditionAndOr.isEverything,0.0,0.0,0.0,0.0,0.0
Parser.isKeyword|Parser.quoteIdentifier|Column.getCreateSQL,0.0,0.015771188174989573,0.0,0.0019861906898632053,0.017757378864852777
Parser.parseColumnList|Parser.parseInsert|Parser.parsePrepared,0.01122916826573576,0.0,0.0009965536798496103,0.0,0.012225721945585369
Parser.readFactor|Parser.readSum|Parser.readConcat,0.022247153501952992,0.0,0.002777624370327592,0.0,0.025024777872280583
Parser.readIf|Parser.parsePrepared|Parser.parse,0.0248705128198599,0.0,0.004730769230971215,0.0,0.029601282050831117
Prepared.checkCanceled|Prepared.setCurrentRowNumber|Delete.update,0.0,0.06228296296170877,0.0,0.009408888888881644,0.07169185185059042
Query.isEverything|Query.query|CommandContainer.query,0.0211385555554039,0.0,0.00317666666685707,0.0,0.02431522222226097
Query.query|ConditionExists.getValue|ConditionNot.getValue,0.0480292849103996,0.04739200000139866,0.007699854612129398,0.005444705882337966,0.10856584540626563
Query.sameResultAsLast|Query.query|CommandContainer.query,0.025580352256370717,0.032899571964053534,0.003171768185157026,0.004738233883329785,0.06638992628891106
Query.sameResultAsLast|Query.query|ConditionExists.getValue,0.06624739999824669,0.0,0.007206000000587664,0.0,0.07345339999883435
Record.<init>|Row.<init>|Table.getTemplateRow,0.0,0.09946697619376381,0.0,0.013596071428634915,0.11306304762239873
Row.<init>|Table.getTemplateRow|ConstraintReferential.checkRowOwnTable,0.0,0.0,0.0,0.0,0.0
Row.<init>|Table.getTemplateRow|Insert.insertRows,0.036987352939938906,0.0,0.0056223529410250606,0.0,0.042609705880963966
Row.getColumnCount|ViewCursor.next|IndexCursor.next,0.017291958094951196,0.0,0.0025411660157911337,0.0,0.01983312411074233
Row.getValue|BaseIndex.compareRows|MultiVersionIndex.compareRows,0.2575366468000807,0.0,0.031467694273878334,0.0,0.28900434107395906
Row.getValue|BaseIndex.compareRows|TreeCursor.next,0.0663020000004811,0.0,0.010036250000212021,0.0,0.07633825000069312
Row.getValue|BaseIndex.compareRows|TreeIndex.add,0.35856410518077825,0.26417334523868036,0.0465512980775904,0.03396279761952269,0.7032515461165717
Row.getValue|BaseIndex.compareRows|TreeIndex.findFirstNode,0.7715129867609579,0.10130248148386642,0.10817822089764634,0.01678111111100912,0.9977748002534798
Row.getValue|Table.validateConvertUpdateSequence|Insert.insertRows,0.04149046259990813,0.0,0.004031000465918985,0.0,0.04552146306582711
Row.getValue|TableFilter.getValue|ExpressionColumn.getValue,0.43633391669173105,0.16796268091373143,0.05897082337809259,0.024687991453463197,0.6879554124370183
Row.isEmpty|ScanIndex.getNextRow|ScanCursor.next,0.0,0.11900794117679526,0.0,0.015315882353188856,0.13432382352998412
Row.setValue|IndexCursor.getSearchRow|IndexCursor.find,0.11424098721351758,0.0,0.015406755643435844,0.0,0.12964774285695344
Row.setValue|Insert.insertRows|Insert.update,0.03397129411742378,0.0,0.004923529411291169,0.0,0.03889482352871495
Row.setValue|Update.update|CommandContainer.update,0.0,0.06296344444584705,0.0,0.008310555555942335,0.07127400000178938
RowList.add|Update.update|CommandContainer.update,0.0,0.0,0.0,0.0,0.0
RowList.next|Table.updateRows|Update.update,0.0,0.050798641024858884,0.0,0.006485769230820528,0.057284410255679416
ScanCursor.next|IndexCursor.next|TableFilter.next,0.0,0.1774250000027543,0.0,0.023742222222238152,0.20116722222499245
ScanIndex.add|TableData.addRow|Insert.insertRows,0.0873466288948417,0.2104596360186307,0.012435441008332476,0.025477619608909336,0.3357193255307142
ScanIndex.commit|UndoLogRecord.commit|Session.commit,0.24319680625776866,0.0,0.037892809258724854,0.0,0.28108961551649353
ScanIndex.getNextRow|ScanCursor.next|IndexCursor.next,0.0,0.8047203396009441,0.0,0.11938323215206925,0.9241035717530134
ScanIndex.getNextRow|ScanCursor.next|TableData.addIndex,0.3732621449226108,0.0,0.048198722430282365,0.0,0.4214608673528931
ScanIndex.incrementRowCount|ScanIndex.commit|UndoLogRecord.commit,0.024218666666032125,0.0,0.00436399999986558,0.0,0.028582666665897705
Schema.findTableOrView|Parser.readTableOrView|Parser.readTableFilter,0.0,0.03829949999878105,0.0,0.007084999999885136,0.045384499998666186
Select.getCurrentGroup|ExpressionColumn.getValue|Comparison.getValue,0.04031060870423428,0.0,0.0046169582911183785,0.0,0.04492756699535266
Select.isEverything|Query.isEverything|Query.query,0.3393129297543556,0.050699833334268384,0.05183746142515204,0.008572500000203338,0.45042272451397936
Select.isEverything|Query.isEverything|Query.sameResultAsLast,0.09133761436140697,0.0,0.016082828781853468,0.0,0.10742044314326044
Select.queryFlat|Select.queryWithoutCache|Query.query,0.4472389050520866,0.3733707387270674,0.06224916001022427,0.06283442647086661,0.9456932302602448
Select.queryGroup|Select.queryWithoutCache|Query.query,0.0,0.0,0.0,0.0,0.0
Select.queryWithoutCache|Query.query|ConditionExists.getValue,0.1483342252436865,0.0,0.02064884035208707,0.0,0.16898306559577358
Session.commit|TransactionCommand.update|CommandContainer.update,0.046997367001287364,0.0,0.0062229795679718215,0.0,0.05322034656925918
Session.getAutoCommit|Command.stop|Command.executeUpdate,0.027099666667102916,0.0,0.004712500000096043,0.0,0.03181216666719896
Session.getDatabase|Column.validateConvertUpdateSequence|Table.validateConvertUpdateSequence,0.03434534177866876,0.0,0.004068032758623697,0.0,0.03841337453729246
Session.getUser|Insert.insertRows|Insert.update,0.0,0.03450889108814467,0.0,0.004059933894187656,0.03856882498233233
Session.isClosed|JdbcConnection.checkClosed|JdbcConnection.checkClosed,0.0,0.03216838095215193,0.0,0.004471428571421365,0.03663980952357329
Session.isClosed|JdbcConnection.checkClosed|JdbcStatement.checkClosed,0.0,0.15080777777701668,0.0,0.02106333333419267,0.17187111111120934
Session.isReconnectNeeded|JdbcConnection.checkClosed|JdbcConnection.checkClosed,0.0,0.2291631904781319,0.0,0.031932142857089826,0.2610953333352217
Session.isReconnectNeeded|JdbcConnection.checkClosed|JdbcStatement.checkClosed,0.027120827791682147,0.2194015317458656,0.003292390708591569,0.02779913690572732,0.27761388715186663
SimpleInsert.customerTable|SimpleInsert.populateForOneWarehouse|SimpleInsert.populateAllTables,0.09836037420709065,0.0,0.014450378450064848,0.0,0.1128107526571555
SimpleInsert.orderTable|SimpleInsert.populateForOneWarehouse|SimpleInsert.populateAllTables,0.03434534177866876,0.0,0.004068032758623697,0.0,0.03841337453729246
SimpleInsert.stockTable|SimpleInsert.populateForOneWarehouse|SimpleInsert.populateAllTables,0.0202597514608281,0.0,0.002727195064220697,0.0,0.022986946525048797
SimpleRow.getValue|BaseIndex.compareRows|TreeIndex.findFirstNode,0.0,0.054807518519670265,0.0,0.009410555555169358,0.06421807407483962
Standard.payment|Submitter.runPayment|TPCCSubmitter.runTransaction,0.053222750000713866,0.0,0.006134999999630963,0.0,0.05935775000034483
StringCache.get|ValueString.get|JdbcPreparedStatement.setString,0.3024656201021243,0.0,0.04691449874440334,0.0,0.34938011884652764
StringUtils.toUpperEnglish|JdbcResultSet.getColumnIndex|JdbcResultSet.get,0.012661444445257077,0.0,0.001813333333605745,0.0,0.014474777778862823
TPCC.calculateSumDB|TPCC.calculateSumDB|TPCC.preIterationMemoryDB,0.0,1.6208621391324962,0.0,0.22558681349048268,1.8464489526229788
TPCCSubmitter.runTransactions|TPCC$3.run|end.end,0.0,0.0,0.0,0.0,0.0
TPCCSubmitter.runTransaction|TPCCSubmitter.runTransactions|TPCC$3.run,0.0,0.09649371172147003,0.0,0.013675025956645931,0.11016873767811597
Table.compareTypeSave|BaseIndex.compareValues|BaseIndex.compareRows,0.2597129747233028,0.0,0.03247947149503959,0.0,0.2921924462183424
Table.getTemplateRow|IndexCursor.getSearchRow|IndexCursor.find,0.12219573510428995,0.14974790571946556,0.016397372373343773,0.016940202020166124,0.30528121521726537
Table.getTemplateRow|ViewCursor.next|IndexCursor.next,0.08209569386564926,0.0,0.010990671095683961,0.0,0.09308636496133321
TableData$1.compare|ObjectArray.sort|ObjectArray.sort,0.3022432739128699,0.0,0.039446432971406986,0.0,0.3416897068842769
TableData$1.compare|TableData$1.compare|ObjectArray.sort,0.1511823081678893,0.0,0.018260848881169515,0.0,0.16944315704905882
TableData.addIndex|AlterTableAddConstraint.createIndex|AlterTableAddConstraint.tryUpdate,0.10972264792913097,0.0,0.014288323840242832,0.0,0.12401097176937381
TableData.addIndex|AlterTableAddConstraint.tryUpdate|AlterTableAddConstraint.update,0.08921218518568182,0.0,0.013661666668229842,0.0,0.10287385185391165
TableData.addRowsToIndex|TableData.addIndex|AlterTableAddConstraint.tryUpdate,0.04581278947380109,0.0,0.00595000000025162,0.0,0.05176278947405271
TableData.doLock|TableData.lock|Update.update,0.0,0.0,0.0,0.0,0.0
TableData.getIndexes|UndoLogRecord.commit|Session.commit,0.034356393038534036,0.0,0.004389372774707419,0.0,0.038745765813241455
TableData.lock|TableFilter.lock|Select.queryWithoutCache,0.058638678323462076,0.0,0.008832978119161483,0.0,0.06747165644262355
TableData.unlock|Session.unlockAll|Session.commit,0.04817577011430979,0.0,0.005105172413911124,0.0,0.053280942528220916
TableFilter.getSelect|ExpressionColumn.getValue|Select.queryFlat,0.051472335483472416,0.0,0.007166116152283023,0.0,0.05863845163575544
TableFilter.getValue|ExpressionColumn.getValue|Comparison.getValue,0.0057939863446629155,0.3656427464392776,0.0009880851611258346,0.04543649572713449,0.4178613136722008
TableFilter.getValue|ExpressionColumn.getValue|Select.queryFlat,0.04381306641455656,0.22022686274581996,0.006110247257772244,0.03857794117626652,0.30872811759441526
TableFilter.next|Select.queryFlat|Select.queryWithoutCache,0.3457484243269399,0.09470623809431256,0.04905115257263701,0.01425071428613072,0.5037565292800201
TeeOutputStream.write|FilterOutputStream.write|PrintStream.write,0.0,0.033922000000731915,0.0,0.0036283333334318334,0.03755033333416375
Trace.isEnabled|Trace.isDebugEnabled|TableData.traceLock,0.0,0.04295573325961696,0.0,0.005909871995101408,0.04886560525471837
Trace.isEnabled|Trace.isDebugEnabled|TraceObject.debugCodeCall,0.0,0.03102621211975488,0.0,0.007245454545420326,0.03827166666517521
TraceObject.debugCodeCall|JdbcResultSet.getString|TPCC.calculateSumDB,0.0,0.029093500001181383,0.0,0.004069999999956053,0.033163500001137436
TraceSystem.<init>|Database.open|Database.openDatabase,0.0,0.03862270236741549,0.0,0.005303305603717391,0.04392600797113288
TraceSystem.getTrace|Database.getTrace|Session.getTrace,0.0308792592593279,0.11152388730946912,0.005406666666709093,0.014616296789564226,0.16242611002507032
TreeCursor.<init>|TreeIndex.find|MultiVersionIndex.removeIfExists,0.1057447083342898,0.0,0.013004062500082606,0.0,0.11874877083437241
TreeCursor.get|MultiVersionIndex.removeIfExists|MultiVersionIndex.add,0.05976703723030195,0.0,0.00817870865524154,0.0,0.06794574588554349
TreeCursor.next|MultiVersionCursor.step|MultiVersionCursor.loadNext,0.37868814023480435,0.013822664921584243,0.054628675530146345,0.002066918801605021,0.44920639948813995
TreeCursor.next|MultiVersionIndex.removeIfExists|MultiVersionIndex.add,0.0,0.06290018518780857,0.0,0.010682777777657502,0.07358296296546607
TreeIndex.add|MultiVersionIndex.add|TableData.addRow,0.0,0.0,0.0,0.0,0.0
TreeIndex.add|MultiVersionIndex.add|TableData.addRowsToIndex,0.26528051323447016,0.0,0.029358686049621722,0.0,0.2946391992840919
TreeIndex.balance|TreeIndex.add|MultiVersionIndex.add,0.27325201358767387,0.0,0.036919083478027526,0.0,0.3101710970657014
TreeIndex.child|TreeIndex.balance|TreeIndex.add,0.0689988571435346,0.0,0.007800000000445705,0.0,0.0767988571439803
TreeIndex.findFirstNode|TreeIndex.find|MultiVersionIndex.find,0.14237900745416868,0.0480622745087078,0.021293789546041546,0.008294117646965235,0.22002918915588326
TreeIndex.findFirstNode|TreeIndex.find|MultiVersionIndex.removeIfExists,0.015946432997455642,0.06521044444256134,0.002720994611283646,0.008687777778066919,0.09256564982936755
TreeIndex.findFirstNode|TreeIndex.remove|MultiVersionIndex.remove,0.0,0.23220161110880783,0.0,0.031525396825431755,0.2637270079342396
TreeIndex.find|MultiVersionIndex.find|IndexCursor.find,0.16223333546109142,0.0,0.02661246658773317,0.0,0.1888458020488246
TreeIndex.find|MultiVersionIndex.removeIfExists|MultiVersionIndex.add,0.13571446154907066,0.0,0.0165617585125585,0.0,0.15227622006162916
TreeIndex.next|TreeCursor.next|MultiVersionCursor.step,0.4804859515249933,0.2570671772900228,0.06899855161763704,0.03627820454486276,0.8428298849775159
TreeIndex.next|TreeCursor.next|MultiVersionIndex.removeIfExists,0.0,0.06928342857281677,0.0,0.009094285714257107,0.07837771428707388
TreeIndex.replace|TreeIndex.balance|TreeIndex.add,0.0317937129858156,0.0,0.004352591831919724,0.0,0.03614630481773532
TreeIndex.set|TreeIndex.balance|TreeIndex.add,0.06403552474626507,0.0,0.009461711163897693,0.0,0.07349723591016277
TreeIndex.set|TreeIndex.remove|MultiVersionIndex.removeIfExists,0.0,0.0,0.0,0.0,0.0
TreeNode.isFromLeft|TreeIndex.balance|TreeIndex.add,0.02800249789828095,0.0,0.003718877866324579,0.0,0.03172137576460553
TreeNode.isFromLeft|TreeIndex.replace|TreeIndex.balance,0.06622064583416433,0.0,0.008592187499213347,0.0,0.07481283333337768
URLClassPath$FileLoader.getResource|URLClassPath.getResource|URLClassPath.getResource,0.0,0.05108826677003009,0.0,0.006710206069125616,0.05779847283915571
URLClassPath$JarLoader.getResource|URLClassPath.getResource|URLClassLoader$1.run,0.0,0.10357367884978658,0.0,0.014102613334271485,0.11767629218405806
UndoLog.add|Session.log|Session.log,0.0,0.10922643393715548,0.0,0.013720920180308864,0.12294735411746434
UndoLogRecord.commit|Session.commit|TransactionCommand.update,0.0,0.02739321428504939,0.0,0.003401785714101736,0.030794999999151126
Update.update|CommandContainer.update|Command.executeUpdate,0.0,0.12605340475836002,0.0,0.016698571428475716,0.14275197618683574
Value.cache|ValueString.get|JdbcPreparedStatement.setString,0.06574624074157867,0.0,0.0109061111108733,0.0,0.07665235185245198
Value.cache|ValueStringFixed.get|Value.convertTo,0.0790926432419258,0.0,0.011343910785745436,0.0,0.09043655402767124
Value.checkPrecision|Column.validateConvertUpdateSequence|Table.validateConvertUpdateSequence,0.046287511338591235,0.04260415384636965,0.006175933024938332,0.0051153846154473,0.10018298282534653
Value.compareTo|Database.areEqual|Comparison.compareNotNull,0.06929438948490309,0.06292397221922227,0.00927101520541513,0.0073499999996581925,0.14883937690919868
Value.compareTypeSave|Table.compareTypeSave|BaseIndex.compareValues,0.49937652944578304,0.1849430185211724,0.06410053821203943,0.027271626983424998,0.7756917131624199
Value.convertTo|Column.convert|Insert.insertRows,0.2544451436048926,0.0,0.03700539722032721,0.0,0.2914505408252198
ValueBoolean.getType|Value.compareTo|Database.areEqual,0.0,0.06391051851851108,0.0,0.009711111111014529,0.0736216296295256
ValueBoolean.get|Comparison.getValue|ConditionAndOr.getValue,0.015425712719233663,0.0,0.0013802657325773455,0.0,0.016805978451811008
ValueBoolean.get|ConditionExists.getValue|ConditionNot.getValue,0.094713196733828,0.0,0.012666745098285186,0.0,0.10737994183211319
ValueDecimal.equals|Value.cache|ValueDecimal.get,0.0,0.0,0.0,0.0,0.0
ValueDecimal.getPrecision|ValueDecimal.checkPrecision|Column.validateConvertUpdateSequence,0.22760469613256507,0.0,0.03539090747141462,0.0,0.26299560360397967
ValueDecimal.getString|JdbcResultSet.getString|TPCC.calculateSumDB,0.0,0.1576359166683687,0.0,0.01983187499983311,0.1774677916682018
ValueDecimal.get|Value.convertTo|Column.convert,0.0,0.059650051283265025,0.0,0.0077457692309858064,0.06739582051425083
ValueDecimal.multiply|Operation.getValue|Insert.insertRows,0.015343565931003347,0.0,0.002303868457959826,0.0,0.017647434388963174
ValueExpression.isEverything|Select.isEverything|Query.isEverything,0.12735402688190578,0.0,0.012039369959602579,0.0,0.13939339684150837
ValueInt.compareSecure|Value.compareTypeSave|Table.compareTypeSave,0.28806813275899956,0.10373444444372176,0.03646067128472671,0.013900666666712722,0.44216391515416076
ValueInt.getString|JdbcResultSet.getString|TPCC.calculateSumDB,0.0,0.9700180580217779,0.0,0.14620813852732695,1.1162261965491047
ValueInt.get|JdbcPreparedStatement.setInt|SimpleInsert.orderTable,0.033149791665891826,0.0,0.0059125000007043136,0.0,0.03906229166659614
ValueShort.compareSecure|Value.compareTo|Database.areEqual,0.0,0.0,0.0,0.0,0.0
ValueShort.compareSecure|Value.compareTypeSave|Table.compareTypeSave,0.06437827514279665,0.12512383333402494,0.008271282914187503,0.016995416667062578,0.21476880805807166
ValueShort.getString|JdbcResultSet.getString|TPCC.calculateSumDB,0.0,1.7190706427149125,0.0,0.26761954599417925,1.9866901887090918
ValueString.equals|Value.cache|ValueString.get,0.03281922946143318,0.0,0.004807943124749608,0.0,0.03762717258618279
ValueString.get|JdbcPreparedStatement.setString|SimpleInsert.stockTable,0.0,0.09826802488477124,0.0,0.010905431581158007,0.10917345646592924
ValueStringBase.getString|JdbcConnection.commit|end.end,0.0,0.02982588888941488,0.0,0.004081666666631159,0.03390755555604604
ValueStringBase.getString|JdbcResultSet.getString|TPCC.calculateSumDB,0.0,0.07880785714535574,0.0,0.008803571428784164,0.0876114285741399
ValueTimestamp.convertScale|Column.validateConvertUpdateSequence|Table.validateConvertUpdateSequence,0.40437608664531716,0.0,0.06122959471431887,0.0,0.46560568135963604
ValueTimestamp.getString|JdbcResultSet.getString|TPCC.calculateSumDB,0.0,6.089356900402964,0.0,0.9765766825391624,7.065933582942127
ViewCursor.next|IndexCursor.next|TableFilter.next,0.07994496969816585,0.0,0.008876363636580098,0.0,0.08882133333474594
ZoneInfo.getOffsets|ZoneInfo.getOffsets|AbstractCalendar.getCalendarDate,0.0,0.0978650555589411,0.0,0.015469583333065706,0.1133346388920068
ZoneInfoFile.readEpochSec|ZoneInfoFile.getZoneInfo|ZoneInfoFile.getZoneInfo0,0.0,0.0566457246011684,0.0,0.008543015834846863,0.06518874043601526
