method,package1,package2,dram1,dram2,energy
chappie,0.03928633333271137,0.0,0.006664999999581292,0.0,0.04595133333229266
javassist,0.0,0.04857238094943265,0.0,0.00625142857114995,0.0548238095205826
javassist.bytecode,0.0,0.09837642592497609,0.0,0.014328888889091708,0.11270531481406779
org.apache.derbyTesting.system.oe.direct,0.0,0.05874721150798233,0.0,0.008476946090055816,0.06722415759803815
org.apache.derbyTesting.system.oe.load,0.2524068553628605,0.0,0.03662217002843887,0.0,0.2890290253912994
org.apache.derbyTesting.system.oe.util,1.6415216825359558,0.0,0.22449613136514002,0.0,1.8660178139010957
org.dacapo.h2,0.0,0.7594904235421285,0.0,0.1383361943495821,0.8978266178917106
org.dacapo.harness,0.0,0.6656567240750566,0.0,0.09160621825539664,0.7572629423304532
org.h2,0.0,0.05416854167075749,0.0,0.008153124999807915,0.06232166667056541
org.h2.command,0.7056483217854016,0.16370299715792316,0.08892781237049706,0.021828444306552616,0.9801075756203744
org.h2.command.dml,1.380220325795494,0.7592157412414656,0.17353391884885502,0.1285118899233954,2.44148187580921
org.h2.constant,0.0,0.04460666666394293,0.0,0.006874999999884797,0.05148166666382773
org.h2.constraint,0.04313594444425285,0.0,0.0058022222223102025,0.0,0.04893816666656305
org.h2.engine,0.3518684539204424,0.23901754761772323,0.04656971098872224,0.036541964285680434,0.6739976768125683
org.h2.expression,0.4433006519841348,1.2709979472197748,0.061624338476197936,0.21524230304710054,1.9911652407272078
org.h2.index,4.126531811317649,5.031867665756018,0.537585961633308,0.8292107583547109,10.525196197061685
org.h2.jdbc,0.9015893330584013,0.23564437781492625,0.1277218346667667,0.03851957373683862,1.303475119276933
org.h2.log,0.0730303563354253,0.0,0.010354184003549592,0.0,0.0833845403389749
org.h2.message,0.24910139893899053,0.25053329311333783,0.037794296959174134,0.03892429450509127,0.5763532835165938
org.h2.result,0.8135244032354333,1.3348043676999652,0.11022861040927744,0.21406008277564317,2.472617464120319
org.h2.schema,0.042667086956182335,0.0,0.005246521739404736,0.0,0.04791360869558707
org.h2.store,0.037924051942970965,0.035319018520466566,0.005523090594909364,0.006455555555408797,0.08522171661375569
org.h2.table,1.5373795666478043,1.1695215412921762,0.2161803508572115,0.1785911635510081,3.1016726223482003
org.h2.util,1.242220805695218,1.125323272855375,0.16017099138118346,0.1876811223529184,2.715396192284695
org.h2.value,4.814071602773722,4.999813258971527,0.6936725525090849,0.845007949976117,11.35256536423045
sun.misc,0.0,0.1327307314818258,0.0,0.01949312499956519,0.15222385648139097
sun.reflect,0.0,0.024927749999430183,0.0,0.004128749999987727,0.02905649999941791
sun.security.util,0.0,0.055605148148498734,0.0,0.008539999999778013,0.06414514814827675
sun.util.calendar,0.4466313436315341,0.36678169280703254,0.06861430798477813,0.059730996730665925,0.9417583411540108
sun.util.locale.provider,0.0,0.0,0.0,0.0,0.0
