method,package1,package2,dram1,dram2,energy
chappie,0.0,0.0,0.0,0.0,0.0
javassist,0.0,0.08473316777096233,0.0,0.011096934281008173,0.09583010205197051
javassist.bytecode,0.0,0.2309125749189887,0.0,0.03039163135674572,0.2613042062757344
org.apache.derbyTesting.system.oe.direct,0.053222750000713866,0.0,0.006134999999630963,0.0,0.05935775000034483
org.apache.derbyTesting.system.oe.load,0.1529654674465875,0.0,0.02124560627290924,0.0,0.17421107371949676
org.apache.derbyTesting.system.oe.util,0.5982163899212278,0.0,0.08942976318043727,0.0,0.6876461531016651
org.dacapo.h2,0.0,1.7173558508539664,0.0,0.23926183944712862,1.956617690301095
org.dacapo.harness,0.0,0.6750513485977512,0.0,0.0988363993091243,0.7738877479068755
org.dacapo.parser,0.0,0.058720719827407425,0.0,0.006783814183009567,0.06550453401041699
org.h2.command,0.43388575129766827,0.3758966555121599,0.06005299976782257,0.052858053986705435,0.9226934605643561
org.h2.command.dml,1.4950515487952545,0.8513932510395966,0.21025592505451735,0.12560661294034703,2.682307337829716
org.h2.engine,0.1355632032387412,0.8179218804299223,0.018295903035283133,0.11085366809174177,1.0826346547956884
org.h2.expression,1.8513152471680552,0.918661060443641,0.261287675737667,0.12770039615599488,3.1589643795053584
org.h2.index,8.675392514533995,4.3660184823772585,1.190201395995105,0.6105181859220628,14.84213057882842
org.h2.jdbc,0.1270878487502425,1.7137056364908982,0.018004874804185313,0.26214479761938897,2.120943157664715
org.h2.log,0.0,0.13661964822220488,0.0,0.0171227058944106,0.15374235411661547
org.h2.message,0.0308792592593279,0.3692326941377954,0.005406666666709093,0.050400204899582836,0.45591882496341524
org.h2.result,2.3633731967086904,0.9532601226492331,0.31918263033910194,0.13625371049797969,3.772069660195005
org.h2.schema,0.0,0.03829949999878105,0.0,0.007084999999885136,0.045384499998666186
org.h2.store,0.0,0.09946697619376381,0.0,0.013596071428634915,0.11306304762239873
org.h2.table,2.518562851916942,1.312382258949249,0.33896513665009587,0.1815297282095033,4.351439975725791
org.h2.util,1.4437216026539454,0.3408659333352261,0.20395317624630308,0.05419624999976805,2.0427369622352427
org.h2.value,2.2282807347919755,9.861208654486413,0.31281629974250436,1.5339468114778883,13.93625250049878
sun.misc,0.0,0.2172896776237223,0.0,0.027550310593237485,0.2448399882169598
sun.reflect,0.0,0.08573400000265488,0.0,0.009554999999939657,0.09528900000259453
sun.security.util,0.0,0.09261934809456747,0.0,0.013251873990046388,0.10587122208461386
sun.util.calendar,0.0,1.6398483769916705,0.0,0.24143281345283246,1.881281190444503
sun.util.locale.provider,0.0,0.0566457246011684,0.0,0.008543015834846863,0.06518874043601526
