method,package1,package2,dram1,dram2,energy
AbstractCalendar,1.059571891673295,0.0,0.19317155103947684,0.0,1.252743442712772
BaseCalendar,0.5724486877811942,0.0,0.0875582623994202,0.0,0.6600069501806144
BaseIndex,2.9045594969043114,0.5500315780030643,0.40122969465933983,0.07452048277194531,3.9303412523386605
ByteVectorImpl,0.008563268817059936,0.0,0.0010529032258081539,0.0,0.00961617204286809
CacheObject,0.04222124999796506,0.0,0.007068750000144064,0.0,0.049289999998109124
CalendarDate,0.35025174716946933,0.0,0.04921908848860987,0.0,0.39947083565807917
Column,0.6825571656540588,0.037424556829859436,0.09423268574251958,0.00529641706378159,0.8195108252902193
Command,0.3278666596733911,0.3186711142450363,0.040762961846359906,0.044292140775592265,0.7315928765403796
CompareMode,0.03490412571140724,0.0,0.005304204356508542,0.0,0.040208330067915785
Comparison,0.5194760619685758,0.0,0.08005762820614933,0.0,0.5995336901747251
ConditionAndOr,0.1513129212438314,0.0,0.02413970696044745,0.0,0.17545262820427884
ConditionExists,0.03935056410204524,0.0,0.006609230769428018,0.0,0.04595979487147325
ConditionNot,0.04494687179491545,0.0,0.0075876923077978576,0.0,0.05253456410271331
ConnectionInfo,0.04712645217191778,0.0,0.005397496210115429,0.0,0.052523948382033205
Database,0.06309012500090222,0.0,0.007052500000099826,0.0,0.07014262500100205
Delete,0.026127199999367197,0.0,0.003487999999924796,0.0,0.02961519999929199
Driver,0.053700312252154436,0.0,0.0066970414133327395,0.0,0.06039735366548717
Engine,0.010696496702154652,0.0,0.0009487607949497957,0.0,0.011645257497104447
Expression,0.1535913437672504,0.0,0.019120563588849147,0.0,0.17271190735609954
ExpressionColumn,0.5302795491089523,0.0,0.07139779132104931,0.0,0.6016773404300015
ExpressionVisitor,0.21909538130258277,0.0,0.02386736651712643,0.0,0.2429627478197092
Gregorian,0.0379882000022917,0.0,0.005711999999766703,0.0,0.043700200002058404
IndexCondition,0.01869204166738806,0.0,0.002948750000314249,0.0,0.02164079166770231
IndexCursor,0.23384067711369425,0.013896357073708695,0.031076426332733678,0.001759470315039504,0.2805729308351761
Insert,0.16310421785366686,0.0,0.01914369137074927,0.0,0.18224790922441614
JdbcConnection,0.6938176680232526,0.0,0.10072844101061743,0.0,0.79454610903387
JdbcPreparedStatement,0.0021486486489389004,0.0,0.00027162162164254494,0.0,0.0024202702705814452
JdbcResultSet,0.5089758878371142,0.0,0.07885641328961891,0.0,0.5878323011267331
JdbcSQLException,0.0,0.0,0.0,0.0,0.0
JdbcStatement,0.05840391666647014,0.0,0.008093333332908514,0.0,0.06649724999937866
LocalResult,0.35065227860185655,0.0,0.051530689760406166,0.0,0.4021829683622627
MathUtils,0.2682322940420308,0.0,0.036379893068210024,0.0,0.30461218711024085
MethodInfo,0.02662346011550761,0.0,0.003286752781955469,0.0,0.029910212897463078
MultiVersionCursor,1.0105470854415664,0.20491652733269547,0.13527034153537723,0.027334095327692695,1.3780680496373316
MultiVersionIndex,0.3171112986941805,0.0,0.040833502841346986,0.0,0.35794480153552743
OERandom,0.23584527171677197,0.0,0.034013624143838496,0.0,0.26985889586061046
ObjectArray,1.290029976074524,0.07479161222430399,0.17797563988093368,0.01050261497657582,1.5532998431563374
ObjectArray$ObjectArrayIterator,0.0987228908315182,0.0,0.01099504237508976,0.0,0.10971793320660796
ObjectUtils,0.03278725925850233,0.0,0.002960000000139525,0.0,0.035747259258641854
Parser,0.0,0.06731212522995009,0.0,0.009725060790187964,0.07703718602013805
Prepared,0.09021679898770464,0.0,0.014578115097912136,0.0,0.10479491408561678
Query,0.4463204043021686,0.0,0.06186160669193223,0.0,0.5081820109941009
Row,1.5754074693781053,0.20565264594366423,0.20988222317947564,0.025870698242035153,2.0168130367432804
RowList,0.03742351851946701,0.0,0.005947222222554652,0.0,0.04337074074202166
ScanIndex,0.48139995566883304,0.0,0.0670527642496267,0.0,0.5484527199184597
ScriptReader,0.04143205186131733,0.0,0.004989744395819676,0.0,0.046421796257137
Select,1.2656593680445642,0.0,0.16510778019621244,0.0,1.4307671482407767
Session,0.3429214843185274,0.0,0.05018475674408977,0.0,0.3931062410626172
SimpleInsert,0.18419110080712076,0.0,0.019625075582961442,0.0,0.2038161763900822
Standard,0.04375824009461178,0.05532407142787373,0.004394125874134392,0.007804285714363295,0.11128072311098319
StatementHelper,0.0,0.0,0.0,0.0,0.0
StringCache,0.28088136750360765,0.0,0.036698501432193234,0.0,0.31757986893580087
StringUtils,0.0,0.0,0.0,0.0,0.0
Submitter,0.0,0.0,0.0,0.0,0.0
TPCC,0.8457341543996141,0.0,0.1112072460444098,0.0,0.9569414004440239
TPCCSubmitter,0.0,0.0,0.0,0.0,0.0
Table,0.5962539487281249,0.0,0.07281071802372255,0.0,0.6690646667518474
TableData,0.430927120924485,0.04579070588093315,0.05873789743043761,0.006822941176627258,0.542278665412483
TableData$1,0.22378182606531322,0.0,0.029157504594501393,0.0,0.2529393306598146
TableFilter,0.39256651289723865,0.05041097664153253,0.056317831586161306,0.007052975394787619,0.5063482965197201
Trace,0.10359252174098672,0.0,0.012224440993030428,0.0,0.11581696273401715
TraceSystem,0.06673848233889866,0.0,0.008988086115486654,0.0,0.07572656845438532
TreeCursor,0.17560716637257867,0.0,0.018662010467722097,0.0,0.19426917684030076
TreeIndex,1.3198231959126412,0.15541373761561433,0.18139952101738835,0.019825410585338012,1.676461865130982
UndoLogRecord,0.034366687500096305,0.0,0.0045759375000216105,0.0,0.038942625000117914
Update,0.0,0.0,0.0,0.0,0.0
Value,0.8215378788934292,0.0,0.111231252604193,0.0,0.9327691314976222
ValueDecimal,0.08088185904978687,0.0,0.00672844848113657,0.0,0.08761030753092344
ValueExpression,0.08489825641019987,0.013447230532345634,0.01418461538448285,0.0017495956802586158,0.11427969800728696
ValueInt,0.4171764895007284,0.0,0.054911722170682735,0.0,0.47208821167141113
ValueShort,0.23806317184007322,0.0,0.030693126097170974,0.0,0.2687562979372442
ValueString,0.08864875176145645,0.0,0.011450737493595136,0.0,0.10009948925505159
ValueStringBase,0.02149199999985285,0.0,0.0018937499999083232,0.0,0.023385749999761174
ValueTimestamp,0.09649666666518897,0.0,0.010859999999714392,0.0,0.10735666666490336
ViewCursor,0.15319422442513458,0.0,0.016036175686535373,0.0,0.16923040011166995
Warehouse,0.0,0.0,0.0,0.0,0.0
ZoneInfo,0.21720024999740417,0.0,0.0349676388891735,0.0,0.25216788888657765
ZoneInfoFile,0.059710670455658574,0.0,0.0067772518094826135,0.0,0.06648792226514119
