method,package1,package2,dram1,dram2,energy
AbstractCalendar.getCalendarDate|Gregorian.getCalendarDate|Gregorian.getCalendarDate,0.12782800000180333,0.0,0.021784999999605738,0.0,0.14961300000140906
AbstractCalendar.setTimeOfDay|AbstractCalendar.getCalendarDate|Gregorian.getCalendarDate,0.25124616776000486,0.0,0.04023145576079965,0.0,0.29147762352080453
BaseCalendar.getCalendarDateFromFixedDate|AbstractCalendar.getCalendarDate|Gregorian.getCalendarDate,0.039322933333460236,0.0,0.006491999999464801,0.0,0.04581493333292504
BaseCalendar.getFixedDate|BaseCalendar.getCalendarDateFromFixedDate|AbstractCalendar.getCalendarDate,0.0721124666682617,0.0,0.012538222221984242,0.0,0.08465068889024593
BaseCalendar.getGregorianYearFromFixedDate|BaseCalendar.getCalendarDateFromFixedDate|AbstractCalendar.getCalendarDate,0.09049321960991344,0.0,0.010883772123267375,0.0,0.10137699173318082
BaseCalendar.isLeapYear|AbstractCalendar.getCalendarDate|Gregorian.getCalendarDate,0.07316092592480816,0.0,0.01162388888837153,0.0,0.08478481481317969
BaseCalendar.isLeapYear|BaseCalendar.isLeapYear|AbstractCalendar.getCalendarDate,0.04231274999983725,0.0,0.007125000000087312,0.0,0.04943774999992456
BaseIndex.compareKeys|TreeIndex.add|MultiVersionIndex.add,0.15106227120050172,0.0774247123291371,0.0190339474904801,0.009233016153868442,0.25675394717398736
BaseIndex.compareRows|MultiVersionIndex.compareRows|MultiVersionCursor.next,0.0,0.05362145129222312,0.0,0.006461151507930119,0.06008260280015324
BaseIndex.compareRows|MultiVersionIndex.compareRows|TableData$1.compare,0.320688047144542,0.46141193843196343,0.04067197901988987,0.06355647064931026,0.8863284352457055
BaseIndex.compareRows|TreeCursor.next|MultiVersionCursor.step,0.40047426796913393,0.06803927401995608,0.059184800988325695,0.009133519480706894,0.5368318624581225
BaseIndex.compareRows|TreeCursor.next|MultiVersionIndex.removeIfExists,0.0,0.0,0.0,0.0,0.0
BaseIndex.compareRows|TreeIndex.add|MultiVersionIndex.add,0.28758142117167557,0.4061435185652111,0.03768864325806939,0.05117331629610136,0.7825868992910574
BaseIndex.compareRows|TreeIndex.add|MultiVersionIndex.remove,0.06675729166696934,0.0,0.010987500000586198,0.0,0.07774479166755553
BaseIndex.compareRows|TreeIndex.findFirstNode|TreeIndex.find,0.6889550687542271,0.09816333855009783,0.13154601594112475,0.016068016403601115,0.9347324396490508
BaseIndex.compareRows|TreeIndex.findFirstNode|TreeIndex.remove,0.16586178274056218,0.0,0.024166785714355467,0.0,0.19002856845491764
BaseIndex.compareValues|BaseIndex.compareRows|MultiVersionIndex.compareRows,0.10271569761205661,0.18271993990117058,0.014450735721556125,0.020607137632884593,0.3204935108676679
BaseIndex.compareValues|BaseIndex.compareRows|TreeCursor.next,0.0,0.024112594954502672,0.0,0.00352298069575882,0.027635575650261493
BaseIndex.compareValues|BaseIndex.compareRows|TreeIndex.add,0.14432671525824617,0.040638107916372665,0.015424270534234877,0.0050586356801808115,0.2054477293890345
BaseIndex.compareValues|BaseIndex.compareRows|TreeIndex.findFirstNode,0.46784461540872463,0.039031213901719805,0.07491360113667672,0.00433383441813611,0.5861232648652572
BaseIndex.initBaseIndex|TreeIndex.<init>|MultiVersionIndex.<init>,0.039755325870756315,0.0,0.00544551784643491,0.0,0.04520084371719123
CacheObject.setPos|Row.setPos|ScanIndex.add,0.0,0.02422258823735676,0.0,0.003218823529416969,0.027441411766773727
CalendarDate.setDayOfMonth|BaseCalendar.getCalendarDateFromFixedDate|AbstractCalendar.getCalendarDate,0.08288248156822103,0.0,0.013434716073090438,0.0,0.09631719764131147
CalendarDate.setMinutes|AbstractCalendar.setTimeOfDay|AbstractCalendar.getCalendarDate,0.12401372610722623,0.0,0.021384600532861224,0.0,0.14539832664008745
CalendarDate.setNormalized|AbstractCalendar.setTimeOfDay|AbstractCalendar.getCalendarDate,0.0937622666674239,0.0,0.01605600000087482,0.0,0.10981826666829872
CalendarDate.setSeconds|AbstractCalendar.setTimeOfDay|AbstractCalendar.getCalendarDate,0.045503277947402325,0.0,0.007043797625560395,0.0,0.05254707557296272
Chaperone.retire|Chaperone.dismiss|Chaperone.main,0.10320409721155256,0.0,0.017757700751514484,0.0,0.12096179796306705
CodeAttribute.<init>|AttributeInfo.read|ClassFile.read,0.028324851854348607,0.0,0.0018200000002387374,0.0,0.030144851854587346
Column.convert|IndexCursor.find|TableFilter.next,0.2137369871172426,0.0,0.0350670845635526,0.0,0.24880407168079519
Column.convert|Insert.insertRows|Insert.update,0.0,0.04388621882365459,0.0,0.005930225112849195,0.04981644393650378
Column.getColumnId|TableFilter.getValue|ExpressionColumn.getValue,0.4144542414441291,0.0,0.07281157238074182,0.0,0.48726581382487094
Column.validateConvertUpdateSequence|Table.validateConvertUpdateSequence|Insert.insertRows,0.0,0.056362139077451474,0.0,0.007661887673362462,0.06402402675081394
Column.validateConvertUpdateSequence|Table.validateConvertUpdateSequence|Update.update,0.04499388235340388,0.0,0.00707647058794357,0.0,0.05207035294134745
Command.checkCanceled|Prepared.checkCanceled|Prepared.setCurrentRowNumber,0.0,0.05047738412219978,0.0,0.007289381257516074,0.057766765379715854
Command.executeUpdate|JdbcConnection.commit|JdbcConnection.setTransactionIsolation,0.0,0.0,0.0,0.0,0.0
Command.executeUpdate|JdbcConnection.commit|Standard.newOrder,0.0,0.0,0.0,0.0,0.0
Command.executeUpdate|JdbcConnection.rollbackInternal|JdbcConnection.rollback,0.03636300866997952,0.14951730293590498,0.004756839763452539,0.02200554213157657,0.2126426935009136
Command.executeUpdate|JdbcPreparedStatement.executeUpdateInternal|JdbcPreparedStatement.executeUpdate,0.06211555127848465,0.008024133332461741,0.00924384615378725,0.0007699999999507173,0.08015353076468434
CommandContainer.isTransactional|Command.stop|Command.executeQueryLocal,0.0,0.0,0.0,0.0,0.0
CommandContainer.recompileIfRequired|CommandContainer.query|Command.executeQueryLocal,0.05165633333672304,0.0,0.010880000000421813,0.0,0.06253633333714485
CommandContainer.recompileIfRequired|CommandContainer.update|Command.executeUpdate,0.0,0.0,0.0,0.0,0.0
CompareMode.compareString|ValueString.compareSecure|Value.compareTo,0.0,0.0,0.0,0.0,0.0
Comparison.getValue|ConditionAndOr.getValue|ConditionAndOr.getValue,0.09931114285988085,0.049811834547406064,0.015422857143321967,0.00729607797900812,0.171841912529617
Comparison.getValue|ConditionAndOr.getValue|Expression.getBooleanValue,0.28553892824870714,0.045221000118680604,0.05247675002614175,0.006286540639647297,0.3895232190331768
Comparison.getValue|Expression.getBooleanValue|Delete.update,0.02523427083330413,0.0,0.004097187500216629,0.0,0.029331458333520757
Comparison.getValue|Expression.getBooleanValue|Update.update,0.13457608080580488,0.0,0.014950378786538335,0.0,0.14952645959234323
Comparison.isEverything|ConditionAndOr.isEverything|ConditionAndOr.isEverything,0.0452799999989414,0.054461485958569665,0.00864000000001397,0.009961581384104676,0.1183430673416297
Comparison.isEverything|ConditionAndOr.isEverything|Select.isEverything,0.033644905364584275,0.0,0.005942424327260868,0.0,0.03958732969184514
ConditionAndOr.getValue|ConditionAndOr.getValue|ConditionAndOr.getValue,0.07995571428702013,0.0,0.011599999999730028,0.0,0.09155571428675016
ConditionAndOr.getValue|ConditionAndOr.getValue|Expression.getBooleanValue,0.015181090909402084,0.07318306607727043,0.002217272727152291,0.01029639486196735,0.10087782457579215
ConditionAndOr.getValue|Expression.getBooleanValue|Select.queryFlat,0.0,0.06520088294807665,0.0,0.00841839065498471,0.07361927360306136
ConditionExists.getValue|ConditionNot.getValue|Expression.getBooleanValue,0.047708999998576467,0.0,0.007824999999381058,0.0,0.05553399999795752
Config.addSize|ConfigFile.sizeClause|ConfigFile.sizeSpec,0.07765700000163632,0.0,0.00977500000105162,0.0,0.08743200000268794
ConfigFile.<init>|ConfigFile.<init>|Config.parse,0.14066600000175336,0.0,0.01643999999942025,0.0,0.1571060000011736
Database.getSessionCount|TableData.unlock|Session.unlockAll,0.0,0.0,0.0,0.0,0.0
Database.isReconnectNeeded|Session.isReconnectNeeded|JdbcConnection.checkClosed,0.0744080933159592,0.0,0.011850947866620472,0.0,0.08625904118257967
Database.open|Database.openDatabase|Database.<init>,0.05539981481544802,0.0,0.005759444444669901,0.0,0.06115925926011792
DbObjectBase.getSQL|SchemaObjectBase.getSQL|BaseIndex.getCreateSQL,0.018193583334020026,0.0,0.0021641666664638454,0.0,0.02035775000048387
Delete.update|CommandContainer.update|Command.executeUpdate,0.10774856249781804,0.0,0.017484062500519332,0.0,0.12523262499833737
DisabledAlgorithmConstraints$Constraints.<init>|DisabledAlgorithmConstraints.<init>|DisabledAlgorithmConstraints.<init>,0.006795333336210911,0.0,0.0009066666663986525,0.0,0.007702000002609564
Engine.openSession|Engine.openSession|Engine.getSession,0.06260166666470468,0.0,0.0054799999998067506,0.0,0.06808166666451143
Expression.getBooleanValue|Select.queryFlat|Select.queryWithoutCache,0.03464501739726192,0.0,0.00595319442933322,0.0,0.040598211826595135
ExpressionColumn.getValue|Comparison.getValue|ConditionAndOr.getValue,0.0,0.0,0.0,0.0,0.0
ExpressionColumn.getValue|Comparison.getValue|Expression.getBooleanValue,0.10176599999977042,0.07143645833518045,0.017460000000331394,0.008971874999967136,0.19963433333524938
ExpressionColumn.getValue|IndexCondition.getCurrentValue|IndexCursor.find,0.10780004218310207,0.0,0.02075079660388652,0.0,0.12855083878698859
ExpressionColumn.getValue|Select.queryFlat|Select.queryWithoutCache,0.0,0.04285493084383593,0.0,0.006135082029665024,0.04899001287350095
ExpressionColumn.isEverything|Comparison.isEverything|ConditionAndOr.isEverything,0.11796033333181791,0.0,0.023040000001249908,0.0,0.14100033333306783
ExpressionColumn.isEverything|Select.isEverything|Query.isEverything,0.06630414083112932,0.0,0.011153177476319307,0.0,0.07745731830744862
ExpressionVisitor.getType|ExpressionColumn.isEverything|Comparison.isEverything,0.0,0.07039499999984138,0.0,0.008388243243062206,0.07878324324290359
ExpressionVisitor.get|Query.isEverything|Query.query,0.2396526497919409,0.0308518825221814,0.029803483809290442,0.004119849912128239,0.30442786603554095
Gregorian.getCalendarDate|Gregorian.getCalendarDate|Date.normalize,0.1078644166639909,0.0,0.01607499999954598,0.0,0.12393941666353687
Gregorian.getCalendarDate|Gregorian.getCalendarDate|Gregorian.getCalendarDate,0.12333199999848148,0.0,0.020165000000997677,0.0,0.14349699999947915
IndexCondition.getCurrentValue|IndexCursor.find|TableFilter.next,0.03329044230903687,0.08124094623640449,0.006603707718222524,0.00851516129043903,0.12965025755410292
IndexCondition.isEnd|IndexCursor.find|TableFilter.next,0.05914333333203104,0.0,0.009499999998903757,0.0,0.0686433333309348
IndexCondition.isStart|IndexCursor.find|TableFilter.next,0.29121150758152053,0.0,0.04779102272658003,0.0,0.33900253030810057
IndexCursor.find|TableFilter.next|Select.queryFlat,0.06346655498701553,0.16140442669490218,0.010926416463416423,0.02370287236840401,0.25950027051373814
IndexCursor.getMax|IndexCursor.getSearchRow|IndexCursor.find,0.16731766666756204,0.0,0.027959999998832547,0.0,0.1952776666663946
IndexCursor.getSearchRow|IndexCursor.find|TableFilter.next,0.08728327777943276,0.0,0.01454083333333579,0.0,0.10182411111276855
IndexCursor.getSearchRow|TableFilter.next|Select.queryFlat,0.16565517681984945,0.0,0.028199087317082698,0.0,0.19385426413693216
IndexCursor.next|TableFilter.next|Select.queryFlat,0.04902320000110194,0.0,0.009743999999288159,0.0,0.058767200000390096
Insert.insertRows|Insert.update|CommandContainer.update,0.19553847031533708,0.07515849596425761,0.02013855429329307,0.010208400442229437,0.30104392101511723
JdbcConnection.checkClosed|JdbcConnection.checkClosedForWrite|JdbcConnection.rollback,0.0,0.02693201718087848,0.0,0.0032894543726775236,0.030221471553556006
JdbcConnection.checkClosed|JdbcConnection.checkClosed|JdbcResultSet.checkClosed,0.5020082094507496,0.0,0.08077172966547659,0.0,0.5827799391162263
JdbcConnection.checkClosed|JdbcStatement.checkClosed|JdbcPreparedStatement.checkClosed,0.4304538567009381,0.0,0.06894752570324006,0.0,0.4994013824041782
JdbcPreparedStatement.setInt|Standard.paymentById|Standard.payment,0.0,0.0,0.0,0.0,0.0
JdbcPreparedStatement.setParameter|JdbcPreparedStatement.setDouble|Standard.paymentById,0.0,0.0,0.0,0.0,0.0
JdbcPreparedStatement.setParameter|JdbcPreparedStatement.setInt|SimpleInsert.orderTable,0.0,0.04427314814637174,0.0,0.005277777777842453,0.049550925924214194
JdbcResultSet.checkClosed|JdbcResultSet.checkColumnIndex|JdbcResultSet.get,0.2461622222392672,0.0,0.03843804992502094,0.0,0.2846002721642881
JdbcResultSet.getColumnIndex|JdbcResultSet.get|JdbcResultSet.getString,0.0,0.0,0.0,0.0,0.0
JdbcResultSet.get|JdbcResultSet.getString|TPCC.calculateSumDB,0.07983654814820072,0.0,0.009381503733504937,0.0,0.08921805188170566
JdbcResultSet.nextRow|JdbcResultSet.next|TPCC.calculateSumDB,0.051618129871205475,0.0,0.008678330266914704,0.0,0.06029646013812018
JdbcStatement.checkClosed|JdbcPreparedStatement.checkClosed|JdbcStatement.checkClosed,0.10934507792125576,0.0,0.015018571429063583,0.0,0.12436364935031935
JdbcStatement.checkClosed|JdbcResultSet.checkClosed|JdbcResultSet.checkColumnIndex,0.008484693333351364,0.0,0.0008592000000256424,0.0,0.009343893333377006
LocalResult.<init>|LocalResult.<init>|Select.queryWithoutCache,0.04864533333360062,0.0,0.008119999999811018,0.0,0.05676533333341163
LocalResult.addRow|Select.queryFlat|Select.queryWithoutCache,0.0,0.11351699999981656,0.0,0.01576046511636801,0.12927746511618457
LocalResult.getList|LocalResult.<init>|Select.queryWithoutCache,0.0597121711549204,0.0,0.01023536129834655,0.0,0.06994753245326694
LocalResult.next|ViewCursor.next|IndexCursor.next,0.1449245175049056,0.11005436939255142,0.027547980605089218,0.015181397645035668,0.2977082651475819
LongVector.addElement|ConstPool.addItem0|ConstPool.readOne,0.10336300000017218,0.0,0.011250000000472936,0.0,0.11461300000064512
MathUtils.compare|ValueInt.compareSecure|Value.compareTypeSave,0.07102853333538707,0.0,0.011320000000220412,0.0,0.08234853333560749
MathUtils.compare|ValueShort.compareSecure|Value.compareTypeSave,0.033356712766779484,0.0,0.0052830500190172115,0.0,0.03863976278579669
MultiVersionCursor.getSearchRow|IndexCursor.getSearchRow|TableFilter.next,0.07264524669906128,0.13754662244938895,0.013232169958162059,0.01805447520510308,0.24147851431171538
MultiVersionCursor.loadNext|MultiVersionCursor.next|ConstraintReferential.found,0.0,0.0,0.0,0.0,0.0
MultiVersionCursor.loadNext|MultiVersionCursor.next|IndexCursor.next,0.26875249837606563,0.0851673008325308,0.04266468539197121,0.013196892657120806,0.40978137725768843
MultiVersionCursor.next|IndexCursor.next|TableFilter.next,0.7438245392557169,0.3543312560312326,0.13447670889723093,0.047429305829088324,1.2800618100132686
MultiVersionCursor.step|MultiVersionCursor.loadNext|MultiVersionCursor.next,0.20150017881427112,0.0,0.03561302328829294,0.0,0.23711320210256406
MultiVersionIndex.add|TableData.addRowsToIndex|TableData.addIndex,0.0,0.06011311126877308,0.0,0.00766237691569849,0.06777548818447157
MultiVersionIndex.commit|UndoLogRecord.commit|Session.commit,0.1792602222198588,0.017390503332725217,0.028891666666620748,0.0026397916064943554,0.2281821838256991
MultiVersionIndex.compareRows|TableData$1.compare|TableData$1.compare,0.09806945886312096,0.032984855189474784,0.012344846119325147,0.004525618100561299,0.14792477827248218
MultiVersionIndex.find|IndexCursor.find|TableFilter.next,0.07766870532954454,0.026303232558475,0.013830410886959937,0.003842790697680632,0.1216451394726601
OERandom.randomDecimalString|SimpleInsert.orderTable|SimpleInsert.populateForOneWarehouse,0.0,0.18424025030305818,0.0,0.026413599739851273,0.21065385004290946
ObjectArray$ObjectArrayIterator.hasNext|Select.isEverything|Query.isEverything,0.027821349398461617,0.0,0.004751144902686767,0.0,0.032572494301148384
ObjectArray$ObjectArrayIterator.hasNext|Table.fireConstraints|Table.fireAfterRow,0.07464599999851391,0.0,0.01224500000049981,0.0,0.08689099999901373
ObjectArray$ObjectArrayIterator.next|IndexCursor.find|TableFilter.next,0.0,0.0,0.0,0.0,0.0
ObjectArray$ObjectArrayIterator.next|Select.isEverything|Query.isEverything,0.026627466668530057,0.0,0.005423999999766238,0.0,0.032051466668296294
ObjectArray.add|LocalResult.addRow|Select.queryFlat,0.05967411854062797,0.03432661666482975,0.011224565430397767,0.004866518660066902,0.11009181929592239
ObjectArray.createArray|ObjectArray.ensureCapacity|ObjectArray.add,0.0,0.07243068404848396,0.0,0.009717087111202422,0.08214777115968638
ObjectArray.get|Insert.insertRows|Insert.update,0.0,0.04681910264366135,0.0,0.011278530630192544,0.058097633273853894
ObjectArray.get|LocalResult.next|JdbcResultSet.nextRow,0.08331944380755194,0.0,0.013081742857854503,0.0,0.09640118666540644
ObjectArray.get|LocalResult.next|ViewCursor.next,0.027365246700119868,0.0,0.00459216995814809,0.0,0.031957416658267956
ObjectArray.get|ObjectArray$ObjectArrayIterator.next|Select.isEverything,0.0,0.0596288564361029,0.0,0.009678683717497942,0.06930754015360084
ObjectArray.get|ObjectArray$ObjectArrayIterator.next|TableData.addRowsToIndex,0.02979252235141538,0.0,0.0053269616684535614,0.0,0.035119484019868946
ObjectArray.get|ScanIndex.getNextRow|ScanCursor.next,0.05947609090865377,0.0,0.009822272726689169,0.0,0.06929836363534295
ObjectArray.get|Select.queryFlat|Select.queryWithoutCache,0.031165152576134895,0.0,0.005272235955369659,0.0,0.03643738853150456
ObjectArray.iterator|Select.isEverything|Query.isEverything,0.02654137199485861,0.0,0.004535410885909097,0.0,0.031076782880767706
ObjectArray.newInstance|LocalResult.<init>|LocalResult.<init>,0.0386150000000877,0.0,0.008129999999558397,0.0,0.0467449999996461
ObjectArray.set|ScanIndex.remove|TableData.removeRow,0.0,0.0,0.0,0.0,0.0
ObjectArray.sort|ObjectArray.sort|ObjectArray.sort,0.11886364069688017,0.13106687883698503,0.011132126084589382,0.017532249586624422,0.27859489520507896
ObjectArray.swap|ObjectArray.sort|ObjectArray.sort,0.04075134312864257,0.0,0.007139744990202814,0.0,0.04789108811884538
ObjectArray.toArray|LocalResult.getList|LocalResult.<init>,0.026684865474709784,0.0,0.004623607244442868,0.0,0.03130847271915265
ObjectUtils.arrayCopy|ObjectArray.toArray|LocalResult.getList,0.0,0.0681487207235674,0.0,0.009815810810683974,0.07796453153425137
Parameter.getParamValue|Parameter.getValue|IndexCondition.getCurrentValue,0.10585533333263203,0.0,0.017460000000331394,0.0,0.12331533333296342
Parameter.getParamValue|Parameter.getValue|Insert.insertRows,0.02446033629878257,0.0,0.001999812355895938,0.0,0.02646014865467851
Parser.parseColumn|Parser.parseColumnForTable|Parser.parseCreateTable,0.03552715384695404,0.0,0.004318461538414106,0.0,0.03984561538536815
Parser.parseInsert|Parser.parsePrepared|Parser.parse,0.051218666667409714,0.0,0.005429999999857197,0.0,0.05664866666726691
Parser.parseSelectSimpleSelectPart|Parser.parseSelectSimple|Parser.parseSelectSub,0.0,0.0,0.0,0.0,0.0
Parser.readTerm|Parser.readFactor|Parser.readSum,0.0,0.04750574074461367,0.0,0.006800000000010995,0.05430574074462466
Prepared.checkCanceled|Prepared.setCurrentRowNumber|Insert.insertRows,0.042134500000732565,0.0,0.004722499999843421,0.0,0.046857000000575987
Query.getParameterValues|Query.query|ConditionExists.getValue,0.0,0.07124583332976422,0.0,0.008309375000029224,0.07955520832979344
Query.query|ConditionExists.getValue|ConditionNot.getValue,0.2151021759581923,0.0,0.04197113936779133,0.0,0.25707331532598365
Record.<init>|Row.<init>|Table.getTemplateRow,0.030060564925176968,0.0,0.0053062426466259065,0.0,0.035366807571802876
Row.getKey|BaseIndex.compareKeys|TreeIndex.add,0.0,0.0531938251425916,0.0,0.007958700789148909,0.0611525259317405
Row.getKey|ScanIndex.add|TableData.addRow,0.05778000000039658,0.0,0.009540000000318587,0.0,0.06732000000071517
Row.getValue|BaseIndex.compareRows|MultiVersionIndex.compareRows,0.14285550834331984,0.09588665260041518,0.01565304471118659,0.012284106565791396,0.266679312220713
Row.getValue|BaseIndex.compareRows|TreeCursor.next,0.08088773333098895,0.16176085714791302,0.015087999999620174,0.02272500000045901,0.28046159047898117
Row.getValue|BaseIndex.compareRows|TreeIndex.add,0.07364916666726154,0.46736736541088114,0.012483333333269305,0.0631281207585622,0.6166279861699743
Row.getValue|BaseIndex.compareRows|TreeIndex.findFirstNode,0.5638670437446819,0.05064162525559103,0.09313887980818343,0.006862844852355159,0.7145103936608115
Row.getValue|TableFilter.getValue|ExpressionColumn.getValue,0.1401719482417137,0.0,0.02494531605994548,0.0,0.16511726430165918
Row.isEmpty|ScanIndex.getNextRow|ScanCursor.next,0.0,0.05762361462062871,0.0,0.007635477030306291,0.065259091650935
Row.setValue|IndexCursor.getSearchRow|IndexCursor.find,0.026684865474709784,0.0,0.004623607244442868,0.0,0.03130847271915265
Row.setValue|Insert.insertRows|Insert.update,0.04704985185023282,0.0,0.00562333333306733,0.0,0.05267318518330015
Row.setValue|Update.update|CommandContainer.update,0.04532400000093998,0.0,0.007679999999441755,0.0,0.05300400000038173
Row.setValue|ViewCursor.next|IndexCursor.next,0.03301961675662782,0.0,0.0057662671676053,0.0,0.038785883924233114
RowList.next|Table.updateRows|Update.update,0.07041400000161957,0.0,0.01224000000001979,0.0,0.08265400000163936
RowList.next|Update.update|CommandContainer.update,0.03409499999785718,0.0,0.00568333333325831,0.0,0.03977833333111549
ScanCursor.next|IndexCursor.next|TableFilter.next,0.0,0.0,0.0,0.0,0.0
ScanCursor.next|TableData.addIndex|AlterTableAddConstraint.tryUpdate,0.0,0.05794701189290548,0.0,0.006866779177196368,0.06481379107010185
ScanIndex.getNextRow|ScanCursor.next|IndexCursor.next,1.1114769004399196,0.0,0.1735049277747004,0.0,1.2849818282146201
ScanIndex.getNextRow|ScanCursor.next|TableData.addIndex,0.0,0.26759826482668386,0.0,0.03468408269143808,0.30228234751812194
Schema.add|Database.addSchemaObject|AlterTableAddConstraint.tryUpdate,0.033356712766779484,0.0,0.0052830500190172115,0.0,0.03863976278579669
Schema.getMap|Schema.add|Database.addSchemaObject,0.02979252235141538,0.0,0.0053269616684535614,0.0,0.035119484019868946
Select.isEverything|Query.isEverything|Query.query,0.2415010395975828,0.0,0.04366053089370471,0.0,0.2851615704912875
Select.isEverything|Query.isEverything|Query.sameResultAsLast,0.13229547290457874,0.06106672414120865,0.02165367734582758,0.008586206896670147,0.2236020812882851
Select.queryFlat|Select.queryWithoutCache|Query.query,0.3692622247008057,0.25055424573273716,0.06165074227012627,0.03532756069649827,0.7167947734001674
Session.getTrace|JdbcResultSet.<init>|JdbcPreparedStatement.executeQuery,0.0,0.0,0.0,0.0,0.0
Session.getTrace|Prepared.trace|CommandContainer.update,0.0,0.0,0.0,0.0,0.0
Session.isClosed|JdbcConnection.checkClosed|JdbcConnection.checkClosed,0.19985502783956524,0.0,0.03390329801650869,0.0,0.23375832585607392
Session.isReconnectNeeded|JdbcConnection.checkClosed|JdbcConnection.checkClosed,0.4051487714323836,0.0,0.06734071428557703,0.0,0.4724894857179606
Session.isReconnectNeeded|JdbcConnection.checkClosed|JdbcStatement.checkClosed,0.38733065346447826,0.0,0.0636270811232607,0.0,0.45095773458773897
SimpleInsert.customerTable|SimpleInsert.populateForOneWarehouse|SimpleInsert.populateAllTables,0.04971940000104951,0.1495880068705716,0.006446999999752735,0.024419898882974946,0.2301743057543488
SimpleInsert.orderTable|SimpleInsert.populateForOneWarehouse|SimpleInsert.populateAllTables,0.051218666667409714,0.0,0.005429999999857197,0.0,0.05664866666726691
SimpleInsert.stockTable|SimpleInsert.populateForOneWarehouse|SimpleInsert.populateAllTables,0.0,0.035792307165357126,0.0,0.005188257830897043,0.04098056499625417
Standard.<init>|TPCC.preIteration|NativeMethodAccessorImpl.invoke0,0.007861904761999279,0.0,0.0007614285714225844,0.0,0.008623333333421863
Standard.newOrder|Submitter.runNewOrder|TPCCSubmitter.runTransaction,0.0,0.0,0.0,0.0,0.0
Standard.paymentById|Standard.payment|Submitter.runPayment,0.0,0.0,0.0,0.0,0.0
StringCache.get|ValueString.get|JdbcPreparedStatement.setString,0.0,0.034664416516466394,0.0,0.004855401613060035,0.03951981812952643
TPCC.calculateSumDB|TPCC.calculateSumDB|TPCC.preIterationMemoryDB,1.040437289912692,0.0,0.14063020748875157,0.0,1.1810674974014435
TPCCSubmitter.getNextSeed|TPCCSubmitter.runTransactions|TPCC$3.run,0.0,0.0,0.0,0.0,0.0
TPCCSubmitter.runTransactions|TPCC$3.run|end.end,0.0,0.0,0.0,0.0,0.0
Table.compareTypeSave|BaseIndex.compareValues|BaseIndex.compareRows,0.1656578083503889,0.15138443547337213,0.026116245900719887,0.02013356111520563,0.3632920508396865
Table.fireBeforeRow|Update.update|CommandContainer.update,0.0,0.0,0.0,0.0,0.0
Table.getTemplateRow|IndexCursor.getSearchRow|IndexCursor.find,0.29386701961576195,0.08479869601920764,0.04727788384000358,0.010590945945986351,0.43653454542095954
Table.getTemplateRow|ViewCursor.next|IndexCursor.next,0.056186972249950166,0.0,0.009119689331393215,0.0,0.06530666158134338
Table.validateConvertUpdateSequence|Insert.insertRows|Insert.update,0.0,0.09200731372516646,0.0,0.011510588235158175,0.10351790196032463
TableData$1.compare|ObjectArray.sort|ObjectArray.sort,0.0,0.10062449143472121,0.0,0.01224637803088148,0.1128708694656027
TableData$1.compare|TableData$1.compare|ObjectArray.sort,0.1175508467426442,0.0,0.01686800674913163,0.0,0.13441885349177582
TableData.addIndex|AlterTableAddConstraint.createIndex|AlterTableAddConstraint.tryUpdate,0.21431878032006227,0.0,0.026476401085944366,0.0,0.24079518140600664
TableData.addRowsToIndex|TableData.addIndex|AlterTableAddConstraint.createIndex,0.034777778330238686,0.040638107916372665,0.004062444522847637,0.0050586356801808115,0.0845369664496398
TableData.addRowsToIndex|TableData.addIndex|AlterTableAddConstraint.tryUpdate,0.0,0.15460100481205652,0.0,0.020368031994169665,0.1749690368062262
TableData.addRowsToIndex|TableData.addIndex|CreateIndex.update,0.0,0.022743160965074897,0.0,0.003021365552873964,0.02576452651794886
TableData.addRow|Insert.insertRows|Insert.update,0.0,0.02043049123006456,0.0,0.0026354385964298924,0.02306592982649445
TableData.doLock|TableData.lock|Insert.insertRows,0.0,0.07149189080591048,0.0,0.0097945355785546,0.08128642638446508
TableData.lock|Update.update|CommandContainer.update,0.0,0.0,0.0,0.0,0.0
TableData.traceLock|TableData.doLock|TableData.lock,0.0,0.050260354010213566,0.0,0.00631540901284396,0.05657576302305753
TableFilter.getValue|ExpressionColumn.getValue|Comparison.getValue,0.08814912940953018,0.04285493084383593,0.017443764706053223,0.006135082029665024,0.15458290698908436
TableFilter.getValue|ExpressionColumn.getValue|IndexCondition.getCurrentValue,0.03405303561502164,0.0,0.005956856173820992,0.0,0.040009891788842636
TableFilter.isOk|TableFilter.next|Select.queryFlat,0.15685873172109152,0.049811834547406064,0.025165570073619553,0.00729607797900812,0.23913221432112525
TableFilter.next|Select.queryFlat|Select.queryWithoutCache,0.43311643691502,0.04468186252571788,0.07232080909326528,0.006996453592319054,0.5571155621263222
TableFilter.reset|TableFilter.next|Select.queryFlat,0.0,0.0,0.0,0.0,0.0
Trace.isEnabled|Trace.isDebugEnabled|TraceObject.debugCodeCall,0.559236592275858,0.0,0.0978145048587991,0.0,0.657051097134657
TraceObject.debugCodeCall|JdbcResultSet.getString|TPCC.calculateSumDB,0.05094400000331613,0.0,0.008699999999953434,0.0,0.05964400000326956
TraceObject.isDebugEnabled|JdbcPreparedStatement.setInt|SimpleInsert.orderTable,0.0,0.07247747626265773,0.0,0.011687249888827085,0.08416472615148482
TraceObject.isDebugEnabled|JdbcPreparedStatement.setString|SimpleInsert.orderTable,0.0,0.06521739130434781,0.0,0.009019130434709316,0.07423652173905712
TraceSystem.<init>|Database.open|Database.openDatabase,0.06443266666853256,0.0,0.004680000000613896,0.0,0.06911266666914646
TraceSystem.isEnabled|Trace.isEnabled|Trace.isDebugEnabled,0.0,0.06006625404743764,0.0,0.012148065761067977,0.07221431980850561
TreeCursor.get|MultiVersionCursor.get|IndexCursor.get,0.0,0.0,0.0,0.0,0.0
TreeCursor.get|MultiVersionIndex.removeIfExists|MultiVersionIndex.add,0.06457016997519548,0.0,0.01004531512498625,0.0,0.07461548510018173
TreeCursor.next|MultiVersionCursor.step|MultiVersionCursor.loadNext,0.10153793094482527,0.08250531241003965,0.018543360807457863,0.012091741033172893,0.2146783451954957
TreeCursor.next|MultiVersionIndex.removeIfExists|MultiVersionIndex.add,0.06666211398782865,0.0,0.006839441424781898,0.0,0.07350155541261054
TreeIndex.add|MultiVersionIndex.add|TableData.addRow,0.07041400000161957,0.0,0.01224000000001979,0.0,0.08265400000163936
TreeIndex.add|MultiVersionIndex.add|TableData.addRowsToIndex,0.0,0.28043057924249426,0.0,0.036873682897588494,0.3173042621400828
TreeIndex.add|MultiVersionIndex.remove|TableData.removeRow,0.05296976190514952,0.0,0.0077892857145689925,0.0,0.060759047619718516
TreeIndex.balance|TreeIndex.add|MultiVersionIndex.add,0.17745215426498287,0.0,0.02100317315873769,0.0,0.19845532742372057
TreeIndex.findFirstNode|TreeIndex.find|MultiVersionIndex.find,0.32543065013661654,0.0,0.058473223614980155,0.0,0.3839038737515967
TreeIndex.findFirstNode|TreeIndex.find|MultiVersionIndex.removeIfExists,0.29550806163475013,0.0,0.042129270074743624,0.0,0.3376373317094937
TreeIndex.findFirstNode|TreeIndex.remove|MultiVersionIndex.remove,0.25579091801078385,0.0,0.041672940110456747,0.0,0.2974638581212406
TreeIndex.findFirstNode|TreeIndex.remove|MultiVersionIndex.removeIfExists,0.0588988888901238,0.0,0.009891666666387916,0.0,0.06879055555651171
TreeIndex.find|MultiVersionIndex.find|IndexCursor.find,0.06365966666635359,0.07039499999984138,0.013575000000855651,0.008388243243062206,0.15601790991011283
TreeIndex.find|MultiVersionIndex.removeIfExists|MultiVersionIndex.add,0.037076625330832114,0.12016380705796642,0.003715262899779164,0.01691001623295599,0.1778657115215337
TreeIndex.find|MultiVersionIndex.removeIfExists|MultiVersionIndex.commit,0.06691500000063873,0.0,0.010859999998501737,0.0,0.07777499999914046
TreeIndex.next|TreeCursor.next|MultiVersionCursor.step,0.2669955805741711,0.24521864013358402,0.046525399708795864,0.034161683347156496,0.5929013037637075
TreeIndex.next|TreeCursor.next|MultiVersionIndex.removeIfExists,0.08043010134213208,0.0,0.010778792147772328,0.0,0.09120889348990441
TreeIndex.remove|MultiVersionIndex.remove|TableData.removeRow,0.026308750000983608,0.0,0.0042000000000067894,0.0,0.030508750000990396
TreeIndex.replace|TreeIndex.balance|TreeIndex.add,0.03656451908634425,0.0,0.004213728653979699,0.0,0.040778247740323945
TreeIndex.set|TreeIndex.balance|TreeIndex.add,0.07044763102676063,0.0,0.00959447271268143,0.0,0.08004210373944207
TreeIndex.set|TreeIndex.replace|TreeIndex.balance,0.08702005635760779,0.0,0.008866060952386144,0.0,0.09588611730999394
TreeNode.isFromLeft|TreeIndex.replace|TreeIndex.remove,0.0,0.0040421542461126815,0.0,0.0005499547952468089,0.00459210904135949
UndoLog.getLast|Session.commit|TransactionCommand.update,0.0,0.048221660286271166,0.0,0.007589156780032639,0.05581081706630381
UndoLogRecord.commit|Session.commit|TransactionCommand.update,0.0,0.026145709626267683,0.0,0.003580520763872205,0.02972623039013989
Value.cache|ValueDecimal.get|ValueDecimal.subtract,0.0,0.04164670737767789,0.0,0.005295695591108262,0.04694240296878615
Value.cache|ValueString.get|JdbcPreparedStatement.setString,0.0,0.03605127663009867,0.0,0.004791771924789913,0.04084304855488858
Value.cache|ValueStringFixed.get|Value.convertTo,0.0,0.05451947728443098,0.0,0.00797263076034937,0.06249210804478035
Value.checkPrecision|Column.validateConvertUpdateSequence|Table.validateConvertUpdateSequence,0.06916299999890421,0.09697213418300146,0.00810250000055627,0.015129345647357465,0.1893669798298194
Value.compareTo|Database.areEqual|Comparison.compareNotNull,0.1037081624978782,0.0,0.01704706250052368,0.0,0.12075522499840188
Value.compareTypeSave|Table.compareTypeSave|BaseIndex.compareValues,0.3127391029559536,0.6423286416464248,0.047160475793411163,0.0815080078457535,1.083736228241543
Value.convertTo|Column.convert|IndexCursor.find,0.0,0.07365840310923069,0.0,0.009247502427920478,0.08290590553715117
Value.convertTo|Column.convert|Insert.insertRows,0.14820489012360474,0.12407000455134388,0.017217925926996502,0.015005534638933003,0.30449835524087815
Value.convertTo|Comparison.getValue|ConditionAndOr.getValue,0.0,0.0,0.0,0.0,0.0
Value.convertTo|ConditionNot.getValue|Expression.getBooleanValue,0.048360333331705384,0.0,0.0077799999999115235,0.0,0.05614033333161691
ValueBoolean.get|ConditionAndOr.getValue|ConditionAndOr.getValue,0.05398714285894087,0.0,0.007742857143880212,0.0,0.061730000002821084
ValueDecimal.equals|Value.cache|ValueDecimal.get,0.0,0.04669671925842518,0.0,0.006806846440661643,0.053503565699086826
ValueInt.compareSecure|Value.compareTypeSave|Table.compareTypeSave,0.27198327949532086,0.07614096346569107,0.039294923539106186,0.0108979241555009,0.39831709065561904
ValueInt.get|JdbcPreparedStatement.setInt|SimpleInsert.orderTable,0.0,0.04438399999618423,0.0,0.005676521739139614,0.05006052173532385
ValueShort.compareSecure|Value.compareTypeSave|Table.compareTypeSave,0.10853592197887352,0.33238138204779116,0.01530940665720577,0.042830190911366375,0.4990569015952368
ValueString.get|JdbcPreparedStatement.setString|SimpleInsert.stockTable,0.0,0.04749025730688495,0.0,0.006166666666742235,0.05365692397362718
ValueStringBase.getPrecision|Value.checkPrecision|Column.validateConvertUpdateSequence,0.0,0.050260354010213566,0.0,0.00631540901284396,0.05657576302305753
ValueStringBase.getString|JdbcResultSet.getString|TPCC.calculateSumDB,0.02848316666616786,0.0,0.004769999999552965,0.0,0.033253166665720826
ValueStringFixed.get|Value.convertTo|Column.convert,0.03671155555531624,0.03323463524457153,0.004155555555674558,0.0047747552566999,0.07887650161226221
ValueTimestamp.compareSecure|Value.compareTypeSave|Table.compareTypeSave,0.0,0.0,0.0,0.0,0.0
ValueTimestamp.convertScale|Column.validateConvertUpdateSequence|Table.validateConvertUpdateSequence,0.0,0.03494413039988393,0.0,0.004696600072850703,0.03964073047273463
ViewCursor.next|IndexCursor.next|TableFilter.next,0.03691648966484301,0.1024516503922377,0.005697473530271031,0.0147363453730475,0.15980195896039923
ZoneInfo.getOffsets|ZoneInfo.getOffsets|AbstractCalendar.getCalendarDate,0.09395380120842323,0.0,0.014635603771522484,0.0,0.10858940497994571
ZoneInfo.getTransitionIndex|ZoneInfo.getOffsets|ZoneInfo.getOffsets,0.12758090476321132,0.0,0.019205714284908026,0.0,0.14678661904811935
