method,package1,package2,dram1,dram2,energy
javassist.bytecode,0.09328200000163632,0.0,0.009350000000267757,0.0,0.10263200000190408
org.apache.derbyTesting.system.oe.direct,0.0,0.0,0.0,0.0,0.0
org.apache.derbyTesting.system.oe.load,0.5029045857932126,0.0,0.06930929018908782,0.0,0.5722138759823004
org.apache.derbyTesting.system.oe.util,0.07839717097414718,0.0,0.010577902722614406,0.0,0.08897507369676158
org.dacapo.h2,0.10247118595896663,0.0,0.013520079858754929,0.0,0.11599126581772157
org.dacapo.parser,0.14790833333487777,0.0,0.011470000001281733,0.0,0.1593783333361595
org.h2.command,0.44420759560245565,0.2046356053990523,0.06272957383751955,0.027358370097867235,0.7389311449368947
org.h2.command.dml,1.753143560318984,0.0,0.24131559997291635,0.0,1.9944591602919004
org.h2.constraint,0.0,0.0,0.0,0.0,0.0
org.h2.engine,0.920181844017272,0.0603452389595132,0.1297313373092449,0.008688570929146497,1.1189469912151764
org.h2.expression,1.0173392092994835,0.7514924108992487,0.1494002487343477,0.09647714562056198,2.0147090145536417
org.h2.index,7.503048692936073,2.823082704432395,1.0693945563144622,0.35400439660286126,11.74953035028579
org.h2.jdbc,1.596815796879945,0.0,0.2164723288532887,0.0,1.8132881257332336
org.h2.log,0.08670752381086848,0.0,0.011554732142139115,0.0,0.0982622559530076
org.h2.message,0.39993153090647693,0.0,0.05311313946475599,0.0,0.4530446703712329
org.h2.result,1.9850465112893014,0.37357073904836124,0.2811100869059723,0.046475649020508866,2.686202986264144
org.h2.store,0.045293080460647485,0.0,0.005286034482426543,0.0,0.05057911494307403
org.h2.table,1.7852606181352673,0.990986999987702,0.2648948184138554,0.13557000000037078,3.1767124365371955
org.h2.util,1.7239589478626451,0.15833086065973104,0.23255285625390834,0.02053810128280537,2.13538076605909
org.h2.value,2.3749183921786434,0.15524739394172546,0.29817162808485864,0.018372727272214954,2.846710141477443
sun.net.www.protocol.file,0.011073714286404928,0.0,0.0011657142864091186,0.0,0.012239428572814046
sun.reflect,0.006756863849753506,0.0,0.0006664788732092013,0.0,0.007423342722962707
