method,package1,package2,dram1,dram2,energy
AbstractStringBuilder.<init>|StringBuffer.<init>|Timestamp.toString,0.1389456403708187,0.05642700000316836,0.02097932548955,0.00718499999948108,0.22353696586301813
AbstractStringBuilder.<init>|StringBuilder.<init>|Timestamp.toString,0.16284060749538357,0.29350022221074645,0.025067794775807176,0.04810055555518138,0.5295091800371186
AbstractStringBuilder.<init>|StringBuilder.<init>|ValueTimestamp.convertScale,0.0,0.07506938297778339,0.0,0.009501702127616885,0.08457108510540028
AbstractStringBuilder.append|StringBuffer.append|OERandom.randomState,0.0,0.04337110256668753,0.0,0.005158461538415465,0.04852956410510299
AbstractStringBuilder.append|StringBuffer.append|Timestamp.toString,0.03578754623267135,0.16900708224669553,0.005838292190330563,0.02441327006353155,0.235046190733229
AbstractStringBuilder.append|StringBuilder.append|BigDecimal.layoutChars,0.0,0.08393874999819673,0.0,0.011572500000056607,0.09551124999825333
AbstractStringBuilder.ensureCapacityInternal|AbstractStringBuilder.append|StringBuffer.append,0.04930970918278087,0.13803413561407812,0.007871133945563536,0.018501060263761287,0.21371603900618383
AbstractStringBuilder.ensureCapacityInternal|AbstractStringBuilder.append|StringBuilder.append,0.0,0.10362810303265638,0.0,0.016061547880758236,0.11968965091341462
AbstractStringBuilder.newCapacity|AbstractStringBuilder.ensureCapacityInternal|AbstractStringBuilder.append,0.0,0.315593194443055,0.0,0.047760555555248205,0.3633537499983032
ArrayList$Itr.next|Session.commit|TransactionCommand.update,0.0,0.03440760000182005,0.0,0.004488000000128523,0.03889560000194857
ArrayList.<init>|CodeAttribute.<init>|AttributeInfo.read,0.0,0.05064699999929871,0.0,0.006552000000010593,0.0571989999993093
ArrayList.rangeCheck|ArrayList.get|DataType.getDataType,0.0,0.07355333333287169,0.0,0.008261764705821406,0.0818150980386931
Arrays.copyOfRange|String.<init>|String.substring,0.0,0.03707318518448759,0.0,0.004219999999838397,0.04129318518432599
Arrays.copyOfRange|String.<init>|StringBuilder.toString,0.03300118607284574,0.07913204762319634,0.00512091091560919,0.012843214285134134,0.13009735889678542
Arrays.copyOfRange|String.<init>|Timestamp.toString,0.0,0.02515907692334925,0.0,0.002923076923112743,0.028082153846461993
Arrays.copyOfRange|StringBuffer.toString|Timestamp.toString,0.05238069157026943,0.0,0.008134901074242543,0.0,0.06051559264451197
Arrays.copyOf|AbstractStringBuilder.ensureCapacityInternal|AbstractStringBuilder.append,0.0,0.03258169696941464,0.0,0.003949090908987053,0.036530787878401694
AtomicLong.compareAndSet|Random.next|Random.nextDouble,0.0,0.8776321182020573,0.0,0.12722314554511946,1.0048552637471768
AtomicLong.get|Random.next|Random.nextDouble,0.0,0.07843688889341946,0.0,0.011643333333470056,0.09008022222688952
BigDecimal.<init>|BigDecimal.<init>|BigDecimal.<init>,0.0,0.06852586380135949,0.0,0.008567598566273562,0.07709346236763305
BigDecimal.<init>|BigDecimal.<init>|Value.convertTo,0.0,0.02005504280617122,0.0,0.0026266767739057608,0.02268171958007698
BigDecimal.<init>|ValueTimestamp.convertScale|Column.validateConvertUpdateSequence,0.0,0.017944380000117232,0.0,0.00277379999999539,0.02071818000011262
BigDecimal.checkScale|BigDecimal.movePointLeft|ValueTimestamp.convertScale,0.0,0.022631052806288115,0.0,0.0028566213136627587,0.025487674119950874
BigDecimal.divideAndRound|BigDecimal.setScale|BigDecimal.toBigInteger,0.0,0.08034408602107894,0.0,0.012145376343810101,0.09248946236488904
BigDecimal.equals|ValueDecimal.equals|Value.cache,0.0,0.0379386048923763,0.0,0.00513836931935572,0.04307697421173202
BigDecimal.layoutChars|BigDecimal.toString|ValueDecimal.getString,0.0,0.06500911110843945,0.0,0.00725333333321032,0.07226244444164977
BigDecimal.movePointLeft|ValueTimestamp.convertScale|Column.validateConvertUpdateSequence,0.0,0.02339552688257148,0.0,0.002823225806482257,0.02621875268905374
BigDecimal.setScale|MathUtils.setScale|ValueTimestamp.convertScale,0.0,0.010832519999239593,0.0,0.001836900000089372,0.012669419999328965
BigDecimal.toString|ValueDecimal.getString|JdbcResultSet.getString,0.0,0.02515907692334925,0.0,0.002923076923112743,0.028082153846461993
BigDecimal.valueOf|BigDecimal.valueOf|BigDecimal.divideAndRound,0.0,0.09849334512065659,0.0,0.012902686949620618,0.1113960320702772
BigInteger.add|BigInteger.add|BigDecimal.add,0.0,0.0,0.0,0.0,0.0
BigInteger.multiply|BigDecimal.<init>|BigDecimal.<init>,0.0,0.0,0.0,0.0,0.0
BigInteger.smallToString|BigInteger.toString|BigInteger.toString,0.0,0.21187396769809613,0.0,0.021994261538628698,0.23386822923672484
BigInteger.toString|BigInteger.toString|ValueDecimal.getPrecision,0.0,0.03543083333352115,0.0,0.006695000000036089,0.04212583333355724
Boolean.equals|Delete.update|CommandContainer.update,0.011239063302906593,0.0,0.0013871715488824464,0.0,0.012626234851789039
BufferedInputStream.<init>|BufferedInputStream.<init>|CtClassType.getClassFile3,0.0,0.045695000007981434,0.0,0.006845000000491078,0.05254000000847251
BufferedInputStream.read|DataInputStream.readUnsignedShort|MemberrefInfo.<init>,0.0,0.006027250000139853,0.0,0.0006787499998305673,0.0067059999999704205
ClassLoader.defineClass1|ClassLoader.defineClass|SecureClassLoader.defineClass,0.0,0.31515749292356343,0.0,0.04409790476853062,0.359255397692094
ClassLoader.findBootstrapClass|ClassLoader.findBootstrapClassOrNull|ClassLoader.loadClass,0.0,0.13809115151481377,0.0,0.019915909091099762,0.15800706060591352
Currency$CurrencyNameGetter.getObject|Currency$CurrencyNameGetter.getObject|LocaleServiceProviderPool.getLocalizedObjectImpl,0.0,0.0,0.0,0.0,0.0
Date.normalize|Date.getDate|Timestamp.toString,0.0,0.07157707692225439,0.0,0.010861692307550514,0.0824387692298049
Date.normalize|Date.getHours|Timestamp.toString,0.0,0.11989333333137134,0.0,0.016997500000191696,0.13689083333156304
Date.normalize|Date.getMinutes|Timestamp.toString,0.0,0.1710414351895182,0.0,0.02503083333403487,0.19607226852355308
Date.normalize|Date.getSeconds|Timestamp.toString,0.0,0.025826571430245943,0.0,0.004892142856988357,0.0307187142872343
Date.normalize|Date.getYear|Timestamp.toString,0.0,0.07172957691979648,0.0,0.010615192307714329,0.0823447692275108
DriverManager.registerDriver|DriverManager.registerDriver|Driver.load,0.0,0.052617818179318085,0.0,0.006709090908771032,0.059326909088089116
FileOutputStream.writeBytes|FileOutputStream.write|BufferedOutputStream.write,0.0,0.02177941666620124,0.0,0.003513750000062525,0.025293166666263765
HashMap.getNode|HashMap.get|ExpressionColumn.getValue,0.07671377307873645,0.03419422813306426,0.010633584009273637,0.00532710626540493,0.12686869148647928
HashMap.hash|HashMap.get|ExpressionColumn.getValue,0.059810533803908016,0.0,0.008956602694777516,0.0,0.06876713649868553
HashMap.hash|HashMap.remove|HashSet.remove,0.0,0.1363966068437209,0.0,0.02183016945135649,0.1582267762950774
HashMap.newNode|HashMap.putVal|HashMap.put,0.0,0.0,0.0,0.0,0.0
HashMap.putVal|HashMap.put|HashSet.add,0.0,0.0902739384049099,0.0,0.009561089950896356,0.09983502835580625
HashMap.putVal|HashMap.put|ScanIndex.incrementRowCount,0.0,0.12950342857844327,0.0,0.01863321428559824,0.14813664286404152
HashMap.removeNode|HashMap.remove|HashSet.remove,0.0,0.40461755027469193,0.0,0.05612692487790111,0.46074447515259304
HashSet.<init>|IndexCursor.find|TableFilter.next,0.05240866666766426,0.0,0.010699999998905696,0.0,0.06310866666656995
Hashtable.<init>|Hashtable.<init>|Properties.<init>,0.0,0.06833029955428056,0.0,0.006985494525876301,0.07531579408015686
IdentityHashMap.get|StatementHelper.prepareStatement|Standard.paymentById,0.0,0.0,0.0,0.0,0.0
Inflater.inflateBytes|Inflater.inflate|InflaterInputStream.read,0.0,0.567427148110549,0.0,0.07205107692302952,0.6394782250335784
Integer.getChars|AbstractStringBuilder.append|StringBuilder.append,0.0,0.0912388571388354,0.0,0.014772857142816063,0.10601171428165146
Integer.getChars|Integer.toString|String.valueOf,0.23957678570217877,0.0887585185183626,0.03717459695004146,0.011173333332947179,0.37668323450353
Integer.getChars|Integer.toString|Timestamp.toString,0.07805405995128908,0.34753685103710313,0.011932142110865483,0.05079924082131966,0.4883222939205773
Integer.stringSize|Integer.toString|String.valueOf,0.047939380672586726,0.0,0.006919155675631097,0.0,0.05485853634821782
Integer.toString|String.valueOf|ValueInt.getString,0.2245717170272726,0.30684631687962505,0.03488498588306073,0.045285243200774504,0.611588262990733
Integer.toString|String.valueOf|ValueShort.getString,0.4125222993924807,0.5980043231806715,0.06309481063097783,0.0898570619394803,1.1634784951436103
Integer.toString|Timestamp.toString|ValueTimestamp.getString,0.6256129133547389,0.4436544843055215,0.09682003284448612,0.05990903346595475,1.2259964639707013
Long.getChars|Long.toString|Long.toString,0.0,0.0564553693887388,0.0,0.006929933187728333,0.06338530257646714
MutableBigInteger.divideMagnitude|MutableBigInteger.divideKnuth|MutableBigInteger.divide,0.0,0.0247231360586462,0.0,0.0037072165414369,0.0284303526000831
Object.clone|Date.clone|ValueTimestamp.getTimestamp,0.02050783333349197,0.0,0.002717499999865443,0.0,0.023225333333357412
Object.hashCode|HashMap.hash|HashMap.remove,0.0,0.14761980011806214,0.0,0.021407075460239733,0.16902687557830187
Object.wait|Command.executeUpdate|JdbcPreparedStatement.executeUpdateInternal,0.0,0.0,0.0,0.0,0.0
Random.nextDouble|OERandom.randomInt|OERandom.randomAString26_50,0.0,0.09353299415897276,0.0,0.014063944539500706,0.10759693869847346
Random.next|Random.nextDouble|OERandom.randomAString,0.0,0.035865523805287444,0.0,0.0058685714286097895,0.041734095233897234
Random.next|Random.nextDouble|OERandom.randomInt,0.0,0.15668213927310015,0.0,0.022903605315945406,0.17958574458904555
SimpleDateFormat.initializeCalendar|SimpleDateFormat.<init>|SimpleDateFormat.<init>,0.0,0.07069099999789613,0.0,0.010692000000199185,0.08138299999809531
String.<init>|Timestamp.toString|ValueTimestamp.getString,0.0,0.033037428569514304,0.0,0.005888571428710875,0.03892599999822518
String.charAt|TPCC.calculateSumDB|TPCC.calculateSumDB,0.0,0.5036495295851736,0.0,0.06687294372257915,0.5705224733077527
String.concat|OERandom.randomAString8_16|SimpleInsert.customerTable,0.0,0.06148622798544464,0.0,0.007997725112151036,0.06948395309759567
String.getChars|AbstractStringBuilder.append|StringBuffer.append,0.023275503064699804,0.10467241005433067,0.003350916640207164,0.01625468253978541,0.14755351229902305
String.getChars|AbstractStringBuilder.append|StringBuilder.append,0.03143560095288321,0.0,0.0045298885774944855,0.0,0.035965489530377696
String.hashCode|HashMap.hash|HashMap.put,0.016637472990755475,0.0,0.0019352468688425921,0.0,0.018572719859598068
String.hashCode|StringCache.get|ValueString.get,0.0,0.08724095178914631,0.0,0.013349195412694276,0.10059014720184059
String.length|AbstractStringBuilder.append|StringBuilder.append,0.0586379283422766,0.0,0.009288066191600422,0.0,0.06792599453387703
String.length|TPCC.calculateSumDB|TPCC.calculateSumDB,0.0,0.11027426666599542,0.0,0.016772000000249438,0.12704626666624486
String.length|Timestamp.toString|ValueTimestamp.getString,0.0,0.08393874999819673,0.0,0.011572500000056607,0.09551124999825333
String.substring|Timestamp.toString|ValueTimestamp.getString,0.09847386298101976,0.0,0.015158976157622774,0.0,0.11363283913864253
String.toCharArray|BigDecimal.<init>|ValueTimestamp.convertScale,0.0,0.06286656613344475,0.0,0.007773557386544542,0.0706401235199893
String.toUpperCase|StringUtils.toUpperEnglish|JdbcResultSet.getColumnIndex,0.0,0.0,0.0,0.0,0.0
String.valueOf|ValueInt.getString|JdbcResultSet.getString,0.024065481297595046,0.0,0.003504788970355487,0.0,0.02757027026795053
StringBuffer.append|OERandom.randomDecimalString|SimpleInsert.orderTable,0.0,0.015073200000333596,0.0,0.0017648999999437364,0.016838100000277332
StringBuffer.append|Standard.payment|Submitter.runPayment,0.0,0.0,0.0,0.0,0.0
StringBuffer.append|Timestamp.toString|ValueTimestamp.getString,0.22132373508636527,0.0,0.03541206749200902,0.0,0.2567358025783743
StringBuffer.toString|OERandom.randomDecimalString|SimpleInsert.customerTable,0.0,0.03687456409851363,0.0,0.004393846153853258,0.04126841025236689
StringBuffer.toString|Timestamp.toString|ValueTimestamp.getString,0.08594813719757868,0.0,0.012885639604114409,0.0,0.09883377680169309
StringBuilder.<init>|Timestamp.toString|ValueTimestamp.getString,0.038817371395597794,0.0,0.00626389805384252,0.0,0.04508126944944031
StringBuilder.append|Timestamp.toString|ValueTimestamp.getString,0.0,0.08691428571390653,0.0,0.010847142857528523,0.09776142857143505
StringBuilder.toString|BigDecimal.layoutChars|BigDecimal.toString,0.0,0.06673185185408564,0.0,0.011071111111151466,0.07780296296523712
StringBuilder.toString|Timestamp.toString|ValueTimestamp.getString,0.03631537436899454,0.0,0.005110792788996828,0.0,0.04142616715799137
Throwable.fillInStackTrace|Throwable.<init>|Exception.<init>,0.0,0.049659080517063234,0.0,0.007880732232461468,0.0575398127495247
Throwable.fillInStackTrace|Throwable.fillInStackTrace|Throwable.<init>,0.01126704999987851,0.06785066666391988,0.0016192499999306165,0.009509999999863794,0.0902469666635928
TimeZone.getDefaultRef|Date.normalize|Date.getDate,0.0,0.03983550000217898,0.0,0.0047800000002098395,0.04461550000238882
Timestamp.getTime|Date.equals|Timestamp.equals,0.0,0.0260552222235775,0.0,0.003181666666730759,0.02923688889030826
Timestamp.toString|ValueTimestamp.getString|JdbcResultSet.getString,0.10816693018957774,0.38363076305006494,0.0147571826701822,0.05248285859658057,0.5590377345064054
UnixFileSystem.getLastModifiedTime|File.lastModified|ZipFile.<init>,0.0,0.06560181818547955,0.0,0.008950909091006244,0.07455272727648579
ZipFile$ZipFileInputStream.read|ZipFile$ZipFileInflaterInputStream.fill|InflaterInputStream.read,0.0,0.06474576282310478,0.0,0.008272499999899688,0.07301826282300447
ZipFile.read|ZipFile.access$1400|ZipFile$ZipFileInputStream.read,0.0,0.05039317948625793,0.0,0.006606923076852136,0.05700010256311007
