method,hits
AbstractStringBuilder.<init>,34
AbstractStringBuilder.append,20
AbstractStringBuilder.ensureCapacityInternal,26
ArrayList$Itr.next,2
ArrayList.add,2
Arrays.copyOf,4
Arrays.copyOfRange,20
AtomicLong.compareAndSet,16
BigDecimal.<init>,14
BigDecimal.divideAndRound,4
BigDecimal.layoutChars,2
BigDecimal.movePointLeft,4
BigDecimal.toString,2
BigDecimal.valueOf,6
BigInteger.<init>,2
BigInteger.add,2
BigInteger.smallToString,2
BigInteger.toString,2
BigInteger.valueOf,4
BufferedInputStream.<init>,2
BufferedInputStream.read,4
BufferedInputStream.read1,2
Calendar.<clinit>,2
Character.isDigit,2
CharacterDataLatin1.toUpperCaseEx,4
CharsetEncoder.reset,2
Class.forName0,2
ClassLoader.defineClass1,8
ClassLoader.findBootstrapClass,4
ClassLoader.loadClass,2
CodeSource.equals,2
CodeSource.matchCerts,2
ComparableTimSort.binarySort,2
DataInputStream.readFully,2
DataInputStream.readUTF,2
Date.clone,2
Date.getDate,2
Date.getHours,4
Date.getSeconds,2
Date.normalize,2
DecimalFormatSymbols.initialize,2
DriverManager.loadInitialDrivers,2
FileOutputStream.writeBytes,8
Formatter.parse,2
HashMap.getNode,10
HashMap.hash,10
HashMap.newNode,2
HashMap.putVal,10
HashMap.removeNode,4
HashMap.resize,4
Hashtable$Enumerator.nextElement,2
IdentityHashMap.get,2
Inflater.inflate,2
Inflater.inflateBytes,20
Integer.getChars,38
Integer.stringSize,4
Integer.toString,156
Integer.valueOf,10
Locale.getDefault,2
Long.getChars,2
Long.toString,2
MessageFormat.makeFormat,2
MutableBigInteger.getMagnitudeArray,2
Object.clone,2
Object.hashCode,8
Object.wait,54
Package.getSystemPackage0,2
Random.next,6
Random.nextDouble,2
SQLException.<init>,2
SoftReference.get,2
String.charAt,6
String.equals,2
String.getChars,6
String.hashCode,4
String.length,6
String.regionMatches,2
String.toCharArray,4
String.toUpperCase,4
String.valueOf,6
StringBuffer.append,32
StringBuffer.length,2
StringBuffer.setLength,2
StringBuffer.toString,6
StringBuilder.append,4
StringBuilder.toString,4
System.currentTimeMillis,2
ThreadGroup.add,2
Throwable.fillInStackTrace,20
Timestamp.toString,16
URLClassLoader$1.<init>,2
URLStreamHandler.getHostAddress,2
URLStreamHandler.parseURL,2
