method,package1,package2,dram1,dram2,energy
AbstractStringBuilder,0.5958506686073926,0.7203058920828213,0.1004322053178299,0.09635257708865709,1.5129413430967007
ArrayList,0.03504050434928612,0.0,0.00288567138223759,0.0,0.03792617573152371
Arrays,0.26449923446811113,0.39464219295483416,0.04262614284867443,0.04417353096979538,0.745941101241415
AtomicLong,0.3258156137342987,0.0,0.04452455118468543,0.0,0.37034016491898414
BigDecimal,0.2396678706958907,0.1118506759060382,0.03199884190561792,0.013477003667698547,0.3969943921752454
BigInteger,0.22993092921039582,0.0,0.03024849211063571,0.0,0.26017942132103156
Boolean,0.06308362222462485,0.0,0.010411167491089824,0.0,0.07349478971571467
BufferedInputStream,0.05089667727634321,0.0,0.003096250681915797,0.0,0.053992927958259
Character,0.0,0.004306575212830043,0.0,0.0003518289375958864,0.004658404150425929
ClassLoader,0.19236675323795774,0.0,0.013340231944970138,0.0,0.20570698518292788
Date,0.20596612574600043,0.3590909549312212,0.029301478907914732,0.0278026550486112,0.6221612146337475
DateFormatSymbols,0.02721960997903066,0.0,0.002571866421999474,0.0,0.029791476401030133
FileOutputStream,0.13194888374762678,0.0,0.009711741120500285,0.0,0.14166062486812706
Formatter,0.006894152994653013,0.0,0.0007151297696852105,0.0,0.007609282764338224
HashMap,0.4977927062027006,0.0,0.0630593645139831,0.0,0.5608520707166837
HashSet,0.143394328066123,0.0,0.01335072466806881,0.0,0.15674505273419181
Inflater,0.3273439235519099,0.0,0.027034917157792982,0.0,0.3543788407097029
Integer,1.6209184724231722,2.1420657369900726,0.2677157246848004,0.32245556033437917,4.353155494432425
JarFile,0.04864992276859745,0.0,0.003964782528234964,0.0,0.05261470529683241
Locale,0.0,0.0,0.0,0.0,0.0
Long,0.0224796923075934,0.0,0.003279999999601084,0.0,0.025759692307194486
MessageFormat,0.0,0.0,0.0,0.0,0.0
Object,0.2119859030739984,0.0,0.026879588493374695,0.0,0.23886549156737308
Pattern,0.03150867708024162,0.0,0.0019666232721784888,0.0,0.033475300352420106
Random,0.2751792030390826,0.0,0.032409444411260355,0.0,0.307588647450343
SoftReference,0.022361931382456224,0.0,0.0036211031888679188,0.0,0.025983034571324143
String,0.4387365406610725,0.3683805992081509,0.0622694059616769,0.04907855930717847,0.9184651051380788
StringBuffer,0.2859903320509465,0.18527228339090118,0.04711039827535756,0.018985761703508984,0.5373587754207142
StringBuilder,0.10280397281746206,0.0,0.017376529906315292,0.0,0.12018050272377735
System,0.01763511028488859,0.0,0.0021483380017661923,0.0,0.019783448286654782
Throwable,0.0,0.08346581563770486,0.0,0.010775689640812313,0.09424150527851717
TimeZone,0.0137746670020339,0.04087102109459828,0.0006732695837673178,0.0033772421473754243,0.05869619982777492
Timestamp,0.2462070184572617,0.17705630491175584,0.04071733214432454,0.022376741347905207,0.48635739686124724
URLClassLoader,0.04752065976844778,0.0,0.0030508070101475607,0.0,0.050571466778595336
ZipFile$ZipFileInputStream,0.0440464735136638,0.0,0.00306017457915578,0.0,0.04710664809281958
