method,hits
AbstractStringBuilder.<init>,24
AbstractStringBuilder.append,12
AbstractStringBuilder.ensureCapacityInternal,22
AbstractStringBuilder.newCapacity,12
Arrays.copyOf,10
Arrays.copyOfRange,28
AtomicLong.compareAndSet,10
BigDecimal.<init>,10
BigDecimal.divideAndRound,6
BigDecimal.longMultiplyPowerTen,2
BigDecimal.multiply,2
BigDecimal.valueOf,2
BigInteger.<init>,2
BigInteger.add,2
BigInteger.implSquareToLen,2
BigInteger.valueOf,2
BufferedOutputStream.write,2
Calendar$Builder.build,2
Calendar.getTime,2
ClassLoader.defineClass1,12
ClassLoader.findBootstrapClass,2
Collections$SynchronizedCollection.toArray,2
ComparableTimSort.binarySort,2
DataInputStream.readUnsignedShort,2
Date.getMinutes,2
Date.getTimeImpl,4
Date.getYear,2
Date.normalize,6
DecimalFormat.<init>,2
FileOutputStream.writeBytes,4
HashMap.<init>,2
HashMap.get,2
HashMap.getNode,12
HashMap.hash,6
HashMap.newNode,2
HashMap.put,4
HashMap.putVal,4
HashMap.removeNode,10
HashMap.resize,4
Inflater.inflateBytes,16
Integer.getChars,36
Integer.parseInt,2
Integer.stringSize,8
Integer.toString,154
Long.getChars,2
Long.signum,2
MathContext.<clinit>,2
MessageFormat.applyPattern,2
Object.<init>,2
Object.hashCode,8
Object.wait,58
Random.next,10
Random.nextDouble,6
ServiceLoader.parseLine,2
SimpleDateFormat.initializeCalendar,2
String.charAt,8
String.getChars,22
String.hashCode,2
String.length,2
String.toCharArray,2
String.toUpperCase,6
String.valueOf,6
StringBuffer.append,26
StringBuffer.toString,6
StringBuilder.append,4
StringBuilder.toString,8
System.currentTimeMillis,2
Throwable.fillInStackTrace,12
Throwable.getStackTraceElement,2
TimeZone.getDefaultRef,4
Timestamp.toString,16
URLClassLoader.findClass,2
URLStreamHandler.parseURL,2
Vector.<init>,2
ZipFile$ZipFileInflaterInputStream.available,2
ZipFile.read,4
