method,hits
AbstractStringBuilder.<init>,24
AbstractStringBuilder.append,12
AbstractStringBuilder.ensureCapacityInternal,18
AbstractStringBuilder.newCapacity,6
ArrayList.add,2
Arrays.copyOf,4
Arrays.copyOfRange,30
AtomicLong.compareAndSet,20
BigDecimal$StringBuilderHelper.putIntCompact,2
BigDecimal.<clinit>,2
BigDecimal.<init>,18
BigDecimal.divideAndRound,4
BigDecimal.hashCode,2
BigDecimal.layoutChars,2
BigDecimal.movePointRight,2
BigDecimal.setScale,6
BigDecimal.valueOf,2
BigInteger.<init>,4
BigInteger.signInt,2
BigInteger.smallToString,2
BigInteger.toString,2
BigInteger.valueOf,2
Boolean.booleanValue,2
BufferedInputStream.read,2
ClassLoader.defineClass1,10
Date.getTime,4
Date.getTimeImpl,2
Date.getYear,2
Date.normalize,8
DriverManager.registerDriver,2
FileOutputStream.writeBytes,6
Formatter$Conversion.isGeneral,2
Formatter.parse,2
HashMap$Node.<init>,2
HashMap.getNode,8
HashMap.hash,10
HashMap.newNode,2
HashMap.put,4
HashMap.putVal,2
HashMap.removeNode,16
HashSet.<init>,2
HashSet.remove,2
Inflater.inflateBytes,18
Integer.getChars,62
Integer.stringSize,6
Integer.toString,135
Integer.valueOf,2
LinkedHashMap.afterNodeAccess,2
Long.getChars,2
MutableBigInteger.divideKnuth,2
Object.<init>,2
Object.hashCode,4
Object.wait,40
PrintStream.format,2
Properties.getProperty,2
Random.next,22
Random.nextDouble,4
SimpleDateFormat.<clinit>,2
SoftReference.get,2
String.<init>,4
String.charAt,12
String.concat,2
String.endsWith,2
String.equals,2
String.getChars,12
String.hashCode,4
String.length,4
String.substring,6
String.toCharArray,2
StringBuffer.append,26
StringBuffer.length,4
StringBuffer.setLength,2
StringBuffer.toString,8
StringBuilder.append,6
StringBuilder.toString,12
System.nanoTime,2
ThreadLocal$ThreadLocalMap.getEntry,2
Throwable.fillInStackTrace,8
Timestamp.toString,24
URL.<init>,2
ZipFile.read,2
