method,package1,package2,dram1,dram2,energy
AbstractCalendar.getCalendarDate|Gregorian.getCalendarDate|Gregorian.getCalendarDate,0.14328694370114414,0.0,0.025394378104455308,0.0,0.16868132180559944
AbstractCalendar.setTimeOfDay|AbstractCalendar.getCalendarDate|Gregorian.getCalendarDate,0.13428265160529143,0.0,0.02452061833974331,0.0,0.15880326994503474
AbstractCollection.<init>|AbstractList.<init>|ArrayList.<init>,0.0,0.11570716309255034,0.0,0.020740336431303,0.13644749952385335
AbstractStringBuilder.<init>|StringBuffer.<init>|Timestamp.toString,0.09426187959125262,0.0,0.01713826303461893,0.0,0.11140014262587156
AbstractStringBuilder.<init>|StringBuilder.<init>|Timestamp.toString,0.044505186222822325,0.04223024033875444,0.006560439650101648,0.006056851644044567,0.09935271785572299
AbstractStringBuilder.append|StringBuffer.append|Timestamp.toString,0.276206629125204,0.12784268366394264,0.04945094118043342,0.020019522781332098,0.47351977675091217
AbstractStringBuilder.append|StringBuilder.append|Timestamp.toString,0.0581697292506263,0.016830347710605195,0.010807886880804581,0.0020840481034446025,0.08789201194548069
AbstractStringBuilder.ensureCapacityInternal|AbstractStringBuilder.append|StringBuffer.append,0.1319304386215821,0.09987892674566407,0.01997560615271431,0.01817127493492861,0.2699562464548891
AbstractStringBuilder.ensureCapacityInternal|AbstractStringBuilder.append|StringBuilder.append,0.032762853114491904,0.0,0.005762991299160592,0.0,0.0385258444136525
AbstractStringBuilder.newCapacity|AbstractStringBuilder.ensureCapacityInternal|AbstractStringBuilder.append,0.0,0.05360340815925235,0.0,0.00905720081346005,0.0626606089727124
Address.setState|StatementHelper.getAddress|StatementHelper.getAddress,0.016052249999726573,0.0,0.0023737499999090987,0.0,0.01842599999963567
AggregateData.groupDistinct|AggregateData.getValue|Aggregate.getValue,0.0,0.06225793928112685,0.0,0.0075565301284809235,0.06981446940960777
ArrayDeque.pollFirst|ArrayDeque.poll|ZipFile.getInflater,0.05928208771914351,0.0,0.0056678947361784564,0.0,0.06494998245532196
Arrays.copyOfRange|String.<init>|String.substring,0.06561855742183846,0.10628299940189334,0.010673920152013305,0.017710128364599537,0.20028560534034465
Arrays.copyOfRange|String.<init>|StringBuilder.toString,0.025616690913085164,0.06275995193265643,0.0029475981283861303,0.009502186566061246,0.10082642754018897
Arrays.copyOfRange|String.<init>|Timestamp.toString,0.05676969753845239,0.0,0.010107380226888759,0.0,0.06687707776534114
Arrays.copyOfRange|StringBuffer.toString|Timestamp.toString,0.019515655475114326,0.0,0.003697122656739368,0.0,0.023212778131853695
Arrays.copyOf|AbstractStringBuilder.ensureCapacityInternal|AbstractStringBuilder.append,0.07434217069054876,0.06746840767524587,0.013555772588184037,0.010542595365909258,0.16590894631988792
Arrays.copyOf|String.concat|OERandom.randomAString10_20,0.016599365091168626,0.0,0.0024575312659259824,0.0,0.019056896357094608
AtomicLong.compareAndSet|Random.next|Random.nextDouble,0.08374981981874949,0.0,0.010477298976941465,0.0,0.09422711879569096
AtomicLong.get|Random.next|Random.nextDouble,0.043576238094136084,0.0,0.0044864285714755255,0.0,0.04806266666561161
BaseCalendar.getCalendarDateFromFixedDate|AbstractCalendar.getCalendarDate|Gregorian.getCalendarDate,0.0474834757886861,0.0,0.00705190459324472,0.0,0.05453538038193082
BaseCalendar.getFixedDate|BaseCalendar.getCalendarDateFromFixedDate|AbstractCalendar.getCalendarDate,0.019519832360160614,0.0,0.0032666346620879873,0.0,0.0227864670222486
BaseCalendar.isLeapYear|AbstractCalendar.getCalendarDate|Gregorian.getCalendarDate,0.029171014687071336,0.0,0.005289367339893308,0.0,0.034460382026964644
BaseIndex.compareKeys|TreeIndex.add|MultiVersionIndex.add,0.0,0.0629507209812854,0.0,0.008584612141181964,0.07153533312246736
BaseIndex.compareRows|MultiVersionIndex.compareRows|MultiVersionCursor.next,0.0,0.046506136835848984,0.0,0.006572989634001186,0.05307912646985017
BaseIndex.compareRows|MultiVersionIndex.compareRows|TableData$1.compare,0.27168706789825314,0.050891789537352725,0.03407899392134372,0.00656887154925522,0.36322672290620484
BaseIndex.compareRows|TreeCursor.next|MultiVersionCursor.step,0.06901813549695632,0.3287174152263415,0.007336622127702478,0.0546988463268745,0.4597710191778748
BaseIndex.compareRows|TreeCursor.next|MultiVersionIndex.removeIfExists,0.0,0.047525999999682725,0.0,0.006430000000060923,0.053955999999743647
BaseIndex.compareRows|TreeIndex.add|MultiVersionIndex.add,0.4466116716643055,0.09480508958266456,0.05353609807389029,0.013910742997176836,0.6088636023180372
BaseIndex.compareRows|TreeIndex.findFirstNode|TreeIndex.find,0.06191171006867101,0.8392985849444285,0.009330961496145205,0.14129223343209873,1.0518334899413435
BaseIndex.compareRows|TreeIndex.findFirstNode|TreeIndex.remove,0.03942649962531403,0.0,0.0047062010221338366,0.0,0.04413270064744787
BaseIndex.compareValues|BaseIndex.compareRows|MultiVersionIndex.compareRows,0.11729330784418542,0.1044248433022099,0.015049823619356188,0.014368981215290599,0.25113695598104213
BaseIndex.compareValues|BaseIndex.compareRows|TreeIndex.add,0.11396692541150595,0.127012309040966,0.015816903552766645,0.01838914549152934,0.27518528349676796
BaseIndex.compareValues|BaseIndex.compareRows|TreeIndex.findFirstNode,0.033651012499922216,0.1576519569547612,0.003890250000085871,0.023265578059937033,0.21845879751470632
BigDecimal.<init>|BigDecimal.<init>|BigDecimal.<init>,0.09766543077817018,0.0,0.012619119626633063,0.0,0.11028455040480324
BigDecimal.<init>|BigDecimal.<init>|Value.convertTo,0.0,0.0,0.0,0.0,0.0
BigDecimal.<init>|ValueTimestamp.convertScale|Column.validateConvertUpdateSequence,0.16248883873309203,0.0,0.02335864618817739,0.0,0.18584748492126943
BigDecimal.divideAndRound|BigDecimal.setScale|BigDecimal.toBigInteger,0.06892906666810934,0.0,0.007916000001326516,0.0,0.07684506666943586
BigDecimal.movePointRight|ValueTimestamp.convertScale|Column.validateConvertUpdateSequence,0.10510533360767033,0.0,0.013896804714808232,0.0,0.11900213832247855
BigDecimal.setScale|MathUtils.setScale|ValueTimestamp.convertScale,0.027583318859275813,0.0,0.004166824969119009,0.0,0.03175014382839482
BigDecimal.valueOf|BigDecimal.setScale|MathUtils.setScale,0.07033914224292548,0.0,0.008065641437800667,0.0,0.07840478368072615
BigInteger.<init>|BigInteger.valueOf|BigDecimal.inflated,0.018428762496747804,0.0,0.00236095113327005,0.0,0.020789713630017855
BigInteger.abs|BigInteger.smallToString|BigInteger.toString,0.06666205161245678,0.0,0.008666724984765242,0.0,0.07532877659722202
BigInteger.bitLength|BigInteger.pow|BigDecimal.<init>,0.0,0.014574189190170728,0.0,0.00236148648631619,0.01693567567648692
BigInteger.longValue|BigInteger.smallToString|BigInteger.toString,0.0709144615376185,0.0,0.006083846153043663,0.0,0.07699830769066217
BigInteger.multiply|BigDecimal.<init>|BigDecimal.<init>,0.0,0.0,0.0,0.0,0.0
BigInteger.smallToString|BigInteger.toString|BigInteger.toString,0.028872250286089224,0.0,0.003943269148136438,0.0,0.032815519434225664
BigInteger.valueOf|BigDecimal.inflated|BigDecimal.equals,0.0,0.0,0.0,0.0,0.0
BigInteger.valueOf|BigDecimal.inflated|BigDecimal.toBigInteger,0.03672412500009159,0.0,0.00532124999995176,0.0,0.04204537500004335
BufferedInputStream.read1|BufferedInputStream.read|Benchmark.fileFromInputStream,0.03393549999964307,0.0,0.0037175000003723353,0.0,0.0376530000000154
BufferedInputStream.read|DataInputStream.readFully|DataInputStream.readFully,0.04652689999954114,0.0,0.004784499999247297,0.0,0.051311399998788434
BufferedInputStream.read|DataInputStream.readUnsignedByte|ConstPool.readOne,0.03391748148176163,0.0,0.0036400000002079955,0.0,0.03755748148196963
BufferedInputStream.read|DataInputStream.readUnsignedShort|CodeAttribute.<init>,0.0522095000014815,0.0,0.004648000000573423,0.0,0.056857500002054924
BufferedInputStream.read|DataInputStream.readUnsignedShort|DataInputStream.readUTF,0.09365230000136457,0.0,0.010125500000140165,0.0,0.10377780000150473
BufferedInputStream.read|DataInputStream.readUnsignedShort|FieldInfo.read,0.0522095000014815,0.0,0.004648000000573423,0.0,0.056857500002054924
CalendarUtils.isGregorianLeapYear|BaseCalendar.isLeapYear|BaseCalendar.isLeapYear,0.019515655475114326,0.0,0.003697122656739368,0.0,0.023212778131853695
CharacterData.of|Character.toUpperCaseEx|String.toUpperCase,0.0,0.0,0.0,0.0,0.0
ClassLoader.defineClass1|ClassLoader.defineClass|SecureClassLoader.defineClass,0.08958268518607063,0.0,0.00960444444461717,0.0,0.09918712963068779
ClassLoader.findBootstrapClass|ClassLoader.findBootstrapClassOrNull|ClassLoader.loadClass,0.10877901666408432,0.0,0.009310499999499672,0.0,0.118089516663584
Column.convert|IndexCursor.find|TableFilter.next,0.05087557801513837,0.0,0.007303355827170583,0.0,0.05817893384230895
Column.convert|Insert.insertRows|Insert.update,0.10868006393363142,0.0,0.014005571845772148,0.0,0.12268563577940356
Column.getColumnId|TableFilter.getValue|ExpressionColumn.getValue,0.08430802716613872,0.15276095395149158,0.011452087622343872,0.02241931865445105,0.2709403873944252
Column.validateConvertUpdateSequence|Table.validateConvertUpdateSequence|Insert.insertRows,0.029365350228540924,0.0,0.004045488253528314,0.0,0.03341083848206924
Command.checkCanceled|Prepared.checkCanceled|Prepared.setCurrentRowNumber,0.22631509628442684,0.0,0.038993425584106886,0.0,0.2653085218685337
Command.executeQueryLocal|Command.executeQuery|JdbcPreparedStatement.executeQuery,0.0,0.0,0.0,0.0,0.0
Command.executeUpdate|JdbcConnection.commit|JdbcConnection.setTransactionIsolation,0.0,0.0,0.0,0.0,0.0
Command.executeUpdate|JdbcConnection.commit|Standard.paymentById,0.0,0.0,0.0,0.0,0.0
Command.executeUpdate|JdbcConnection.rollbackInternal|JdbcConnection.rollback,0.0,0.11474787723390156,0.0,0.014073545248643477,0.12882142248254505
Command.executeUpdate|JdbcConnection.setTransactionIsolation|Standard.stockLevel,0.0,0.018415342761139545,0.0,0.0030226901125029407,0.021438032873642487
Command.executeUpdate|JdbcPreparedStatement.executeUpdateInternal|JdbcPreparedStatement.executeUpdate,0.09723931591944793,0.025764822629634386,0.011128112820825284,0.003819570241399748,0.13795182161130737
Command.stop|Command.executeUpdate|JdbcConnection.rollbackInternal,0.0,0.0,0.0,0.0,0.0
Command.stop|Command.executeUpdate|JdbcPreparedStatement.executeUpdateInternal,0.03689145106178792,0.0,0.004127421418331246,0.0,0.041018872480119165
CommandLineArgs.<init>|TestHarness.main|Harness.main,0.07942699999936545,0.0,0.008169999999760572,0.0,0.08759699999912603
CompareMode.compareString|ValueString.compareSecure|Value.compareTo,0.03918120370346717,0.0,0.004273611111447853,0.0,0.043454814814915026
CompareMode.compareString|ValueString.compareSecure|Value.compareTypeSave,0.08054453567765868,0.0,0.010508529015815938,0.0,0.09105306469347461
Comparison.getValue|ConditionAndOr.getValue|ConditionAndOr.getValue,0.0,0.06321200000335618,0.0,0.010865000000194414,0.0740770000035506
Comparison.getValue|ConditionAndOr.getValue|Expression.getBooleanValue,0.0,0.12565505909895536,0.0,0.019158323404993204,0.14481338250394857
Comparison.getValue|Expression.getBooleanValue|Delete.update,0.0,0.07883699999850552,0.0,0.010320000000016686,0.08915699999852221
Comparison.getValue|Expression.getBooleanValue|Select.queryFlat,0.0524902333663217,0.0,0.00614231616122543,0.0,0.05863254952754713
Comparison.isEverything|ConditionAndOr.isEverything|ConditionAndOr.isEverything,0.0,0.07178904843620554,0.0,0.013784976167232751,0.08557402460343828
Comparison.isEverything|ConditionAndOr.isEverything|Select.isEverything,0.0,0.030250653912735244,0.0,0.0047754157462248205,0.03502606965896007
ConditionAndOr.getValue|ConditionAndOr.getValue|Expression.getBooleanValue,0.03250972222202917,0.0,0.003945833333192342,0.0,0.036455555555221515
ConditionAndOr.getValue|Expression.getBooleanValue|Select.queryFlat,0.0,0.0815633333356042,0.0,0.013249999999970896,0.0948133333355751
ConditionExists.getValue|ConditionNot.getValue|Expression.getBooleanValue,0.0,0.02324442440456814,0.0,0.003987532405256724,0.02723195680982486
ConfigFile.<init>|ConfigFile.<init>|Config.parse,0.01656083333303589,0.0,0.001704999999977493,0.0,0.018265833333013383
ConfigFileTokenManager.jjCheckNAdd|ConfigFileTokenManager.jjCheckNAddStates|ConfigFileTokenManager.jjMoveNfa_0,0.01656083333303589,0.0,0.001704999999977493,0.0,0.018265833333013383
ConstPool.getUtf8Info|AttributeInfo.getName|ClassFile.addAttribute,0.04974142105352816,0.0,0.00395421052681948,0.0,0.05369563158034764
ConstraintReferential.checkRowOwnTable|ConstraintReferential.checkRow|Table.fireConstraints,0.0,0.0,0.0,0.0,0.0
Database.getLockMode|TableData.lock|TableFilter.lock,0.0,0.04682924999724492,0.0,0.008160000000316359,0.05498924999756128
Database.getNextModificationDataId|TableData.addRow|Insert.insertRows,0.03802957754764515,0.0,0.005511997419984509,0.0,0.04354157496762966
Database.getTrace|Session.getTrace|Prepared.trace,0.04889095841021852,0.0,0.005264496854443372,0.0,0.05415545526466189
Database.isMultiVersion|ScanIndex.commit|UndoLogRecord.commit,0.0173962727269761,0.0,0.0026048484848955685,0.0,0.02000112121187167
Database.isReconnectNeeded|Session.isReconnectNeeded|JdbcConnection.checkClosed,0.0,0.08510651802602115,0.0,0.014831606540003647,0.0999381245660248
Date.equals|Timestamp.equals|ValueTimestamp.equals,0.06029844444378566,0.0,0.006308030302589583,0.0,0.06660647474637524
Date.normalize|Date.getDate|Timestamp.toString,0.0,0.07883619578961149,0.0,0.012792985610749916,0.0916291814003614
Date.normalize|Date.getHours|Timestamp.toString,0.0,0.021638835120674514,0.0,0.0035388476787271174,0.02517768279940163
Date.normalize|Date.getMinutes|Timestamp.toString,0.0,0.02870621611039913,0.0,0.004701788499465257,0.033408004609864386
Delete.update|CommandContainer.update|Command.executeUpdate,0.035666673236483995,0.06719966666423716,0.004636016179251389,0.00998000000011719,0.11748235608008972
DisabledAlgorithmConstraints$Constraints.<init>|DisabledAlgorithmConstraints.<init>|DisabledAlgorithmConstraints.<init>,0.00622370000007019,0.0,0.0006930000003194434,0.0,0.006916700000389633
Driver.connect|TPCC.makeConnection|TPCC.getConnection,0.046555599997373055,0.0,0.0035629999999703906,0.0,0.050118599997343444
Engine.openSession|Engine.openSession|Engine.getSession,0.02785911111169736,0.0,0.003128888889073601,0.0,0.03098800000077096
ExpressionColumn.getValue|Comparison.getValue|ConditionAndOr.getValue,0.0,0.02839160005781332,0.0,0.003954910101675663,0.032346510159488986
ExpressionColumn.getValue|IndexCondition.getCurrentValue|IndexCursor.find,0.0,0.07530418980904291,0.0,0.011478490792971141,0.08678268060201405
ExpressionColumn.getValue|Select.queryFlat|Select.queryWithoutCache,0.07872993035943171,0.0,0.013783233071264028,0.0,0.09251316343069574
ExpressionColumn.isEverything|Comparison.isEverything|ConditionAndOr.isEverything,0.0,0.17819204112357273,0.0,0.0246532924025079,0.20284533352608064
ExpressionColumn.isEverything|Select.isEverything|Query.isEverything,0.03430241474747569,0.08838164653149465,0.005987659379556002,0.014706959874875757,0.14337868053340208
ExpressionVisitor.<init>|ExpressionVisitor.get|Query.isEverything,0.0,0.033265103232672996,0.0,0.0039493385030218014,0.0372144417356948
ExpressionVisitor.getType|ExpressionColumn.isEverything|Comparison.isEverything,0.04572668887710107,0.0,0.006680164287505295,0.0,0.05240685316460636
ExpressionVisitor.get|Query.isEverything|Query.sameResultAsLast,0.0,0.033969673234164346,0.0,0.006678722619357762,0.04064839585352211
FileOutputStream.writeBytes|FileOutputStream.write|BufferedOutputStream.write,0.06869499999932789,0.0,0.007032500000301905,0.0,0.0757274999996298
Formatter$FormatSpecifier.conversion|Formatter$FormatSpecifier.<init>|Formatter.parse,0.0,0.0,0.0,0.0,0.0
Function.getValueWithArgs|Function.getValue|Alias.getValue,0.026447715329510124,0.0,0.003584998222005693,0.0,0.030032713551515818
Gregorian$Date.getNormalizedYear|BaseCalendar.isLeapYear|AbstractCalendar.getCalendarDate,0.07139010952230562,0.0,0.012006361389034607,0.0,0.08339647091134023
Gregorian.getCalendarDate|Date.normalize|Date.getMonth,0.07031709068847114,0.0,0.012786502182166731,0.0,0.08310359287063787
Gregorian.getCalendarDate|Gregorian.getCalendarDate|Date.normalize,0.03572401213178148,0.0,0.006704175271436064,0.0,0.04242818740321755
Gregorian.getCalendarDate|Gregorian.getCalendarDate|Gregorian.getCalendarDate,0.0606091942851703,0.0,0.01138293841210528,0.0,0.07199213269727558
HashMap.getNode|HashMap.get|ExpressionColumn.getValue,0.044712961007812066,0.0,0.008527199932985311,0.0,0.05324016094079738
HashMap.getNode|HashMap.get|ScanIndex.incrementRowCount,0.05664173715901886,0.0,0.00794781150575218,0.0,0.06458954866477104
HashMap.getNode|LinkedHashMap.get|TraceSystem.getTrace,0.0389042636486881,0.0,0.005581190495927476,0.0,0.04448545414461558
HashMap.get|ExpressionColumn.getValue|IndexCondition.getCurrentValue,0.0158564583332716,0.0,0.002266666666501907,0.0,0.018123124999773508
HashMap.hash|HashMap.remove|HashSet.remove,0.05916215053286901,0.0,0.007389087484486861,0.0,0.06655123801735587
HashMap.putVal|HashMap.put|HashSet.add,0.0644579472400996,0.0,0.009440010742031942,0.0,0.07389795798213153
HashMap.putVal|HashMap.put|ScanIndex.incrementRowCount,0.03503942070437652,0.0,0.00513781472604477,0.0,0.04017723543042129
HashMap.removeNode|HashMap.remove|HashSet.remove,0.3015905068575635,0.0,0.03823234853094393,0.0,0.3398228553885074
HashSet.<init>|IndexCursor.find|TableFilter.next,0.0,0.03783781931576719,0.0,0.005907394586239953,0.04374521390200715
IndexCursor.find|TableFilter.next|Select.queryFlat,0.10981001918194472,0.25591238212158457,0.019405989351249625,0.04737475323943866,0.43250314389421757
IndexCursor.find|TableFilter.next|Update.update,0.0,0.0,0.0,0.0,0.0
IndexCursor.getSearchRow|IndexCursor.find|TableFilter.next,0.0720971196843973,0.03427337291024951,0.009912544629324107,0.005811943535886504,0.12209498075985742
IndexCursor.getSearchRow|TableFilter.next|Select.queryFlat,0.05516821080944104,0.0,0.00566566288189614,0.0,0.06083387369133718
IndexCursor.next|TableFilter.next|Select.queryFlat,0.0,0.0930583333344354,0.0,0.020764999999907253,0.11382333333434266
Inflater.inflateBytes|Inflater.inflate|InflaterInputStream.read,0.33181163333404884,0.0,0.034917999999258126,0.0,0.366729633333307
Insert.insertRows|Insert.update|CommandContainer.update,0.19972346666424223,0.0,0.024959999998100103,0.0,0.22468346666234235
Integer.getChars|AbstractStringBuilder.append|StringBuffer.append,0.026820740628259798,0.0,0.003947571152452836,0.0,0.030768311780712633
Integer.getChars|Integer.toString|String.valueOf,0.14510239983778211,0.036196952946035615,0.02586979986053163,0.0051638900873333385,0.21233304273168271
Integer.getChars|Integer.toString|Timestamp.toString,0.0546368396301411,0.14335460278808637,0.009647777033169602,0.02338833832872936,0.23102755778012643
Integer.toString|String.valueOf|ValueInt.getString,0.360717875154044,0.1446171694104762,0.06535469179171785,0.023600475529642048,0.59429021188588
Integer.toString|String.valueOf|ValueShort.getString,0.3562313935613727,0.6733974109669912,0.06307283213006065,0.10864823996944589,1.2013498766278705
Integer.toString|Timestamp.toString|ValueTimestamp.getString,0.37570942478435326,0.24592006288962728,0.06704275133751071,0.03798515973029705,0.7266573987417883
JdbcConnection.<init>|Driver.connect|TPCC.makeConnection,0.04560918518540415,0.0,0.0039999999997369865,0.0,0.04960918518514113
JdbcConnection.checkClosedForWrite|JdbcConnection.commit|SimpleInsert.orderTable,0.02721312232412391,0.0,0.003440715710464273,0.0,0.030653838034588182
JdbcConnection.checkClosed|JdbcConnection.checkClosed|JdbcResultSet.checkClosed,0.2345033301529177,0.09871399191891195,0.04326445481126539,0.015595233171832855,0.3920770100549279
JdbcConnection.checkClosed|JdbcResultSet.checkClosed|JdbcResultSet.next,0.03962400623570187,0.0,0.00710087376081267,0.0,0.04672487999651454
JdbcConnection.checkClosed|JdbcStatement.checkClosed|JdbcPreparedStatement.checkClosed,0.2689052611455598,0.031970007772911806,0.04503020287784696,0.005288181818704093,0.3511936536150227
JdbcConnection.prepareStatement|SimpleInsert.itemTable|SimpleInsert.populateAllTables,0.16967152136787933,0.0,0.01747589743632473,0.0,0.18714741880420405
JdbcResultSet.<init>|JdbcPreparedStatement.execute|TPCC.calculateSumDB,0.0,0.030768445340128306,0.0,0.006390436986795268,0.037158882326923576
JdbcResultSet.checkClosed|JdbcResultSet.checkColumnIndex|JdbcResultSet.get,0.07321681441865346,0.0,0.013044756081165468,0.0,0.08626157049981893
JdbcResultSet.getInt|Standard.stockLevel|Submitter.runStockLevel,0.0,0.0,0.0,0.0,0.0
JdbcResultSet.getString|TPCC.calculateSumDB|TPCC.calculateSumDB,0.07244872466052564,0.0,0.013433679566464466,0.0,0.0858824042269901
JdbcResultSet.nextRow|JdbcResultSet.next|TPCC.calculateSumDB,0.0575661886441555,0.0,0.00986967121610507,0.0,0.06743585986026057
JdbcStatement.checkClosed|JdbcPreparedStatement.checkClosed|JdbcStatement.checkClosed,0.10794425950381002,0.0,0.018460271891756364,0.0,0.1264045313955664
LinkedHashMap.get|TraceSystem.getTrace|Database.getTrace,0.041908567977590384,0.0,0.0058090763719146395,0.0,0.047717644349505026
LocalResult.getList|LocalResult.<init>|Select.queryWithoutCache,0.06580298742130779,0.0,0.006576226414893329,0.0,0.07237921383620112
LocalResult.next|ViewCursor.next|IndexCursor.next,0.046645384055091256,0.029942998713099505,0.006734114778959866,0.004692895655465604,0.08801539320261623
Long.stringSize|Long.toString|Long.toString,0.02777811689674746,0.0,0.0040774794770048525,0.0,0.031855596373752314
Math.abs|BigDecimal.layoutChars|BigDecimal.toString,0.0,0.021188014381764757,0.0,0.0034087638687178463,0.024596778250482603
MathUtils.compare|ValueInt.compareSecure|Value.compareTypeSave,0.0953694017568447,0.057775769289848095,0.012473545912405893,0.009637585058053948,0.17525630201715264
MessageFormat.applyPattern|MessageFormat.<init>|MessageFormat.format,0.0,0.0,0.0,0.0,0.0
MultiVersionCursor.getSearchRow|IndexCursor.getSearchRow|TableFilter.next,0.19719206452077856,0.08010655265231718,0.025604580470033937,0.011484453480554239,0.3143876511236839
MultiVersionCursor.get|IndexCursor.get|TableFilter.get,0.0,0.0,0.0,0.0,0.0
MultiVersionCursor.loadNext|MultiVersionCursor.next|IndexCursor.next,0.14094700076421407,0.34198141401541693,0.02102732663888441,0.052908576416939974,0.5568643178354554
MultiVersionCursor.next|IndexCursor.next|TableFilter.next,0.12364909040769483,0.31503612455072844,0.018782077926628914,0.055073089681933016,0.5125403825669852
MultiVersionCursor.step|MultiVersionCursor.loadNext|MultiVersionCursor.next,0.13847742527478413,0.3887274380653735,0.014797218032884625,0.0635403894149236,0.6055424707879657
MultiVersionIndex.add|TableData.addRowsToIndex|TableData.addIndex,0.14292988456867395,0.0,0.01658457842572693,0.0,0.15951446299440086
MultiVersionIndex.compareRows|TableData$1.compare|TableData$1.compare,0.035977651247118464,0.0422498474336822,0.003607628428142846,0.006438319477569018,0.08827344658651254
MultiVersionIndex.find|IndexCursor.find|TableFilter.next,0.039077749218310726,0.06420899999890631,0.005116807032656268,0.011170000000371752,0.11957355625024506
OERandom.randomAString24|SimpleInsert.stockTable|SimpleInsert.populateForOneWarehouse,0.10761573791017942,0.0,0.012095957619160899,0.0,0.11971169552934031
OERandom.randomDecimalString|SimpleInsert.customerTable|SimpleInsert.populateForOneWarehouse,0.0402599999991556,0.0,0.005451428570917675,0.0,0.04571142857007328
OERandom.randomDecimalString|SimpleInsert.orderTable|SimpleInsert.populateForOneWarehouse,0.027890357344136446,0.0,0.004231438237516369,0.0,0.03212179558165282
OERandom.randomInt|OERandom.randomAString24|SimpleInsert.stockTable,0.0406010416660744,0.0,0.0042374999998173735,0.0,0.044838541665891775
OERandom.randomInt|Submitter.warehouse|Submitter.runNewOrder,0.0,0.0,0.0,0.0,0.0
Object.<init>|CacheObject.<init>|Record.<init>,0.0317783158122786,0.0,0.0043700615272897255,0.0,0.03614837733956833
Object.hashCode|HashMap.hash|HashMap.remove,0.21688284518389656,0.0,0.028404168366978677,0.0,0.24528701355087523
Object.wait|Command.executeUpdate|JdbcPreparedStatement.executeUpdateInternal,0.017018666666748082,0.0,0.0027299999995496664,0.0,0.019748666666297748
ObjectArray$ObjectArrayIterator.<init>|ObjectArray.iterator|Select.isEverything,0.05806785111533621,0.0,0.0062383716679616065,0.0,0.06430622278329781
ObjectArray$ObjectArrayIterator.hasNext|TableData.addRowsToIndex|TableData.addIndex,0.04064733550314226,0.0,0.005283537852568664,0.0,0.04593087335571092
ObjectArray$ObjectArrayIterator.next|Select.isEverything|Query.isEverything,0.0,0.030250653912735244,0.0,0.0047754157462248205,0.03502606965896007
ObjectArray.<init>|ObjectArray.newInstance|LocalResult.<init>,0.0,0.03306083333073831,0.0,0.0056333333335108655,0.03869416666424917
ObjectArray.add|LocalResult.addRow|Select.queryFlat,0.04168304973562567,0.04747861366254286,0.007119835915159016,0.006600067420147786,0.10288156673347534
ObjectArray.createArray|ObjectArray.<init>|ObjectArray.newInstance,0.0,0.07234679955791201,0.0,0.010171271508213757,0.08251807106612577
ObjectArray.createArray|ObjectArray.ensureCapacity|ObjectArray.add,0.13718431266867237,0.0,0.018786944329776987,0.0,0.15597125699844935
ObjectArray.get|Insert.insertRows|Insert.update,0.0589960000001798,0.0,0.00860470588240252,0.0,0.06760070588258232
ObjectArray.get|JdbcPreparedStatement.setParameter|JdbcPreparedStatement.setInt,0.0,0.0,0.0,0.0,0.0
ObjectArray.get|JdbcPreparedStatement.setParameter|JdbcPreparedStatement.setString,0.037213430399133184,0.0,0.0054928248170717274,0.0,0.042706255216204914
ObjectArray.get|LocalResult.next|JdbcResultSet.nextRow,0.01867732808876024,0.020021518447991844,0.0032740806090131662,0.0030570116553630487,0.045029938801128294
ObjectArray.get|ObjectArray$ObjectArrayIterator.next|Select.isEverything,0.0,0.0815633333356042,0.0,0.013249999999970896,0.0948133333355751
ObjectArray.get|ObjectArray$ObjectArrayIterator.next|TableData.addRowsToIndex,0.0,0.035311811993295146,0.0,0.005014331025399411,0.040326143018694555
ObjectArray.sort|ObjectArray.sort|ObjectArray.sort,0.4071768842711319,0.061561361518388265,0.046528054371747354,0.008624230752033576,0.5238905309133011
ObjectArray.sort|ObjectArray.sort|TableData.addRowsToIndex,0.06280035400907885,0.0,0.0075260383597792885,0.0,0.07032639236885814
ObjectArray.swap|ObjectArray.sort|ObjectArray.sort,0.10714607888897704,0.13722782042510218,0.014733786834172088,0.020437575223691377,0.2795452613719427
Operation.isEverything|Select.isEverything|Query.isEverything,0.0,0.0,0.0,0.0,0.0
Parser.parsePrepared|Parser.parse|Parser.parse,0.0,0.0,0.0,0.0,0.0
Parser.readTableOrView|Parser.readTableFilter|Parser.parseSelectSimpleFromPart,0.0,0.0,0.0,0.0,0.0
Prepared.checkCanceled|Prepared.setCurrentRowNumber|Insert.insertRows,0.10893282440530613,0.0,0.01348528917481328,0.0,0.12241811358011942
Prepared.checkParameters|CommandContainer.query|Command.executeQueryLocal,0.1857220056592404,0.0583170210674051,0.025801171210712754,0.006948838619747245,0.2767890365571055
Prepared.getParameters|Query.getParameterValues|Query.query,0.0,0.07371000000663723,0.0,0.01511500000015076,0.08882500000678799
Prepared.setCurrentRowNumber|Insert.insertRows|Insert.update,0.03908074044747136,0.0,0.0054469336776085675,0.0,0.04452767412507993
PrintStream.format|TPCC.report|TPCC.iteration,0.0,0.0,0.0,0.0,0.0
PrintStream.write|FilterOutputStream.write|TeeOutputStream.write,0.0,0.0,0.0,0.0,0.0
Query.getParameterValues|Query.query|CommandContainer.query,0.0,0.0,0.0,0.0,0.0
Query.getParameterValues|Query.query|ConditionExists.getValue,0.0,0.03306083333073831,0.0,0.0056333333335108655,0.03869416666424917
Query.query|ConditionExists.getValue|ConditionNot.getValue,0.09712296764565276,0.18407097446252485,0.011440394206819322,0.029607494257609106,0.322241830572606
Random.nextDouble|OERandom.randomInt|OERandom.randomAString,0.0848705185193534,0.0,0.009848888889084466,0.0,0.09471940740843787
Random.nextDouble|OERandom.randomInt|SimpleInsert.orderTable,0.07266770098361147,0.0,0.010760938166284364,0.0,0.08342863914989583
Random.nextDouble|OERandom.randomInt|Submitter.warehouse,0.0,0.0,0.0,0.0,0.0
Random.next|Random.nextDouble|OERandom.randomInt,0.18862281499847092,0.0,0.026565842280158333,0.0,0.21518865727862924
Record.getSessionId|ScanCursor.next|IndexCursor.next,0.0,0.032323124381936186,0.0,0.00512129828176308,0.03744442266369927
Row.getValue|BaseIndex.compareRows|MultiVersionIndex.compareRows,0.252996654654842,0.03280799187844292,0.03013774354841002,0.004499865674158139,0.3204422557558531
Row.getValue|BaseIndex.compareRows|TreeCursor.next,0.08713119230933676,0.19935414838306628,0.01123538461578368,0.032067547133096654,0.3297882724412834
Row.getValue|BaseIndex.compareRows|TreeIndex.add,0.637187620326989,0.050796499996067716,0.08302336076093547,0.006101250000256186,0.7771087310842484
Row.getValue|BaseIndex.compareRows|TreeIndex.findFirstNode,0.17537967716053798,0.29450233721744584,0.02276519531424858,0.049694433072264836,0.5423416427644973
Row.getValue|IndexCursor.getSearchRow|IndexCursor.find,0.0,0.032942240050225384,0.0,0.0055017983851696406,0.038444038435395025
Row.getValue|Table.validateConvertUpdateSequence|Insert.insertRows,0.017991838384007523,0.0,0.0025825757577996517,0.0,0.020574414141807176
Row.getValue|TableFilter.getValue|ExpressionColumn.getValue,0.14321558196070824,0.1477960614214852,0.018998111181923412,0.02410053594890957,0.33411029051302643
Row.getValue|Update.update|CommandContainer.update,0.0,0.0,0.0,0.0,0.0
Row.isEmpty|ScanIndex.getNextRow|ScanCursor.next,0.0,0.04883360135940001,0.0,0.008440305203154898,0.057273906562554905
Row.setValue|IndexCursor.getSearchRow|IndexCursor.find,0.06210935303314082,0.03373223336054336,0.00538073662859425,0.005996631173401151,0.10721895419567959
SHA256.getKeyPasswordHash|ConnectionInfo.convertPasswords|ConnectionInfo.<init>,0.015290370370537315,0.0,0.0017444444443012967,0.0,0.017034814814838612
ScanCursor.next|IndexCursor.next|TableFilter.next,0.09141927248710537,0.0,0.015357926824843203,0.0,0.10677719931194857
ScanIndex.add|TableData.addRow|Insert.insertRows,0.03871103879777516,0.0,0.004422089653426264,0.0,0.04313312845120142
ScanIndex.getNextRow|ScanCursor.next|IndexCursor.next,0.18368621588685674,0.05938787817786498,0.028964850006850777,0.010864723070493127,0.2829036671420656
ScanIndex.getNextRow|ScanCursor.next|TableData.addIndex,0.08673839330215824,0.0,0.010053150981544488,0.0,0.09679154428370274
Select.isEverything|Query.isEverything|Query.query,0.0,0.030245967243560243,0.0,0.004432263654127936,0.03467823089768818
Select.preparePlan|Select.prepare|Parser.prepare,0.05308502226966373,0.0,0.006369700246150182,0.0,0.059454722515813914
Select.queryFlat|Select.queryWithoutCache|Query.query,0.38688818956764304,0.7754616666925616,0.0621996726961384,0.13774618471746547,1.3622957136738085
Select.queryGroup|Select.queryWithoutCache|Query.query,0.0,0.0,0.0,0.0,0.0
Select.queryWithoutCache|Query.query|ConditionExists.getValue,0.04064816132045356,0.0809736871800584,0.0067926067861791475,0.013843938613332737,0.14225839390002387
Session.hashCode|HashMap.hash|HashMap.containsKey,0.0,0.0,0.0,0.0,0.0
Session.isReconnectNeeded|JdbcConnection.checkClosed|JdbcConnection.checkClosed,0.06241387606962516,0.0,0.011497152579370055,0.0,0.07391102864899521
Session.isReconnectNeeded|JdbcConnection.checkClosed|JdbcStatement.checkClosed,0.15880542555450372,0.0,0.023351310690493798,0.0,0.1821567362449975
Set.setInt|Parser.parseSet|Parser.parsePrepared,0.023057654319995045,0.0,0.002503703703782607,0.0,0.025561358023777653
SimpleInsert.customerTable|SimpleInsert.populateForOneWarehouse|SimpleInsert.populateAllTables,0.06920918518530755,0.0,0.008404444445019449,0.0,0.077613629630327
SimpleInsert.itemTable|SimpleInsert.populateAllTables|ThreadInsert.populateAllTables,0.03325761288342145,0.0,0.003031564312943545,0.0,0.036289177196365
SimpleInsert.orderTable|SimpleInsert.populateForOneWarehouse|SimpleInsert.populateAllTables,0.01063794949452976,0.0,0.001438181818119836,0.0,0.012076131312649596
SimpleInsert.stockTable|SimpleInsert.populateForOneWarehouse|SimpleInsert.populateAllTables,0.09424833333317413,0.0,0.009387499999320426,0.0,0.10363583333249456
SoftReference.get|Value.cache|ValueDecimal.get,0.04595253333294143,0.0,0.0075626666670561655,0.0,0.05351519999999759
Standard.getOrderStatusForCustomer|Standard.orderStatus|Submitter.runOrderStatus,0.0,0.0,0.0,0.0,0.0
String.<init>|String.substring|Timestamp.toString,0.0,0.03615058515834086,0.0,0.005904833935931718,0.04205541909427258
String.concat|OERandom.randomAString8_16|SimpleInsert.customerTable,0.08135996969521687,0.0,0.010187727273384527,0.0,0.0915476969686014
String.getChars|AbstractStringBuilder.append|StringBuffer.append,0.033654349044147505,0.3035002689796471,0.0063415924030252495,0.062399569255859655,0.4058957796826795
String.hashCode|StringCache.get|ValueString.get,0.02777811689674746,0.0,0.0040774794770048525,0.0,0.031855596373752314
String.length|AbstractStringBuilder.append|StringBuffer.append,0.0,0.01675554584463209,0.0,0.0023112250327209267,0.019066770877353017
String.length|TPCC.calculateSumDB|TPCC.calculateSumDB,0.0,0.06394840798557315,0.0,0.007425993417656736,0.07137440140322988
String.substring|Timestamp.toString|ValueTimestamp.getString,0.0707741386567462,0.0,0.011182527306870468,0.0,0.08195666596361667
String.toCharArray|BigDecimal.<init>|Value.convertTo,0.07302524444466042,0.0,0.015682666666624653,0.0,0.08870791111128508
String.toCharArray|BigDecimal.<init>|ValueTimestamp.convertScale,0.057480588234908536,0.0,0.007905882352953959,0.0,0.0653864705878625
String.toUpperCase|StringUtils.toUpperEnglish|JdbcResultSet.getColumnIndex,0.009899473684766378,0.0,0.001393421052693667,0.0,0.011292894737460046
StringBuffer.append|Timestamp.toString|ValueTimestamp.getString,0.220180219158095,0.215613074354618,0.04029483970230073,0.03202541755663653,0.5081135507716503
StringBuffer.toString|Timestamp.toString|ValueTimestamp.getString,0.13678144926955496,0.0,0.023649950809065966,0.0,0.16043140007862092
StringBuilder.toString|Benchmark.prepareJars|Benchmark.initialize,0.018264749999919637,0.0,0.0018550000001293177,0.0,0.020119750000048956
StringBuilder.toString|Timestamp.toString|ValueTimestamp.getString,0.05745495422146503,0.0,0.0106908508580277,0.0,0.06814580507949272
StringCache.get|ValueString.get|JdbcPreparedStatement.setString,0.25545377930980184,0.0,0.03147209434696121,0.0,0.28692587365676303
SysProperties.<clinit>|ConnectionInfo.<clinit>|JdbcConnection.<init>,0.04560918518540415,0.0,0.0039999999997369865,0.0,0.04960918518514113
TPCC.<init>|TPCC.make|NativeMethodAccessorImpl.invoke0,0.04652689999954114,0.0,0.004784499999247297,0.0,0.051311399998788434
TPCC.calculateSumDB|TPCC.calculateSumDB|TPCC.preIterationMemoryDB,0.0,0.3272125435207377,0.0,0.04956442224468195,0.37677696576541964
Table.compareTypeSave|BaseIndex.compareValues|BaseIndex.compareRows,0.09064518726197351,0.2713732504605123,0.010924882301789673,0.045127345215902566,0.41807066524017805
Table.fireBeforeRow|Insert.insertRows|Insert.update,0.07157078383775897,0.0,0.009321272726083407,0.0,0.08089205656384238
Table.getCheckForeignKeyConstraints|ConstraintReferential.checkRow|Table.fireConstraints,0.0,0.06719966666423716,0.0,0.00998000000011719,0.07717966666435434
Table.getTemplateRow|IndexCursor.getSearchRow|IndexCursor.find,0.0,0.2227774040985544,0.0,0.03708690738750288,0.25986431148605726
Table.getTemplateRow|Insert.insertRows|Insert.update,0.09130274252907118,0.0,0.010193473450887782,0.0,0.10149621597995896
Table.getTemplateRow|ViewCursor.next|IndexCursor.next,0.0,0.06453433333081192,0.0,0.009425000000192084,0.073959333331004
Table.validateConvertUpdateSequence|Insert.insertRows|Insert.update,0.14389169451531478,0.0,0.01889024739474148,0.0,0.16278194191005627
TableData$1.compare|ObjectArray.sort|ObjectArray.sort,0.05620721495062661,0.037829021186207484,0.006869584011390777,0.0058569587603544615,0.10676277890857933
TableData$1.compare|TableData$1.compare|ObjectArray.sort,0.06563894581933141,0.07002071274832275,0.0075419986665145955,0.01104809998241368,0.15424975721658243
TableData.addIndex|AlterTableAddConstraint.createIndex|AlterTableAddConstraint.tryUpdate,0.0761835683364199,0.027234619988018183,0.010063049102029452,0.0033088865811119073,0.11679012400757945
TableData.addIndex|AlterTableAddConstraint.tryUpdate|AlterTableAddConstraint.update,0.05261458883964023,0.0,0.005935020899273617,0.0,0.05854960973891385
TableData.addRowsToIndex|TableData.addIndex|AlterTableAddConstraint.createIndex,0.0,0.0348564746549734,0.0,0.005022303605819339,0.03987877826079274
TableData.addRowsToIndex|TableData.addIndex|AlterTableAddConstraint.tryUpdate,0.2716715986928514,0.0,0.03320209239697438,0.0,0.30487369108982576
TableData.addRow|Insert.insertRows|Insert.update,0.027248990871364225,0.0,0.00394181226161715,0.0,0.031190803132981375
TableData.lock|Insert.insertRows|Insert.update,0.07347240232306415,0.0,0.010268321375622242,0.0,0.08374072369868639
TableData.lock|TableFilter.lock|Select.queryWithoutCache,0.05434079456631224,0.0,0.006592573425740901,0.0,0.060933367992053136
TableFilter.getValue|ExpressionColumn.getValue|Comparison.getValue,0.036976722716228635,0.0475922499972512,0.005641296266846507,0.00920624999980646,0.0994165189801328
TableFilter.getValue|ExpressionColumn.getValue|Select.queryFlat,0.15067961237691074,0.0,0.02604069239036949,0.0,0.17672030476728023
TableFilter.isOk|TableFilter.next|Select.queryFlat,0.04572668887710107,0.09322437368108694,0.006680164287505295,0.015301181861607727,0.16093240870730102
TableFilter.next|Select.queryFlat|Select.queryWithoutCache,0.06573226672694887,0.03405191205150829,0.009690494559640349,0.005632016356251574,0.11510668969434909
TableFilter.startQuery|Select.queryWithoutCache|Query.query,0.0,0.02324442440456814,0.0,0.003987532405256724,0.02723195680982486
Thread.start0|Thread.start|TPCC.iteration,0.0,0.0,0.0,0.0,0.0
Throwable.fillInStackTrace|Throwable.fillInStackTrace|Throwable.<init>,0.04534787664558442,0.050255692926218315,0.006145683262382022,0.005836285865150712,0.10758553869933547
TimeZone.getDefaultRef|Date.normalize|Date.getDate,0.0,0.06997675600446063,0.0,0.011813211854764256,0.08178996785922488
Timestamp.toString|ValueTimestamp.getString|JdbcResultSet.getString,0.033208750496209805,0.21905165415784306,0.005277620914272354,0.034581441876741066,0.2921194674450663
Trace.isDebugEnabled|TraceObject.isDebugEnabled|JdbcPreparedStatement.executeQuery,0.0,0.0,0.0,0.0,0.0
Trace.isDebugEnabled|TraceObject.isDebugEnabled|JdbcPreparedStatement.setShort,0.0,0.0,0.0,0.0,0.0
Trace.isEnabled|Trace.isDebugEnabled|TableData.traceLock,0.06258989655104633,0.0,0.005278793104093632,0.0,0.06786868965513995
Trace.isEnabled|Trace.isDebugEnabled|TraceObject.debugCodeCall,0.0,0.04631436834076859,0.0,0.006553537412500237,0.05286790575326883
TraceSystem.<init>|Database.open|Database.openDatabase,0.03145807407283293,0.0,0.0029555555552683976,0.0,0.03441362962810133
TraceSystem.getTrace|Database.getTrace|Session.getTrace,0.03672412500009159,0.0,0.00532124999995176,0.0,0.04204537500004335
TraceSystem.write|Trace.error|TraceObject.logAndConvert,0.0,0.0,0.0,0.0,0.0
TreeCursor.<init>|TreeIndex.find|MultiVersionIndex.find,0.030583001077833055,0.0,0.00502138410318901,0.0,0.03560438518102206
TreeCursor.next|MultiVersionCursor.step|MultiVersionCursor.loadNext,0.0,0.2740949832961542,0.0,0.042848336990023904,0.3169433202861781
TreeIndex.add|MultiVersionIndex.add|TableData.addRowsToIndex,0.2907890582548046,0.04997735972780161,0.03519400319007853,0.006169755368575606,0.38213017654126036
TreeIndex.add|MultiVersionIndex.remove|TableData.removeRow,0.03870904847879073,0.0,0.0050362315330764115,0.0,0.043745280011867144
TreeIndex.balance|TreeIndex.add|MultiVersionIndex.add,0.0,0.1407574377629073,0.0,0.020601422158688012,0.16135885992159532
TreeIndex.findFirstNode|TreeIndex.find|MultiVersionIndex.find,0.0,0.31270579372827556,0.0,0.05102393109493335,0.3637297248232089
TreeIndex.findFirstNode|TreeIndex.remove|MultiVersionIndex.remove,0.06260592700526928,0.0,0.00924266188962093,0.0,0.07184858889489021
TreeIndex.find|MultiVersionIndex.find|IndexCursor.find,0.0,0.07432635532309849,0.0,0.012940430091268836,0.08726678541436733
TreeIndex.find|MultiVersionIndex.removeIfExists|MultiVersionIndex.add,0.2705553885801155,0.0928308846310768,0.03071624630653208,0.014500654784551575,0.408603174302276
TreeIndex.next|TreeCursor.next|MultiVersionCursor.step,0.06869048547169043,0.3699562399889762,0.007911589012869438,0.05415741790004107,0.5007157323735771
TreeIndex.next|TreeCursor.next|MultiVersionIndex.removeIfExists,0.0,0.08317173939848838,0.0,0.01129438067884828,0.09446612007733665
TreeIndex.remove|MultiVersionIndex.remove|TableData.removeRow,0.0,0.050255692926218315,0.0,0.005836285865150712,0.05609197879136903
TreeIndex.set|TreeIndex.add|MultiVersionIndex.add,0.056931007711889366,0.0,0.007472740985708558,0.0,0.06440374869759792
TreeIndex.set|TreeIndex.balance|TreeIndex.add,0.0,0.08848829629748128,0.0,0.012773431015829312,0.1012617273133106
TreeIndex.set|TreeIndex.replace|TreeIndex.balance,0.0,0.03280799187844292,0.0,0.004499865674158139,0.037307857552601055
UndoLog.getLast|Session.commit|TransactionCommand.update,0.03328346004110082,0.0,0.003474342207759742,0.0,0.03675780224886056
UnixFileSystem.getBooleanAttributes|File.exists|URLClassPath$FileLoader.getResource,0.025396380952553862,0.0,0.0022971428573198087,0.0,0.02769352380987367
Value.cache|ValueStringFixed.get|Value.convertTo,0.04209880605193492,0.0,0.005956756375829131,0.0,0.04805556242776405
Value.checkPrecision|Column.validateConvertUpdateSequence|Table.validateConvertUpdateSequence,0.03859213430774568,0.0,0.004287140271110551,0.0,0.042879274578856236
Value.compareEqual|ConstraintReferential.checkRowOwnTable|ConstraintReferential.checkRow,0.024196071428117902,0.0,0.003497142856888656,0.0,0.027693214285006557
Value.compareTo|Database.areEqual|Comparison.compareNotNull,0.0,0.0,0.0,0.0,0.0
Value.compareTypeSave|Table.compareTypeSave|BaseIndex.compareValues,0.7414362245648762,0.17963068224766415,0.09352338450796391,0.029709836057136778,1.044300127377641
Value.convertTo|Column.convert|IndexCursor.find,0.0,0.09836257871511928,0.0,0.015832016356268068,0.11419459507138735
Value.convertTo|Comparison.getValue|ConditionAndOr.getValue,0.03430241474747569,0.06530830086945325,0.005987659379556002,0.009004441110067395,0.11460281610655235
Value.convertTo|Comparison.getValue|Expression.getBooleanValue,0.02169892454701801,0.0,0.003141364889292316,0.0,0.024840289436310323
Value.convertTo|ConditionNot.getValue|Expression.getBooleanValue,0.06529648337913818,0.0,0.006139930088433917,0.0,0.0714364134675721
ValueBoolean.getBoolean|Expression.getBooleanValue|Select.queryFlat,0.05288335327989812,0.0,0.007028390403288802,0.0,0.05991174368318692
ValueBoolean.getType|Value.convertTo|Column.convert,0.06554447058827945,0.0,0.0076094117650748515,0.0,0.0731538823533543
ValueDecimal.convertPrecision|Function.getSimpleValue|Function.getValueWithArgs,0.0,0.03485362568419118,0.0,0.0044367951287684285,0.03929042081295961
ValueDouble.equals|Value.cache|ValueDouble.get,0.0,0.0,0.0,0.0,0.0
ValueInt.compareSecure|Value.compareTo|Database.areEqual,0.0,0.03212440578672324,0.0,0.005790305646347394,0.03791471143307063
ValueInt.compareSecure|Value.compareTypeSave|Table.compareTypeSave,0.09553289046351877,0.12057176622258209,0.012752365131006574,0.017942612703359374,0.2467996345204668
ValueInt.get|JdbcPreparedStatement.setInt|SimpleInsert.orderTable,0.04247793761203597,0.0,0.005587414350395985,0.0,0.04806535196243196
ValueShort.compareSecure|Value.compareTypeSave|Table.compareTypeSave,0.31187338500885015,0.08785782112141646,0.0392990823786564,0.0118775755691276,0.4509078640780506
ValueString.getType|Value.compareTo|Database.areEqual,0.0,0.030947478261583932,0.0,0.003825652173754466,0.0347731304353384
ValueString.get|JdbcPreparedStatement.setString|SimpleInsert.orderTable,0.0298465394500964,0.0,0.004086220061455699,0.0,0.0339327595115521
ValueString.get|JdbcPreparedStatement.setString|SimpleInsert.stockTable,0.0,0.0,0.0,0.0,0.0
ValueStringBase.getPrecision|Value.checkPrecision|Column.validateConvertUpdateSequence,0.0,0.0,0.0,0.0,0.0
ValueStringBase.getString|JdbcResultSet.getString|TPCC.calculateSumDB,0.0,0.023791735832677626,0.0,0.0031919728177056805,0.026983708650383305
ValueStringFixed.<init>|ValueStringFixed.get|Value.convertTo,0.029998394005244323,0.0,0.004129793553890492,0.0,0.03412818755913481
ValueStringFixed.trimRight|ValueStringFixed.get|Value.convertTo,0.10250083333479172,0.0,0.009190625000125387,0.0,0.11169145833491712
ValueTimestamp.convertScale|Column.validateConvertUpdateSequence|Table.validateConvertUpdateSequence,0.017991838384007523,0.0,0.0025825757577996517,0.0,0.020574414141807176
ValueTimestamp.getNoCopy|ValueTimestamp.get|JdbcPreparedStatement.setTimestamp,0.20296343563297417,0.0,0.030246463997873025,0.0,0.2332098996308472
ViewCursor.next|IndexCursor.next|TableFilter.next,0.0,0.029529350456367287,0.0,0.004589877940309265,0.034119228396676554
ZoneInfo.getOffsets|ZoneInfo.getOffsets|AbstractCalendar.getCalendarDate,0.044842973835136794,0.0,0.00805111130993196,0.0,0.052894085145068756
ZoneInfo.getTransitionIndex|ZoneInfo.getOffsets|ZoneInfo.getOffsets,0.03484595493704048,0.0,0.006598684990841613,0.0,0.04144463992788209
