method,hits
AbstractAlgorithmConstraints.getAlgorithms,2
AbstractCalendar.getCalendarDate,2
AbstractCalendar.setTimeOfDay,8
AbstractCollection.<init>,4
AbstractSet.<init>,2
AbstractStringBuilder.<init>,10
AbstractStringBuilder.append,14
AbstractStringBuilder.ensureCapacityInternal,10
AbstractStringBuilder.newCapacity,4
AccessController.doPrivileged,2
ArrayList$Itr.next,2
Arrays.copyOf,22
Arrays.copyOfRange,32
AtomicLong.compareAndSet,10
BaseCalendar.getFixedDate,2
BaseCalendar.getGregorianYearFromFixedDate,10
BaseIndex.compareKeys,16
BaseIndex.compareRows,146
BaseIndex.compareValues,28
Benchmark.fileFromInputStream,2
BigDecimal$StringBuilderHelper.putIntCompact,2
BigDecimal.<clinit>,2
BigDecimal.<init>,32
BigDecimal.checkScale,2
BigDecimal.divideAndRound,4
BigDecimal.inflated,2
BigDecimal.layoutChars,6
BigDecimal.valueOf,6
BigInteger.<init>,2
BigInteger.smallToString,2
BigInteger.valueOf,2
Boolean.booleanValue,2
Boolean.equals,6
CalendarDate.setMillis,2
CalendarDate.setSeconds,2
ClassLoader.defineClass1,8
ClassPool.get0,2
Column.convert,6
Column.getColumnId,10
Column.updateSequenceIfRequired,2
Column.validateConvertUpdateSequence,4
Command.executeQueryLocal,10
Command.executeUpdate,82
Command.start,10
Command.stop,2
CommandContainer.query,2
CompareMode.compareString,8
Comparison.compareNotNull,2
Comparison.getValue,6
ConditionAndOr.getValue,16
ConditionAndOr.isEverything,6
ConditionExists.getValue,2
Database.<init>,2
Database.checkPowerOff,2
Database.getTrace,2
Database.isMultiVersion,2
Database.isReconnectNeeded,2
Date.normalize,12
DbObjectBase.getSQL,2
Driver.load,2
Expression.getBooleanValue,2
ExpressionColumn.getValue,6
ExpressionColumn.isEverything,4
ExpressionVisitor.<init>,2
ExpressionVisitor.get,2
ExpressionVisitor.getQueryLevel,2
FileOutputStream.writeBytes,2
Gregorian.getCalendarDate,2
HashMap.get,4
HashMap.getNode,10
HashMap.hash,2
HashMap.put,2
HashMap.putVal,6
HashMap.removeNode,18
HashSet.<init>,6
HashSet.remove,6
IndexCursor.find,22
IndexCursor.getSearchRow,8
IndexCursor.isAlwaysFalse,2
IndexCursor.next,6
Inflater.inflateBytes,22
Insert.insertRows,14
Insert.prepare,2
Integer.<init>,2
Integer.getChars,24
Integer.stringSize,4
Integer.toString,124
JarFile.initializeVerifier,2
JarVerifier.<init>,2
JdbcConnection.<init>,2
JdbcConnection.checkClosed,20
JdbcConnection.createStatement,2
JdbcPreparedStatement.executeUpdate,2
JdbcPreparedStatement.executeUpdateInternal,4
JdbcResultSet.checkClosed,4
JdbcResultSet.get,2
JdbcResultSet.getInt,2
JdbcResultSet.getString,6
JdbcResultSet.nextRow,2
JdbcStatement.checkClosed,12
LocalResult.addRow,4
LocalResult.next,8
Long.getChars,2
Math.min,2
MathUtils.compare,2
MultiVersionCursor.getSearchRow,6
MultiVersionCursor.loadNext,22
MultiVersionCursor.next,44
MultiVersionCursor.step,12
MultiVersionIndex.add,10
MultiVersionIndex.compareRows,6
MultiVersionIndex.find,6
MutableBigInteger.<init>,2
MutableBigInteger.add,2
NoFieldException.getExpr,2
OERandom.randomAString,2
OERandom.randomDecimalString,2
Object.<init>,2
Object.hashCode,8
Object.wait,32
ObjectArray$ObjectArrayIterator.<init>,2
ObjectArray$ObjectArrayIterator.hasNext,8
ObjectArray.add,2
ObjectArray.createArray,6
ObjectArray.get,18
ObjectArray.iterator,12
ObjectArray.set,2
ObjectArray.sort,26
ObjectArray.swap,6
Prepared.checkCanceled,6
Prepared.needRecompile,2
Prepared.setCurrentRowNumber,4
Query.isEverything,2
Query.prepareOrder,2
Query.query,6
Query.sameResultAsLast,2
Random.next,6
Random.nextDouble,2
Record.setSessionId,4
Row.<init>,2
Row.getValue,90
Row.isEmpty,4
Row.setValue,6
ScanCursor.next,4
ScanIndex.getNextRow,38
ScanIndex.incrementRowCount,2
Select.isEverything,22
Select.queryFlat,30
Select.queryWithoutCache,6
Session.commit,2
Session.getDatabase,2
Session.isReconnectNeeded,14
SimpleDateFormat.initializeCalendar,2
SimpleInsert.stockTable,6
SortOrder.sort,2
Standard.getOrderStatusForCustomer,2
Standard.newOrder,2
StatementHelper.prepareStatement,4
String.<init>,2
String.charAt,4
String.concat,2
String.getChars,12
String.hashCode,2
String.toCharArray,4
String.toUpperCase,2
StringBuffer.append,24
StringBuffer.length,2
StringBuffer.toString,10
StringBuilder.toString,4
StringCache.get,4
TPCC.calculateSumDB,14
TPCC.getTestResource,2
TPCC.preIteration,2
TPCCSubmitter.runTransactions,2
Table.compareTypeSave,18
Table.fireConstraints,2
Table.getTemplateRow,6
Table.validateConvertUpdateSequence,2
TableData$1.compare,4
TableData.addIndex,4
TableData.addRowsToIndex,8
TableData.lock,2
TableData.removeRow,2
TableFilter.getValue,6
TableFilter.isOk,8
TableFilter.next,6
Throwable.fillInStackTrace,10
TimeZone.getDefaultRef,4
Timestamp.toString,20
Trace.isEnabled,6
TraceObject.isDebugEnabled,2
TraceSystem.getTrace,2
TraceSystem.isEnabled,2
TreeCursor.<init>,2
TreeCursor.next,6
TreeIndex.add,12
TreeIndex.balance,6
TreeIndex.find,4
TreeIndex.findFirstNode,16
TreeIndex.next,24
TreeIndex.remove,2
TreeIndex.replace,2
TreeIndex.set,2
URL.set,2
UndoLog.getLast,2
Update.update,2
Value.cache,6
Value.checkPrecision,2
Value.compareTypeSave,26
Value.convertTo,12
ValueBoolean.compareSecure,2
ValueBoolean.get,2
ValueDecimal.checkPrecision,2
ValueExpression.isEverything,22
ValueInt.compareSecure,8
ValueInt.get,2
ValueInt.getInt,2
ValueInt.getPrecision,2
ValueNull.getString,2
ValueShort.compareSecure,14
ValueShort.get,6
ValueString.<init>,2
ValueString.compareSecure,2
ValueString.get,2
ValueStringBase.getString,2
ValueStringFixed.<init>,2
ValueStringFixed.equals,2
ValueStringFixed.get,2
ValueStringFixed.trimRight,2
ViewCursor.next,4
ZoneInfo.<clinit>,2
ZoneInfo.getOffsets,2
ZoneInfo.getTransitionIndex,6
ZoneInfoFile.load,2
