method,package1,package2,dram1,dram2,energy
AbstractCalendar.getCalendarDate,0.0,0.04612269239523655,0.0,0.004725482515428295,0.050848174910664845
AbstractCalendar.setTimeOfDay,0.11725348717867373,0.15259439266053976,0.005928743589491859,0.021512238519336493,0.2972888619480418
AbstractStringBuilder.<init>,0.2101059965381278,0.24866398320567062,0.026565491452505145,0.03164914860092908,0.5169846197972326
AbstractStringBuilder.append,0.047966777776309755,0.21880131862628682,0.00467166666728897,0.02868975269498942,0.30012951576487495
AbstractStringBuilder.ensureCapacityInternal,0.10163120833355302,0.4206316568398062,0.00967874999918826,0.05584409446509456,0.587785709637642
AbstractStringBuilder.newCapacity,0.0,0.3705036666554709,0.0,0.054733749999892695,0.42523741665536363
Alias.isEverything,0.0,0.0,0.0,0.0,0.0
Arrays.copyOf,0.0,0.24100409902738612,0.0,0.03156555634012802,0.27256965536751415
Arrays.copyOfRange,0.11419650793475968,0.5192606167873315,0.015302976190526795,0.08017423176654558,0.7289343326791635
AtomicLong.compareAndSet,0.050956266665646885,0.11357134013472994,0.00826850000024327,0.020413674366909083,0.19320978116752915
BaseCalendar.getCalendarDateFromFixedDate,0.06199035119083245,0.029080532161143095,0.008903750000085675,0.003486447978124105,0.10346108133018532
BaseCalendar.getFixedDate,0.027984666667180136,0.035806752440990734,0.00472999999995712,0.0014280762537511686,0.06994949536187917
BaseCalendar.getGregorianYearFromFixedDate,0.008470949495206541,0.0,0.0014424242424388235,0.0,0.009913373737645365
BaseCalendar.isLeapYear,0.0377533000002586,0.0,0.0018160000000231472,0.0,0.03956930000028175
BaseIndex.compareKeys,0.14775382371750123,0.0,0.017959900957823426,0.0,0.16571372467532466
BaseIndex.compareRows,2.4698438806141247,0.3547639735824146,0.338278294157011,0.051002183124406804,3.2138883314779574
BaseIndex.compareValues,0.5122286226848534,0.008923739087996044,0.067995715137425,0.001103873726931448,0.5902519506372058
BaseIndex.initBaseIndex,0.10777921619477447,0.0,0.010999293851417166,0.0,0.11877851004619164
BigDecimal.<init>,0.05599549090971282,0.17572672591867255,0.00829054545478853,0.02665746084020198,0.26667022312337585
BigDecimal.divideAndRound,0.023010333333028637,0.0,0.0033900000004602284,0.0,0.026400333333488867
BigDecimal.longMultiplyPowerTen,0.0,0.0,0.0,0.0,0.0
BigDecimal.multiply,0.0,0.0,0.0,0.0,0.0
BigDecimal.valueOf,0.016900952381374304,0.0,0.002742857142861578,0.0,0.019643809524235882
BigInteger.<init>,0.017534358973931283,0.0,0.002486153846033491,0.0,0.020020512819964774
BigInteger.add,0.0,0.0,0.0,0.0,0.0
BigInteger.implSquareToLen,0.0,0.0,0.0,0.0,0.0
BigInteger.valueOf,0.0,0.029634157894179225,0.0,0.0038842105264178064,0.03351836842059703
BufferedOutputStream.write,0.0,0.06610133333500319,0.0,0.008174999999634261,0.07427633333463746
CacheObject.<init>,0.08614916115465218,0.0,0.01109328168939714,0.0,0.09724244284404931
Calendar$Builder.build,0.0,0.09701550000318092,0.0,0.01228125000034197,0.10929675000352289
Calendar.getTime,0.0,0.033706500002153916,0.0,0.004095000000233996,0.03780150000238791
CalendarDate.setMinutes,0.013956666666975554,0.0,0.0009599999991931123,0.0,0.014916666666168666
CalendarDate.setSeconds,0.0,0.06477974492902032,0.0,0.006265910518836768,0.07104565544785708
Chaperone.retire,0.02117924999765819,0.0,0.004004999999779102,0.0,0.02518424999743729
ClassLoader.defineClass1,0.0,0.38415903837161436,0.0,0.049156588227108014,0.43331562659872236
ClassLoader.findBootstrapClass,0.0,0.05514524999671266,0.0,0.00822375000007014,0.0633689999967828
Collections$SynchronizedCollection.toArray,0.0,0.009511480765701774,0.0,0.001205498092131358,0.010716978857833131
Column.convert,0.23846160181035783,0.05492194736986053,0.03831355720736534,0.007822894736531643,0.33952000112411534
Column.getColumnId,0.3220778406488275,0.09787666666347328,0.043153689648547995,0.010220833333328806,0.47332903029417756
Column.validateConvertUpdateSequence,0.0,0.14352616385294759,0.0,0.021921155558846574,0.16544731941179416
Command.executeQueryLocal,0.0,0.11216230863575208,0.0,0.014081666667343486,0.12624397530309556
Command.executeUpdate,0.15016447773537628,0.3351231731115995,0.02346846499152132,0.04837050677885534,0.5571266226173525
Command.start,0.0,0.048219588161679705,0.0,0.009441158305431905,0.05766074646711161
CommandContainer.recompileIfRequired,0.05735213902580685,0.0,0.006746975921189415,0.0,0.06409911494699627
ComparableTimSort.binarySort,0.0,0.0,0.0,0.0,0.0
CompareMode.compareString,0.0,0.029020476970280495,0.0,0.002925014122968644,0.03194549109324914
Comparison.compareNotNull,0.04925566666740148,0.023225277546593925,0.009340000000520376,0.0027974761219920425,0.08461842033650782
Comparison.getValue,0.3897684578607098,0.0,0.05520314877749437,0.0,0.4449716066382042
Comparison.isEverything,0.06977131056708215,0.0,0.011325493341941988,0.0,0.08109680390902413
ConditionAndOr.getValue,0.09914239621921403,0.0,0.01378951695920171,0.0,0.11293191317841574
ConditionAndOr.isEverything,0.017182133333214247,0.0,0.0024906666668054337,0.0,0.01967280000001968
ConstraintReferential.checkRow,0.024749833333771683,0.0,0.00405750000027183,0.0,0.028807333334043513
ConstraintReferential.checkRowOwnTable,0.0,0.0,0.0,0.0,0.0
ConstraintReferential.found,0.0,0.0,0.0,0.0,0.0
DataInputStream.readUnsignedShort,0.0,0.06007375000262982,0.0,0.008212499999899592,0.06828625000252941
Database.<init>,0.0,0.07529700000304729,0.0,0.010979999999714588,0.08627700000276188
Database.beforeWriting,0.0,0.0744966585780847,0.0,0.012934265041292886,0.08743092361937758
Database.getMode,0.0,0.06887959165279445,0.0,0.016712943115698778,0.08559253476849323
Database.getNextModificationDataId,0.0,0.01903622222178253,0.0,0.0024133333334046053,0.021449555555187134
Database.isReconnectNeeded,0.028622476190018155,0.16016705369497566,0.0046057142857794785,0.022836623310092292,0.21623186748086556
Date.getMinutes,0.0,0.058736333327639535,0.0,0.007870000000669581,0.06660633332830912
Date.getTimeImpl,0.04101561904757372,0.06650799999867255,0.004665714285996121,0.009480000000015329,0.12166933333225771
Date.getYear,0.03944395833362553,0.0,0.005828124999425199,0.0,0.04527208333305073
Date.normalize,0.0,0.21209733332458805,0.0,0.030834999999873006,0.24293233332446107
DbObjectBase.getSQL,0.0,0.10726485715297583,0.0,0.012912857143029605,0.12017771429600543
DecimalFormat.<init>,0.0,0.0,0.0,0.0,0.0
DisabledAlgorithmConstraints.<init>,0.0,0.09887700000035693,0.0,0.014898750000156726,0.11377575000051365
Driver.connect,0.0,0.06007375000262982,0.0,0.008212499999899592,0.06828625000252941
Expression.getBooleanValue,0.0,0.0,0.0,0.0,0.0
ExpressionColumn.getValue,0.18590772917035184,0.0,0.027808125000592557,0.0,0.2137158541709444
ExpressionColumn.isEverything,0.18329982882473653,0.0,0.027863779877306274,0.0,0.21116360870204282
ExpressionVisitor.get,0.0527354410677354,0.0,0.005019748890322124,0.0,0.05775518995805753
ExpressionVisitor.incrementQueryLevel,0.02332237561881409,0.0,0.003959628637128163,0.0,0.027282004255942252
FileOutputStream.writeBytes,0.0,0.20292133333956974,0.0,0.0287249999995159,0.23164633333908563
FloatingDecimal.readJavaFormatString,0.0,0.06157777777439656,0.0,0.0075805555553853515,0.06915833332978191
Gregorian.<init>,0.0,0.07981366666111474,0.0,0.010949999999866122,0.09076366666098086
Gregorian.newCalendarDate,0.02780149999913798,0.0,0.004722499999843421,0.0,0.0325239999989814
HashMap.<init>,0.0,0.0,0.0,0.0,0.0
HashMap.get,0.0,0.0,0.0,0.0,0.0
HashMap.getNode,0.059008000000506974,0.20887259199973013,0.009763636363486787,0.028951844957568793,0.3065960733212927
HashMap.hash,0.0,0.18731610568721904,0.0,0.028657486652480548,0.2159735923396996
HashMap.newNode,0.0,0.06838266666801203,0.0,0.006811428571555075,0.0751940952395671
HashMap.put,0.0,0.10677156790233658,0.0,0.015222222221842613,0.12199379012417919
HashMap.putVal,0.04286700000011479,0.028181449222489705,0.006720000000010865,0.003414284928290784,0.08118273415090616
HashMap.removeNode,0.09969403463144544,0.0,0.014690746753378288,0.0,0.11438478138482372
HashMap.resize,0.0,0.0,0.0,0.0,0.0
IndexCursor.find,0.34394076549406066,0.0,0.05011765518172526,0.0,0.3940584206757859
IndexCursor.getSearchRow,0.12470923723969868,0.06267972222202743,0.019970517911558287,0.008254166666827384,0.2156136440401118
Inflater.inflateBytes,0.0,0.5526123333256692,0.0,0.08061500000076194,0.6332273333264311
Insert.insertRows,0.11793216666774242,0.15873432241061436,0.017869999999908404,0.021078129677807953,0.31561461875607316
Integer.getChars,0.1068915989903017,0.7044413728284944,0.01168363636418809,0.10805220288161552,0.9310688110645997
Integer.parseInt,0.0,0.0,0.0,0.0,0.0
Integer.stringSize,0.029378222222375263,0.22878066667666036,0.0,0.031550000000303655,0.28970888889933927
Integer.toString,0.6765279768580923,2.986959876763107,0.07492881174247212,0.4327235417000417,4.171140207063713
JdbcConnection.<init>,0.0,0.1135866666639534,0.0,0.016460000000127668,0.13004666666408107
JdbcConnection.checkClosed,0.18280807906001387,0.6172865054552445,0.026428030301898477,0.09232619614704143,0.9188488109641982
JdbcConnection.prepareStatement,0.02320785714237857,0.0,0.002792857142897749,0.0,0.026000714285276318
JdbcPreparedStatement.setParameter,0.05097089230862017,0.09811072415515155,0.007154923077047362,0.01568317927291509,0.17191971881373416
JdbcPreparedStatement.setString,0.014684083333122544,0.0,0.002368750000035409,0.0,0.017052833333157952
JdbcResultSet.checkClosed,0.0,0.08331418192812737,0.0,0.009027571886029095,0.09234175381415646
JdbcResultSet.checkOnValidRow,0.0,0.15361183333637501,0.0,0.022529166666976783,0.1761410000033518
JdbcResultSet.get,0.0,0.2742140444437003,0.0,0.03940233333376252,0.3136163777774628
JdbcResultSet.getString,0.05073466666674773,0.08295694443707664,0.006554285714325184,0.010708333333140115,0.15095423015128967
JdbcStatement.checkClosed,0.16887913756846695,0.25002073362400423,0.028653531745365675,0.03624873145277732,0.48380213439061415
Launcher$AppClassLoader.loadClass,0.0,0.01887524999983725,0.0,0.002302499999586871,0.021177749999424123
LocalResult.addRow,0.06568573099375179,0.0,0.005191578947185342,0.0,0.07087730994093713
LocalResult.getColumnName,0.0,0.0,0.0,0.0,0.0
LocalResult.getList,0.07484933333277391,0.0,0.007455000000239426,0.0,0.08230433333301333
LocalResult.next,0.0066435555557043035,0.0,0.0011563636362552645,0.0,0.007799919191959568
LocalResult.reset,0.029346479167694874,0.0,0.0028000000003582195,0.0,0.03214647916805309
Long.getChars,0.0,0.08046793670887964,0.0,0.012047234284377395,0.09251517099325704
Long.signum,0.02837035897447585,0.0,0.004163076922757168,0.0,0.032533435897233016
MathContext.<clinit>,0.0,0.06779474999711965,0.0,0.008280000000013388,0.07607474999713304
MathUtils.compare,0.29389517092177037,0.0,0.04074431027201188,0.0,0.33463948119378223
MessageFormat.applyPattern,0.0,0.0,0.0,0.0,0.0
MethodAccessorGenerator.generate,0.0,0.02135830735439077,0.0,0.0027929251557408147,0.024151232510131584
MultiVersionCursor.getSearchRow,0.05513934838136402,0.12099874330093599,0.007477920110970298,0.014643144627992554,0.19825915642126285
MultiVersionCursor.loadNext,0.1735796291525804,0.06844941980792794,0.028888547366340098,0.008945592578111311,0.27986318890495976
MultiVersionCursor.next,0.2529862666193934,0.035742871982136215,0.040081681296779796,0.0045139780779415,0.3333247979762509
MultiVersionCursor.step,0.5748001147330095,0.0708110000002004,0.08617301955511938,0.00951999999991434,0.7413041342882436
MultiVersionIndex.add,0.03054882051312747,0.13250221765863618,0.0038953846154841953,0.020662974975746526,0.18760939776299435
MultiVersionIndex.commit,0.053192250001302455,0.0,0.009149999999863212,0.0,0.06234225000116567
MultiVersionIndex.compareRows,0.0548790704764958,0.04343820325930856,0.0070740571427935104,0.006354881536018932,0.11174621241461681
MultiVersionIndex.find,0.07425332675380525,0.0,0.00883583881478332,0.0,0.08308916556858857
MultiVersionIndex.removeIfExists,0.04508219985270353,0.0,0.006092265753287689,0.0,0.05117446560599122
OERandom.randomAString,0.0,0.08999489744378923,0.0,0.016222503727721008,0.10621740117151024
OERandom.randomAString24,0.02817799999926744,0.0,0.004772499999792975,0.0,0.03295049999906041
OERandom.randomInt,0.0,0.027121126563725596,0.0,0.006344830292850775,0.03346595685657637
Object.<init>,0.06586549073741761,0.0,0.008527271580714584,0.0,0.07439276231813219
Object.hashCode,0.0,0.1586416095599808,0.0,0.029203906153900717,0.18784551571388153
Object.wait,0.0,0.0,0.0,0.0,0.0
ObjectArray$ObjectArrayIterator.hasNext,0.22347146510648794,0.0,0.027945139669442825,0.0,0.25141660477593075
ObjectArray$ObjectArrayIterator.next,0.0,0.0,0.0,0.0,0.0
ObjectArray.add,0.05271145833285118,0.0,0.00591500000018641,0.0,0.05862645833303759
ObjectArray.get,0.1698828283165604,0.0385863999981666,0.023338341558829384,0.009764999999970313,0.2415725698735267
ObjectArray.iterator,0.09519043007023414,0.0,0.012594001206636266,0.0,0.10778443127687042
ObjectArray.newInstance,0.03808600000047591,0.04370297747441186,0.00495499999912378,0.005280011128869094,0.09202398860288066
ObjectArray.sort,0.422770533119011,0.05109179216438185,0.04939623167346275,0.006689204513388804,0.5299477614702445
Parameter.getParamValue,0.0,0.029449345378372863,0.0,0.004363691750551077,0.03381303712892394
Parameter.setValue,0.0,0.050214810579260985,0.0,0.010005707695103856,0.06022051827436484
Parser.readSimpleTableFilter,0.06717933333372153,0.0,0.010130000001178509,0.0,0.07730933333490003
Parser.readTerm,0.02443700000003446,0.0,0.0040143750002243905,0.0,0.02845137500025885
Prepared.checkCanceled,0.019281688888764213,0.0,0.002877333333405356,0.0,0.022159022222169568
Prepared.checkParameters,0.014684083333122544,0.0,0.002368750000035409,0.0,0.017052833333157952
Prepared.setCurrentRowNumber,0.0527354410677354,0.0,0.005019748890322124,0.0,0.05775518995805753
Query.getParameterValues,0.053728340987927635,0.0,0.007817638886684119,0.0,0.06154597987461175
Query.query,0.19682537615845108,0.0,0.026291821576269553,0.0,0.22311719773472063
Random.next,0.05635634397727609,0.1888769530228136,0.007756733337951861,0.030948351880100797,0.2839383822181424
Random.nextDouble,0.0,0.1904025128668987,0.0,0.02524885303580717,0.21565136590270587
Row.<init>,0.04041778292160742,0.0,0.007475728797064475,0.0,0.0478935117186719
Row.getValue,1.7612375252893093,0.17208660871100553,0.26304513399097856,0.024438125681909145,2.2208073936732027
Row.isEmpty,0.11705220779286557,0.0,0.01610863636389175,0.0,0.13316084415675733
Row.setValue,0.1412658562329032,0.1800024192863246,0.022872646647484486,0.03138015427322641,0.3755210764399387
ScanCursor.getSearchRow,0.06313066666431646,0.0,0.012059999999716334,0.0,0.0751906666640328
ScanCursor.next,0.03602819047574441,0.0,0.006182857143271357,0.0,0.04221104761901577
ScanIndex.commit,0.026361428571406227,0.0,0.0038000000001505076,0.0,0.030161428571556737
ScanIndex.getNextRow,0.7214931878762026,0.21097945356269443,0.12096152758333989,0.038588723793802834,1.0920228928160396
Select.isEverything,0.15013573414401055,0.052097811192065455,0.020576086196162732,0.006453994010028752,0.2292636255422675
Select.queryFlat,0.3289592117712328,0.12211127778088364,0.05468724009815748,0.01604750000024069,0.5218052296505146
Select.queryGroup,0.0,0.0,0.0,0.0,0.0
Select.queryWithoutCache,0.0562952567474392,0.0,0.007943523504931778,0.0,0.06423878025237098
ServiceLoader.parseLine,0.0,0.0626677500004007,0.0,0.008193750000373257,0.07086150000077396
Session.isClosed,0.06714599145278852,0.038961099946388265,0.010440940170990304,0.009551490190643074,0.12609952176081016
Session.isReconnectNeeded,0.11254153729519842,0.12190758417749403,0.01717181235524093,0.019824426731830748,0.27144536055976415
Session.log,0.0,0.0,0.0,0.0,0.0
SimpleDateFormat.initializeCalendar,0.0,0.07761633333090381,0.0,0.010999999999815676,0.08861633333071949
SimpleInsert.customerTable,0.0,0.03916531578962397,0.0,0.0051560526317189215,0.04432136842134289
SimpleInsert.orderTable,0.0,0.0803765349221173,0.0,0.012616465869745996,0.09299300079186329
SimpleInsert.stockTable,0.0,0.2395001213757589,0.0,0.04226231816796905,0.2817624395437279
Standard.newOrder,0.0,0.0,0.0,0.0,0.0
Standard.payment,0.0,0.0,0.0,0.0,0.0
Standard.sortOrderItems,0.0,0.019948053755470537,0.0,0.002770342973077377,0.022718396728547915
String.charAt,0.0,0.3619768666685559,0.0,0.0463535000006838,0.40833036666923966
String.getChars,0.14426375050536466,0.40428635420410647,0.01736984848477475,0.058873747350094395,0.6247937005443404
String.hashCode,0.0,0.07966607818573279,0.0,0.01751595015986856,0.09718202834560136
String.length,0.0,0.0,0.0,0.0,0.0
String.toCharArray,0.0,0.029634157894179225,0.0,0.0038842105264178064,0.03351836842059703
String.toUpperCase,0.0,0.032374643908595103,0.0,0.00441542752347074,0.03679007143206584
String.valueOf,0.0764465000029304,0.0686034285740572,0.012532499998997082,0.007937142856895833,0.16551957143288054
StringBuffer.append,0.08856979090935165,0.4740729346508884,0.008384545454232877,0.07868594939096521,0.6497132204054381
StringBuffer.toString,0.027925142857600886,0.09385778680100648,0.0046600000004261895,0.013323390323058777,0.13976631998209232
StringBuilder.append,0.0,0.11447505555204568,0.0,0.017150833333542122,0.1316258888855878
StringBuilder.toString,0.10914021153945586,0.051686251690282216,0.015905865385425735,0.008235083220766807,0.1849674118359306
StringCache.get,0.08186279653673095,0.0,0.0120358896102339,0.0,0.09389868614696485
StringCache.getCache,0.020979866666796926,0.0,0.003215999999762668,0.0,0.024195866666559596
System.currentTimeMillis,0.0,0.09887700000035693,0.0,0.014898750000156726,0.11377575000051365
TPCC.calculateSumDB,0.0,1.1288015436534702,0.0,0.15594832142848486,1.284749865081955
TPCCReporter.done,0.03229203703624619,0.0,0.004836111111217178,0.0,0.03712814814746337
Table.compareTypeSave,0.33989480706088143,0.0,0.046596764400477726,0.0,0.38649157146135915
Table.fireAfter,0.0,0.05021344186118154,0.0,0.006800232557928444,0.05701367441910998
Table.fireConstraints,0.04386400000172822,0.0,0.008079999999608845,0.0,0.051944000001337066
Table.getTemplateRow,0.32889463883421477,0.055766236283635535,0.050443319022692404,0.010343131560724441,0.4454473257012671
Table.updateRows,0.047481696969815385,0.0,0.007854545454558154,0.0,0.05533624242437354
Table.validateConvertUpdateSequence,0.0,0.01874614934051559,0.0,0.0030268331165282463,0.021772982457043837
TableData$1.compare,0.4243645831969144,0.0,0.05269783338538143,0.0,0.4770624165822958
TableData.addIndex,0.17621040616880876,0.0,0.02288951782703737,0.0,0.19909992399584614
TableData.addRowsToIndex,0.10264282251163821,0.056194253563816486,0.015213023679889217,0.009350723793179557,0.18340082354852347
TableData.getIndexes,0.0,0.06799885714592943,0.0,0.00806571428603049,0.07606457143195992
TableFilter.getValue,0.1643110338398838,0.13070069999812403,0.021763228310443746,0.023792999999568562,0.34056796214802015
TableFilter.isOk,0.17953491509085168,0.0,0.025326846356528515,0.0,0.2048617614473802
TableFilter.next,0.3747228347353477,0.0,0.05159543813622612,0.0,0.4263182728715738
TableFilter.prepare,0.0,0.0,0.0,0.0,0.0
Throwable.fillInStackTrace,0.0,0.04321681142383979,0.0,0.007599217792635952,0.05081602921647574
Throwable.getStackTraceElement,0.0,0.009511480765701774,0.0,0.001205498092131358,0.010716978857833131
TimeZone.getDefaultRef,0.0,0.11409533333304958,0.0,0.01656899999967815,0.13066433333272773
Timestamp.toString,0.03925312499935292,0.46154383332929383,0.004243750000417397,0.07064750000145067,0.5756882083305149
Trace.isEnabled,0.04286700000011479,0.1394989621855034,0.006720000000010865,0.017956459011156375,0.2070424211967854
TraceSystem.isEnabled,0.021308111111769296,0.0,0.0025816666663255696,0.0,0.023889777778094867
TreeCursor.<init>,0.061882764568134185,0.0,0.007915932242089628,0.0,0.06979869681022381
TreeCursor.get,0.035703757576729084,0.0,0.005854545454812151,0.0,0.04155830303154123
TreeCursor.next,0.07096247709347686,0.0,0.008650183677317113,0.0,0.07961266077079397
TreeIndex.add,0.27468619775939046,0.08548575075150947,0.035205327139911355,0.01274236198080071,0.408119637631612
TreeIndex.balance,0.06545069766555739,0.0,0.008012863486783667,0.0,0.07346356115234105
TreeIndex.child,0.10871698825303802,0.0,0.016258491989341275,0.0,0.1249754802423793
TreeIndex.findFirstNode,0.32431692295265,0.08414247059366006,0.050020512500524465,0.008984705882076192,0.46746461192891076
TreeIndex.next,0.3481305919803515,0.0915225697819709,0.05647933459471575,0.009541684202298431,0.5056741805593366
TreeIndex.remove,0.0,0.0,0.0,0.0,0.0
TreeIndex.replace,0.043524086868081166,0.0,0.005185621405001182,0.0,0.048709708273082346
TreeIndex.set,0.15504302539154424,0.014170447958677125,0.01773515709653213,0.0019279092433508516,0.18887653969010432
TreeNode.isFromLeft,0.058627307065813525,0.0,0.005784621764037113,0.0,0.06441192882985064
URLClassLoader.findClass,0.0,0.011331999999432204,0.0,0.0013600000002043089,0.012691999999636513
URLStreamHandler.parseURL,0.0,0.07529700000304729,0.0,0.010979999999714588,0.08627700000276188
Update.update,0.0,0.0,0.0,0.0,0.0
Value.<clinit>,0.0,0.07110600000305567,0.0,0.008174999999937427,0.0792810000029931
Value.cache,0.03008626666754329,0.0,0.004271999999764376,0.0,0.034358266667307666
Value.checkPrecision,0.0,0.026591000000027832,0.0,0.0034066666667058603,0.029997666666733692
Value.compareTo,0.1400715999979487,0.01734693311093298,0.022629999998753193,0.002058494651406322,0.18210702775904117
Value.compareTypeSave,0.14881954887859417,0.06211504008256857,0.02075721985149604,0.009313228669469088,0.24100503748212787
Value.convertTo,0.06871587412612903,0.1894730160791368,0.010092727272515332,0.02776345102656447,0.2960450685043456
ValueInt.compareSecure,0.16793225013651183,0.037440540478216225,0.021913141965530313,0.004218003370288687,0.23150393595054708
ValueInt.get,0.04212533333338797,0.0808866458454208,0.007883636363355132,0.010301563569724087,0.14119717911188798
ValueInt.getInt,0.0,0.06332210951192982,0.0,0.011694243556325859,0.07501635306825567
ValueInt.getPrecision,0.0,0.0756035055981506,0.0,0.01686897156883593,0.09247247716698653
ValueShort.compareSecure,0.24763977502748277,0.05215214670179121,0.03810021378460845,0.007102296183899823,0.34499443169778227
ValueShort.get,0.017756083333248775,0.04557932615037855,0.003035000000030171,0.0077389545842401096,0.0741093640678976
ValueString.<init>,0.0,0.08519603997568984,0.0,0.012869306818229023,0.09806534679391886
ValueString.compareSecure,0.03768061111036837,0.0,0.006323333333461455,0.0,0.04400394444382982
ValueString.get,0.0,0.06696903096892191,0.0,0.010930110669652871,0.07789914163857478
ValueStringBase.getString,0.014151111111493296,0.0,0.0024088888889376965,0.0,0.016560000000430994
ValueStringFixed.get,0.0,0.010314947178286588,0.0,0.0015694763248348075,0.011884423503121395
ValueTimestamp.compareSecure,0.0,0.0,0.0,0.0,0.0
ValueTimestamp.getType,0.0654233999994176,0.0,0.010732500000085564,0.0,0.07615589999950316
Vector.<init>,0.0,0.06610133333500319,0.0,0.008174999999634261,0.07427633333463746
ViewCursor.next,0.11934631579022509,0.0,0.01329473684247779,0.0,0.13264105263270287
Warehouse.setName,0.0,0.0,0.0,0.0,0.0
ZipFile$ZipFileInflaterInputStream.available,0.0,0.07737199999974109,0.0,0.010940000000118744,0.08831199999985984
ZipFile.read,0.0,0.150004000000384,0.0,0.02187000000049011,0.1718740000008741
ZoneInfo.getTransitionIndex,0.04697279999963939,0.13002799405011128,0.00023199999995995318,0.013909075528589956,0.1911418695783006
