method,package1,package2,dram1,dram2,energy
AbstractStringBuilder.<init>,0.1439845324581477,0.0,0.016779091420223387,0.0,0.1607636238783711
AbstractStringBuilder.append,0.3331478999188906,0.0,0.0477415266609974,0.0,0.380889426579888
AbstractStringBuilder.ensureCapacityInternal,0.22482791911811204,0.0,0.037135627747968004,0.0,0.26196354686608003
AbstractStringBuilder.newCapacity,0.0919263682931681,0.0,0.014916102793143681,0.0,0.10684247108631177
Address.setZip,0.0,0.0,0.0,0.0,0.0
ArrayList$Itr.next,0.018547404681778127,0.0,0.002620250006754215,0.0,0.021167654688532343
Arrays.copyOf,0.6627754550708203,0.0,0.09707837531410723,0.0,0.7598538303849275
Arrays.copyOfRange,0.23372735792954516,0.0,0.03277833609431124,0.0,0.2665056940238564
AtomicLong.compareAndSet,0.33674482023289104,0.0,0.04472468320605904,0.0,0.3814695034389501
BaseIndex.compareKeys,0.0,0.18058274999687757,0.0,0.02802499999946425,0.20860774999634182
BaseIndex.compareRows,2.2874740926238477,1.4541163489726063,0.29988263790252445,0.22479407990947683,4.266267159408455
BaseIndex.compareValues,0.504974758406384,0.7313875333384203,0.057089826392237905,0.11123499999948762,1.40468711813653
BigDecimal.<init>,0.13892921843454403,0.0,0.013845349423442989,0.0,0.15277456785798701
BigDecimal.add,0.0,0.0,0.0,0.0,0.0
BigDecimal.divideAndRound,0.044786731191211716,0.0,0.007400024545530927,0.0,0.05218675573674264
BigDecimal.movePointLeft,0.018949873962610896,0.0,0.0026536429711684468,0.0,0.021603516933779342
BigDecimal.movePointRight,0.07720542109268605,0.0,0.008628085238806066,0.0,0.08583350633149212
BigDecimal.setScale,0.023369818226059158,0.0,0.003369568336928746,0.0,0.026739386562987903
BigDecimal.toString,0.054324130697420564,0.0,0.005564819241213397,0.0,0.05988894993863396
BigDecimal.unscaledValue,0.03702562703870233,0.0,0.004413615932545611,0.0,0.041439242971247944
BigInteger.<init>,0.0,0.0417406943824957,0.0,0.006005717266390279,0.047746411648885975
BigInteger.abs,0.03209468699474448,0.0,0.004410034108576505,0.0,0.03650472110332098
BigInteger.multiplyByInt,0.0,0.0,0.0,0.0,0.0
BigInteger.smallToString,0.029537455420128863,0.0,0.004359501298277282,0.0,0.033896956718406146
BigInteger.valueOf,0.07259351674776438,0.0,0.01057174512415748,0.0,0.08316526187192186
Boolean.equals,0.09230050000041956,0.0,0.008632500000203436,0.0,0.100933000000623
BufferedInputStream.fill,0.03355353659564705,0.0,0.0037311180707787772,0.0,0.037284654666425825
BufferedInputStream.read,0.061106255721784165,0.0,0.0066828131637553115,0.0,0.06778906888553948
CacheObject.<init>,0.053933460782704334,0.0,0.0056123529410993505,0.0,0.05954581372380369
CalendarDate.getMinutes,0.04301247649540802,0.0,0.006815476162788168,0.0,0.04982795265819619
CalendarProviderImpl.getInstance,0.07205997191971629,0.0,0.008371912911584135,0.0,0.08043188483130043
CalendarSystem.<clinit>,0.061345355845965774,0.0,0.0075141439251239705,0.0,0.06885949977108974
Character.toUpperCaseEx,0.03237916666572952,0.0,0.004145000000183548,0.0,0.03652416666591307
ClassLoader.defineClass1,0.14752156191677168,0.0,0.014447968474478372,0.0,0.16196953039125006
ClassLoader.findBootstrapClass,0.0,0.0,0.0,0.0,0.0
Column.convert,0.1620166470562517,0.0028099726776298533,0.022042591962162454,0.0002295081966388506,0.1870987198926829
Column.getColumnId,0.17844585486589895,0.2532750000051843,0.02466757941316703,0.03821999999975863,0.4946084342840089
Column.validateConvertUpdateSequence,0.03189924907800282,0.0,0.0038729772611392453,0.0,0.035772226339142066
Command.checkCanceled,0.04897801893088566,0.0,0.006404585318424617,0.0,0.055382604249310276
Command.executeQueryLocal,0.0,0.0,0.0,0.0,0.0
Command.stop,0.03151858938475192,0.0,0.004348451306309214,0.0,0.03586704069106113
CommandContainer.getParameters,0.02374709109672917,0.0,0.003288881805681743,0.0,0.027035972902410915
CommandContainer.isTransactional,0.10402148755195338,0.0,0.01433410672453437,0.0,0.11835559427648776
CommandContainer.recompileIfRequired,0.0,0.0,0.0,0.0,0.0
ComparableTimSort.binarySort,0.07376024242539918,0.0,0.008341818181868417,0.0,0.0821020606072676
CompareMode.compareString,0.0,0.0,0.0,0.0,0.0
Comparison.compareNotNull,0.028351292705219886,0.0,0.0043856185597823455,0.0,0.03273691126500223
Comparison.getValue,0.2590344445694389,0.6966007517006791,0.03310073988450129,0.1163087821517731,1.1050447183063925
ConditionAndOr.getValue,0.05495286956505405,0.0,0.008100000000052641,0.0,0.0630528695651067
ConditionAndOr.isEverything,0.08245177734727474,0.0,0.011674109458929154,0.0,0.0941258868062039
ConstPool.readOne,0.052585670328121836,0.0,0.0059595226882562715,0.0,0.05854519301637811
ConstraintReferential.checkRow,0.0,0.0,0.0,0.0,0.0
ConstraintReferential.found,0.0,0.0,0.0,0.0,0.0
Database.isReconnectNeeded,0.2547952579785625,0.0,0.03218151433404545,0.0,0.286976772312608
Date.getMinutes,0.06469068498374167,0.0,0.011817524648099586,0.0,0.07650820963184125
Date.getTimeImpl,0.03386591196689913,0.0,0.005775569317753707,0.0,0.039641481284652835
Date.normalize,0.49770017562006985,0.0,0.0826778517254647,0.0,0.5803780273455346
DriverManager.<clinit>,0.007931674361744072,0.0,0.0005790207172175559,0.0,0.008510695078961628
Engine.openSession,0.026579060007971247,0.0,0.002778398417454872,0.0,0.029357458425426117
ExpiringCache.entryFor,0.0,0.0,0.0,0.0,0.0
Expression.getBooleanValue,0.2906892650817013,0.0,0.03366078634321402,0.0,0.3243500514249153
ExpressionColumn.getValue,0.3925750524625399,0.2502238666570823,0.06124663696806099,0.03675200000070618,0.7407975560883894
ExpressionColumn.isEverything,0.13397018962791782,0.0,0.013668801814992174,0.0,0.14763899144290998
ExpressionVisitor.get,0.050689868303082884,0.0,0.006432761384465856,0.0,0.05712262968754874
ExpressionVisitor.getType,0.042869324399830905,0.0,0.006084630807586461,0.0,0.04895395520741737
FileOutputStream.writeBytes,0.09416452622314557,0.0,0.008941745996898946,0.0,0.10310627222004451
FloatingDecimal.readJavaFormatString,0.0,0.0,0.0,0.0,0.0
Formatter$FormatSpecifier.<init>,0.006118785714144386,0.0,0.0006680357143652925,0.0,0.0067868214285096784
Function.getSimpleValue,0.04984286527088532,0.0,0.005703431595218333,0.0,0.055546296866103656
HashMap$Node.<init>,0.03209468699474448,0.0,0.004410034108576505,0.0,0.03650472110332098
HashMap.<init>,0.0,0.0,0.0,0.0,0.0
HashMap.getNode,0.13871745193337476,0.0,0.016096939287976248,0.0,0.15481439122135102
HashMap.hash,0.1356862987279648,0.0,0.017770673568912366,0.0,0.1534569722968772
HashMap.put,0.01786413461415991,0.0,0.0022097128866535804,0.0,0.02007384750081349
HashMap.putVal,0.035702738329903436,0.0,0.00529483780562285,0.0,0.040997576135526285
HashMap.remove,0.048911778838059715,0.0,0.005701628728821976,0.0,0.05461340756688169
HashMap.resize,0.06254066666588187,0.009342351657009359,0.008079999998396184,0.0012982940047451515,0.08126131232603258
HashSet.remove,0.060498491186886265,0.0,0.007119773564357389,0.0,0.06761826475124365
Hashtable.get,0.0,0.0,0.0,0.0,0.0
IndexCondition.getColumn,0.0,0.07322200000150282,0.0,0.010800000000017462,0.08402200000152028
IndexCondition.getCurrentValue,0.12912707275424007,0.0,0.013251192826129542,0.0,0.14237826558036962
IndexCursor.find,0.18525370461907198,0.0,0.021145912867054903,0.0,0.2063996174861269
IndexCursor.getSearchRow,0.04922301040515253,0.06418866667081602,0.007114794375996374,0.009445000000293172,0.1299714714522581
IndexCursor.next,0.15682792549029245,0.08774833333639738,0.015457147058552043,0.013620000000325186,0.2736534058855671
Inflater.inflateBytes,0.07155950075588591,0.0,0.007222735607660328,0.0,0.07878223636354624
Insert.insertRows,0.40371788018410043,0.0,0.051056763463544666,0.0,0.4547746436476451
Integer.getChars,1.0733141597437192,0.0,0.15872861235343622,0.0,1.2320427720971554
Integer.stringSize,0.08785823904027792,0.0,0.015338111548613143,0.0,0.10319635058889107
Integer.toString,3.37735848509,0.0,0.5355219007291083,0.0,3.912880385819108
Integer.valueOf,0.047401590034288774,0.0,0.006569214184930863,0.0,0.05397080421921964
JarFile$JarFileEntry.getCodeSigners,0.026579060007971247,0.0,0.002778398417454872,0.0,0.029357458425426117
JdbcConnection.checkClosed,0.9857306425722852,0.0,0.1444840558152515,0.0,1.1302146983875367
JdbcConnection.rollback,0.0,0.0,0.0,0.0,0.0
JdbcPreparedStatement.executeUpdate,0.015496941237353309,0.0,0.0020312143809192635,0.0,0.017528155618272572
JdbcPreparedStatement.setParameter,0.0,0.0,0.0,0.0,0.0
JdbcResultSet.checkClosed,0.07761298761121513,0.0,0.013458263223762479,0.0,0.09107125083497761
JdbcResultSet.checkColumnIndex,0.03543625176175052,0.0,0.006052994852731194,0.0,0.04148924661448171
JdbcResultSet.get,0.1402545331750477,0.0,0.017103862683388673,0.0,0.1573583958584364
JdbcResultSet.getColumnIndex,0.0,0.0,0.0,0.0,0.0
JdbcResultSet.getString,0.022370745948495575,0.0,0.0037668623457264953,0.0,0.02613760829422207
JdbcStatement.checkClosed,0.47757237267631897,0.0,0.07303349056807654,0.0,0.5506058632443955
JdbcStatement.checkClosedForWrite,0.0,0.0,0.0,0.0,0.0
Launcher$AppClassLoader.loadClass,0.0806878664777611,0.0,0.009831506191841177,0.0,0.09051937266960228
LocalResult.done,0.05109471604975377,0.0,0.005605925925875104,0.0,0.05670064197562887
LocalResult.next,0.19166205168736913,0.0930583333344354,0.026259013023247974,0.018520000000232045,0.3294993980452845
Long.toString,0.1537263889500687,0.0,0.014915805911275056,0.0,0.16864219486134377
MathUtils.compare,0.16813323705218908,0.1097259166672302,0.019864715365446563,0.017310000000027987,0.3150338690848938
MathUtils.convertLongToInt,0.12532806053294518,0.0,0.019137700763218732,0.0,0.1444657612961639
MathUtils.setScale,0.02374709109672917,0.0,0.003288881805681743,0.0,0.027035972902410915
Message.getSQLException,0.0,0.0,0.0,0.0,0.0
Message.throwInternalError,0.1185816537460554,0.0,0.015128715580102639,0.0,0.13371036932615804
MethodAccessorGenerator.generate,0.03237916666572952,0.0,0.004145000000183548,0.0,0.03652416666591307
MultiVersionCursor.getSearchRow,0.0,0.2306075593218595,0.0,0.03664697712045277,0.2672545364423123
MultiVersionCursor.loadNext,0.11714272456215766,0.10399190820969748,0.01562828789545484,0.014639705228114207,0.25140262589542417
MultiVersionCursor.next,0.8044770148898418,0.060476999999082175,0.0994001945872581,0.009948214285421792,0.9743024237616039
MultiVersionCursor.step,0.2215566291288597,0.2267860000041158,0.023901332290068827,0.037800000000667446,0.5100439614237118
MultiVersionIndex.<init>,0.0,0.09045400000468362,0.0,0.014459999999720212,0.10491400000440383
MultiVersionIndex.add,0.0,0.0907183333329158,0.0,0.013775000000047536,0.10449333333296335
MultiVersionIndex.commit,0.0,0.0,0.0,0.0,0.0
MultiVersionIndex.compareRows,0.19296043710645297,0.1325073333355249,0.024513552601984737,0.02055749999908585,0.3705388230430484
MultiVersionIndex.find,0.1644115510927231,0.1366221388824569,0.020475615215784705,0.021109999999983604,0.3426193051909483
OERandom.randomData,0.02871636718524524,0.0,0.0032351294766695573,0.0,0.0319514966619148
OERandom.randomInt,0.029090496223628626,0.0,0.004384301695137057,0.0,0.03347479791876568
OERandom.randomNString,0.049991143014231264,0.0,0.007384742114601166,0.0,0.05737588512883243
Object.<init>,0.0,0.09053566667231884,0.0,0.014440000000225457,0.1049756666725443
Object.hashCode,0.20702852542059152,0.016413462821954026,0.024054350967653064,0.0023687316684873954,0.249865070878686
Object.wait,0.0,0.0,0.0,0.0,0.0
ObjectArray$ObjectArrayIterator.hasNext,0.11404113700764518,0.0,0.012876094076800309,0.0,0.1269172310844455
ObjectArray.<init>,0.0,0.07200133333390113,0.0,0.01111499999994218,0.08311633333384331
ObjectArray.createArray,0.041120603878573685,0.0,0.005451433622237845,0.0,0.04657203750081153
ObjectArray.get,0.4135584654149574,0.1071726666741597,0.06000437537130322,0.015610000000530515,0.5963455074609507
ObjectArray.iterator,0.0,0.128906000002947,0.0,0.01868000000043442,0.1475860000033814
ObjectArray.newInstance,0.050689868303082884,0.0,0.006432761384465856,0.0,0.05712262968754874
ObjectArray.sort,0.38970641381129567,0.1957193333316051,0.050956871823766334,0.030155000000377186,0.6665376189670442
ObjectArray.swap,0.0,0.1512656666697391,0.0,0.02179000000069209,0.17305566667043118
ObjectUtils.arrayCopy,0.1758097572132595,0.0930583333344354,0.023973101287526565,0.018520000000232045,0.3113611918354535
Parameter.getParamValue,0.06187540468881542,0.0,0.010593016908551422,0.0,0.07246842159736684
Parser.parseColumnList,0.025911666821111172,0.0,0.00381057389402997,0.0,0.02972224071514114
Prepared.checkCanceled,0.017425500363583892,0.0,0.0025747218113731435,0.0,0.020000222174957036
Prepared.checkParameters,0.1588640947235716,0.0881873332972553,0.020316954489232923,0.011598824867435383,0.27896720737749525
Prepared.setCurrentRowNumber,0.1707557683402102,0.02988371794717983,0.02020833611813299,0.0041846153845444154,0.22503243779006746
Prepared.trace,0.04648345941716806,0.0,0.005084536290531114,0.0,0.051567995707699175
Query.getParameterValues,0.04830837912780776,0.156661916666053,0.007041332289435238,0.02484249999967384,0.23685412808296985
Query.query,0.005705178947200214,0.13698346666739478,0.0008614736841991544,0.022115999999490057,0.16566611929828418
Random.next,0.3317488643023736,0.0,0.04776544319076894,0.0,0.3795143074931425
Random.nextDouble,0.07921204350115651,0.0,0.008981685749718752,0.0,0.08819372925087526
Record.<init>,0.052246095237067136,0.04766825000115205,0.005937142856834854,0.007094999999935681,0.11294648809498972
Record.getSessionId,0.11686524583814836,0.0,0.016192569764481645,0.0,0.13305781560263
Row.getValue,1.5851363868239663,0.4473352046526604,0.2262699807428691,0.06741891475858834,2.3261604869780843
Row.isEmpty,0.04105874646924567,0.0,0.005394218988767157,0.0,0.04645296545801283
Row.setValue,0.12013559626464186,0.07102466666644128,0.016396236914220763,0.010899999999916568,0.21845649984522045
ScanIndex.add,0.06254066666588187,0.0,0.008079999998396184,0.0,0.07062066666427806
ScanIndex.getNextRow,0.5317364178318799,0.0,0.07414100190766802,0.0,0.6058774197395479
ScanIndex.incrementRowCount,0.025239182243483125,0.0,0.003654199516946618,0.0,0.028893381760429743
SecureClassLoader.getProtectionDomain,0.0,0.0,0.0,0.0,0.0
Select.isEverything,0.10449580030941874,0.18552633333699,0.014214491406561983,0.02971000000009856,0.33394662505306927
Select.queryFlat,0.9789352653491588,0.49987833333822584,0.1383556149654125,0.07856500000101126,1.6957342136538085
Select.queryWithoutCache,0.10343816420096608,0.23324275956082965,0.013176379570889414,0.04755327868870502,0.3974105820213901
Session.isClosed,0.08733326472204861,0.0,0.013913816818273693,0.0,0.1012470815403223
Session.isReconnectNeeded,0.4611590152190903,0.0,0.07092847296193115,0.0,0.5320874881810215
Session.setWaitForLock,0.05472736971660483,0.0,0.0047986374672246545,0.0,0.059526007183829485
Session.waitIfExclusiveModeEnabled,0.04224839999951655,0.0,0.004673999999795342,0.0,0.046922399999311894
SimpleInsert.customerTable,0.0,0.0,0.0,0.0,0.0
SimpleInsert.orderTable,0.09328477967136369,0.0,0.009124097273956593,0.0,0.10240887694532028
SimpleInsert.stockTable,0.13366580213669052,0.0,0.01710109993808013,0.0,0.15076690207477064
SoftReference.get,0.09841056899475654,0.0,0.012856273087509435,0.0,0.11126684208226598
Standard.<init>,0.02974450000086411,0.0,0.004815000000235159,0.0,0.034559500001099266
StreamEncoder.write,0.0,0.0,0.0,0.0,0.0
String.<init>,0.0896219175071214,0.0,0.014952497356572904,0.0,0.1045744148636943
String.charAt,0.18902474506092576,0.0,0.02543525749298502,0.0,0.2144600025539108
String.concat,0.07752447905128616,0.0,0.00716368485793895,0.0,0.08468816390922511
String.equals,0.04816969382797116,0.0,0.008335765824137779,0.0,0.056505459652108944
String.getChars,0.2841647924828494,0.0,0.04536289308603153,0.0,0.32952768556888096
String.hashCode,0.3020198444416359,0.0,0.03913141707222608,0.0,0.34115126151386194
String.length,0.12833734790237852,0.09985333332830727,0.015858299757619952,0.016364999999495918,0.26041398098780166
String.substring,0.060768712864884805,0.0,0.009822010082132222,0.0,0.07059072294701703
String.toCharArray,0.0547004562437708,0.0,0.005122133844841507,0.0,0.05982259008861231
String.toUpperCase,0.0,0.0,0.0,0.0,0.0
String.valueOf,0.028777579270901424,0.0,0.00476171703861405,0.0,0.03353929630951547
StringBuffer.append,0.08631328604841865,0.055196333337031916,0.01374393618845835,0.009215000000040163,0.16446855557394907
StringBuffer.toString,0.10492179088123149,0.0,0.01508018126800431,0.0,0.1200019721492358
StringBuilder.append,0.06503088172774994,0.0,0.007964873260792213,0.0,0.07299575498854216
StringCache.get,0.11281805478968443,0.0,0.014347348059045115,0.0,0.12716540284872954
StringCache.getCache,0.07035119325177741,0.0,0.00824986771894312,0.0,0.07860106097072053
System.currentTimeMillis,0.0806878664777611,0.0,0.009831506191841177,0.0,0.09051937266960228
TPCC.calculateSumDB,0.3516670134441804,0.17912626666463136,0.04267953678557676,0.02711899999958405,0.6005918168939726
TPCCSubmitter.runTransactions,0.0,0.0,0.0,0.0,0.0
Table.compareTypeSave,0.35753442296761345,0.0,0.04201304738170593,0.0,0.39954747034931937
Table.fireConstraints,0.13538374444529136,0.0,0.015930737104584612,0.0,0.15131448154987598
Table.getTemplateRow,0.2712634671418577,0.4360877999919467,0.03877423466244535,0.0713850000003731,0.8175105017966228
TableData$1.compare,0.06075272622176335,0.2881876666700312,0.009104743433405423,0.046084999999948195,0.4041301363251482
TableData.addIndex,0.0672567965828287,0.2997085833242939,0.008233735828313665,0.046777500000340894,0.42197661573577716
TableData.addRow,0.038492571152293896,0.0,0.005600483738291199,0.0,0.0440930548905851
TableData.addRowsToIndex,0.17907324940772504,0.0,0.0214363470612577,0.0,0.20050959646898275
TableData.doLock,0.0,0.0,0.0,0.0,0.0
TableData.removeRow,0.0,0.0,0.0,0.0,0.0
TableFilter.getValue,0.31118449232583245,0.0,0.04567478358188693,0.0,0.3568592759077194
TableFilter.isOk,0.0,0.29823800001274015,0.0,0.04335499999979219,0.34159300001253234
TableFilter.next,0.05254444444532661,0.04766825000115205,0.005256666666051993,0.007094999999935681,0.11256436111246634
TableFilter.startQuery,0.053933460782704334,0.0,0.0056123529410993505,0.0,0.05954581372380369
Throwable.fillInStackTrace,0.0,0.0,0.0,0.0,0.0
TimeZone.getDefaultRef,0.037757513088256006,0.0,0.0064976652694847745,0.0,0.04425517835774078
Timestamp.toString,0.40138388540424635,0.0,0.06538269820955538,0.0,0.46676658361380174
Trace.isEnabled,0.10497855792553351,0.12181010706778825,0.013728700402294083,0.017074030302609743,0.2575913956982256
TraceObject.isDebugEnabled,0.02230844982236532,0.0,0.0033519738427299174,0.0,0.025660423665095237
TraceSystem.getTrace,0.04214192354958337,0.0,0.006007262649171081,0.0,0.048149186198754454
TraceSystem.isEnabled,0.11531670667348999,0.0,0.015438492259767473,0.0,0.13075519893325746
TransactionCommand.update,0.0,0.0,0.0,0.0,0.0
TreeCursor.get,0.0,0.05317674999605515,0.0,0.008272499999748106,0.06144924999580326
TreeCursor.next,0.14263768720045275,0.07154140820467564,0.01768807897392751,0.010879705228360768,0.24274687960741667
TreeIndex.add,0.16565365410849803,0.0,0.02175033312038667,0.0,0.18740398722888468
TreeIndex.balance,0.0,0.18448858334159013,0.0,0.02682875000027707,0.2113173333418672
TreeIndex.child,0.06610217984252577,0.0,0.009129736433911151,0.0,0.07523191627643692
TreeIndex.find,0.32500395518522396,0.0,0.040949389064050365,0.0,0.36595334424927434
TreeIndex.findFirstNode,0.2578656859426756,0.5174154166537239,0.03659667273829589,0.08106000000179846,0.8929377753364939
TreeIndex.next,0.37412013607945666,0.6032863333178586,0.048454085597094604,0.09257500000179182,1.1184355549962015
TreeIndex.remove,0.0,0.0,0.0,0.0,0.0
TreeIndex.replace,0.0,0.1471353333375494,0.0,0.021900000000338572,0.16903533333788798
TreeIndex.set,0.0,0.242349833324018,0.0,0.037757499999467356,0.28010733332348536
UndoLog.getLast,0.016871929803710068,0.0,0.002132071527819207,0.0,0.019004001331529276
Update.update,0.0709840000005594,0.0,0.010880000000421813,0.0,0.08186400000098122
Value.cache,0.35971120507248167,0.0,0.049566165682716795,0.0,0.40927737075519843
Value.checkPrecision,0.07023338332322049,0.0,0.011885966716840037,0.0,0.08211935004006052
Value.compareTo,0.0,0.05627433333332495,0.0,0.008820000000317425,0.06509433333364237
Value.compareTypeSave,0.5263707996921951,0.24742633332546876,0.07275507405626298,0.03792249999999815,0.8844747070739251
Value.convertTo,0.15019372279556778,0.08199066666808599,0.020562973928564272,0.012575000000045595,0.2653223633922636
ValueDecimal.get,0.056355452950998634,0.0,0.006436400782334885,0.0,0.06279185373333351
ValueDecimal.getString,0.029598071577734118,0.0,0.005249682507186818,0.0,0.03484775408492093
ValueInt.compareSecure,0.26145885892733084,0.08032233333506156,0.03180035369091144,0.01308000000062748,0.3866615459539313
ValueInt.get,0.029540314107560382,0.0,0.0038236048716484908,0.0,0.03336391897920887
ValueShort.compareSecure,0.1287500724520434,0.1760050000011688,0.017065948503583485,0.027779999999741747,0.34960102095653744
ValueString.<init>,0.03141707709634936,0.0,0.003766799735772317,0.0,0.03518387683212168
ValueString.compareSecure,0.0919596666669046,0.0,0.013619999999112526,0.0,0.10557966666601712
ValueString.get,0.08297725546538146,0.0,0.010938261375259568,0.0,0.09391551684064102
ValueStringBase.getPrecision,0.0418402241367798,0.0,0.005930515444543823,0.0,0.04777073958132362
ValueStringBase.getString,0.03431069870047529,0.06740299999849715,0.0039271303275012544,0.014750000000276488,0.12039082902675018
ValueStringFixed.get,0.038621345896541384,0.0,0.0051050628129541975,0.0,0.04372640870949558
ValueTimestamp.convertScale,0.03935847916193905,0.0,0.003137170929757572,0.0,0.04249565009169662
WeakHashMap.remove,0.0277263013948144,0.0,0.00349147554123506,0.0,0.031217776936049463
ZipFile.getEntry,0.035762611562399106,0.0,0.004083831089752294,0.0,0.0398464426521514
ZipFile.read,0.0572810599342642,0.0,0.006274048931337679,0.0,0.06355510886560188
ZoneInfo.getTransitionIndex,0.0,0.055196333337031916,0.0,0.009215000000040163,0.06441133333707208
