method,package1,package2,dram1,dram2,energy
AbstractCalendar.getCalendarDate,0.18020566678734357,0.0,0.014819076270965566,0.0,0.19502474305830914
AbstractCalendar.setTimeOfDay,0.24572457050673419,0.0,0.02831113233034047,0.0,0.2740357028370747
AccessorGenerator.<clinit>,0.023537145128874417,0.0,0.0023442185368475928,0.0,0.02588136366572201
BaseCalendar$Date.<init>,0.04172703835239795,0.0,0.0,0.0,0.04172703835239795
BaseCalendar.<clinit>,0.05140389004794044,0.0,0.0044775183090935465,0.0,0.055881408357033986
BaseCalendar.getCalendarDateFromFixedDate,0.11148192229354836,0.0,0.006140327884605431,0.0,0.1176222501781538
BaseCalendar.getGregorianYearFromFixedDate,0.04448505474294272,0.0,0.00047411153237522766,0.0,0.044959166275317944
BaseIndex.compareKeys,0.20111976796430694,0.0,0.021787936860955103,0.0,0.22290770482526204
BaseIndex.compareRows,2.102195817801502,0.6273377790407413,0.23398714378610158,0.09140705579982386,3.0549277964281685
BaseIndex.compareValues,0.7705562426216054,0.21599272801287528,0.08550129086437004,0.03485678567811833,1.106907047176969
Benchmark.fileFromInputStream,0.508196848366931,0.0,0.043852175590672095,0.0,0.5520490239576031
Benchmark.prepareJars,0.019922976157633717,0.0,0.0022077157132131355,0.0,0.022130691870846854
BitField.get,0.06318204486250878,0.0,0.005145903373469408,0.0,0.06832794823597818
CacheObject.<init>,0.0,0.0,0.0,0.0,0.0
CalendarDate.setHours,0.07074092594561186,0.0,0.004588868705329871,0.0,0.07532979465094174
CalendarSystem.forName,0.06689915587782391,0.0,0.008378797012678678,0.0,0.0752779528905026
CalendarUtils.isGregorianLeapYear,0.044218155988898576,0.0,0.007127877160477094,0.0,0.05134603314937567
Chaperone.retire,0.05966430496842836,0.0,0.008223391929741376,0.0,0.06788769689816973
Column.convert,0.5517353337725963,0.12093100000250465,0.050762233983020884,0.020675000000361852,0.7441035677584837
Column.getColumnId,0.5027628188945654,0.0,0.055090975059824146,0.0,0.5578537939543896
Column.validateConvertUpdateSequence,0.048827200516374784,0.0,0.004747232231887152,0.0,0.05357443274826194
Command.checkCanceled,0.06663848982000377,0.0,0.006188284321551837,0.0,0.07282677414155561
Command.executeQueryLocal,0.027810138812601547,0.07220207498442438,0.0039780359258747774,0.010512523313984421,0.11450277303688514
Command.executeUpdate,0.11647833676122932,0.19689215103315494,0.014072584477756245,0.024230675870380247,0.3516737481425207
CommandContainer.getParameters,0.04260698204078495,0.0,0.004725600839148848,0.0,0.047332582879933804
CommandContainer.isTransactional,0.04878431694923576,0.0,0.005082039325016517,0.0,0.05386635627425228
CommandContainer.recompileIfRequired,0.0,0.0,0.0,0.0,0.0
CommandContainer.update,0.09849148180103637,0.0,0.006941584208438203,0.0,0.10543306600947457
CompareMode.compareString,0.007122663791540249,0.07085460008301471,0.0008837938604825418,0.01215459308979803,0.09101565082483554
Comparison.getValue,0.30724909443756054,0.0,0.03176583515286413,0.0,0.3390149295904247
Comparison.isEverything,0.03501759988485989,0.0,0.003462504011396368,0.0,0.03848010389625626
ConditionAndOr.getValue,0.2757577016923083,0.0,0.028804208400899346,0.0,0.30456191009320766
ConditionAndOr.isEverything,0.08342945454404055,0.0,0.011070000000141921,0.0,0.09449945454418247
ConditionExists.getValue,0.10652270975135583,0.0,0.011603233386976173,0.0,0.11812594313833201
ConfigFileTokenManager.getNextToken,0.019922976157633717,0.0,0.0022077157132131355,0.0,0.022130691870846854
ConstraintReferential.checkRow,0.0,0.08044800000039465,0.0,0.016694545454811305,0.09714254545520595
Customer.setDiscount,0.0,0.0,0.0,0.0,0.0
DacapoClassLoader.loadClass,0.07191328381568364,0.0,0.006061338102931378,0.0,0.07797462191861501
Database.<init>,0.05240247032738067,0.0,0.004753948194306946,0.0,0.05715641852168762
Database.areEqual,0.0,0.0,0.0,0.0,0.0
Database.beforeWriting,0.22813917781985643,0.0,0.023706729812577244,0.0,0.2518459076324337
Database.getModificationMetaId,0.01849546373443241,0.0,0.002740908030370993,0.0,0.021236371764803405
Database.isReconnectNeeded,0.04017365081437964,0.0,0.003741820652001057,0.0,0.043915471466380696
Database.open,0.10419842944387653,0.0,0.009721984417968937,0.0,0.11392041386184547
Delete.update,0.0,0.12093100000250465,0.0,0.020675000000361852,0.1416060000028665
Driver.connect,0.054770528185202616,0.0,0.004049639102200754,0.0,0.05882016728740337
ExpressionColumn.getValue,0.18015261135028962,0.0,0.01662853496863721,0.0,0.19678114631892682
ExpressionColumn.isEverything,0.15963090613060454,0.0,0.017463598959580908,0.0,0.17709450509018546
ExpressionVisitor.get,0.012104837209448334,0.0,0.0013455813952546582,0.0,0.013450418604702991
ExpressionVisitor.getQueryLevel,0.06864999999899217,0.0,0.007214285713936469,0.0,0.07586428571292864
ExpressionVisitor.getType,0.017297471264623446,0.0,0.001874482758770076,0.0,0.01917195402339352
ExpressionVisitor.incrementQueryLevel,0.10843901075510387,0.0,0.011486129031450269,0.0,0.11992513978655414
FloatingDecimal.readJavaFormatString,0.0,0.0,0.0,0.0,0.0
FormattedFloatingDecimal.<clinit>,0.0,0.0,0.0,0.0,0.0
Function.getType,0.0,0.0,0.0,0.0,0.0
Gregorian.newCalendarDate,0.06865652562950117,0.0,0.0066372054381564,0.0,0.07529373106765758
HashBase.size,0.0,0.031764428571997474,0.0,0.004675714285830118,0.036440142857827595
IndexCondition.getCurrentValue,0.18594480868108915,0.0,0.02158624186873328,0.0,0.20753105054982243
IndexCondition.isStart,0.10317072103084707,0.0,0.01116618936119678,0.0,0.11433691039204386
IndexCursor.find,0.8644274464936605,0.0,0.07993407550750253,0.0,0.9443615220011631
IndexCursor.getMax,0.07954696296656039,0.0,0.00825999999977756,0.0,0.08780696296633794
IndexCursor.getSearchRow,0.11201184619876403,0.0,0.006370797903904443,0.0,0.11838264410266848
IndexCursor.next,0.1840841263501618,0.0,0.02057303023116023,0.0,0.20465715658132203
Insert.insertRows,0.30704974381607514,0.0,0.033129900308518354,0.0,0.3401796441245935
JdbcConnection.<init>,0.06279848943232243,0.0,0.004781021153303941,0.0,0.06757951058562636
JdbcConnection.checkClosed,0.9292145043962019,0.0,0.09397495507169971,0.0,1.0231894594679016
JdbcConnection.getSession,0.015978413043278808,0.0,0.001929565217548204,0.0,0.01790797826082701
JdbcPreparedStatement.executeUpdateInternal,0.06125728684292886,0.0,0.007662680375884269,0.0,0.06891996721881313
JdbcPreparedStatement.setParameter,0.070085867733838,0.0,0.007565078165409147,0.0,0.07765094589924715
JdbcResultSet.checkClosed,0.11867127651410121,0.0,0.01542825874258423,0.0,0.13409953525668544
JdbcResultSet.closeInternal,0.0,0.0,0.0,0.0,0.0
JdbcResultSet.get,0.054712377777603384,0.0,0.005203444444352364,0.0,0.059915822221955746
JdbcResultSet.getColumnIndex,0.0190884119425567,0.0,0.002769896588331378,0.0,0.021858308530888076
JdbcResultSet.getString,0.012584162601534792,0.0,0.001067317073064008,0.0,0.0136514796745988
JdbcResultSet.nextRow,0.11224075118924084,0.0,0.0011018810117935196,0.0,0.11334263220103437
JdbcSQLException.<init>,0.0,0.0,0.0,0.0,0.0
JdbcStatement.checkClosed,0.24652817851189227,0.0,0.012142800409296575,0.0,0.25867097892118884
Launcher$AppClassLoader.loadClass,0.07127094421128655,0.0,0.005941656313881457,0.0,0.077212600525168
LocalResult.<init>,0.051794074074779116,0.0,0.005082222222376407,0.0,0.05687629629715552
LocalResult.close,0.013991770115092223,0.0,0.0016800000000445322,0.0,0.015671770115136756
LocalResult.next,0.09672444978049842,0.0,0.010733943723804141,0.0,0.10745839350430256
MathUtils.compare,0.357390172928456,0.01975327188910551,0.039291561062259756,0.002913813461390335,0.41934881934121165
MathUtils.setScale,0.13487492460405565,0.027008175188169267,0.016168033891894106,0.004029148111673011,0.18208028179579205
MethodAccessorGenerator$1.run,0.04562991797363422,0.0,0.004702714241261422,0.0,0.050332632214895645
MethodInfo.read,0.01951081348830297,0.0,0.0013073899086244315,0.0,0.0208182033969274
MultiVersionCursor.<init>,0.06266662820678158,0.0,0.005254230769423884,0.0,0.06792085897620546
MultiVersionCursor.get,0.0,0.0,0.0,0.0,0.0
MultiVersionCursor.getSearchRow,0.06434255755659245,0.01355363251515092,0.006547821054621544,0.0014515206439898634,0.08589553177035476
MultiVersionCursor.loadNext,0.3298806927862389,0.0,0.03701041436597578,0.0,0.3668911071522147
MultiVersionCursor.next,0.5303963937930434,0.16078920380419687,0.05837958084792382,0.020399140255101225,0.7699643187002654
MultiVersionCursor.step,0.07098098032451666,0.02183505655656617,0.006807022659827199,0.003527472120796686,0.10315053166170672
MultiVersionIndex.compareRows,0.24325927290195182,0.0,0.025854820086912804,0.0,0.26911409298886463
MultiVersionIndex.find,0.16277200854767115,0.0,0.01508338997522191,0.0,0.17785539852289306
MultiVersionIndex.removeIfExists,0.009009952381131284,0.0,0.0009146428572074953,0.0,0.00992459523833878
OERandom.randomAString,0.04609019605385943,0.0,0.0034363575098508648,0.0,0.049526553563710295
OERandom.randomAString26_50,0.08819550764154147,0.0,0.010939714776269732,0.0,0.0991352224178112
OERandom.randomAString300_500,0.06092843135266489,0.0,0.00716409479031805,0.0,0.06809252614298295
OERandom.randomData,0.0573927747114445,0.0,0.006003649176290656,0.0,0.06339642388773516
OERandom.randomDecimalString,0.33475931913114876,0.0,0.030934360495401204,0.0,0.36569367962655
OERandom.randomInt,0.5709360574716469,0.0,0.059570740250368334,0.0,0.6305067977220152
OERandom.setSeed,0.0,0.0,0.0,0.0,0.0
ObjectArray$ObjectArrayIterator.hasNext,0.10709090020726512,0.0,0.012974545521730886,0.0,0.12006544572899601
ObjectArray$ObjectArrayIterator.next,0.059500860212112885,0.02586375000100816,0.007246451612914944,0.004380000000310247,0.09699106182634623
ObjectArray.createArray,0.25472698821148354,0.0,0.028964238911998348,0.0,0.2836912271234819
ObjectArray.get,0.31391787824108913,0.0,0.021854140593830257,0.0,0.33577201883491936
ObjectArray.iterator,0.31718442963962074,0.0,0.035672766278285806,0.0,0.35285719591790654
ObjectArray.sort,0.6723934899250572,0.0,0.07496073272086624,0.0,0.7473542226459234
ObjectArray.swap,0.11845068879455192,0.0,0.013394134969697706,0.0,0.13184482376424964
ObjectArray.toArray,0.044275542856692995,0.0,0.004804571428567647,0.0,0.04908011428526064
ObjectUtils.arrayCopy,0.01410965517232858,0.0,0.0013951724137570279,0.0,0.01550482758608561
Operation.getValue,0.0,0.0,0.0,0.0,0.0
Parameter.isEverything,0.0,0.0,0.0,0.0,0.0
Parameter.setValue,0.033244165911629805,0.0,0.003924025770588125,0.0,0.03716819168221793
Parser.initialize,0.07520964705755058,0.0,0.007376470588496886,0.0,0.08258611764604747
Parser.readAnd,0.08868914669896624,0.0,0.010180966000776788,0.0,0.09887011269974302
Parser.readFunction,0.0613083936368501,0.0,0.006690622064267049,0.0,0.06799901570111715
Prepared.checkCanceled,0.0465888749986334,0.08579466904920433,0.005383124999752909,0.013296708117663746,0.1510633771652544
Prepared.checkParameters,0.0,0.0,0.0,0.0,0.0
Prepared.setCurrentRowNumber,0.0,0.039444662975497376,0.0,0.005206707025023319,0.0446513700005207
Query.getParameterValues,0.11990096790054307,0.0,0.009999860539749711,0.0,0.12990082844029277
Query.query,0.0,0.0,0.0,0.0,0.0
Resource.getBytes,0.10335864164017153,0.0,0.007562373574423527,0.0,0.11092101521459505
Row.<init>,0.1482912333342635,0.0,0.015410000000095654,0.0,0.16370123333435915
Row.getValue,1.2803355486588757,0.31307162016884094,0.1472064622750398,0.043200703213390604,1.783814334316147
Row.isEmpty,0.012375739837496926,0.08496066666945504,0.0011165853659811664,0.01831499999934749,0.11676799187228062
Row.setValue,0.03989552941365058,0.0,0.0049105882353615024,0.0,0.04480611764901208
RowList.next,0.03581014285945067,0.0,0.004478571428210541,0.0,0.040288714287661204
ScanCursor.next,0.0,0.049295999997411855,0.0,0.008317499999672387,0.05761349999708424
ScanIndex.add,0.18286458472562986,0.0,0.01634335390664777,0.0,0.19920793863227762
ScanIndex.commit,0.31841406633161645,0.018361603439636703,0.028600754151054328,0.002733245439498175,0.36810966936180567
ScanIndex.getNextRow,0.47025215285954014,0.19942060608600237,0.04934974163025381,0.037983636363523234,0.7570061369393195
ScanIndex.incrementRowCount,0.35242549314483024,0.0,0.03412342816912592,0.0,0.38654892131395613
Select.getCurrentGroup,0.024560666616935928,0.0,0.003972369617162184,0.0,0.028533036234098114
Select.isEverything,0.299599162512747,0.0,0.028358383992904253,0.0,0.32795754650565123
Select.queryFlat,0.7436815062518262,0.0,0.08198750124883519,0.0,0.8256690075006614
Select.queryWithoutCache,0.15932430602210806,0.0,0.015417967594661337,0.0,0.1747422736167694
Session.commit,0.025044852595531904,0.0,0.0026291127298607693,0.0,0.027673965325392673
Session.containsUncommitted,0.0,0.0,0.0,0.0,0.0
Session.getDatabase,0.0,0.0,0.0,0.0,0.0
Session.hashCode,0.04221535440533747,0.0,0.005288701227519549,0.0,0.04750405563285702
Session.isClosed,0.04608133333385922,0.0,0.0,0.0,0.04608133333385922
Session.isReconnectNeeded,0.5696201922238089,0.0,0.05702866410036367,0.0,0.6266488563241726
Session.setCurrentCommand,0.0,0.0,0.0,0.0,0.0
Session.throttle,0.08948756410077642,0.0,0.00885692307649431,0.0,0.09834448717727073
Session.unlockAll,0.0,0.0,0.0,0.0,0.0
Session.waitIfExclusiveModeEnabled,0.0,0.02607309090672061,0.0,0.003714545454468779,0.029787636361189387
SimpleInsert.customerTable,0.06719573602943948,0.0,0.007064208119034857,0.0,0.07425994414847434
SimpleInsert.orderTable,0.11308867742951713,0.0,0.012945870131736318,0.0,0.12603454756125346
SimpleInsert.stockTable,0.10956286015151481,0.0,0.010951380457860059,0.0,0.12051424060937488
Standard.getOrderStatusForCustomer,0.0,0.027008175188169267,0.0,0.004029148111673011,0.031037323299842278
Standard.orderStatus,0.0,0.0,0.0,0.0,0.0
Standard.payment,0.0,0.0,0.0,0.0,0.0
Standard.paymentById,0.0,0.0,0.0,0.0,0.0
StatementHelper.reset,0.006992312500187836,0.0,0.0010190625000632279,0.0,0.008011375000251064
StringCache.get,0.08555265587125896,0.0,0.008405997218279119,0.0,0.09395865308953807
StringCache.getCache,0.041200750462688035,0.0,0.0047304108489789175,0.0,0.045931161311666954
TPCC.calculateSumDB,0.6799646414905016,0.0,0.07699487618799111,0.0,0.7569595176784927
TPCC.preIterationMemoryDB,0.035765383231474934,0.0,0.0037657171991362023,0.0,0.03953110043061114
TPCC.report,0.0,0.0,0.0,0.0,0.0
TPCCSubmitter.runTransactions,0.0,0.0,0.0,0.0,0.0
Table.compareTypeSave,0.13809694584716692,0.0,0.015747709665401233,0.0,0.15384465551256815
Table.fireConstraints,0.0,0.039215166669843406,0.0,0.005395000000438206,0.044610166670281615
Table.getTemplateRow,0.30525666075676566,0.0,0.029454009719159117,0.0,0.3347106704759248
Table.setColumns,0.06318204486250878,0.0,0.005145903373469408,0.0,0.06832794823597818
Table.validateConvertUpdateSequence,0.06529033025410996,0.0,0.006759508655486064,0.0,0.07204983890959603
TableData$1.compare,0.21833253147342488,0.0,0.024219659904266725,0.0,0.2425521913776916
TableData.addIndex,0.21180573181880571,0.0,0.024449495974431842,0.0,0.23625522779323754
TableData.addRow,0.03581014285945067,0.0,0.004478571428210541,0.0,0.040288714287661204
TableData.addRowsToIndex,0.04367333913838088,0.0,0.004954200666046958,0.0,0.04862753980442784
TableData.doLock,0.021176225787441303,0.0,0.0021936047647084984,0.0,0.023369830552149803
TableData.lock,0.05139295989391543,0.0,0.005074987586559067,0.0,0.0564679474804745
TableFilter.getSelect,0.07179152940892998,0.0,0.005608235294108881,0.0,0.07739976470303886
TableFilter.getTableFilter,0.0,0.0,0.0,0.0,0.0
TableFilter.getValue,0.14512462301800186,0.08390300001095359,0.017463523809587173,0.01819999999982732,0.26469114683837
TableFilter.isOk,0.03811882042725211,0.0,0.003876853024784451,0.0,0.041995673452036565
TableFilter.next,0.3044784392893891,0.0,0.0306318522979123,0.0,0.33511029158730143
TestHarness.main,0.0,0.0,0.0,0.0,0.0
TestHarness.twoDecimalPlaces,0.0,0.0,0.0,0.0,0.0
Trace.isEnabled,0.2093814366227378,0.0,0.02048955628491655,0.0,0.22987099290765436
TraceSystem.<init>,0.11794957192544994,0.0,0.01054354530857022,0.0,0.12849311723402015
TraceSystem.getTrace,0.052859244159936335,0.0,0.005238665881365117,0.0,0.05809791004130145
TreeCursor.<init>,0.027368717947795704,0.0,0.0014507692312457573,0.0,0.02881948717904146
TreeCursor.get,0.10688881052546154,0.0,0.010997002540448884,0.0,0.11788581306591042
TreeCursor.next,0.12953311252121724,0.0,0.01189472600485978,0.0,0.14142783852607702
TreeIndex.add,0.6868160311534136,0.0,0.07467311484973128,0.0,0.7614891460031449
TreeIndex.balance,0.1216018590356652,0.0,0.013251447102504026,0.0,0.13485330613816923
TreeIndex.child,0.0,0.0,0.0,0.0,0.0
TreeIndex.find,0.12617060013700576,0.0,0.013402854955683599,0.0,0.13957345509268937
TreeIndex.findFirstNode,0.23959143959838636,0.08985750000445276,0.026865118185801177,0.010170833333581365,0.36648489112222166
TreeIndex.next,0.349651459598266,0.15386933333744915,0.03657211258203484,0.023144999999810047,0.56323790551756
TreeIndex.replace,0.003903923809550525,0.0,0.00029285714283884903,0.0,0.004196780952389374
TreeIndex.set,0.1477012002978246,0.0,0.015011358146944523,0.0,0.16271255844476912
TreeNode.isFromLeft,0.060606060606060615,0.0,0.006236363636245104,0.0,0.06684242424230571
URLClassPath$JarLoader.getResource,0.04643192476249428,0.0,0.0050482604524546525,0.0,0.05148018521494893
UndoLog.add,0.0,0.0,0.0,0.0,0.0
UndoLog.size,0.0,0.0,0.0,0.0,0.0
Update.update,0.0,0.0438518140452969,0.0,0.005821270652688437,0.049673084697985335
Utf8Info.<init>,0.039415698268198775,0.0,0.002845162413223593,0.0,0.04226086068142237
Value.cache,0.13290805134412081,0.0,0.013864663743266885,0.0,0.1467727150873877
Value.checkPrecision,0.184348579450281,0.0,0.02034452666263491,0.0,0.2046931061129159
Value.compareTo,0.007882232659426816,0.0,0.0009458776017287431,0.0,0.008828110261155559
Value.compareTypeSave,0.49901008749844245,0.0,0.05814207789880403,0.0,0.5571521653972464
Value.convertTo,0.33021800732226303,0.09780281735276738,0.030793179054774363,0.012741749090771557,0.4715557528205764
ValueBoolean.negate,0.07200729412108879,0.0,0.0076094117650748515,0.0,0.07961670588616364
ValueDecimal.convertScale,0.04878431694923576,0.0,0.005082039325016517,0.0,0.05386635627425228
ValueDecimal.get,0.07251517385600428,0.0,0.008042338467781678,0.0,0.08055751232378597
ValueDecimal.getObject,0.0,0.0,0.0,0.0,0.0
ValueDecimal.getPrecision,0.05547768239784176,0.0560847565827093,0.00504970302352621,0.010421799480176748,0.127033941484254
ValueDecimal.getString,0.06000961481347783,0.0,0.006605555556220848,0.0,0.06661517036969868
ValueDecimal.subtract,0.0,0.0,0.0,0.0,0.0
ValueHashMap.put,0.0,0.0,0.0,0.0,0.0
ValueInt.compareSecure,0.16227130100041076,0.05377861110900994,0.018805171911329174,0.007966666666511123,0.24282175068726103
ValueInt.get,0.059674942948209075,0.0,0.003820511180706647,0.0,0.06349545412891572
ValueInt.getString,0.7192575779010829,0.0,0.07999581421507658,0.0,0.7992533921161595
ValueShort.compareSecure,0.2728066087519802,0.0,0.031115602833908896,0.0,0.3039222115858891
ValueShort.getString,1.3647376418245978,0.0,0.11773137480323975,0.0,1.4824690166278376
ValueString.getType,0.0,0.0,0.0,0.0,0.0
ValueStringBase.getString,0.035226563412539644,0.0,0.0034435955137207745,0.0,0.03867015892626042
ValueStringFixed.get,0.04221535440533747,0.0,0.005288701227519549,0.0,0.04750405563285702
ValueTimestamp.convertScale,0.43267239135419816,0.0,0.04338058413324205,0.0,0.4760529754874402
ValueTimestamp.equals,0.017402662694438097,0.0,0.001146328739411654,0.0,0.018548991433849752
ValueTimestamp.get,0.017402662694438097,0.0,0.001146328739411654,0.0,0.018548991433849752
ValueTimestamp.getString,4.108654781677127,0.0,0.3965900561469574,0.0,4.505244837824084
ZoneInfo.getTransitionIndex,0.08277538902447568,0.0,0.0055515157277441305,0.0,0.08832690475221981
