method,package1,package2,dram1,dram2,energy
AbstractCalendar.getCalendarDate,0.0,0.3240982372964497,0.0,0.05201850343367023,0.3761167407301199
AbstractCalendar.setTimeOfDay,0.0,0.23310547368613652,0.0,0.036319099431897886,0.2694245731180344
AlterTableAddConstraint.tryUpdate,0.0456301818382143,0.0,0.004159726846604329,0.0,0.04978990868481863
BaseCalendar$Date.<init>,0.0,0.05894529288537561,0.0,0.009252622014114358,0.06819791489948997
BaseCalendar.getCalendarDateFromFixedDate,0.0,0.057333633688389785,0.0,0.009200234735050754,0.06653386842344054
BaseCalendar.getGregorianYearFromFixedDate,0.0,0.07407488602471966,0.0,0.011966085372060693,0.08604097139678035
BaseIndex.compareRows,1.019467478441161,1.886708672654768,0.11878952551042035,0.26182655335925586,3.2867922299656054
BaseIndex.compareValues,0.22892269348545363,0.6799015865888394,0.02364669540145358,0.095803482400538,1.0282744578762846
Benchmark.fileFromInputStream,0.5217486342344484,0.0,0.049262504479431285,0.0,0.5710111387138797
CacheObject.<init>,0.12468128045088049,0.0,0.01618394230814164,0.0,0.14086522275902214
CalendarDate.<init>,0.0,0.1391870435083186,0.0,0.021489028521496697,0.1606760720298153
CalendarDate.setMinutes,0.0,0.10309363385632977,0.0,0.015814419693333977,0.11890805354966374
CalendarDate.setNormalized,0.0,0.043011299780098634,0.0,0.006604707245018452,0.049616007025117086
CalendarProviderImpl.getInstance,0.0704606592768904,0.0,0.004981434170186478,0.0,0.07544209344707688
ClassPool.makeClass,0.027454854733734924,0.0,0.002592273367155225,0.0,0.03004712810089015
CodeAttribute.<init>,0.0901504166619488,0.0,0.0066780352274670085,0.0,0.0968284518894158
Column.convert,0.04484066666918807,0.4437288579999524,0.006699999999303448,0.06311551139112323,0.5583850360595671
Column.getColumnId,0.15377799842933942,0.2828415857163712,0.01632500294374195,0.04050813095216452,0.49345271804161706
Column.validateConvertUpdateSequence,0.07122268095214775,0.0,0.007194464285194477,0.0,0.07841714523734222
Command.executeQueryLocal,0.0,0.0,0.0,0.0,0.0
Command.executeUpdate,0.208354297621469,0.07628632791430065,0.020028119980673283,0.01282042173386095,0.31748916725030385
Command.start,0.02831871794814316,0.0,0.004061538461078621,0.0,0.032380256409221785
Command.stop,0.028270256411558833,0.0,0.004146153846075042,0.0,0.03241641025763387
CommandContainer.isTransactional,0.0,0.0,0.0,0.0,0.0
CommandContainer.query,0.0,0.0,0.0,0.0,0.0
CommandContainer.recompileIfRequired,0.0,0.0,0.0,0.0,0.0
CompareMode.compareString,0.11270908333729798,0.0,0.009118750000551599,0.0,0.12182783333784958
Comparison.compareNotNull,0.0,0.17311958678733144,0.0,0.021737538216666272,0.1948571250039977
Comparison.getValue,0.10698426667066221,0.670644082376107,0.009678666666257883,0.09983623308340739,0.8871432487964344
Comparison.isEverything,0.08539273064070692,0.0,0.008321865824032906,0.0,0.09371459646473983
ConditionAndOr.getValue,0.040818095237704084,0.0656722222225249,0.004091428571319695,0.008872916666607326,0.11945466269815602
ConditionAndOr.isEverything,0.0,0.05595485714175516,0.0,0.00811714285719929,0.06407199999895445
Config.preprocessArgs,0.004045915027217504,0.0,0.0005093283959758415,0.0,0.0045552434231933454
ConnectionInfo.readProperties,0.05825422001914265,0.0,0.004773043577395522,0.0,0.06302726359653817
ConstPool.read,0.0,0.0,0.0,0.0,0.0
DacapoClassLoader.loadClass,0.3567505194411397,0.04836138578820824,0.028499489371933064,0.008137229873191137,0.4417486244744722
Database.<init>,0.04513369860321696,0.0,0.002743055798951394,0.0,0.047876754402168355
Database.beforeWriting,0.02759405000009186,0.0,0.0029809999993934376,0.0,0.030575049999485297
Database.getMode,0.017576666668035267,0.0,0.002355357142472973,0.0,0.01993202381050824
Database.isReconnectNeeded,0.07952186666597197,0.15793993736169906,0.00918233333310733,0.02020628541252496,0.26685042277330334
Database.open,0.044786750097598124,0.0,0.004255771803963596,0.0,0.04904252190156172
DbObjectBase.getSQL,0.04644951934703121,0.0,0.0033969957396772395,0.0,0.049846515086708454
Delete.update,0.0,0.051079623903849125,0.0,0.00919425552342628,0.060273879427275405
Driver.load,0.0269770249331355,0.0,0.0027711567482696237,0.0,0.029748181681405125
ExceptionTable.<init>,0.059331742573943434,0.0,0.0051640723050588545,0.0,0.06449581487900229
ExpressionColumn.getValue,0.22091798334965954,0.29231356924141144,0.021092047804685002,0.04045578536704435,0.5747793857628003
ExpressionColumn.isEverything,0.13482870672637187,0.0,0.012772003358261588,0.0,0.14760071008463346
ExpressionVisitor.<init>,0.06419680715960523,0.0,0.007173235491457433,0.0,0.07137004265106266
ExpressionVisitor.getQueryLevel,0.0,0.05691533333447296,0.0,0.009332499999800348,0.06624783333427331
ExpressionVisitor.getType,0.0,0.06117866667188411,0.0,0.01187058823530142,0.07304925490718553
FieldInfo.read,0.047186487336053684,0.0,0.0042883174873310816,0.0,0.05147480482338476
Function.optimize,0.021077466664913426,0.0,0.0021679999995588635,0.0,0.02324546666447229
Gregorian$Date.<init>,0.0,0.034297800452919566,0.0,0.005478040629662007,0.03977584108258157
IndexCondition.getCurrentValue,0.0,0.06856805619854964,0.0,0.011460487402753431,0.08002854360130307
IndexCursor.find,0.35738804853706685,0.35939664922390063,0.03437834295075262,0.05750575275827071,0.8086687934699909
IndexCursor.getSearchRow,0.08963911568784724,0.13711838094847434,0.010510346494164208,0.019787499999524914,0.2570553431300107
IndexCursor.next,0.07288190476330263,0.08185590476320598,0.00866571428611808,0.012154523809248717,0.17555804762187543
Insert.insertRows,0.32829247233286674,0.0,0.03973245177034397,0.0,0.3680249241032107
JarURLConnection.<init>,0.04443428997616363,0.0,0.00445073617584396,0.0,0.04888502615200759
JarURLConnection.connect,0.0068640733773150005,0.03843176202505899,0.0008606694232508428,0.0053023683084703005,0.05145887313409513
JdbcConnection.checkClosed,0.040343752137209185,0.7503860459124844,0.005574358974518275,0.11064714304392591,0.9069513000681377
JdbcPreparedStatement.clearParameters,0.0,0.0,0.0,0.0,0.0
JdbcPreparedStatement.executeUpdateInternal,0.04123286549540809,0.0,0.004451801634866114,0.0,0.045684667130274206
JdbcPreparedStatement.setParameter,0.06834302222058694,0.08718546714963844,0.0074013333334328815,0.015718171263003382,0.17864799396666164
JdbcResultSet.checkClosed,0.0,0.20420365419851783,0.0,0.03289975110563398,0.2371034053041518
JdbcResultSet.checkOnValidRow,0.0,0.07545966801782013,0.0,0.009245634877275864,0.084705302895096
JdbcResultSet.get,0.0,0.12036165207071892,0.0,0.01692344325570646,0.13728509532642538
JdbcResultSet.getColumnIndex,0.0,0.0,0.0,0.0,0.0
JdbcResultSet.getString,0.0,0.19567280448553098,0.0,0.028516603949918794,0.22418940843544977
JdbcResultSet.nextRow,0.0,0.12539168056117658,0.0,0.019674099875461426,0.145065780436638
JdbcSQLException.<init>,0.0,0.0,0.0,0.0,0.0
JdbcSQLException.buildMessage,0.0,0.0,0.0,0.0,0.0
JdbcStatement.checkClosed,0.0,0.4276816534916659,0.0,0.06322798093224327,0.4909096344239092
LocalResult.<init>,0.04827009523675466,0.0,0.005762857143140752,0.0,0.054032952379895416
LocalResult.needToClose,0.07245600029219501,0.0,0.006518578512509656,0.0,0.07897457880470467
LocalResult.next,0.06491555286642048,0.14323967350083655,0.00667201397255753,0.02201931729701469,0.23684655763682927
MathUtils.compare,0.0,0.07857566673846764,0.0,0.009358817588540624,0.08793448432700826
MathUtils.setScale,0.0,0.0,0.0,0.0,0.0
Message.translate,0.0,0.0,0.0,0.0,0.0
MultiVersionCursor.getSearchRow,0.2718333260851543,0.13637266666046344,0.0302116304362995,0.0203499999994771,0.45876762318139436
MultiVersionCursor.loadNext,0.18349770652326514,0.164212214281655,0.020007714292703118,0.022742500000146847,0.39046013509777006
MultiVersionCursor.next,0.396641591326192,0.3985819144967627,0.040068358271217526,0.061622262307667895,0.8969141264018401
MultiVersionCursor.step,0.26575625484474374,0.09444161904199669,0.030609887704658334,0.014544285714128774,0.40535204730552754
MultiVersionIndex.commit,0.08776866666933833,0.0,0.006625000000591777,0.0,0.09439366666993011
MultiVersionIndex.compareRows,0.11213700966309173,0.023994185028313915,0.012211884057207217,0.0032799527825640227,0.15162303153117687
MultiVersionIndex.find,0.0,0.0,0.0,0.0,0.0
MultiVersionIndex.removeIfExists,0.0,0.040085619049412866,0.0,0.006407142857088252,0.04649276190650112
NameAndTypeInfo.<init>,0.06272786628760416,0.0,0.007226557576839094,0.0,0.06995442386444325
OERandom.randomAString,0.17868877349804668,0.0,0.022757655678171465,0.0,0.20144642917621813
OERandom.randomAString24,0.02143688888948721,0.0,0.003144999999979821,0.0,0.02458188888946703
OERandom.randomCLast,0.06513660000346135,0.0,0.008105999999679625,0.0,0.07324260000314096
OERandom.randomData,0.07505295424911596,0.0,0.008637843136942918,0.0,0.08369079738605888
OERandom.randomDecimal,0.0,0.0,0.0,0.0,0.0
OERandom.randomDecimalString,0.3342861265353362,0.0,0.04401202330887995,0.0,0.3782981498442161
OERandom.randomInt,0.3733843032807595,0.0,0.04584665468225298,0.0,0.41923095796301246
ObjectArray$ObjectArrayIterator.<init>,0.0,0.059182153853516176,0.0,0.009821538461927468,0.06900369231544365
ObjectArray$ObjectArrayIterator.hasNext,0.06620697435934363,0.07155638094991447,0.006378076923221327,0.0108799999999021,0.15502143223238152
ObjectArray$ObjectArrayIterator.next,0.021267333333121814,0.0,0.002646666666502521,0.0,0.023913999999624336
ObjectArray.add,0.019618871794918027,0.09240075189171063,0.00290461538437133,0.013112935222140612,0.1280371742931406
ObjectArray.createArray,0.1854169408420112,0.13857912439159076,0.018770266027627533,0.022127722711967047,0.3648940539731966
ObjectArray.get,0.0,0.2881775438349134,0.0,0.04734986250708911,0.3355274063420025
ObjectArray.iterator,0.04978878260716674,0.0,0.005231739129711692,0.0,0.05502052173687843
ObjectArray.size,0.02099448717975368,0.0,0.003090384615438196,0.0,0.024084871795191875
ObjectArray.sort,0.056041454544439054,0.1844101841587621,0.00587999999962366,0.023742041307080377,0.27007368000990517
Parameter.getParamValue,0.039779625001756365,0.0,0.0038109375002477455,0.0,0.04359056250200411
Parameter.setValue,0.02095151613391335,0.0,0.0020032258071296387,0.0,0.022954741941042987
ParseUtil.encodePath,0.05029737711660976,0.0,0.0036645395490637455,0.0,0.05396191666567351
Parser.read,0.0,0.0,0.0,0.0,0.0
Prepared.checkCanceled,0.11795321333726558,0.0,0.015892400000933168,0.0,0.13384561333819875
Prepared.setCurrentRowNumber,0.07811681666632163,0.0,0.008134500000232947,0.0,0.08625131666655457
Query.getParameterValues,0.047761066665649804,0.0,0.004828499999348424,0.0,0.05258956666499823
Query.isEverything,0.06605088889076967,0.0,0.00618641025674804,0.0,0.07223729914751771
Query.query,0.0884333333306131,0.0945794344680255,0.009412499999194149,0.013465386997035297,0.20589065479486807
Record.<init>,0.0,0.13152284210567206,0.0,0.018848552630771065,0.15037139473644312
Record.getSessionId,0.029462291665064786,0.0,0.003387500000826549,0.0,0.03284979166589133
Record.setSessionId,0.05717779999831691,0.0,0.007080000000132713,0.0,0.06425779999844962
Resource.getBytes,0.11310635804191443,0.0,0.011028653554985618,0.0,0.12413501159690005
Row.getValue,0.8027258722650517,1.1398661507562475,0.08919429282355014,0.16609901496455248,2.1978853308094015
Row.isEmpty,0.0,0.130145426892886,0.0,0.01869381327499611,0.1488392401678821
Row.setValue,0.07991533333228693,0.09117933333618566,0.009683333334073216,0.014720357142929665,0.19549835714547545
RowList.hasNext,0.0,0.06823004787073196,0.0,0.010549741190943112,0.07877978906167507
ScanCursor.next,0.0,0.06738641641048644,0.0,0.009484100098354192,0.07687051650884064
ScanIndex.add,0.28860571775210214,0.0,0.035385714168479895,0.0,0.32399143192058205
ScanIndex.commit,0.06802644130110148,0.0,0.00627319565195174,0.0,0.07429963695305322
ScanIndex.getDelta,0.0,0.046394761949324494,0.0,0.006861932026005049,0.05325669397532954
ScanIndex.getNextRow,0.2915281453151537,1.0329630604604243,0.032839771081014775,0.14995605141264032,1.5072870282692332
ScanIndex.incrementRowCount,0.03765860000276006,0.0,0.004788000000553438,0.0,0.0424466000033135
Select.getCurrentGroup,0.0,0.08916769231347224,0.0,0.015143076923357932,0.10431076923683018
Select.isEverything,0.10952325237990951,0.07627481250347046,0.00948997362725457,0.009936562499660795,0.20522460101029533
Select.queryFlat,0.3017891629340541,0.6330110801111833,0.03339102933837353,0.10462791318930335,1.0728191855729143
Select.queryWithoutCache,0.0,0.07376761111501966,0.0,0.01089166666659164,0.0846592777816113
Session.commit,0.05065819580072785,0.0,0.007348531469056398,0.0,0.058006727269784245
Session.getDatabase,0.0976365030262307,0.0,0.01218547727194439,0.0,0.10982198029817508
Session.isClosed,0.0,0.2565107784490598,0.0,0.03976916656115973,0.29627994501021954
Session.isReconnectNeeded,0.0,0.25316413717442937,0.0,0.039988564448611555,0.2931527016230409
Session.setCurrentCommand,0.06993042045610998,0.0,0.009840255681086946,0.0,0.07977067613719692
Session.waitIfExclusiveModeEnabled,0.104605517104262,0.0,0.008835522425658415,0.0,0.1134410395299204
SimpleInsert.customerTable,0.2608794273507219,0.0,0.03357591575001714,0.0,0.29445534310073906
SimpleInsert.orderTable,0.17827445000269412,0.0,0.01854300000037862,0.0,0.19681745000307274
SimpleInsert.stockTable,0.14758817560071655,0.0,0.016589416687740437,0.0,0.164177592288457
Standard.payment,0.060269648655214475,0.0,0.005224366396166529,0.0,0.065494015051381
Standard.paymentById,0.0,0.0,0.0,0.0,0.0
StatementHelper.reset,0.0,0.0,0.0,0.0,0.0
StringCache.get,0.21083521380258835,0.0,0.02130750175486344,0.0,0.23214271555745178
StringCache.getNew,0.029385000000022244,0.0,0.003589999999854222,0.0,0.032974999999876464
StringUtils.toUpperEnglish,0.10992686899954254,0.022968372647472573,0.011173611754999195,0.003482235224705853,0.14755108862672017
Submitter.runPayment,0.0,0.0,0.0,0.0,0.0
TPCC.calculateSumDB,0.0,0.9153918456411813,0.0,0.14054579360969063,1.055937639250872
TPCC.iteration,0.0,0.017173090907321737,0.0,0.0030559090909347024,0.02022899999825644
TPCC.preIteration,0.0269770249331355,0.0,0.0027711567482696237,0.0,0.029748181681405125
TPCCSubmitter.runTransactions,0.0,0.0,0.0,0.0,0.0
Table.compareTypeSave,0.17310161743339864,0.1761420559447402,0.021412452573138264,0.024130688421176952,0.39478681437245405
Table.getTemplateRow,0.20509748778811088,0.5200801695647824,0.02353741156254639,0.07661055666420133,0.8253256255796411
Table.validateConvertUpdateSequence,0.14154952957240896,0.0,0.015261802423586865,0.0,0.15681133199599584
TableData$1.compare,0.0,0.13639541670857563,0.0,0.0190269769696099,0.15542239367818553
TableData.addIndex,0.03868527272821996,0.39922581936892065,0.005040000000338874,0.05106609592523077,0.4940171880227103
TableData.addRowsToIndex,0.0995050878736815,0.20394206679390012,0.0123920272733614,0.028063814234121156,0.34390299617506415
TableData.doLock,0.10644583575080818,0.0,0.011038985507500751,0.0,0.11748482125830893
TableData.lock,0.13073326666864366,0.0,0.013967142856771326,0.0,0.144700409525415
TableData.removeRow,0.0,0.09163404255275144,0.0,0.010354236834009515,0.10198827938676096
TableData.unlock,0.01831055555440899,0.0,0.0025183333333795113,0.0,0.020828888887788503
TableFilter.getValue,0.0,0.7301873505831398,0.0,0.13184770752185687,0.8620350581049967
TableFilter.lock,0.03677481481443262,0.0,0.004319999999737504,0.0,0.04109481481417013
TableFilter.next,0.0,0.47336704524480455,0.0,0.07212304821890843,0.545490093463713
TableFilter.reset,0.0,0.08728000000701286,0.0,0.012649999999969925,0.09993000000698278
TableFilter.startQuery,0.0634086666686926,0.0,0.00796000000021498,0.0,0.07136866666890758
Trace.isEnabled,0.0,0.3607112161694098,0.0,0.05472234384543343,0.4154335600148433
TraceObject.isDebugEnabled,0.028715476191358724,0.0,0.0038428571432242665,0.0,0.03255833333458299
TraceSystem.getTrace,0.06662786666457601,0.0,0.008950615385028636,0.0,0.07557848204960466
TreeCursor.<init>,0.10871993333081868,0.06809930016798782,0.012330000000333206,0.008206465358615272,0.197355698857755
TreeCursor.next,0.14977611994207052,0.05026202282574022,0.013500854913333077,0.007340107516670539,0.22087910519781437
TreeIndex.add,0.34242183808405025,0.020602139051538446,0.03878109848368272,0.0030252802037768487,0.40483035582304827
TreeIndex.balance,0.029216279999236577,0.0,0.002717999999877065,0.0,0.03193427999911364
TreeIndex.child,0.12337433333838514,0.027454128897660437,0.012145749999641946,0.003911402714381101,0.1668856149500686
TreeIndex.find,0.10825872921416527,0.0539113846129905,0.011545652173880257,0.008855384615181277,0.18257115061621731
TreeIndex.findFirstNode,0.047849794708453505,0.28410125707296957,0.0056389206349012,0.02956092428148235,0.3671508966978066
TreeIndex.next,0.10437242430157768,0.21987297133395167,0.007913489279222835,0.03118985694609468,0.36334874186084687
TreeIndex.remove,0.0,0.0,0.0,0.0,0.0
TreeIndex.set,0.04079844444317536,0.07583220577969627,0.005813333334420652,0.010251994407468785,0.13269597796476107
TreeNode.isFromLeft,0.0,0.06288272295321887,0.0,0.010345807599597929,0.07322853055281679
URLClassPath$JarLoader.getResource,0.05825422001914265,0.0,0.004773043577395522,0.0,0.06302726359653817
UndoLog.getLast,0.06513660000346135,0.0,0.008105999999679625,0.0,0.07324260000314096
UndoLogRecord.<init>,0.0,0.0,0.0,0.0,0.0
UndoLogRecord.commit,0.060925117646761735,0.0,0.005635882352590653,0.0,0.06656099999935239
Update.update,0.0,0.08961920972716651,0.0,0.010870040828080536,0.10048925055524704
Value.cache,0.22714075867611244,0.0,0.029409550494623557,0.0,0.256550309170736
Value.checkPrecision,0.05577311110914124,0.0,0.008062948718190424,0.0,0.06383605982733166
Value.compareEqual,0.0,0.0,0.0,0.0,0.0
Value.compareTo,0.0,0.08091222221911366,0.0,0.012731666666594619,0.09364388888570828
Value.compareTypeSave,0.15664168788271843,0.25499027939842095,0.018850336363062853,0.03469068420287347,0.4651729878470757
Value.convertTo,0.7663179137518477,0.09639946974670591,0.09268346350900347,0.01259421868243796,0.9679950656899949
ValueDecimal.equals,0.1846737179525334,0.0,0.01898884615356786,0.0,0.20366256410610126
ValueDecimal.getPrecision,0.030196434782144774,0.0,0.002289130434845625,0.0,0.0324855652169904
ValueDecimal.getString,0.0,0.27054532477732685,0.0,0.03872684509140323,0.3092721698687301
ValueExpression.isEverything,0.0,0.05611403921491229,0.0,0.009244705882498663,0.06535874509741095
ValueInt.compareSecure,0.12890433738461327,0.2336800177659147,0.013610730010138728,0.03200219683206547,0.4081972819927322
ValueInt.get,0.17350815389532184,0.0,0.018794029788255683,0.0,0.19230218368357752
ValueInt.getString,0.0,1.0519570933765852,0.0,0.15958757353073974,1.2115446669073249
ValueShort.compareSecure,0.21719548333035266,0.12467888578403413,0.025427550000155556,0.01719674113453641,0.38449866024907875
ValueShort.getString,0.0,3.4878994433169117,0.0,0.5078721090241685,3.99577155234108
ValueShort.getType,0.0,0.05700683333270716,0.0,0.008512499999900077,0.06551933333260723
ValueString.<init>,0.060777444445799716,0.0,0.007588333333438236,0.0,0.06836577777923795
ValueString.get,0.19673660000456342,0.0,0.01987100000042119,0.0,0.2166076000049846
ValueStringFixed.get,0.03343060605843537,0.0,0.004845454545967654,0.0,0.03827606060440302
ValueStringFixed.trimRight,0.04692100000102073,0.0,0.004792499999894062,0.0,0.05171350000091479
ValueTimestamp.convertScale,0.5830400611844957,0.0,0.07535429836811,0.0,0.6583943595526057
ValueTimestamp.getPrecision,0.08061111666829675,0.0,0.008129000000068724,0.0,0.08874011666836547
ValueTimestamp.getString,0.0,9.719911407946544,0.0,1.3767361269505014,11.096647534897045
ValueTimestamp.getTimestamp,0.0,0.2275389999995241,0.0,0.04114499999832333,0.2686839999978474
Warehouse.setName,0.0,0.0,0.0,0.0,0.0
ZoneInfo.getOffsets,0.0,0.17456788318040783,0.0,0.027029595421256228,0.20159747860166405
ZoneInfoFile.load,0.052519470722610866,0.0,0.003263416449050946,0.0,0.05578288717166181
