method,package1,package2,dram1,dram2,energy
chappie,0.0,0.09385866666626598,0.0,0.021013333332828347,0.11487199999909432
org.apache.derbyTesting.system.oe.direct,0.049468584871096295,0.07611100000212899,0.003823271199830561,0.010099999999511056,0.1395028560725669
org.apache.derbyTesting.system.oe.load,0.459954286407985,0.0,0.04618284495666041,0.0,0.5061371313646454
org.apache.derbyTesting.system.oe.util,0.036337777778195836,0.0,0.004029629629875683,0.0,0.040367407408071515
org.dacapo.h2,0.0,0.8779789410044835,0.0,0.14384252562239197,1.0218214666268755
org.dacapo.harness,0.0,0.06846298648124928,0.0,0.009140769879828916,0.07760375636107819
org.h2,0.0,0.043129822712161495,0.0,0.006572450952805778,0.049702273664967274
org.h2.command,0.5247702931077914,0.5387050987203561,0.05672380928756453,0.0743691575635607,1.194568358679273
org.h2.command.dml,1.1315927010790288,0.6695429869473501,0.12695347614657143,0.11583877415335242,2.043927938326303
org.h2.engine,0.18324466020839508,1.0760890643715797,0.021258852618679866,0.21124494716907843,1.491837524367733
org.h2.expression,0.879433499142013,0.49587806794048167,0.10322723516695773,0.07872540755273641,1.5572642098021887
org.h2.index,4.506430468694085,3.759703672627194,0.5202077549316445,0.6165438822788137,9.402885778531738
org.h2.jdbc,0.14033707058566497,1.5186016549258168,0.015782468942888893,0.27163676141431914,1.9463579558686899
org.h2.log,0.14800880487835055,0.0,0.015928170731324534,0.0,0.16393697560967507
org.h2.message,0.01862358974251084,0.16134307181894614,0.0015661538461408315,0.026379204944390416,0.20791202035198822
org.h2.result,1.7256493548585115,1.0121595576015514,0.2111106738582652,0.1721405826428692,3.1210601689611974
org.h2.store,0.025885666665595226,0.0,0.002616666666856165,0.0,0.02850233333245139
org.h2.table,1.53308166336522,0.808342947867785,0.16900420485222947,0.13721462065167953,2.647643436736914
org.h2.util,0.9964637822930674,0.30884802870937617,0.1138447854813069,0.05610551984063909,1.4752621163243895
org.h2.value,1.3889403213398217,0.24535900927165435,0.1580476990876976,0.039966705578676924,1.8323137352778507
sun.reflect,0.0,0.2536823333454473,0.0,0.03282000000035623,0.28650233334580355
sun.util.calendar,0.0,0.5160122400535184,0.0,0.10769738698739817,0.6237096270409166
sun.util.locale.provider,0.0,0.07756192061686715,0.0,0.010503390038341463,0.08806531065520862
