method,package1,package2,dram1,dram2,energy
AbstractCalendar.getCalendarDate,0.016018768543546974,0.2037553333308703,0.001317105210937038,0.03502499999922293,0.2561162070845772
AbstractCalendar.setTimeOfDay,0.0,0.22880033331845576,0.0,0.03806999999930364,0.2668703333177594
AggregateData.add,0.0,0.0,0.0,0.0,0.0
BaseCalendar.getFixedDate,0.0,0.18969733333991218,0.0,0.03127499999936845,0.22097233333928062
BaseCalendar.getGregorianYearFromFixedDate,0.0,0.12345400000534329,0.0,0.020379999999325566,0.14383400000466887
BaseCalendar.isLeapYear,0.0,0.14205720000124228,0.0,0.022043999999853743,0.16410120000109601
BaseIndex.compareKeys,0.1761440024014986,0.0,0.014123782400115588,0.0,0.1902677848016142
BaseIndex.compareRows,1.205389985861392,0.15026946568547167,0.12838643515322481,0.02032191176334998,1.5043677984634385
BaseIndex.compareValues,0.6561464744524782,0.158801904750622,0.06962257831671127,0.022022142857860583,0.9065931003776722
BaseIndex.initBaseIndex,0.01416721131281752,0.0,0.001310497102647217,0.0,0.015477708415464735
Benchmark.initialize,0.02858756056042755,0.0,0.002377625802831945,0.0,0.030965186363259494
CacheObject.<init>,0.06872387500152398,0.0,0.009013541666162282,0.0,0.07773741666768626
CalendarDate.setMinutes,0.0,0.0659586666636945,0.0,0.010899999999916568,0.07685866666361107
CodeAttribute.<init>,0.0548647732485899,0.0,0.003386810898926934,0.0,0.058251584147516834
Column.convertAutoIncrementToSequence,0.026585310766951704,0.0,0.002742754660977993,0.0,0.0293280654279297
Column.getColumnId,0.3672750983644019,0.0,0.03997002832526099,0.0,0.4072451266896629
Column.validateConvertUpdateSequence,0.029017391635057045,0.0,0.004077948142312838,0.0,0.033095339777369885
Command.executeQueryLocal,0.0,0.0,0.0,0.0,0.0
Command.executeUpdate,0.10683490200698266,0.18283534957233483,0.010840459964626476,0.029268364189231212,0.32977907573317516
Command.stop,0.0290934901961865,0.0,0.0027694117645795826,0.0,0.031862901960766084
CommandContainer.query,0.0,0.0,0.0,0.0,0.0
CommandContainer.recompileIfRequired,0.04564501388601913,0.0,0.0029527711722509907,0.0,0.04859778505827012
CompareMode.compareString,0.0,0.0,0.0,0.0,0.0
Comparison.compareNotNull,0.09933672369550933,0.0,0.010091450264101843,0.0,0.10942817395961117
Comparison.getValue,0.36904769907816853,0.05733916666940786,0.03724319070516127,0.007937500000075993,0.4715675564528137
Comparison.optimize,0.0,0.0,0.0,0.0,0.0
ConditionAndOr.getValue,0.11373492110408386,0.1570030000099602,0.014294100585195414,0.024515000000974396,0.30954702170021386
ConditionAndOr.isEverything,0.19313610294641648,0.0,0.01945004383336712,0.0,0.2125861467797836
ConditionExists.getValue,0.054228965517598524,0.0,0.007883218391184395,0.0,0.06211218390878292
ConditionNot.getValue,0.014280827586196532,0.0,0.0012820689656621851,0.0,0.015562896551858716
ConstPool.getItem,0.03391400302450929,0.0,0.0035743416045353423,0.0,0.03748834462904463
Customer.setFirst,0.0,0.0,0.0,0.0,0.0
Database.areEqual,0.041413438347540216,0.0,0.004120588919150769,0.0,0.045534027266690986
Database.checkPowerOff,0.0,0.0,0.0,0.0,0.0
Database.isReconnectNeeded,0.06279039379022688,0.0,0.007698624285467351,0.0,0.07048901807569423
Driver.connect,0.057835307126108675,0.0,0.0047703746525027575,0.0,0.06260568177861144
ExpressionColumn.getTableName,0.0,0.0,0.0,0.0,0.0
ExpressionColumn.getValue,0.09904993023354391,0.09343859999498816,0.01163762332243076,0.016136999999980618,0.22026315355094345
ExpressionColumn.isEverything,0.26317555866341397,0.0,0.0272797609591361,0.0,0.29045531962255006
ExpressionVisitor.incrementQueryLevel,0.0,0.07268977758879622,0.0,0.01091774237241228,0.08360751996120849
Gregorian.getCalendarDate,0.0,0.07366966666692558,0.0,0.012219999999918702,0.08588966666684428
IndexCondition.getCurrentValue,0.01591190000035567,0.0,0.001771500000177184,0.0,0.017683400000532853
IndexCursor.find,0.08233472564978256,0.0,0.009664045305573358,0.0,0.09199877095535591
IndexCursor.getSearchRow,0.09851825814888267,0.0,0.010574314626309726,0.0,0.1090925727751924
IndexCursor.isAlwaysFalse,0.07138620365844182,0.0,0.006725520956049225,0.0,0.07811172461449105
IndexCursor.next,0.013025122807001726,0.0,0.0018821052633524106,0.0,0.014907228070354137
Insert.insertRows,0.31380502037065466,0.0,0.0370236258118794,0.0,0.35082864618253407
JdbcConnection.checkClosed,0.24616071697027558,0.7072756666554292,0.029248642814222583,0.1131149999982881,1.0958000264382153
JdbcPreparedStatement.setParameter,0.029017391635057045,0.0,0.004077948142312838,0.0,0.033095339777369885
JdbcResultSet.checkClosed,0.023749431106305813,0.0,0.002390007399469878,0.0,0.02613943850577569
JdbcResultSet.checkOnValidRow,0.02234676449845082,0.0,0.0016851508030654144,0.0,0.024031915301516237
JdbcResultSet.findColumn,0.0,0.0,0.0,0.0,0.0
JdbcResultSet.get,0.03228100236654761,0.0,0.002332953863716063,0.0,0.03461395623026367
JdbcResultSet.getColumnIndex,0.0,0.0,0.0,0.0,0.0
JdbcResultSet.getString,0.01425320737925495,0.0642903333355207,0.0014124171735492325,0.010879999999815482,0.09083595788814036
JdbcResultSet.nextRow,0.0,0.06736233333746591,0.0,0.011460000000321694,0.07882233333778761
JdbcStatement.checkClosed,0.11284463869369485,0.14762366666885401,0.011450092051009844,0.024460000000544824,0.2963783974141035
LocalResult.getColumnName,0.0,0.04930288889186663,0.0,0.007236666666560468,0.0565395555584271
LocalResult.next,0.09783171523666326,0.12247699999716133,0.009659284856942544,0.02036500000031083,0.25033300009107795
LocalResult.setLimit,0.07914075064843926,0.0,0.006632956566305741,0.0,0.085773707214745
MathUtils.compare,0.07563486371340204,0.0,0.007173491246342869,0.0,0.08280835495974491
Message.getSQLException,0.0,0.0,0.0,0.0,0.0
MethodAccessorGenerator.generate,0.04613626007539153,0.0,0.004953447871866937,0.0,0.05108970794725847
MultiVersionCursor.<init>,0.010625166666917114,0.0,0.0007812499998181012,0.0,0.011406416666735215
MultiVersionCursor.get,0.0,0.0,0.0,0.0,0.0
MultiVersionCursor.getSearchRow,0.0804208271611753,0.0,0.008421436450167998,0.0,0.08884226361134329
MultiVersionCursor.loadNext,0.1332173244413335,0.081432771805832,0.01714495487919223,0.010902861849630109,0.24269791297598783
MultiVersionCursor.next,0.23911016387034853,0.0,0.030151431740498353,0.0,0.2692615956108469
MultiVersionCursor.step,0.2726121722339872,0.0,0.024231613437162364,0.0,0.29684378567114955
MultiVersionIndex.add,0.0540640143534555,0.0,0.005893176355107762,0.0,0.059957190708563264
MultiVersionIndex.compareRows,0.06878064347855259,0.0,0.005582391407919784,0.0,0.07436303488647238
MultiVersionIndex.find,0.0428311500327482,0.0,0.004386336103762788,0.0,0.047217486136510986
OERandom.randomAString24,0.022863578947930868,0.0,0.003932631579166474,0.0,0.026796210527097342
OERandom.randomIntPerm,0.07776453593389958,0.0,0.010100557599731134,0.0,0.08786509353363071
OERandom.randomNString,0.034530777309848035,0.0,0.005338389834356429,0.0,0.039869167144204465
ObjectArray$ObjectArrayIterator.hasNext,0.06513466666365275,0.0,0.008422499999748348,0.0,0.0735571666634011
ObjectArray$ObjectArrayIterator.next,0.010435644444078207,0.0,0.0010586666667626963,0.0,0.011494311110840904
ObjectArray.add,0.10496643431494047,0.0,0.015277752118039126,0.0,0.1202441864329796
ObjectArray.createArray,0.07593606458743066,0.0,0.008669915459105572,0.0,0.08460598004653623
ObjectArray.get,0.22636204448241037,0.41530299999673537,0.025359073566782183,0.0725200000009257,0.7395441180468536
ObjectArray.newInstance,0.02497466666736053,0.0,0.0018399999998682348,0.0,0.026814666667228766
ObjectArray.sort,0.45563687440927864,0.0,0.0498293398669743,0.0,0.5054662142762529
ObjectArray.swap,0.04460051596351583,0.0,0.003907990751558812,0.0,0.048508506715074645
ObjectArray.toArray,0.0964964217061584,0.0,0.008618963147652174,0.0,0.10511538485381057
Parser.read,0.0,0.0,0.0,0.0,0.0
Prepared.checkCanceled,0.08123428222062817,0.0,0.011949611920460384,0.0,0.09318389414108856
Prepared.setCurrentRowNumber,0.05172095402745123,0.0,0.004691118750020736,0.0,0.05641207277747196
Query.query,0.12422247735768506,0.0,0.01372999771916641,0.0,0.13795247507685146
Query.sameResultAsLast,0.0,0.0,0.0,0.0,0.0
Record.setSessionId,0.07911150505352645,0.0,0.010579678029673707,0.0,0.08969118308320015
Row.getValue,1.310574801737035,0.15559866667414704,0.144669258601869,0.027449999999589636,1.6382927270126406
Row.isEmpty,0.03479088889071135,0.0,0.004522916666701348,0.0,0.0393138055574127
Row.setValue,0.08381997395771902,0.0,0.007690967382225638,0.0,0.09151094133994465
SHA256.getHash,0.01616455293893526,0.0,0.0013953671250970202,0.0,0.017559920064032283
ScanCursor.next,0.08345207879393453,0.0,0.00785139568041921,0.0,0.09130347447435373
ScanIndex.add,0.0,0.0,0.0,0.0,0.0
ScanIndex.getNextRow,0.35806033404683524,0.5404235079227614,0.036619409777669615,0.09358857142992097,1.0286918231771873
ScanIndex.incrementRowCount,0.15420369259983577,0.0,0.02150730684460961,0.0,0.17571099944444538
Select.isEverything,0.04152138212852385,0.0,0.005323410575787513,0.0,0.04684479270431136
Select.queryFlat,0.5910998241163602,0.5690306666656397,0.06252859686421203,0.09932999999970585,1.321989087645918
Select.queryGroup,0.0,0.0,0.0,0.0,0.0
Select.queryWithoutCache,0.01324924731173963,0.0,0.0013903225806506686,0.0,0.014639569892390299
Session.getDatabase,0.0,0.0,0.0,0.0,0.0
Session.isClosed,0.0,0.213033000016973,0.0,0.03554000000076485,0.24857300001773786
Session.isReconnectNeeded,0.24025860048846395,0.7835024666438887,0.02736076123551789,0.1300819999987652,1.1812038283666357
SessionRemote.<init>,0.01865308807543196,0.0,0.0016616036443821744,0.0,0.020314691719814135
SimpleInsert.customerTable,0.08437749501076278,0.0,0.01025471012960436,0.0,0.09463220514036713
SimpleInsert.stockTable,0.08501874183920194,0.0,0.012868450028900708,0.0,0.09788719186810264
Standard.getOrderStatusForCustomer,0.0,0.0,0.0,0.0,0.0
Standard.orderStatus,0.0,0.0,0.0,0.0,0.0
Standard.payment,0.0,0.0,0.0,0.0,0.0
Standard.paymentById,0.0,0.0,0.0,0.0,0.0
StringCache.get,0.25279661703935297,0.0,0.03223320573522327,0.0,0.2850298227745762
StringCache.getNew,0.0,0.0,0.0,0.0,0.0
TPCC$3.run,0.0,0.0,0.0,0.0,0.0
TPCC.calculateSumDB,0.6252901081553769,0.0,0.058006129690926896,0.0,0.6832962378463038
TPCC.iteration,1.2527882595734678,0.0,0.08196810357090015,0.0,1.334756363144368
TPCC.preIteration,0.03371954946498645,0.0,0.004433850299009153,0.0,0.0381533997639956
TPCC.runScript,0.00958972043039838,0.0,0.0010477419354594864,0.0,0.010637462365857865
TPCCSubmitter.runTransactions,0.0,0.0,0.0,0.0,0.0
Table.compareTypeSave,0.08968334962335064,0.0,0.007473736105724877,0.0,0.09715708572907553
Table.getTemplateRow,0.35843606517798265,0.0,0.039656164923970456,0.0,0.3980922301019531
TableData$1.compare,0.24551173647277713,0.0,0.02620243787739845,0.0,0.2717141743501756
TableData.addIndex,0.03295504181462129,0.0,0.003631194539879578,0.0,0.03658623635450087
TableData.addRow,0.11400596807437571,0.0,0.015440978339080522,0.0,0.12944694641345622
TableData.addRowsToIndex,0.12870574590169376,0.0,0.013420231112091077,0.0,0.14212597701378482
TableFilter.getValue,0.11050267658868966,0.14050493329826425,0.010813452970034703,0.026091663661871205,0.28791272651885985
TableFilter.isOk,0.1154281885868207,0.0,0.012463191890726838,0.0,0.12789138047754756
TableFilter.next,0.29421416502529546,0.0,0.02708700471214165,0.0,0.3213011697374371
Trace.isEnabled,0.11191748052232235,0.07293699998990633,0.01173762091544973,0.01223500000075243,0.20882710142843083
TraceObject.debugCodeCall,0.0,0.0732219999966522,0.0,0.01224000000062612,0.08546199999727833
TraceObject.isDebugEnabled,0.04879907815297595,0.0,0.006889298667785827,0.0,0.055688376820761776
TraceSystem.getTrace,0.06043082987718675,0.0,0.007371443381114819,0.0,0.06780227325830157
TreeCursor.<init>,0.01099447584981213,0.0,0.0005667879015908598,0.0,0.01156126375140299
TreeCursor.next,0.1345445427932972,0.0,0.01516961576268589,0.0,0.14971415855598308
TreeIndex.add,0.24293778992361006,0.0,0.02526703487403788,0.0,0.26820482479764796
TreeIndex.balance,0.24605644654206849,0.07946766666524732,0.02539657504477776,0.011610000000170354,0.3625306882522639
TreeIndex.child,0.029257319518961263,0.0,0.0027388905917195717,0.0,0.03199621011068084
TreeIndex.find,0.18776487698974575,0.0,0.018299084108334765,0.0,0.2060639610980805
TreeIndex.findFirstNode,0.19934568869763558,0.0,0.02002041695892099,0.0,0.21936610565655656
TreeIndex.next,0.20679415233197163,0.107152869174776,0.02246785440557771,0.017580640697947444,0.3539955166102728
TreeIndex.remove,0.04586585144816218,0.0,0.004876081507736479,0.0,0.050741932955898655
TreeIndex.replace,0.028180299415321075,0.0,0.0018250682256675172,0.0,0.030005367640988594
TreeIndex.set,0.1382338380709491,0.0,0.01624796844556958,0.0,0.1544818065165187
UndoLog.getLast,0.12616418710326888,0.0,0.015961051787372428,0.0,0.1421252388906413
UndoLog.removeLast,0.08006103598340432,0.0,0.008488645886237508,0.0,0.08854968186964182
UndoLogRecord.commit,0.0,0.11478605956829804,0.0,0.014695791568504169,0.12948185113680222
UndoLogRecord.isStored,0.0399034678685318,0.0,0.00518275817559649,0.0,0.04508622604412829
Value.cache,0.24723590672570256,0.0,0.027443240262810448,0.0,0.27467914698851303
Value.checkPrecision,0.025520533487119832,0.0,0.00278351562081613,0.0,0.028304049107935964
Value.compareTypeSave,0.1849855736594388,0.0,0.01873743170861391,0.0,0.2037230053680527
Value.convertTo,0.10458035668217316,0.02866976338702615,0.013391626285893667,0.004170779338074443,0.15081252569316742
ValueArray.compareSecure,0.0,0.0,0.0,0.0,0.0
ValueBoolean.get,0.0,0.07191976190023568,0.0,0.007817857142851738,0.07973761904308742
ValueBoolean.getType,0.06517730080027262,0.0,0.009776108932271738,0.0,0.07495340973254436
ValueDecimal.get,0.04468665001894017,0.0,0.006529380212497646,0.0,0.051216030231437816
ValueExpression.<init>,0.0032859287649844564,0.0,0.0004220430556193212,0.0,0.0037079718206037776
ValueInt.compareSecure,0.11182337829752256,0.0,0.011109491144467878,0.0,0.12293286944199044
ValueInt.get,0.028272888886729363,0.0,0.004499999999906221,0.0,0.032772888886635584
ValueInt.getInt,0.008777428572232434,0.0,0.0015371428571164696,0.0,0.010314571429348903
ValueShort.compareSecure,0.17322434829047406,0.0,0.01632060402771739,0.0,0.18954495231819146
ValueShort.get,0.0,0.0,0.0,0.0,0.0
ValueShort.getType,0.017050705128685176,0.0,0.0018307692306944567,0.0,0.018881474359379632
ValueString.get,0.10792086787780483,0.0,0.010985442582691927,0.0,0.11890631046049677
ValueStringFixed.get,0.09266690651355923,0.0,0.009682602923163204,0.0,0.10234950943672244
ZoneInfo.getOffsets,0.0,0.07305899999725321,0.0,0.012230000000272412,0.08528899999752562
ZoneInfo.getTimeZone,0.04552883931744224,0.0,0.004555939064706822,0.0,0.05008477838214906
ZoneInfo.getTransitionIndex,0.03103033223485054,0.048828333334919684,0.0030124956210200644,0.008155000000139506,0.0910261611909298
