method,package1,package2,dram1,dram2,energy
AbstractCollection.<init>|AbstractList.<init>|ArrayList.<init>,0.045524235580186416,0.0,0.002859797194788556,0.0,0.048384032774974974
AbstractStringBuilder.<init>|StringBuffer.<init>|Timestamp.toString,0.0,0.38629502019687073,0.0,0.06230511056758588,0.4486001307644566
AbstractStringBuilder.<init>|StringBuilder.<init>|Timestamp.toString,0.0,0.26540558332926595,0.0,0.03899474999934682,0.30440033332861277
AbstractStringBuilder.append|StringBuffer.append|Timestamp.toString,0.0,0.35499600306349205,0.0,0.054430715991732985,0.40942671905522504
AbstractStringBuilder.append|StringBuilder.append|Timestamp.toString,0.0,0.13365638506797994,0.0,0.021352397741571348,0.1550087828095513
AbstractStringBuilder.ensureCapacityInternal|AbstractStringBuilder.append|StringBuffer.append,0.0,0.4307677076586265,0.0,0.06574194580312744,0.4965096534617539
AbstractStringBuilder.ensureCapacityInternal|AbstractStringBuilder.append|StringBuilder.append,0.0,0.05511475000093924,0.0,0.009179999999560096,0.06429475000049933
AbstractStringBuilder.insert|StringBuffer.insert|OERandom.randomDecimalString,0.0,0.03481715820731983,0.0,0.004332691806700017,0.03914985001401985
ArrayList.add|Session.commit|TransactionCommand.update,0.07737255959607134,0.0,0.010193271201941136,0.0,0.08756583079801247
Arrays.copyOfRange|String.<init>|StringBuilder.toString,0.0,0.1159413134956455,0.0,0.017557629965569945,0.13349894346121544
Arrays.copyOfRange|StringBuffer.toString|Timestamp.toString,0.0,0.17666209523200188,0.0,0.02875571428549371,0.20541780951749558
Arrays.copyOf|AbstractStringBuilder.ensureCapacityInternal|AbstractStringBuilder.append,0.0,0.1877845696947679,0.0,0.02482474952852195,0.21260931922328985
Arrays.copyOf|String.<init>|OERandom.randomNString,0.0,0.04660895700818619,0.0,0.006130789981951279,0.05273974699013747
AtomicLong.compareAndSet|Random.next|Random.nextDouble,0.0,0.3887760016997359,0.0,0.049897862682912526,0.43867386438264844
AtomicLong.compareAndSet|Random.next|Random.nextInt,0.0,0.02018629658024848,0.0,0.003110895603593137,0.023297192183841617
AtomicLong.get|Random.next|Random.nextInt,0.0,0.05636516269565569,0.0,0.007872099934717425,0.06423726263037312
Attributes$Name.hashCode|HashMap.hash|HashMap.put,0.0,0.0,0.0,0.0,0.0
Attributes.getValue|URLClassLoader.isSealed|URLClassLoader.getAndVerifyPackage,0.0,0.0581322899654817,0.0,0.007861931251441974,0.06599422121692367
Attributes.get|Attributes.getValue|URLClassLoader.definePackage,0.0,0.05974823025591298,0.0,0.008364551849248279,0.06811278210516125
BigDecimal.<clinit>|Value.<clinit>|Session.<init>,0.0,0.021025441461186192,0.0,0.00329414258436134,0.024319584045547533
BigDecimal.<init>|BigDecimal.<init>|BigDecimal.<init>,0.0582916228689346,0.23073059146299923,0.006895257956247598,0.030127097953638958,0.3260445702418204
BigDecimal.<init>|Value.convertTo|Column.convert,0.0,0.07004332126865577,0.0,0.007281761538144258,0.07732508280680003
BigDecimal.<init>|ValueTimestamp.convertScale|Column.validateConvertUpdateSequence,0.0,0.031262413794912916,0.0,0.005405540342676565,0.036667954137589484
BigDecimal.layoutChars|BigDecimal.toString|Submitter.runPayment,0.024728043191476725,0.0,0.0017189177714441366,0.0,0.026446960962920863
BigDecimal.movePointRight|ValueTimestamp.convertScale|Column.validateConvertUpdateSequence,0.0,0.01902126883301933,0.0,0.0021577032245833523,0.021178972057602684
BigDecimal.valueOf|BigDecimal.setScale|MathUtils.setScale,0.0,0.031566541103374195,0.0,0.004810919619096722,0.03637746072247092
BigDecimal.valueOf|BigDecimal.valueOf|BigDecimal.divideAndRound,0.0,0.06048567372499766,0.0,0.00644495074418469,0.06693062446918235
BigInteger.abs|BigInteger.smallToString|BigInteger.toString,0.0,0.0,0.0,0.0,0.0
BigInteger.hashCode|BigDecimal.hashCode|ValueDecimal.hashCode,0.0,0.0,0.0,0.0,0.0
BigInteger.multiplyByInt|BigInteger.multiply|BigInteger.pow,0.0,0.0,0.0,0.0,0.0
BigInteger.multiply|BigDecimal.bigMultiplyPowerTen|BigDecimal.add,0.0,0.0,0.0,0.0,0.0
BigInteger.smallToString|BigInteger.toString|BigInteger.toString,0.0,0.06326068747135437,0.0,0.007185068573326087,0.07044575604468045
BigInteger.toString|BigInteger.toString|ValueDecimal.getPrecision,0.0,0.06477128211138193,0.0,0.008621186691710383,0.07339246880309232
BigInteger.valueOf|BigDecimal.inflated|BigDecimal.toBigInteger,0.0,0.03630612966888723,0.0,0.0037623530640549054,0.04006848273294213
Boolean.equals|ConditionAndOr.getValue|Expression.getBooleanValue,0.0,0.08300766667040685,0.0,0.012280000000221964,0.09528766667062881
Boolean.equals|Select.queryFlat|Select.queryWithoutCache,0.0,0.050919461316177216,0.0,0.00810448578943185,0.05902394710560906
Boolean.equals|TableFilter.isOk|TableFilter.next,0.046109125975733294,0.0,0.006031365275447774,0.0,0.052140491251181066
BufferedInputStream.read|DataInputStream.readInt|AttributeInfo.<init>,0.0,0.04284299798966545,0.0,0.005457045229082093,0.04830004321874754
BufferedInputStream.read|DataInputStream.readInt|CodeAttribute.<init>,0.0,0.04231752861536092,0.0,0.005048170176214339,0.04736569879157526
BufferedInputStream.read|DataInputStream.readUnsignedByte|ConstPool.readOne,0.0,0.0581322899654817,0.0,0.007861931251441974,0.06599422121692367
BufferedOutputStream.flush|PrintStream.write|StreamEncoder.writeBytes,0.0,0.04503800201665584,0.0,0.006253164930664298,0.05129116694732014
ClassLoader.defineClass1|ClassLoader.defineClass|SecureClassLoader.defineClass,0.0,0.13938133358625052,0.0,0.019738039408080315,0.15911937299433082
ClassLoader.findBootstrapClass|ClassLoader.findBootstrapClassOrNull|ClassLoader.loadClass,0.0,0.04231752861536092,0.0,0.005048170176214339,0.04736569879157526
DataInputStream.readUnsignedShort|AttributeInfo.read|FieldInfo.read,0.0,0.051825113806705465,0.0,0.00688626038479079,0.05871137419149625
DataInputStream.readUnsignedShort|DataInputStream.readUTF|DataInputStream.readUTF,0.0,0.01709187329701944,0.0,0.0024797711848927517,0.019571644481912193
Date.getDate|Timestamp.toString|ValueTimestamp.getString,0.0,0.04718991984338771,0.0,0.00692547932432765,0.054115399167715364
Date.getHours|Timestamp.toString|ValueTimestamp.getString,0.0,0.02896718663146228,0.0,0.004381220698019256,0.033348407329481536
Date.getTimeImpl|Date.getTime|Timestamp.getTime,0.0,0.048690750008972834,0.0,0.00817125000003216,0.056862000009004994
Date.normalize|Date.getDate|Timestamp.toString,0.0,0.17524972221936413,0.0,0.019569257001799966,0.1948189792211641
FileOutputStream.writeBytes|FileOutputStream.write|BufferedOutputStream.write,0.0,0.047516552000141536,0.0,0.007015709024162663,0.054532261024304196
HashMap.getNode|HashMap.containsKey|HashSet.contains,0.0,0.040971639831764696,0.0,0.006292267002831259,0.047263906834595956
HashMap.getNode|HashMap.get|ExpressionColumn.getValue,0.0142261681374159,0.08762125001036716,0.001348046315081094,0.012623750000633056,0.1158192144634972
HashMap.getNode|HashMap.get|ScanIndex.incrementRowCount,0.0,0.04542938748399476,0.0,0.006434898618302381,0.051864286102297145
HashMap.hash|HashMap.put|HashSet.add,0.0,0.0,0.0,0.0,0.0
HashMap.hash|HashMap.remove|HashSet.remove,0.0,0.07178024129417343,0.0,0.009216397460055812,0.08099663875422924
HashMap.putVal|HashMap.put|HashSet.add,0.0,0.031120585599995768,0.0,0.004718707038579921,0.03583929263857569
HashMap.removeNode|HashMap.remove|HashSet.remove,0.0,0.1571631055100812,0.0,0.02122892896175476,0.17839203447183596
HashSet.<init>|IndexCursor.find|TableFilter.next,0.0,0.09491626201433684,0.0,0.014743163371354593,0.10965942538569143
HashSet.contains|TableData.doLock|TableData.lock,0.0,0.0,0.0,0.0,0.0
Hashtable.get|ClassPool.getCached|ClassPool.get0,0.0,0.05387731699818864,0.0,0.007527726353577276,0.061405043351765914
Inflater.inflateBytes|Inflater.inflate|InflaterInputStream.read,0.0,0.3641313519355809,0.0,0.05360753757949914,0.41773888951508004
Integer.getChars|Integer.toString|String.valueOf,0.0,0.5874912893258489,0.0,0.08972640269561004,0.677217692021459
Integer.getChars|Integer.toString|Timestamp.toString,0.0,0.7676121842425789,0.0,0.11476149927642852,0.8823736835190075
Integer.stringSize|AbstractStringBuilder.append|StringBuilder.append,0.0,0.0,0.0,0.0,0.0
Integer.stringSize|Integer.toString|Timestamp.toString,0.0,0.22927861769805974,0.0,0.032295420407740194,0.26157403810579993
Integer.toString|String.valueOf|ValueInt.getString,0.0,0.7648085093686964,0.0,0.12368961117775162,0.888498120546448
Integer.toString|String.valueOf|ValueShort.getString,0.0,2.173734430138737,0.0,0.3411583207622455,2.514892750900983
Integer.toString|Timestamp.toString|ValueTimestamp.getString,0.0,2.657349907624246,0.0,0.4034219984208516,3.0607719060450975
Integer.valueOf|ScanIndex.incrementRowCount|ScanIndex.commit,0.0,0.04378390676376173,0.0,0.0049335171614900185,0.04871742392525175
Long.getChars|Long.toString|Long.toString,0.0,0.0,0.0,0.0,0.0
Long.toString|Long.toString|BigInteger.smallToString,0.0,0.0,0.0,0.0,0.0
MessageFormat.<init>|MessageFormat.format|Message.translate,0.0,0.0,0.0,0.0,0.0
MutableBigInteger.divideMagnitude|MutableBigInteger.divideKnuth|MutableBigInteger.divide,0.0,0.0,0.0,0.0,0.0
MutableBigInteger.primitiveLeftShift|MutableBigInteger.rightShift|MutableBigInteger.divideMagnitude,0.0,0.07080088888890006,0.0,0.010196666666969476,0.08099755555586953
Object.<init>|CacheObject.<init>|Record.<init>,0.0,0.15984971116489477,0.0,0.021450523103585355,0.18130023426848013
Object.hashCode|HashMap.hash|HashMap.put,0.016145638262077672,0.0,0.0016226308306301904,0.0,0.017768269092707862
Object.hashCode|HashMap.hash|HashMap.remove,0.0,0.40152239018713654,0.0,0.04821099953611721,0.4497333897232537
Object.wait|Command.executeUpdate|JdbcPreparedStatement.executeUpdateInternal,0.0,0.0,0.0,0.0,0.0
Random.next|Random.nextDouble|OERandom.randomInt,0.0,0.29265716523907637,0.0,0.036983864829209415,0.32964103006828577
Random.setSeed|OERandom.setSeed|TPCCSubmitter.runTransactions,0.0,0.0,0.0,0.0,0.0
SimpleDateFormat.initializeCalendar|SimpleDateFormat.<init>|SimpleDateFormat.<init>,0.0,0.029935355859635738,0.0,0.004349665941718983,0.03428502180135472
SoftReference.get|StringCache.getCache|StringCache.getNew,0.0,0.0,0.0,0.0,0.0
SoftReference.get|Value.cache|ValueDecimal.get,0.0,0.05924955532170925,0.0,0.007507594294156258,0.06675714961586551
SoftReference.get|Value.cache|ValueString.get,0.0,0.07164989784097933,0.0,0.009806744035561494,0.08145664187654082
String.<init>|String.substring|Timestamp.toString,0.0,0.05692566666402854,0.0,0.00961500000084925,0.06654066666487779
String.<init>|StringBuilder.toString|Timestamp.toString,0.0,0.08543306666736801,0.0,0.008980000000155997,0.09441306666752401
String.<init>|Timestamp.toString|ValueTimestamp.getString,0.0,0.030148205129453574,0.0,0.004424615384778008,0.03457282051423158
String.charAt|TPCC.calculateSumDB|TPCC.calculateSumDB,0.0,0.017541068599143984,0.0,0.003002389284596131,0.020543457883740117
String.charAt|UnixFileSystem.prefixLength|File.<init>,0.0,0.023873785980082104,0.0,0.0032728784911034035,0.027146664471185508
String.concat|OERandom.randomAString10_20|SimpleInsert.customerTable,0.0,0.0407718915846672,0.0,0.004625035642048711,0.045396927226715914
String.getChars|AbstractStringBuilder.append|StringBuffer.append,0.0,0.3738973714261812,0.0,0.06227395740250633,0.43617132882868753
String.getChars|String.concat|OERandom.randomAString26_50,0.0,0.036718910224384685,0.0,0.0071541866211933015,0.04387309684557798
String.hashCode|HashMap.hash|HashMap.put,0.0,0.0,0.0,0.0,0.0
String.hashCode|StringCache.get|ValueString.get,0.0,0.0827500469210931,0.0,0.009317603838803826,0.09206765075989692
String.length|TPCC.calculateSumDB|TPCC.calculateSumDB,0.0,0.019520771819275702,0.0,0.0026750380645686155,0.022195809883844318
String.toCharArray|BigDecimal.<init>|Value.convertTo,0.0,0.047472651892996376,0.0,0.006202508787033752,0.05367516068003013
String.toCharArray|BigDecimal.<init>|ValueTimestamp.convertScale,0.0,0.04193285619607109,0.0,0.004946600299156392,0.04687945649522748
String.toUpperCase|StringUtils.toUpperEnglish|JdbcResultSet.getColumnIndex,0.0,0.0735676666663494,0.0,0.009579999999308106,0.0831476666656575
String.valueOf|ValueInt.getString|JdbcResultSet.getString,0.0,0.15730800000407422,0.0,0.02735000000029686,0.18465800000437108
StringBuffer.append|OERandom.randomDecimalString|SimpleInsert.orderTable,0.0,0.0877434178675926,0.0,0.014788915496156081,0.10253233336374867
StringBuffer.append|Timestamp.toString|ValueTimestamp.getString,0.0,0.5463741025631571,0.0,0.08870725274887314,0.6350813553120302
StringBuffer.length|OERandom.randomDecimalString|SimpleInsert.orderTable,0.0,0.04983578156245008,0.0,0.0068253687860111295,0.05666115034846121
StringBuffer.setLength|OERandom.randomDecimalString|SimpleInsert.itemTable,0.0,0.037870718756764926,0.0,0.004243580632364397,0.04211429938912932
StringBuffer.toString|OERandom.randomDecimalString|SimpleInsert.orderTable,0.0,0.07325634589081828,0.0,0.009131606165753061,0.08238795205657135
StringBuffer.toString|Timestamp.toString|ValueTimestamp.getString,0.0,0.08427958333049901,0.0,0.011681249998976757,0.09596083332947576
StringBuilder.append|Timestamp.toString|ValueTimestamp.getString,0.0,0.028013894412963238,0.0,0.004398399881501369,0.03241229429446461
StringBuilder.setLength|BigDecimal$StringBuilderHelper.getStringBuilder|BigDecimal.layoutChars,0.0,0.02865131148231804,0.0,0.00462892009358846,0.033280231575906496
StringBuilder.toString|BigDecimal.layoutChars|BigDecimal.toString,0.0,0.05103669466473983,0.0,0.008171659291685974,0.059208353956425805
ThreadLocal$ThreadLocalMap.getEntry|ThreadLocal$ThreadLocalMap.access$000|ThreadLocal.get,0.0,0.053968655102798635,0.0,0.007570751181896072,0.0615394062846947
Throwable.fillInStackTrace|Throwable.fillInStackTrace|Throwable.<init>,0.0,0.0,0.0,0.0,0.0
TimeZone.getTimeZone|TimeZone.setDefaultZone|TimeZone.getDefaultRef,0.0,0.050389276851666116,0.0,0.006680781200698316,0.05707005805236443
Timestamp.toString|ValueTimestamp.getString|JdbcResultSet.getString,0.0,0.3907167213635708,0.0,0.05415128532033247,0.44486800668390325
ZipFile.getEntry|ZipFile.getInputStream|JarFile.getInputStream,0.0,0.05743203934441991,0.0,0.0079380334951284,0.06537007283954832
ZipFile.open|ZipFile.<init>|ZipFile.<init>,0.0,0.044153852710394605,0.0,0.007112304274632443,0.051266156985027046
ZipFile.read|ZipFile.access$1400|ZipFile$ZipFileInputStream.read,0.0,0.1453886908983881,0.0,0.019042014991557246,0.16443070588994535
