method,package1,package2,dram1,dram2,energy
java.io,0.04040116479413406,0.0,0.004466337942161453,0.0,0.044867502736295514
java.lang,3.5133988192133923,4.972087747175671,0.35760930221538556,0.787007325573858,9.630103194178307
java.lang.ref,0.059393240499662873,0.0,0.008173540381568622,0.0,0.0675667808812315
java.math,0.6579062414702161,0.06060647658677457,0.0843319464125758,0.009680015414559108,0.8125246798841256
java.sql,0.13664443933457354,0.10615281441070418,0.013103104198000388,0.01705380884144289,0.27295416678472095
java.text,0.0,0.0,0.0,0.0,0.0
java.util,1.2232495751055927,0.4769840091929336,0.13712540599510809,0.07495113388890694,1.9123101241825413
java.util.concurrent.atomic,0.39130521626212883,0.0,0.04636644999691161,0.0,0.4376716662590404
java.util.jar,0.025969941524073,0.0,0.003441234991105632,0.0,0.029411176515178633
java.util.zip,0.37880760946248193,0.0,0.04262872053467355,0.0,0.42143632999715547
org.apache.derbyTesting.system.oe.client,0.0,0.0,0.0,0.0,0.0
org.apache.derbyTesting.system.oe.direct,0.0,0.0,0.0,0.0,0.0
org.apache.derbyTesting.system.oe.load,0.36039893373577647,0.0,0.04424992725868666,0.0,0.4046488609944631
org.apache.derbyTesting.system.oe.model,0.0,0.027299744841134482,0.0,0.003900946582119617,0.0312006914232541
org.apache.derbyTesting.system.oe.util,0.15624465089589423,0.01892426702081507,0.021317256147975333,0.0025787868370024595,0.1990649609016871
org.dacapo.h2,0.27070057257577196,0.046776854888338174,0.02429409375273555,0.007856006920821024,0.3496275281376667
org.h2.command,0.6755524604768394,0.4541877127911024,0.07503654634216081,0.070666356640144,1.2754430762502464
org.h2.command.dml,1.497727965730119,0.0826088216878288,0.18111532132961067,0.013076635519993546,1.7745287442675521
org.h2.constant,0.0,0.0,0.0,0.0,0.0
org.h2.engine,0.1736905735203227,0.612466329944481,0.022355369464621872,0.09894150432198792,0.9074537772514135
org.h2.expression,2.1291997634858464,1.1072974147859853,0.24431250728537796,0.17543423892528023,3.65624392448249
org.h2.index,10.020617610628506,1.0784290370881837,1.1578160521042833,0.16871938677076193,12.425582086591735
org.h2.jdbc,0.56813009029437,0.9543393833007233,0.05639717697041263,0.1515974385222064,1.7304640890877123
org.h2.log,0.17393765359110547,0.0,0.025507444449911352,0.0,0.19944509804101682
org.h2.message,0.11496118137792223,0.26461227787095204,0.012785038538748454,0.04336331260287604,0.43572181039049873
org.h2.result,2.5206088786529564,0.5764011266233489,0.2816388751684007,0.08837320989343612,3.467022090338142
org.h2.store,0.09467041357568542,0.0,0.01352251272016735,0.0,0.10819292629585278
org.h2.table,2.4665193524341706,0.5503033701080563,0.27841633814238753,0.08845084785758213,3.3836899085421965
org.h2.util,1.6697263448572257,0.16553014945246597,0.1967067100935567,0.018550012466552194,2.0505132168698004
org.h2.value,1.9181683574307211,0.48177969946241317,0.24074342473356053,0.07274983085776669,2.7134413124844614
sun.misc,0.03386627034494514,0.0,0.003996139170519641,0.0,0.03786240951546478
sun.security.util,0.025969941524073,0.0,0.003441234991105632,0.0,0.029411176515178633
sun.util.calendar,0.12792745291383784,1.3455439051999645,0.013334979324863095,0.21423315521621722,1.7010394926548829
