method,hits
AbstractCalendar.getCalendarDate,6
AbstractCalendar.setTimeOfDay,6
AbstractStringBuilder.<init>,10
AbstractStringBuilder.append,16
AbstractStringBuilder.ensureCapacityInternal,6
ArrayList$Itr.hasNext,2
Arrays.copyOf,4
Arrays.copyOfRange,14
AtomicLong.compareAndSet,14
AtomicLong.get,2
BaseIndex.compareKeys,2
BaseIndex.compareRows,198
BaseIndex.compareValues,56
BaseIndex.initBaseIndex,2
BigDecimal$StringBuilderHelper.getStringBuilder,2
BigDecimal.<init>,8
BigDecimal.add,2
BigDecimal.divideAndRound,2
BigDecimal.inflated,2
BigDecimal.signum,2
BigInteger.getInt,4
BigInteger.squareToLen,2
Boolean.booleanValue,2
Boolean.equals,2
CacheObject.<init>,4
CalendarDate.setSeconds,2
Character.getType,2
Character.toUpperCaseEx,2
ClassLoader.defineClass1,2
Column.convert,2
Column.getColumnId,26
Column.validateConvertUpdateSequence,4
Command.executeQueryLocal,4
Command.executeUpdate,118
Command.stop,2
CommandContainer.recompileIfRequired,68
CompareMode.compareString,6
Comparison.compareNotNull,2
Comparison.getValue,42
Comparison.isEverything,6
ConditionAndOr.getValue,16
ConditionAndOr.isEverything,14
ConstPool.readOne,2
Customer.setFirst,2
Database.areEqual,8
Database.getMode,2
Database.isReconnectNeeded,8
Date.getTimeImpl,2
Date.normalize,4
Delete.update,2
ExpressionColumn.getValue,18
ExpressionColumn.isEverything,10
ExpressionVisitor.get,8
ExpressionVisitor.getQueryLevel,6
ExpressionVisitor.incrementQueryLevel,2
Function.getSimpleValue,2
Gregorian.getCalendarDate,2
HashMap$Node.<init>,4
HashMap.hash,4
HashMap.putVal,6
HashMap.removeNode,18
HashSet.<init>,2
HashSet.remove,4
IdentityHashMap.hash,2
IndexCursor.find,20
IndexCursor.getSearchRow,6
IndexCursor.next,6
Insert.insertRows,20
Integer.getChars,38
Integer.stringSize,6
Integer.toString,72
JdbcConnection.checkClosed,30
JdbcConnection.prepareStatement,2
JdbcPreparedStatement.executeUpdateInternal,2
JdbcPreparedStatement.setObject,2
JdbcPreparedStatement.setParameter,4
JdbcResultSet.checkClosed,4
JdbcResultSet.getString,2
JdbcResultSet.nextRow,2
JdbcStatement.checkClosed,18
LinkedHashMap.afterNodeAccess,2
LocalResult.addRow,2
LocalResult.close,2
LocalResult.done,2
LocalResult.getList,2
LocalResult.next,12
Long.toString,6
Matcher.reset,2
MathUtils.compare,10
MessageFormat.<init>,2
MethodAccessorGenerator.generate,2
MultiVersionCursor.getSearchRow,40
MultiVersionCursor.loadNext,28
MultiVersionCursor.next,50
MultiVersionCursor.step,22
MultiVersionIndex.add,4
MultiVersionIndex.compareRows,10
MultiVersionIndex.find,6
MultiVersionIndex.getCreateSQL,2
MultiVersionIndex.remove,4
MultiVersionIndex.removeIfExists,4
MutableBigInteger.divide,2
MutableBigInteger.mulsub,2
NativeConstructorAccessorImpl.newInstance,2
OERandom.randomAString,2
OERandom.randomInt,8
Object.clone,4
Object.hashCode,12
Object.wait,78
ObjectArray$ObjectArrayIterator.hasNext,2
ObjectArray$ObjectArrayIterator.next,16
ObjectArray.add,2
ObjectArray.createArray,4
ObjectArray.get,14
ObjectArray.iterator,6
ObjectArray.remove,2
ObjectArray.sort,28
ObjectArray.swap,2
ObjectArray.toArray,4
Parameter.setValue,2
Parser.initialize,2
Parser.parseAlterTableAddConstraintIf,2
Pattern.closure,2
Plan.<init>,2
Prepared.setCurrentRowNumber,8
Query.getParameterValues,6
Query.isEverything,6
Query.query,8
Random.next,8
Random.nextInt,2
Record.<init>,2
Record.getSessionId,2
Row.<init>,8
Row.getKey,2
Row.getValue,112
Row.getVersion,2
Row.isEmpty,8
Row.setValue,8
RowList.next,2
RowList.reset,2
ScanIndex.getNextRow,44
Select.expandColumnList,2
Select.isEverything,14
Select.prepare,4
Select.queryFlat,40
Select.queryGroup,2
Select.queryWithoutCache,12
Session.hashCode,2
Session.isClosed,6
Session.isReconnectNeeded,16
SimpleInsert.customerTable,2
SimpleInsert.orderTable,12
SimpleInsert.stockTable,14
SoftReference.get,4
Standard.getOrderStatusForCustomer,2
Standard.newOrder,2
StatementHelper.<init>,2
String.<init>,4
String.charAt,8
String.getChars,8
String.hashCode,8
String.length,8
String.substring,2
String.toCharArray,4
String.toUpperCase,8
StringBuffer.append,10
StringBuffer.length,2
StringBuffer.toString,12
StringBuilder.toString,4
Submitter.runNewOrder,2
TPCC.calculateSumDB,26
TPCCSubmitter.runTransactions,2
Table.compareTypeSave,20
Table.fireConstraints,2
Table.getTemplateRow,36
TableData$1.compare,14
TableData.addIndex,12
TableData.addRowsToIndex,8
TableData.doLock,2
TableFilter.getValue,16
TableFilter.isOk,8
TableFilter.next,8
Throwable.fillInStackTrace,8
Timestamp.compareTo,2
Timestamp.toString,14
Trace.isEnabled,18
TraceObject.<init>,2
TraceObject.debugCodeCall,2
TraceSystem.getTrace,8
TraceSystem.write,2
TreeCursor.next,14
TreeIndex.<init>,2
TreeIndex.add,8
TreeIndex.balance,6
TreeIndex.find,10
TreeIndex.findFirstNode,48
TreeIndex.next,54
TreeIndex.remove,2
TreeIndex.replace,2
TreeIndex.set,8
TreeNode.isFromLeft,14
UndoLog.getLast,2
UndoLogRecord.commit,2
Update.update,2
Value.cache,16
Value.checkPrecision,2
Value.compareTo,24
Value.compareTypeSave,34
Value.convertTo,28
ValueBoolean.get,2
ValueBoolean.getBoolean,2
ValueBoolean.negate,2
ValueDecimal.<init>,2
ValueDecimal.equals,2
ValueExpression.getValue,2
ValueExpression.isEverything,4
ValueHashMap.put,2
ValueInt.compareSecure,28
ValueInt.get,2
ValueInt.getObject,2
ValueInt.getType,2
ValueShort.compareSecure,18
ValueShort.equals,2
ValueShort.get,2
ValueShort.getObject,2
ValueShort.getType,2
ValueStringBase.getString,2
ValueTimestamp.getString,2
ZoneInfo.getTransitionIndex,4
