method,package1,package2,dram1,dram2,energy
AbstractCalendar.getCalendarDate,0.0,0.04186986773977835,0.0,0.006550533353451024,0.04842040109322937
AbstractCalendar.setTimeOfDay,0.02672403925645327,0.2608032928626477,0.003489346320422933,0.04172175384924949,0.33273843228877337
AbstractSet.<init>,0.060403164245184174,0.0,0.010382336807924305,0.0,0.07078550105310848
AbstractStringBuilder.<init>,0.020488850727999285,0.5950992783868287,0.0026183765603126604,0.09358788459256291,0.7117943902677036
AbstractStringBuilder.append,0.14714416345813597,0.1422470187869643,0.014087635653776347,0.021737160594477105,0.32521597849335376
AbstractStringBuilder.ensureCapacityInternal,0.17148351018893201,0.07141324648773703,0.020612434184627677,0.011349374857310864,0.27485856571860756
AbstractStringBuilder.newCapacity,0.02710574040684263,0.0,0.0027697782448704565,0.0,0.029875518651713086
Arrays.copyOf,0.12752693077499533,0.0,0.011339936672776746,0.0,0.13886686744777207
Arrays.copyOfRange,0.04261863914111202,0.35993821926264785,0.0038428000255811365,0.057759545080552914,0.4641592035098939
AtomicLong.compareAndSet,0.39130521626212883,0.0,0.04636644999691161,0.0,0.4376716662590404
BaseCalendar$Date.<init>,0.0,0.24618196680349622,0.0,0.038958811524305956,0.28514077832780216
BaseCalendar.getCalendarDateFromFixedDate,0.0,0.2050236915183362,0.0,0.03187995750233624,0.23690364902067243
BaseCalendar.getFixedDate,0.02850652968933933,0.0,0.0031660168204733683,0.0,0.0316725465098127
BaseCalendar.getGregorianYearFromFixedDate,0.0,0.11547155241670724,0.0,0.0184118874379712,0.13388343985467843
BaseIndex.compareKeys,0.41058597582826845,0.0,0.03899525303940964,0.0,0.4495812288676781
BaseIndex.compareRows,2.747940702708882,0.13014190001095277,0.3171219310474079,0.02011775402837559,3.2153222877956185
BaseIndex.compareValues,0.6719114577388093,0.131841523587123,0.07366010637520055,0.021348948661028093,0.898762036362161
BaseIndex.initBaseIndex,0.02864586666498023,0.0,0.0035680000005716772,0.0,0.032213866665551906
BigDecimal.<init>,0.19661595199721907,0.0,0.027077298691766182,0.0,0.22369325068898524
BigDecimal.compareTo,0.0,0.06060647658677457,0.0,0.009680015414559108,0.07028649200133368
BigDecimal.longMultiplyPowerTen,0.04713116535611442,0.0,0.005208665182724579,0.0,0.052339830538839
BigDecimal.movePointLeft,0.019315300300871245,0.0,0.0029997433154887285,0.0,0.022315043616359973
BigDecimal.movePointRight,0.03811749854070798,0.0,0.005910529269028098,0.0,0.044028027809736074
BigDecimal.valueOf,0.05080881132602705,0.0,0.005883004699917717,0.0,0.056691816025944766
BigInteger.<init>,0.051078103916467284,0.0,0.004420436402203025,0.0,0.05549854031867031
BigInteger.add,0.0,0.0,0.0,0.0,0.0
BigInteger.getInt,0.04533711401085976,0.0,0.00563298887600034,0.0,0.0509701028868601
BigInteger.hashCode,0.0,0.0,0.0,0.0,0.0
BigInteger.multiplyByInt,0.05888766346365362,0.0,0.006571954421859611,0.0,0.06545961788551323
BigInteger.smallToString,0.11983245056719832,0.0,0.015870093940616163,0.0,0.1357025445078145
BigInteger.toString,0.030782181991097408,0.0,0.004757231612971338,0.0,0.035539413604068745
BigInteger.valueOf,0.0,0.0,0.0,0.0,0.0
Boolean.booleanValue,0.04195973333359385,0.0,0.005803999999867908,0.0,0.04776373333346176
Boolean.equals,0.13057749931759488,0.0,0.013531052198273823,0.0,0.1441085515158687
CacheObject.<init>,0.12050137592518922,0.0,0.01424194299960011,0.0,0.13474331892478933
CalendarDate.setHours,0.0,0.1623897931517784,0.0,0.026149244492452428,0.18853903764423083
CalendarDate.setMinutes,0.0,0.04998308971025731,0.0,0.007828432171886777,0.05781152188214409
CalendarDate.setNormalized,0.0,0.06202927932190697,0.0,0.009831811270273893,0.07186109059218086
CalendarSystem.<clinit>,0.07269688396804523,0.0,0.006679616183966793,0.0,0.07937650015201203
CalendarUtils.isGregorianLeapYear,0.0,0.07300904607406145,0.0,0.011791319569041612,0.08480036564310306
CharacterDataLatin1.toUpperCase,0.02853827057232392,0.0,0.003131741297451804,0.0,0.03167001186977572
ClassLoader.defineClass1,0.15544116967365373,0.0,0.01405538701797409,0.0,0.16949655669162783
ClassLoader.findBootstrapClass,0.06996138769195329,0.0,0.007037056555040055,0.0,0.07699844424699334
Column.convert,0.17966106815325494,0.0,0.016495914926102855,0.0,0.1961569830793578
Column.getColumnId,0.33875201435141555,0.0,0.03610840329616366,0.0,0.3748604176475792
Column.validateConvertUpdateSequence,0.145384160698247,0.0,0.019743577600178974,0.0,0.16512773829842597
Command.executeQueryLocal,0.0,0.05961795933440753,0.0,0.008092755500683797,0.06771071483509132
Command.executeUpdate,0.2759604022967717,0.24732880945626506,0.028655969659988862,0.03416836917930995,0.5861135505923356
Command.start,0.09010475338862187,0.0,0.011512215292088731,0.0,0.1016169686807106
CommandContainer.query,0.0,0.0,0.0,0.0,0.0
CommandContainer.recompileIfRequired,0.0,0.0,0.0,0.0,0.0
CompareMode.compareString,0.0,0.04386038745032241,0.0,0.004444802662188726,0.04830519011251114
Comparison.compareNotNull,0.027987766076516974,0.0,0.0030245713391324398,0.0,0.031012337415649415
Comparison.getValue,0.7696516425925063,0.06554730591430634,0.08379271712232401,0.012108337203444388,0.9311000028325811
Comparison.isEverything,0.10461741750557649,0.0,0.006657413365650379,0.0,0.11127483087122686
ConditionAndOr.createIndexConditions,0.049733208507598256,0.0,0.006440878248503654,0.0,0.05617408675610191
ConditionAndOr.getValue,0.0,0.5331979931535367,0.0,0.08591075025606257,0.6191087434095992
ConditionAndOr.isEverything,0.23137925839840848,0.0,0.02542192205146731,0.0,0.25680118044987577
ConditionExists.getValue,0.2141050487463181,0.0,0.029559362810591773,0.0,0.24366441155690988
ConditionNot.getValue,0.11997581080564426,0.0,0.015514420103390773,0.0,0.13549023090903503
ConnectionInfo.readProperties,0.03780444476295365,0.0,0.002822797906093812,0.0,0.040627242669047464
Customer.clear,0.0,0.027299744841134482,0.0,0.003900946582119617,0.0312006914232541
Database.getModificationDataId,0.06690481366092473,0.0,0.011589366959076431,0.0,0.07849418062000116
Date.clone,0.03761802247052297,0.0,0.005329601663855327,0.0,0.0429476241343783
Date.getHours,0.07763652018841108,0.0,0.004640035439751167,0.0,0.08227655562816225
Date.getMinutes,0.031278524220656835,0.0,0.0028643369684431762,0.0,0.03414286118910001
Date.getSeconds,0.1097464438391069,0.0,0.009193691717741172,0.0,0.11894013555684807
Date.getTimeImpl,0.011049773517842478,0.0658005642015633,0.0008971012732353771,0.009290634738530413,0.08703807373117156
Date.normalize,0.047718263527699104,0.051245225728722484,0.004472687100208737,0.007900954069823609,0.11133713042645393
DbObjectBase.getSQL,0.03360039882657654,0.0,0.0032657334968974913,0.0,0.03686613232347403
Delete.update,0.038948125002207235,0.0,0.0053749999998823714,0.0,0.044323125002089604
DriverManager.<clinit>,0.05477803911520365,0.0,0.006299695540132178,0.0,0.06107773465533583
ErrorCode.getState,0.0,0.0,0.0,0.0,0.0
Expression.getBooleanValue,0.0,0.42917207678035973,0.0,0.06900744341186936,0.4981795201922291
ExpressionColumn.getTableFilter,0.03055479402290518,0.0,0.002429353091834218,0.0,0.0329841471147394
ExpressionColumn.getValue,0.4035001655131738,0.0,0.048437286393289654,0.0,0.45193745190646345
ExpressionColumn.isEverything,0.1390289637180209,0.0,0.017622557156594696,0.0,0.1566515208746156
FileOutputStream.write,0.0,0.0,0.0,0.0,0.0
FileOutputStream.writeBytes,0.04040116479413406,0.0,0.004466337942161453,0.0,0.044867502736295514
Formatter.parse,0.0,0.0,0.0,0.0,0.0
Function.getSimpleValue,0.038665687599177975,0.0,0.005412025602599053,0.0,0.04407771320177703
HashMap.getNode,0.08288651569859043,0.0,0.010484704086687668,0.0,0.0933712197852781
HashMap.hash,0.08443359410242882,0.0,0.009877434698883017,0.0,0.09431102880131183
HashMap.newNode,0.0,0.0,0.0,0.0,0.0
HashMap.putVal,0.0,0.0,0.0,0.0,0.0
HashMap.removeNode,0.10576072068704577,0.0,0.01422620860603825,0.0,0.11998692929308402
HashSet.<init>,0.04300147368895989,0.0,0.00290195388524154,0.0,0.045903427574201426
Hashtable.get,0.0,0.0,0.0,0.0,0.0
IdentityHashMap.get,0.0058374000000185325,0.0,0.0007706999999936671,0.0,0.0066081000000122
IndexCursor.find,0.5861921075317069,0.04496244443968559,0.07393881701628055,0.0067733333336137645,0.7118667023212868
IndexCursor.getSearchRow,0.010403531221943523,0.0573652151158594,0.0010775707108930837,0.009180028410387809,0.07802634545908382
IndexCursor.next,0.15151400501551834,0.0,0.017749202545011514,0.0,0.16926320756052987
Inflater.inflateBytes,0.31093769151952183,0.0,0.035331919325893274,0.0,0.3462696108454151
Insert.insertRows,0.39277909636148367,0.0,0.0454893950341244,0.0,0.4382684913956081
Integer.getChars,0.3816194617598838,0.8654917593529077,0.03654232212924215,0.13827404914257602,1.4219275923846098
Integer.toString,1.068074712443739,2.2997364520289327,0.09941948126593564,0.366346261242838,3.8335769069814454
Integer.valueOf,0.026653712803742183,0.0,0.0036312776986784172,0.0,0.0302849905024206
JarFile.initializeVerifier,0.025969941524073,0.0,0.003441234991105632,0.0,0.029411176515178633
JdbcConnection.checkClosed,0.07831982301235854,0.5579382509780098,0.005058559203722281,0.08748229316681724,0.7287989263609078
JdbcConnection.getSession,0.024415730134600504,0.0,0.0013477629854464913,0.0,0.025763493120046995
JdbcPreparedStatement.executeUpdateInternal,0.08931160220347548,0.0,0.011704345954422391,0.0,0.10101594815789787
JdbcPreparedStatement.setParameter,0.050020596457907615,0.0,0.006654479501051195,0.0,0.05667507595895881
JdbcResultSet.checkClosed,0.0,0.051245225728722484,0.0,0.007900954069823609,0.05914617979854609
JdbcResultSet.get,0.03270305654852181,0.0,0.002825313099374202,0.0,0.03552836964789601
JdbcResultSet.getString,0.12203285900065763,0.11463566378444917,0.011663055171120639,0.018541669703251683,0.2668732476594791
JdbcResultSet.nextRow,0.0,0.16597128861441704,0.0,0.02713233515473082,0.19310362376914786
JdbcSQLException.<init>,0.0,0.0,0.0,0.0,0.0
JdbcStatement.<init>,0.019072299054474183,0.0,0.0022120125015178804,0.0,0.021284311555992065
JdbcStatement.checkClosed,0.06680228427945843,0.06454895419512499,0.005802215607504157,0.010540186427583021,0.1476936405096706
JdbcStatement.executeQuery,0.08545183960291579,0.0,0.009129432946253391,0.0,0.09458127254916918
LocalResult.addRow,0.0,0.060379592605414714,0.0,0.00984584906934384,0.07022544167475855
LocalResult.done,0.029823375212322093,0.0,0.002623572911242871,0.0,0.03244694812356497
LocalResult.getList,0.060451252651872074,0.0,0.00756037546333537,0.0,0.06801162811520745
LocalResult.next,0.37918990097216043,0.11864771803204174,0.041557441860260565,0.018871177785119715,0.5582662386495825
Long.getChars,0.05673004128594985,0.0,0.006539196776628667,0.0,0.06326923806257852
Long.toString,0.030043111072580925,0.0,0.003266669753011133,0.0,0.03330978082559206
MathUtils.compare,0.24063498002937833,0.0,0.027401052565060643,0.0,0.268036032594439
MessageFormat.applyPattern,0.0,0.0,0.0,0.0,0.0
MessageFormat.format,0.0,0.0,0.0,0.0,0.0
MultiVersionCursor.get,0.0,0.0,0.0,0.0,0.0
MultiVersionCursor.getSearchRow,0.31248976375375703,0.07685425610222331,0.03684884816971366,0.013354768999330484,0.4395476370250245
MultiVersionCursor.loadNext,0.41044342099023257,0.0,0.05278931032101544,0.0,0.463232731311248
MultiVersionCursor.next,0.9696629089848643,0.0813123671357319,0.11819623269517258,0.011138132569667577,1.1803096413854364
MultiVersionCursor.step,0.2940741755323196,0.0,0.032361948629911826,0.0,0.32643612416223144
MultiVersionIndex.add,0.17943592270053982,0.0,0.022221946427623304,0.0,0.20165786912816314
MultiVersionIndex.compareRows,0.15490652953427242,0.0,0.016248211569458913,0.0,0.17115474110373133
MultiVersionIndex.find,0.13854870404396316,0.0,0.010665804518789635,0.0,0.14921450856275278
MultiVersionIndex.removeIfExists,0.06789411491224423,0.0,0.010443154131659593,0.0,0.07833726904390383
MutableBigInteger.divideMagnitude,0.0,0.0,0.0,0.0,0.0
OERandom.randomAString24,0.02421350810254953,0.0,0.0032278739511168073,0.0,0.027441382053666336
OERandom.randomDecimalString,0.09357628368182361,0.0,0.013705051738933842,0.0,0.10728133542075745
OERandom.randomInt,0.03845485911152108,0.01892426702081507,0.004384330457924681,0.0025787868370024595,0.06434224342726329
Object.<init>,0.1251219770937395,0.0,0.013968258319499851,0.0,0.13909023541323937
Object.hashCode,0.0513701019397733,0.0,0.0059675367130583076,0.0,0.05733763865283161
Object.wait,0.0,0.0,0.0,0.0,0.0
ObjectArray$ObjectArrayIterator.<init>,0.10899677788412782,0.0779579601551911,0.010508066486518664,0.009315451962827622,0.2067782564886652
ObjectArray$ObjectArrayIterator.hasNext,0.052679912048962114,0.0,0.009104489493322366,0.0,0.061784401542284484
ObjectArray$ObjectArrayIterator.next,0.05742533956770447,0.0,0.009764114458551128,0.0,0.0671894540262556
ObjectArray.createArray,0.09126348051676203,0.050924341815069635,0.010891561851898608,0.007967758567932762,0.16104714275166304
ObjectArray.get,0.17664106248811923,0.03664784748220523,0.01692216928872591,0.0012668019357918105,0.2314778811948422
ObjectArray.newInstance,0.021360662641089927,0.0,0.001396143049212673,0.0,0.0227568056903026
ObjectArray.sort,0.31508636558172026,0.0,0.035492537418079964,0.0,0.3505789029998002
ObjectArray.swap,0.16267373091134749,0.0,0.01898918950382916,0.0,0.18166292041517665
ObjectUtils.arrayCopy,0.23948819951963454,0.0,0.030874212657990133,0.0,0.2703624121776247
Package.<clinit>,0.0,0.0,0.0,0.0,0.0
Parameter.getValue,0.0,0.07938003893778249,0.0,0.008407708053903932,0.08778774699168643
Parser.parseInsert,0.042571589573762766,0.0,0.005193563031456221,0.0,0.04776515260521899
Parser.read,0.07050118112318593,0.0,0.006550158354559149,0.0,0.07705133947774508
Parser.readIf,0.0,0.0,0.0,0.0,0.0
Prepared.checkParameters,0.05436052359585912,0.0,0.006883455222998501,0.0,0.06124397881885762
Prepared.setCurrentRowNumber,0.05010724999859424,0.14724094400042984,0.005756875000618796,0.028405231960150247,0.23151030095979314
Prepared.setSession,0.09194676050004366,0.0,0.010484309780450543,0.0,0.10243107028049421
Query.closeLastResult,0.07459352634900597,0.0,0.010481279540089278,0.0,0.08507480588909525
Query.query,0.05850281038767939,0.0,0.004994550672058031,0.0,0.06349736105973743
Random.next,0.2935459724491123,0.0,0.039434570461742674,0.0,0.332980542910855
Random.nextDouble,0.03572652032690806,0.0,0.004103688747564425,0.0,0.03983020907447249
Record.<init>,0.07332726119032017,0.0,0.011101130491943074,0.0,0.08442839168226324
Record.getSessionId,0.02134315238536526,0.0,0.002421382228224276,0.0,0.023764534613589537
Resource.getBytes,0.03386627034494514,0.0,0.003996139170519641,0.0,0.03786240951546478
Row.getValue,1.8348240015750252,0.2818015941881533,0.20463846042799466,0.04241645415949104,2.363680510350664
Row.isEmpty,0.07844622146328939,0.11557222179773911,0.009070065853316656,0.01723972887948154,0.22032823799382673
Row.setValue,0.13787412677828725,0.0,0.016188958652250632,0.0,0.15406308543053787
SQLException.<init>,0.0,0.0,0.0,0.0,0.0
ScanCursor.next,0.05016965274744625,0.0,0.007058226694665343,0.0,0.05722787944211159
ScanIndex.getNextRow,0.5320220728399563,0.38613982197910357,0.06680156538012186,0.062236341477594374,1.047199801676776
Select.isEverything,0.3951216563848945,0.0,0.04496585016638163,0.0,0.44008750655127615
Select.queryFlat,0.33136810534831684,0.0826088216878288,0.04218279529636811,0.013076635519993546,0.4692363578525073
Select.queryWithoutCache,0.11876831256556092,0.0,0.016136450621143054,0.0,0.13490476318670397
Session.commit,0.035380916269867765,0.0,0.004677471102554139,0.0,0.04005838737242191
Session.isClosed,0.0,0.07561171361765576,0.0,0.012337683142282013,0.08794939675993776
Session.isReconnectNeeded,0.0,0.5368546163268253,0.0,0.08660382117970589,0.6234584375065312
Set.isTransactional,0.0,0.0,0.0,0.0,0.0
SignatureFileVerifier.<clinit>,0.025969941524073,0.0,0.003441234991105632,0.0,0.029411176515178633
SimpleInsert.customerTable,0.07456700865912322,0.0,0.010496814324821187,0.0,0.08506382298394441
SimpleInsert.orderTable,0.1375923540313877,0.0,0.015494333457548363,0.0,0.15308668748893606
SimpleInsert.stockTable,0.14823957104526556,0.0,0.018258779476317107,0.0,0.16649835052158266
SoftReference.get,0.059393240499662873,0.0,0.008173540381568622,0.0,0.0675667808812315
Standard.paymentById,0.0,0.0,0.0,0.0,0.0
String.<init>,0.05088012690807968,0.1095560109231794,0.004730281576001858,0.017579303898208783,0.18274572330546973
String.charAt,0.11352864264607898,0.0,0.01019105896991555,0.0,0.12371970161599453
String.equals,0.0,0.0,0.0,0.0,0.0
String.getChars,0.054077400284177415,0.19520078530163693,0.00351304529917133,0.030804758803785325,0.283595989688771
String.hashCode,0.0,0.0,0.0,0.0,0.0
String.length,0.1306225157615876,0.06653610399773441,0.012446677454397212,0.010564625814974306,0.2201699230286935
String.substring,0.0,0.06698995395944772,0.0,0.010536635668043522,0.07752658962749125
String.toCharArray,0.05475389697254446,0.0,0.0074308297673844805,0.0,0.06218472673992894
String.toUpperCase,0.0,0.0,0.0,0.0,0.0
StringBuffer.append,0.09593916785981253,0.3560655681837687,0.010011986363937906,0.05437544094907656,0.5163921633565958
StringBuffer.length,0.09564733864324389,0.0,0.011791625370393306,0.0,0.1074389640136372
StringBuffer.setLength,0.07477618110303194,0.0,0.010918960130276835,0.0,0.08569514123330878
StringBuffer.toString,0.08925272432521891,0.0,0.011328354038667074,0.0,0.10058107836388598
StringBuilder.append,0.10035062024033736,0.0,0.009706883007023395,0.0,0.11005750324736076
StringBuilder.setLength,0.02607564958588513,0.0,0.00236572920307397,0.0,0.028441378788959103
StringBuilder.toString,0.09518111111295488,0.057442272587393435,0.010191666666893676,0.009214561443511366,0.17202961181075335
StringCache.get,0.08297445774319037,0.0,0.011121230320767372,0.0,0.09409568806395774
Submitter.runPayment,0.0,0.0,0.0,0.0,0.0
TPCC$3.run,0.0,0.0,0.0,0.0,0.0
TPCC.calculateSumDB,0.1904013990700161,0.0,0.018181699077470345,0.0,0.20858309814748643
TPCC.preIteration,0.01545950684010777,0.0,0.0019923946762690934,0.0,0.017451901516376864
TPCCSubmitter.runTransaction,0.06483966666564811,0.0,0.004119999998996112,0.0,0.06895966666464422
TPCCSubmitter.runTransactions,0.0,0.046776854888338174,0.0,0.007856006920821024,0.054632861809159196
Table.compareTypeSave,0.15342896145312093,0.0,0.018414729652102148,0.0,0.17184369110522307
Table.fireConstraints,0.01676433333219999,0.0,0.0014674999999139493,0.0,0.01823183333211394
Table.getTemplateRow,0.29398644903582566,0.0,0.028633464606266028,0.0,0.3226199136420917
Table.validateConvertUpdateSequence,0.10163281880345787,0.0,0.014644428973962492,0.0,0.11627724777742036
TableData$1.compare,0.2770440250146937,0.0,0.03366706604423192,0.0,0.31071109105892564
TableData.addIndex,0.3486036698259175,0.0,0.040079947961365214,0.0,0.3886836177872827
TableData.addRow,0.05312381109547161,0.15027674497563276,0.006887503695181525,0.021866980467458913,0.23215504023374478
TableData.addRowsToIndex,0.1401809091267136,0.0,0.014765080134148565,0.0,0.15494598926086217
TableData.checkRowCount,0.06038324714290852,0.0,0.008986329596818927,0.0,0.06936957673972745
TableData.doLock,0.042840505489363176,0.0,0.004652908024551219,0.0,0.047493413513914395
TableFilter.getSelect,0.03779121295177785,0.0,0.003810086430509696,0.0,0.04160129938228754
TableFilter.getValue,0.09398666701916905,0.027457942389991604,0.010332298086103002,0.0036582753981268,0.13543518289339046
TableFilter.isOk,0.0,0.0651615527650432,0.0,0.010521313893239405,0.07568286665828261
TableFilter.next,0.18295549894063326,0.24185982406308235,0.019727099114787372,0.040295940895312625,0.4848383630138156
TableFilter.reset,0.0,0.06554730591430634,0.0,0.012108337203444388,0.07765564311775072
Throwable.fillInStackTrace,0.0,0.1463092971791397,0.0,0.022637268566493216,0.16894656574563294
TimeZone.getDefaultRef,0.02646109622699825,0.0,0.0023636178394396846,0.0,0.028824714066437933
Timestamp.toString,0.0818664002193699,0.10615281441070418,0.006803408657868211,0.01705380884144289,0.2118764321293852
Trace.isEnabled,0.02524852534151195,0.14263876604878828,0.0022461159559414847,0.02283998830146076,0.19297339564770247
TraceObject.debugCodeCall,0.026967509216958292,0.12197351182216376,0.003473877335878118,0.02052332430141528,0.17293822267641545
TraceSystem.getTrace,0.03354253231502107,0.0,0.004222585406122124,0.0,0.037765117721143195
TraceSystem.isEnabled,0.029202614504430912,0.0,0.002842459840806728,0.0,0.03204507434523764
TreeCursor.<init>,0.010913975308304309,0.0,0.0008651851850668153,0.0,0.011779160493371124
TreeCursor.get,0.066020585192128,0.0,0.0057544978994605095,0.0,0.0717750830915885
TreeCursor.getSearchRow,0.03824498773638384,0.0,0.0035162799820691914,0.0,0.04176126771845303
TreeCursor.next,0.08756206675423384,0.0,0.00885339404459142,0.0,0.09641546079882525
TreeIndex.add,0.3164910705521894,0.0,0.04026471818794236,0.0,0.35675578874013175
TreeIndex.balance,0.6092553472484016,0.0,0.061853377034141926,0.0,0.6711087242825435
TreeIndex.child,0.14136881503312237,0.0,0.017409837444035414,0.0,0.15877865247715778
TreeIndex.find,0.05757232773186122,0.0,0.005725572994299216,0.0,0.06329790072616043
TreeIndex.findFirstNode,0.336211382921824,0.0,0.04578775011044019,0.0,0.3819991330322642
TreeIndex.next,0.37703971142245557,0.11402693808938155,0.03988816893806793,0.01681149805490015,0.5477663165048051
TreeIndex.replace,0.08517047752703535,0.0,0.008812235133861588,0.0,0.09398271266089694
TreeIndex.set,0.16422731915470717,0.055784570628122594,0.018218626109007555,0.007758581235864097,0.2459890971277014
TreeNode.isFromLeft,0.013698631296158604,0.0,0.0011202797683919974,0.0,0.014818911064550602
UndoLog.getLast,0.11504447374217017,0.0,0.016838532557508418,0.0,0.13188300629967858
UndoLogRecord.commit,0.0588931798489353,0.0,0.008668911892402934,0.0,0.06756209174133823
Update.update,0.08764633333097056,0.0,0.01148999999956383,0.0,0.0991363333305344
Value.cache,0.15992194637478324,0.0,0.022247227300930733,0.0,0.18216917367571397
Value.checkPrecision,0.09297684256068715,0.0,0.012298668912679198,0.0,0.10527551147336635
Value.compareTo,0.033788813965877365,0.0,0.0032719781335167853,0.0,0.03706079209939415
Value.compareTypeSave,0.4030938594478542,0.0,0.04985013331930438,0.0,0.4529439927671586
Value.convertTo,0.18521054598964892,0.0,0.022071809832993082,0.0,0.207282355822642
ValueBoolean.get,0.04897892805619369,0.0,0.00734738718119828,0.0,0.05632631523739197
ValueDecimal.checkPrecision,0.028112856918039046,0.0,0.002547791383267787,0.0,0.030660648301306832
ValueDecimal.getString,0.016061671299868616,0.13556605134263833,0.0019232351098895145,0.02194073490448299,0.17549169265687944
ValueInt.compareSecure,0.23298229984281327,0.2286029828917087,0.028507412728392606,0.034470497174799136,0.5245631926377137
ValueInt.get,0.05298808123886174,0.0,0.006463958571910766,0.0,0.05945203981077251
ValueShort.<init>,0.0,0.0,0.0,0.0,0.0
ValueShort.compareSecure,0.468789628183678,0.0,0.058150478582396914,0.0,0.5269401067660748
ValueShort.get,0.06752273861437845,0.0,0.009665855926185539,0.0,0.07718859454056398
ValueShort.getType,0.05157143787444317,0.0,0.007019548420246507,0.0,0.05859098629468967
ValueString.get,0.026653712803742183,0.0,0.0036312776986784172,0.0,0.0302849905024206
ValueStringBase.getString,0.0,0.07375027777774379,0.0,0.011893796116295834,0.08564407389403962
ValueStringFixed.equals,0.02998987473726282,0.0,0.003844554524206602,0.0,0.03383442926146942
ValueTimestamp.getNoCopy,0.019525119522589174,0.0,0.001902107107763463,0.0,0.021427226630352635
ZipFile.getEntry,0.06786991794296011,0.0,0.007296801208780275,0.0,0.07516671915174039
ZoneInfo.getOffsets,0.0,0.12878232560099429,0.0,0.021109404045248595,0.14989172964624287
