method,package1,package2,dram1,dram2,energy
AbstractCalendar,0.12430770167828478,0.0,0.02083633510847982,0.0,0.1451440367867646
AbstractStringBuilder,0.5127627163267464,0.0,0.07238063782108362,0.0,0.58514335414783
Arrays,0.28073835482383497,0.0,0.037535951970868175,0.0,0.31827430679470314
AtomicLong,0.2358102720819795,0.0,0.03542950137376486,0.0,0.27123977345574435
BaseCalendar,0.1373656780321385,0.0,0.0234948484790095,0.0,0.16086052651114802
BaseCalendar$Date,0.1564393300157135,0.0,0.021439414906497086,0.0,0.1778787449222106
BaseIndex,2.480301314837167,0.12311833333418083,0.2896365174632789,0.015562499999759893,2.9086186656343864
Benchmark,0.04108217658684618,0.0,0.004019431329470132,0.0,0.045101607916316316
BigDecimal,0.8615773091891051,0.0,0.12296918382129038,0.0,0.9845464930103955
BigInteger,0.19423093391204588,0.0,0.023214971713770956,0.0,0.21744590562581684
BitField,0.05020022019100004,0.0,0.003238864223733145,0.0,0.05343908441473318
BufferedInputStream,0.10482339287011243,0.0,0.009239910362486373,0.0,0.1140633032325988
CacheObject,0.05193551515130269,0.0,0.005520000000780618,0.0,0.0574555151520833
CalendarDate,0.18848645473797065,0.0,0.023814922944821775,0.0,0.21230137768279242
Chaperone,0.056650458999474025,0.0,0.0063787030959642724,0.0,0.0630291620954383
ClassLoader,0.10159877228076424,0.0,0.010165782762873268,0.0,0.1117645550436375
ClassPool,0.02088203849402262,0.0,0.0019499183048264704,0.0,0.02283195679884909
Column,0.2364015880593073,0.0,0.03316289361385305,0.0,0.2695644816731604
Command,0.41070189582990785,0.13640878826111352,0.049268567754436075,0.01683285136294279,0.6132121032084002
CommandContainer,0.03743483333528275,0.0,0.005387500000021342,0.0,0.04282233333530409
CompareMode,0.0,0.0,0.0,0.0,0.0
Comparison,0.37168586185005564,0.0,0.0452362012105286,0.0,0.4169220630605842
ConditionAndOr,0.11300293972097275,0.0,0.015402456903948317,0.0,0.12840539662492106
ConditionNot,0.023046177782483086,0.0,0.004561247432994888,0.0,0.027607425215477974
ConfigFileTokenManager,0.009517831851639359,0.0,0.0007964932388340339,0.0,0.010314325090473394
ConstPool,0.023632675335642332,0.0,0.002142562212609521,0.0,0.025775237548251853
Database,0.30066331534054747,0.0,0.033580190836164245,0.0,0.3342435061767117
Date,0.025789457441122692,0.0,0.003683983467820486,0.0,0.029473440908943178
Delete,0.012653869689065001,0.0,0.0013709663777104481,0.0,0.014024836066775449
Double,0.0,0.0,0.0,0.0,0.0
Engine,0.049400087723068364,0.0,0.00453237876341961,0.0,0.05393246648648797
ExpressionColumn,0.4149045931906754,0.0,0.061238172038527355,0.0,0.47614276522920274
ExpressionVisitor,0.10608980206799784,0.0,0.013856664416620309,0.0,0.11994646648461815
FileOutputStream,0.12478599011407272,0.0,0.011299649685524589,0.0,0.1360856397995973
FloatingDecimal,0.0,0.0,0.0,0.0,0.0
HashMap,0.4764005051318075,0.0,0.06264053723768416,0.0,0.5390410423694917
HashSet,0.06809640726449517,0.0,0.006255722361300836,0.0,0.07435212962579602
IndexCursor,0.14861849436915658,0.0,0.01903085412334795,0.0,0.16764934849250454
Inflater,0.33755813144009467,0.0,0.028980500782420683,0.0,0.36653863222251537
Insert,0.5336527799655233,0.0,0.07138403064069326,0.0,0.6050368106062165
Integer,1.9936463654394518,0.0,0.23873445563604115,0.0,2.232380821075493
JarFile,0.04108217658684618,0.0,0.004019431329470132,0.0,0.045101607916316316
JdbcConnection,0.4357039829837252,0.0,0.062493166748086644,0.0,0.49819714973181184
JdbcPreparedStatement,0.12516406667166471,0.0,0.013476944444442373,0.0,0.13864101111610708
JdbcResultSet,0.15518873827009913,0.0,0.02288391275799837,0.0,0.1780726510280975
JdbcStatement,0.33941084853718106,0.0,0.049674745546675274,0.0,0.38908559408385635
LinkedHashMap,0.05254455555782273,0.0,0.006731111110976026,0.0,0.05927566666879876
LocalResult,0.18329123069671788,0.0,0.02427842262845458,0.0,0.20756965332517247
Long,0.14759451859844025,0.0,0.015217740518665857,0.0,0.16281225911710612
Math,0.0,0.0,0.0,0.0,0.0
MathUtils,0.07475661255678652,0.0,0.0067812114921723555,0.0,0.08153782404895887
MultiVersionCursor,1.3157866063311936,0.5752751684790876,0.15468048880013052,0.08511771545301267,2.130859979063424
MultiVersionIndex,0.5387961853731733,0.03260757575679401,0.05757730321249615,0.004302272727727541,0.6332833370701909
MutableBigInteger,0.1857726684205087,0.0,0.01975135363642013,0.0,0.20552402205692885
OERandom,0.14023950722659667,0.0,0.02075397987438123,0.0,0.1609934871009779
Object,0.07542112049222363,0.0,0.007430101734588683,0.0,0.08285122222681232
ObjectArray,1.1166553322190356,0.0,0.13542030922858678,0.0,1.2520756414476224
ObjectArray$ObjectArrayIterator,0.01862831692124305,0.0,0.002113674864957234,0.0,0.020741991786200283
ObjectUtils,0.1620979943557135,0.0,0.017732694012181145,0.0,0.17983068836789465
Operation,0.0,0.0,0.0,0.0,0.0
Parameter,0.11323666938278619,0.0,0.013627173912156017,0.0,0.1268638432949422
Parser,0.03185317647077289,0.0,0.004423529411296305,0.0,0.036276705882069195
Pattern,0.012712672488840336,0.0,0.001510135999724995,0.0,0.01422280848856533
Prepared,0.18401626389246906,0.0,0.021288333333359333,0.0,0.2053045972258284
Query,0.10035091227292929,0.17994196236692805,0.011269625802562742,0.031781572581166984,0.3233440730235871
Random,0.31146106032792303,0.0,0.045987529330896414,0.0,0.3574485896588194
ReflectionFactory,0.024950723840677067,0.0,0.002887867484819721,0.0,0.02783859132549679
ResourceBundle$CacheKey,0.015204840868053406,0.0,0.0019981425844353487,0.0,0.017202983452488753
Row,1.789800006295443,0.012037444445821976,0.22530480889730875,0.0017083333334287293,2.0288505929720024
RowList,0.06478817564824911,0.0,0.006833219941164292,0.0,0.0716213955894134
ScanCursor,0.059596057964177176,0.0,0.008972199040810189,0.0,0.06856825700498737
ScanIndex,1.2528160742481014,0.0,0.16406746312748807,0.0,1.4168835373755895
Select,1.2720063526193803,0.09832218181426552,0.14967193432041356,0.011956363636382968,1.5319568323904422
Session,0.6936790510023707,0.0,0.10490515386915769,0.0,0.7985842048715284
SetTypes,0.01867814586948359,0.0,0.0022429315592883197,0.0,0.02092107742877191
SimpleInsert,0.3821870356803874,0.0,0.04901372007376989,0.0,0.4312007557541573
SoftReference,0.043524078431301835,0.0,0.0050917647062234716,0.0,0.04861584313752531
String,0.612524377533379,0.15491267647902374,0.07628337378456641,0.013064117646589534,0.8567845454435586
StringBuffer,0.9535553184343072,0.0,0.12388205446834406,0.0,1.0774373729026512
StringBuilder,0.06781204388340542,0.0,0.010419669264359045,0.0,0.07823171314776446
StringCache,0.28130444046991315,0.0,0.04094314564127809,0.0,0.32224758611119125
Submitter,0.0,0.11465449999377594,0.0,0.016410000000178115,0.13106449999395406
System,0.023632675335642332,0.0,0.002142562212609521,0.0,0.025775237548251853
TPCC,0.06350804188866349,0.0,0.00811204763010918,0.0,0.07162008951877268
Table,0.3383950398054963,0.0,0.03404675392805131,0.0,0.3724417937335476
TableData,0.3295265440845411,0.0,0.04445132473424073,0.0,0.3739778688187818
TableData$1,0.12327590768240348,0.0,0.016399292223862542,0.0,0.13967519990626603
TableFilter,0.4916727489136263,0.016357407407162503,0.06083496463403593,0.0024922222221869525,0.5713573431770116
Thread,1.6601107152814447,0.0,0.12476167755156176,0.0,1.7848723928330066
ThreadCoreMapInjector,0.033770393114953966,0.0,0.0034754103511967878,0.0,0.03724580346615075
Throwable,0.0,0.0,0.0,0.0,0.0
Timestamp,0.2781527804672691,0.0,0.04201803932462414,0.0,0.3201708197918932
Trace,0.09608085696066591,0.0,0.014528392114800275,0.0,0.11060924907546618
TraceObject,0.26810506576353244,0.0,0.04515998998193258,0.0,0.31326505574546504
TraceSystem,0.12709632601443582,0.0,0.01539780528844217,0.0,0.142494131302878
TreeCursor,0.08778077184839506,0.0,0.007147848889944712,0.0,0.09492862073833977
TreeIndex,1.0472621574993333,0.0904375227255514,0.11116453978076545,0.013834431818064662,1.2626986518237149
TreeNode,0.06482731350634591,0.0,0.007565513272311839,0.0,0.07239282677865774
URLClassPath,0.050878983748750266,0.0,0.003598843882233747,0.0,0.054477827630984015
UndoLog,0.03781133333056156,0.0,0.004474999999729334,0.0,0.042286333330290894
UndoLogRecord,0.050260679287820464,0.0,0.00865935835042055,0.0,0.05892003763824101
UnixFileSystem,0.055275760126218376,0.0,0.005940588345776454,0.0,0.06121634847199483
Value,1.2348738853959311,0.0,0.15794600764987055,0.0,1.3928198930458016
ValueDecimal,0.09146594927353917,0.0,0.008110869565680858,0.0,0.09957681883922002
ValueInt,0.3651686979407225,0.07191983333420163,0.04434864624614618,0.012324999999994665,0.49376217752106494
ValueShort,0.2688354329592581,0.0,0.03449681060003345,0.0,0.30333224355929156
ValueString,0.20803815384491686,0.0,0.019889423076864872,0.0,0.22792757692178173
ValueStringBase,0.06200386801199755,0.0,0.008268517943464055,0.0,0.0702723859554616
ValueStringFixed,0.036000666666950565,0.0,0.005382500000147653,0.0,0.041383166667098216
ValueTimestamp,0.04085286274351471,0.0,0.005103529411523292,0.0,0.045956392155038
Warehouse,0.0,0.0861409999973451,0.0,0.010970000000573538,0.09711099999791864
ZipFile,0.08602281410354308,0.0,0.007007108551421586,0.0,0.09302992265496467
ZoneInfo,0.17057763833292028,0.0,0.023455118469711773,0.0,0.19403275680263204
ZoneInfoFile,0.014439808062246788,0.0,0.0010973925898032694,0.0,0.015537200652050057
