method,package1,package2,dram1,dram2,energy
AnnotationParser,0.02833041666841988,0.0,0.0045666666665056255,0.0,0.032897083334925505
Chaperone,0.0,0.0,0.0,0.0,0.0
ChiPointer,0.040888031494817415,0.0,0.008008952369846896,0.0,0.04889698386466431
ChiVertex,14.134278227029094,0.10625908516639172,1.8435221337802448,0.013233101567030796,16.09729254754276
CtClassType,0.0,0.0,0.0,0.0,0.0
DataBlockManager,0.48492018303376494,3.1331762836205597,0.06937280933858864,0.6000613066611935,4.287530582654107
DecimalFormatSymbolsProviderImpl,0.0,0.0,0.0,0.0,0.0
DefaultMBeanServerInterceptor,0.05451975000323728,0.0,0.008249999999861757,0.0,0.06276975000309903
DefaultMXBeanMappingFactory,0.11505350816859466,0.0,0.01721963235318339,0.0,0.13227314052177805
DegreeData,1.9941702312989433,0.07286826984128122,0.3297836445446068,0.01386209523746705,2.4106842409222984
ExponentiallyDecayingSample,0.058638205556295966,0.0,0.008440416666922426,0.0,0.06707862222321839
FloatConverter,0.004612784801289358,0.0794210505212619,0.0006785908091786043,0.01945335575822902,0.1041657818899589
GraphChiEngine,1.515226462361212,0.06576891691177872,0.245207047532161,0.011205500000076819,1.8374079268052286
GraphChiEngine$2,0.2845330211240086,1.0961481269885047,0.04573973669054878,0.2595689519047612,1.6859898367078234
GraphChiEngine$3,0.12366509212263084,2.9280898415253542,0.023505136221813116,0.5408049626600508,3.616065032529849
ImmutableDescriptor,0.01932777778064418,0.0,0.0036599999997027517,0.0,0.02298777778034693
JRELocaleProviderAdapter,0.0,0.0,0.0,0.0,0.0
JmxMBeanServer,0.125,0.0,0.01641375000053813,0.0,0.14141375000053813
JmxReporter,0.09561150000081398,0.0,0.0107399999997142,0.0,0.10635150000052818
MBeanInfo,0.03569888888159767,0.0,0.006440000000616742,0.0,0.04213888888221441
ManagementFactoryHelper,0.027228472220789016,0.0,0.0039833333332555615,0.0,0.031211805554044576
MemberrefInfo,0.028211805555555556,0.0,0.004581250000228465,0.0,0.03279305555578402
MemoryShard,0.035710917603994204,0.0,0.005831885725703876,0.0,0.04154280332969808
NumberFormatProviderImpl,0.0,0.0,0.0,0.0,0.0
Pagerank,0.038518099591377794,0.04162893764366909,0.0061533687451069945,0.007608417476561109,0.09390882345671497
RandomAccessFile,0.18101996406954457,0.14638714988390322,0.023564203834254907,0.03450944772137894,0.3854807655090816
Resource,0.06610100000398234,0.0,0.009529999999358552,0.0,0.07563100000334089
Toplist$1,0.0,0.06786837690656218,0.0,0.013737642834294513,0.0816060197408567
URLConnection,0.05242924999765819,0.0,0.00822000000061962,0.0,0.06064924999827781
VertexAggregator,0.0,0.37074053112347494,0.0,0.09433242460395892,0.46507295572743385
VertexData,0.22132808636473955,0.18676541733852195,0.03371058143445259,0.038103983862527356,0.4799080690002414
VertexData$1,0.0,0.07658584445448177,0.0,0.014993106043536309,0.09157895049801808
