method,hits
CalendarDataUtility.retrieveFirstDayOfWeek,2
Chaperone.main,2
ChiPointer.<init>,8
ChiVertex.<init>,506
ChiVertex.getValue,6
ChiVertex.numOutEdges,2
ChiVertex.setDataPtr,6
ChiVertex.setValue,4
ConstPool.readOne,2
CtClassType.makeBehaviorCache,2
DataBlockManager.dereference,16
DataBlockManager.getRawBlock,30
DataBlockManager.writeValue,6
DateFormatProviderImpl.getInstance,4
DecimalFormatSymbolsProviderImpl.getInstance,2
DefaultMBeanServerInterceptor.registerMBean,2
DefaultMXBeanMappingFactory.<clinit>,2
DefaultMXBeanMappingFactory.makeTabularMapping,2
DegreeData.getDegree,286
DegreeData.load,2
ExponentiallyDecayingSample.<init>,2
ExtendedPlatformComponent.isUnlockCommercialFeaturesEnabled,2
FloatConverter.getValue,2
FloatConverter.setValue,6
GraphChiEngine$2.run,50
GraphChiEngine$3.run,86
GraphChiEngine.determineNextWindow,68
GraphChiEngine.initVertices,254
ImmutableDescriptor.<init>,2
ImmutableDescriptor.makeMap,2
JMX.isMXBeanInterface,2
JmxMBeanServer.<init>,2
JmxReporter.<init>,4
Launcher$AppClassLoader.loadClass,4
LocaleData$1.run,2
MBeanNotificationInfo.<init>,2
MBeanServerBuilder.newMBeanServerDelegate,2
ManagementFactory.createMemoryPool,2
MemberResolver.lookupMethod,2
MemoryShard.loadAdjChunk,2
NOPLoggerFactory.getLogger,4
NameAndTypeInfo.<init>,2
NotificationBroadcasterSupport.<init>,2
NumberFormatProviderImpl.getInstance,2
Pagerank.update,14
RandomAccessFile.read_,24
RandomAccessFile.writeBytes,32
SignatureParser.parseClassTypeSignature,2
SubstituteLoggerFactory.<init>,2
URLClassPath.getNextLoader,2
URLJarFile.getEntry,2
Utf8Info.<init>,2
VertexAggregator.foreach,2
VertexData.getVertexValuePtr,50
