method,package1,package2,dram1,dram2,energy
chappie,0.0,0.05740000000002544,0.0,0.013497777777956799,0.07089777777798223
com.sun.jmx.defaults,0.04730692307482688,0.0,0.006295384615301511,0.0,0.053602307690128394
com.sun.jmx.mbeanserver,0.2006580318474988,0.0,0.029435957200065584,0.0,0.2300939890475644
edu.cmu.graphchi,3.557193265359885,0.4883807986705671,0.7074091940433841,0.1076306284187213,4.860613886492557
edu.cmu.graphchi.apps,0.13279051684702575,0.028354908861065672,0.028762071929704834,0.0038035647323509903,0.19371106237014726
edu.cmu.graphchi.datablocks,6.635621895271155,2.8059154968010698,1.059063362553961,0.4679256947353111,10.968526449361496
edu.cmu.graphchi.engine,8.73384963161557,3.1708234563999933,1.4379204550640905,0.5158819135708312,13.858475456650487
edu.cmu.graphchi.engine.auxdata,2.4959898266719693,0.7192090824973985,0.4103174063861354,0.16023213254224633,3.7857484480977495
edu.cmu.graphchi.util,0.0,0.15498867414620293,0.0,0.030552416188415966,0.1855410903346189
edu.cmu.graphchi.vertexdata,0.0,0.513843786248585,0.0,0.11446046935067888,0.6283042555992638
javassist,0.04730692307482688,0.0,0.006295384615301511,0.0,0.053602307690128394
javassist.bytecode,0.22852383736080076,0.0,0.0344414835173386,0.0,0.26296532087813934
javax.management,0.13244902456311858,0.0,0.020501514169934322,0.0,0.1529505387330529
sun.management,0.060749384615209547,0.0,0.007899560439649836,0.0,0.06864894505485938
sun.misc,0.06864433333976194,0.016505024661207048,0.010949999999866122,0.004678104572783972,0.10077746257361908
sun.net.www.protocol.file,0.03916826666488002,0.0,0.004937999999674503,0.0,0.04410626666455452
sun.reflect.generics.parser,0.03359542856924236,0.0,0.004684285714444871,0.0,0.03827971428368723
sun.util.calendar,0.04809566666760171,0.0,0.006819999999909972,0.0,0.05491566666751169
sun.util.locale.provider,0.07515466666275945,0.0,0.010960000000826161,0.0,0.08611466666358561
sun.util.resources,0.14882399999381352,0.0,0.02047999999922467,0.0,0.1693039999930382
ucar.unidata.io,0.12734943468587218,0.13997367999488008,0.021990096147061575,0.03026507975386395,0.3195782905816778
