method,package1,package2,dram1,dram2,energy
AnnotationParser.parseSig|AnnotationParser.parseAnnotation2|AnnotationParser.parseAnnotations2,0.069198499993945,0.0,0.007188749999841094,0.0,0.0763872499937861
ChiPointer.<init>|VertexData.getVertexValuePtr|GraphChiEngine.initVertices,0.1218878205875786,0.1775737178677979,0.0198121792943679,0.04058179485034218,0.3598555126000866
ChiVertex.<init>|GraphChiEngine.initVertices|GraphChiEngine.run,7.247389029496421,1.8689402351595856,1.0192513826441267,0.40416683503207795,10.539747482332212
ChiVertex.getValue|Pagerank.update|GraphChiEngine$3.run,0.017657419287415436,0.0,0.002480600446501346,0.0,0.02013801973391678
ChiVertex.inEdge|Pagerank.update|GraphChiEngine$2.run,0.0917658585426261,0.6517577411365052,0.018289597005759006,0.16306317024538797,0.9248763669302783
ChiVertex.numInEdges|Pagerank.update|GraphChiEngine$3.run,0.0,0.0,0.0,0.0,0.0
ChiVertex.numOutEdges|Pagerank.update|GraphChiEngine$3.run,0.0023028188873338053,0.0076894948717972115,0.00031768566959640063,0.0011836025641254013,0.01149360199285282
ChiVertex.setDataPtr|GraphChiEngine.initVertices|GraphChiEngine.run,0.028051760203616695,0.10314526610845204,0.006164205724728767,0.011271042462890474,0.14863227449968797
ChiVertex.setValue|Pagerank.update|GraphChiEngine$3.run,0.0,0.0018166928104405731,0.0,0.00031490196081850784,0.002131594771259081
ClassFile.getSuperclass|CtClassType.getSuperclass|ThreadCoreMapInjector.getSuperClass,0.05289721212378054,0.0,0.007112727272077322,0.0,0.06000993939585786
DataBlockManager.dereference|ChiVertex.getValue|Pagerank.update,0.06144963497690895,0.028420072892605463,0.008262105270216603,0.007171900739198961,0.10530371387892998
DataBlockManager.dereference|VertexAggregator.foreach|Toplist.topListFloat,0.06162920693344319,0.0,0.012647089450765089,0.0,0.07427629638420828
DataBlockManager.getRawBlock|DataBlockManager.dereference|ChiVertex.getValue,0.03009472387725936,0.0,0.0049436802979429,0.0,0.03503840417520226
DataBlockManager.getRawBlock|DataBlockManager.writeValue|ChiVertex.setValue,0.012416656041441002,0.038222727402705055,0.001958603510779179,0.008103618122023433,0.06070160507694867
DataBlockManager.writeValue|ChiVertex.setValue|Pagerank.update,0.01831109411812428,0.02233526091066168,0.002807637857706845,0.005806470868750908,0.04926046375524371
DefaultMBeanServerInterceptor.registerMBean|JmxMBeanServer$2.run|AccessController.doPrivileged,0.05289721212378054,0.0,0.007112727272077322,0.0,0.06000993939585786
DefaultMXBeanMappingFactory.putMapping|DefaultMXBeanMappingFactory.putPermanentMapping|DefaultMXBeanMappingFactory.<clinit>,0.018841759258605262,0.0,0.0024513888891104013,0.0,0.021293148147715664
DegreeData.getDegree|GraphChiEngine.determineNextWindow|GraphChiEngine.run,1.8611371707798534,0.473887000003136,0.2917605862759384,0.08409250000052754,2.7108772570594555
DegreeData.getDegree|GraphChiEngine.initVertices|GraphChiEngine.run,1.003965391669912,0.9028353508546783,0.1653425967473641,0.19870557794311713,2.270848917215072
FloatConverter.setValue|FloatConverter.setValue|DataBlockManager.writeValue,0.0,0.004873221428559711,0.0,0.0009684642857142274,0.005841685714273938
GraphChiEngine$2.run|Executors$RunnableAdapter.call|FutureTask.run,0.0,0.04934926313148868,0.0,0.009829266083001617,0.059178529214490294
GraphChiEngine$3.run|Executors$RunnableAdapter.call|FutureTask.run,0.23660224641579533,0.3911861464073474,0.03813753309074117,0.08047338187010326,0.7463993077839871
GraphChiEngine.determineNextWindow|GraphChiEngine.run|Pagerank.main,0.5434205580763578,0.11763215912256515,0.07626859220389623,0.020919938271969685,0.758241247674789
GraphChiEngine.initVertices|GraphChiEngine.run|Pagerank.main,2.5244264856178633,0.8143107386621911,0.38177904941207375,0.17694233141571608,3.897458605107844
JRELocaleProviderAdapter.getLocaleResources|CalendarDataProviderImpl.getFirstDayOfWeek|CalendarDataUtility$CalendarWeekParameterGetter.getObject,0.026591000001644716,0.0,0.003729999999147063,0.0,0.030321000000791777
JmxMBeanServer.newMBeanServerDelegate|MBeanServerBuilder.newMBeanServerDelegate|MBeanServerFactory.newMBeanServer,0.03259636363663682,0.0,0.003941818181016116,0.0,0.03653818181765294
MBeanAnalyzer.initMaps|MBeanAnalyzer.<init>|MBeanAnalyzer.analyzer,0.06394949999230448,0.0,0.008234999999331194,0.0,0.07218449999163568
MBeanServerBuilder.newMBeanServerDelegate|MBeanServerFactory.newMBeanServer|MBeanServerFactory.createMBeanServer,0.07642351515647589,0.0,0.00866545454658935,0.0,0.08508896970306523
MemoryShard.loadAdjChunk|MemoryShard.access$000|MemoryShard$1.run,0.05213876109065316,0.0,0.007258268186974402,0.0,0.05939702927762756
NumberFormatProviderImpl.getInstance|NumberFormatProviderImpl.getIntegerInstance|NumberFormat.getInstance,0.05886488889033595,0.0,0.008103333332756948,0.0,0.0669682222230929
ObjectName.construct|ObjectName.<init>|Util.newObjectName,0.05511660605781908,0.0,0.006858181818670622,0.0,0.061974787876489704
Pagerank.update|GraphChiEngine$2.run|Executors$RunnableAdapter.call,0.0,0.009663999999853935,0.0,0.002740000001116034,0.012404000000969969
Pagerank.update|GraphChiEngine$3.run|Executors$RunnableAdapter.call,0.010600806882502263,0.05070144549713888,0.0020308685015076977,0.012353044058742052,0.07568616493989089
StackMapTable$Walker.parse|StackMapTable.shiftPc|CodeIterator.insertGapCore1,0.0,0.0,0.0,0.0,0.0
Toplist$1.callback|VertexAggregator.foreach|Toplist.topListFloat,0.01178849603282901,0.0,0.0027475278164716477,0.0,0.014536023849300656
VertexAggregator.foreach|Toplist.topListFloat|Pagerank.main,0.1687322303676814,0.0,0.03480002170246551,0.0,0.2035322520701469
VertexData.getVertexValuePtr|GraphChiEngine.initVertices|GraphChiEngine.run,0.4101872801013115,0.3686914898814901,0.06911336978229644,0.07869082574774182,0.9266829655128398
