method,package1,package2,dram1,dram2,energy
Chaperone.retire|Chaperone.dismiss|Chaperone.main,0.0,0.007299519070596679,0.0,0.0013393191115482106,0.008638838182144889
ChiPointer.<init>|VertexData.getVertexValuePtr|GraphChiEngine.initVertices,0.01604546723886522,0.0,0.002795536317443224,0.0,0.018841003556308446
ChiVertex.<init>|GraphChiEngine.initVertices|GraphChiEngine.run,5.160798357707638,0.14895534384885542,0.8791738000597388,0.032200812486636414,6.221128314102869
ChiVertex.getValue|Pagerank.update|GraphChiEngine$3.run,0.009693051983627469,6.0295997884432705e-06,0.0019599334812183413,1.0183506767584954e-06,0.011660033415311013
ChiVertex.numInEdges|Pagerank.update|GraphChiEngine$3.run,0.0,0.010265427256050006,0.0,0.0014482483596912111,0.011713675615741218
ChiVertex.numOutEdges|Pagerank.update|GraphChiEngine$3.run,0.05019530377922192,0.0013218124995546534,0.012162035394539202,0.0002550000000383079,0.06393415167335409
ChiVertex.setDataPtr|GraphChiEngine.initVertices|GraphChiEngine.run,0.07108319384070216,0.0,0.01196580796773067,0.0,0.08304900180843283
ChiVertex.setValue|Pagerank.update|GraphChiEngine$3.run,0.009742763711501706,0.022622931670259604,0.001774278885309352,0.004623119043748786,0.038763093310819445
ClassPool.getCached|ClassPool.get0|ClassPool.get,0.06724324444658122,0.0,0.007978666666086709,0.0,0.07522191111266793
DataBlockManager.dereference|ChiVertex.getValue|Pagerank.update,0.0,5.626981504942793e-05,0.0,1.1978985607495285e-05,6.824880065692322e-05
DataBlockManager.dereference|VertexAggregator.foreach|Toplist.topListFloat,0.0,0.01691493840800352,0.0,0.003080138018554386,0.019995076426557908
DataBlockManager.getRawBlock|DataBlockManager.dereference|VertexAggregator.foreach,0.0,0.004691897436248091,0.0,0.0008330769231132506,0.005524974359361341
DataBlockManager.getRawBlock|DataBlockManager.writeValue|ChiVertex.setValue,0.0,0.0,0.0,0.0,0.0
DataBlockManager.writeValue|ChiVertex.setValue|Pagerank.update,0.046141836662088515,0.018462548012128596,0.014872096752097963,0.003362015686279762,0.08283849711259485
DegreeData.getDegree|GraphChiEngine.determineNextWindow|GraphChiEngine.run,1.5711662470940342,0.1331174904244941,0.22168929892339706,0.024610125597122723,1.9505831620390481
DegreeData.getDegree|GraphChiEngine.initVertices|GraphChiEngine.run,0.9345619148306864,0.0,0.15787279550331393,0.0,1.0924347103340004
GraphChiEngine$2.run|Executors$RunnableAdapter.call|FutureTask.run,0.37569790548891335,0.07307097401044445,0.057070833476285596,0.015423126151151736,0.521262839126795
GraphChiEngine$3.run|Executors$RunnableAdapter.call|FutureTask.run,0.5262184523049253,0.25086703580598096,0.10886610326521493,0.04758231878810406,0.9335339101642252
GraphChiEngine.determineNextWindow|GraphChiEngine.run|Pagerank.main,0.3714722032907579,0.06292930582084137,0.053974575232066946,0.011686471596382112,0.5000625559400483
GraphChiEngine.initVertices|GraphChiEngine.run|Pagerank.main,1.816152829222419,0.0,0.3003634194230884,0.0,2.1165162486455076
ImmutableDescriptor.makeMap|ImmutableDescriptor.makeMap|ImmutableDescriptor.<init>,0.04077153846334952,0.0,0.005487692307304734,0.0,0.046259230770654254
JmxMBeanServer.<init>|JmxMBeanServer.newMBeanServer|MBeanServerBuilder.newMBeanServer,0.05294799999683164,0.0,0.008200000000215368,0.0,0.06114799999704701
MBeanInstantiator.<clinit>|JmxMBeanServer.<init>|JmxMBeanServer.newMBeanServer,0.03061138461523045,0.0,0.005067692307840424,0.0,0.035679076923070874
MBeanNotificationInfo.<init>|MBeanNotificationInfo.<init>|MBeanServerDelegate.<clinit>,0.03343784615236263,0.0,0.005058461538842844,0.0,0.038496307691205475
MBeanServerBuilder.newMBeanServerDelegate|MBeanServerFactory.newMBeanServer|MBeanServerFactory.createMBeanServer,0.03343784615236263,0.0,0.005058461538842844,0.0,0.038496307691205475
MXBeanSupport.getMBeanIntrospector|MBeanSupport.<init>|MXBeanSupport.<init>,0.03916416666470468,0.0,0.0054650000001856824,0.0,0.04462916666489036
ManagementFactoryHelper.getDiagnosticCommandMBean|ManagementFactoryHelper.getPlatformDynamicMBeans|ManagementFactory.getPlatformMBeanServer,0.05964884443674237,0.0,0.008018999999735064,0.0,0.06766784443647744
MemoryImpl.getMemoryManagers0|MemoryImpl.getMemoryManagers|ManagementFactoryHelper.getGarbageCollectorMXBeans,0.06622300000162795,0.0,0.009580000000520764,0.0,0.07580300000214872
MemoryShard.loadAdjChunk|MemoryShard.access$000|MemoryShard$1.run,0.0,0.012055680156863672,0.0,0.0025584086246637936,0.014614088781527465
NotificationBroadcasterSupport.<clinit>|MBeanServerDelegate.<init>|MBeanServerDelegateImpl.<init>,0.04077153846334952,0.0,0.005487692307304734,0.0,0.046259230770654254
NumberFormatProviderImpl.getInstance|NumberFormatProviderImpl.getIntegerInstance|NumberFormat.getInstance,0.07747400000031726,0.0,0.009519999999611173,0.0,0.08699399999992843
Pagerank.update|GraphChiEngine$3.run|Executors$RunnableAdapter.call,0.019386103967254938,0.008585974789799793,0.003919866962436683,0.0018015126050220007,0.03369345832451341
UTF_8$Encoder.encode|ZipCoder.getBytes|ZipFile.getEntry,0.07617166666508032,0.0,0.010959999999613501,0.0,0.08713166666469382
VertexAggregator.foreach|Toplist.topListFloat|Pagerank.main,0.0,0.021569206149817877,0.0,0.0038894770040717674,0.025458683153889643
VertexData$1.hasNext|VertexAggregator.foreach|Toplist.topListFloat,0.0,0.005758967742534173,0.0,0.0010548387096693452,0.006813806452203518
VertexData$1.next|VertexData$1.next|VertexAggregator.foreach,0.0,0.023389177265345094,0.0,0.004244813230738755,0.027633990496083848
VertexData.getVertexValuePtr|GraphChiEngine.initVertices|GraphChiEngine.run,0.572124669127736,0.0,0.09236998558405546,0.0,0.6644946547117914
VertexData.getVertexValuePtr|VertexAggregator.foreach|Toplist.topListFloat,0.0,0.02627989828711587,0.0,0.004703271074500292,0.030983169361616162
