method,package1,package2,dram1,dram2,energy
AttributeInfo,0.03303287878886543,0.0,0.004995454545485589,0.0,0.038028333334351024
Chaperone,0.0,0.0,0.0,0.0,0.0
ChiPointer,0.05995012221650945,1.3287083658251835,0.01152266666710299,0.2780952320966525,1.6782763868054484
ChiVertex,2.303896769068962,43.802759308293545,0.3870110915011101,5.801591636784926,52.295258805648544
DataBlockManager,0.021403822801478376,0.03287327685096711,0.004542245119627311,0.0070089737866881625,0.06582831855876095
DegreeData,3.103557785694383,0.4894439471758232,0.49469107286311875,0.09689842801717742,4.184591233750503
FloatConverter,0.0,0.0,0.0,0.0,0.0
GraphChiEngine,1.3671617312478932,0.7991404424890945,0.23394609859352422,0.15687660215153768,2.55712487448205
GraphChiEngine$2,0.03214366114221059,0.3748055405964224,0.005416851921061273,0.08189800056653729,0.49426405422623154
GraphChiEngine$3,0.3146875802186144,0.4685523806868768,0.08345271634253773,0.07581101512145906,0.9425036923694879
Gregorian,0.04001194444653164,0.0,0.005683333333258309,0.0,0.04569527777978995
ImmutableDescriptor,0.024202533334027977,0.0,0.0044020000001182774,0.0,0.028604533334146254
MBeanIntrospector,0.030967481484468512,0.0,0.004781388889063641,0.0,0.03574887037353215
MXBeanIntrospector,0.031396212117132644,0.0,0.004981818182193709,0.0,0.036378030299326354
MXBeanSupport,0.031396212117132644,0.0,0.004981818182193709,0.0,0.036378030299326354
MemoryShard,0.002441572537871422,0.0,0.00042595173480831667,0.0,0.0028675242726797384
NotificationBroadcasterSupport,0.032120799998907996,0.0,0.004343999999400694,0.0,0.03646479999830869
NumberFormatProviderImpl,0.0663755555595142,0.0,0.010266666667020117,0.0,0.07664222222653432
Pagerank,0.0027958445556603667,0.5132408096611387,0.0002905311598517188,0.07217210786191022,0.588499293238561
SimpleType,0.03174742424038634,0.0,0.004974999999720955,0.0,0.03672242424010729
Util,0.024598259258372883,0.0,0.0037177777777051904,0.0,0.028316037036078073
VertexAggregator,0.0,0.014693399500176962,0.0,0.003957703057437624,0.018651102557614586
VertexData,0.6177543836742658,0.26620510858292523,0.11322668929530301,0.0495357669825603,1.0467219485350543
VertexData$1,0.0,0.010415325971487205,0.0,0.002671085428967889,0.013086411400455094
