method,package1,package2,dram1,dram2,energy
java.io,0.25953714689674257,0.2941919354950903,0.04046817637767233,0.05887483876716731,0.6530720975366724
java.lang,0.02781240615773459,0.1017681233777933,0.00482148463786432,0.01720542232101632,0.15160743649440855
java.lang.reflect,0.0,0.009471777779119157,0.0,0.001585000000044669,0.011056777779163826
java.text,0.0,0.018303777777839935,0.0,0.0032088888889389906,0.021512666666778927
java.util,0.07692571613826242,0.22823710509588324,0.012973563469624742,0.04104180871207637,0.3591781934158468
java.util.concurrent,0.0,0.04097500000110206,0.0,0.008429999999862048,0.04940500000096411
java.util.logging,0.0,0.0,0.0,0.0,0.0
