method,package1,package2,dram1,dram2,energy
java.io,0.24494268722909432,0.14638714988390322,0.033977339560187246,0.03450944772137894,0.45981662439456367
java.lang,0.0576613191698933,0.08473652488993898,0.010063108348609505,0.020353721613219765,0.17281467402166156
java.lang.management,0.09561150000081398,0.0,0.0107399999997142,0.0,0.10635150000052818
java.text,0.0,0.0,0.0,0.0,0.0
java.util,0.04741741508032836,0.056312768746560465,0.008868773068874597,0.01712390939243928,0.1297228662882027
java.util.concurrent,0.021353888890492573,0.0,0.003160416666913888,0.0,0.02451430555740646
java.util.zip,0.06610100000398234,0.0,0.009529999999358552,0.0,0.07563100000334089
