method,package1,package2,dram1,dram2,energy
ArrayList.elementData|ArrayList.get|DataBlockManager.getRawBlock,0.0,0.0008197690111498023,0.0,0.00011424898974458855,0.0009340180008943908
ArrayList.rangeCheck|ArrayList.get|DataBlockManager.getRawBlock,0.0,0.03272249720822117,8.417077016000927e-05,0.00554432063209241,0.03835098861047359
BufferedInputStream.read|DataInputStream.readFully|DataInputStream.readUTF,0.0,0.0,0.0,0.0,0.0
BufferedInputStream.read|DataInputStream.readUnsignedByte|ConstPool.readOne,0.09918233332185385,0.0,0.013640000001032604,0.0,0.11282233332288645
BufferedInputStream.read|DataInputStream.readUnsignedShort|NameAndTypeInfo.<init>,0.037585400004172695,0.0,0.005769000000145751,0.0,0.04335440000431845
CalendarDataUtility.retrieveFirstDayOfWeek|Calendar.setWeekCountData|Calendar.<init>,0.0,0.0,0.0,0.0,0.0
ChiPointer.<init>|VertexData.getVertexValuePtr|GraphChiEngine.initVertices,0.0,0.029488169966770242,0.0,0.005280916858597816,0.034769086825368056
ChiVertex.<init>|GraphChiEngine.initVertices|GraphChiEngine.run,2.5741568825370553,38.92111431248844,0.371974028171588,5.475115998493746,47.34236122169083
ChiVertex.getValue|Pagerank.update|GraphChiEngine$3.run,0.031063426865626187,0.00860222719816121,0.004367641791086228,0.0011813252615788825,0.04521462111645251
ChiVertex.numOutEdges|Pagerank.update|GraphChiEngine$3.run,0.0072100555553333825,0.0,0.0020394444443944068,0.0,0.00924949999972779
ChiVertex.setDataPtr|GraphChiEngine.initVertices|GraphChiEngine.run,0.0,0.03999685801526252,0.0,0.0038328037903119054,0.04382966180557442
ChiVertex.setValue|Pagerank.update|GraphChiEngine$3.run,0.0,0.009042918417224809,0.0,0.0012355432938285901,0.0102784617110534
Class.createAnnotationData|Class.annotationData|Class.getAnnotation,0.041198799991980194,0.0,0.006575999999768101,0.0,0.047774799991748294
ClassLoader.defineClass1|ClassLoader.defineClass|SecureClassLoader.defineClass,0.07157900000311203,0.0,0.01021500000024389,0.0,0.08179400000335592
ClassLoader.findBootstrapClass|ClassLoader.findBootstrapClassOrNull|ClassLoader.loadClass,0.04156055555709085,0.0,0.006075000000472992,0.0,0.047635555557563845
CtClassType.makeBehaviorCache|CtClassType.getMembers|CtClassType.getMethod0,0.04124388888831837,0.0,0.006091666666044923,0.0,0.04733555555436329
DataBlockManager.dereference|ChiVertex.getValue|Pagerank.update,0.0005331260367902686,1.5052876952249252,7.663168777200469e-05,0.23404031839383077,1.7399377713433184
DataBlockManager.getRawBlock|DataBlockManager.dereference|ChiVertex.getValue,0.0,0.004607010107889276,0.0,0.0009886638699029466,0.005595673977792223
DataBlockManager.getRawBlock|DataBlockManager.dereference|VertexAggregator.foreach,0.0,0.0,0.0,0.0,0.0
DataBlockManager.getRawBlock|DataBlockManager.writeValue|ChiVertex.setValue,0.003511305881308063,0.0,0.0010122352939694846,0.0,0.0045235411752775475
DataBlockManager.writeValue|ChiVertex.setValue|Pagerank.update,0.0,0.012085190190301168,0.0,0.00215042087659484,0.014235611066896008
DefaultMBeanServerInterceptor.registerMBean|JmxMBeanServer$2.run|AccessController.doPrivileged,0.028125,0.0,0.004116000000794883,0.0,0.032241000000794884
DefaultMXBeanMappingFactory.<clinit>|MXBeanMappingFactory.<clinit>|ConvertingMethod.<init>,0.037585400004172695,0.0,0.005769000000145751,0.0,0.04335440000431845
DefaultMXBeanMappingFactory.makeTabularMapping|DefaultMXBeanMappingFactory.makeParameterizedTypeMapping|DefaultMXBeanMappingFactory.makeMapping,0.03100083333265502,0.0,0.0045666666665056255,0.0,0.035567499999160646
DegreeData.getDegree|GraphChiEngine.determineNextWindow|GraphChiEngine.run,0.45727584194606213,0.2437086086954522,0.059083339964222964,0.021533695652697527,0.7816014862584348
DegreeData.getDegree|GraphChiEngine.initVertices|GraphChiEngine.run,0.7123374999385423,0.5736593447564471,0.10940818908901782,0.09728633353875835,1.4926913673227655
ExponentiallyDecayingSample.<init>|ExponentiallyDecayingSample.<init>|Histogram$SampleType$2.newSample,0.04156055555709085,0.0,0.006075000000472992,0.0,0.047635555557563845
ExtendedPlatformComponent.isUnlockCommercialFeaturesEnabled|ExtendedPlatformComponent.shouldRegisterCMMBean|ExtendedPlatformComponent.getMXBeans,0.04572760000592097,0.0,0.0065759999997681015,0.0,0.05230360000568907
Float.floatValue|Pagerank.update|GraphChiEngine$3.run,0.0,0.013548299125312498,0.0,0.0019600097497123508,0.01550830887502485
Float.valueOf|FloatConverter.getValue|FloatConverter.getValue,0.0,0.012866047439054475,0.0,0.004399108273680824,0.0172651557127353
Float.valueOf|Pagerank.update|GraphChiEngine$3.run,0.0,0.028226561940828704,0.0,0.003909210867111664,0.03213577280794037
FloatConverter.setValue|FloatConverter.setValue|DataBlockManager.writeValue,0.0198399336280943,0.007650792207789289,0.004760993438883902,0.0016367532467460504,0.033888472521513544
GraphChiEngine$2.run|Executors$RunnableAdapter.call|FutureTask.run,0.25040748980221855,0.06376043486285915,0.07076939046435894,0.010936896974331175,0.39587421210376783
GraphChiEngine$3.run|Executors$RunnableAdapter.call|FutureTask.run,0.146654787820032,1.664784716110085,0.029699698067124074,0.26329040808874016,2.1044296100859814
GraphChiEngine.determineNextWindow|GraphChiEngine.run|Pagerank.main,0.29324928850798465,0.1768868888885764,0.03162090077355738,0.02074833333406584,0.5225054115041843
GraphChiEngine.initVertices|GraphChiEngine.run|Pagerank.main,3.329963752403011,1.037989242581472,0.5084795222245894,0.14775489442103493,5.024187411630107
ImmutableDescriptor.makeMap|ImmutableDescriptor.makeMap|ImmutableDescriptor.<init>,0.040817249995598104,0.0,0.007218749999992724,0.0,0.04803599999559083
JmxMBeanServer.<init>|JmxMBeanServer.newMBeanServer|MBeanServerBuilder.newMBeanServer,0.06575939999893309,0.0,0.009854999999515713,0.0,0.0756143999984488
LocaleData$1.run|LocaleData$1.run|AccessController.doPrivileged,0.0,0.0,0.0,0.0,0.0
MBeanNotificationInfo.<init>|MBeanNotificationInfo.<init>|MBeanServerDelegate.<clinit>,0.058074749998922925,0.0,0.008235000000240689,0.0,0.06630974999916361
MBeanServerBuilder.newMBeanServerDelegate|MBeanServerFactory.newMBeanServer|MBeanServerFactory.createMBeanServer,0.05630500000552274,0.0,0.008159999999406864,0.0,0.0644650000049296
ManagementFactory$2.run|ManagementFactory$2.run|AccessController.doPrivileged,0.04013660000637173,0.0,0.0049319999998260755,0.0,0.045068600006197806
ManagementFactory.createMemoryPool|MemoryImpl.getMemoryPools0|MemoryImpl.getMemoryPools,0.03100083333265502,0.0,0.0045666666665056255,0.0,0.035567499999160646
MemberResolver.lookupMethod|MemberResolver.lookupMethod|TypeChecker.atMethodCallCore,0.002504507515683487,0.0,0.000379475547477893,0.0,0.00288398306316138
MemoryShard.loadAdjChunk|MemoryShard.access$000|MemoryShard$1.run,0.0,0.014981769230731657,0.0,0.0030969230767648416,0.018078692307496497
NOPLoggerFactory.getLogger|LoggerFactory.getLogger|LoggerFactory.getLogger,0.10919200000353158,0.0,0.01531875000000582,0.0,0.1245107500035374
NotificationBroadcasterSupport.<init>|MBeanServerDelegate.<init>|MBeanServerDelegateImpl.<init>,0.058074749998922925,0.0,0.008235000000240689,0.0,0.06630974999916361
NumberFormatProviderImpl.getInstance|NumberFormatProviderImpl.getIntegerInstance|NumberFormat.getInstance,0.008528533337327341,0.0,0.001088000000648511,0.0,0.009616533337975852
Pagerank.update|GraphChiEngine$3.run|Executors$RunnableAdapter.call,0.0,0.0185283076109329,0.0,0.0031204835686394453,0.021648791179572344
Pattern.clazz|Pattern.sequence|Pattern.expr,0.0,0.004998874076123297,0.0,0.0008273735649211055,0.005826247641044403
PlatformComponent.<clinit>|ManagementFactory.getPlatformMBeanServer|JmxReporter.<init>,0.04013660000637173,0.0,0.0049319999998260755,0.0,0.045068600006197806
RandomAccessFile.readBytes|RandomAccessFile.read|RandomAccessFile.read_,0.16741751162038543,0.03708900000037829,0.035658535709662195,0.00923500000014125,0.24940004733056717
RandomAccessFile.writeBytes|RandomAccessFile.write|RandomAccessFile.writeBytes,0.1772131443213628,0.014646348365509352,0.03238994240233094,0.0020901437108290935,0.2263395788000322
SignatureParser.parseClassTypeSignature|SignatureParser.parseFieldTypeSignature|SignatureParser.parseFieldTypeSignature,0.03204347222587482,0.0,0.004566666666000351,0.0,0.03661013889187517
SimpleDateFormat.initializeCalendar|SimpleDateFormat.<init>|DateFormatProviderImpl.getInstance,0.0,0.0,0.0,0.0,0.0
SimpleDateFormat.initialize|SimpleDateFormat.<init>|DateFormatProviderImpl.getInstance,0.00899233334348537,0.0,0.001380000000305396,0.0,0.010372333343790766
String.equals|Hashtable.get|Properties.getProperty,0.04593119999238599,0.0,0.0065600000001722935,0.0,0.05249119999255829
SubstituteLoggerFactory.<init>|LoggerFactory.<clinit>|JmxReporter.<clinit>,0.05288699999800884,0.0,0.007158750000598957,0.0,0.060045749998607796
System.arraycopy|DegreeData.load|GraphChiEngine.determineNextWindow,0.0,0.0,0.0,0.0,0.0
TreeMap.navigableKeySet|TreeMap.keySet|ImmutableDescriptor.<init>,0.040817249995598104,0.0,0.007218749999992724,0.0,0.04803599999559083
URLClassPath.getNextLoader|URLClassPath.getResource|URLClassPath.getResource,0.041198799991980194,0.0,0.006575999999768101,0.0,0.047774799991748294
VertexAggregator.foreach|Toplist.topListFloat|Pagerank.main,0.0,0.0,0.0,0.0,0.0
VertexData.getVertexValuePtr|GraphChiEngine.initVertices|GraphChiEngine.run,0.3219983825910461,0.09914436588837754,0.04771511713561527,0.014273697176276091,0.483131562791315
VertexData.getVertexValuePtr|VertexAggregator.foreach|Toplist.topListFloat,0.0,0.010012651680397382,0.0,0.0018711300762415122,0.011883781756638893
ZipFile.getZipEntry|ZipFile.getEntry|JarFile.getEntry,0.06575939999893309,0.0,0.009854999999515713,0.0,0.0756143999984488
