method,package1,package2,dram1,dram2,energy
ArrayList.elementData|ArrayList.get|DataBlockManager.getRawBlock,0.0,0.0,0.0,0.0,0.0
ArrayList.rangeCheck|ArrayList.get|DataBlockManager.getRawBlock,0.0017306839150735918,0.006798390831015841,0.00045481453227339767,0.0010648499087614071,0.010048739187124239
Arrays.sort|MBeanAnalyzer.eliminateCovariantMethods|MBeanAnalyzer.initMaps,0.01515105882358244,0.0,0.0025882352940742766,0.0,0.017739294117656717
ChiLogger.getLogger|Pagerank.<clinit>|NativeMethodAccessorImpl.invoke0,0.0,0.0,0.0,0.0,0.0
ChiPointer.<init>|VertexData.getVertexValuePtr|GraphChiEngine.initVertices,0.0,0.11964877923591807,0.0,0.022305235176574616,0.1419540144124927
ChiVertex.<init>|GraphChiEngine.initVertices|GraphChiEngine.run,0.5030522812929383,3.596612629312683,0.05259500800959584,0.6296911618438292,4.781951080459047
ChiVertex.getValue|Pagerank.update|GraphChiEngine$3.run,0.0,0.007638274238231644,0.0,0.0011701038781521422,0.008808378116383787
ChiVertex.numOutEdges|Pagerank.update|GraphChiEngine$3.run,0.0,0.001776211549276737,0.0,0.00035383889451266564,0.0021300504437894024
ChiVertex.setDataPtr|GraphChiEngine.initVertices|GraphChiEngine.run,0.0347110098120974,0.08600657532129119,0.0036842570296559273,0.01603556935791414,0.14043741152095865
ChiVertex.setValue|Pagerank.update|GraphChiEngine$3.run,0.005688593510270931,0.02131816707660717,0.000980879078464429,0.002919554798359664,0.030907194463702197
Class.privateGetMethodRecursive|Class.getMethod0|Class.getMethod,0.036590666665385164,0.0,0.005490000000160459,0.0,0.04208066666554562
ClassLoadingImpl.getObjectName|ManagementFactory.getPlatformMBeanServer|JmxReporter.<init>,0.015127215685103744,0.0,0.0025882352940742766,0.0,0.01771545097917802
Collections.singleton|PlatformComponent.defaultKeyProperties|PlatformComponent.<clinit>,0.015127215685103744,0.0,0.0025882352940742766,0.0,0.01771545097917802
ConcurrentHashMap.keySet|ConcurrentHashMap.keySet|ParallelListResourceBundle.handleKeySet,0.04112422222452651,0.0,0.006426666666811797,0.0,0.04755088889133831
DataBlockManager.allocateBlock|VertexData.load|GraphChiEngine.initVertices,0.0,0.0,0.0,0.0,0.0
DataBlockManager.dereference|ChiVertex.getValue|Pagerank.update,0.0072797628491622374,0.02763595635307651,0.000997501244323734,0.0031742753378756657,0.03908749578443814
DataBlockManager.dereference|VertexAggregator.foreach|Toplist.topListFloat,0.0403104602512534,0.0,0.006942440131002823,0.0,0.04725290038225622
DataBlockManager.getRawBlock|DataBlockManager.dereference|ChiVertex.getValue,0.0,0.04799517647060223,0.0,0.01249764705896857,0.060492823529570805
DataBlockManager.getRawBlock|DataBlockManager.writeValue|ChiVertex.setValue,0.0025464702330478843,0.0,0.0007265846194192535,0.0,0.0032730548524671377
DataBlockManager.writeValue|ChiVertex.setValue|Pagerank.update,0.008680391551393676,0.032284698495368996,0.0011619664672976782,0.004578025793662656,0.04670508230772301
DecimalFormatSymbols.initialize|DecimalFormatSymbols.<init>|DecimalFormatSymbolsProviderImpl.getInstance,0.04112422222452651,0.0,0.006426666666811797,0.0,0.04755088889133831
DefaultMXBeanMappingFactory.<clinit>|MXBeanMappingFactory.<clinit>|ConvertingMethod.<init>,0.01515105882358244,0.0,0.0025882352940742766,0.0,0.017739294117656717
DegreeData.getDegree|GraphChiEngine.determineNextWindow|GraphChiEngine.run,0.6445438514138331,0.31429729259930095,0.08908369315190418,0.05418047491721797,1.1021053120822561
DegreeData.getDegree|GraphChiEngine.initVertices|GraphChiEngine.run,0.13692967560191832,36.17182632023828,0.014250398206088338,3.9994398802542124,40.3224462743005
Executors$RunnableAdapter.call|FutureTask.run|ThreadPoolExecutor.runWorker,0.012311626166506199,0.0,0.0017383434512567952,0.0,0.014049969617762994
Executors.newScheduledThreadPool|ThreadPools.newScheduledThreadPool|MetricsRegistry.newMeterTickThreadPool,0.05243270588792204,0.0,0.00773647058796247,0.0,0.06016917647588451
Float.<init>|Float.valueOf|Pagerank.update,0.007236679092156979,0.014316578009776489,0.001260551858807237,0.001853740915842396,0.024667549876583098
Float.floatValue|FloatConverter.setValue|FloatConverter.setValue,0.0,0.0,0.0,0.0,0.0
Float.floatValue|Pagerank.update|GraphChiEngine$3.run,0.0,0.007638274238231644,0.0,0.0011701038781521422,0.008808378116383787
Float.valueOf|FloatConverter.getValue|FloatConverter.getValue,0.007304057154942709,0.0,0.0012602402026303016,0.0,0.008564297357573011
Float.valueOf|Pagerank.update|GraphChiEngine$3.run,0.0,0.0007925603864869161,0.0,0.00011942028986112381,0.0009119806763480399
FloatConverter.getValue|DataBlockManager.dereference|ChiVertex.getValue,0.0,0.0,0.0,0.0,0.0
FloatConverter.setValue|FloatConverter.setValue|DataBlockManager.writeValue,0.0010269563382742071,0.0,0.0002345839350932231,0.0,0.0012615402733674303
Formatter.parse|Formatter.format|Formatter.format,0.0,0.0,0.0,0.0,0.0
GraphChiContext.getIteration|Pagerank.update|GraphChiEngine$3.run,0.009154853181238704,0.0,0.0017588138237437582,0.0,0.010913667004982463
GraphChiEngine$2.run|Executors$RunnableAdapter.call|FutureTask.run,0.20458121394530238,0.16098043076830762,0.053441901646906355,0.03799507692292692,0.45699862328344326
GraphChiEngine$3.run|Executors$RunnableAdapter.call|FutureTask.run,0.4032637949757189,0.5050351861284818,0.07398802863870758,0.07261564266486821,1.0549026524077765
GraphChiEngine.determineNextWindow|GraphChiEngine.run|Pagerank.main,0.31682838236585564,0.16672586462904251,0.03778053532527522,0.030066205094792756,0.5514009874149661
GraphChiEngine.initVertices|GraphChiEngine.run|Pagerank.main,0.35737374216798334,2.0612129879399004,0.054754199915845306,0.3721827925613524,2.8455237225850816
ImmutableDescriptor.makeMap|ImmutableDescriptor.makeMap|ImmutableDescriptor.<init>,0.021453833333604656,0.0,0.0009899999998500182,0.0,0.022443833333454673
Inflater.inflateBytes|Inflater.inflate|InflaterInputStream.read,0.04349755555934583,0.0,0.007319999999405504,0.0,0.05081755555875133
Introspector.getMXBeanInterface|StandardMBean.construct|StandardMBean.<init>,0.01716643137236436,0.0,0.0025717647059697326,0.0,0.019738196078334092
JRELocaleProviderAdapter.getDateFormatSymbolsProvider|JRELocaleProviderAdapter.getLocaleServiceProvider|LocaleProviderAdapter.findAdapter,0.017781555555605642,0.0,0.0027300000001559965,0.0,0.02051155555576164
JmxMBeanServer.<init>|JmxMBeanServer.newMBeanServer|MBeanServerBuilder.newMBeanServer,0.054574960783664965,0.0,0.004562352941374068,0.0,0.05913731372503903
LogRecord.inferCaller|LogRecord.getSourceMethodName|ChiLogger$SingleLineFormatter.format,0.03930666666322698,0.0,0.004026666666807916,0.0,0.04333333333003489
LoggerFactory.<clinit>|JmxReporter.<clinit>|Metrics.<clinit>,0.047526166667618476,0.0,0.007510000000062671,0.0,0.055036166667681144
MBeanNotificationInfo.<init>|MBeanNotificationInfo.<init>|MBeanServerDelegate.<clinit>,0.02601116666725526,0.0,0.0027425000001433846,0.0,0.028753666667398644
MBeanServerBuilder.newMBeanServerDelegate|MBeanServerFactory.newMBeanServer|MBeanServerFactory.createMBeanServer,0.02601116666725526,0.0,0.0027425000001433846,0.0,0.028753666667398644
MemoryShard.loadAdjChunk|MemoryShard.access$000|MemoryShard$1.run,0.0,0.0,0.0,0.0,0.0
Method.getGenericInfo|Method.getGenericReturnType|DefaultMXBeanMappingFactory.makeCompositeMapping,0.036590666665385164,0.0,0.005490000000160459,0.0,0.04208066666554562
NOPLoggerFactory.getLogger|LoggerFactory.getLogger|LoggerFactory.getLogger,0.029642666665798362,0.0,0.004067500000019208,0.0,0.03371016666581757
NotificationBroadcasterSupport.<clinit>|MBeanServerDelegate.<init>|MBeanServerDelegateImpl.<init>,0.021453833333604656,0.0,0.0009899999998500182,0.0,0.022443833333454673
NumberFormatProviderImpl.getInstance|NumberFormatProviderImpl.getIntegerInstance|NumberFormat.getInstance,0.03930666666322698,0.0,0.004026666666807916,0.0,0.04333333333003489
Object.clone|Class.getInterfaces|Introspector.findMBeanInterface,0.059110588236602354,0.0,0.007680000000297749,0.0,0.06679058823690011
Object.hashCode|ConcurrentHashMap.get|ConcurrentHashMap.containsKey,0.0,0.0,0.0,0.0,0.0
Pagerank.update|GraphChiEngine$3.run|Executors$RunnableAdapter.call,0.0359762918717058,0.016072329888039732,0.009756324923759111,0.0019163436692521128,0.06372129035275675
RandomAccessFile.readBytes|RandomAccessFile.read|RandomAccessFile.read_,0.12544914021384013,0.0,0.01844761904743714,0.0,0.14389675926127726
RandomAccessFile.writeBytes|RandomAccessFile.write|RandomAccessFile.writeBytes,0.062046339333953725,0.07242768703735304,0.010987025596900221,0.009561305555460553,0.15502235752366753
Repository.addMoiToTb|Repository.addNewDomMoi|Repository.addMBean,0.0092677647047037,0.0,0.0012894117646604115,0.0,0.010557176469364112
SimpleDateFormat.initializeCalendar|SimpleDateFormat.<init>|DateFormatProviderImpl.getInstance,0.0,0.0,0.0,0.0,0.0
String.toLowerCase|String.toLowerCase|URLUtil.urlNoFragString,0.01716643137236436,0.0,0.0025717647059697326,0.0,0.019738196078334092
System.arraycopy|DataBlockManager.writeValue|ChiVertex.setValue,0.0,0.0,0.0,0.0,0.0
System.arraycopy|DegreeData.load|GraphChiEngine.determineNextWindow,0.0,0.0,0.0,0.0,0.0
Toplist$1.callback|VertexAggregator.foreach|Toplist.topListFloat,0.004954828557483666,0.0,0.0008198434797931073,0.0,0.005774672037276773
TreeMap.navigableKeySet|TreeMap.keySet|ImmutableDescriptor.<init>,0.023803666665723235,0.0,0.0010800000000017462,0.0,0.02488366666572498
VertexAggregator.foreach|Toplist.topListFloat|Pagerank.main,0.014907679660694739,0.0,0.003286816509392718,0.0,0.018194496170087456
VertexData$1.next|VertexData$1.next|VertexAggregator.foreach,0.010492200333283906,0.0,0.002455207375227177,0.0,0.012947407708511082
VertexData.getVertexValuePtr|GraphChiEngine.initVertices|GraphChiEngine.run,0.08145685022572793,0.8281081131606404,0.010102779812194585,0.16193251040494214,1.081600253603505
