method,package1,package2,dram1,dram2,energy
AbstractCalendar.getCalendarDate,0.08853495833208842,0.0,0.014913990385523972,0.0,0.1034489487176124
AbstractCalendar.setTimeOfDay,0.09037868391660447,0.0,0.01508641958101928,0.0,0.10546510349762375
Aggregate.updateAggregate,0.0,0.0,0.0,0.0,0.0
BaseCalendar$Date.<init>,0.01841222222234743,0.0,0.003189999999853575,0.0,0.021602222222201005
BaseCalendar.getCalendarDateFromFixedDate,0.025826361110577838,0.0,0.004285833332990781,0.0,0.030112194443568618
BaseCalendar.getDayOfWeekFromFixedDate,0.04175703703744888,0.0,0.007186666667284616,0.0,0.0489437037047335
BaseCalendar.getGregorianYearFromFixedDate,0.012801066666240028,0.0,0.002171000000089407,0.0,0.014972066666329435
BaseIndex.compareKeys,0.1622527315558068,0.0,0.02343795298409039,0.0,0.18569068453989718
BaseIndex.compareRows,1.6361380230180524,0.8296639194764486,0.21508363748990178,0.10770897115536146,2.7885945511397643
BaseIndex.compareValues,0.8388319758612792,0.09688805193060251,0.10862514817922062,0.012224925214744775,1.0565701011858473
Benchmark.fileFromInputStream,0.7141553888917163,0.0,0.05930666666608886,0.0,0.7734620555578051
CalendarDate.<init>,0.01865454545424489,0.0,0.003327272727222986,0.0,0.021981818181467876
CalendarDate.setHours,0.017831407407626367,0.0,0.0029866666666714947,0.0,0.020818074074297862
CalendarDate.setMinutes,0.04160562500146625,0.0,0.0067281249994266545,0.0,0.048333750000892906
Chaperone.retire,0.01520397435878971,0.0,0.0025923076921175467,0.0,0.017796282050907258
Column.convert,0.2653193362102587,0.0,0.03330391810602134,0.0,0.29862325431628006
Column.getColumnId,0.41267196624757596,0.0,0.0563740613371028,0.0,0.4690460275846788
Column.validateConvertUpdateSequence,0.07765140740620725,0.0,0.006800972222798143,0.0,0.0844523796290054
Command.executeQueryLocal,0.0,0.0,0.0,0.0,0.0
Command.executeUpdate,0.12612403153455384,0.18973680870947665,0.015498585029099232,0.02500580775868482,0.35636523303181455
CommandContainer.update,0.07355739999960254,0.0,0.008022000000225186,0.0,0.08157939999982772
CommandLineArgs.getMethodology,0.06386299999818826,0.0,0.004519999999805198,0.0,0.06838299999799345
CompareMode.compareString,0.0,0.1313562816447737,0.0,0.01619316775878399,0.1475494494035577
Comparison.compareNotNull,0.06523149999884481,0.0,0.006817499999669962,0.0,0.07204899999851477
Comparison.getValue,0.5986949085174776,0.11065427841492453,0.08677684977421576,0.014836012361586538,0.8109620490682045
Comparison.isEverything,0.09996963115024016,0.0,0.015461265348064506,0.0,0.11543089649830467
Comparison.mapColumns,0.02424763654995753,0.0,0.0026277154914916803,0.0,0.02687535204144921
ConditionAndOr.getValue,0.06686186316154827,0.04949163301836867,0.008367579830491866,0.006529804414387018,0.13125088042479582
ConditionAndOr.isEverything,0.061904487624359815,0.0,0.008385313748280051,0.0,0.07028980137263986
ConditionNot.getValue,0.03512232158434811,0.0,0.004160708709483659,0.0,0.03928303029383177
ConfigFile.<init>,0.022196333333946917,0.0,0.0017600000004070657,0.0,0.023956333334353982
ConfigFile.jj_consume_token,0.06899033333320402,0.0,0.005289999999755914,0.0,0.07428033333295994
DacapoClassLoader.loadClass,0.29174034442192787,0.0,0.022255945946276584,0.0,0.3139962903682044
Data.dataForBadCredit,0.0,0.0,0.0,0.0,0.0
Database.areEqual,0.0,0.0,0.0,0.0,0.0
Database.isReconnectNeeded,0.033793166667843856,0.0,0.004329999999754364,0.0,0.03812316666759822
DecimalFormatSymbolsProviderImpl.getInstance,0.0,0.0,0.0,0.0,0.0
Delete.update,0.018168166667843856,0.0,0.0019449999999778809,0.0,0.020113166667821737
Driver.connect,0.02876783333340427,0.0,0.002440000000206055,0.0,0.031207833333610324
Engine.openSession,0.027316444445103918,0.0,0.002353333333707673,0.0,0.02966977777881159
Expression.getBooleanValue,0.04216657142803471,0.0,0.006330000000161817,0.0,0.04849657142819653
ExpressionColumn.getValue,0.3631370243751999,0.0,0.04689529074232368,0.0,0.4100323151175236
ExpressionColumn.isEverything,0.10498623509706598,0.08159847789901623,0.01777155693834928,0.008852171275108648,0.21320844120954013
ExpressionVisitor.getResolver,0.02918114486280868,0.0,0.003030898766890782,0.0,0.03221204362969946
ExpressionVisitor.incrementQueryLevel,0.03453566666697345,0.0,0.005950000000060148,0.0,0.0404856666670336
FileURLConnection.getPermission,0.08827044444559658,0.0,0.007666666667015913,0.0,0.0959371111126125
Handler.hostsEqual,0.027316444445103918,0.0,0.002353333333707673,0.0,0.02966977777881159
IOUtils.readFully,0.0409087777776828,0.0,0.002753333333809375,0.0,0.04366211111149217
IndexCursor.find,0.4146318913313915,0.12177333333432519,0.05302073935082146,0.015811999999156494,0.6052379640156946
IndexCursor.getSearchRow,0.07501510877708437,0.0,0.011119301943256853,0.0,0.08613441072034123
IndexCursor.isAlwaysFalse,0.1288427536228614,0.0,0.01306782608667888,0.0,0.1419105797095403
IndexCursor.next,0.07582600000023376,0.0,0.010539999999309655,0.0,0.08636599999954342
Insert.insertRows,0.17142324150990287,0.0,0.019388460839479725,0.0,0.1908117023493826
JdbcConnection.checkClosed,0.5672180261958025,0.0,0.08401777404477774,0.0,0.6512358002405803
JdbcPreparedStatement.executeQuery,0.0,0.0,0.0,0.0,0.0
JdbcPreparedStatement.executeUpdate,0.02916381818200038,0.0,0.0036709090907772243,0.0,0.03283472727277761
JdbcPreparedStatement.setInt,0.1076823111106124,0.0,0.009626666666655282,0.0,0.11730897777726768
JdbcResultSet.checkClosed,0.06627256574103942,0.0,0.011395555555554892,0.0,0.07766812129659431
JdbcResultSet.get,0.07526933333032171,0.0,0.008574545454008108,0.0,0.08384387878432982
JdbcResultSet.getColumnIndex,0.0,0.0,0.0,0.0,0.0
JdbcResultSet.getString,0.011962871794821694,0.0,0.002092307692062325,0.0,0.01405517948688402
JdbcResultSet.nextRow,0.0938912962949231,0.0,0.016122666666800525,0.0,0.11001396296172362
JdbcSQLException.<init>,0.0,0.08503219073561989,0.0,0.01114967155107521,0.0961818622866951
JdbcStatement.checkClosed,0.11960342396885235,0.0,0.018684666943831092,0.0,0.13828809091268343
JdbcStatement.closeOldResultSet,0.12413312962888555,0.0,0.011097499999340031,0.0,0.13523062962822557
JdbcStatement.executeQuery,0.015117495497064622,0.0,0.0013967567575893045,0.0,0.016514252254653927
Launcher$AppClassLoader.loadClass,0.039225333332675895,0.0,0.0017599999998007356,0.0,0.04098533333247663
LocalResult.<init>,0.05604097453547345,0.058642666662732774,0.00587529022826152,0.00765199999974963,0.1282109314262174
LocalResult.addRow,0.029181153401741426,0.0,0.0038852417877060274,0.0,0.033066395189447456
LocalResult.applyLimit,0.06922186666827959,0.0,0.00740800000009282,0.0,0.07662986666837242
LocalResult.next,0.08125295863801543,0.0,0.012925575576893049,0.0,0.09417853421490849
MathUtils.compare,0.11185619387927909,0.0,0.01550653061205755,0.0,0.12736272449133665
MathUtils.setScale,0.0,0.0,0.0,0.0,0.0
MemberrefInfo.<init>,0.04229066666448489,0.0,0.0027466666659974074,0.0,0.04503733333048229
MetaTable.<init>,0.0217895217397397,0.0,0.001150434782491926,0.0,0.022939956522231623
MethodAccessorGenerator.generate,0.08133966666355262,0.0,0.012220000000525031,0.0,0.09355966666407765
MultiVersionCursor.getSearchRow,0.1710682941987165,0.1208082660816978,0.021408502249442397,0.015754968906481384,0.3290400314363381
MultiVersionCursor.loadNext,0.37662457921314674,0.19553633333028603,0.04325769443203874,0.0264799999998407,0.6418986069753123
MultiVersionCursor.next,0.7822672295583716,0.3595022650557883,0.10158352958899036,0.0445687496964519,1.2879217738996023
MultiVersionCursor.step,0.06750441379973579,0.04186071794874106,0.009700016642319252,0.0050400000001014295,0.12410514839089754
MultiVersionIndex.add,0.10906960364167562,0.0,0.013209145453027319,0.0,0.12227874909470293
MultiVersionIndex.commit,0.0,0.0,0.0,0.0,0.0
MultiVersionIndex.compareRows,0.033332037035304685,0.0,0.005294444444761784,0.0,0.03862648148006647
MultiVersionIndex.find,0.029409201956908763,0.066471003323552,0.004176255373720822,0.00798614061847753,0.10804260127265912
MultiVersionIndex.remove,0.0,0.08689061538293923,0.0,0.010381153845838315,0.09727176922877755
MultiVersionIndex.removeIfExists,0.10918802506057546,0.0,0.014346240600924803,0.0,0.12353426566150026
OERandom.randomAString24,0.02883741176372175,0.0,0.0038047058821094283,0.0,0.03264211764583118
OERandom.randomDecimalString,0.22630854246603105,0.0,0.023212725722906315,0.0,0.24952126818893736
OERandom.randomInt,0.4429599336993745,0.0,0.054396698428751174,0.0,0.49735663212812564
OERandom.randomIntPerm,0.044650444444010236,0.0,0.003143333333557368,0.0,0.0477937777775676
ObjectArray$ObjectArrayIterator.hasNext,0.060073262312261635,0.0,0.006463750215854018,0.0,0.06653701252811565
ObjectArray$ObjectArrayIterator.next,0.11697600000188685,0.0,0.013991999999658826,0.0,0.13096800000154568
ObjectArray.add,0.095503762728009,0.0,0.014651744084064618,0.0,0.11015550681207362
ObjectArray.createArray,0.08312508954221111,0.0,0.012069242466199484,0.0,0.0951943320084106
ObjectArray.get,0.31077057236687927,0.0,0.04098613557244568,0.0,0.35175670793932495
ObjectArray.newInstance,0.06389011337923793,0.15614866179472905,0.010475034014044815,0.018819689641589518,0.24933349882960132
ObjectArray.sort,0.14113041334625562,0.0,0.019666143663822386,0.0,0.160796557010078
ObjectArray.swap,0.08296949999971223,0.0,0.011020000000118872,0.0,0.09398949999983111
ObjectUtils.arrayCopy,0.040418888888477035,0.0,0.0072266666668130905,0.0,0.047645555555290126
Operation.getValue,0.0,0.0,0.0,0.0,0.0
Parser.initialize,0.03739422222295413,0.0,0.0028533333332032068,0.0,0.04024755555615734
Parser.parseSet,0.03537117391248973,0.0,0.0025043478259328326,0.0,0.03787552173842256
Parser.readIdentifierWithSchema,0.0,0.0,0.0,0.0,0.0
Parser.readIf,0.06084533333260979,0.0,0.0056033333336624,0.0,0.0664486666662722
Prepared.checkCanceled,0.03927776811519724,0.016614772430274906,0.005736159420382976,0.0020788598426455533,0.06370755980850068
Prepared.setCurrentRowNumber,0.02038247172613464,0.0,0.00273306862368421,0.0,0.02311554034981885
Query.getParameterValues,0.02305821428516148,0.13430744762230287,0.003474642857846837,0.015198714285846411,0.1760390190511576
Query.isEverything,0.06046910533036558,0.0,0.0057631551847389505,0.0,0.06623226051510453
Query.query,0.06479894927458414,0.0,0.006277173913168962,0.0,0.07107612318775311
Query.sameResultAsLast,0.025400833332241742,0.0,0.0027374999996633647,0.0,0.028138333331905106
Record.getSessionId,0.06308180392165119,0.0,0.008828235293799034,0.0,0.07191003921545022
Record.setSessionId,0.05297658888747618,0.0,0.005698333333364442,0.0,0.05867492222084062
Row.<init>,0.04389886100461577,0.0,0.006498364302732847,0.0,0.050397225307348616
Row.getValue,1.377997890645932,0.5270654986183585,0.19226816273351138,0.06711117789485874,2.1644427298926603
Row.isEmpty,0.029426363636792463,0.0,0.0049636363639199935,0.0,0.034390000000712455
Row.setValue,0.07236340000235941,0.07257100000182011,0.007212000000436092,0.009570000000167056,0.16171640000478266
SPILocaleProviderAdapter.findInstalledProvider,0.0,0.0,0.0,0.0,0.0
ScanCursor.next,0.03799555555559453,0.0,0.0047755555553723955,0.0,0.042771111110966924
ScanIndex.add,0.31697188631898,0.0,0.03274861533146188,0.0,0.3497205016504419
ScanIndex.commit,0.10362566666493268,0.0,0.010559000000082756,0.0,0.11418466666501544
ScanIndex.getDelta,0.16844231999974002,0.0,0.02547900000005029,0.0,0.19392131999979031
ScanIndex.getNextRow,0.39923291077742734,0.0,0.0564249494954087,0.0,0.45565786027283606
ScanIndex.incrementRowCount,0.0,0.0,0.0,0.0,0.0
Select.isEverything,0.2101073536957721,0.0,0.02006257162433763,0.0,0.23016992532010974
Select.queryFlat,0.857202074916664,0.0,0.12748387176602075,0.0,0.9846859466826847
Select.queryGroup,0.0,0.0,0.0,0.0,0.0
Select.queryWithoutCache,0.07769433333305642,0.0,0.013516666666570623,0.0,0.09121099999962705
Session.isClosed,0.0751140750022993,0.0,0.01271449999970476,0.0,0.08782857500200406
Session.isReconnectNeeded,0.20501750444714345,0.0,0.034833393758698095,0.0,0.23985089820584155
SimpleInsert.customerTable,0.036952999999477085,0.0,0.004975526315862672,0.0,0.041928526315339755
SimpleInsert.orderTable,0.048448444444349856,0.0,0.005940000000312769,0.0,0.05438844444466263
SimpleInsert.stockTable,0.14651557894785103,0.0,0.016501894736690077,0.0,0.16301747368454111
Standard.newOrder,0.0,0.0,0.0,0.0,0.0
Standard.payment,0.0,0.0,0.0,0.0,0.0
StringCache.get,0.26318321994747895,0.0,0.027887365230304866,0.0,0.29107058517778384
StringCache.getCache,0.07638880000061665,0.0,0.006266666666811539,0.0,0.08265546666742819
StringUtils.toUpperEnglish,0.0,0.0,0.0,0.0,0.0
TPCC$3.<init>,0.06072999999984555,0.0,0.009529999999358552,0.0,0.0702599999992041
TPCC.calculateSumDB,0.782265313888308,0.0,0.10795145833440578,0.0,0.8902167722227138
TPCC.report,0.0,0.0,0.0,0.0,0.0
TPCCSubmitter.runTransaction,0.0,0.0,0.0,0.0,0.0
Table.compareTypeSave,0.2320009924176759,0.07100281121944614,0.026639978840016162,0.00840268617673444,0.33804646865387267
Table.getTemplateRow,0.18422124242563517,0.1525366429958983,0.02531809090841941,0.015672690435627128,0.37774866676558005
Table.validateConvertUpdateSequence,0.2826239296286749,0.0,0.026706833333028715,0.0,0.3093307629617036
TableData$1.compare,0.23146344980098302,0.0,0.0320095762334052,0.0,0.2634730260343882
TableData.addIndex,0.26712080666160515,0.0,0.04540060322017631,0.0,0.31252140988178145
TableData.addRow,0.07975272727586949,0.0,0.011665454545326418,0.0,0.0914181818211959
TableData.addRowsToIndex,0.0843495641454338,0.0,0.0100806794304782,0.0,0.09443024357591201
TableData.checkRowCount,0.07975272727586949,0.0,0.011665454545326418,0.0,0.0914181818211959
TableData.doLock,0.027200434782096872,0.0,0.004803260869622413,0.0,0.03200369565171929
TableData.lock,0.081037140009662,0.0,0.013728658157686103,0.0,0.0947657981673481
TableFilter.getSelect,0.03312113284555477,0.0,0.003951553957566559,0.0,0.03707268680312133
TableFilter.getValue,0.33418122071944445,0.07067868749982154,0.047658508502901376,0.00916031250017113,0.4616787292223385
TableFilter.isOk,0.13655287802958366,0.0,0.02096937531710627,0.0,0.15752225334668993
TableFilter.next,0.019627393939475896,0.0,0.0024781818179745287,0.0,0.022105575757450424
TableFilter.startQuery,0.03288766666688995,0.1,0.005377499999667634,0.013160000000304234,0.15142516666686182
TeeOutputStream.write,0.0,0.0,0.0,0.0,0.0
TestHarness.rmdir,0.007161333329956202,0.0,0.0005799999998998827,0.0,0.007741333329856085
Trace.isEnabled,0.33394538700015114,0.0,0.04856739530921503,0.0,0.38251278230936614
TraceSystem.<init>,0.056993333335008674,0.0,0.0031166666667559184,0.0,0.06011000000176459
TraceSystem.getTrace,0.02253164912332993,0.0,0.002945526315766313,0.0,0.025477175439096243
TreeCursor.<init>,0.09861936950860198,0.0,0.012933164710424315,0.0,0.11155253421902629
TreeCursor.get,0.0476708148144772,0.0,0.00715111111101039,0.0,0.05482192592548759
TreeCursor.next,0.21034374580808107,0.0,0.02492122510854449,0.0,0.23526497091662557
TreeIndex.add,0.20552124725827076,0.0,0.02778265302138886,0.0,0.2333039002796596
TreeIndex.balance,0.28173684036262703,0.0,0.04440014307878205,0.0,0.32613698344140907
TreeIndex.find,0.2047925683120177,0.0,0.027432059673608462,0.0,0.23222462798562615
TreeIndex.findFirstNode,0.2961326570045857,0.26054917362011876,0.042207358567822664,0.033299742263176633,0.6321889314557038
TreeIndex.next,0.484964138421321,0.0,0.06584743471369611,0.0,0.5508115731350172
TreeIndex.remove,0.0,0.0,0.0,0.0,0.0
TreeIndex.set,0.27459084591153515,0.0,0.046604388851265256,0.0,0.32119523476280043
URLClassPath$JarLoader$2.getInputStream,0.06484983333333122,0.0,0.00412999999995615,0.0,0.06897983333328737
URLJarFile.getEntry,0.018066333335203428,0.0,0.0027000000009138607,0.0,0.020766333336117288
UndoLog.getLast,0.020345087719569596,0.0,0.002510526315873313,0.0,0.02285561403544291
Value.cache,0.049829658169158075,0.0,0.006563807690513287,0.0,0.056393465859671366
Value.checkPrecision,0.04861111111111111,0.0,0.007273333332300858,0.0,0.05588444444341197
Value.compareTo,0.0,0.07499067024457089,0.0,0.009839466747448657,0.08483013699201955
Value.compareTypeSave,0.293563788505783,0.0,0.038207349213013844,0.0,0.33177113771879685
Value.convertTo,0.35935000961486524,0.008694269485918006,0.04361751720424299,0.0013178584816034196,0.4129796547866297
Value.convertToShort,0.04419146666671925,0.0,0.006618499999603955,0.0,0.0508099666663232
ValueBoolean.getBoolean,0.022793939393578155,0.0,0.003110909091033549,0.0,0.025904848484611706
ValueBoolean.getType,0.0349119999979545,0.0,0.005439999999604575,0.0,0.040351999997559077
ValueDecimal.equals,0.05297658888747618,0.0,0.005698333333364442,0.0,0.05867492222084062
ValueDecimal.get,0.06401415371066016,0.0,0.008522830701803872,0.0,0.07253698441246403
ValueDecimal.getPrecision,0.36684695383480903,0.0,0.03714299729517261,0.0,0.40398995112998165
ValueDecimal.getString,0.046956533333286636,0.0,0.007583999999527198,0.0,0.054540533332813834
ValueInt.compareSecure,0.06451411640329906,0.0,0.009487857143328433,0.0,0.07400197354662749
ValueInt.get,0.22499298587780076,0.0,0.01899515277758778,0.0,0.24398813865538854
ValueInt.getPrecision,0.04424767930320191,0.0,0.006517989749651912,0.0,0.050765669052853825
ValueInt.getString,0.9861965385150379,0.0,0.14440176801012491,0.0,1.1305983065251628
ValueShort.compareSecure,0.07520979168896977,0.0,0.00902323993728873,0.0,0.0842330316262585
ValueShort.getShort,0.0,0.0,0.0,0.0,0.0
ValueShort.getString,1.7645822322387583,0.0,0.26984266630102166,0.0,2.03442489853978
ValueString.equals,0.09797450845936537,0.0,0.013485680798152964,0.0,0.11146018925751833
ValueString.get,0.0338491424841801,0.0,0.00452474509809072,0.0,0.03837388758227082
ValueString.getType,0.035776000000057845,0.0,0.003423333333557821,0.0,0.039199333333615666
ValueStringBase.<init>,0.054791680000101525,0.0,0.0059776000003330405,0.0,0.060769280000434564
ValueTimestamp.<init>,0.017077757549048705,0.0,0.002197364569616831,0.0,0.019275122118665534
ValueTimestamp.convertScale,0.24968108213843665,0.0,0.033574528367366796,0.0,0.28325561050580345
ValueTimestamp.get,0.08771373333268759,0.0,0.009659999999591188,0.0,0.09737373333227878
ValueTimestamp.getNoCopy,0.03739422222295413,0.0,0.0028533333332032068,0.0,0.04024755555615734
ValueTimestamp.getString,5.670234285683812,0.0,0.8418703109700508,0.0,6.512104596653863
ViewCursor.next,0.02334583333383004,0.0,0.00405750000027183,0.0,0.02740333333410187
ZoneInfo.getOffsets,0.06992355555606385,0.0,0.01202222222302764,0.0,0.08194577777909148
ZoneInfo.getTimeZone,0.056993333335008674,0.0,0.0031166666667559184,0.0,0.06011000000176459
ZoneInfo.getTransitionIndex,0.04981789166383048,0.0,0.00842450000051637,0.0,0.058242391664346846
ZoneInfoFile.readOffset,0.05868866666666388,0.0,0.004396666666757989,0.0,0.06308533333342187
