method,package1,package2,dram1,dram2,energy
ASCIICaseInsensitiveComparator,0.0,0.02024333333247341,0.0,0.0029399999999036985,0.023183333332377105
BaseIndex,1.0325862559816363,0.8513135214224032,0.15209400002635023,0.11172715246824232,2.147720929898632
Benchmark,0.0,-0.30010404763050336,0.0,-0.02960428571471614,-0.3297083333452195
CacheObject,0.09098463772102765,0.0,0.012135070028259823,0.0,0.10311970774928747
Chaperone,0.0,0.10550539725658027,0.0,0.018828827134227767,0.12433422439080805
ClassPool,0.0,0.055015904766309714,0.0,0.004023333333587663,0.059039238099897376
ClassUtils,0.033738127876707,0.0,0.006212126595242604,0.0,0.0399502544719496
Column,0.401584762194465,0.25531495391017867,0.053079111932365905,0.03486496068961703,0.7448437887266266
Command,0.2417943749253244,0.15674361318350394,0.03316517003377195,0.019857030285230386,0.4515601884278307
CommandLineArgs,0.0,0.011677999995299615,0.0,0.0013599999995979788,0.013037999994897593
CompareMode,0.0,0.0,0.0,0.0,0.0
Comparison,0.28707362552115556,0.17616460520763821,0.03934186813234318,0.022752907426450406,0.5253330062875874
ConditionAndOr,0.019516484848943284,0.14661692966257547,0.0034618181816767897,0.018141211620418412,0.18773644431361394
ConditionExists,0.0,0.04683930302099097,0.0,0.005094315019420547,0.05193361804041152
ConfigFile,0.0,0.0,0.0,0.0,0.0
ConnectionInfo,0.0,0.009453666664841069,0.0,0.0009200000000014873,0.010373666664842556
ConstPool,0.0,-0.03482574999846595,0.0,-0.0034149999995255094,-0.03824074999799146
DacapoClassLoader,0.04914591519459608,0.0,0.007396532902265652,0.0,0.056542448096861736
DataType,0.01934287719236556,0.0,0.0028378947371445395,0.0,0.0221807719295101
Database,0.18387206292563651,0.0,0.025929287294481903,0.0,0.20980135022011842
DbObjectBase,0.0,0.057919791664365526,0.0,0.006840625000374226,0.06476041666473975
DecimalFormatSymbolsProviderImpl,0.0,0.0,0.0,0.0,0.0
Delete,0.0,0.2651294123744922,0.0,0.03639426140325948,0.3015236737777517
DisabledAlgorithmConstraints$Constraints,0.0,0.041591142857214436,0.0,0.0014228571427728244,0.04301399999998726
Driver,0.0,0.0805945872991634,0.0,0.007741904761912466,0.08833649206107587
Expression,0.07087318518811284,0.0,0.0114311111101415,0.0,0.08230429629825434
ExpressionColumn,0.08010001920329476,0.609198779298248,0.011961973122898345,0.07462605997747306,0.7758868316019142
ExpressionVisitor,0.06141488888857161,0.0,0.0092133333334156,0.0,0.07062822222198721
Handler,0.0,0.05240314285453807,0.0,0.005528571428710294,0.057931714283248364
IndexCursor,0.039442444443314635,0.48804919598701,0.005429999999857197,0.06030720835087966,0.5932288487810615
Insert,0.23703393235319012,-0.8939067358886715,0.03185105179576711,-0.08171065520346042,-0.7067324069431747
JdbcConnection,0.24573159795371188,0.40686301602526076,0.0348737977689846,0.05927953675723306,0.7467479485051903
JdbcPreparedStatement,0.1063747553310106,0.1671631760536264,0.013568197542366909,0.023822277716091245,0.3109284066430952
JdbcResultSet,0.1927259321238478,0.4149065822493933,0.025564789756046855,0.06759486404952224,0.7007921681788101
JdbcSQLException,0.0,0.0,0.0,0.0,0.0
JdbcStatement,0.0,0.24168450835403987,0.0,0.03982573728597145,0.2815102456400113
LocalResult,0.22259199316110898,0.13888335469148938,0.03403810256463773,0.022260425158854055,0.4177738755760902
LongVector,0.033738127876707,0.0,0.006212126595242604,0.0,0.0399502544719496
MathUtils,0.17449527971845274,0.0612129382681343,0.02528482127708648,0.008164999999819513,0.269158039263493
MemberrefInfo,0.0,0.028976249999686843,0.0,0.00411000000030981,0.03308624999999665
MethodAccessorGenerator,0.04945280100856344,0.0,0.006717535547552767,0.0,0.05617033655611621
MultiVersionCursor,0.6909437832889791,0.9056844468801931,0.1110998875188191,0.10916405083511796,1.8168921685231092
MultiVersionIndex,0.09089488888922562,0.2140331134373693,0.013928333333751652,0.029236981042390947,0.34809331670273747
OERandom,0.7567799162470691,-1.9814102549767472,0.09827935299528363,-0.21761607842351913,-1.3439670641579133
ObjectArray,0.643496160996993,0.7437059970658654,0.10089813492223107,0.10313406023278357,1.591234353217873
ObjectArray$ObjectArrayIterator,0.06026199999905658,0.0,0.008926666666714784,0.0,0.06918866666577136
ObjectUtils,0.07087318518811284,0.0,0.0114311111101415,0.0,0.08230429629825434
Parameter,0.0,0.0,0.0,0.0,0.0
Parser,0.061133718708935636,0.18732267736446703,0.006834735483662176,0.025323716577438524,0.2806148481345034
Prepared,0.04032544821253925,0.19272128080535006,0.005397674974071791,0.030041878160365545,0.2684862821523266
Query,0.0914171111087651,0.09252884750478799,0.014246666666521277,0.009859999999711957,0.20805262527978632
RandomUtils,0.037414666666639576,0.0,0.005317499999970702,0.0,0.042732166666610276
Resource,0.0,0.04843477777709873,0.0,0.0051533333331058705,0.0535881111102046
Row,0.7329534589414969,0.38093600400239874,0.10531743650535291,0.054947670722431605,1.27415457017168
ScanIndex,0.29749223560474547,1.0207048631721594,0.03964378963660925,0.13844060959162865,1.4962814980051429
Select,0.42658659483030326,0.6791222233625144,0.06955714473274993,0.08366372228679991,1.2589296852123675
Session,0.020052053333104898,0.3245686669202956,0.002601599999858687,0.051623468221700164,0.3988457884749594
SessionRemote,0.0,0.016703333335398283,0.0,0.0018333333333026124,0.018536666668700894
SimpleInsert,0.45610612246810794,0.2610706790108205,0.066266789705995,0.03330162963017452,0.8167452208150978
Standard,0.0,0.0,0.0,0.0,0.0
StringCache,0.02602858666641017,0.0,0.0034367999997145186,0.0,0.029465386666124686
TPCC,0.1729686256017771,0.1199470818149111,0.02619048681537293,0.013638201661732446,0.33274439589379357
Table,0.04340013333518679,0.1632199962936141,0.007598000000386189,0.02193269843041414,0.23615082805960122
TableData,0.22934573841273806,0.29086400943402047,0.02787672709023041,0.03837242358498169,0.5864588985219706
TableData$1,0.17182224000260857,0.22757394227078964,0.01966899999931532,0.029420920053753952,0.4484861023264675
TableFilter,0.3331992792354439,0.397019884821689,0.05460994393286334,0.060261003005925344,0.8450901109959216
Trace,0.03389545468250353,0.3511729109853682,0.0055126494325393755,0.04555725594286269,0.4361382710432738
TraceObject,0.0,0.0,0.0,0.0,0.0
TraceSystem,0.12890103375666506,0.021219888887976088,0.01846771035441952,0.0014700000000529038,0.17005863299911358
TransactionCommand,0.026563777777482755,0.0,0.003633333333305523,0.0,0.03019711111078828
TreeCursor,0.03645822222299304,0.035409625453320825,0.006333333333410943,0.004051124789771294,0.0822523057994961
TreeIndex,0.7942750634176606,0.23468764538298328,0.11030054864407074,0.0346843088980517,1.1739475663427663
URLClassPath$FileLoader,0.0,0.0,0.0,0.0,0.0
URLClassPath$JarLoader$2,0.0,0.041591142857214436,0.0,0.0014228571427728244,0.04301399999998726
UndoLog,0.0,0.12814252175752666,0.0,0.020957346976524086,0.14909986873405073
UndoLogRecord,0.13560616666715455,0.0,0.0286171875003068,0.0,0.16422335416746137
Utf8Info,0.0,0.0,0.0,0.0,0.0
Value,0.39342734396776313,0.2866065929258854,0.052086339709973534,0.038394463755602036,0.7705147403592242
ValueDecimal,0.2567458971430057,0.13889298888469864,0.03307257756852909,0.018387999999322346,0.4470994635955558
ValueInt,0.3272295706259425,0.4488378472028511,0.048162619599297685,0.05845551649006193,0.8826855539181533
ValueShort,0.41004388348183923,0.7573967929909139,0.05509564665521616,0.12110581659700034,1.3436421397249696
ValueString,0.0,0.22909615942140737,0.0,0.031724889360366604,0.260821048781774
ValueStringBase,0.0,0.07687448244485975,0.0,0.010554408298326129,0.08742889074318588
ValueStringFixed,0.0,0.14237351341569354,0.0,0.017564367816072728,0.15993788123176628
ValueTimestamp,2.445963563729967,2.832148153812897,0.32924750146096277,0.5339945793496109,6.141353798353438
