method,package1,package2,dram1,dram2,energy
AbstractCalendar,0.17891364224869288,0.0,0.03000040996654325,0.0,0.20891405221523612
Aggregate,0.0,0.0,0.0,0.0,0.0
BaseCalendar,0.08038446481426675,0.0,0.013643500000364805,0.0,0.09402796481463156
BaseCalendar$Date,0.01841222222234743,0.0,0.003189999999853575,0.0,0.021602222222201005
BaseIndex,2.6372227304351377,0.9265519714070511,0.3471467386532128,0.11993389637010624,4.030855336865508
Benchmark,0.7141553888917163,0.0,0.05930666666608886,0.0,0.7734620555578051
CalendarDate,0.07809157786333751,0.0,0.013042064393321135,0.0,0.09113364225665864
Chaperone,0.01520397435878971,0.0,0.0025923076921175467,0.0,0.017796282050907258
Column,0.7556427098640419,0.0,0.09647895166592228,0.0,0.8521216615299642
Command,0.12612403153455384,0.18973680870947665,0.015498585029099232,0.02500580775868482,0.35636523303181455
CommandContainer,0.07355739999960254,0.0,0.008022000000225186,0.0,0.08157939999982772
CommandLineArgs,0.06386299999818826,0.0,0.004519999999805198,0.0,0.06838299999799345
CompareMode,0.0,0.1313562816447737,0.0,0.01619316775878399,0.1475494494035577
Comparison,0.7881436762165202,0.11065427841492453,0.11168333061344192,0.014836012361586538,1.025317297606473
ConditionAndOr,0.1287663507859081,0.04949163301836867,0.016752893578771917,0.006529804414387018,0.2015406817974357
ConditionNot,0.03512232158434811,0.0,0.004160708709483659,0.0,0.03928303029383177
ConfigFile,0.09118666666715095,0.0,0.00705000000016298,0.0,0.09823666666731393
DacapoClassLoader,0.29174034442192787,0.0,0.022255945946276584,0.0,0.3139962903682044
Data,0.0,0.0,0.0,0.0,0.0
Database,0.033793166667843856,0.0,0.004329999999754364,0.0,0.03812316666759822
DecimalFormatSymbolsProviderImpl,0.0,0.0,0.0,0.0,0.0
Delete,0.018168166667843856,0.0,0.0019449999999778809,0.0,0.020113166667821737
Driver,0.02876783333340427,0.0,0.002440000000206055,0.0,0.031207833333610324
Engine,0.027316444445103918,0.0,0.002353333333707673,0.0,0.02966977777881159
Expression,0.04216657142803471,0.0,0.006330000000161817,0.0,0.04849657142819653
ExpressionColumn,0.4681232594722659,0.08159847789901623,0.06466684768067296,0.008852171275108648,0.6232407563270638
ExpressionVisitor,0.06371681152978213,0.0,0.00898089876695093,0.0,0.07269771029673307
FileURLConnection,0.08827044444559658,0.0,0.007666666667015913,0.0,0.0959371111126125
Handler,0.027316444445103918,0.0,0.002353333333707673,0.0,0.02966977777881159
IOUtils,0.0409087777776828,0.0,0.002753333333809375,0.0,0.04366211111149217
IndexCursor,0.694315753731571,0.12177333333432519,0.08774786738006685,0.015811999999156494,0.9196489544451195
Insert,0.17142324150990287,0.0,0.019388460839479725,0.0,0.1908117023493826
JdbcConnection,0.5672180261958025,0.0,0.08401777404477774,0.0,0.6512358002405803
JdbcPreparedStatement,0.13684612929261278,0.0,0.013297575757432506,0.0,0.1501437050500453
JdbcResultSet,0.2473960671611059,0.0,0.03818507536842585,0.0,0.28558114252953176
JdbcSQLException,0.0,0.08503219073561989,0.0,0.01114967155107521,0.0961818622866951
JdbcStatement,0.25885404909480253,0.0,0.031178923700760426,0.0,0.29003297279556295
Launcher$AppClassLoader,0.039225333332675895,0.0,0.0017599999998007356,0.0,0.04098533333247663
LocalResult,0.23569695324350992,0.058642666662732774,0.030094107592953417,0.00765199999974963,0.3320857274989457
MathUtils,0.11185619387927909,0.0,0.01550653061205755,0.0,0.12736272449133665
MemberrefInfo,0.04229066666448489,0.0,0.0027466666659974074,0.0,0.04503733333048229
MetaTable,0.0217895217397397,0.0,0.001150434782491926,0.0,0.022939956522231623
MethodAccessorGenerator,0.08133966666355262,0.0,0.012220000000525031,0.0,0.09355966666407765
MultiVersionCursor,1.3974645167699704,0.7177075824165132,0.17594974291279075,0.09184371860287542,2.3829655607021496
MultiVersionIndex,0.2809988676944645,0.15336161870649123,0.03702608587243473,0.018367294464315845,0.4897538667377063
OERandom,0.7427563323731377,0.0,0.0845574633673243,0.0,0.8273137957404619
ObjectArray,0.7773894513623051,0.15614866179472905,0.10886829980069583,0.018819689641589518,1.0612261025993195
ObjectArray$ObjectArrayIterator,0.17704926231414847,0.0,0.020455750215512845,0.0,0.19750501252966132
ObjectUtils,0.040418888888477035,0.0,0.0072266666668130905,0.0,0.047645555555290126
Operation,0.0,0.0,0.0,0.0,0.0
Parser,0.13361072946805364,0.0,0.010961014492798439,0.0,0.14457174396085207
Prepared,0.05966023984133188,0.016614772430274906,0.008469228044067186,0.0020788598426455533,0.08682310015831954
Query,0.17372710222235294,0.13430744762230287,0.018252471955418112,0.015198714285846411,0.34148573608592037
Record,0.11605839280912737,0.0,0.014526568627163476,0.0,0.13058496143629084
Row,1.5236865152896995,0.5996364986201786,0.21094216340060032,0.07668117789502579,2.410946355205504
SPILocaleProviderAdapter,0.0,0.0,0.0,0.0,0.0
ScanCursor,0.03799555555559453,0.0,0.0047755555553723955,0.0,0.042771111110966924
ScanIndex,0.98827278376108,0.0,0.12521156482700363,0.0,1.1134843485880837
Select,1.1450037619454927,0.0,0.16106311005692897,0.0,1.3060668720024218
Session,0.2801315794494428,0.0,0.047547893758402855,0.0,0.32767947320784563
SimpleInsert,0.23191702339167797,0.0,0.02741742105286552,0.0,0.2593344444445435
Standard,0.0,0.0,0.0,0.0,0.0
StringCache,0.3395720199480956,0.0,0.0341540318971164,0.0,0.373726051845212
StringUtils,0.0,0.0,0.0,0.0,0.0
TPCC,0.782265313888308,0.0,0.10795145833440578,0.0,0.8902167722227138
TPCC$3,0.06072999999984555,0.0,0.009529999999358552,0.0,0.0702599999992041
TPCCSubmitter,0.0,0.0,0.0,0.0,0.0
Table,0.6988461644719861,0.22353945421534444,0.07866490308146429,0.024075376612361567,1.0251258983811564
TableData,0.6192134001505368,0.0,0.09734411076861588,0.0,0.7165575109191527
TableData$1,0.23146344980098302,0.0,0.0320095762334052,0.0,0.2634730260343882
TableFilter,0.5563702922009486,0.17067868749982154,0.08043511959521636,0.022320312500475364,0.8298044117964618
TeeOutputStream,0.0,0.0,0.0,0.0,0.0
TestHarness,0.007161333329956202,0.0,0.0005799999998998827,0.0,0.007741333329856085
Trace,0.33394538700015114,0.0,0.04856739530921503,0.0,0.38251278230936614
TraceSystem,0.07952498245833861,0.0,0.006062192982522231,0.0,0.08558717544086084
TreeCursor,0.35663393013116024,0.0,0.0450055009299792,0.0,0.4016394310611394
TreeIndex,1.7477382972703575,0.26054917362011876,0.2542740379065634,0.033299742263176633,2.295861251060216
URLClassPath$JarLoader$2,0.06484983333333122,0.0,0.00412999999995615,0.0,0.06897983333328737
URLJarFile,0.018066333335203428,0.0,0.0027000000009138607,0.0,0.020766333336117288
UndoLog,0.020345087719569596,0.0,0.002510526315873313,0.0,0.02285561403544291
Value,0.7955460340676367,0.08368493973048889,0.10228050743967496,0.011157325229052077,0.9926688064668526
ValueBoolean,0.05770593939153266,0.0,0.008550909090638124,0.0,0.06625684848217078
ValueDecimal,0.530794229766232,0.0,0.058948161329868125,0.0,0.5897423910961002
ValueInt,1.3199513200993396,0.0,0.17940276768069302,0.0,1.4993540877800327
ValueShort,1.8397920239277281,0.0,0.2788659062383104,0.0,2.1186579301660386
ValueString,0.1675996509436033,0.0,0.021433759229801504,0.0,0.1890334101734048
ValueStringBase,0.054791680000101525,0.0,0.0059776000003330405,0.0,0.060769280000434564
ValueTimestamp,6.06210108092694,0.0,0.8901555372398289,0.0,6.952256618166769
ViewCursor,0.02334583333383004,0.0,0.00405750000027183,0.0,0.02740333333410187
ZoneInfo,0.176734780554903,0.0,0.02356338889029993,0.0,0.20029816944520293
ZoneInfoFile,0.05868866666666388,0.0,0.004396666666757989,0.0,0.06308533333342187
