method,package1,package2,dram1,dram2,energy
AbstractCalendar,0.21939904999035842,0.0,0.03840544520198562,0.0,0.25780449519234405
Aggregate,0.0,0.0,0.0,0.0,0.0
BaseCalendar,0.2581497898445194,0.06780999999803801,0.048190480950152624,0.010999999999815676,0.3851502707925257
BaseIndex,2.0091561180135047,0.48598826389566174,0.261072067744307,0.06358590382320832,2.819802353476682
CacheObject,0.0414428333339553,0.0,0.005432500000097207,0.0,0.046875333334052506
CalendarDate,0.049052072781862265,0.0,0.009014239788800843,0.0,0.05806631257066311
Chaperone,0.015502916665961191,0.0,0.004006249999899106,0.0,0.0195091666658603
CodeAttribute,0.046201585190128285,0.0,0.005844059812209227,0.0,0.052045645002337514
Column,0.8051245178495923,0.050211666670899525,0.10935447791219427,0.009485000000495349,0.9741756624331814
Command,0.5126906443011752,0.2056549337220246,0.06633881729998073,0.027479678029573566,0.812164073352754
CommandContainer,0.06892572715501405,0.04634458181866318,0.00963137705043929,0.006233181818143666,0.1311348678422602
CompareMode,0.08914465790991757,0.04621376666376212,0.013047999037467568,0.007612499999959253,0.1560189236111065
Comparison,0.7091355529946861,0.239801937130015,0.09329648955537774,0.03359632309884439,1.075830302778923
ConditionAndOr,0.2966856478405534,0.20823975283071658,0.033965876149533225,0.02751082511417304,0.5664021019349762
ConditionExists,0.057864700404581935,0.0,0.0055230068667303615,0.0,0.0633877072713123
ConditionNot,0.036125333333268034,0.0,0.003898181818041132,0.0,0.04002351515130917
Config$Size,0.026065975406603402,0.0,0.003594074329037617,0.0,0.029660049735641018
ConstraintReferential,0.0,0.0,0.0,0.0,0.0
Database,0.174218784084271,0.15467736667196733,0.02371616062789344,0.022013499999957276,0.37462581138408907
Delete,0.0,0.0,0.0,0.0,0.0
Engine,0.09271974700642255,0.0,0.012587495590360005,0.0,0.10530724259678255
Expression,0.060112139899027923,0.0,0.0069164536638153,0.0,0.06702859356284323
ExpressionColumn,0.2741482734184332,0.10939268420920517,0.03714819469023663,0.01842822368402458,0.43911737600189954
ExpressionVisitor,0.34862643587785586,0.0,0.04129899890101999,0.0,0.38992543477887587
FloatingDecimal,0.0,0.0,0.0,0.0,0.0
FormattedFloatingDecimal$1,0.0,0.0,0.0,0.0,0.0
Function,0.035923492063635154,0.0,0.0045047619047210675,0.0,0.04042825396835622
Gregorian,0.05280666666739206,0.0,0.011777777777751908,0.0,0.06458444444514397
Gregorian$Date,0.04736534831502437,0.0,0.007899938293931106,0.0,0.05526528660895547
IndexCondition,0.12414667528495954,0.0,0.01542358414334154,0.0,0.1395702594283011
IndexCursor,0.34283490103076636,0.0957505555610017,0.046076252942021084,0.015956666666776677,0.5006183762005658
Insert,0.546447177596836,0.0,0.0751308941521634,0.0,0.6215780717489994
JdbcConnection,0.20181927788992715,0.1444162999956461,0.03142043623831953,0.022003749999597248,0.39965976412349
JdbcPreparedStatement,0.08706367371481405,0.0,0.011938487432180282,0.0,0.09900216114699434
JdbcResultSet,0.05128674040054852,0.49389818131734753,0.010162001903162386,0.06291571384475719,0.6182626374658156
JdbcStatement,0.10419584462326592,0.0,0.013442737783594557,0.0,0.11763858240686048
LocalResult,0.27197678724052166,0.039111466670874506,0.036887434931872534,0.0032800000000861467,0.35125568884335484
MathUtils,0.15826524091541277,0.08304240000191687,0.02132575952054383,0.013544999999915791,0.2761784004377893
MultiVersionCursor,1.539874343122112,0.7113606899723818,0.19057786655142667,0.09543279166727785,2.537245691313198
MultiVersionIndex,0.34944116503760797,0.11991738624610226,0.045722460174344406,0.01652603174637767,0.5316070432044323
NativeConstructorAccessorImpl,0.0,0.06328885121174374,0.0,0.008456385316560788,0.07174523652830453
OERandom,0.10517950507253904,0.0,0.015472858628620585,0.0,0.12065236370115962
ObjectArray,0.683129897798824,0.06430963369227702,0.09039356673048739,0.010090828876898857,0.8479239270984873
ObjectArray$ObjectArrayIterator,0.03266518614502885,0.08355248718371747,0.004811599038324805,0.01442653846219727,0.13545581082926839
ObjectUtils,0.041504266683678535,0.0,0.004737903119760613,0.0,0.04624216980343915
Parameter,0.06704212842844032,0.0,0.008809307359663923,0.0,0.07585143578810424
Parser,0.04511430303065218,0.0,0.00493818181822655,0.0,0.050052484848878726
Prepared,0.02700799999972029,0.0292251228075066,0.004080000000006597,0.0033710526315285515,0.06368417543876205
Query,0.09475480974093026,0.0,0.010936762608394778,0.0,0.10569157234932504
Record,0.016344526751791294,0.0,0.00272535329624727,0.0,0.019069880048038564
Row,1.982389576016102,0.3570119088393503,0.26143358409100137,0.061779453282969236,2.6626145222294233
RowList,0.04192956238248228,0.028991714286218793,0.0062997157300978155,0.004088571428448111,0.081309563827247
ScanCursor,0.04303465353617887,0.0,0.006318481169357395,0.0,0.04935313470553627
ScanIndex,0.29464295277107666,0.1666371200983167,0.04253125928222676,0.024236120116192097,0.5280474522678122
Select,0.6045011041152524,0.556192666660839,0.0644423302154534,0.09528500000002774,1.3204211009915725
Session,0.15537037524231162,0.0852834404315771,0.02756639541943211,0.015306183597102285,0.2835263946904231
SimpleInsert,0.38251405794305493,0.0,0.05445521306598446,0.0,0.4369692710090394
SimpleRow,0.0,0.024827282051914014,0.0,0.003715384615367303,0.02854266666728132
Standard,0.0,0.0,0.0,0.0,0.0
StatementHelper,0.0392427978869775,0.0,0.005340261897395793,0.0,0.0445830597843733
StringCache,0.12896291706376523,0.0,0.014344105827403423,0.0,0.14330702289116865
TPCC,0.0,0.8213985381084806,0.0,0.12066614285643784,0.9420646809649185
TPCCSubmitter,0.0,0.0,0.0,0.0,0.0
Table,0.8606845012734001,0.055144021667487234,0.11280637246680492,0.008609047404928467,1.0372439428126208
TableData,0.3461925723213459,0.06429240740598524,0.040686495723745525,0.008481666666503533,0.45965314211758024
TableData$1,0.33613537400820714,0.0,0.0440028253607081,0.0,0.38013819936891524
TableFilter,0.7336862148335863,0.20819755555162878,0.0964945901846814,0.03691499999998389,1.0752933605698802
Trace,0.18415551478812295,0.11076663332448028,0.030863143847987464,0.018505499999628226,0.3442907919602189
TraceObject,0.03323559999892799,0.0,0.0043080000003101315,0.0,0.03754359999923812
TraceSystem,0.0,0.0,0.0,0.0,0.0
TreeCursor,0.13556242337032587,0.25304332083057185,0.019607832465852865,0.03822487499899125,0.4464384516657418
TreeIndex,1.710406734948257,0.4442141042120806,0.23035947733263998,0.0631109637857666,2.4480912802787445
URLClassPath,0.02914025495304225,0.0,0.0034248731318940713,0.0,0.03256512808493632
UndoLog,0.03671396413157745,0.0,0.005714180924938046,0.0,0.0424281450565155
Value,1.318446420606546,0.09506498245683725,0.17669532526616544,0.01194868421059749,1.6021554125401463
ValueBoolean,0.04259083679253371,0.035229035089733976,0.004793915787866972,0.004369473684403743,0.0869832613545384
ValueInt,0.2841808281372895,0.1891314019047543,0.03713936150832785,0.033006889951973664,0.5434584815023453
ValueShort,0.27190364175332904,0.0,0.03813503710635602,0.0,0.31003867885968506
ValueString,0.08774316666858795,0.0,0.011474999999942762,0.0,0.09921816666853071
ValueStringBase,0.0,0.09893406349354855,0.0,0.013409761905071111,0.11234382539861966
ValueStringFixed,0.040717878787704234,0.0,0.005545454545371643,0.0,0.046263333333075876
ViewCursor,0.12662819119532087,0.0,0.014306387730987916,0.0,0.14093457892630878
ZoneInfo,0.043875428572175135,0.0661403571430128,0.007782857143735911,0.00962678571431752,0.12742542857324138
