method,package1,package2,dram1,dram2,energy
Aggregate.updateAggregate,0.0,0.0,0.0,0.0,0.0
AggregateData.getValue,0.0,0.0,0.0,0.0,0.0
BaseIndex.compareKeys,0.0,0.07126866667143379,0.0,0.011284999999891928,0.08255366667132572
BaseIndex.compareRows,1.407525872851832,1.7448623580249598,0.1839677340040044,0.2680874821699249,3.6044434470507207
BaseIndex.compareValues,0.36359948504758155,1.1817716476406313,0.046179392853388075,0.17294614285761087,1.7644966683992116
Column.convert,0.08405205000032462,0.0,0.010283499999801885,0.0,0.0943355500001265
Column.getColumnId,0.11132015083112454,0.7963814871769266,0.01562907778456043,0.1245033846182009,1.0478341004108125
Column.updateSequenceIfRequired,0.06942614583219134,0.0,0.010947500000232441,0.0,0.08037364583242378
Column.validateConvertUpdateSequence,0.14887791932392358,0.0,0.021934338300347342,0.0,0.17081225762427094
Command.executeQueryLocal,0.0,0.0,0.0,0.0,0.0
Command.executeUpdate,0.26560474029779424,0.06095896998220396,0.03177324948277681,0.008078731353485042,0.36641569111626004
CompareMode.compareString,0.036367851850593935,0.08734124999682535,0.004662222221937823,0.012307499999451466,0.14067882406880858
Comparison.compareNotNull,0.0,0.0,0.0,0.0,0.0
Comparison.getValue,0.1611270067772419,0.4090576666688624,0.02318387028780266,0.0657850000000811,0.659153543733988
ConditionAndOr.getValue,0.0515670581195781,0.07851166666174927,0.007303076923251972,0.016129999999975553,0.1535118017045549
ConditionAndOr.isEverything,0.04279762121245077,0.08280433334099749,0.002189090909076075,0.01501500000025165,0.14280604546277598
ConditionNot.getValue,0.04529308333167137,0.0,0.005110624999967209,0.0,0.050403708331638576
ConfigFile.<init>,0.07753499999671476,0.0,0.009179999999711676,0.0,0.08671499999642643
ConstPool.getItem,0.11892355555513252,0.0,0.01547555555481705,0.0,0.13439911110994957
ConstraintReferential.checkRowOwnTable,0.0,0.0,0.0,0.0,0.0
Database.isReconnectNeeded,0.03596500000094238,0.13836842423585372,0.006116250000559376,0.018300909090557427,0.1987505833279129
Database.openDatabase,0.047281888891625885,0.0,0.003205416666686587,0.0,0.050487305558312476
Delete.update,0.13292539394061859,0.0,0.016841645022032288,0.0,0.14976703896265087
Engine.openSession,0.040143809523821496,0.0,0.006262857142636286,0.0,0.046406666666457784
Expression.getBooleanValue,0.17897833333422783,0.0,0.02431428571504685,0.0,0.20329261904927468
ExpressionColumn.getValue,0.13868088889074795,0.33958352861157454,0.020222666666132493,0.051363481500477315,0.5498505656689323
ExpressionColumn.isEverything,0.1599886386577294,0.052428999993329235,0.027281352768485874,0.008184999999987971,0.24788399141953246
ExpressionVisitor.<init>,0.0,0.048356000000300506,0.0,0.007579999999628247,0.05593599999992875
ExpressionVisitor.get,0.015272333333592137,0.0,0.0031599999998029988,0.0,0.018432333333395137
ExpressionVisitor.getQueryLevel,0.047442236110530035,0.0,0.00433333333355929,0.0,0.05177556944408933
IndexCondition.getCurrentValue,0.0,0.06075033333036117,0.0,0.00938499999938358,0.07013533332974475
IndexCursor.find,0.22364130555676334,0.13584819999911513,0.023147499999797417,0.0219530000010612,0.4045900055567371
IndexCursor.getSearchRow,0.024841333330793226,0.0,0.0040300000000570435,0.0,0.02887133333085027
IndexCursor.next,0.0,0.05994266666731654,0.0,0.011346923076556638,0.07128958974387317
Insert.insertRows,0.1334611249981208,0.0,0.01649625000072774,0.0,0.14995737499884854
JdbcConnection.checkClosed,0.21352419359348457,0.31815186666450856,0.03410888235291468,0.048533000000315955,0.6143179426112236
JdbcConnection.rollback,0.0,0.0,0.0,0.0,0.0
JdbcPreparedStatement.setParameter,0.11179494999996677,0.0,0.016557000000830158,0.0,0.1283519500007969
JdbcPreparedStatement.setString,0.020141470588842983,0.0,0.003573529412011232,0.0,0.023715000000854216
JdbcResultSet.checkClosed,0.0,0.1785276666729866,0.0,0.030544999999619904,0.20907266667260652
JdbcResultSet.checkOnValidRow,0.0,0.08768733332787329,0.0,0.01435999999982111,0.1020473333276944
JdbcResultSet.getString,0.03132116666893125,0.0,0.0047099999998560325,0.0,0.03603116666878728
JdbcResultSet.next,0.0,0.10345466667301176,0.0,0.016795000000153472,0.12024966667316522
JdbcResultSet.nextRow,0.040222166665140925,0.0,0.005300000000109624,0.0,0.04552216666525055
JdbcStatement.checkClosed,0.0797134052902933,0.05588111110652486,0.013044222221982654,0.010093333333012804,0.1587320719518136
JdbcStatement.executeQuery,0.07225631428445922,0.0,0.0066275714281281185,0.0,0.07888388571258734
LocalResult.<init>,0.028227238095409814,0.0,0.005439999999777812,0.0,0.033667238095187624
LocalResult.addRow,0.0629608589750625,0.12656666666831975,0.010336730769034685,0.013409999999566937,0.2132742564119839
LocalResult.done,0.0,0.06970233333898553,0.0,0.010849999999967016,0.08055233333895254
LocalResult.next,0.07554077037159543,0.17812066667344573,0.01401800000075363,0.028809999999187607,0.29648943704498243
LocalResult.setLimit,0.018507419353550027,0.0,0.0019548387095827853,0.0,0.020462258063132812
MathUtils.compare,0.0,0.07579353333567268,0.0,0.010389999999703529,0.0861835333353762
MathUtils.convertLongToInt,0.050992121212016864,0.0,0.005904545454210496,0.0,0.05689666666622736
MultiVersionCursor.getSearchRow,0.04291666666783082,0.1561617710873196,0.0058277777774222795,0.023412849698411238,0.22831906523098391
MultiVersionCursor.loadNext,0.12909408302798825,0.11353373709455239,0.013268118948349386,0.016897043375188825,0.27279298244607886
MultiVersionCursor.next,0.37083500898392363,0.36579478788189596,0.05398632929203666,0.05932318181762776,0.8499393079754839
MultiVersionCursor.step,0.42219980102361054,0.2906396520336106,0.06858130952280164,0.04420946740876204,0.8256302299887848
MultiVersionIndex.add,0.05477247453420029,0.0,0.007130934534307877,0.0,0.061903409068508164
MultiVersionIndex.compareRows,0.02124449122889098,0.08619773332999708,0.0028547368419822305,0.013222999999804112,0.12351996140067441
MultiVersionIndex.find,0.0,0.2193803333454222,0.0,0.0352400000004612,0.2546203333458834
MultiVersionIndex.getTable,0.0,0.0,0.0,0.0,0.0
MultiVersionIndex.removeIfExists,0.0,0.20412166666452927,0.0,0.030040000000250682,0.23416166666477994
OERandom.randomData,0.053935333334361305,0.0,0.005211714285992672,0.0,0.05914704762035398
OERandom.randomDecimalString,0.03933747747765124,0.0,0.0036054054047830564,0.0,0.042942882882434294
OERandom.randomInt,0.07546047436242076,0.0,0.01207615384602179,0.0,0.08753662820844255
OERandom.randomIntPerm,0.05114755555566969,0.0,0.007159999999405245,0.0,0.058307555555074934
OERandom.randomNString,0.06478194444247896,0.0,0.009033333333516365,0.0,0.07381527777599534
ObjectArray$ObjectArrayIterator.hasNext,0.07119015349900959,0.0,0.00794361684756178,0.0,0.07913377034657137
ObjectArray$ObjectArrayIterator.next,0.0,0.06034333333082033,0.0,0.009500000000116415,0.06984333333093674
ObjectArray.add,0.10367288889246992,0.0,0.011324000000604427,0.0,0.11499688889307436
ObjectArray.get,0.09326780769268411,0.0,0.017031538461546564,0.0,0.11029934615423068
ObjectArray.iterator,0.045092121211134574,0.0,0.00476136363652062,0.0,0.04985348484765519
ObjectArray.sort,0.31543596738857427,0.05133466666641956,0.037548599513132074,0.007584000000012262,0.4119032335681381
ObjectUtils.arrayCopy,0.09164118614813746,0.0,0.010672034632156005,0.0,0.10231322078029347
Operation.getValue,0.0,0.023081080756333392,0.0,0.002940362698112602,0.026021443454445993
Parameter.isEverything,0.0,0.0,0.0,0.0,0.0
Parameter.setValue,0.05531945833263308,0.0,0.00734249999959502,0.0,0.0626619583322281
Parser.isToken,0.0,0.0,0.0,0.0,0.0
Parser.quoteIdentifier,0.04593584615325269,0.0,0.005021538461733144,0.0,0.050957384614985834
Parser.readIf,0.032958962963204136,0.0,0.004653333333273487,0.0,0.037612296296477624
Prepared.checkCanceled,0.05426024999906076,0.0,0.008081250000032014,0.0,0.062341499999092775
Prepared.setCurrentRowNumber,0.0,0.06114906667110821,0.0,0.00991199999989476,0.07106106667100297
Query.getMaxDataModificationId,0.0,0.0,0.0,0.0,0.0
Query.getParameterValues,0.024997631579090168,0.0,0.0030184210526497555,0.0,0.028016052631739924
Query.isEverything,0.06427413333246174,0.0,0.006766000000061468,0.0,0.07104013333252321
Query.query,0.025649575756467653,0.2621988666651305,0.003134545454734259,0.04412699999981365,0.335109987876146
Record.setDeleted,0.06266300000424962,0.0,0.009500000000116415,0.0,0.07216300000436604
Row.<init>,0.01538093333365396,0.0,0.0016080000001238658,0.0,0.016988933333777826
Row.getValue,1.2242379579282174,1.0436733939368188,0.16525475221946928,0.16459222652911387,2.59775833061362
Row.isEmpty,0.045375238096485616,0.12656666666831975,0.006994285714297022,0.013409999999566937,0.19234619047866933
Row.setValue,0.02121988888959296,0.0,0.003594999999930021,0.0,0.024814888889522983
RowList.next,0.1524183333329145,0.0,0.019359999998414423,0.0,0.17177833333132891
SHA256.getHash,0.0,0.04576494389572082,0.0,0.006862491587650672,0.05262743548337149
ScanCursor.next,0.0,0.051533999998355284,0.0,0.008119999999811018,0.0596539999981663
ScanIndex.getNextRow,0.9134059163346635,0.08388910256326199,0.12334886624974709,0.012074615384848678,1.1327185005325213
ScanIndex.incrementRowCount,0.02337226666859351,0.0,0.0027179999994890146,0.0,0.026090266668082524
Select.getCurrentGroup,0.0,0.04837253333535045,0.0,0.008704000000337449,0.0570765333356879
Select.isEverything,0.05249979999870347,0.06777333333157003,0.005667666665815179,0.011472000000261079,0.13741279999634975
Select.queryFlat,0.41613505204467777,1.1893959477791587,0.06885227990615192,0.19309283916077696,1.8674761188907654
Select.queryWithoutCache,0.02097583333306829,0.0,0.004050000000158129,0.0,0.02502583333322642
Session.getTrace,0.0,0.0,0.0,0.0,0.0
Session.hashCode,0.009727117116903878,0.0,0.0014729729729616985,0.0,0.011200090089865576
Session.isClosed,0.09793077777814889,0.0,0.016439583333522023,0.0,0.11437036111167091
Session.isReconnectNeeded,0.2247455666664228,0.0747479999990901,0.03588128571405139,0.01223999999941346,0.34761485237897777
Session.log,0.0,0.0,0.0,0.0,0.0
SessionRemote.connectEmbeddedOrServer,0.06731295238049434,0.0,0.008588571428498695,0.0,0.07590152380899304
SimpleInsert.customerTable,0.09036841456475904,0.0,0.014256143790300692,0.0,0.10462455835505974
SimpleInsert.orderTable,0.2133859622987464,0.0,0.02675681547639359,0.0,0.24014277777513998
SimpleInsert.populateForOneWarehouse,0.05347302564246675,0.0,0.0065599999999484205,0.0,0.060033025642415166
SimpleInsert.stockTable,0.10699067578187174,0.0,0.015929709402238187,0.0,0.12292038518410993
Standard.paymentById,0.0,0.0,0.0,0.0,0.0
StatementHelper.getAddress,0.0,0.0,0.0,0.0,0.0
StatementHelper.reset,0.0,0.0,0.0,0.0,0.0
StringCache.get,0.04643692307544346,0.0,0.008221538462049257,0.0,0.05465846153749272
TPCC.calculateSumDB,0.0,1.163449393452696,0.0,0.17561748484699222,1.3390668782996882
TPCCSubmitter.runTransactions,0.0,0.0,0.0,0.0,0.0
Table.compareTypeSave,0.09446316666905355,0.2051593333308119,0.012316250001049411,0.03254499999942102,0.3444837500003359
Table.getTemplateRow,0.1726328472700132,0.14027900000413257,0.028752618949010194,0.02036500000031083,0.3620294662234668
TableData$1.compare,0.20656157866228736,0.23068866667551144,0.025627904946122982,0.03385499999943325,0.496733150283355
TableData.addIndex,0.09766591812783967,0.12963833332954283,0.012256608186926208,0.01848000000063621,0.25804085964494494
TableData.addRow,0.10940839377180464,0.0,0.013376947496067652,0.0,0.1227853412678723
TableData.addRowsToIndex,0.15257430555478396,0.05133466666641956,0.017001041666642576,0.007584000000012262,0.22849401388785837
TableData.doLock,0.05460199999943143,0.0,0.007968000000255415,0.0,0.06256999999968685
TableData.lock,0.0,0.06862366666609887,0.0,0.010800000000017462,0.07942366666611633
TableFilter.getValue,0.2732795394748169,0.31185533333336934,0.04065804122216564,0.04349961538462547,0.6692925294149773
TableFilter.isOk,0.0,0.06433133332757279,0.0,0.009520000000217502,0.0738513333277903
TableFilter.next,0.0213333333337528,0.05729166666666665,0.002552380952000108,0.009520000000217502,0.09069738095263706
TableFilter.startQuery,0.047750730158960704,0.06862366666609887,0.008038095237838754,0.010800000000017462,0.1352124920629158
TestHarness.main,0.0762736666680818,0.0,0.009485000001101676,0.0,0.08575866666918348
Trace.isEnabled,0.06777158572304508,0.0,0.011466352459664663,0.0,0.07923793818270974
TraceObject.debugCodeCall,0.10212278095159921,0.0583290000067791,0.016375142857959005,0.009510000000470123,0.18633692381680741
TraceObject.logAndConvert,0.0,0.02197277777735575,0.0,0.0032055555554203843,0.025178333332776137
TraceSystem.getTrace,0.054413439154162864,0.05187975000080769,0.008682407407508197,0.0071550000002389424,0.12213059656271769
TransactionCommand.update,0.02506509090854899,0.0,0.002410909091298835,0.0,0.027475999999847827
TreeCursor.getSearchRow,0.042385555554776334,0.0,0.00481666666654212,0.0,0.04720222222131845
TreeCursor.next,0.05844575757664368,0.014636200000920025,0.005927272726914838,0.0021699999999934033,0.08117923030447194
TreeIndex.add,0.19848393257451816,0.02744838095081615,0.024139283266610356,0.005670000000030821,0.2557415967919755
TreeIndex.balance,0.050992121212016864,0.2058677333339195,0.005904545454210496,0.028441999999146594,0.29120639999929343
TreeIndex.child,0.033520140350191734,0.0,0.0045810526312459595,0.0,0.038101192981437694
TreeIndex.find,0.08838799999944899,0.12709533332963474,0.011148888888850772,0.019015000000460223,0.24564722221839472
TreeIndex.findFirstNode,0.30212266854750025,0.44494001921572846,0.03932940559255298,0.0693337017614443,0.8557257951172259
TreeIndex.next,0.20957147809709126,0.5833658169832049,0.025696759105034987,0.09557857329466196,0.9142126274799931
TreeIndex.set,0.03996933333248653,0.0,0.006214285714252452,0.0,0.04618361904673898
TreeNode.isFromLeft,0.0910440000031182,0.054036333337232165,0.009629999999257658,0.00892000000021653,0.16363033333982455
URLClassPath$JarLoader.access$700,0.07145185185018581,0.0,0.009728888889421122,0.0,0.08118074073960693
UndoLog.removeLast,0.04549973333390274,0.0,0.0054559999999279785,0.0,0.050955733333830716
UndoLog.size,0.053578112103444986,0.0,0.008185357142464354,0.0,0.061763469245909336
UndoLogRecord.commit,0.03884964102717976,0.0,0.006646153846164593,0.0,0.045495794873344354
Value.cache,0.10618140201966936,0.0,0.017360343433534788,0.0,0.12354174545320415
Value.checkPrecision,0.049285833332154035,0.0,0.006775000000642547,0.0,0.05606083333279658
Value.compareTo,0.08725095833169352,0.0,0.01476000000066388,0.0,0.1020109583323574
Value.compareTypeSave,0.5212205232743776,0.29748120000003836,0.06302535244800983,0.04195900000013353,0.9236860757225593
Value.convertTo,0.24705981083473835,0.0,0.03232698954839047,0.0,0.2793868003831288
ValueBoolean.get,0.06180824999986119,0.0,0.008154999999836338,0.0,0.06996324999969752
ValueBoolean.getBoolean,0.0,0.04764000000044083,0.0,0.008271999999609154,0.055912000000049984
ValueDecimal.getPrecision,0.04029333333407218,0.0,0.00608250000065406,0.0,0.04637583333472624
ValueInt.compareSecure,0.16304527850790324,0.324756914287545,0.015297170092547259,0.050434142858302076,0.5535335057462976
ValueShort.compareSecure,0.19971203456067638,0.2972469047526829,0.021636272710368908,0.04622000000095536,0.5648152120246835
ValueShort.get,0.0635399999994964,0.0,0.009328125000441409,0.0,0.0728681249999378
ValueString.compareSecure,0.12728391666648045,0.0,0.018703125000229193,0.0,0.14598704166670964
ValueString.equals,0.06197960655630536,0.0,0.010628852459600149,0.0,0.07260845901590551
ValueStringFixed.get,0.08603895555485602,0.0,0.014583000000473273,0.0,0.1006219555553293
ValueStringFixed.trimRight,0.0635399999994964,0.0,0.009328125000441409,0.0,0.0728681249999378
ValueTimestamp.convertScale,0.08132839285763256,0.0,0.008776785714640967,0.0,0.09010517857227353
ViewCursor.next,0.035115555555320394,0.0,0.003489999999955115,0.0,0.038605555555275506
ZoneInfoFile.<clinit>,0.04130628571285688,0.0,0.0062571428570663565,0.0,0.04756342856992324
