method,package1,package2,dram1,dram2,energy
AbstractCalendar,0.41549351973649457,0.0,0.07091087806618022,0.0,0.4864043978026748
BaseCalendar,0.35780384950109784,0.0,0.05483287475870509,0.0,0.4126367242598029
BaseCalendar$Date,0.03489033129547203,0.0,0.004736085324282557,0.0,0.03962641661975459
BaseIndex,3.647908719097353,0.43359357325798936,0.46596393108054046,0.058469395534696864,4.605935618970579
Benchmark,0.11700986060752643,0.0,0.015037363636766905,0.0,0.13204722424429333
CacheObject,0.09047877324422443,0.0075175000007826984,0.011251131332511863,0.0010200000001532317,0.11026740457767223
CalendarDate,0.10737701717996737,0.0,0.019192410944337615,0.0,0.126569428124305
Chaperone,0.10240926477257248,0.0,0.015743899962323234,0.0,0.1181531647348957
Column,0.8032488404376725,0.0,0.10219817197671688,0.0,0.9054470124143894
Command,0.19623264381233746,0.2400469594190885,0.02448702770520992,0.03266784539553021,0.4934344763321661
CommandContainer,0.1699141518799019,0.0,0.019006843294073688,0.0,0.18892099517397556
CompareMode,0.05269497234719086,0.032165500000701286,0.006819622455752097,0.004605000000083237,0.09628509480372749
Comparison,0.34021053443851235,0.0,0.045438949530002604,0.0,0.38564948396851495
ConditionAndOr,0.3087127784002665,0.0,0.0426332320157944,0.0,0.3513460104160609
ConditionNot,0.07673071608228471,0.0,0.00968811157304424,0.0,0.08641882765532895
ConnectionInfo,0.0921427500000694,0.0,0.006492499999391535,0.0,0.09863524999946094
ConstPool,0.05595129166795232,0.0,0.00481249999938882,0.0,0.06076379166734114
ConstraintReferential,0.0,0.0,0.0,0.0,0.0
Database,0.19647513114062143,0.0,0.028347878497667595,0.0,0.22482300963828902
Delete,0.07078846781646872,0.0,0.010416136667009536,0.0,0.08120460448347826
Driver,0.04907629999846297,0.0,0.006327999999727278,0.0,0.05540429999819025
Engine,0.05595129166795232,0.0,0.00481249999938882,0.0,0.06076379166734114
Expression,0.10730656271126218,0.0,0.011902148079009217,0.0,0.1192087107902714
ExpressionColumn,0.3854536176120699,0.054579245739606444,0.06275554932734737,0.007987866504793616,0.5107762791838174
ExpressionVisitor,0.17665163879798632,0.22100795833163528,0.019175469327996457,0.02985874999982722,0.4466938164574453
Function,0.03940846376697637,0.0,0.004860869565111014,0.0,0.04426933333208738
H2,0.04907629999846297,0.0,0.006327999999727278,0.0,0.05540429999819025
IndexCondition,0.2111577296192073,0.0,0.030049994597341045,0.0,0.24120772421654835
IndexCursor,1.0167663770769673,0.032531714287220626,0.14386387875590353,0.004649999999985863,1.1978119701200771
Insert,0.350372285366651,0.0,0.044939356286516643,0.0,0.3953116416531676
JdbcConnection,0.5174163221284657,0.0,0.07983460071414736,0.0,0.597250922842613
JdbcPreparedStatement,0.07412490058649907,0.0,0.008714138899762408,0.0,0.08283903948626148
JdbcResultSet,0.23310340486013534,0.0,0.03091560532002877,0.0,0.2640190101801641
JdbcStatement,0.20598884147209998,0.0,0.02671367444981885,0.0,0.23270251592191882
LocalResult,0.2960799382242022,0.0,0.040534528324489644,0.0,0.33661446654869187
MathUtils,0.17364273587921622,0.0,0.022195376474277474,0.0,0.1958381123534937
MultiVersionCursor,1.4841155751492139,0.5416859674301857,0.20943851274733968,0.07683487377996912,2.3120749291067084
MultiVersionIndex,0.1731683256052584,0.014048333335570836,0.02203334069640419,0.0020400000000032983,0.21128999963723674
OERandom,0.09409001838077842,0.0,0.014381271168373204,0.0,0.10847128954915163
ObjectArray,0.6397333381138298,0.0,0.07934232003727748,0.0,0.7190756581511073
ObjectArray$ObjectArrayIterator,0.07045653877334648,0.0,0.011019206100103129,0.0,0.08147574487344961
ObjectUtils,0.02870860905831579,0.0,0.00315159433648644,0.0,0.03186020339480223
Parameter,0.1022884986983436,0.0,0.012119070749386472,0.0,0.11440756944773006
Parser,0.08614331323927349,0.0070418750001408625,0.01051932501565151,0.0005099999998492422,0.1042145132549151
Prepared,0.09824769195845295,0.0,0.012621276040912807,0.0,0.11086896799936576
Query,0.3010339304368159,0.0,0.04127005633485267,0.0,0.3423039867716686
Record,0.13553591781349794,0.0,0.02046919482426188,0.0,0.15600511263775982
Row,2.089872011601784,0.26526467042687374,0.279217307176013,0.03670439724632097,2.671058386450992
ScanCursor,0.10259644204074886,0.0,0.016000435385342963,0.0,0.11859687742609182
ScanIndex,0.6031699620281157,0.0,0.07888227829263449,0.0,0.6820522403207502
Select,0.9517372716102488,0.0649533812523177,0.12342397655752557,0.009988920875675105,1.1501035502957673
Session,0.6177939983074909,0.0,0.09195877290269294,0.0,0.7097527712101839
SessionFactoryEmbedded,0.06940966666782818,0.0,0.004812500000449896,0.0,0.07422216666827808
SignatureFileVerifier,0.08697313333323109,0.0,0.011921000000196118,0.0,0.09889413333342721
SimpleInsert,0.31921115370427133,0.0,0.041296392470005654,0.0,0.360507546174277
Standard,0.027024512820226405,0.0,0.003398461538614729,0.0,0.030422974358841132
StatementHelper,0.0,0.0,0.0,0.0,0.0
StringCache,0.2544043921337027,0.0,0.03393285085579342,0.0,0.28833724298949615
TPCC,1.263452104374228,0.0,0.15353566413665548,0.0,1.4169877685108834
Table,0.5813881159035256,0.023452749996067727,0.0798616588091639,0.0010350000002290474,0.6857375247089863
TableData,0.45478397901152107,0.0,0.0599153775785402,0.0,0.5146993565900613
TableData$1,0.13062789289878185,0.0,0.013887740241966156,0.0,0.144515633140748
TableFilter,0.40077536960996946,0.0,0.049415584592915014,0.0,0.45019095420288446
Trace,0.17204920984017794,0.0,0.022368718084662297,0.0,0.19441792792484022
TraceObject,0.0,0.03834943373697301,0.0,0.004950321758058816,0.04329975549503183
TraceSystem,0.09000971604761827,0.0,0.007859866423583193,0.0,0.09786958247120146
TransformerManager,0.05136926666721895,0.0,0.005470499999743575,0.0,0.05683976666696253
TreeCursor,0.20967115784840212,0.0054140740717735355,0.028875838876594572,0.0007472222222093952,0.2447082930189796
TreeIndex,1.3155179941111927,0.20878484166775402,0.17233754088458708,0.02949625000052644,1.7261366266640603
TreeNode,0.026840696680158482,0.0,0.003241311565327616,0.0,0.030082008245486097
UndoLog,0.061158960780929826,0.0,0.007906127377717622,0.0,0.06906508815864745
Update,0.04131047363065768,0.026467384616784655,0.0061112569833865595,0.003341538461450583,0.07723065369227948
Value,0.846327484671912,0.0625509523791455,0.10862876758373556,0.008871071428508175,1.0263782760633011
ValueBoolean,0.069579304182174,0.0,0.011355154727579806,0.0,0.08093445890975381
ValueDecimal,0.08190087807795404,0.0,0.00946627479469485,0.0,0.09136715287264889
ValueExpression,0.034884585510010294,0.0,0.0052138833030967455,0.0,0.04009846881310704
ValueInt,0.6012653314733984,0.04945200000333392,0.07353784206350178,0.0072266666668130905,0.7314818402070472
ValueShort,0.29392077429111485,0.0,0.04263556373185361,0.0,0.33655633802296847
ValueString,0.11623047329665871,0.0,0.012636682255712461,0.0,0.12886715555237116
ValueStringFixed,0.041453166667148864,0.0,0.0059250000000853715,0.0,0.04737816666723423
ViewCursor,0.07299372385346724,0.0,0.008548291932676678,0.0,0.08154201578614392
ZoneInfo,0.2557890929155102,0.0,0.03764384848944321,0.0,0.2934329414049534
