method,package1,package2,dram1,dram2,energy
java.io,0.3664575018537747,0.0,0.04393883333422881,0.0,0.4103963351880035
java.lang,2.9245387439960235,5.737149538390824,0.480646295799907,0.8905701506634686,10.032904728850223
java.lang.ref,0.005791979166739718,0.0,0.0008375000000645135,0.0,0.006629479166804231
java.math,0.5522864484615516,0.25774915399740594,0.07349994247778624,0.039692933642667266,0.923228478579411
java.security,0.038126533332979315,0.0,0.00437399999985549,0.0,0.04250053333283481
java.sql,0.40277768234405725,0.6000212991552522,0.06714778418913776,0.09117391025745777,1.161120675945905
java.util,1.2396347889112513,0.9764136606044377,0.18656712546446688,0.15063907499223464,2.5532546499723905
java.util.concurrent.atomic,0.28391500207693743,0.0,0.041697124925572586,0.0,0.32561212700251
java.util.regex,0.0576035555536186,0.0,0.007266666666611046,0.0,0.06487022222022965
java.util.zip,0.49947100000038813,0.0,0.06393000000025494,0.0,0.5634010000006431
