method,package1,package2,dram1,dram2,energy
AbstractStringBuilder,0.0,1.8413650498297451,0.0,0.2877318373535294,2.1290968871832745
ArrayList,0.0,0.03205297777894884,0.0,0.005066666666728755,0.03711964444567759
ArrayList$Itr,0.0,0.03372183333218951,0.0,0.004420000000209257,0.03814183333239877
Arrays,0.0,1.0517633477188246,0.0,0.16956877884711857,1.2213321265659431
AtomicLong,0.0,0.19721444487435066,0.0,0.0252520318973376,0.22246647677168827
AtomicReferenceFieldUpdater$AtomicReferenceFieldUpdaterImpl,0.0,0.05439259468530699,0.0,0.007779929070994506,0.062172523756301494
BigDecimal,0.04890025000052199,0.48031733533932797,0.006486136364153274,0.06533253914176924,0.6010362608457726
BigInteger,0.0,0.19937226347240034,0.0,0.02472338922295049,0.2240956526953508
Boolean,0.0,0.0,0.0,0.0,0.0
BufferedInputStream,0.0,0.13572836793790094,0.0,0.019566004098584173,0.1552943720364851
Class,0.0,0.05439259468530699,0.0,0.007779929070994506,0.062172523756301494
ClassLoader,0.0,0.1781901321380953,0.0,0.02224443729863915,0.20043456943673443
Collections$SynchronizedCollection,0.0,0.031336645160110733,0.0,0.004211612903389088,0.03554825806349982
Date,0.0,0.7809488751809857,0.0,0.1111373512739518,0.8920862264549374
FileOutputStream,0.0,0.18972721175005325,0.0,0.026529680258120227,0.21625689200817347
Formatter,0.0,0.0,0.0,0.0,0.0
Formatter$FormatSpecifier,0.0,0.029024726801399905,0.0,0.003888078205726797,0.032912805007126705
HashMap,0.03331276038549572,0.5563911501729999,0.004727435641865493,0.07323574360282673,0.6676670898031878
HashMap$Node,0.0,0.03513337499771296,0.0,0.0045900000000074215,0.039723374997720384
HashSet,0.0,0.018691791697392008,0.0,0.002730682832049928,0.021422474529441935
Inflater,0.0,0.3628572022247679,0.0,0.046546873392609364,0.4094040756173773
Integer,0.0,5.786466679123597,0.0,0.8895162148290127,6.67598289395261
LinkedHashMap,0.0,0.05251049999787938,0.0,0.0055974999998701,0.05810799999774948
MutableBigInteger,0.0,0.11203594736983641,0.0,0.014653684210555327,0.12668963158039173
Object,0.0,0.23151275595685053,0.0,0.02695255569827615,0.25846531165512665
Parts,0.0,0.02358851964125857,0.0,0.0034063015758508106,0.02699482121710938
Pattern,0.0,0.02358851964125857,0.0,0.0034063015758508106,0.02699482121710938
Random,0.0,0.1524480282826689,0.0,0.019625932093651644,0.17207396037632056
SimpleDateFormat,0.0,0.053525105209566284,0.0,0.006664180874785063,0.06018928608435135
SoftReference,0.0,0.045044000001022745,0.0,0.005557499999667925,0.05060150000069067
String,0.0,0.9240697450217883,0.0,0.13690344897611886,1.0609731939979072
StringBuffer,0.0,0.8437445717344729,0.0,0.11163585511230519,0.9553804268467782
StringBuilder,0.0,0.22962842578834028,0.0,0.03471764885578742,0.2643460746441277
Throwable,0.0,0.0,0.0,0.0,0.0
TimeZone,0.0,0.08999306802615388,0.0,0.012946477369864184,0.10293954539601806
Timestamp,0.0,0.8561885079324907,0.0,0.12908738095387934,0.98527588888637
URL,0.0,0.05936427758805954,0.0,0.007106498634367875,0.06647077622242742
URLClassLoader,0.0,0.0209688113625326,0.0,0.0023858762436821,0.023354687606214702
ZipFile,0.0,0.0278899963068003,0.0,0.004084113685777121,0.031974109992577424
