method,package1,package2,dram1,dram2,energy
AbstractCalendar,0.2954885766587924,0.0,0.04460493178049112,0.0,0.34009350843928354
AbstractQueuedSynchronizer,0.0,0.05362186166633191,0.0,0.007267025351213034,0.06088888701754495
AbstractStringBuilder,0.3978568064520541,1.3486850791421308,0.07074513056235687,0.20880412864123243,2.0260911447977743
Aggregate,0.0,0.05420354411287479,0.0,0.00762616326661043,0.06182970737948522
Arrays,0.2129444398167632,1.1420711197002404,0.03666124999925294,0.1663468388640842,1.558023648380341
AtomicLong,0.0,0.4809653120381807,0.0,0.0652567640684329,0.5462220761066137
BaseCalendar,0.1465992880962791,0.0,0.02531809803875427,0.0,0.17191738613503335
BaseCalendar$Date,0.05508217777727016,0.0,0.007942666666591927,0.0,0.06302484444386208
BaseIndex,0.4770618441736513,3.917235861413676,0.0695307232817002,0.5913696115342434,5.055198040403271
BigDecimal,0.0,1.36876835891201,0.0,0.1794331256423089,1.548201484554319
BigInteger,0.0,0.3524391616375697,0.0,0.042872610927186944,0.3953117725647567
Boolean,0.06010766666400336,0.07891866666129012,0.01122000000001814,0.012279999999615637,0.16252633332492725
BufferedInputStream,0.0,0.137735827788827,0.0,0.016151794797566208,0.1538876225863932
CacheObject,0.0,0.17464824861556552,0.0,0.020077065318566435,0.19472531393413195
CalendarUtils,0.03771740740544542,0.0,0.006772222222934943,0.0,0.044489629628380364
Class,0.0,0.019458573888889757,0.0,0.0018410945437647688,0.021299668432654524
ClassLoader,0.0,0.1739978646170039,0.0,0.023705604049496787,0.19770346866650068
Column,0.08382175555404198,1.2994139904239916,0.015309333333667985,0.18223481729474747,1.580779896606449
Command,0.2004061573907981,0.20288802703008207,0.023695437499252743,0.026020822041516966,0.45301044396164986
CommandContainer,0.0,0.17029830554990136,0.0,0.0241712500000075,0.19446955554990886
CompareMode,0.0,0.01967082830129993,0.0,0.003211313008131161,0.022882141309431094
Comparison,0.0,1.247964290678741,0.0,0.19673539552445737,1.4446996862031982
ConditionAndOr,0.0,0.28244405943732664,0.0,0.03938427587401443,0.3218283353113411
ConfigFile,0.0,0.07432745143269065,0.0,0.010341221554241449,0.08466867298693209
CtClassType,0.0,0.09921439999830853,0.0,0.013669365459014328,0.11288376545732286
Customer,0.0,0.015857523808898846,0.0,0.0019371428572326078,0.017794666666131453
DataInputStream,0.0,0.10038377431657691,0.0,0.013928373864310903,0.11431214818088782
Database,0.0,0.43164545372024143,0.0,0.055073964987052415,0.48671941870729385
Date,0.05978474536799762,0.7197405012706697,0.009589236111188022,0.11323384428315048,0.9023483270330057
DbObjectBase,0.0,0.03658996172841395,0.0,0.004521916567478808,0.04111187829589276
Delete,0.014567066666495522,0.0,0.002155000000008537,0.0,0.016722066666504058
Driver,0.0,0.04897910371106173,0.0,0.007187782466714932,0.05616688617777667
Engine,0.0,0.059317547478447835,0.0,0.007779820908677189,0.06709736838712502
Expression,0.0,0.062316603126354224,0.0,0.00862054119568282,0.07093714432203704
ExpressionColumn,0.09964262626343759,0.5457824493626582,0.017182121213188635,0.09114527554163601,0.7537524723809204
ExpressionVisitor,0.07459515338879155,0.11778670833737123,0.008779733217967042,0.01792187499974413,0.21908346994387395
FileOutputStream,0.0,0.18897354661131652,0.0,0.027324025455498696,0.2162975720668152
Formatter,0.0,0.0,0.0,0.0,0.0
Function,0.0,0.0,0.0,0.0,0.0
Gregorian,0.018020624999735446,0.061680033337324865,0.003650625000091168,0.0057084999996732215,0.0890597833368247
HashBase,0.045123937500648026,0.0,0.006018750000066575,0.0,0.0511426875007146
HashMap,0.0213143030290887,0.9473507227994483,0.0039563636365170214,0.12714959568009504,1.099770985145149
HashMap$Node,0.0,0.03101967405322225,0.0,0.0038861191318054844,0.034905793185027734
HashSet,0.0,0.20927290673197624,0.0,0.02996544996573528,0.2392383566977115
IndexCursor,0.0,1.0124186645856073,0.0,0.1502621095281586,1.162680774113766
IndexType,0.0,0.07502586241084946,0.0,0.008938337177209035,0.0839641995880585
Inflater,0.0,0.6189359143530881,0.0,0.08339845334757989,0.702334367700668
Insert,0.0,0.717843812785959,0.0,0.0927813197751916,0.8106251325611507
Integer,1.6182750806190944,2.598520777386981,0.2756655424773932,0.3991943410388329,4.891655741522301
JdbcConnection,0.29139089600607354,0.14773884995218128,0.05100611929346231,0.020780567149774533,0.5109164324014916
JdbcPreparedStatement,0.07841499999994994,0.2796071121171797,0.0123112500004936,0.03509017704318015,0.40542353916080337
JdbcResultSet,0.11422810555535155,0.6455396176564261,0.01975095833428592,0.09580551936075288,0.8753242009068165
JdbcStatement,0.0817769351844483,0.25243981119135256,0.014455763889246655,0.03599549310991885,0.3846680033749663
LocalResult,0.022773749999942083,0.7422658357641568,0.004078124999978172,0.10961630256016751,0.8787340133242446
MathUtils,0.0344820952394955,0.49564801380742823,0.006137142856633068,0.076092934342699,0.6123601862462558
MultiVersionCursor,0.11272944505500218,2.9029609616206935,0.014893483217528494,0.4167360970907735,3.4473199869839974
MultiVersionIndex,0.03275555555673135,0.7309291551701542,0.006044444444678785,0.09992204564403602,0.8696512008156004
OERandom,0.0,0.10386039501280617,0.0,0.011885439675698004,0.11574583468850418
Object,0.0,0.6840814950463119,0.0,0.09686217288198323,0.7809436679282951
ObjectArray,0.26209605498461486,2.024660784518109,0.041621540904660186,0.28767746652793885,2.616055846935323
ObjectArray$ObjectArrayIterator,0.0,0.1435981008597686,0.0,0.022870164645276688,0.1664682655050453
Parameter,0.0,0.0,0.0,0.0,0.0
Parser,0.0,0.010763846628217728,0.0,0.0017965499317885028,0.01256039656000623
Prepared,0.014318866666872054,0.25965166489885094,0.0021539999999125327,0.0342374244636635,0.31036195602929906
PrintStream,0.0,0.0,0.0,0.0,0.0
Query,0.0,0.5191379229631917,0.0,0.07881417407595429,0.597952097039146
Random,0.0,0.354541458500157,0.0,0.04823005006590294,0.4027715085660599
Record,0.0,0.10625201910600124,0.0,0.016096299172751943,0.12234831827875318
Row,0.4911488120774193,3.080356373893147,0.08397038287476927,0.4839672385827696,4.1394428074281056
ScanCursor,0.06373020000109034,0.0,0.011220666666324377,0.0,0.07495086666741471
ScanIndex,0.7633627729415504,0.6515860157335905,0.13843306177855896,0.10407652777772218,1.6574583782314223
ScriptReader,0.0,0.023959966688862855,0.0,0.0026053506410772123,0.026565317329940066
Select,0.38468907495479154,1.2073573337399024,0.06788719658021197,0.18466556204883397,1.8445991673237399
Session,0.3190442700379179,0.2760788403079564,0.04913019691416851,0.035190464651647144,0.6794437719116899
SimpleDateFormat,0.0,0.029579410467180267,0.0,0.003595200149620164,0.03317461061680043
SimpleInsert,0.0,0.7223193939212488,0.0,0.08899880445029158,0.8113181983715404
SoftReference,0.0,0.6179736925045669,0.0,0.1160541434614642,0.734027835966031
StreamDecoder,0.0,0.07432745143269065,0.0,0.010341221554241449,0.08466867298693209
String,0.24035773083796214,1.4985665496835041,0.03974057653777946,0.21720514936304783,1.9958700064222934
StringBuffer,0.30947767575870405,0.46001899989391204,0.05069316666644907,0.06398181865838763,0.8841716609774527
StringBuilder,0.17080106045594018,0.0887602916676163,0.032220147058690606,0.013177499999756035,0.3049589991820031
StringCache,0.0,0.24881121678245824,0.0,0.03188073426610364,0.28069195104856187
System,0.0,0.0,0.0,0.0,0.0
TPCC,0.0,0.9806447600635056,0.0,0.14816471412054147,1.128809474184047
Table,0.02072925925959781,1.4656502726243394,0.003777777778008453,0.22483050900782559,1.7149878186697711
TableData,0.0,1.1955493289940966,0.0,0.16768745850610556,1.363236787500202
TableData$1,0.0,0.6587824263664692,0.0,0.09612261558186092,0.7549050419483301
TableFilter,0.33342586329445023,1.1821997292350546,0.05887978787880942,0.17981329749838426,1.7543186779066984
TestHarness,0.0,0.0,0.0,0.0,0.0
Throwable,0.0,0.0,0.0,0.0,0.0
Timestamp,0.1867662326151539,0.6993529333267361,0.03279956148088996,0.10025100000020756,1.0191697274229874
Trace,0.037442363634578535,0.09112566666832814,0.006687272727007935,0.011995000000752043,0.14725030303066666
TraceObject,0.07389304166918009,0.048787555557080635,0.013508000001002073,0.007546666666409387,0.1437352638936722
TraceSystem,0.0,0.06568397109721108,0.0,0.007331975804904131,0.07301594690211521
TreeCursor,0.09730408148386266,0.22829201378883301,0.016907555555668228,0.03183707253756331,0.3743407233659272
TreeIndex,0.22088039297774492,2.645512262597696,0.03370409812492621,0.4018981002168723,3.3019948539172392
TreeNode,0.03275555555673135,0.07058933333028107,0.006044444444678785,0.010123999999874893,0.11951333333156611
URLClassLoader,0.0,0.01924658356944824,0.0,0.0021834074397860444,0.021429991009234282
UndoLog,0.03725388888900245,0.06795812121267909,0.006800000000010995,0.010105454545213655,0.12211746464690619
UndoLogRecord,0.053194117646746565,0.0,0.009571764705469832,0.0,0.06276588235221639
Update,0.044169088890582006,0.0,0.008181333333696885,0.0,0.052350422224278895
Value,0.15701038111915044,2.8697109825142704,0.02492122986902373,0.4450493345519893,3.496691928054434
ValueBoolean,0.0,0.0,0.0,0.0,0.0
ValueDecimal,0.0,0.14264904949929777,0.0,0.017102372277888665,0.15975142177718643
ValueInt,0.028765740738621117,0.7939971907732595,0.005277777777842453,0.11706425575231832,0.9451049650420413
ValueShort,0.046754583332181535,0.6749568204926785,0.008662500000152956,0.10359753307992417,0.8339714369049371
ValueString,0.0,0.057203715081829414,0.0,0.007603153632123972,0.06480686871395339
ValueStringBase,0.0,0.06311527723158163,0.0,0.006753641078687107,0.06986891831026873
ValueTimestamp,0.0,0.0,0.0,0.0,0.0
ZipFile,0.0,0.10226524025044992,0.0,0.013628273397840314,0.11589351364829023
ZoneInfo,0.07667093790901251,0.0,0.011017745098191273,0.0,0.08768868300720378
