method,Energy
CharOperation,11.722943492252252
Scanner,7.795754267116423
DiskIndex,7.383262041799957
HashtableOfObject,6.503859452254396
Parser,5.643630320186828
ClassFileStruct,4.518479518880857
SimpleWordSet,4.258128244859949
Util,3.0101003094742698
BinaryIndexer,2.4953832420454294
DiskIndex$IntList,1.0982121297738912
ClassFileReader,0.8011763595780071
SimpleLookupTable,0.7927787865366399
IndexManager,0.7116880450508288
AbstractCommentParser,0.6818120153208593
MemoryIndex,0.5046809338892422
UTF_8$Decoder,0.47553984152828005
JobManager,0.4143342821218614
Scribe,0.3764677011017542
MethodInfo,0.363389778853677
Index,0.352273757624065
Path,0.3449365244082551
ASTConverter,0.31091528306962346
Signature,0.29893633630090655
AbstractDataTreeNode,0.293204482230191
SearchDocument,0.2780757748840241
SourceElementParser,0.2695237871156009
CodeFormatterVisitor,0.24989313348681313
AbstractIndexer,0.22569832056738007
JavaProject,0.2200239978738734
Scope,0.20441388502723798
AddJarFileToIndex,0.19789363762163387
LookupEnvironment,0.16087835301219824
AST,0.15988619748890467
ASTNode,0.15627513847763078
JavadocParser,0.15305855706505692
UTF_8$Encoder,0.1455648008033076
AbstractDOMParser,0.14492105730769766
MatchLocator,0.13535981503538574
ElementTree,0.11902412133421052
CompletionEngine,0.11725586133832588
CompletionParser,0.10836555351014132
BinaryTypeBinding,0.10683838983279652
HashtableOfArrayToObject,0.10679213322905914
ReferenceBinding,0.10629870325509308
SourceElementNotifier,0.10599961447596382
ClassScope,0.10516701386168524
LocalFile,0.1037672028722941
SHA,0.10136028426970689
SuperTypeReferencePattern,0.10085123981919555
Resource,0.09993912339293994
TypeDeclaration,0.09810692266584166
DefaultCommentMapper,0.09384367730541529
JavaProjectElementInfo,0.09214201694227904
ConstructorPattern,0.0920085958121309
DeltaDataTree,0.09190476651442818
CompletionScanner,0.08635672156353041
XML11Configuration,0.08541152140890304
JavaSearchScope,0.08511142913711943
JavaModelManager,0.07955133123219052
CompilationUnitScope,0.07525475076914825
ClassFile,0.07404708503752043
NameLookup,0.07140247316270767
Openable,0.07091059604464568
Framework,0.07026901053827779
MethodBinding,0.06573525441393205
Workspace,0.06336766448279861
AssistParser,0.0630804672187589
DerInputBuffer,0.06123234553272965
CommentRecorderParser,0.06019425943329064
TransletOutputHandlerFactory,0.0584373775455023
SourceTypeConverter,0.058211584810391
CompilationUnitResolver,0.057795646342457485
HashtableOfType,0.056886245495350526
MatchLocatorParser,0.05530642864314312
ClasspathEntry,0.05496050403666897
JavaElement,0.054433551713617835
ContentTypeCatalog,0.05239744737812757
X509CertInfo,0.04975518743798135
TypeBinding,0.049389723456347207
CertificateExtensions,0.046929686189580086
DeferredDocumentImpl,0.04666906380594437
SimpleSet,0.04651074774636049
X509Factory,0.04519043833103139
ScannerHelper,0.04474244370450278
SourceTypeBinding,0.04469015220557626
ClasspathJar,0.04466920349215199
FieldInfo,0.04462585043732047
SourceIndexerRequestor,0.0443633818500087
CharsetManager,0.04394535556138845
Expression,0.04343679895804207
PackageBinding,0.042800611354540545
DefaultBindingResolver,0.04238351736447898
EclipsePreferences,0.04120724545487825
HashtableOfObjectToInt,0.04106821984127526
CodeStream,0.040492096984226914
ASTNode$NodeList,0.0399170864065231
ClassPool,0.0374977850623878
SingleTypeReference,0.03719233142007161
Alignment,0.03614736643518681
CharLiteral,0.03612656101963076
FileSystemResourceManager,0.03589992452490271
TryStatement,0.035424071771432156
ConstPool,0.03532413713457615
AnnotationInfo,0.033996149879202076
HashtableOfPackage,0.03289612002836433
DataTreeLookup,0.03288813408620156
SourceTypeElementInfo,0.032882597517684825
Javadoc,0.032522210080705945
ClasspathChange,0.03241382190121539
ManifestDigester,0.032095852437106435
TypeConverter,0.03205072834167978
SAXParserImpl,0.03192679540688047
XMLEntityScanner,0.03189608923603179
DefaultCodeFormatter,0.031158436456567497
ZoneInfoFile,0.03060695647723943
BlockScope,0.030445325781782932
AbstractMethodDeclaration,0.030201871535417382
JavaSearchNameEnvironment,0.029679077582028274
Benchmark,0.029542052033309184
ClasspathSourceDirectory,0.028545600866966867
MethodPattern,0.02797539724739058
FilterImpl,0.02790640950494251
LongVector,0.027888557671177778
DeltaProcessor,0.02787537387368391
CompilationUnit,0.027779429339504686
JarPackageFragmentRoot,0.027702110327613803
URLClassPath,0.02755456370283445
LaunchingPlugin,0.02752988472647155
BinaryExpression,0.027283294318667245
CompilerOptions,0.027193980386322213
OpenableElementInfo,0.02719208528226751
LocalDeclaration,0.026555440529034684
Binding,0.026358589852859753
HierarchyResolver,0.02624886794284811
Gregorian,0.025899598257883738
ConstructorLocator,0.025775758032979403
X509CertImpl,0.02546785912663872
DebugPlugin,0.024875641845403702
JavaCore,0.024786987182967693
DeltaProcessingState,0.024648709696502052
XMLEntityManager,0.02464206337107648
UnifiedTree,0.024632803718396296
ConstantPool,0.02432391123904659
MethodScope,0.02384839233561219
JavadocMessageSend,0.02331903679321112
ConditionalExpression,0.023235327259784996
BundleEntry,0.022955515505070672
DocumentBuilderImpl,0.022835844531401518
XMLScanner,0.022751502227524426
AttributeInfo,0.02237809162095947
ToStream,0.022301847175303976
DerInputStream,0.022261355333853653
Engine,0.022238928288777327
NodeIDMap,0.022189121448353367
AbstractSAXParser,0.021816652380348862
BasicSearchEngine,0.021620005809650716
EclipseLog,0.021609964500642106
File,0.021590953338977235
PlatformLogWriter,0.02108044820164597
CompilationUnitDeclaration,0.020806618517983065
TypeDeclarationPattern,0.02077850442274442
TransformerFactoryImpl,0.02073163326951228
XMLDocumentFragmentScannerImpl,0.020663551607687576
PackageFragment,0.020657907315109764
ContentDescriptionManager,0.020453432825287797
DerValue,0.020310608144361895
StandardVMType,0.020257286233858838
MessageSend,0.019998162753208933
ASTParser,0.019946425837850067
ConstructorDeclaration,0.019718227671093068
XMLDocumentScannerImpl,0.0194892041708242
RSASignature,0.019357454739047344
SingleNameReference,0.01878134247345192
ResourcesCompatibilityHelper,0.0184876911745822
NodeImpl,0.017933325726006713
InnerClassInfo,0.017746664787611405
Activator,0.017605301365792546
Argument,0.017539461882778554
HashSetOfArray,0.01751582933316143
InternalFileSystemCore,0.01744238859323052
ElementTreeIterator,0.01741100936889976
QualifiedNameReference,0.01740948092924621
XMLDTDValidator,0.0173763154109861
ElementImpl,0.017286275465022254
JavaSearchDocument,0.01715519641063695
OrderedLock,0.016959274579129702
MethodAccessorGenerator,0.016852030560653212
ProjectPreferences,0.01677103344116096
Assignment,0.016751474701304933
DerOutputStream,0.016640220528016707
ManifestElement,0.0166342181328806
ExternalFoldersManager,0.01647164819968905
WeakHashSet,0.016397594005115985
ConfigFile,0.01637339228539427
HashtableOfLong,0.016372122415762472
ContentType,0.016330554875152507
ZipBundleFile,0.01632101276208465
DefaultCommentMapper$CommentMapperVisitor,0.016246390710222037
EntryResult,0.016150675863965583
WhileStatement,0.016102963891181873
JavadocArgumentExpression,0.016023785674355872
SuperReference,0.01601098083068538
FieldBinding,0.015937026363037315
DataTreeNode,0.0159069633711269
InstrumentationImpl,0.015881638544337783
TypeReference,0.01584794427544784
Headers,0.01562626619920735
IfStatement,0.015189266161052154
ExplicitConstructorCall,0.015185512955060184
CompilationResult,0.015181664791389429
Status,0.015157041092500611
CompilationUnitStructureRequestor,0.015147046765604135
AllocationExpression,0.015117308370072148
JavaRuntime,0.014884446256368476
DistributionPoint,0.014752018305065638
ASCIICaseInsensitiveComparator,0.01470538310074611
ASTVisitor,0.014662432219432437
ProjectContentTypes$ProjectContentTypeSelectionPolicy,0.014621447304079778
ManifestAnalyzer,0.014583461733591173
PreferencesService,0.014524215530329832
CalendarSystem,0.01451671819782062
StateBuilder,0.014470860571763168
IndexAllProject,0.014227634542110897
Handler,0.014109154751910222
NestedTypeBinding,0.014078332974278171
OverflowingLRUCache,0.014013521472538634
XMLSecurityManager,0.01400138581505471
PKCS7,0.013991162178446263
Initializer,0.013977407661299828
JavaSearchParticipant,0.01387450210659238
SignerInfo,0.013786681983258824
CompoundAssignment,0.013666811749449628
Container,0.013531507759675513
ReadWriteMonitor,0.013482306475296003
Block,0.01342333720237593
SearchPattern,0.01334311748828655
DefaultCodeFormatterConstants,0.013310004621942591
NatureManager,0.013309621011620216
JavaModelCache,0.013285426571117828
ResourceInfo,0.013214593607393068
ClasspathLocation,0.013177491470068092
BaseData,0.01315621371106228
CastExpression,0.013117520146377902
X500Name,0.013082352885407364
ResourceTree,0.012701586777018919
ContentTypeCatalog$7,0.012585356618703268
NameEnvironmentAnswer,0.012484076544113775
UTF_8,0.012320888702182013
EclipseAdaptorHook,0.01229685488037324
Locker_JavaNio,0.012288167323775285
JavaCorePreferenceInitializer,0.012210886715488154
CreateTypeHierarchyOperation,0.012189780286435714
MarkerManager,0.012150045111276847
StreamDecoder,0.012078299825348658
DeadlockDetector,0.011941673354304053
LocalFileSystem,0.011891761060676796
Project,0.011776971606382025
StateObjectFactoryImpl,0.011678881477136933
ReferenceBinding$2,0.011619631968842518
FileInfo,0.011589221076373054
CommandAdapterFactory,0.01152818969432257
SourceMethod,0.011520803214042398
JavaModelStatus,0.01150821611193973
TransformerImpl,0.01150370878774815
HashtableOfIntValues,0.011486055791667359
FeaturePropertyBase,0.011392408372922066
ContentTypeHandler,0.011247109921661507
ServiceRegistry,0.011227817494943023
BreakStatement,0.011198201457911075
ArrayTypeReference,0.011186472730369048
XMLDocumentFragmentScannerImpl$ElementStack,0.011121304296730746
ExtensionRegistry,0.011072210262601785
MatchingNodeSet,0.011067152904679295
ProjectDescription,0.01104217744986528
NamespaceSupport,0.01101820295498725
PatternSearchJob,0.01097449221142212
SerializerBase,0.01096457840950664
Unsafe,0.010931909023910237
PatternLocator,0.010878582266334515
ThisReference,0.010761375857904936
MethodVerifier,0.010693583257753887
FieldDeclaration,0.010663415415398824
ImmutableMap$ArrayMap,0.010580316281233869
Version,0.010552851059604787
LaunchManager,0.010549641007403004
IndexingParser,0.010546274793360505
ProblemReporter,0.010477610968111256
SAXParser,0.010385406583092328
JavaModelManager$PerProjectInfo,0.010179085943293852
JavaConventions,0.01012218834582054
ReturnStatement,0.010020915025844358
LRUCache,0.009924925705020779
SecuritySupport,0.009900088337591362
ClasspathManager,0.009897879858950848
DefaultCodeFormatterOptions,0.009865089164876047
SaveManager,0.009856778842080012
ParseUtil,0.009837988961605553
Buffer,0.00982195581083736
BaseCalendar,0.00980549155229866
ContentTypeMatcher,0.00976710099551658
StateManager,0.009747159303911459
DocumentBuilderFactoryImpl,0.009603344121307906
BaseStorage,0.009528511176838471
StreamEncoder,0.00948971609309982
BundleFile,0.009438853681971998
AVA,0.009421737328440156
CombinedBinaryExpression,0.009358891935678806
Bucket,0.009297404377399513
CertificateX509Key,0.009246186352866613
ByteArrayAccess,0.0091973444194592
IndexSelector,0.009091284064682745
ProviderList$ServiceList,0.00904329624976084
QualifiedName,0.009041566567090261
EclipseAppDescriptor,0.00896362783314126
Plugin$1,0.008913679930800512
NormalizerBase,0.008904478217286535
PackageFragmentRoot,0.008849464085281554
XMLErrorReporter,0.00877924200572533
BundleLoader,0.008777867815507278
ResolverImpl,0.0087631290790632
Assert,0.008760206211556057
FullSourceWorkspaceCompleteSearchTests,0.008711422844271028
HierarchyBuilder,0.008699302255574876
SecurityAdmin,0.008683782193509054
FileStoreRoot,0.0086732577051465
Constant,0.008640401003558945
JavadocSingleNameReference,0.008609630329061665
SearchEngine,0.008601039626192188
EclipseLogHook,0.008541196816089763
Literal,0.008537967718907668
KeyedHashSet,0.008522213040616906
DebugPlugin$EventDispatchJob,0.008516523610483545
BundleContextImpl,0.008507568243184507
JavaBuilder,0.008323386960137964
ToXMLStream,0.008293849592102217
CertificateSerialNumber,0.008285705723659376
ImportMatchLocatorParser,0.008282920388614291
ExceptionTable,0.008270263097849785
DefaultClassLoader,0.008247761541658441
FileURLConnection,0.0081617910389072
AssistOptions,0.008035085565458
AlgorithmId,0.008030190094324069
ReferenceInfoAdapter,0.008015734253140375
FullSourceWorkspaceFormatterTests,0.00793950729966077
LazyInputStream,0.007837671155570096
FlowInfo,0.00783040929386782
GetInstance,0.00782017209482265
CancelableNameEnvironment,0.007807753281281045
JarPackageFragmentRootInfo,0.007777736288535088
LocalVariableBinding,0.007774114531120905
CharInfo,0.007741094520853141
InternalPlatform,0.007694425461492506
PossibleMatch,0.0075775348556048954
AliasManager,0.007540342111408064
MethodDeclaration,0.00747914151185538
NativeConstructorAccessorImpl,0.00739707215026201
ThreadLocalBufferAllocator,0.00736791915748926
BuildCommand,0.007347625229119792
FieldReference,0.007321838050594246
FastCharsetProvider,0.007309669985302672
IndexBasedHierarchyBuilder,0.007276136224962277
RecoveredMethod,0.007202769279842224
EclipseStarter,0.007183286896134632
SymbolTable,0.007061318279667745
SwitchStatement,0.006970912699385489
ResourcesPlugin,0.006962873105694013
GroupingChecker,0.006914073114831691
BaseAdaptor,0.006891756084004484
RegistryObject,0.006877355703470851
QualifiedAllocationExpression,0.006873317702378838
IrritantSet,0.0067918612505839
ArrayCreation,0.006763411816127675
PreferencesService$5,0.006713795505664055
ImportDeclaration,0.00667409251900288
ProjectContentTypes,0.006671706807563617
XMLResourceIdentifierImpl,0.006623055274591403
RSAKeyFactory,0.006617731762320595
RecoveredElement,0.006575775742816702
SearchableEnvironment,0.006545818115871331
IndexRequest,0.006446462855082397
RuntimeLog,0.006421442658815238
NameEnvironment,0.006388425104543099
X509Key,0.006372718956930043
EFS,0.006371415478099887
OS,0.006334729472540278
XMLDocumentScannerImpl$ContentDriver,0.006326784773498961
EqualExpression,0.006296051468365371
JavadocFieldReference,0.0062148574254208165
AnnotationMethodInfo,0.006205671970213793
BinaryExpressionFragmentBuilder,0.006166565996363147
InstancePreferences,0.006091681863715779
GetPropertyAction,0.006091681863715779
HookRegistry,0.006036052638991889
PolicyInformation,0.006020264080458969
ReferenceURLConnection,0.006005998574954746
UTF8,0.005956737602138573
WeakHashSetOfCharArray,0.0059532626492184645
HierarchyType,0.00592901402034815
CodeSnippetParsingUtil,0.005928841043474563
ImplicitJobs,0.005913421104617836
Encodings,0.00589858695663467
ContentInfo,0.005867135795515811
Config,0.005843521121957945
NumberLiteral,0.005821974040312107
Statement,0.0058056783941372895
RecoveredBlock,0.005739701012558175
XMLSecurityManager$Limit,0.005699306662965893
BucketTree,0.005696167910395045
InternalCompletionProposal,0.00568742121718263
CompilationUnitElementInfo,0.005673054804711799
EUC_JP,0.005629357560431113
ServiceTracker,0.0055898083220564405
MultiplexingFactory,0.0055898083220564405
VMStandin,0.005581721760852673
ArrayInitializer,0.005556287738032401
ThrowStatement,0.00554975143314701
HistoryStore2,0.005548161116195135
ImportContainerInfo,0.005488232875976811
DisabledAlgorithmConstraints$Constraints,0.005468436448548113
VariableDeclarationStatement,0.005446830665038456
ConfigApplier,0.005437943731999671
SourceRefElement,0.005420862836266764
ExtraFlags,0.005403657564547214
ArrayType,0.005400618754493924
XMLDocumentFragmentScannerImpl$ElementStack2,0.0053891263649932615
SyntheticArgumentBinding,0.005361929598382454
ProblemMethodBinding,0.0053477719780535135
SaveManager$4,0.005311661184977247
Messages,0.005287670110111558
XMLString,0.005215931379298071
XMLChar,0.005212907071919962
JobActivator,0.005186083431429502
BenchmarkRunner,0.005155628880508245
PrimitiveType,0.005152128931778827
IndexManager$1,0.005137411169659909
BundleHost,0.005130925374145455
ArrayBinding,0.005119661782283173
AbstractAlgorithmConstraints,0.005098402754267963
ObjectCache,0.005092411433323014
CaseStatement,0.005084054098780276
StateImpl,0.005066257944323487
LaunchConfigurationType,0.005065794627000011
MethodInvocation,0.005048897302637949
FullSourceWorkspaceCompleteSearchTests$JavaSearchResultCollector,0.005019554255134999
PropertyBucket,0.004999489152404201
ResolverExport,0.0049841286019495995
ProductPreferencesService,0.0049841286019495995
FeatureState,0.004955118208113278
Job,0.004940296799443431
TimeZoneNameUtility,0.004939603049475314
ValidationManager,0.0049359286840802204
ForStatement,0.004932626978655768
ExtensionsParser,0.004916624004554029
ResourceDelta,0.004912809823485465
EquinoxUtils,0.0048743015575924715
ManifestDigester$Entry,0.00485434067576681
MRUBundleFileList,0.004851700015572872
FullSourceWorkspaceCompletionTests,0.004808322978351795
BaseCalendar$Date,0.004806560259465107
ProblemHandler,0.004787024778042461
UnresolvedReferenceBinding,0.0047729957207373035
FrameworkProperties,0.004725287105033129
TimeZoneNames,0.004661322390709202
RegistryFactory,0.0046479522876648315
Cache,0.004643972273049897
ReferenceBinding$3,0.004620921563267804
StatsManager,0.004613527855564494
SignatureFileVerifier,0.004594843967517759
AttributeMap,0.004585356192922163
ByteVectorFactory,0.0045804057960438255
JavaModel,0.004567474878805172
XIncludeAwareParserConfiguration,0.004498197787511992
WorkManager,0.004428662069328911
ContentTypeBuilder,0.004392984673858606
MarkerSet,0.0043600793667206645
NLS,0.0043600793667206645
Region,0.004307498098167856
FullSourceWorkspaceASTTests,0.004244404893029866
ProgressMonitorWrapper,0.00424284069467725
SafeChunkyOutputStream,0.00424035619750559
JavaElementDelta,0.004207103480117117
TeePrintStream,0.004206164415381675
UTF8Reader,0.004202377212381676
CRLDistributionPointsExtension,0.004162452691788959
X500Name$1,0.004134072434210027
FactoryFinder,0.004118945177516727
FrameworkDebugOptions,0.0041128412839741306
ElementTreeWriter,0.004094346095375469
SourceType,0.004070274710135071
TransformerManager,0.00406135699272973
URLClassPath$JarLoader$2,0.003947018250263215
TestHarness,0.0039357210628729435
ImmutableMap,0.0039284184742022004
FileSpec,0.0038947846660683672
Plugin,0.003881232314237164
ArrayReference,0.0038509750884262307
ClassInstanceCreation,0.003837725572364769
ConfigFileTokenManager,0.003827850451250316
EclipseLazyStarter,0.0038243134682257804
RDN,0.003798961630847147
ResourceDeltaFactory,0.0037728533069574
AbstractVMInstall,0.0037685123668743537
QName,0.003720427905637609
XMLDocumentFragmentScannerImpl$FragmentContentDriver,0.003720427905637609
PreferenceForwarder,0.0037134780205851864
DataTreeReader,0.0036801868564271534
JavaModelManager$CompilationParticipants,0.00366959421342079
MarkerReader_3,0.0036544047555985776
VariableBinding,0.0036506971168665655
JdkXmlUtils,0.0036251299875405285
DocCommentParser,0.003609852535697044
MethodLocator,0.0036044560225598045
EncodingInfo,0.003577443591270582
CtClassType,0.003556728284846853
PathVariableManager,0.003549441109711731
SignatureAttribute,0.003526979855549528
FileUtil,0.003519131548944978
ArrayAllocationExpression,0.003505802101186853
OIDMap,0.0034918823635066787
Log,0.003473677893170544
ObjectIdentifier,0.003460946528755207
DataTreeWriter,0.0034195788155198595
XMLDocumentScannerImpl$TrailingMiscDriver,0.003342880616843569
URIName,0.003305277770424829
NotificationManager,0.0032809153776482266
MemoryCache,0.0032585833631564027
AdaptorUtil,0.0032428205618748925
TableWriter,0.0032142462861619115
PreferenceServiceRegistryHelper,0.0031940446537051933
UnconditionalFlowInfo,0.00319310487122925
CompletionEngine$CompletionProblemFactory,0.0031341690048529484
IOUtils,0.0031202485486513244
DisabledAlgorithmConstraints$KeySizeConstraint,0.003094423219434093
RegistryObjectFactory,0.0030544539323828137
XMLAttributesImpl,0.003054327323858441
ImportPackageSpecificationImpl,0.0029981688555492307
AutoBuildJob,0.0029930077779797707
MarkerManager$3,0.002987966613317119
FormattedFloatingDecimal,0.002931467334506784
CertificatePoliciesExtension,0.002892955718695975
DTDDVFactoryImpl,0.002880520844294266
ServiceProperties,0.0028666792374495323
PossibleMatchSet,0.002854313092441476
MarkerDeltaManager,0.002847140775007786
Descriptor,0.002840674242189228
RegistryObjectManager,0.0028363615682753013
URLConnection,0.0027864455516398365
DisabledAlgorithmConstraints,0.0027764419119445573
SubRoutineStatement,0.0027527876087574447
BaseLocale,0.002731908101909372
BaseHookConfigurator,0.002712621494662532
StringLiteral,0.002710601431908565
Reflection,0.002693433439058188
BundleDescriptionImpl,0.0026416652854302576
DeepNodeListImpl,0.0026362621872554485
ImportReference,0.0025891487641452843
ISourceElementRequestor$TypeInfo,0.0025886217800830716
RootPreferences,0.002574165413209121
PKCS9Attribute,0.0025493486178451027
SystemBundleActivator,0.0024688208738536262
BaseExtensionPointHandle,0.002456860955013328
MemberDeclarationVisitor,0.002423283396271134
KeyedHashSet$EquinoxSetIterator,0.0024147803750581413
ResourceProxy,0.0024121445818030976
PollingMonitor,0.0023962315830809264
CodeAttribute,0.0023946974106687675
ISO_8859_1$Encoder,0.002339172903085465
CalendarDataUtility,0.002322560544837394
ObjectVector,0.0022920600047228253
Encodings$EncodingInfos,0.0022812438656100074
MS1250,0.0022395024063706333
UnifiedTreeNode,0.0022361912324748772
SourceIndexer,0.002232360282568602
PathCollector,0.0019775231254521328
MultiStatus,0.0019137058141672602
Tokenizer,0.0019062206540313334
PerfCounter,0.001862461257587194
EECompilationParticipant,0.001810195434132735
MarkerManager$4,0.0018015318542403697
JavadocTagConstants,0.0017891856722819669
StateWriter,0.0017820540365825056
WorkspacePreferences,0.0016534372659638375
DeltaProcessor$1$FoundRelevantDeltaException,0.0015965303343578614
StorageManager,0.0015581323513187036
Chaperone,0.0015366050012548226
GroupingChecker$PackageRoots,0.0013252984401809181
RuntimeProcess,0.0013086844816031524
Queue,0.001262709007219452
BuildManager$1,0.0009860417135763829
BuildNotifier,0.0009760640380643732
ComputeProjectOrder,0.000846105504957502
ExportPackageDescriptionImpl,0.0005428574114121301
JdkXmlFeatures,0.0004459953977372161
TeamHook,0.0
ComputeNodeOrder$Digraph$Vertex,0.0
FloatingDecimal$BinaryToASCIIBuffer,0.0
SourceFileAttribute,0.0
JobListeners,0.0
SimpleConfiguratorUtils,0.0
ThreadCallsiteInjector,0.0
ReferenceMap,0.0
CopyOnWriteIdentityMap,0.0
FilePath,0.0
XMLSecurityPropertyManager,0.0
CommandLineArgs,0.0
ServiceUse,0.0
NullProgressMonitor,0.0
ResourceChangeListenerList,0.0
BuildManager,0.0
MarkerInfo,0.0
DeletedNode,0.0
NoDataDeltaNode,0.0
StartLevelManager,0.0
DigestBase,0.0
ClassClassPath,0.0
JavaModelManager$VariablesAndContainersSaveHelper,0.0
BaseExtensionHandle,0.0
VersionHashMap,0.0
FullSourceWorkspaceTests,0.0
VersionRange,0.0
ConfigurationElementHandle,0.0
BundleLoaderProxy,0.0
ModelObjectWriter,0.0
Worker,0.0
WorkspaceRoot,0.0
InternalJob,0.0
Function,0.0
Plugin$2,0.0
