method,Energy,Time,RawEnergy
ChiVertex.<init>,30.68392442012661,30.277638819409702,273.6934059174828
GraphChiEngine.initVertices,19.11919664664847,14.769884942471236,170.5387478139846
DegreeData.getDegree,14.11301785436629,16.714607303651828,125.88480767480058
Pagerank.update,9.8866862947873,1.1630815407703852,88.18692186202658
GraphChiEngine$3.run,8.431544915125299,8.104052026013006,75.20740220091294
GraphChiEngine$2.run,2.9125794232564473,3.495497748874437,25.97952502559793
VertexData.getVertexValuePtr,2.3132074612177758,4.608554277138569,20.633267765421454
GraphChiEngine.determineNextWindow,1.388720413164772,3.495497748874437,12.387060225480505
DataBlockManager.getRawBlock,0.664423853472407,0.7253626813406703,5.926504867493453
DegreeData.load,0.6571469695718466,0.06253126563281641,5.861596770603993
ChiVertex.numInEdges,0.6003266503671384,0.1063031515757879,5.354772856051051
ChiPointer.<init>,0.3605307386806333,0.6190595297648824,3.2158495913490235
ChiVertex.numOutEdges,0.32718891658967825,0.3751875937968985,2.918448361877132
DataBlockManager.dereference,0.31609827847841987,1.1005502751375689,2.8195224723166197
ChiVertex.setValue,0.2426732740092261,0.36268134067033514,2.164588661454459
FloatConverter.setValue,0.21582130698852903,0.2688844422211106,1.9250754163801778
VertexAggregator.foreach,0.16235497315213787,0.6065532766383191,1.4481682643079181
DataBlockManager.writeValue,0.12877795240943546,0.80040020010005,1.1486691180512454
ChiVertex.setDataPtr,0.1140294358970239,0.4502251125562781,1.0171158114649328
ImmutableDescriptor.makeMap,0.10509048639168227,0.12506253126563283,0.9373824793805731
NumberFormatProviderImpl.getInstance,0.07249979149516851,0.0750375187593797,0.6466811282328842
JmxMBeanServer.<init>,0.06910855302870539,0.08129064532266134,0.6164320768580912
MBeanServerBuilder.newMBeanServerDelegate,0.0639332261456555,0.0750375187593797,0.5702693754394573
Toplist$1.callback,0.061067197888834995,0.1500750375187594,0.5447050758953472
DefaultMXBeanMappingFactory.<clinit>,0.059912569355575804,0.056278139069534765,0.5344060603095204
VertexData$1.hasNext,0.05920930815199823,0.09379689844922462,0.528133135392181
AnnotationParser.parseSig,0.04674335809575441,0.056278139069534765,0.4169397859960828
ChiVertex.getValue,0.044060312424569446,0.3876938469234617,0.39300764817941225
NOPLoggerFactory.getLogger,0.03441497720925006,0.04377188594297149,0.30697352131378147
MBeanInfo.<init>,0.03428370109079749,0.03751875937968985,0.3058025691408142
ConstPool.readOne,0.03032633229427519,0.02501250625312656,0.2705037680630318
Pagerank.main,0.0299582064895158,0.031265632816408206,0.2672201722644245
Util.newObjectName,0.02944194373921803,0.04377188594297149,0.26261522967159756
StandardMBean.<clinit>,0.028299524843857497,0.02501250625312656,0.25242512119086424
NotificationBroadcasterSupport.<clinit>,0.0264875994136251,0.03751875937968985,0.23626317151719345
ManagementFactoryHelper.getClassLoadingMXBean,0.0250804069548329,0.031265632816408206,0.22371134497913792
LoggerFactory.<clinit>,0.02475892702966889,0.018759379689844924,0.22084381948117648
MXBeanSupport.getMBeanIntrospector,0.02367108417391888,0.018759379689844924,0.21114051646763088
Metrics.<clinit>,0.022436935460011277,0.018759379689844924,0.2001321995296419
ManagementFactory.createMemoryPool,0.021827468463136036,0.02501250625312656,0.19469589692749917
JmxMBeanServer.newMBeanServerDelegate,0.02038473472028896,0.02501250625312656,0.1818270504753521
ChiVertex.inEdge,0.019990861404572763,0.18759379689844924,0.17831379292060245
ManagementFactory.createGarbageCollector,0.01994176174224072,0.02501250625312656,0.17787583545371988
Gregorian.newCalendarDate,0.018720447613620367,0.01250625312656328,0.16698200000488822
DefaultMBeanServerInterceptor.registerDynamicMBean,0.01835227861662626,0.01250625312656328,0.1636980189416822
MXBeanIntrospector.mFrom,0.018002179719554586,0.01250625312656328,0.16057521892967822
MXBeanIntrospector.getMBeanAttributeInfo,0.01739353239262638,0.01250625312656328,0.15514622759112945
GraphChiContext.getIteration,0.015838574491574293,0.10005002501250625,0.1412763679809261
Introspector.getMXBeanInterface,0.015762331707949707,0.018759379689844924,0.14059630024118303
UTF_8$Encoder.encode,0.0153681762785512,0.01250625312656328,0.13708052629858444
MBeanNotificationInfo.<init>,0.01510876213441897,0.018759379689844924,0.13476661300383824
ExponentiallyDecayingSample.<init>,0.014772695795225796,0.01250625312656328,0.13176898011540408
LocaleResources.getCalendarData,0.014392213425558246,0.01250625312656328,0.12837516665725462
Repository.addMBean,0.013832202432105513,0.00625312656328164,0.12338000000090685
ExceptionTable.<init>,0.01382928135709332,0.01250625312656328,0.12335394469722141
DiagnosticCommandImpl.getDiagnosticCommandInfo,0.013464829443749497,0.01250625312656328,0.12010311914797106
MBeanServerDelegate.<clinit>,0.013225893800957974,0.018759379689844924,0.11797186927995222
MXBeanIntrospector.<init>,0.013005531457966792,0.01250625312656328,0.11600628888797168
AttributeInfo.read,0.011955928161583662,0.01250625312656328,0.10664407377115678
JRELocaleProviderAdapter.getDateFormatSymbolsProvider,0.011845950630994966,0.018759379689844924,0.10566310000427215
LoggerFactory.bind,0.011650402565260634,0.00625312656328164,0.10391885714281147
SignatureParser.current,0.011264954857112873,0.01250625312656328,0.10048075403052342
DiagnosticCommandImpl.getMBeanInfo,0.011054566162990918,0.00625312656328164,0.09860413624616336
ManagementFactoryHelper.getCompilationMXBean,0.011036575826612383,0.00625312656328164,0.09844366666705658
MXBeanIntrospector.<clinit>,0.01098307931248474,0.01250625312656328,0.09796649031386806
Repository.<init>,0.010972012593522443,0.00625312656328164,0.09786777777750373
MBeanAnalyzer.initMaps,0.01043274561662168,0.01250625312656328,0.09305764288126528
AnnotationType.<init>,0.010083785441124033,0.00625312656328164,0.08994499999850329
CodeAttribute.<init>,0.009609471988231918,0.01250625312656328,0.08571423529523171
MBeanServerDelegate.<init>,0.009371098531865527,0.00625312656328164,0.08358799999820933
FormattedFloatingDecimal.<clinit>,0.009086774129971838,0.00625312656328164,0.08105189304936379
MBeanAnalyzer$MethodOrder.<clinit>,0.009021756685925114,0.00625312656328164,0.08047195270465596
DefaultMBeanServerInterceptor.registerMBean,0.008724427763750427,0.00625312656328164,0.07781984848638372
MemoryShard.loadAdjChunk,0.008636510746179868,0.08129064532266134,0.07703564931917387
OpenListResourceBundle.loadLookup,0.00849613779777584,0.00625312656328164,0.07578355555758914
LocaleUtils.isUpper,0.00844449219352034,0.00625312656328164,0.07532288888614856
MXBeanMappingFactory.<clinit>,0.008357562410153042,0.01250625312656328,0.07454749561637963
ProxyGenerator$ConstantPool$IndirectEntry.hashCode,0.008351063157517213,0.00625312656328164,0.07448952380790225
MBeanAnalyzer.visit,0.008332650686768186,0.00625312656328164,0.07432528888926349
MBeanServerFactory.checkMBeanServerBuilder,0.00807966321415375,0.00625312656328164,0.07206869999645278
DefaultMBeanServerInterceptor.sendNotification,0.008043742675438434,0.00625312656328164,0.07174829721978132
LocaleData$1.run,0.007970196672256635,0.00625312656328164,0.07109228412879479
ExtendedPlatformComponent.isUnlockCommercialFeaturesEnabled,0.007576538004333524,0.00625312656328164,0.06758094118199284
URLClassPath.getResources,0.007417326818025398,0.00625312656328164,0.06616081475865139
JRELocaleProviderAdapter.getLocaleResources,0.007207766931424018,0.01250625312656328,0.06429158974289714
AnnotationParser$1.run,0.007075464109602896,0.01250625312656328,0.06311147961679589
RandomAccessFile.readFully,0.006998981542501536,0.00625312656328164,0.062429273064704624
LongVector.addElement,0.0069497608697543165,0.00625312656328164,0.061990236213313475
AnnotationParser.parseMemberValue,0.006671550687276269,0.00625312656328164,0.059508666666968364
OpenMBeanAttributeInfoSupport.<init>,0.006661343286499658,0.00625312656328164,0.05941761904718337
JmxMBeanServer.initialize,0.0063986660796908745,0.00625312656328164,0.057074599999032215
RandomAccessFile.<init>,0.0063958688223321415,0.00625312656328164,0.057049649119762125
DefaultMXBeanMappingFactory.makeTabularMapping,0.0063150988586562,0.00625312656328164,0.056329199996253014
ClassFile.addField2,0.006120988122358731,0.00625312656328164,0.0545977777761032
CalendarDataUtility.retrieveFirstDayOfWeek,0.006060173817777513,0.01250625312656328,0.054055328449170985
MethodInfo.<init>,0.00600755569626713,0.00625312656328164,0.053585987152015714
SignatureParser.advance,0.005930284924628247,0.00625312656328164,0.05289675000040006
ClassPool.createCtClass,0.005911243163563428,0.00625312656328164,0.052726901959805915
Expr.oprand1,0.005860490487618722,0.00625312656328164,0.0522741999993741
CoreReflectionFactory.makeParameterizedType,0.005760834475368278,0.00625312656328164,0.05138529175414692
MBeanOperationInfo.<init>,0.005693699555637305,0.00625312656328164,0.05078646402319623
ManagementFactory.createMemoryManager,0.005397409359910334,0.00625312656328164,0.04814362500110292
CoreReflectionFactory.makeTypeVariable,0.005391044489666092,0.00625312656328164,0.048086851852025984
CtClassType.getInterfaces,0.005382697089386149,0.00625312656328164,0.04801239500022656
ManagementFactoryHelper.getDiagnosticCommandMBean,0.005317669441371823,0.00625312656328164,0.04743236363852205
MetricsRegistry.createName,0.005307667328812312,0.00625312656328164,0.047343147141463184
MemoryImpl.getMemoryPools0,0.0052749380218705755,0.00625312656328164,0.047051209403397104
DefaultMXBeanMappingFactory.makeArrayOrCollectionMapping,0.0052426267006072625,0.00625312656328164,0.0467629999995032
ImmutableDescriptor.union,0.0052383485254886755,0.00625312656328164,0.04672483968130905
MetricsRegistry.<init>,0.0050262589966292535,0.00625312656328164,0.04483305085018762
ProxyGenerator$PrimitiveTypeInfo.get,0.004933519890199654,0.00625312656328164,0.044005839781846835
ClassFile.read,0.004888001291272125,0.00625312656328164,0.043599824560244485
SimpleType.<clinit>,0.004829581095611766,0.00625312656328164,0.04307873012311436
ProxyGenerator.code_astore,0.004790690297764643,0.00625312656328164,0.042731833331951435
ObjectName.<clinit>,0.0047758975042503345,0.00625312656328164,0.0425998850848977
DefaultMBeanServerInterceptor.makeResourceContextFor,0.004743706624976641,0.00625312656328164,0.04231274999528978
CtClassType.getClassFile3,0.004685794841128328,0.00625312656328164,0.04179619047222547
ManagementFactoryHelper.getOperatingSystemMXBean,0.0046181035454688395,0.00625312656328164,0.04119239999854472
DefaultMXBeanMappingFactory.makeCompositeMapping,0.0045390253404487746,0.00625312656328164,0.04048704096527888
Unsafe.getLong,0.004442873552588814,0.00625312656328164,0.03962938957935687
MBeanServerDelegateImpl.<init>,0.004368724788369991,0.00625312656328164,0.038968000001356515
VertexDegree.<init>,0.0040865817160387705,0.00625312656328164,0.036451350000364376
Unsafe.compareAndSwapInt,0.004000820215987081,0.00625312656328164,0.03568637754363577
MBeanAnalyzer.eliminateCovariantMethods,0.003970491196988169,0.00625312656328164,0.0354158498107978
UTF_8$Encoder.encodeArrayLoop,0.003969530291811751,0.00625312656328164,0.035407278762098274
Handler.openConnection,0.00393004971767472,0.00625312656328164,0.035055121304818984
Util.<clinit>,0.0038827877398145525,0.00625312656328164,0.034633555552217234
ClassRepository.make,0.0038480735410400483,0.00625312656328164,0.03432391304475301
MBeanFeatureInfo.getDescriptor,0.003622192588912228,0.00625312656328164,0.032309107954202214
DescriptorCache.<init>,0.0036055142975233018,0.00625312656328164,0.03216034150853449
ParallelListResourceBundle.keySet,0.0035934677224774758,0.00625312656328164,0.03205288888582597
ManagementFactoryHelper.getMemoryMXBean,0.0035841552174185843,0.00625312656328164,0.031969823525857866
FloatConverter.getValue,0.0033540911876510505,0.02501250625312656,0.029917706364310064
SubstituteLoggerFactory.<init>,0.003246542737762653,0.00625312656328164,0.028958399427294095
JmxMBeanServer$3.<init>,0.0031545536994855338,0.00625312656328164,0.028137878790871717
Chaperone.retire,0.0026123321210578107,0.056278139069534765,0.02330138954230301
DefaultMXBeanMappingFactory.makeMapping,0.002235452783569661,0.00625312656328164,0.019939714285750854
Unsafe.park,0.0017968068443291586,0.02501250625312656,0.016027095434954227
SignatureParser.parseClassSignature,0.0017719075980451512,0.00625312656328164,0.01580500000064993
Unsafe.getAndAddInt,0.0008954960756563524,0.00625312656328164,0.007987614868825687
RandomAccessFile.readBuffer,0.0006426061536023473,0.00625312656328164,0.005731896104124019
PerfCounter.add,0.0004667269276786229,0.00625312656328164,0.004163094678527365
CompressedIO.readCompressed,0.0002889463154382649,0.00625312656328164,0.0025773333331421283
Histogram.setMax,5.176974325527447e-05,0.00625312656328164,0.00046177396218965256
UTF_8$Encoder.encodeLoop,0.0,0.00625312656328164,0.0
Tracer.doOpcode148_201,0.0,0.00625312656328164,0.0
ClassPool.getCached,0.0,0.00312656328164082,0.0
Native.invokeInt,0.0,0.00625312656328164,0.0
FloatingDecimal.getBinaryToASCIIConverter,0.0,0.00625312656328164,0.0
ChiLogger.getLogger,0.0,0.00625312656328164,0.0
IntegerInfo.<init>,0.0,0.00625312656328164,0.0
LocaleProviderAdapter.<clinit>,0.0,0.00625312656328164,0.0
ZoneInfoFile.getZoneInfo,0.0,0.00625312656328164,0.0
ZoneInfoFile.indexOf,0.0,0.01250625312656328,0.0
ZoneInfoFile.load,0.0,0.018759379689844924,0.0
VertexData$1.next,-0.031236758689598826,0.0750375187593797,-0.2786245578799256
