method,dram1,package1,dram2,package2,energy
Benchmark.fileFromInputStream,0.3550926524205682,3.7205401656429196,0.5552129686138506,4.239815803756248,8.870661590433588
TestHarness.rmdir,0.1504143878087873,1.6842574077332386,0.26756364015055756,1.7322139427051224,3.8344493783977063
IntrospectionUtils.setProperty,0.1270554919835681,1.3367392245367706,0.14046968257754416,1.2179603939811439,2.822224793079027
