method,dram1,package1,dram2,package2,energy
$Proxy0.syscall|GLIBC.gettid|GLIBC.getThreadId,0.0,0.0,0.0,0.0,0.0
ASCIICaseInsensitiveComparator.isUpper|ASCIICaseInsensitiveComparator.toLower|ASCIICaseInsensitiveComparator.lowerCaseHashCode,0.0039239999983692545,0.0635865999996895,0.009150000000469541,0.0690713333315216,0.1457319333300499
ASTNode.checkInvocationArguments|MessageSend.resolveType|Expression.resolve,0.0,0.0,0.0,0.0,0.0
AbstractAlgorithmConstraints.getAlgorithms|DisabledAlgorithmConstraints.<init>|DisabledAlgorithmConstraints.<init>,0.0,0.0,0.0,0.0,0.0
AbstractDOMParser.startDocument|XMLDTDValidator.startDocument|XMLDocumentScannerImpl.startEntity,7.514355224148646e-05,0.0005409715250766423,0.0009233008408165019,0.00607697614370436,0.00761639206183899
AbstractRepository.getReifier|MethodRepository.getReturnType|Method.getGenericReturnType,8.749246913285891e-05,0.0009857928992489998,0.0005578651685487437,0.003097707865134488,0.00472885840206509
AbstractSAXParser.endElement|AbstractXMLDocumentParser.emptyElement|XMLDocumentFragmentScannerImpl.scanStartElement,0.0070549751913825155,0.05470488659721948,0.0,0.0,0.061759861788602
AbstractSAXParser.parse|SAXParserImpl$JAXPSAXParser.parse|Digester.parse,0.0,0.0,0.0,0.0,0.0
AbstractXMLDocumentParser.emptyElement|XMLDocumentFragmentScannerImpl.scanStartElement|XMLDocumentFragmentScannerImpl$FragmentContentDriver.next,0.0,0.0,0.0,0.0,0.0
ApplicationContext.<init>|StandardContext.getServletContext|StandardContext.postWorkDirectory,0.0,0.0,0.0,0.0,0.0
ApplicationContextFacade.setAttribute|StandardContext.postWorkDirectory|StandardContext.start,0.0,0.0,0.004377605396638397,0.05030469068747447,0.05468229608411286
ApplicationFilterChain.internalDoFilter|ApplicationFilterChain.doFilter|StandardWrapperValve.invoke,0.0,0.0,0.0,0.0,0.0
ApplicationFilterFactory.matchFiltersURL|ApplicationFilterFactory.matchFiltersURL|ApplicationFilterFactory.createFilterChain,0.0,0.0,0.0,0.0,0.0
AttributeInfo.createAttributeInfo|ManagedBean.getMBeanInfo|BaseModelMBean.getMBeanInfo,0.0,0.0,0.008920699546210683,0.059573038279936874,0.06849373782614755
AttributeInfo.read|MethodInfo.read|MethodInfo.<init>,0.0,0.0,0.0,0.0,0.0
AttributeMap.<init>|ElementImpl.getAttributes|ParserUtils.convert,0.0,0.0,0.0,0.0,0.0
AugmentationsImpl$SmallContainer.clear|AugmentationsImpl.removeAllItems|XMLAttributesImpl.addAttribute,1.733967063406568e-05,0.00040980384953822393,0.0,0.0,0.0004271435201722896
AuthenticatorBase.invoke|StandardHostValve.invoke|ErrorReportValve.invoke,0.0,0.0,0.0,0.0,0.0
BaseCalendar$Date.setCache|BaseCalendar.getCalendarDateFromFixedDate|GregorianCalendar.computeFields,0.0,0.0,0.0,0.0,0.0
BaseCalendar.isLeapYear|BaseCalendar.getCalendarDateFromFixedDate|GregorianCalendar.computeFields,0.0,0.0,0.0,0.0,0.0
BaseModelMBean.postDeregister|DefaultMBeanServerInterceptor.postDeregisterInvoke|DefaultMBeanServerInterceptor.exclusiveUnregisterMBean,0.0,0.0,0.0,0.0,0.0
BasicAuthenticator.authenticate|AuthenticatorBase.invoke|StandardHostValve.invoke,0.0,0.0,0.0002687694160881483,0.002126052297003912,0.0023948217130920608
Benchmark.prepareJars|Benchmark.initialize|Benchmark.<init>,0.005233333332903889,0.04503022222181445,0.0,0.0,0.050263555554718335
Benchmark.run|TestHarness.runBenchmark|TestHarness.main,0.0,0.0,0.012523497969805128,0.05984559458402935,0.07236909255383447
BinaryTypeBinding.<init>|LookupEnvironment.createBinaryTypeFrom|LookupEnvironment.createBinaryTypeFrom,0.0,0.0,0.0011269056056822982,0.008117056799357897,0.009243962405040195
BinaryTypeBinding.createFields|BinaryTypeBinding.cachePartsFrom|LookupEnvironment.createBinaryTypeFrom,0.0,0.0,0.0,0.0,0.0
BinaryTypeBinding.createMethods|BinaryTypeBinding.cachePartsFrom|LookupEnvironment.createBinaryTypeFrom,0.00017123770449916053,0.0014804410968974092,0.0,0.0,0.0016516788013965695
BinaryTypeBinding.createMethod|BinaryTypeBinding.createMethods|BinaryTypeBinding.cachePartsFrom,0.0,0.0,0.002055583749379195,0.011776880625967425,0.013832464375346621
Binding.isValidBinding|QualifiedTypeReference.getTypeBinding|TypeReference.resolveType,0.0,0.0,0.000271068915625117,0.0012521543745585581,0.001523223290183675
BlockScope.getBinding|QualifiedNameReference.resolveType|CastExpression.resolveType,0.0008597647058195434,0.010116764705890091,0.0,0.0,0.010976529411709636
Bootstrap.createClassLoader|Bootstrap.initClassLoaders|Bootstrap.init,0.0,0.0,0.004880000000897175,0.042724533336392284,0.047604533337289465
ByteChunk.equalsIgnoreCase|MessageBytes.equalsIgnoreCase|MimeHeaders.getValue,0.0,0.0,0.0,0.0,0.0
ByteChunk.recycle|MessageBytes.recycle|MappingData.recycle,0.0,0.0,0.0,0.0,0.0
ByteChunk.setBytes|MessageBytes.setBytes|InternalNioInputBuffer.parseRequestLine,0.0,0.0,0.0,0.0,0.0
CalendarSystem.<clinit>|Date.<clinit>|Notification.<init>,0.0,0.0,0.01740500000111448,0.14406333333560417,0.16146833333671867
Catalina.createStartDigester|Catalina.load|Catalina.load,0.0,0.0,0.0073680000001331795,0.06276859999925362,0.0701365999993868
CatalinaProperties.loadProperties|CatalinaProperties.<clinit>|Bootstrap.createClassLoader,0.0,0.0,0.011009999999563052,0.07147200000084315,0.0824820000004062
Chaperone.retire|Chaperone.dismiss|Chaperone.main,0.010358526230050184,0.07918310918037846,0.0,0.0,0.08954163541042864
CharChunk.getStart|Mapper.find|Mapper.internalMapExactWrapper,0.0,0.0,0.0,0.0,0.0
CharChunk.indexOf|CoyoteAdapter.checkNormalize|CoyoteAdapter.postParseRequest,0.0,0.0,0.0,0.0,0.0
CharChunk.setEnd|Mapper.internalMapExtensionWrapper|Mapper.internalMapWrapper,0.0,0.0,0.0,0.0,0.0
CharOperation.hashCode|HashtableOfObject.get|MethodVerifier.computeInheritedMethods,0.0,0.0,0.00010753246755626463,0.0005080909090261762,0.0006156233765824407
CharOperation.indexOf|SignatureWrapper.computeEnd|LookupEnvironment.getTypeFromTypeSignature,0.0,0.0,0.0010626966476720444,0.008446596819969045,0.009509293467641091
CharOperation.splitOn|LookupEnvironment.getTypeFromConstantPoolName|LookupEnvironment.getTypeFromSignature,9.109422501123872e-05,0.001964137158060427,0.0,0.0,0.0020552313830716658
ChunkedInputStream.read|FilterInputStream.read|AutoCloseInputStream.read,0.0,0.0,0.0,0.0,0.0
ClassClassPath.openClassfile|ClassPoolTail.openClassfile|ClassPool.openClassfile,0.0,0.0,0.009284617945264308,0.07593292654510654,0.08521754449037085
ClassFile.<init>|ClassFilePool.acquire|ClassFile.getNewInstance,0.0016162109739125765,0.01763918818529804,0.00047391304352735773,0.003167637681210603,0.02289694988394858
ClassFile.addAttribute|ClassFile.read|ClassFile.<init>,0.0,0.0,0.0,0.0,0.0
ClassFile.addField2|ClassFile.read|ClassFile.<init>,0.0,0.0,0.0,0.0,0.0
ClassFile.completeCodeAttribute|AbstractMethodDeclaration.generateCode|AbstractMethodDeclaration.generateCode,0.0,0.0,0.0,0.0,0.0
ClassFile.createProblemType|TypeDeclaration.generateCode|TypeDeclaration.generateCode,0.0,0.0,0.0,0.0,0.0
ClassFile.getSuperclass|CtClassType.getSuperclass|ThreadCoreMapInjector.getSuperClass,0.0,0.0,0.009543333332759276,0.08419911111263058,0.09374244444538986
ClassFile.read|ClassFile.<init>|CtClassType.<init>,0.0,0.0,0.0,0.0,0.0
ClassFileAssembler.emitShort|ClassFileAssembler.emitConstantPoolMethodref|AccessorGenerator.emitCommonConstantPoolEntries,0.0,0.0,0.0,0.0,0.0
ClassFileReader.<init>|JDTCompiler$1.findType|JDTCompiler$1.findType,0.0,0.0,0.0,0.0,0.0
ClassFileStruct.utf8At|ClassFileReader.<init>|JDTCompiler$1.findType,0.0,0.0,0.0,0.0,0.0
ClassFileStruct.utf8At|MethodInfo.getGenericSignature|MethodInfo.initialize,0.00045983009710026337,0.005608266990289071,0.0,0.0,0.006068097087389334
ClassFileStruct.utf8At|MethodInfo.readExceptionAttributes|MethodInfo.getExceptionTypeNames,0.0,0.0,0.0,0.0,0.0
ClassFileStruct.utf8At|MethodInfo.readModifierRelatedAttributes|MethodInfo.getModifiers,0.0,0.0,0.0,0.0,0.0
ClassLoaderFactory.<clinit>|Bootstrap.createClassLoader|Bootstrap.initClassLoaders,0.0,0.0,0.0,0.0,0.0
ClassPool.compress|ClassPool.makeClass|ClassPool.makeClass,0.0,0.0,0.0,0.0,0.0
ClassPool.createCtClass|ClassPool.get0|ClassPool.get,0.0,0.0,0.0,0.0,0.0
ClassScope.buildFields|ClassScope.buildFieldsAndMethods|CompilationUnitScope.buildFieldsAndMethods,0.0,0.0,0.0,0.0,0.0
ClassScope.buildType|CompilationUnitScope.buildTypeBindings|LookupEnvironment.buildTypeBindings,0.0,0.0,0.0004612366765389788,0.0029477013373660553,0.0034089380139050336
Client.run|Thread.run|end.end,0.0011263820224996196,0.01161121797752488,0.0,0.0,0.0127376000000245
CodeAttribute.<init>|AttributeInfo.read|CodeAttribute.<init>,0.0057954995427470105,0.04262473650279963,0.0,0.0,0.048420236045546634
CodeAttribute.<init>|AttributeInfo.read|MethodInfo.read,0.00020353700708581598,0.0016738721496810669,0.0,0.0,0.001877409156766883
CodeIterator.insertGap2|CodeIterator.insertGapCore1|CodeIterator.insertGapCore0,0.008028385355040048,0.07331391755455298,0.0,0.0,0.08134230290959303
CommandLineArgs.getVerbose|CommandLineArgs.getSilent|Benchmark.setCommandLineOptions,0.0,0.0,0.0,0.0,0.0
CompilationUnitScope.buildTypeBindings|LookupEnvironment.buildTypeBindings|Compiler.internalBeginToCompile,0.00019633392947344751,0.0014637721887414206,0.0,0.0,0.0016601061182148682
Compiler.<init>|Compiler.<init>|JDTCompiler.generateClass,0.0012148676872180252,0.010058970051644408,0.00040688216439780815,0.002485008553176699,0.01416572845643694
Compiler.<init>|JDTCompiler.generateClass|Compiler.compile,0.0,0.0,0.0,0.0,0.0
Compiler.generateJava|Compiler.compile|Compiler.compile,0.0,0.0,0.0,0.0,0.0
Compiler.initializeParser|Compiler.<init>|Compiler.<init>,0.0010030300087449184,0.014360666195933534,0.0010218535415347737,0.008089859617342791,0.024475409363556015
CompositeName.<init>|NamingContext.bind|NamingContextListener.addResource,0.00462418128419206,0.037703490899603086,0.0,0.0,0.042327672183795136
CompositeName.get|NamingContext.bind|NamingContext.bind,0.002489999998942949,0.059643599999981235,0.0,0.0,0.06213359999892418
Config.parse|TestHarness.<init>|TestHarness.main,0.010109669705687328,0.0568126790893152,0.009206250000715954,0.0623322499995993,0.13846084879531778
ConfigFile.<init>|ConfigFile.<init>|Config.parse,0.009293251034849272,0.06642974895397462,0.00937999999829723,0.07191999999728674,0.15702299998440786
ConfigFileTokenManager.jjMoveNfa_0|ConfigFileTokenManager.jjMoveStringLiteralDfa0_0|ConfigFileTokenManager.getNextToken,0.01491395355061215,0.1469210637329494,0.0,0.0,0.16183501728356153
ConfigFileTokenManager.jjMoveNfa_0|ConfigFileTokenManager.jjStartNfaWithStates_0|ConfigFileTokenManager.jjMoveStringLiteralDfa3_0,0.0,0.0,0.0,0.0,0.0
ConfigFileTokenManager.jjMoveNfa_1|ConfigFileTokenManager.jjMoveStringLiteralDfa0_1|ConfigFileTokenManager.getNextToken,0.0,0.0,0.0,0.0,0.0
Connector.createRequest|CoyoteAdapter.service|Http11NioProcessor.process,0.0007185778878771498,0.0059445500199492565,0.0,0.0,0.0066631279078264065
Connector.createResponse|CoyoteAdapter.service|Http11NioProcessor.process,0.0,0.0,0.0,0.0,0.0
ConstPool.getItem|ConstPool.getClassInfo|ClassFile.read,0.0,0.0,0.011106383034588684,0.06621903007724315,0.07732541311183183
ConstPool.readOne|ConstPool.read|ConstPool.<init>,0.0,0.0,0.0,0.0,0.0
ConstantPool.<clinit>|MethodInfo.decodeLocalVariableAttribute|MethodInfo.decodeCodeAttribute,0.0,0.0,0.0,0.0,0.0
ConstantPool.literalIndexForNameAndType|ConstantPool.literalIndexForMethod|ConstantPool.literalIndexForMethod,0.0,0.0,0.0021150895810617327,0.01166862186056279,0.013783711441624522
ContextConfig.<clinit>|Class.forName0|Class.forName,0.0068553481245940285,0.05804964048160345,0.0,0.0,0.06490498860619748
ContextConfig.init|ContextConfig.lifecycleEvent|LifecycleSupport.fireLifecycleEvent,0.0,0.0,0.0,0.0,0.0
CookieSpecBase.match|HttpMethodBase.addCookieRequestHeader|HttpMethodBase.addRequestHeaders,0.0,0.0,0.0,0.0,0.0
CoreReflectionFactory.makeTypeVariable|Reifier.visitFormalTypeParameter|FormalTypeParameter.accept,0.0,0.0,0.0,0.0,0.0
CoyoteAdapter.normalize|CoyoteAdapter.postParseRequest|CoyoteAdapter.service,0.0003340000001723335,0.0033864333333743467,0.0,0.0,0.00372043333354668
CoyoteAdapter.postParseRequest|CoyoteAdapter.service|Http11NioProcessor.process,0.0,0.0,0.0,0.0,0.0
CtClassType.getClassFile3|CtClassType.getClassFile2|CtClassType.getInterfaces,0.0023938334864379678,0.035057708231948245,0.0,0.0,0.037451541718386216
CtClassType.getInterfaces|CtClassType.getField2|CtClassType.getField,0.0,0.0,0.0,0.0,0.0
DTDDVFactoryImpl.<clinit>|DTDDVFactory.getInstance|DTDDVFactory.getInstance,0.003544342540713203,0.0462688970365609,0.0,0.0,0.049813239577274106
DTDGrammar.<init>|XMLDTDValidator.doctypeDecl|XMLDocumentScannerImpl.scanDoctypeDecl,0.0,0.0,0.0,0.0,0.0
DTDGrammar.notationDecl|XMLDTDProcessor.notationDecl|XMLDTDScannerImpl.scanNotationDecl,0.004586197934489825,0.0635350308070826,0.0,0.0,0.06812122874157242
DacapoClassLoader.loadClass|ClassLoader.loadClass|Bootstrap.createClassLoader,0.0,0.0,0.0,0.0,0.0
DefaultAnnotationProcessor.processAnnotations|StandardWrapper.loadServlet|StandardWrapper.load,0.006350110957357922,0.04695689954867819,0.0,0.0,0.05330701050603611
DefaultMBeanServerInterceptor$ResourceContext.<clinit>|DefaultMBeanServerInterceptor.makeResourceContextFor|DefaultMBeanServerInterceptor.registerWithRepository,0.0,0.0,0.0,0.0,0.0
DefaultMBeanServerInterceptor.createClassLoaderContext|DefaultMBeanServerInterceptor.makeResourceContextFor|DefaultMBeanServerInterceptor.registerWithRepository,0.0,0.0,0.0,0.0,0.0
DefaultMBeanServerInterceptor.getListenerWrapper|DefaultMBeanServerInterceptor.addNotificationListener|JmxMBeanServer.addNotificationListener,0.0,0.0,0.0,0.0,0.0
DefaultMBeanServerInterceptor.registerDynamicMBean|DefaultMBeanServerInterceptor.registerObject|DefaultMBeanServerInterceptor.registerMBean,0.0,0.0,0.006576091883876146,0.03529598498438386,0.041872076868260014
DefaultMBeanServerInterceptor.registerMBean|JmxMBeanServer$2.run|AccessController.doPrivileged,0.0,0.0,0.002759999998185473,0.05242899999817988,0.05518899999636536
DefaultProxySelector.select|SocksSocketImpl.connect|Socket.connect,0.0,0.0,0.0,0.0,0.0
DeferredCommentImpl.<init>|DeferredDocumentImpl.getNodeObject|DeferredDocumentImpl.synchronizeChildren,7.111111102668338e-05,0.0006372113289841104,0.0,0.0,0.0007083224400107937
DeferredDocumentImpl.getNodeName|DeferredDocumentImpl.getNodeName|DeferredElementNSImpl.synchronizeData,0.0,0.0,0.0005353097345440986,0.004594377581058289,0.005129687315602388
DeferredDocumentImpl.getNodeObject|DeferredDocumentImpl.synchronizeChildren|CoreDocumentImpl.getDocumentElement,0.0,0.0,0.001357869780128139,0.008321645265173858,0.009679515045301996
DeferredDocumentImpl.getNodeObject|DeferredDocumentTypeImpl.synchronizeChildren|DocumentTypeImpl.getElements,0.0,0.0,0.0,0.0,0.0
DeferredDocumentImpl.getNodeObject|DeferredElementNSImpl.synchronizeData|ElementImpl.getNodeName,0.0007245314975557566,0.00604071013470675,2.888495579518509e-05,0.0002458690264905119,0.007039995614548203
DeferredDocumentImpl.getNodeValueString|DeferredDocumentImpl.getNodeValueString|DeferredTextImpl.synchronizeData,0.0,0.0,0.0001155529946199212,0.0011823790233976312,0.0012979320180175526
DigestBase.engineUpdate|DigestBase.engineUpdate|MessageDigest$Delegate.engineUpdate,0.0029097037289067,0.029593170792198465,0.0008074390243564268,0.004006000000006724,0.03731631354546833
DigestBase.engineUpdate|MessageDigest$Delegate.engineUpdate|MessageDigest.update,0.001162172619077619,0.01131407341265927,0.0018736363635980524,0.009800295454459212,0.024150177849794154
Digester.getRules|Digester.addRule|Digester.addObjectCreate,0.0,0.0,0.010999999998603016,0.05757666666371127,0.0685766666623143
Digester.ignorableWhitespace|AbstractSAXParser.ignorableWhitespace|XMLDTDValidator.characters,0.0,0.0,0.004310999999870546,0.022668399999383842,0.026979399999254392
Digester.startElement|AbstractSAXParser.startElement|XMLDocumentFragmentScannerImpl.scanStartElement,0.0,0.0,0.0,0.0,0.0
Digester.updateAttributes|Digester.startElement|AbstractSAXParser.startElement,0.0,0.0,0.014382279630520209,0.09280072782269216,0.10718300745321237
Digester.updateBodyText|Digester.endElement|AbstractSAXParser.endElement,0.0,0.0,0.0,0.0,0.0
DigesterFactory.newDigester|ContextConfig.createWebXmlDigester|ContextConfig.createWebDigester,0.004317331541388254,0.03302059509953116,0.0,0.0,0.03733792664091942
DirectJDKLog.<init>|DirectJDKLog.getInstance|LogFactory.getInstance,0.0033442603136557467,0.04984400521549777,0.02737883700522748,0.2009934365004353,0.2815605390348163
DisabledAlgorithmConstraints$Constraint$Operator.values|DisabledAlgorithmConstraints$1.<clinit>|DisabledAlgorithmConstraints$KeySizeConstraint.<init>,0.0,0.0,0.0002950000004299605,0.05716933333314955,0.05746433333357951
DisabledAlgorithmConstraints$Constraints.<init>|DisabledAlgorithmConstraints.<init>|DisabledAlgorithmConstraints.<init>,0.0,0.0,0.019333886357232648,0.12476936865800287,0.14410325501523552
DisabledAlgorithmConstraints$KeySizeConstraint.<init>|DisabledAlgorithmConstraints$Constraints.<init>|DisabledAlgorithmConstraints.<init>,0.0,0.0,0.0060420060074380146,0.0361163018511576,0.04215830785859562
DocumentBuilderFactory.isCoalescing|DocumentBuilderImpl.<init>|DocumentBuilderFactoryImpl.newDocumentBuilder,0.0,0.0,0.0,0.0,0.0
DocumentBuilderImpl.<init>|DocumentBuilderFactoryImpl.newDocumentBuilder|ParserUtils.parseXMLDocument,0.0,0.0,0.0,0.0,0.0
ELParser.CompositeExpression|ExpressionBuilder.createNodeInternal|ExpressionBuilder.build,0.0,0.0,0.0,0.0,0.0
ELParser.hasNextChar|ELParser.nextToken|ELParser.parseEL,0.00045652046872676815,0.004482175464861053,0.0,0.0,0.0049386959335878215
ELParser.parse|Validator$ValidateVisitor.visit|Node$ELExpression.accept,0.0,0.0,0.0005300686813255769,0.0035490961538696187,0.004079164835195196
ELResolverImpl.<clinit>|ELContextImpl.<init>|Validator$ValidateVisitor.prepareExpression,0.0,0.0,0.0018087062366597133,0.010096355083127156,0.011905061319786869
EPollArrayWrapper.epollCtl|EPollArrayWrapper.updateRegistrations|EPollArrayWrapper.poll,0.0003081925438629717,0.004507952097279558,0.001105325701618102,0.006513369943826166,0.012434840286586797
EPollArrayWrapper.epollWait|EPollArrayWrapper.poll|EPollSelectorImpl.doSelect,0.00014287994929624898,0.0010789219939691002,0.009261935596734277,0.04961510813828952,0.060098845678289145
EPollArrayWrapper.interrupt|EPollArrayWrapper.interrupt|EPollSelectorImpl.wakeup,0.00018075286609048729,0.0015237067909995676,0.0,0.0,0.0017044596570900546
EPollArrayWrapper.setUpdateEvents|EPollArrayWrapper.remove|EPollSelectorImpl.implDereg,0.00036409233662687313,0.003678232063305557,0.0,0.0,0.00404232439993243
EPollArrayWrapper.updateRegistrations|EPollArrayWrapper.poll|EPollSelectorImpl.doSelect,0.0004478908374353751,0.004895675969202843,0.0,0.0,0.005343566806638218
EPollSelectorImpl.<init>|EPollSelectorProvider.openSelector|Selector.open,0.0,0.0,0.0,0.0,0.0
EPollSelectorImpl.implDereg|SelectorImpl.processDeregisterQueue|EPollSelectorImpl.doSelect,0.0,0.0,0.0,0.0,0.0
EPollSelectorImpl.wakeup|NioEndpoint$Poller.addEvent|NioEndpoint$Poller.register,0.0,0.0,0.0,0.0,0.0
ElementImpl.getAttributes|DeferredElementNSImpl.synchronizeData|ElementImpl.getNodeName,0.0,0.0,0.0,0.0,0.0
ElementImpl.getDefaultAttributes|ElementImpl.setupDefaultAttributes|DeferredElementNSImpl.synchronizeData,0.0,0.0,0.0,0.0,0.0
EncodingUtil.getString|HttpParser.readLine|HttpParser.parseHeaders,0.0,0.0,0.0,0.0,0.0
ErrorReportValve.getPartialServletStackTrace|ErrorReportValve.report|ErrorReportValve.invoke,0.0,0.0,0.0,0.0,0.0
ErrorReportValve.report|ErrorReportValve.invoke|SingleSignOn.invoke,0.000315584415549491,0.003350584415630846,0.0,0.0,0.003666168831180337
ExpressionBuilder.createNodeInternal|ExpressionBuilder.build|ExpressionBuilder.createValueExpression,0.0,0.0,0.0019749669218078656,0.015421548022023387,0.01739651494383125
FeatureState.<init>|FeatureState.is|ParserConfigurationSettings.getFeatureState,0.0,0.0,0.0,0.0,0.0
FieldDeclaration.resolve|TypeDeclaration.resolve|TypeDeclaration.resolve,0.0,0.0,0.0,0.0,0.0
FileDirContext.list|FileDirContext.listBindings|ProxyDirContext.listBindings,0.0026934477744490607,0.040812433917239294,0.0,0.0,0.04350588169168836
FileDispatcherImpl.close0|SocketDispatcher.close|SocketChannelImpl.kill,0.0,0.0,0.0011489285714647154,0.005647214285826998,0.006796142857291713
FileDispatcherImpl.preClose0|SocketDispatcher.preClose|SocketChannelImpl.implCloseSelectableChannel,0.0,0.0,0.000458237547876425,0.00268959386974792,0.003147831417624345
FileDispatcherImpl.read0|SocketDispatcher.read|IOUtil.readIntoNativeBuffer,0.0,0.0,0.0,0.0,0.0
FileDispatcherImpl.write0|SocketDispatcher.write|IOUtil.writeFromNativeBuffer,0.0,0.0,0.0,0.0,0.0
FlowContext.checkExceptionHandlers|MessageSend.analyseCode|Block.analyseCode,0.00036086661830022894,0.0032363746908191803,0.0,0.0,0.0035972413091194095
FlowInfo.<clinit>|TypeDeclaration.analyseCode|CompilationUnitDeclaration.analyseCode,0.0,0.0,0.0013070892019035325,0.009963280125190157,0.011270369327093691
FormattedFloatingDecimal.<init>|FormattedFloatingDecimal.valueOf|Formatter$FormatSpecifier.print,0.0,0.0,0.0,0.0,0.0
Function.invoke|Library$Handler.invoke|$Proxy0.syscall,0.0,0.0,0.00019159212881312995,0.0008535429337118171,0.001045135062524947
GLIBC.getThreadId|NioEndpoint$SocketProcessor.run|ThreadPoolExecutor.runWorker,0.0,0.0,0.0,0.0,0.0
GLIBC.gettid|GLIBC.getThreadId|NioBlockingSelector$BlockPoller$3.run,0.0,0.0,6.464117650894504e-05,0.0003321352941309349,0.00039677647063987993
GeneratedMethodAccessor23.<init>|NativeConstructorAccessorImpl.newInstance0|NativeConstructorAccessorImpl.newInstance,0.0,0.0,0.0,0.0,0.0
Generator$GenerateVisitor.getTagHandlerInfo|Generator$GenerateVisitor.visit|Node$CustomTag.accept,0.0,0.0,0.0,0.0,0.0
Generator$GenerateVisitor.visit|Node$GetProperty.accept|Node$Nodes.visit,0.0,0.0,0.0,0.0,0.0
Generator.generate|Compiler.generateJava|Compiler.compile,0.0,0.0,0.0,0.0,0.0
HashtableOfObject.<init>|ConstantPool.<init>|ClassFile.<init>,0.0,0.0,0.00018020919717743212,0.0009566750647290156,0.0011368842619064476
Header.toExternalForm|HttpMethodBase.writeRequestHeaders|HttpMethodBase.writeRequest,0.0,0.0,0.0015296234867585006,0.009529720590754864,0.011059344077513364
HeaderGroup.getFirstHeader|HttpMethodBase.readResponseBody|HttpMethodBase.readResponseBody,0.0,0.0,0.0002682352940824143,0.0017278382352635484,0.0019960735293459626
HeaderGroup.getHeaders|HeaderGroup.getCondensedHeader|HttpMethodBase.getRequestHeader,0.0,0.0,0.0,0.0,0.0
HeaderGroup.getHeaders|HttpMethodBase.processResponseHeaders|HttpMethodBase.readResponse,0.0,0.0,0.0,0.0,0.0
Http11NioProcessor.<init>|Http11NioProtocol$Http11ConnectionHandler.createProcessor|Http11NioProtocol$Http11ConnectionHandler.process,0.00111999999981159,0.00949515686279126,0.0013279411764861102,0.010773313725390015,0.022716411764478972
Http11NioProcessor.action|Http11NioProtocol$Http11ConnectionHandler.process|NioEndpoint$SocketProcessor.run,0.0,0.0,0.0,0.0,0.0
Http11NioProcessor.initializeFilters|Http11NioProcessor.<init>|Http11NioProtocol$Http11ConnectionHandler.createProcessor,0.0,0.0,0.0,0.0,0.0
Http11NioProcessor.parseHost|Http11NioProcessor.prepareRequest|Http11NioProcessor.process,0.0,0.0,0.0,0.0,0.0
Http11NioProcessor.prepareRequest|Http11NioProcessor.process|Http11NioProtocol$Http11ConnectionHandler.process,0.0,0.0,0.0,0.0,0.0
Http11NioProcessor.process|Http11NioProtocol$Http11ConnectionHandler.process|NioEndpoint$SocketProcessor.run,0.0,0.0,0.0,0.0,0.0
Http11NioProtocol$Http11ConnectionHandler.createProcessor|Http11NioProtocol$Http11ConnectionHandler.process|NioEndpoint$SocketProcessor.run,0.0,0.0,0.0,0.0,0.0
Http11NioProtocol.<init>|NativeConstructorAccessorImpl.newInstance0|NativeConstructorAccessorImpl.newInstance,0.006989093408373144,0.10217432334638066,0.0,0.0,0.1091634167547538
HttpClient.<init>|HttpClient.<init>|Session.<init>,0.0,0.0,0.0,0.0,0.0
HttpConnection.closeSocketAndStreams|HttpConnection.close|MultiThreadedHttpConnectionManager$HttpConnectionAdapter.close,0.0,0.0,0.0008992431637568914,0.00530398397939416,0.00620322714315105
HttpConnection.isStale|HttpConnection.closeIfStale|MultiThreadedHttpConnectionManager$HttpConnectionAdapter.closeIfStale,0.0,0.0,0.0,0.0,0.0
HttpConnection.releaseConnection|MultiThreadedHttpConnectionManager$HttpConnectionAdapter.releaseConnection|HttpMethodBase.ensureConnectionRelease,0.0,0.0,0.0,0.0,0.0
HttpMethodBase.<init>|GetMethod.<init>|HttpGet.fetch,0.0,0.0,0.0,0.0,0.0
HttpMethodBase.getCookieSpec|HttpMethodBase.addCookieRequestHeader|HttpMethodBase.addRequestHeaders,0.0,0.0,0.0,0.0,0.0
HttpMethodBase.getParams|HttpMethodBase.readStatusLine|HttpMethodBase.readResponse,0.0,0.0,0.0009850000000476617,0.006255509803760979,0.00724050980380864
HttpMethodBase.getPath|HttpMethodBase.addCookieRequestHeader|HttpMethodBase.addRequestHeaders,0.0,0.0,0.0,0.0,0.0
HttpMethodBase.getQueryString|HttpMethodBase.getRequestLine|HttpMethodBase.writeRequestLine,0.0,0.0,0.0015637850045107048,0.010115404396294905,0.011679189400805607
HttpMethodBase.getResponseBodyAsStream|HttpMethodDirector.executeMethod|HttpClient.executeMethod,0.0,0.0,0.0,0.0,0.0
HttpMethodBase.getResponseContentLength|HttpMethodBase.readResponseBody|HttpMethodBase.readResponseBody,0.0,0.0,0.00042342768481259583,0.0027659059785486344,0.0031893336633612305
HttpMethodBase.readResponse|HttpMethodBase.execute|HttpMethodDirector.executeWithRetry,0.0,0.0,0.0,0.0,0.0
HttpMethodBase.writeRequestHeaders|HttpMethodBase.writeRequest|HttpMethodBase.execute,0.0,0.0,0.0,0.0,0.0
HttpPost.fetch|Client.run|Thread.run,0.0,0.0,0.0,0.0,0.0
HttpState.matchCredentials|HttpState.getCredentials|HttpMethodDirector.authenticateHost,0.0,0.0,0.0,0.0,0.0
IOStatus.normalize|SocketChannelImpl.read|NioChannel.read,0.0,0.0,0.0,0.0,0.0
IOUtil.configureBlocking|SocketChannelImpl.implConfigureBlocking|AbstractSelectableChannel.configureBlocking,0.0,0.0,0.0,0.0,0.0
IOUtil.drain|EPollSelectorImpl.doSelect|SelectorImpl.lockAndDoSelect,0.0009468452361802027,0.00992461299439614,0.0023991356031946754,0.012141052752879227,0.025411646586650245
IOUtil.makePipe|EPollSelectorImpl.<init>|EPollSelectorProvider.openSelector,0.003749743191278775,0.0606167032008541,0.0,0.0,0.06436644639213288
ISO_8859_1$Decoder.decodeArrayLoop|ISO_8859_1$Decoder.decodeLoop|CharsetDecoder.decode,0.0,0.0,0.0,0.0,0.0
ISO_8859_1.newDecoder|StreamDecoder.<init>|StreamDecoder.forInputStreamReader,0.0,0.0,0.0,0.0,0.0
IdleConnectionHandler.add|MultiThreadedHttpConnectionManager$ConnectionPool.freeConnection|MultiThreadedHttpConnectionManager.releaseConnection,0.0,0.0,0.0,0.0,0.0
ImmutableDescriptor.makeMap|ImmutableDescriptor.makeMap|ImmutableDescriptor.<init>,0.017013482271037075,0.15976250465688843,0.020540233580594383,0.15170293124124692,0.3490191517497668
InnerClassInfo.getEnclosingTypeName|InnerClassInfo.initialize|ClassFileReader.initialize,0.0,0.0,0.0013646666666318195,0.008213977777631954,0.009578644444263774
InternalNioInputBuffer.endRequest|Http11NioProcessor.endRequest|Http11NioProcessor.process,0.0,0.0,0.0,0.0,0.0
InternalNioInputBuffer.nextRequest|Http11NioProcessor.process|Http11NioProtocol$Http11ConnectionHandler.process,0.0,0.0,0.0,0.0,0.0
InternalNioInputBuffer.parseHeader|InternalNioInputBuffer.parseHeaders|Http11NioProcessor.process,0.0,0.0,0.0,0.0,0.0
InternalNioInputBuffer.parseRequestLine|Http11NioProcessor.process|Http11NioProtocol$Http11ConnectionHandler.process,0.0,0.0,0.0,0.0,0.0
InternalNioInputBuffer.readSocket|InternalNioInputBuffer.parseRequestLine|Http11NioProcessor.process,0.0,0.0,0.0,0.0,0.0
InternalNioOutputBuffer.nextRequest|Http11NioProcessor.process|Http11NioProtocol$Http11ConnectionHandler.process,0.0,0.0,0.0,0.0,0.0
InternalNioOutputBuffer.write|InternalNioOutputBuffer.write|InternalNioOutputBuffer.sendHeader,0.0,0.0,0.0,0.0,0.0
IntrospectionUtils.callMethodN|CallMethodRule.end|Rule.end,0.0,0.0,0.0,0.0,0.0
IntrospectionUtils.capitalize|IntrospectionUtils.setProperty|NioEndpoint.setProperty,0.0,0.0,0.0,0.0,0.0
IntrospectionUtils.setProperty|NioEndpoint.setProperty|GeneratedMethodAccessor1.invoke,0.025064806551251508,0.30618852481976255,0.020236307659654687,0.2220105074733292,0.5735001465039979
IntrospectionUtils.setProperty|NioEndpoint.setProperty|NativeMethodAccessorImpl.invoke0,0.0,0.0,0.003879523799417268,0.04841645702084178,0.05229598082025905
IntrospectionUtils.setProperty|SetPropertiesRule.begin|Rule.begin,0.006422911886834647,0.05690553995202024,0.0,0.0,0.06332845183885487
JDTCompiler.generateClass|Compiler.compile|Compiler.compile,0.00017248668148037142,0.0010415856278169126,0.0,0.0,0.001214072309297284
JRELocaleProviderAdapter.getDecimalFormatSymbolsProvider|DecimalFormatSymbols.getInstance|Formatter.getZero,0.0,0.0,0.0,0.0,0.0
JarFileFactory.get|JarURLConnection.connect|JarURLConnection.getInputStream,0.0,0.0,0.0,0.0,0.0
JarIndex.addToList|JarIndex.addMapping|JarIndex.read,0.0,0.0,0.009327807082764691,0.05473214725619479,0.06405995433895947
JasperLoader.loadClass|JasperLoader.loadClass|JspCompilationContext.load,0.0,0.0,0.0,0.0,0.0
JasperLoader.loadClass|JspCompilationContext.load|JspServletWrapper.getServlet,0.0,0.0,0.0,0.0,0.0
JkCoyoteHandler.getJkMain|JkCoyoteHandler.setProperty|NativeMethodAccessorImpl.invoke0,0.0,0.0,0.0,0.0,0.0
JkInputStream.<init>|MsgContext.<init>|JkHandler.createMsgContext,0.0,0.0,0.0,0.0,0.0
JmxMBeanServer.<init>|JmxMBeanServer.newMBeanServer|MBeanServerBuilder.newMBeanServer,0.014914429676679351,0.16731333173281948,0.03259659303904238,0.23003959207919972,0.4448639465277409
JmxMBeanServer.newMBeanServerDelegate|MBeanServerBuilder.newMBeanServerDelegate|MBeanServerFactory.newMBeanServer,0.0,0.0,0.037504691669109545,0.2557146747075744,0.29321936637668394
JspCompilationContext.getServletPackageName|JspCompilationContext.load|JspServletWrapper.getServlet,0.0,0.0,0.002093533724289107,0.013592942815394,0.0156864765396831
JspReader.getText|Parser.parseELExpression|Parser.parseElements,0.0,0.0,0.0,0.0,0.0
JspReader.mark|JspReader.matches|Parser.parseElements,0.0,0.0,0.0,0.0,0.0
JspReader.mark|JspReader.skipUntil|Parser.parseTagFileDirectives,0.0,0.0,0.0004642362385520171,0.0030603509174698296,0.003524587156021847
JspReader.pushFile|JspReader.<init>|JspReader.<init>,0.0,0.0,0.0,0.0,0.0
JspRuntimeContext.<init>|JspServlet.init|StandardWrapper.loadServlet,0.0,0.0,0.0,0.0,0.0
JspServletWrapper.<init>|JspServlet.serviceJspFile|JspServlet.service,0.0,0.0,0.0,0.0,0.0
JspServletWrapper.getServlet|JspServletWrapper.handleJspException|JspServletWrapper.service,0.0,0.0,0.0,0.0,0.0
JspServletWrapper.getServlet|JspServletWrapper.service|JspServlet.serviceJspFile,0.0,0.0,0.0,0.0,0.0
JspServletWrapper.service|JspServlet.serviceJspFile|JspServlet.service,0.0,0.0,0.0,0.0,0.0
JstlBaseTLV.isJspTag|JstlCoreTLV$Handler.startElement|AbstractSAXParser.startElement,0.0,0.0,0.0,0.0,0.0
Library$Handler.invoke|$Proxy0.syscall|GLIBC.gettid,0.0011110861267395566,0.01073351844215614,0.0,0.0,0.011844604568895698
LogFactory.getInstance|LogFactory.getInstance|LogFactory.getLog,0.0,0.0,0.011209001718071685,0.0707493705453813,0.08195837226345297
LogFactory.newFactory|LogFactory.getFactory|LogFactory.getLog,0.0,0.0,0.0,0.0,0.0
LoginConfig.setLoginPage|LoginConfig.<init>|ContextConfig.<clinit>,0.0043687737255995625,0.05918947378931508,0.0,0.0,0.06355824751491464
LongVector.addElement|ConstPool.addItem0|ConstPool.readOne,0.0,0.0,0.0,0.0,0.0
LongVector.elementAt|ConstPool.getItem|ConstPool.getUtf8Info,0.004548437883808515,0.03523642052333034,0.0,0.0,0.03978485840713886
LookupEnvironment.<clinit>|Compiler.<init>|Compiler.<init>,0.0,0.0,0.0001614793721322535,0.000804210250135148,0.0009656896222674016
LookupEnvironment.buildTypeBindings|Compiler.internalBeginToCompile|Compiler.beginToCompile,0.0008815898699240548,0.006339891576356237,0.0004844218984193295,0.0032514028738773004,0.010957306218576922
LookupEnvironment.createArrayType|LookupEnvironment.getTypeFromSignature|BinaryTypeBinding.createMethod,9.294455210542928e-05,0.0010093166627605898,0.0,0.0,0.0011022612148660189
LookupEnvironment.createBinaryTypeFrom|LookupEnvironment.createBinaryTypeFrom|Compiler.accept,0.0,0.0,0.0007860869564878608,0.0035665797101725157,0.004352666666660376
LookupEnvironment.createRawType|LookupEnvironment.convertToRawType|QualifiedTypeReference.getTypeBinding,0.0,0.0,0.0,0.0,0.0
LookupEnvironment.getPackage0|LookupEnvironment.getCachedType|LookupEnvironment.getTypeFromCompoundName,0.0,0.0,0.0,0.0,0.0
LookupEnvironment.getPackage0|LookupEnvironment.getType|LookupEnvironment.getResolvedType,0.0,0.0,0.0,0.0,0.0
LookupEnvironment.getTypeFromVariantTypeSignature|LookupEnvironment.getTypeArgumentsFromSignature|LookupEnvironment.getTypeFromTypeSignature,0.0,0.0,0.0,0.0,0.0
LookupEnvironment.methodVerifier|Compiler.process|Compiler.compile,6.029126214926488e-05,0.00042443446602315736,0.0,0.0,0.00048472572817242224
MBeanAnalyzer.eliminateCovariantMethods|MBeanAnalyzer.initMaps|MBeanAnalyzer.<init>,0.0,0.0,0.009660000000925113,0.05346666666446254,0.06312666666538765
MBeanInfo.<clinit>|MBeanNotificationInfo.<init>|MBeanNotificationInfo.<init>,0.0,0.0,0.0014517112033603278,0.023606787827105003,0.02505849903046533
MBeanInfo.<init>|MBeanInfo.<init>|MBeanServerDelegateImpl.<init>,0.0,0.0,0.02102720268986634,0.1213451163029029,0.14237231899276925
MBeanIntrospector$MBeanInfoMaker.makeMBeanInfo|MBeanIntrospector.makeInterfaceMBeanInfo|MBeanIntrospector.getPerInterface,0.0,0.0,0.0013599999995979788,0.04349766667291989,0.044857666672517865
MBeanIntrospector.getPerInterface|MBeanSupport.<init>|StandardMBeanSupport.<init>,0.005694999999832362,0.04060866666744308,0.0,0.0,0.04630366666727544
MBeanNotificationInfo.<init>|MBeanNotificationInfo.<init>|MBeanServerDelegate.<clinit>,0.004227999999420718,0.032763733333558774,0.010514537472321079,0.0658422412143772,0.11334851201967777
MBeanOperationInfo.parameters|MBeanConstructorInfo.constructorSignature|MBeanConstructorInfo.<init>,0.0,0.0,0.0,0.0,0.0
MBeanServerBuilder.newMBeanServerDelegate|MBeanServerFactory.newMBeanServer|MBeanServerFactory.createMBeanServer,0.01102779436670355,0.08458203291654467,0.016480000000835084,0.13334133333410136,0.24543116061818468
MBeanServerDelegate.<clinit>|JmxMBeanServer.newMBeanServerDelegate|MBeanServerBuilder.newMBeanServerDelegate,0.0013128069765354427,0.0266753552250739,0.0,0.0,0.02798816220160934
MBeanServerDelegate.<init>|MBeanServerDelegateImpl.<init>|JmxMBeanServer.newMBeanServerDelegate,0.0,0.0,0.006895000001046961,0.04376200000115205,0.05065700000219901
MBeanServerDelegateImpl.<clinit>|JmxMBeanServer.newMBeanServerDelegate|MBeanServerBuilder.newMBeanServerDelegate,0.0,0.0,0.0054799999998067506,0.03843166667017309,0.04391166666997984
MBeanServerFactory.checkMBeanServerBuilder|MBeanServerFactory.getNewMBeanServerBuilder|MBeanServerFactory.newMBeanServer,0.0,0.0,0.0,0.0,0.0
ManagedBean.createMBean|Registry.registerComponent|StandardWrapper.registerJMX,0.0063244709376681476,0.06275724704347728,0.0,0.0,0.06908171798114543
ManagerBase.getNewSession|ManagerBase.createEmptySession|ManagerBase.createSession,0.0,0.0,0.0,0.0,0.0
Mapper.compare|Mapper.find|Mapper.find,0.0,0.0,0.0,0.0,0.0
Mapper.internalMapExactWrapper|Mapper.internalMapWrapper|Mapper.internalMap,0.0,0.0,0.0,0.0,0.0
Mark.<init>|JspReader.mark|JspReader.matches,0.0009168141804270707,0.00763823929894855,0.0,0.0,0.008555053479375622
Mark.<init>|JspReader.mark|Parser.parseElements,0.0,0.0,0.0020452083333819047,0.010810847222071769,0.012856055555453674
MbeansDescriptorsIntrospectionSource.createManagedBean|MbeansDescriptorsIntrospectionSource.execute|MbeansDescriptorsIntrospectionSource.loadDescriptors,0.0043292242776523625,0.055787325477416536,0.0,0.0,0.0601165497550689
MemberResolver.lookupFieldByJvmName2|TypeChecker.fieldAccess2|TypeChecker.fieldAccess,0.0,0.0,0.0,0.0,0.0
MemoryUserDatabase.createRole|MemoryRoleCreationFactory.createObject|FactoryCreateRule.begin,0.0,0.0,0.0,0.0,0.0
MessageBytes.duplicate|CoyoteAdapter.postParseRequest|CoyoteAdapter.service,0.0,0.0,0.0,0.0,0.0
MessageBytes.setChars|Mapper.internalMapExtensionWrapper|Mapper.internalMapWrapper,0.0,0.0,0.0,0.0,0.0
Messages.load|Messages.initializeMessages|Messages.<clinit>,0.0,0.0,0.0,0.0,0.0
MethodBinding.isDefault|MethodVerifier.computeInheritedMethods|MethodVerifier.computeInheritedMethods,0.0,0.0,0.0,0.0,0.0
MethodDeclaration.resolveStatements|AbstractMethodDeclaration.resolve|TypeDeclaration.resolve,0.0,0.0,0.0,0.0,0.0
MethodFinder.<clinit>|Introspector.getPublicDeclaredMethods|Introspector.getTargetMethodInfo,0.0,0.0,0.0,0.0,0.0
MethodInfo.createMethod|ClassFileReader.<init>|JDTCompiler$1.findType,0.0,0.0,0.0,0.0,0.0
MethodInfo.decodeAnnotations|MethodInfo.decodeMethodAnnotations|MethodInfo.createMethod,0.0,0.0,0.0,0.0,0.0
MethodInfo.decodeCodeAttribute|MethodInfo.readCodeAttribute|MethodInfo.getArgumentNames,0.0,0.0,0.0,0.0,0.0
MethodVerifier.computeInheritedMethods|MethodVerifier.verify|MethodVerifier15.verify,0.0,0.0,0.0,0.0,0.0
MultiThreadedHttpConnectionManager$ConnectionPool.getHostPool|MultiThreadedHttpConnectionManager.doGetConnection|MultiThreadedHttpConnectionManager.getConnectionWithTimeout,0.0,0.0,0.0,0.0,0.0
MultiThreadedHttpConnectionManager$HttpConnectionAdapter.hasConnection|MultiThreadedHttpConnectionManager$HttpConnectionAdapter.getHost|HttpMethodBase.addCookieRequestHeader,0.0,0.0,0.0,0.0,0.0
MultiThreadedHttpConnectionManager$HttpConnectionAdapter.isOpen|HttpMethodDirector.executeWithRetry|HttpMethodDirector.executeMethod,0.0,0.0,0.0,0.0,0.0
MultiThreadedHttpConnectionManager.<clinit>|Session.<init>|AuthenticatedSession.<init>,0.0,0.0,0.0,0.0,0.0
MultiThreadedHttpConnectionManager.releaseConnection|HttpConnection.releaseConnection|MultiThreadedHttpConnectionManager$HttpConnectionAdapter.releaseConnection,0.0,0.0,0.0006268465608218561,0.003966961199429208,0.0045938077602510645
NamedNodeMapImpl.findNamePoint|NamedNodeMapImpl.getNamedItem|ElementImpl.getDefaultAttributes,0.0,0.0,0.0,0.0,0.0
NamedNodeMapImpl.getNamedItem|ElementImpl.getDefaultAttributes|ElementImpl.setupDefaultAttributes,0.0,0.0,0.0,0.0,0.0
NamingContext.bind|NamingContextListener.addResource|NamingContextListener.createNamingContext,0.008153320988499517,0.0596928966829781,0.0,0.0,0.06784621767147761
NamingContextListener.lifecycleEvent|LifecycleSupport.fireLifecycleEvent|StandardServer.start,0.001687777777584011,0.03606270370370045,0.0031375732805459244,0.04729081864054218,0.08817887340237257
NamingManager.<clinit>|NamingContext.bind|NamingContext.bind,0.006161040437977049,0.04707363169730542,0.0,0.0,0.05323467213528247
Native.invokeInt|Function.invoke|Function.invoke,0.0008605411204461451,0.007094494854074953,0.0012076056704798054,0.006110340902394337,0.015272982547395241
NativeConstructorAccessorImpl.newInstance0|NativeConstructorAccessorImpl.newInstance|DelegatingConstructorAccessorImpl.newInstance,0.0,0.0,0.00011027134616144887,0.0010579562678482103,0.001168227614009659
NativeMethodAccessorImpl.invoke0|NativeMethodAccessorImpl.invoke|DelegatingMethodAccessorImpl.invoke,0.0,0.0,0.0,0.0,0.0
NativeObject.getInt|EPollArrayWrapper.getDescriptor|EPollArrayWrapper.poll,0.0007107692308636615,0.015369115384601171,0.0,0.0,0.016079884615464834
NativeObject.getInt|EPollArrayWrapper.getDescriptor|EPollSelectorImpl.updateSelectedKeys,0.0007662735848532735,0.007984669811330091,0.0,0.0,0.008750943396183366
Net.bind0|Net.bind|Net.bind,0.00815418462734378,0.06455429454240931,0.0,0.0,0.07270847916975309
Net.localInetAddress|Net.localAddress|SocketChannelImpl.<init>,0.0,0.0,0.00325150173623738,0.021755756944559036,0.025007258680796413
Net.setIntOption0|Net.setSocketOption|SocketChannelImpl.setOption,0.0007645697530686009,0.00718481586225933,0.003584904886375265,0.02376778069378039,0.035302071195483585
Net.setSocketOption|SocketChannelImpl.setOption|SocketAdaptor.setBooleanOption,0.0,0.0,0.0,0.0,0.0
NioBlockingSelector$BlockPoller.wakeup|NioBlockingSelector$BlockPoller.remove|NioBlockingSelector.write,0.0,0.0,0.0,0.0,0.0
NioChannel.getBufHandler|InternalNioOutputBuffer.addToBB|InternalNioOutputBuffer.access$000,0.0,0.0,0.0,0.0,0.0
NioChannel.getIOChannel|NioChannel.getAttachment|NioEndpoint.processSocket,0.0,0.0,0.0,0.0,0.0
NioEndpoint$KeyAttachment.access|NioEndpoint$KeyAttachment.access|NioEndpoint$Poller.run,0.0,0.0,0.0,0.0,0.0
NioEndpoint$Poller.run|Thread.run|end.end,0.0012128529057319193,0.012418634472871339,0.0023611129070336095,0.013939148077040319,0.02993174836267718
NioEndpoint$Poller.timeout|NioEndpoint$Poller.run|Thread.run,0.0,0.0,0.0,0.0,0.0
NioEndpoint$SocketProcessor.run|ThreadPoolExecutor.runWorker|ThreadPoolExecutor$Worker.run,0.0,0.0,0.0003969244299117655,0.002539723927027212,0.002936648356938977
NioEndpoint.getSecure|Http11NioProtocol$Http11ConnectionHandler.process|NioEndpoint$SocketProcessor.run,0.0,0.0,0.0,0.0,0.0
NioEndpoint.init|Http11NioProtocol.init|Connector.initialize,0.007658745114057865,0.06943474762456803,0.0,0.0,0.0770934927386259
NioEndpoint.isWorkerAvailable|NioEndpoint$Poller.processKey|NioEndpoint$Poller.run,0.0,0.0,0.0,0.0,0.0
NioEndpoint.start|Http11NioProtocol.start|Connector.start,0.0,0.0,0.0,0.0,0.0
Node$ELExpression.getType|Generator$GenerateVisitor.visit|Node$ELExpression.accept,0.0,0.0,0.0,0.0,0.0
NodeImpl.needsSyncChildren|DeferredElementNSImpl.<init>|DeferredDocumentImpl.getNodeObject,0.0,0.0,0.0013770482421853712,0.0068809084591491,0.00825795670133447
Notification.<init>|MBeanServerNotification.<init>|DefaultMBeanServerInterceptor.sendNotification,0.006385141853038978,0.05755762893824973,0.005879999999403178,0.05090333333646413,0.12072610412715601
NotificationBroadcasterSupport.<clinit>|MBeanServerDelegate.<init>|MBeanServerDelegateImpl.<init>,0.004600760982290978,0.06149360309155528,0.010195000000142802,0.12685133333919413,0.2031406974131832
NotificationBroadcasterSupport.removeNotificationListener|MBeanServerDelegate.removeNotificationListener|DefaultMBeanServerInterceptor.removeNotificationListener,0.0,0.0,0.0,0.0,0.0
ObjectName.construct|ObjectName.<init>|StandardContext.resourcesStop,0.0,0.0,0.0,0.0,0.0
ObjectName.construct|ObjectName.<init>|Util.newObjectName,0.0,0.0,0.0,0.0,0.0
ObjectName.getSerializedNameString|ObjectName.toString|ContainerBase.getObjectName,0.0,0.0,0.0019709999993210658,0.0195190000027651,0.021490000002086163
Options.hasOption|PosixParser.flatten|Parser.parse,0.0,0.0,0.0,0.0,0.0
OutputBuffer.close|Response.finishResponse|CoyoteAdapter.service,0.0,0.0,0.0,0.0,0.0
Page.fetch|HttpGet.fetch|Client.run,0.0,0.0,0.0026003659444258035,0.016963901592784908,0.019564267537210713
Page.stringDigest|Page.fetch|HttpGet.fetch,0.010140043371703404,0.10979347297711725,0.009914526225197036,0.05737305809250875,0.18722110066652645
Page.writeLog|Page.fetch|HttpGet.fetch,0.0,0.0,0.0,0.0,0.0
ParseUtil.encodePath|URLClassPath$FileLoader.getResource|URLClassPath.getResource,0.0,0.0,0.0,0.0,0.0
Parser.computeReverseTable|Parser.initTables|Parser.<clinit>,0.00015913702219205029,0.0018314602566612435,0.0,0.0,0.0019905972788532935
Parser.consumeCastExpressionLL1|Parser.consumeRule|Parser.parse,0.0,0.0,0.0,0.0,0.0
Parser.consumeClassHeaderName1|Parser.consumeRule|Parser.parse,0.0,0.0,0.0005333523722376244,0.0029444851056541696,0.0034778374778917944
Parser.consumeEqualityExpression|Parser.consumeRule|Parser.parse,0.0003450148156321405,0.0023346579392069,0.0,0.0,0.0026796727548390412
Parser.consumeFieldAccess|Parser.consumeRule|Parser.parse,0.0,0.0,0.0,0.0,0.0
Parser.consumeInstanceOfExpressionWithName|Parser.consumeRule|Parser.parse,0.0,0.0,0.0,0.0,0.0
Parser.consumeRule|Parser.parse|Parser.parse,2.252298262376605e-05,0.00035037793667032835,0.0,0.0,0.00037290091929409436
Parser.consumeStatementSwitch|Parser.consumeRule|Parser.parse,0.0,0.0,0.0,0.0,0.0
Parser.consumeStatementTry|Parser.consumeRule|Parser.parse,0.0,0.0,0.0,0.0,0.0
Parser.consumeToken|Parser.parse|Parser.parse,0.0,0.0,0.0,0.0,0.0
Parser.createFieldDeclaration|Parser.consumeEnterVariable|Parser.consumeRule,0.0,0.0,0.0,0.0,0.0
Parser.createJavadocParser|Parser.<init>|Compiler.initializeParser,0.0,0.0,0.0,0.0,0.0
Parser.getTypeReference|Parser.consumeClassHeaderExtends|Parser.consumeRule,0.0,0.0,0.00044481481485109033,0.002991481481499418,0.0034362962963505076
Parser.getUnspecifiedReferenceOptimized|Parser.consumeInsideCastExpressionLL1|Parser.consumeRule,0.0,0.0,0.0,0.0,0.0
Parser.initTables|Parser.<clinit>|Compiler.initializeParser,0.00215818581983881,0.01952388126098305,0.0028245361590195864,0.01996389839931788,0.04447050163915934
Parser.initializeScanner|Parser.<init>|Compiler.initializeParser,0.0011165645031178876,0.009293652187452758,0.0,0.0,0.010410216690570646
Parser.initialize|Parser.initialize|Parser.parse,0.0,0.0,0.0009490384615604014,0.004961846153888379,0.0059108846154487795
Parser.ntAction|Parser.parse|Parser.parse,0.0,0.0,0.0,0.0,0.0
Parser.parseNamedAttributes|Parser.parseJspAttributeAndBody|Parser.parseOptionalBody,0.0007732450798922612,0.008336595315128308,0.0,0.0,0.009109840395020571
Parser.parsePlugin|Parser.parseStandardAction|Parser.parseElements,0.0,0.0,0.0016459722222592706,0.008707116898087272,0.010353089120346545
Parser.parseTaglibDirective|Parser.parseDirective|Parser.parseElements,0.00016382306069771035,0.0023209592360792838,0.0,0.0,0.002484782296776994
Parser.parse|Parser.parse|CommandLineArgs.<init>,0.0,0.0,0.0,0.0,0.0
Parser.parse|Parser.parse|MethodDeclaration.parseStatements,0.0,0.0,0.0,0.0,0.0
Parser.pushOnExpressionStack|Parser.consumeMethodInvocationName|Parser.consumeRule,0.0,0.0,0.0,0.0,0.0
Parser.readReadableNameTable|Parser.initTables|Parser.<clinit>,0.00011520814500135672,0.0007474789008181093,0.0,0.0,0.0008626870458194661
Parser.readTable|Parser.initTables|Parser.<clinit>,0.0,0.0,0.0013039514157644626,0.006729345951992514,0.008033297367756976
Parser.tAction|Parser.parse|Parser.parse,0.0,0.0,0.0,0.0,0.0
ParserConfigurationSettings.addRecognizedFeatures|XML11Configuration.addRecognizedParamsAndSetDefaults|XML11Configuration.addComponent,0.0,0.0,0.0,0.0,0.0
ParserConfigurationSettings.getPropertyState|XML11Configuration.getPropertyState|ParserConfigurationSettings.getProperty,0.0036500000006083454,0.041832564102384284,0.0,0.0,0.04548256410299263
ParserConfigurationSettings.getProperty|XMLScanner.reset|XMLDocumentFragmentScannerImpl.reset,0.0,0.0,0.0,0.0,0.0
ParserController.doParse|ParserController.parseDirectives|Compiler.generateJava,0.0,0.0,0.0,0.0,0.0
PerInterface.<init>|MBeanIntrospector.getPerInterface|MBeanSupport.<init>,0.0,0.0,0.0,0.0,0.0
PerfCounter.add|PerfCounter.addTime|ClassLoader.loadClass,0.004433333333387661,0.05599782222157551,0.0,0.0,0.06043115555496317
PerfCounter.get|PerfCounter.add|PerfCounter.addElapsedTimeFrom,0.0,0.0,0.0,0.0,0.0
Protocol.equals|HttpHost.equals|LangUtils.equals,0.0012158954039716136,0.01251398062468619,0.0,0.0,0.013729876028657806
Protocol.getProtocol|HttpHost.<init>|HttpMethodBase.setURI,0.0,0.0,0.0,0.0,0.0
ProxyDirContext.<init>|StandardContext.resourcesStart|StandardContext.start,0.0,0.0,0.0,0.0,0.0
ProxyDirContext.lookup|WebappClassLoader.findResourceInternal|WebappClassLoader.findResource,0.0,0.0,0.0,0.0,0.0
QualifiedTypeReference.getTypeBinding|TypeReference.resolveType|ClassLiteralAccess.resolveType,0.0,0.0,0.0,0.0,0.0
RealmBase.<clinit>|NativeConstructorAccessorImpl.newInstance0|NativeConstructorAccessorImpl.newInstance,0.01013999999607525,0.07859300000078898,0.0,0.0,0.08873299999686422
ReferenceBinding$3.compare|TimSort.binarySort|TimSort.sort,0.0002449676400006986,0.002418416121133012,0.0,0.0,0.002663383761133711
ReferenceBinding.getTypeVariable|Scope.getTypeOrPackage|Scope.getBinding,0.0,0.0,0.0016492343963726375,0.0113511978703788,0.013000432266751438
ReferenceBinding.isInterface|BinaryTypeBinding.getExactMethod|Scope.findExactMethod,0.0,0.0,0.0,0.0,0.0
Reflection.getCallerClass|Class.forName|JspCompilationContext.createCompiler,0.0,0.0,0.0,0.0,0.0
Reflection.getCallerClass|Class.forName|ReflectionSocketFactory.createSocket,0.0,0.0,0.0,0.0,0.0
Reflection.getCallerClass|Logger.getLogger|DirectJDKLog.<init>,0.0,0.0,0.0,0.0,0.0
Reflection.getClassAccessFlags|Reflection.quickCheckMemberAccess|Class.newInstance,0.010608997895108588,0.07830717322085673,0.0,0.0,0.08891617111596532
Reflection.getClassAccessFlags|Reflection.quickCheckMemberAccess|Method.invoke,0.004181344934189692,0.0523754794303062,0.0,0.0,0.0565568243644959
ReflectionSocketFactory.createSocket|DefaultProtocolSocketFactory.createSocket|HttpConnection.open,0.0,0.0,0.0,0.0,0.0
Repository.<init>|Repository.<init>|JmxMBeanServer.<init>,0.0003193757106506817,0.02127446023928364,0.0,0.0,0.021593835949934317
Request.<init>|Connector.createRequest|CoyoteAdapter.service,0.0,0.0,0.0,0.0,0.0
Request.<init>|Http11NioProcessor.<init>|Http11NioProtocol$Http11ConnectionHandler.createProcessor,0.0,0.0,0.0,0.0,0.0
Request.getContentLengthLong|Http11NioProcessor.prepareRequest|Http11NioProcessor.process,0.0,0.0,0.0,0.0,0.0
Request.recycle|InternalNioInputBuffer.nextRequest|Http11NioProcessor.process,0.0,0.0,0.0,0.0,0.0
RequestUtil.filter|ErrorReportValve.report|ErrorReportValve.invoke,0.0007002028336842772,0.008795067865971565,0.0003050592479771149,0.0016624853372299276,0.011462815284862886
ResourceBundleEnumeration.hasMoreElements|DefaultProblemFactory.loadMessageTemplates|DefaultProblemFactory.setLocale,0.0003076496179242933,0.002357105675690459,0.0,0.0,0.0026647552936147523
ResourceBundleEnumeration.nextElement|ResourceBundleEnumeration.nextElement|DefaultProblemFactory.loadMessageTemplates,0.0,0.0,0.00010474358975606707,0.0005404444444480821,0.0006451880342041493
Response.addCookieInternal|Response.addCookieInternal|Response.addCookie,0.0007280516164856907,0.00487131512291273,0.0,0.0,0.005599366739398421
Response.setConnector|Connector.createResponse|CoyoteAdapter.service,0.0,0.0,0.0018974429594832676,0.014061438694537983,0.01595888165402125
Response.setContentType|ErrorReportValve.report|ErrorReportValve.invoke,0.00014239635167753728,0.0013873421780206724,0.0,0.0,0.0015297385296982097
Rule.begin|Digester.startElement|AbstractSAXParser.startElement,0.0,0.0,0.0,0.0,0.0
SAXParser.<init>|SAXParser.<init>|SAXParserImpl$JAXPSAXParser.<init>,0.0,0.0,0.0,0.0,0.0
SAXParserFactoryImpl.newSAXParser|Digester.getParser|Digester.getXMLReader,0.005159433526171751,0.07050166982885372,0.0010283017869849671,0.005768571400600189,0.08245797654261063
SAXParserImpl.<init>|SAXParserFactoryImpl.newSAXParser|Digester.getParser,0.0,0.0,0.0,0.0,0.0
SAXParserImpl.setFeatures|SAXParserImpl.<init>|SAXParserFactoryImpl.newSAXParser,0.0,0.0,0.002939999998488929,0.04917399999976624,0.05211399999825517
SHA.implCompress|DigestBase.engineUpdate|DigestBase.engineUpdate,0.0011908447277343053,0.01440164767681229,0.0,0.0,0.015592492404546597
Scanner.<init>|Parser.initializeScanner|Parser.<init>,0.0,0.0,0.0,0.0,0.0
Scanner.<init>|Scanner.<init>|AbstractCommentParser.<init>,0.0,0.0,0.0,0.0,0.0
Scanner.getNextToken|Parser.parse|Parser.parse,0.0,0.0,0.0016011899313762904,0.008616575133617101,0.010217765064993393
Scanner.optimizedCurrentTokenSource5|Scanner.getCurrentIdentifierSource|Parser.pushIdentifier,0.0,0.0,0.0,0.0,0.0
Scanner.scanIdentifierOrKeyword|Scanner.getNextToken|Parser.parse,0.0,0.0,0.0012409477124782648,0.007083498910554317,0.008324446623032583
Scanner.scanIdentifierOrKeyword|Scanner.jumpOverMethodBody|Scanner.getNextToken,0.0,0.0,0.0,0.0,0.0
Scope.compilationUnitScope|Scope.getJavaLangString|StringLiteral.literalType,0.0,0.0,0.0,0.0,0.0
Scope.compilerOptions|Scope.findMethod|Scope.getMethod,0.0,0.0,0.00031168091168429484,0.002256505223138591,0.0025681861348228856
Scope.createArrayType|ArrayAllocationExpression.resolveType|MessageSend.resolveType,0.0,0.0,0.00011966047236630657,0.000592077306378693,0.0007117377787449996
SelectionKeyImpl.<init>|SelectorImpl.register|AbstractSelectableChannel.register,0.0,0.0,0.0,0.0,0.0
SelectionKeyImpl.nioInterestOps|SelectionKeyImpl.interestOps|SelectorImpl.register,0.0,0.0,0.00020370370376766023,0.0011611851850268718,0.001364888888794532
SelectorImpl.lockAndDoSelect|SelectorImpl.select|NioBlockingSelector$BlockPoller.run,0.0009278726738893967,0.0091545406313711,0.0,0.0,0.010082413305260498
SelectorImpl.lockAndDoSelect|SelectorImpl.select|NioEndpoint$Poller.run,0.0,0.0,0.00266267224434687,0.01704715109966064,0.019709823344007508
SelectorImpl.processDeregisterQueue|EPollSelectorImpl.doSelect|SelectorImpl.lockAndDoSelect,0.0004679090128533896,0.004824661453316688,0.0,0.0,0.005292570466170079
SelectorProviderImpl.openServerSocketChannel|ServerSocketChannel.open|NioEndpoint.init,0.0,0.0,0.0,0.0,0.0
ServerSocketChannelImpl.<init>|SelectorProviderImpl.openServerSocketChannel|ServerSocketChannel.open,0.0,0.0,0.0,0.0,0.0
ServerSocketChannelImpl.accept0|ServerSocketChannelImpl.accept|ServerSocketChannelImpl.accept,0.0,0.0,0.009947018232642817,0.05545542984099219,0.06540244807363502
ServerSocketChannelImpl.accept|NioEndpoint$Acceptor.run|Thread.run,0.0,0.0,0.0,0.0,0.0
ServerSocketChannelImpl.socket|NioEndpoint.init|Http11NioProtocol.init,0.010650663626592637,0.06850598841180898,0.0005598409844943716,0.047268596969129516,0.1269850899920255
Session.<init>|AuthenticatedSession.<init>|AuthenticatedSession.create,0.014540964435726672,0.08194224458402828,0.0,0.0,0.09648320901975496
SetCharacterEncodingFilter.init|ApplicationFilterConfig.getFilter|ApplicationFilterConfig.setFilterDef,0.0005541284062823958,0.04064404474973942,0.0,0.0,0.04119817315602182
SharedSecrets.getJavaLangAccess|AbstractInterruptibleChannel.blockedOn|AbstractInterruptibleChannel.end,0.0,0.0,0.0,0.0,0.0
SignatureFileVerifier.<clinit>|JarFile.initializeVerifier|JarFile.getInputStream,0.0,0.0,0.0,0.0,0.0
SignatureWrapper.atEnd|BinaryTypeBinding.createMethod|BinaryTypeBinding.createMethods,0.0,0.0,0.002372006471238537,0.011661219599900257,0.014033226071138794
SimpleLog.isLevelEnabled|SimpleLog.isDebugEnabled|HttpMethodBase.shouldCloseConnection,0.0,0.0,0.0,0.0,0.0
SimpleLog.isLevelEnabled|SimpleLog.trace|HttpConnection.print,0.0,0.0,0.0,0.0,0.0
SimpleLog.isLevelEnabled|SimpleLog.trace|HttpConnection.write,0.0,0.0,0.0,0.0,0.0
SimpleLog.isLevelEnabled|SimpleLog.trace|HttpMethodBase.readResponse,0.0,0.0,0.0,0.0,0.0
SimpleNode.setImage|ELParser.Integer|ELParser.Literal,0.0007024357364863687,0.00625550913272257,0.0,0.0,0.006957944869208939
SmapUtil.generateSmap|Compiler.generateJava|Compiler.compile,0.0011015047228499727,0.006919829598842323,0.0,0.0,0.008021334321692296
SocketAdaptor.setReceiveBufferSize|SocketProperties.setProperties|NioEndpoint.setSocketOptions,0.00027236181950485085,0.0013721412062601762,0.0,0.0,0.0016445030257650273
SocketAdaptor.setSoLinger|SocketProperties.setProperties|NioEndpoint.setSocketOptions,0.0,0.0,0.0,0.0,0.0
SocketAdaptor.setSoTimeout|SocketProperties.setProperties|NioEndpoint.setSocketOptions,0.0,0.0,0.001058541951918898,0.007773064818673555,0.008831606770592453
SocketChannelImpl.kill|EPollSelectorImpl.implDereg|SelectorImpl.processDeregisterQueue,0.0,0.0,0.0,0.0,0.0
SocketChannelImpl.setOption|SocketAdaptor.setBooleanOption|SocketAdaptor.setKeepAlive,0.0,0.0,0.0,0.0,0.0
SocketChannelImpl.socket|NioEndpoint.setSocketOptions|NioEndpoint$Acceptor.run,0.0026651048233853817,0.02567765570722576,0.0,0.0,0.028342760530611143
SocketChannelImpl.write|NioChannel.write|NioBlockingSelector.write,0.0,0.0,0.0,0.0,0.0
SocketOptionRegistry$RegistryKey.hashCode|HashMap.hash|HashMap.get,0.0,0.0,0.0,0.0,0.0
StandardContext.<init>|NativeConstructorAccessorImpl.newInstance0|NativeConstructorAccessorImpl.newInstance,0.0,0.0,0.0,0.0,0.0
StandardContext.resourcesStart|StandardContext.start|ContainerBase.addChildInternal,0.0,0.0,0.0,0.0,0.0
StandardContext.start|ContainerBase.addChildInternal|ContainerBase.addChild,0.021116984388265814,0.20261374818031694,0.003035829888141097,0.033542611991351334,0.2603091744480752
StandardEngine.init|StandardEngine.start|StandardService.start,0.0,0.0,0.0,0.0,0.0
StandardHost.<init>|NativeConstructorAccessorImpl.newInstance0|NativeConstructorAccessorImpl.newInstance,0.0,0.0,0.009560000001026006,0.07531733333598822,0.08487733333701424
StandardHostValve.throwable|StandardHostValve.invoke|ErrorReportValve.invoke,0.00033220696473041365,0.001964558578764597,0.0,0.0,0.0022967655434950104
StandardMBeanIntrospector.<clinit>|StandardMBeanSupport.getMBeanIntrospector|MBeanSupport.<init>,0.00763454974787018,0.06333489161776759,0.0,0.0,0.07096944136563776
StandardMBeanIntrospector.getAnalyzer|MBeanIntrospector.getPerInterface|MBeanSupport.<init>,0.0,0.0,0.0,0.0,0.0
StandardMBeanIntrospector.getPerInterfaceMap|MBeanIntrospector.getPerInterface|MBeanSupport.<init>,0.0,0.0,0.0019750000016453364,0.04911300000094343,0.05108800000258877
StandardMBeanSupport.getMBeanIntrospector|MBeanSupport.<init>|StandardMBeanSupport.<init>,0.0,0.0,0.010696139481689508,0.06520503807534399,0.07590117755703349
StandardServer.<init>|NativeConstructorAccessorImpl.newInstance0|NativeConstructorAccessorImpl.newInstance,0.0,0.0,0.011790752701677213,0.0760881242949764,0.08787887699665363
StandardServer.initialize|Catalina.load|Catalina.load,0.006069161829302168,0.054243596575113885,0.0,0.0,0.06031275840441605
StandardService.<init>|Embedded.<init>|Embedded.<init>,0.0,0.0,0.0,0.0,0.0
StandardService.addConnector|NativeMethodAccessorImpl.invoke0|NativeMethodAccessorImpl.invoke,0.0,0.0,0.0,0.0,0.0
StandardWrapper.<init>|StandardContext.createWrapper|WrapperCreateRule.begin,0.003222491581941382,0.0461849272803723,0.007409454546657137,0.032741527273108,0.08955840068207882
StandardWrapper.allocate|StandardWrapperValve.invoke|StandardContextValve.invoke,0.0,0.0,0.0,0.0,0.0
Status.isExceptional|FeatureState.isExceptional|ParserConfigurationSettings.getFeature,0.0,0.0,0.0,0.0,0.0
StreamDecoder.readBytes|StreamDecoder.implRead|StreamDecoder.read,0.0,0.0,0.0,0.0,0.0
StreamEncoder.implWrite|StreamEncoder.write|OutputStreamWriter.write,0.0,0.0,0.0,0.0,0.0
StreamEncoder.write|OutputStreamWriter.write|BufferedWriter.flushBuffer,0.0,0.0,0.0,0.0,0.0
StreamEncoder.write|OutputStreamWriter.write|C2BConverter.convert,0.0,0.0,0.0,0.0,0.0
SymbolTable.addSymbol0|SymbolTable.addSymbol|XMLEntityScanner.scanQName,0.0,0.0,0.0,0.0,0.0
SymbolTable.addSymbol|XMLEntityScanner.scanName|XMLDocumentFragmentScannerImpl.scanAttribute,0.0,0.0,0.0,0.0,0.0
TestHarness.main|Harness.main|NativeMethodAccessorImpl.invoke0,0.009103939842199904,0.1301487507260421,0.0073950133676682185,0.05803437932727042,0.20468208326318066
TestHarness.rmdir|TestHarness.makeCleanScratch|TestHarness.main,0.0,0.0,0.00270499999957489,0.018839500000467524,0.02154450000004241
TestHarness.twoDecimalPlaces|TestHarness.<clinit>|Harness.main,0.0,0.0,0.0,0.0,0.0
ThreadCoreMapInjector.transform|TransformerManager.transform|InstrumentationImpl.transform,0.00456399999675341,0.03634431111099224,0.0,0.0,0.04090831110774565
ThreadPool.openThreads|ThreadPool.start|ChannelSocket.init,0.0011236049106498414,0.012004947916669348,0.0,0.0,0.01312855282731919
TimeZoneNames.getContents|OpenListResourceBundle.loadLookup|OpenListResourceBundle.loadLookupTablesIfNecessary,0.0,0.0,0.0,0.0,0.0
TldConfig.tldScanJar|TldConfig.execute|TldConfig.lifecycleEvent,0.0,0.0,0.0,0.0,0.0
TldConfig.tldScanStream|TldConfig.tldScanJar|TldConfig.execute,0.0,0.0,0.0,0.0,0.0
TransformerManager$TransformerInfo.transformer|TransformerManager.transform|InstrumentationImpl.transform,0.0,0.0,0.007917835638180028,0.04869724537521313,0.05661508101339316
TryStatement.analyseCode|MethodDeclaration.analyseCode|TypeDeclaration.internalAnalyseCode,0.0,0.0,0.0,0.0,0.0
TryStatement.resolve|AbstractMethodDeclaration.resolveStatements|MethodDeclaration.resolveStatements,1.623732418389527e-05,0.0006322198166047012,0.0,0.0,0.0006484571407885965
TypeBinding.enclosingType|LookupEnvironment.convertUnresolvedBinaryToRawType|LookupEnvironment.getTypeFromCompoundName,0.0,0.0,0.0,0.0,0.0
TypeChecker.fieldAccess2|TypeChecker.fieldAccess|TypeChecker.atFieldRead,0.0,0.0,0.004196363636186685,0.026788848484019658,0.030985212120206343
TypeDeclaration.createDefaultConstructor|Parser.consumeClassDeclaration|Parser.consumeRule,0.0,0.0,0.0014287254422577812,0.008374903142738139,0.00980362858499592
TypeDeclaration.generateCode|TypeDeclaration.generateCode|CompilationUnitDeclaration.generateCode,0.0008633878969950049,0.0075059162328089,0.001129977908976525,0.007901553341905697,0.017400835380686125
TypeReference.baseTypeReference|Parser.getTypeReference|Parser.consumeEnterVariable,0.0005868319050105992,0.005919393284091032,0.0,0.0,0.006506225189101631
UDecoder.convert|UDecoder.convert|CoyoteAdapter.postParseRequest,0.0,0.0,0.0,0.0,0.0
URI.<clinit>|XMLEntityManager.expandSystemIdStrictOff|XMLEntityManager.expandSystemId,0.0,0.0,0.0,0.0,0.0
URI.parseUriReference|URI.<init>|HttpMethodBase.getURI,0.0,0.0,0.0,0.0,0.0
URLClassPath$FileLoader.findResource|URLClassPath.findResource|URLClassLoader$2.run,0.0,0.0,0.0,0.0,0.0
URLClassPath$JarLoader.getClassPath|URLClassPath.getLoader|URLClassPath.getNextLoader,0.0,0.0,0.0,0.0,0.0
URLClassPath$JarLoader.getResource|URLClassPath$JarLoader.findResource|URLClassPath.findResource,0.0,0.0,0.0012264419102153627,0.0068031093557506285,0.008029551265965992
URLClassPath$JarLoader.getResource|URLClassPath$JarLoader.getResource|URLClassPath.getResource,0.0,0.0,0.0,0.0,0.0
URLClassPath$JarLoader.getResource|URLClassPath.getResource|URLClassPath.getResource,0.0,0.0,0.0,0.0,0.0
URLClassPath.findResource|URLClassLoader$2.run|URLClassLoader$2.run,0.0,0.0,0.005105999999796041,0.04952400000183843,0.05463000000163447
URLClassPath.getNextLoader|URLClassPath.findResource|URLClassLoader$2.run,0.00031030162696226235,0.0021809415073232442,0.0002724650588374886,0.0014759072789274925,0.004239615472050488
URLClassPath.getNextLoader|URLClassPath.getResource|URLClassLoader$1.run,0.0,0.0,0.0030047716815640173,0.02558202639643445,0.02858679807799847
URLClassPath.knownToNotExist|Launcher$AppClassLoader.loadClass|ClassLoader.loadClass,0.0,0.0,0.020605000000311208,0.1491493333305698,0.169754333330881
URLJarFile.getEntry|JarURLConnection.connect|JarURLConnection.getInputStream,0.0,0.0,0.0,0.0,0.0
US_ASCII$Decoder.<init>|US_ASCII.newDecoder|StringCoding$StringDecoder.<init>,0.0,0.0,0.0,0.0,0.0
US_ASCII.newDecoder|StringCoding$StringDecoder.<init>|StringCoding$StringDecoder.<init>,0.0,0.0,0.0,0.0,0.0
UTF8Reader.read|XMLEntityScanner.load|XMLEntityScanner.scanData,0.0,0.0,0.0,0.0,0.0
UTF_8$Decoder.decodeArrayLoop|UTF_8$Decoder.decodeLoop|CharsetDecoder.decode,0.0,0.0,0.0061787222207554055,0.03841560370352385,0.044594325924279254
UTF_8$Decoder.decode|ZipCoder.toString|ZipFile.getZipEntry,0.0048042382500488295,0.059795413472389314,0.0,0.0,0.06459965172243815
UTF_8$Encoder.encodeArrayLoop|UTF_8$Encoder.encodeLoop|CharsetEncoder.encode,0.0024666673506745637,0.025224994402430312,0.005840620452556549,0.035157622901369964,0.0686899051070314
UTF_8$Encoder.encodeLoop|CharsetEncoder.encode|StreamEncoder.implWrite,0.0006530183795439661,0.006991909422837637,0.0,0.0,0.007644927802381603
UTF_8$Encoder.encode|StringCoding$StringEncoder.encode|StringCoding.encode,0.0005603664914608118,0.008930988299015069,0.0,0.0,0.00949135479047588
UTF_8$Encoder.encode|ZipCoder.getBytes|ZipFile.getEntry,0.0,0.0,0.007848852856178154,0.047101601279256194,0.05495045413543435
UTF_8.newEncoder|StringCoding$StringEncoder.<init>|StringCoding$StringEncoder.<init>,0.0,0.0,0.0,0.0,0.0
UTF_8.updatePositions|UTF_8.access$200|UTF_8$Encoder.encodeArrayLoop,0.0,0.0,0.0,0.0,0.0
Unsafe.compareAndSwapInt|AbstractQueuedSynchronizer.compareAndSetState|ReentrantReadWriteLock$Sync.tryAcquire,0.0,0.0,0.0,0.0,0.0
Unsafe.defineClass|ClassDefiner.defineClass|MethodAccessorGenerator$1.run,0.0,0.0,0.0,0.0,0.0
Unsafe.getAndSetObject|AtomicReferenceFieldUpdater$AtomicReferenceFieldUpdaterImpl.getAndSet|SelectionKey.attach,0.0,0.0,0.0,0.0,0.0
Unsafe.park|LockSupport.parkNanos|AbstractQueuedSynchronizer$ConditionObject.awaitNanos,0.0,0.0,0.0,0.0,0.0
Unsafe.putLong|DirectLongBufferU.put|PerfCounter.add,0.0,0.0,0.01277000000118278,0.09232566666711743,0.1050956666683002
Unsafe.unpark|LockSupport.unpark|AbstractQueuedSynchronizer.unparkSuccessor,0.0,0.0,0.002967000905176085,0.017264502151292042,0.020231503056468127
Util$BufferCache.get|Util.getTemporaryDirectBuffer|IOUtil.read,0.0,0.0,0.0,0.0,0.0
Util$BufferCache.offerFirst|Util.offerFirstTemporaryDirectBuffer|IOUtil.write,0.0,0.0,0.0002636307692871644,0.0022271261539740053,0.0024907569232611696
Util.getTemporaryDirectBuffer|IOUtil.read|SocketChannelImpl.read,0.0,0.0,0.0,0.0,0.0
Util.newObjectName|MBeanServerDelegate.<clinit>|JmxMBeanServer.newMBeanServerDelegate,0.014095966326022571,0.12458151793084986,0.0,0.0,0.13867748425687243
Util.offerFirstTemporaryDirectBuffer|IOUtil.read|SocketChannelImpl.read,0.0004296739350214924,0.004326250666955833,0.0,0.0,0.0047559246019773255
Util.ungrowableSet|SelectorImpl.<init>|EPollSelectorImpl.<init>,0.0,0.0,0.0,0.0,0.0
Validator$ValidateVisitor.checkXmlAttributes|Validator$ValidateVisitor.visit|Node$CustomTag.accept,0.0,0.0,0.0,0.0,0.0
Validator$ValidateVisitor.prepareExpression|Validator$ValidateVisitor.visit|Node$ELExpression.accept,0.0,0.0,0.00032426622669288823,0.0015773622395938802,0.0019016284662867688
Validator.validateExDirectives|Compiler.generateJava|Compiler.compile,0.0,0.0,0.0,0.0,0.0
VarArgsChecker$RealVarArgsChecker.isVarArgs|Function.isVarArgs|Function.invoke,0.0,0.0,0.0,0.0,0.0
WebappLoader.start|StandardContext.start|ContainerBase.addChildInternal,0.0030945833326162147,0.030654944444904686,0.0,0.0,0.0337495277775209
WriteConvertor.recycle|C2BConverter.recycle|OutputBuffer.recycle,0.0,0.0,0.0,0.0,0.0
XML11Configuration.<init>|XIncludeAwareParserConfiguration.<init>|XIncludeAwareParserConfiguration.<init>,0.013863337134717619,0.14603293768045097,0.0,0.0,0.1598962748151686
XML11Configuration.setFeature|XIncludeAwareParserConfiguration.setFeature|XIncludeAwareParserConfiguration.<init>,0.0,0.0,0.0,0.0,0.0
XMLAttributesImpl.addAttribute|XMLAttributesImpl.addAttribute|XMLDocumentFragmentScannerImpl.scanAttribute,0.0,0.0,0.0,0.0,0.0
XMLChar.<clinit>|XMLEntityScanner.skipDeclSpaces|XMLVersionDetector.determineDocVersion,0.0,0.0,0.0,0.0,0.0
XMLDTDProcessor.endGroup|XMLDTDScannerImpl.scanMixed|XMLDTDScannerImpl.scanElementDecl,0.0005500467123455217,0.04059534375032753,0.0,0.0,0.04114539046267305
XMLDTDProcessor.reset|XML11Configuration.reset|XML11Configuration.parse,0.0,0.0,0.0,0.0,0.0
XMLDTDScannerImpl.scanChildren|XMLDTDScannerImpl.scanElementDecl|XMLDTDScannerImpl.scanDecls,0.0,0.0,0.0037512835214803045,0.02768684546310539,0.031438128984585686
XMLDTDScannerImpl.scanDecls|XMLDTDScannerImpl.scanDTDExternalSubset|XMLDocumentScannerImpl$DTDDriver.dispatch,0.0,0.0,0.0,0.0,0.0
XMLDTDValidator.<init>|XMLNSDTDValidator.<init>|XML11Configuration.<init>,0.0,0.0,0.0,0.0,0.0
XMLDTDValidator.characters|XMLDocumentFragmentScannerImpl.scanDocument|XML11Configuration.parse,0.0,0.0,0.0,0.0,0.0
XMLDTDValidator.doctypeDecl|XMLDocumentScannerImpl.scanDoctypeDecl|XMLDocumentScannerImpl$PrologDriver.next,0.0,0.0,0.0,0.0,0.0
XMLDTDValidator.reset|XML11Configuration.reset|XML11Configuration.parse,0.0,0.0,0.0,0.0,0.0
XMLDocumentFragmentScannerImpl$FragmentContentDriver.next|XMLDocumentScannerImpl.next|XMLDocumentFragmentScannerImpl.scanDocument,0.004810500002349728,0.08483280000000377,0.0,0.0,0.0896433000023535
XMLDocumentFragmentScannerImpl$FragmentContentDriver.next|XMLDocumentScannerImpl.next|XMLNSDocumentScannerImpl.next,0.0,0.0,9.309677418098556e-05,0.0005528564515829672,0.0006459532257639528
XMLDocumentFragmentScannerImpl.<init>|XMLDocumentScannerImpl.<init>|XMLNSDocumentScannerImpl.<init>,0.0,0.0,0.011083361279766479,0.11211942374809472,0.1232027850278612
XMLDocumentFragmentScannerImpl.scanAttribute|XMLDocumentFragmentScannerImpl.scanStartElement|XMLDocumentScannerImpl$ContentDriver.scanRootElementHook,0.0,0.0,0.0,0.0,0.0
XMLDocumentFragmentScannerImpl.scanDocument|XML11Configuration.parse|XML11Configuration.parse,0.005188340683805879,0.043449641022179804,0.0,0.0,0.04863798170598568
XMLDocumentScannerImpl$PrologDriver.next|XMLDocumentScannerImpl.next|XMLDocumentFragmentScannerImpl.scanDocument,0.008487054618064354,0.09338056601091516,0.0,0.0,0.10186762062897951
XMLDocumentScannerImpl.<init>|XMLNSDocumentScannerImpl.<init>|XML11Configuration.<init>,0.0,0.0,0.0,0.0,0.0
XMLEncodingDetector.createReader|XMLEncodingDetector.createInitialReader|XMLEncodingDetector.getEncoding,0.00013479418580035886,0.0008902772409745734,0.00022101851843700263,0.001722831789928382,0.002968921735140317
XMLEntityManager.createReader|XMLEntityManager.setupCurrentEntity|XMLVersionDetector.determineDocVersion,0.0005391278927925644,0.005983540947010802,0.0,0.0,0.006522668839803365
XMLEntityManager.expandSystemIdStrictOff|XMLEntityManager.expandSystemId|XMLEntityManager.setupCurrentEntity,0.0,0.0,0.012121383641839734,0.07711499551924153,0.08923637916108126
XMLEntityManager.setScannerVersion|XMLEntityManager.<init>|XML11Configuration.<init>,0.0,0.0,0.02154030715197095,0.17770444213819553,0.19924474929016645
XMLEntityManager.setupCurrentEntity|XMLVersionDetector.determineDocVersion|XML11Configuration.parse,0.0,0.0,0.00017668301731840698,0.0009259896238723236,0.0011026726411907306
XMLEntityScanner.checkBeforeLoad|XMLEntityScanner.scanName|XMLDTDScannerImpl.scanElementDecl,0.0,0.0,9.563218388961576e-05,0.0005055862068893544,0.0006012183907789702
XMLEntityScanner.load|XMLEntityScanner.scanLiteral|XMLScanner.scanPseudoAttribute,0.0,0.0,0.0,0.0,0.0
XMLEntityScanner.scanContent|XMLDocumentFragmentScannerImpl$FragmentContentDriver.next|XMLDocumentScannerImpl.next,0.006289206795499395,0.055352741370394185,0.005933201263003752,0.043141122020440036,0.11071627144933735
XMLEntityScanner.scanData|XMLScanner.scanComment|XMLDocumentFragmentScannerImpl.scanComment,0.0,0.0,0.0,0.0,0.0
XMLEntityScanner.scanName|XMLDocumentFragmentScannerImpl.scanAttribute|XMLDocumentFragmentScannerImpl.scanStartElement,0.0,0.0,0.0,0.0,0.0
XMLEntityScanner.scanName|XMLDocumentFragmentScannerImpl.scanStartElement|XMLDocumentFragmentScannerImpl$FragmentContentDriver.next,0.006347999999707099,0.05058599999974831,0.0,0.0,0.05693399999945541
XMLEntityScanner.skipDeclSpaces|XMLVersionDetector.determineDocVersion|XML11Configuration.parse,0.0,0.0,0.0,0.0,0.0
XMLEntityScanner.skipString|XMLDocumentFragmentScannerImpl.scanEndElement|XMLDocumentFragmentScannerImpl$FragmentContentDriver.next,0.0,0.0,0.0,0.0,0.0
XMLLimitAnalyzer.addValue|XMLLimitAnalyzer.addValue|XMLDocumentFragmentScannerImpl.checkDepth,0.0014811428570264606,0.011099918367286516,0.0,0.0,0.012581061224312977
XMLScanner.<init>|XMLDocumentFragmentScannerImpl.<init>|XMLDocumentScannerImpl.<init>,0.0036780224474135953,0.057939168525098936,0.0,0.0,0.061617190972512524
XMLScanner.scanComment|XMLDocumentFragmentScannerImpl.scanComment|XMLDocumentScannerImpl$PrologDriver.next,0.0,0.0,0.002177774821432444,0.048541572888506114,0.050719347709938564
XMLScanner.scanExternalID|XMLDTDScannerImpl.scanNotationDecl|XMLDTDScannerImpl.scanDecls,0.0,0.0,0.0,0.0,0.0
XMLSecurityManager.<init>|SAXParserImpl.<init>|SAXParserFactoryImpl.newSAXParser,0.0,0.0,0.0,0.0,0.0
XMLSimpleType.setValues|XMLAttributeDecl.setValues|DTDGrammar.attributeDecl,0.0,0.0,0.0,0.0,0.0
XMLString.setValues|XMLEntityScanner.scanContent|XMLDocumentFragmentScannerImpl$FragmentContentDriver.next,0.0,0.0,0.0,0.0,0.0
XMLStringBuffer.append|XMLEntityScanner.scanData|XMLScanner.scanComment,0.0,0.0,0.0,0.0,0.0
ZoneInfoFile$1.run|AccessController.doPrivileged|ZoneInfoFile.<clinit>,0.009299918189718351,0.0577335766421317,0.0,0.0,0.06703349483185005
ZoneInfoFile.getZoneInfo|ZoneInfoFile.getZoneInfo|ZoneInfoFile.getZoneInfo0,0.0,0.0,0.0,0.0,0.0
ZoneInfoFile.indexOf|ZoneInfoFile.addTrans|ZoneInfoFile.getZoneInfo,0.0,0.0,0.0,0.0,0.0
ZoneInfoFile.load|ZoneInfoFile.access$000|ZoneInfoFile$1.run,0.008096312300823348,0.08286505044448081,0.013745000001411729,0.08563233332824892,0.1903386960749648
