method,package1,package2,dram1,dram2,energy
javassist.bytecode,0.011128666665172204,0.0,0.0009799999994963096,0.0,0.012108666664668514
javax.xml.transform,0.0,0.0,0.0,0.0,0.0
org.apache.xalan.processor,0.09514169999965816,0.0,0.00975150000085705,0.0,0.1048932000005152
org.apache.xalan.templates,0.09260598402024953,0.0309116904325962,0.010152667378525508,0.005287367494500397,0.13895770932587165
org.apache.xalan.transformer,0.062484356942486385,0.03319619940103946,0.011463250729214332,0.005668471621994515,0.1128122786947347
org.apache.xerces.impl,0.0,0.0357765135134262,0.0,0.006029189189280875,0.04180570270270707
org.apache.xerces.impl.io,0.0,0.07931904569778721,0.0,0.01110020806916133,0.09041925376694854
org.apache.xerces.parsers,0.005146165289161043,0.0,0.000568057851080445,0.0,0.005714223140241488
org.apache.xerces.util,0.015981097248114886,0.0045029999997725535,0.0017038149579721388,0.00045943355471656926,0.022647345760576146
org.apache.xml.dtm,0.006005020863464324,0.0,0.0011367414264644145,0.0,0.007141762289928738
org.apache.xml.dtm.ref,0.0010716744186221297,0.22081557422800835,0.00018523255824030182,0.03118438983373905,0.25325687103860983
org.apache.xml.dtm.ref.sax2dtm,0.010629541401223934,0.0,0.0011613017746833231,0.0,0.011790843175907256
org.apache.xml.serializer,0.3070795102964098,0.32308711625824443,0.04895839521570314,0.045310547298330374,0.7244355690686877
org.apache.xml.utils,0.0,0.03840643939440533,0.0,0.00653851010111956,0.04494494949552489
org.apache.xpath,0.0,0.028357998065527086,0.0,0.004558993794221959,0.03291699185974904
org.apache.xpath.axes,0.01640515921799919,0.0009694002446749293,0.0031486990632224503,0.00015774785798622096,0.02068100638388279
org.apache.xpath.functions,0.01355312242435034,0.0,0.0017195818185802747,0.0,0.015272704242930615
org.apache.xpath.patterns,0.01004186999164293,0.015930961412080405,0.0018719678872171474,0.0020886699509015914,0.029933469241842075
org.dacapo.harness,0.535731333333994,0.0,0.053067500005151175,0.0,0.5887988333391452
org.dacapo.parser,0.0,0.0,0.0,0.0,0.0
org.dacapo.xalan,0.0,0.0,0.0,0.0,0.0
org.xml.sax.helpers,0.01033197674422449,0.0,0.0016458139534522565,0.0,0.011977790697676747
sun.misc,0.34344421428424887,0.0,0.027991749997107986,0.0,0.37143596428135683
sun.net.www.protocol.file,0.033813714286744866,0.0,0.002520000000783641,0.0,0.036333714287528504
sun.net.www.protocol.jar,0.0013353602576850554,0.0,0.00026222486477696957,0.0,0.001597585122462025
sun.nio.cs,0.1912137163209674,0.02682861420081071,0.03167862290065244,0.004123923996877471,0.253844877419308
sun.util,0.0020588507285581275,0.0,0.00028407375988452187,0.0,0.0023429244884426493
