method,package1,package2,dram1,dram2,energy
javassist.bytecode,0.0,0.08377083333471091,0.0,0.013724999999895873,0.09749583333460679
org.apache.xalan.processor,0.0,0.0,0.0,0.0,0.0
org.apache.xalan.templates,0.026410246136505038,0.14764236647196394,0.004296419391273644,0.01924161317901826,0.19759064517876088
org.apache.xalan.transformer,0.024529820215405413,0.08040794483114708,0.004867157395391562,0.011937418013020694,0.12174234045496474
org.apache.xerces.impl,0.0,0.1544513064459767,0.0,0.01969405042079469,0.1741453568667714
org.apache.xerces.impl.dtd,0.0,0.0,0.0,0.0,0.0
org.apache.xerces.impl.io,0.0,0.0154350208433882,0.0,0.0018530564946560328,0.017288077338044234
org.apache.xerces.parsers,0.0,0.008678902438898548,0.0,0.0011491463414930012,0.009828048780391549
org.apache.xerces.util,0.0,0.0,0.0,0.0,0.0
org.apache.xerces.xni,0.0,0.0,0.0,0.0,0.0
org.apache.xml.dtm,0.0,0.0,0.0,0.0,0.0
org.apache.xml.dtm.ref,0.030119589167435,0.0668629606193196,0.006048723774932905,0.009931707431303475,0.11296298099299097
org.apache.xml.dtm.ref.sax2dtm,0.0,0.0,0.0,0.0,0.0
org.apache.xml.serializer,0.565000785523963,0.4368282612100554,0.09517101264392205,0.06002764692064322,1.1570277062985839
org.apache.xml.utils,0.0,0.05103158406110394,0.0,0.007749783874975527,0.058781367936079465
org.apache.xpath,0.002912157390416162,0.0,0.0005960662657742801,0.0,0.003508223656190442
org.apache.xpath.axes,0.010585533333263205,0.10600892629848843,0.0011055000000245248,0.01506832324239683,0.132768282874173
org.apache.xpath.functions,0.0,0.0,0.0,0.0,0.0
org.apache.xpath.objects,0.003200468964799235,0.0,0.0006469426293161642,0.0,0.0038474115941153995
org.apache.xpath.patterns,0.0,0.011246073112349259,0.0,0.0014399855698867705,0.01268605868223603
org.dacapo.harness,0.0,0.26157633333544555,0.0,0.042629999998704676,0.30420633333415026
org.dacapo.xalan,0.0,0.0,0.0,0.0,0.0
org.xml.sax.helpers,0.0016577741935766572,0.0,0.00025790322556971544,0.0,0.0019156774191463727
sun.misc,0.0,0.0,0.0,0.0,0.0
sun.net.www.protocol.jar,0.0,0.0,0.0,0.0,0.0
sun.nio.cs,0.04211004613383237,0.1417315307089733,0.007904546771979932,0.021806618033257036,0.21355274164804264
sun.reflect,0.0,0.0,0.0,0.0,0.0
