method,package1,package2,dram1,dram2,energy
AbstractAlgorithmConstraints.getAlgorithms|DisabledAlgorithmConstraints.<init>|DisabledAlgorithmConstraints.<init>,0.04381535801847773,0.0,0.0019059953616800773,0.0,0.04572135338015781
AbstractSAXParser.setErrorHandler|DTMManagerDefault.getDTM|TransformerImpl.transform,0.015961239727696228,0.0,0.0018225587769150984,0.0,0.01778379850461133
Benchmark.fileFromInputStream|Benchmark.extractFileResource|Benchmark.prepareJars,0.1888575527262767,0.0,0.012432427032245952,0.0,0.20128997975852264
Benchmark.fileFromInputStream|Benchmark.unpackZipStream|Benchmark.unpackZipFileResource,0.0,0.0,0.0,0.0,0.0
Benchmark.unpackZipStream|Benchmark.unpackZipFileResource|Benchmark.prepare,0.04380457135612867,0.0,0.0033611514320026205,0.0,0.04716572278813129
BoolStack.push|TransformerImpl.pushCurrentTemplateRuleIsNull|ElemApplyTemplates.execute,0.0027709880586400675,0.0,0.0005105120935780147,0.0,0.003281500152218082
Chaperone.main,0.0,0.07357663926657833,0.0,0.011644931506502684,0.08522157077308101
CharInfo.<init>|CharInfo.<init>|CharInfo$1.run,0.07486004270814467,0.041749682507087715,0.005399756226377209,0.00709568258531316,0.12910516402692276
CharInfo.getOutputStringForChar|ToStream.characters|ToHTMLStream.characters,0.0,0.0,0.0,0.0,0.0
CharInfo.shouldMapTextChar|ToStream.characters|ToHTMLStream.characters,0.0,0.14778346021338581,0.0,0.02500233181949578,0.17278579203288158
ChildIterator.nextNode|NodeSequence.nextNode|ElemApplyTemplates.transformSelectedNodes,0.0,0.0,0.0,0.0,0.0
CommandLineArgs.makeOption|CommandLineArgs.<clinit>|TestHarness.main,0.0,0.0,0.0,0.0,0.0
CtClassType.getClassFile3|CtClassType.getClassFile2|CtClassType.getInterfaces,0.0,0.0,0.0,0.0,0.0
DTDDVFactory.getInstance|DTDDVFactory.getInstance|XML11Configuration.<init>,0.0,0.0,0.0,0.0,0.0
DTMDefaultBase.ensureSizeOfIndex|DTMDefaultBase.indexNode|SAX2DTM.startElement,0.0,0.0,0.0,0.0,0.0
DTMDefaultBase.getExpandedTypeID|ElemApplyTemplates.transformSelectedNodes|ElemApplyTemplates.execute,0.043954690101173755,0.0,0.006167294931839174,0.0,0.05012198503301293
DTMDefaultBase.getLocalNameFromExpandedNameID|TemplateList.getTemplateFast|ElemApplyTemplates.transformSelectedNodes,0.0,0.0,0.0,0.0,0.0
DTMDefaultBase.getNodeType|ElemApplyTemplates.transformSelectedNodes|ElemApplyTemplates.execute,0.0,0.0,0.0,0.0,0.0
DTMDefaultBase.getNodeType|TemplateList.getTemplateFast|ElemApplyTemplates.transformSelectedNodes,0.0,0.0,0.0,0.0,0.0
DTMDefaultBase.makeNodeHandle|DTMDefaultBase.getParent|StepPattern.getProximityPosition,0.0,0.0,0.0,0.0,0.0
DTMDefaultBase.makeNodeIdentity|DTMDefaultBase.getNodeType|TemplateList.getTemplateFast,0.0,0.006158843125971705,0.0,0.0009785807550861123,0.007137423881057817
DTMManager.newInstance|XPathContext.<init>|XPathContext.<init>,0.0,0.0,0.0,0.0,0.0
DTMManagerDefault.getDTM|XPathContext.getDTM|AxesWalker.getDTM,0.011090484662763805,0.0,0.001638896138187752,0.0,0.012729380800951557
DTMManagerDefault.getDTM|XPathContext.getDTM|ElemApplyTemplates.transformSelectedNodes,0.0,0.0,0.0,0.0,0.0
DTMManagerDefault.getDTM|XPathContext.getDTM|ElemNumber.findAncestor,0.0,0.0,0.0,0.0,0.0
DTMManagerDefault.getDTM|XPathContext.getDTM|ElemNumber.getPreviousNode,0.0,0.0,0.0,0.0,0.0
DTMManagerDefault.getDTM|XPathContext.getDTM|LocPathIterator.setRoot,0.0071030710073709605,0.0,0.001155911041303315,0.0,0.008258982048674276
DacapoClassLoader.loadClass|ClassLoader.loadClass|Class.getDeclaredConstructors0,0.06654833391753481,0.0,0.007447849306013105,0.0,0.07399618322354792
DacapoClassLoader.loadClass|ClassLoader.loadClass|DTMManagerDefault.getDTM,0.0,0.06826840140807612,0.0,0.006793309859858709,0.07506171126793483
DacapoClassLoader.loadClass|ClassLoader.loadClass|XMLReaderFactory.createXMLReader,0.0,0.0,0.0,0.0,0.0
DacapoClassLoader.loadClass|ClassLoader.loadClass|XSLTSchema.build,0.04488805290177332,0.0,0.0022007452098329423,0.0,0.04708879811160626
DecimalFormatSymbolsProviderImpl.getInstance|DecimalFormatSymbols.getInstance|DecimalFormat.<init>,0.0,0.0,0.0,0.0,0.0
ElemApplyTemplates.transformSelectedNodes|ElemApplyTemplates.execute|ElemApplyTemplates.transformSelectedNodes,0.0,0.0,0.0,0.0,0.0
ElemApplyTemplates.transformSelectedNodes|ElemApplyTemplates.execute|TransformerImpl.executeChildTemplates,0.0,0.14407596592503347,0.0,0.0244943324596729,0.16857029838470636
ElemLiteralResult.getLocalName|ElemLiteralResult.execute|ElemApplyTemplates.transformSelectedNodes,0.0,0.017585227677942846,0.0,0.003184475467931801,0.020769703145874646
ElemLiteralResult.getNamespace|ElemLiteralResult.execute|ElemApplyTemplates.transformSelectedNodes,0.0,0.0,0.0,0.0,0.0
ElemVariable.getValue|ElemVariable.execute|ElemApplyTemplates.transformSelectedNodes,0.0,0.0,0.0,0.0,0.0
ExpandedNameTable.getExpandedTypeID|SAX2DTM.startElement|AbstractSAXParser.startElement,0.0,0.04860522314963784,0.0,0.009551349987776736,0.058156573137414576
ExpandedNameTable.getNamespaceID|DTMDefaultBase.indexNode|SAX2DTM.startElement,0.0,0.0,0.0,0.0,0.0
ExpandedNameTable.getType|DTMDefaultBase._type|DTMDefaultBase.getFirstAttributeIdentity,0.0,0.0,0.0,0.0,0.0
ExtendedType.equals|ExpandedNameTable.getExpandedTypeID|ExpandedNameTable.getExpandedTypeID,0.0,0.013731867899813224,0.0,0.002355172233888603,0.016087040133701828
ExtendedType.getLocalName|ExpandedNameTable.getLocalNameID|DTMDefaultBase.indexNode,0.0,0.0,0.0,0.0,0.0
ISO_8859_1$Encoder.encodeArrayLoop|ISO_8859_1$Encoder.encodeLoop|CharsetEncoder.encode,0.013664538137392554,0.0,0.001918243567419245,0.0,0.0155827817048118
IntStack.peek|SAX2DTM.startElement|AbstractSAXParser.startElement,0.0,0.0,0.0,0.0,0.0
IteratorPool.freeInstance|LocPathIterator.detach|ChildTestIterator.detach,0.0,0.004144128205296464,0.0,0.0008788461537989908,0.005022974359095455
IteratorPool.freeInstance|LocPathIterator.detach|NodeSequence.detach,0.007246096032911854,0.0,0.0012701568864215884,0.0,0.008516252919333443
IteratorPool.getInstance|LocPathIterator.asIterator|ElemApplyTemplates.transformSelectedNodes,0.0,0.00546719148963135,0.0,0.0010870212764588203,0.006554212766090171
IteratorPool.getInstance|LocPathIterator.asNode|LocPathIterator.bool,0.0,0.0,0.0,0.0,0.0
IteratorPool.getInstance|LocPathIterator.execute|FuncId.execute,0.0,0.0,0.0,0.0,0.0
Launcher$AppClassLoader.loadClass|ClassLoader.loadClass|TestHarness.main,0.0,0.0,0.0,0.0,0.0
LocPathIterator.detach|NodeSequence.detach|ElemApplyTemplates.transformSelectedNodes,0.006562051282134445,0.028737550418859236,0.001103461538523567,0.0060564178475876855,0.04245948108710493
LocPathIterator.getXPathContext|AxesWalker.setRoot|ReverseAxesWalker.setRoot,0.0,0.0,0.0,0.0,0.0
LocPathIterator.setRoot|WalkingIterator.setRoot|LocPathIterator.executeCharsToContentHandler,0.0,0.0,0.0,0.0,0.0
LongInfo.<init>|ConstPool.readOne|ConstPool.read,0.0,0.0,0.0,0.0,0.0
MetaIndex.mayContain|URLClassPath$JarLoader.getResource|URLClassPath.getResource,0.0,0.0,0.0,0.0,0.0
NodeTest.subPartMatchNS|NodeTest.execute|PredicatedNodeTest.acceptNode,0.0,0.0,0.0,0.0,0.0
NodeTest.subPartMatch|NodeTest.execute|PredicatedNodeTest.acceptNode,0.0,0.0,0.0,0.0,0.0
NodeVector.push|TransformerImpl.pushPairCurrentMatched|ElemApplyTemplates.transformSelectedNodes,0.13346080461338064,0.0,0.014484599517325891,0.0,0.14794540413070653
ObjectVector.setElementAt|TransformerImpl.executeChildTemplates|ElemLiteralResult.execute,0.0,0.0,0.0,0.0,0.0
OutputPropertiesFactory.loadPropertiesFile|OutputPropertiesFactory.getDefaultMethodProperties|OutputProperties.<init>,0.0,0.0,0.0,0.0,0.0
PredicatedNodeTest.getPredicateCount|PredicatedNodeTest.resetProximityPositions|AxesWalker.setRoot,0.0,0.009029192539816416,0.0,0.0020689681564795147,0.01109816069629593
Resource.getBytes|URLClassLoader.defineClass|URLClassLoader.access$100,0.0,0.0,0.0,0.0,0.0
SAX2DTM.addNode|SAX2DTM.startElement|AbstractSAXParser.startElement,0.0,0.0,0.0,0.0,0.0
SAX2DTM.dispatchCharactersEvents|ElemApplyTemplates.transformSelectedNodes|ElemApplyTemplates.execute,0.0,0.0,0.0,0.0,0.0
SAX2DTM.startElement|AbstractSAXParser.startElement|XMLNSDocumentScannerImpl.scanStartElement,0.0,0.06433910087602253,0.0,0.012304234701625364,0.0766433355776479
SecuritySupport.getContextClassLoader|FactoryFinder.find|TransformerFactory.newInstance,0.0,0.0,0.0,0.0,0.0
SecuritySupport12.getContextClassLoader|ObjectFactory.findClassLoader|ObjectFactory.findJarServiceProviderName,0.0,0.0,0.0,0.0,0.0
SecuritySupport12.getParentClassLoader|ObjectFactory.findClassLoader|SerializerFactory.getSerializer,0.0,0.0,0.0,0.0,0.0
StepPattern.execute|StepPattern.execute|StepPattern.execute,0.0,0.0,0.0,0.0,0.0
StepPattern.execute|TemplateList.getTemplateFast|ElemApplyTemplates.transformSelectedNodes,0.0,0.0,0.0,0.0,0.0
StreamDecoder.readBytes|StreamDecoder.implRead|StreamDecoder.read,0.02558081409529981,0.0,0.003608694629696628,0.0,0.029189508724996437
StreamEncoder.implWrite|StreamEncoder.write|OutputStreamWriter.write,0.0,0.0,0.0,0.0,0.0
StreamEncoder.implWrite|StreamEncoder.write|StreamEncoder.write,0.0,0.0,0.0,0.0,0.0
StreamEncoder.writeBytes|StreamEncoder.implFlushBuffer|StreamEncoder.implFlush,0.12333150291674082,0.11936635171018962,0.019801801875968663,0.023485714648204155,0.28598537115110323
StreamEncoder.write|OutputStreamWriter.write|ToStream.writeOutCleanChars,0.0,0.0,0.0,0.0,0.0
StreamEncoder.write|OutputStreamWriter.write|Writer.write,0.0,0.023981830949068233,0.0,0.0046966194373916775,0.02867845038645991
StreamEncoder.write|StreamEncoder.write|OutputStreamWriter.write,0.022552621826010692,0.022998732307811666,0.0024622037263483908,0.004709308813197224,0.05272286667336798
StylesheetRoot.getDefaultTextRule|ElemApplyTemplates.transformSelectedNodes|ElemApplyTemplates.execute,0.0,0.028796952381006637,0.0,0.005912857142989413,0.03470980952399605
StylesheetRoot.initDefaultRule|StylesheetRoot.<init>|StylesheetRoot.<init>,0.04425114820629693,0.0,0.0037863204849037436,0.0,0.04803746869120067
SuballocatedIntVector.elementAt|SAX2DTM.dispatchCharactersEvents|ElemApplyTemplates.transformSelectedNodes,0.0,0.0,0.0,0.0,0.0
SymbolTable.hash|SymbolTable.addSymbol|XMLEntityScanner.scanQName,0.0,0.0,0.0,0.0,0.0
TemplateList.getTemplateFast|ElemApplyTemplates.transformSelectedNodes|ElemApplyTemplates.execute,0.0,0.008716310745354394,0.0,0.0018494805879757238,0.010565791333330118
TestHarness.<init>|TestHarness.main|Harness.main,0.060147010393751664,0.0,0.007426255814492055,0.0,0.06757326620824372
TestHarness.rmdir|TestHarness.makeCleanScratch|TestHarness.main,0.03798598694101405,0.0,0.0041868608701037145,0.0,0.04217284781111776
TestHarness.twoDecimalPlaces|TestHarness.<clinit>|Harness.main,0.0,0.0,0.0,0.0,0.0
ToHTMLStream$Trie.get2|ToHTMLStream.getElemDesc2|ToHTMLStream.startElement,0.0,0.0,0.0,0.0,0.0
ToHTMLStream.closeStartTag|ToStream.characters|ToHTMLStream.characters,0.0,0.05167333896976603,0.0,0.01036129143746822,0.062034630407234254
ToHTMLStream.endElement|ElemLiteralResult.execute|ElemApplyTemplates.transformSelectedNodes,0.0,0.0015540230438707177,0.0,0.0003358017886815666,0.0018898248325522843
ToHTMLStream.processAttribute|ToHTMLStream.processAttributes|ToHTMLStream.closeStartTag,0.0,0.02980744374984873,0.0,0.004812476306818195,0.03461992005666693
ToHTMLStream.startElement|ToStream.startElement|ElemLiteralResult.execute,0.0,0.0,0.0,0.0,0.0
ToHTMLStream.writeAttrString|ToHTMLStream.processAttribute|ToHTMLStream.processAttributes,0.0,0.0,0.0,0.0,0.0
ToStream.characters|ToHTMLStream.characters|FastStringBuffer.sendSAXcharacters,0.15964672534717517,0.17441455006067122,0.017192136648024162,0.029675193084976285,0.3809286051408468
ToStream.setOutputFormat|ToHTMLStream.setOutputFormat|SerializerFactory.getSerializer,0.0,0.025580090457673448,0.0,0.00537610590179945,0.030956196359472898
ToStream.writeOutCleanChars|ToStream.characters|ToHTMLStream.characters,0.0,0.0,0.0,0.0,0.0
ToTextStream.characters|SAX2DTM.dispatchCharactersEvents|LocPathIterator.executeCharsToContentHandler,0.0,0.0,0.0,0.0,0.0
TransformerFactoryImpl.newTemplatesHandler|TransformerFactoryImpl.newTemplates|XSLTBench.<init>,0.053052553866093775,0.0,0.0032118790592621754,0.0,0.05626443292535595
TransformerImpl.executeChildTemplates|ElemLiteralResult.execute|ElemApplyTemplates.transformSelectedNodes,0.0,0.0,0.0,0.0,0.0
TransformerImpl.getDebug|ElemApplyTemplates.transformSelectedNodes|ElemApplyTemplates.execute,0.0,0.0,0.0,0.0,0.0
TransformerImpl.getMode|ElemApplyTemplates.transformSelectedNodes|ElemApplyTemplates.execute,0.0,0.0,0.0,0.0,0.0
TransformerImpl.getSerializationHandler|ElemLiteralResult.execute|ElemApplyTemplates.transformSelectedNodes,0.0,0.0,0.0,0.0,0.0
TransformerImpl.getXPathContext|ElemApplyTemplates.transformSelectedNodes|ElemApplyTemplates.execute,0.0,0.0,0.0,0.0,0.0
TransformerImpl.popCurrentMatched|ElemApplyTemplates.transformSelectedNodes|ElemApplyTemplates.execute,0.04103056032465817,0.0,0.0057980225739039755,0.0,0.04682858289856214
TransformerImpl.pushElemTemplateElement|ElemApplyTemplates.transformSelectedNodes|ElemApplyTemplates.execute,0.0,0.0,0.0,0.0,0.0
TransformerImpl.pushPairCurrentMatched|ElemApplyTemplates.transformSelectedNodes|ElemApplyTemplates.execute,0.0,0.0,0.0,0.0,0.0
TransformerImpl.transformToString|ElemAttribute.constructNode|ElemElement.execute,0.0,0.0,0.0,0.0,0.0
URLClassPath$FileLoader.getResource|URLClassPath$FileLoader.findResource|URLClassPath.findResource,0.0,0.0,0.0,0.0,0.0
URLClassPath$JarLoader$2.getCodeSigners|URLClassLoader.defineClass|URLClassLoader.access$100,0.0,0.0,0.0,0.0,0.0
URLClassPath$JarLoader.checkResource|URLClassPath$JarLoader.getResource|URLClassPath$JarLoader.findResource,0.012469627906982571,0.0,0.0019213953486922587,0.0,0.01439102325567483
URLClassPath$JarLoader.getJarFile|URLClassPath$JarLoader.access$800|URLClassPath$JarLoader$1.run,0.0,0.0,0.0,0.0,0.0
UTF8Reader.read|XMLEntityScanner.load|XMLEntityScanner.scanContent,0.022552621826010692,0.0,0.0024622037263483908,0.0,0.025014825552359083
UTF8Reader.read|XMLEntityScanner.load|XMLEntityScanner.scanQName,0.0,0.032270818713475584,0.0,0.004230292397721436,0.03650111111119702
Utf8Info.<init>|ConstPool.readOne|ConstPool.read,0.04559970148416548,0.0,0.001725566837836058,0.0,0.04732526832200153
VariableStack.setStackFrame|BasicTestIterator.nextNode|NodeSequence.nextNode,0.0,0.0,0.0,0.0,0.0
XMLAttributesImpl.getValue|AbstractSAXParser$AttributesProxy.getValue|SAX2DTM.startElement,0.0,0.0,0.0,0.0,0.0
XMLChar.isContent|XMLEntityScanner.scanContent|XMLDocumentFragmentScannerImpl.scanContent,0.02059887818011416,0.0,0.00233113655195671,0.0,0.02293001473207087
XMLChar.isValid|XMLChar.isInvalid|XMLEntityScanner.scanData,0.0,0.02786834205820066,0.0,0.00566111997048361,0.03352946202868427
XMLDTDProcessor.getRecognizedProperties|XML11Configuration.addRecognizedParamsAndSetDefaults|XML11Configuration.addComponent,0.0,0.0,0.0,0.0,0.0
XMLDocumentFragmentScannerImpl$FragmentContentDispatcher.dispatch|XMLDocumentFragmentScannerImpl.scanDocument|XML11Configuration.parse,0.02558081409529981,0.0,0.003608694629696628,0.0,0.029189508724996437
XMLEntityManager$RewindableInputStream.read|UTF8Reader.read|XMLEntityScanner.load,0.0,0.0,0.0,0.0,0.0
XMLEntityScanner.load|XMLEntityScanner.skipSpaces|XMLDocumentScannerImpl$TrailingMiscDispatcher.dispatch,0.0,0.0,0.0,0.0,0.0
XMLEntityScanner.scanContent|XMLDocumentFragmentScannerImpl.scanContent|XMLDocumentFragmentScannerImpl$FragmentContentDispatcher.dispatch,0.0046376384524179325,0.0,0.0005085777750416117,0.0,0.005146216227459545
XPathContext.getDTM|ElemApplyTemplates.transformSelectedNodes|ElemApplyTemplates.execute,0.0,0.0,0.0,0.0,0.0
XPathContext.popContextNodeList|ElemApplyTemplates.transformSelectedNodes|ElemApplyTemplates.execute,0.0,0.0,0.0,0.0,0.0
XPathContext.popCurrentNodeAndExpression|XPath.execute|ElemWithParam.getValue,0.0,0.0,0.0,0.0,0.0
XPathContext.popSubContextList|StepPattern.getProximityPosition|StepPattern.getProximityPosition,0.03693536835635596,0.0,0.005031214631876894,0.0,0.04196658298823286
XPathContext.pushContextNodeList|ElemApplyTemplates.transformSelectedNodes|ElemApplyTemplates.execute,0.0,0.0,0.0,0.0,0.0
XPathContext.pushCurrentExpressionNode|ElemApplyTemplates.transformSelectedNodes|ElemApplyTemplates.execute,0.0,0.0,0.0,0.0,0.0
XPathContext.pushCurrentNode|PredicatedNodeTest.acceptNode|BasicTestIterator.nextNode,0.001047962577882441,0.0,0.00010388773399368394,0.0,0.001151850311876125
XPathContext.pushNamespaceContextNull|TemplateList.getTemplateFast|ElemApplyTemplates.transformSelectedNodes,0.0,0.009319399999933212,0.0,0.001951333333272487,0.011270733333205699
XPathContext.pushSAXLocatorNull|ElemApplyTemplates.transformSelectedNodes|ElemApplyTemplates.execute,0.0,0.0,0.0,0.0,0.0
