method,package1,package2,dram1,dram2,energy
AbstractSAXParser$AttributesProxy.getLength|SAX2DTM.startElement|AbstractSAXParser.startElement,0.0,0.0,0.0,0.0,0.0
AttributeIterator.getNextNode|BasicTestIterator.nextNode|LocPathIterator.asNode,0.0,0.0,0.0,0.0,0.0
CharInfo.shouldMapTextChar|ToStream.characters|ToHTMLStream.characters,0.09690284931206761,0.05365527651479193,0.01646431943041993,0.007128698868137426,0.17415114412541688
ChildIterator.nextNode|NodeSequence.nextNode|ElemApplyTemplates.transformSelectedNodes,0.0,0.0,0.0,0.0,0.0
ClassFile.read|ClassFile.<init>|CtClassType.<init>,0.0,0.0,0.0,0.0,0.0
Compiler.compile|XPath.<init>|ElemNumber.getCountMatchPattern,0.0,0.0,0.0,0.0,0.0
Compiler.stepPattern|Compiler.locationPathPattern|Compiler.compile,0.08245052173910865,0.0,0.011912934782468135,0.0,0.09436345652157678
ConfigFile.<init>|ConfigFile.<init>|Config.parse,0.026651999998042204,0.0,0.002949999999448967,0.0,0.02960199999749117
DTMDefaultBase._parent|DTMDefaultBase.getParent|DTMDefaultBaseTraversers$AncestorTraverser.next,0.0,0.0,0.0,0.0,0.0
DTMDefaultBase.getNodeType|NodeTest.execute|StepPattern.execute,0.0,0.0,0.0,0.0,0.0
DTMDefaultBase.getNodeType|TemplateList.getHead|TemplateList.getTemplate,0.0,0.0,0.0,0.0,0.0
DTMDefaultBase.getNodeType|TemplateList.getTemplateFast|ElemApplyTemplates.transformSelectedNodes,0.0,0.21739665864129437,0.0,0.04314496067189856,0.2605416193131929
DTMManagerDefault.getDTM|XPathContext.getDTM|ElemApplyTemplates.transformSelectedNodes,0.0,0.0,0.0,0.0,0.0
DTMManagerDefault.getDTM|XPathContext.getDTM|LocPathIterator.setRoot,0.003470227017333708,0.0,0.0006423438293034544,0.0,0.004112570846637163
DTMManagerDefault.getDTM|XPathContext.getDTM|StepPattern.execute,0.0,0.0,0.0,0.0,0.0
DacapoClassLoader.loadClass|ClassLoader.loadClass|ObjectFactory.findProviderClass,0.0,0.0,0.0,0.0,0.0
DisabledAlgorithmConstraints.<init>|DisabledAlgorithmConstraints.<init>|SignatureFileVerifier.<clinit>,0.0,0.0,0.0,0.0,0.0
ElemApplyTemplates.execute|TransformerImpl.executeChildTemplates|ElemLiteralResult.execute,0.0,0.0,0.0,0.0,0.0
ElemApplyTemplates.transformSelectedNodes|ElemApplyTemplates.execute|TransformerImpl.executeChildTemplates,0.0,0.10378919642841668,0.0,0.01315473214279856,0.11694392857121524
ElemContext.push|ToHTMLStream.startElement|ToStream.startElement,0.0,0.003029594173162815,0.0,0.0006001472255318263,0.0036297413986946412
ElemLiteralResult.execute|ElemApplyTemplates.transformSelectedNodes|ElemApplyTemplates.execute,0.0,0.0,0.0,0.0,0.0
ElemLiteralResult.getNamespace|ElemLiteralResult.execute|ElemApplyTemplates.transformSelectedNodes,0.0,0.10212000479447003,0.0,0.020548037595218796,0.12266804238968883
ElemNumber.getMatchingAncestors|ElemNumber.getCountString|ElemNumber.execute,0.0,0.018048971428236527,0.0,0.0035867142858998185,0.021635685714136346
ElemTemplateElement.getNamespaceForPrefix|ElemElement.execute|TransformerImpl.executeChildTemplates,0.0,0.0,0.0,0.0,0.0
ElemValueOf.execute|TransformerImpl.executeChildTemplates|ElemChoose.execute,0.0,0.031580793238436496,0.0,0.004111182862400365,0.03569197610083686
ElemValueOf.execute|TransformerImpl.executeChildTemplates|ElemLiteralResult.execute,0.0,0.0,0.0,0.0,0.0
ExpandedNameTable.getLocalNameID|DTMDefaultBase.indexNode|SAX2DTM.startElement,0.0,0.0,0.0,0.0,0.0
ExpandedNameTable.getType|DTMDefaultBase.getNodeType|NodeTest.execute,0.0,0.0,0.0,0.0,0.0
ExpandedNameTable.getType|DTMDefaultBase.getNodeType|TemplateList.getTemplateFast,0.0,0.0,0.0,0.0,0.0
ExtendedType.getNodeType|ExpandedNameTable.getType|DTMDefaultBase.getNodeType,0.0,0.0,0.0,0.0,0.0
IntStack.peek|SAX2DTM.startElement|AbstractSAXParser.startElement,0.0,0.0,0.0,0.0,0.0
IntStack.quickPop|XPathContext.popCurrentNode|StepPattern.executeRelativePathPattern,0.0,0.0,0.0,0.0,0.0
IteratorPool.getInstance|LocPathIterator.asIterator|ElemApplyTemplates.transformSelectedNodes,0.0,0.0,0.0,0.0,0.0
IteratorPool.getInstance|LocPathIterator.asNode|LocPathIterator.bool,0.0,0.0,0.0,0.0,0.0
IteratorPool.getInstance|LocPathIterator.execute|FuncId.execute,0.0,0.0,0.0,0.0,0.0
LocPathIterator.asIterator|ElemApplyTemplates.transformSelectedNodes|ElemApplyTemplates.execute,0.0,0.014333999999728281,0.0,0.002197727272824991,0.01653172727255327
LocPathIterator.execute|FuncId.execute|FilterExprIteratorSimple.executeFilterExpr,0.0,0.02056396000029053,0.0,0.0038364000001456593,0.02440036000043619
LocPathIterator.execute|FuncId.execute|XPath.execute,0.0,0.0,0.0,0.0,0.0
LocPathIterator.setRoot|ChildTestIterator.setRoot|LocPathIterator.asNode,0.0,0.0,0.0,0.0,0.0
NamespaceMappings.pushNamespace|ToStream.startPrefixMapping|ToStream.startPrefixMapping,0.0,0.0,0.0,0.0,0.0
NodeSequence.cloneWithReset|XNodeSet.iter|Expression.asNode,0.03986091891892028,0.0,0.006627162162142152,0.0,0.046488081081062435
NodeTest.execute|StepPattern.execute|StepPattern.execute,0.0,0.0,0.0,0.0,0.0
NodeTest.execute|StepPattern.execute|TemplateList.getTemplateFast,0.0,0.0,0.0,0.0,0.0
NodeTest.subPartMatch|NodeTest.execute|StepPattern.execute,0.0,0.0,0.0,0.0,0.0
NodeVector.pop|TransformerImpl.popCurrentMatched|ElemApplyTemplates.transformSelectedNodes,0.0,0.0,0.0,0.0,0.0
ObjectStack.pop|XPathContext.popSAXLocator|ElemApplyTemplates.transformSelectedNodes,0.003470227017333708,0.0,0.0006423438293034544,0.0,0.004112570846637163
ObjectStack.setTop|XPathContext.setNamespaceContext|TemplateList.getTemplateFast,0.0,0.0,0.0,0.0,0.0
ObjectStack.setTop|XPathContext.setSAXLocator|TransformerImpl.executeChildTemplates,0.0,0.0,0.0,0.0,0.0
OneStepIterator.setRoot|LocPathIterator.asNode|LocPathIterator.bool,0.0,0.0,0.0,0.0,0.0
OneStepIteratorForward.getNextNode|BasicTestIterator.nextNode|NodeSequence.nextNode,0.011352774647891478,0.0,0.0017456136821993806,0.0,0.013098388330090858
PredicatedNodeTest.clone|WalkingIterator.clone|IteratorPool.getInstance,0.0,0.00983728117251734,0.0,0.001251742708229605,0.011089023880746946
PredicatedNodeTest.resetProximityPositions|AxesWalker.setRoot|FilterExprWalker.setRoot,0.0,0.010370999999966359,0.0,0.0014768895348530606,0.011847889534819418
SAX2DTM.<init>|DTMManagerDefault.getDTM|TransformerImpl.transform,0.0,0.0,0.0,0.0,0.0
SAX2DTM.addNode|SAX2DTM.charactersFlush|SAX2DTM.startElement,0.0,0.0,0.0,0.0,0.0
SAX2DTM.characters|AbstractSAXParser.characters|XMLDocumentFragmentScannerImpl.scanContent,0.0,0.0,0.0,0.0,0.0
SAX2DTM.dispatchCharactersEvents|ElemApplyTemplates.transformSelectedNodes|ElemApplyTemplates.execute,0.0,0.0,0.0,0.0,0.0
SecuritySupport12.getFileExists|ObjectFactory.lookUpFactoryClassName|ObjectFactory.lookUpFactoryClass,0.0,0.0,0.0,0.0,0.0
SerializerBase.addAttribute|ElemLiteralResult.execute|ElemApplyTemplates.transformSelectedNodes,0.0,0.014854464969703872,0.0,0.0018654286627920375,0.01671989363249591
StepPattern.execute|StepPattern.executeRelativePathPattern|StepPattern.execute,0.001237272447388793,0.0,0.00020386977722579855,0.0,0.0014411422246145915
StepPattern.execute|TemplateList.getTemplateFast|ElemApplyTemplates.transformSelectedNodes,0.0,0.0,0.0,0.0,0.0
StepPattern.getPredicateCount|StepPattern.execute|TemplateList.getTemplateFast,0.0,0.0,0.0,0.0,0.0
StreamEncoder.ensureOpen|StreamEncoder.write|StreamEncoder.write,0.0,0.0,0.0,0.0,0.0
StreamEncoder.write|OutputStreamWriter.write|ToHTMLStream.writeAttrString,0.0,0.013676474999738272,0.0,0.0019983750002211306,0.015674849999959405
StreamEncoder.write|OutputStreamWriter.write|ToStream.characters,0.0,0.014854464969703872,0.0,0.0018654286627920375,0.01671989363249591
StreamEncoder.write|OutputStreamWriter.write|ToStream.writeOutCleanChars,0.0,0.0,0.0,0.0,0.0
StreamEncoder.write|StreamEncoder.write|OutputStreamWriter.write,0.0009666046511441424,0.012512912790762764,0.0001873255813586374,0.0017706976744849207,0.015437540697750465
TemplateList.getTemplateFast|ElemApplyTemplates.transformSelectedNodes|ElemApplyTemplates.execute,0.0,0.0,0.0,0.0,0.0
TemplateList.insertPatternInTable|TemplateList.setTemplate|StylesheetRoot.recomposeTemplates,0.0,0.0,0.0,0.0,0.0
TestHarness.main|Harness.main|NativeMethodAccessorImpl.invoke0,0.07820633333418905,0.0,0.006750000000465661,0.0,0.08495633333465472
ToHTMLStream$Trie.get2|ToHTMLStream.getElemDesc2|ToHTMLStream.startElement,0.0,0.0,0.0,0.0,0.0
ToHTMLStream.startElement|ToStream.startElement|ElemLiteralResult.execute,0.032222037037071355,0.0,0.004845000000420475,0.0,0.037067037037491826
ToStream.characters|ToHTMLStream.characters|ElemTextLiteral.execute,0.0,0.04551644009233363,0.0,0.0061925338195011346,0.051708973911834766
ToStream.characters|ToHTMLStream.characters|FastStringBuffer.sendSAXcharacters,0.1686384251085015,0.414173020519273,0.02839789599254521,0.05335198323118022,0.6645613248514999
ToStream.writeOutCleanChars|ToStream.characters|ToHTMLStream.characters,0.0,0.0,0.0,0.0,0.0
TransformerFactory.newInstance|XSLTBench.<init>|NativeConstructorAccessorImpl.newInstance0,0.060363666668611884,0.0,0.007870000001275912,0.0,0.0682336666698878
TransformerFactoryImpl.newTemplatesHandler|TransformerFactoryImpl.newTemplates|XSLTBench.<init>,0.018941333333107952,0.0,0.002334999999826929,0.0,0.021276333332934882
TransformerImpl.getCountersTable|ElemNumber.getCountString|ElemNumber.execute,0.0,0.0,0.0,0.0,0.0
TransformerImpl.popCurrentMatched|ElemApplyTemplates.transformSelectedNodes|ElemApplyTemplates.execute,0.0,0.00399124999967171,0.0,0.0007173214284453673,0.004708571428117077
TransformerImpl.popElemTemplateElement|ElemApplyTemplates.transformSelectedNodes|ElemApplyTemplates.execute,0.0,0.0,0.0,0.0,0.0
URLClassPath$JarLoader$2.getInputStream|Resource.cachedInputStream|Resource.getByteBuffer,0.057423888887973985,0.0,0.006187500000831078,0.0,0.06361138888880506
URLClassPath$JarLoader.checkResource|URLClassPath$JarLoader.getResource|URLClassPath$JarLoader.findResource,0.0,0.0,0.0,0.0,0.0
UTF8Reader.read|XMLEntityScanner.load|XMLEntityScanner.scanQName,0.02349253525461093,0.0,0.002948735392681804,0.0,0.026441270647292736
VariableStack.setStackFrame|BasicTestIterator.nextNode|NodeSequence.nextNode,0.004596225410569854,0.0,0.000820764211829763,0.0,0.005416989622399617
VariableStack.unlink|ElemCallTemplate.execute|TransformerImpl.executeChildTemplates,0.0,0.0,0.0,0.0,0.0
XML11Configuration.<init>|XIncludeAwareParserConfiguration.<init>|XIncludeAwareParserConfiguration.<init>,0.026018888890609597,0.0,0.0009888888881606462,0.0,0.027007777778770243
XMLChar.<clinit>|XMLEntityScanner.skipDeclSpaces|XMLVersionDetector.determineDocVersion,0.0,0.0,0.0,0.0,0.0
XMLChar.isContent|XMLEntityScanner.scanContent|XMLDocumentFragmentScannerImpl.scanContent,0.0,0.014333999999728281,0.0,0.002197727272824991,0.01653172727255327
XMLChar.isInvalid|XMLScanner.isInvalidLiteral|XMLDocumentFragmentScannerImpl.scanCDATASection,0.0,0.012512912790762764,0.0,0.0017706976744849207,0.014283610465247685
XMLDTDScannerImpl.init|XMLDTDScannerImpl.reset|XML11Configuration.reset,0.0,0.0,0.0,0.0,0.0
XMLDocumentFragmentScannerImpl$FragmentContentDispatcher.dispatch|XMLDocumentFragmentScannerImpl.scanDocument|XML11Configuration.parse,0.0,0.0,0.0,0.0,0.0
XMLEntityScanner.scanContent|XMLDocumentFragmentScannerImpl.scanContent|XMLDocumentFragmentScannerImpl$FragmentContentDispatcher.dispatch,0.0,0.03816304019260102,0.0,0.005643693795890785,0.0438067339884918
XMLEntityScanner.scanLiteral|XMLScanner.scanAttributeValue|XMLNSDocumentScannerImpl.scanAttribute,0.0,0.0,0.0,0.0,0.0
XMLEntityScanner.scanQName|XMLNSDocumentScannerImpl.scanStartElement|XMLDocumentFragmentScannerImpl$FragmentContentDispatcher.dispatch,0.07051599999977043,0.0,0.008859999999306941,0.0,0.07937599999907737
XMLScanner.normalizeWhitespace|XMLScanner.scanAttributeValue|XMLNSDocumentScannerImpl.scanAttribute,0.0,0.0,0.0,0.0,0.0
XObject.<init>|NodeSequence.<init>|XNodeSet.<init>,0.0,0.012512912790762764,0.0,0.0017706976744849207,0.014283610465247685
XPathContext.getDTM|ElemApplyTemplates.transformSelectedNodes|ElemApplyTemplates.execute,0.0,0.0,0.0,0.0,0.0
XPathContext.getDTM|StepPattern.execute|StepPattern.execute,0.0,0.0,0.0,0.0,0.0
XPathContext.pushContextNodeList|ElemApplyTemplates.transformSelectedNodes|ElemApplyTemplates.execute,0.0,0.0,0.0,0.0,0.0
XPathContext.pushCurrentNode|ElemApplyTemplates.transformSelectedNodes|ElemApplyTemplates.execute,0.0,0.0,0.0,0.0,0.0
XPathParser.AbbreviatedNodeTestStep|XPathParser.StepPattern|XPathParser.RelativePathPattern,0.0,0.03856199999988478,0.0,0.005055428571358788,0.043617428571243566
