method,package1,package2,dram1,dram2,energy
AVT,0.0,0.0,0.0,0.0,0.0
AbstractSAXParser,0.0,0.0,0.0,0.0,0.0
CharInfo,0.0202128352374317,0.20847056903812408,0.0020627098748005035,0.03611443218560553,0.2668605463359618
Compiler,0.0,0.0,0.0,0.0,0.0
DTMDefaultBase,0.0,0.017359101663773177,0.0,0.0033068535918828034,0.020665955255655982
DTMManagerDefault,0.0019239725189929696,0.03677072254068965,0.0001701148813374757,0.0065604906476166,0.0454253005886367
DisabledAlgorithmConstraints$Constraints,0.062255999999858126,0.0,0.007509999998243679,0.0,0.0697659999981018
ElemApplyTemplates,0.0,0.052181832085992155,0.0,0.008800024440204088,0.06098185652619624
ElemChoose,0.0,0.0,0.0,0.0,0.0
ElemContext,0.0019846476193197573,0.0,0.0003450153884927534,0.0,0.0023296630078125107
ElemDesc,0.0,0.0,0.0,0.0,0.0
ElemElement,0.0,0.0009319514416965502,0.0,0.00016131106804660074,0.001093262509743151
ElemLiteralResult,0.0,0.0,0.0,0.0,0.0
ElemNumber,0.0,0.0,0.0,0.0,0.0
ElemTemplateElement,0.0,0.003546344827366832,0.0,0.0006931034480783574,0.004239448275445189
ElemUse,0.0,0.0011388422325285838,0.0,0.0002204231966162356,0.0013592654291448194
ElemValueOf,0.02480618181796286,0.0,0.00408999999997446,0.0,0.028896181817937322
ExpandedNameTable,0.005822750000152155,0.0,0.0008726250001927839,0.0,0.006695375000344939
ExtendedType,0.05107956000016523,0.006514466666946343,0.004970329412574167,0.00096149999978176,0.06352585607946751
FuncPosition,0.0,0.0,0.0,0.0,0.0
ISO_8859_1$Encoder,0.005911718147606993,0.0,0.0007247759700114332,0.0,0.006636494117618427
IntStack,0.005901909090894289,0.0321924419120906,0.0009490909091475646,0.0061101562498579905,0.04515359816199044
IteratorPool,0.0,0.028613803882732238,0.0,0.004533524141479919,0.03314732802421216
LocPathIterator,0.0,0.013995690740078882,0.0,0.0027039376294490693,0.01669962836952795
MethodInfo,0.0,0.0,0.0,0.0,0.0
NamespaceMappings,0.0,0.0,0.0,0.0,0.0
NodeSequence,0.0,0.0,0.0,0.0,0.0
NodeTest,0.0,0.0,0.0,0.0,0.0
ObjectStack,0.0,0.0,0.0,0.0,0.0
OneStepIteratorForward,0.036525148031967165,0.0,0.0038208995410121006,0.0,0.040346047572979264
PredicatedNodeTest,0.0,0.0,0.0,0.0,0.0
SAX2DTM,0.0,0.034004496471261636,0.0,0.005837045249610902,0.039841541720872536
SerializerBase,0.0,0.0,0.0,0.0,0.0
StepPattern,0.0,0.0027865105212304827,0.0,0.000526386938710839,0.0033128974599413216
StreamEncoder,0.0,0.0,0.0,0.0,0.0
StylesheetHandler,0.0,0.0,0.0,0.0,0.0
StylesheetRoot,0.0,0.0,0.0,0.0,0.0
SuballocatedIntVector,0.0,0.0,0.0,0.0,0.0
TeePrintStream,0.04581688888881924,0.0,0.005240000000210581,0.0,0.051056888889029824
TemplateList,0.0,0.0,0.0,0.0,0.0
TestHarness,0.010477666665489473,0.0,0.0009700000009615907,0.0,0.011447666666451063
ToHTMLStream,0.0,0.00391815226740819,0.0,0.000984981619992533,0.004903133887400723
ToStream,0.17556596124378343,0.2651219237721379,0.02006060118308166,0.043664443584325995,0.504412929783329
TransformerFactory,0.0645753333325653,0.0,0.0035600000022289646,0.0,0.06813533333479425
TransformerImpl,0.0634644364318876,0.044931015628452114,0.00597886790840012,0.007308324627644074,0.1216826445963839
URLClassPath,0.0,0.009507306551911008,0.0,0.001434275466276172,0.010941582018187181
UTF8Reader,0.06613885247078699,0.08047374408952704,0.006477702464490663,0.011666334524516837,0.16475663354932155
UnionPattern,0.0,0.0,0.0,0.0,0.0
Utf8Info,0.08066800000233343,0.0,0.004109999999248733,0.0,0.08477800000158216
WalkerFactory,0.0,0.0,0.0,0.0,0.0
WalkingIterator,0.0,0.0,0.0,0.0,0.0
XMLChar,0.05107956000016523,0.0,0.004970329412574167,0.0,0.0560498894127394
XMLDocumentFragmentScannerImpl,0.0,0.009507306551911008,0.0,0.001434275466276172,0.010941582018187181
XMLDocumentFragmentScannerImpl$FragmentContentDispatcher,0.0034817029411522748,0.0,0.00036807352959893996,0.0,0.0038497764707512146
XMLEntityScanner,0.0,0.0,0.0,0.0,0.0
XNodeSet,0.0,0.0,0.0,0.0,0.0
XPathContext,0.02953928531473447,0.01682313540706922,0.004552088423508786,0.003302986357702367,0.05421749550301484
XSLTElementDef,0.04874666666970976,0.0,0.004920000001826944,0.0,0.0536666666715367
