method,hits
ArrayList.add,1
ArrayList.ensureExplicitCapacity,1
Arrays.copyOfRange,1
Buffer.<init>,1
Buffer.limit,2
BufferedInputStream.read,3
CharsetEncoder.encode,2
Class.getDeclaredConstructors0,1
Class.isInterface,1
ClassLoader.defineClass1,6
CoderResult.isUnderflow,1
FileOutputStream.writeBytes,22
HashMap.putMapEntries,1
Inflater.inflateBytes,6
JarFile.getManifestFromReference,1
Object.clone,1
Object.hashCode,1
OutputStreamWriter.write,1
Properties$LineReader.readLine,2
Stack.peek,2
Stack.pop,1
String.equalsIgnoreCase,1
String.getChars,1
String.length,1
String.regionMatches,1
StringBuffer.toString,1
Thread.interrupted,1
Throwable.fillInStackTrace,3
URL.<init>,1
URLClassLoader.defineClass,1
UnixFileSystem.getBooleanAttributes0,1
UnixFileSystem.resolve,1
Vector.addElement,4
Vector.elementAt,1
Vector.isEmpty,3
Vector.size,3
WeakHashMap$Entry.<init>,1
ZipFile.getEntry,1
