method,package1,package2,dram1,dram2,energy
java.io,0.042386840290920255,0.19177489484440358,0.007113370613244968,0.02863331315530066,0.26990841890386946
java.lang,0.008379753988914579,0.21841454692354,0.0007963731975212055,0.031201236547140795,0.2587919106571166
java.nio,0.0,0.0,0.0,0.0,0.0
java.nio.charset,0.0,0.012041754727422587,0.0,0.00234430678969202,0.014386061517114607
java.security,0.0,0.0,0.0,0.0,0.0
java.util,0.1819962460380875,0.09806315127515522,0.02678470376054775,0.01721482395165394,0.3240589250254444
java.util.regex,0.0,0.061608094861024386,0.0,0.00815501032883866,0.06976310518986305
java.util.zip,0.011504212121177592,0.35683990750736966,0.0020322727271405074,0.049104333273789796,0.4194807256294776
