method,package1,package2,dram1,dram2,energy
AbstractCollection.isEmpty,0.0,0.0,0.0,0.0,0.0
AbstractStringBuilder.ensureCapacityInternal,0.0,0.007712780488030302,0.0,0.000974268292782476,0.008687048780812778
AccessController.doPrivileged,0.0,0.0,0.0,0.0,0.0
ArrayList.ensureCapacityInternal,0.0,0.0,0.0,0.0,0.0
ArrayList.ensureExplicitCapacity,0.0,0.0,0.0,0.0,0.0
Buffer.position,0.0,0.0,0.0,0.0,0.0
CharBuffer.wrap,0.0,0.0,0.0,0.0,0.0
ClassLoader.defineClass1,0.0,0.13075766666831137,0.0,0.020599999998618536,0.1513576666669299
CoderResult.isOverflow,0.0,0.017453080519415982,0.0,0.003169246753251877,0.02062232727266786
FileInputStream.read0,0.0,0.0,0.0,0.0,0.0
FileInputStream.readBytes,0.0,0.05521705882325905,0.0,0.007486764705818666,0.06270382352907772
FileOutputStream.writeBytes,0.021181403266528724,0.04162337517206653,0.004315021583099399,0.006516471958915207,0.07363627198060986
Finalizer.register,0.0,0.0,0.0,0.0,0.0
HashMap$HashIterator.nextNode,0.0013834722222883199,0.0,0.00027583333313588,0.0,0.0016593055554242
HashMap.putMapEntries,0.0,0.0,0.0,0.0,0.0
Hashtable$Entry.<init>,0.0005038756308176292,0.0,3.8431192106005256e-05,0.0,0.0005423068229236345
Hashtable$Enumerator.hasNext,0.0,0.004315561242128804,0.0,0.0007805002874796787,0.005096061529608483
Hashtable.get,0.0,0.009452999999999387,0.0,0.0012501219511827134,0.010703121951182101
Inflater.inflateBytes,0.0,0.13081866666713418,0.0,0.022030000000086144,0.15284866666722033
LinkedList.add,0.0,0.0,0.0,0.0,0.0
Object.clone,0.0,0.16498693980043552,0.0,0.021523153375760842,0.18651009317619638
Properties$LineReader.readLine,0.013277729687616584,0.03996892907781194,0.0011780749268137352,0.007456595744763859,0.06188132943700612
Stack.peek,0.0,0.0,0.0,0.0,0.0
Stack.pop,0.0,0.0,0.0,0.0,0.0
Stack.push,0.0,0.0,0.0,0.0,0.0
String.charAt,0.0,0.0,0.0,0.0,0.0
String.getChars,0.0,0.0,0.0,0.0,0.0
String.intern,0.0,0.0,0.0,0.0,0.0
Thread.start0,0.0,0.0,0.0,0.0,0.0
UnixFileSystem.delete0,0.0,0.0,0.0,0.0,0.0
Vector.addElement,0.024529820215405413,0.0,0.004867157395391562,0.0,0.029396977610796973
Vector.isEmpty,0.0,0.01209872923246187,0.0,0.0019483014194974105,0.01404703065195928
Vector.removeElementAt,0.0,0.0,0.0,0.0,0.0
Vector.size,0.0,0.0,0.0,0.0,0.0
ZipFile.<init>,0.0,0.0,0.0,0.0,0.0
ZipFile.getEntry,0.0,0.0,0.0,0.0,0.0
ZipFile.getZipEntry,0.0,0.0,0.0,0.0,0.0
