method,package1,package2,dram1,dram2,energy
AccessController.doPrivileged,0.0,0.021278211828128696,0.0,0.002549514622771446,0.02382772645090014
Arrays.copyOf,0.0,0.06537389979262856,0.0,0.009296932642305964,0.07467083243493453
BufferedInputStream.read,0.0,0.0,0.0,0.0,0.0
BufferedOutputStream.write,0.0,0.0567296160118817,0.0,0.006937084872740622,0.06366670088462233
CharBuffer.array,0.0,0.003082380559428039,0.0,0.0003840584393680416,0.0034664389987960806
Class.getDeclaredConstructors0,0.0,0.09759988850196162,0.0,0.009149211554212479,0.1067491000561741
ClassLoader.defineClass1,0.0,0.19573295673400215,0.0,0.025967359040514802,0.22170031577451696
CoderResult.isOverflow,0.0,0.0,0.0,0.0,0.0
DataInputStream.readUnsignedShort,0.0,0.0,0.0,0.0,0.0
FileOutputStream.writeBytes,0.02085038709675803,0.07780326132348511,0.004190806451538998,0.012673219668300173,0.11551767454008231
HashMap$HashIterator.nextNode,0.0,0.007424257371724972,0.0,0.0006870365209809197,0.008111293892705892
HashMap$KeyIterator.next,0.005845524324340167,0.0,0.0008642432430910098,0.0,0.006709767567431177
HashMap.get,0.0,0.0,0.0,0.0,0.0
HeapByteBuffer.<init>,0.0,0.0,0.0,0.0,0.0
Inflater.inflateBytes,0.0,0.0,0.0,0.0,0.0
JarFile.getJarEntry,0.0,0.0,0.0,0.0,0.0
Manifest.getAttributes,0.0,0.0,0.0,0.0,0.0
OutputStreamWriter.write,0.0,0.0,0.0,0.0,0.0
Pattern.createGroup,0.047182542510169005,0.0,0.006614635664664945,0.0,0.053797178174833954
Properties$LineReader.readLine,0.004265731034633816,0.0,0.0006209999999304398,0.0,0.004886731034564256
Stack.peek,0.0,0.0,0.0,0.0,0.0
Stack.pop,0.0025368717947574808,0.003348247592276025,0.0005069230768966895,0.0006350396171435344,0.00702708208107373
String.<init>,0.0,0.011079676470698734,0.0,0.0009802941175996024,0.012059970588298337
String.charAt,0.018810378378327948,0.0,0.003822162162160149,0.0,0.0226325405404881
String.getChars,0.0,0.0,0.0,0.0,0.0
String.indexOf,0.0,0.003484827696276384,0.0,0.0006554887472767367,0.004140316443553121
StringBuffer.toString,0.0,0.002821150898505382,0.0,0.0004463916639453556,0.003267542562450738
StringCoding$StringEncoder.encode,0.0,0.0,0.0,0.0,0.0
Thread.interrupted,0.0,0.0,0.0,0.0,0.0
Throwable.fillInStackTrace,0.0,0.0022175999998580664,0.0,0.0003586666664988217,0.002576266666356888
URL.<init>,0.0,0.0,0.0,0.0,0.0
UnixFileSystem.getBooleanAttributes0,0.0,0.0,0.0,0.0,0.0
Vector.isEmpty,0.0,0.0,0.0,0.0,0.0
Vector.removeElementAt,0.0,0.0,0.0,0.0,0.0
Vector.size,0.001144780487776166,0.011388353172506516,0.0002432926829475569,0.002071135357684416,0.014847561700914655
ZipFile.freeEntry,0.0,0.0,0.0,0.0,0.0
ZipFile.getEntry,0.004665218046357918,0.0,0.0009963330647825485,0.0,0.0056615511111404665
