method,package1,package2,dram1,dram2,energy
java.io,0.3313895924261637,0.1734068689553448,0.039478189593289616,0.030710014750391347,0.5749846657251896
java.lang,0.21437541182875713,0.03559283968692107,0.02243812865660573,0.005928912436577091,0.27833529260886103
java.nio,0.0013360833234048782,0.0021182045453646088,0.00021890221638077656,0.00027715909097671766,0.003950349176126982
java.security,0.0,0.011332972875700896,0.0,0.0015494548051813587,0.012882427680882255
java.util,0.13945291762742384,0.06047436234398848,0.01971936091534385,0.00981640829942043,0.2294630491861766
java.util.zip,0.4249873333295302,0.0,0.04648500000136361,0.0,0.47147233333089383
