method,package1,package2,dram1,dram2,energy
AbstractAlgorithmConstraints,0.0,0.05205428571623217,0.0,0.007079999999924828,0.059134285716156997
AbstractSAXParser,0.0,0.0,0.0,0.0,0.0
AccessController,0.002591195948941365,0.0,0.0002473647045766266,0.0,0.0028385606535179914
ArrayList,0.0,0.0,0.0,0.0,0.0
AttributesImplSerializer,0.012344107646550471,0.0,0.0025267913180155393,0.0,0.01487089896456601
Benchmark,0.0,0.05849200000132744,0.0,0.008280000001832377,0.06677200000315982
Buffer,0.013586571265573864,0.0,0.002796560493344145,0.0,0.016383131758918007
ByteBuffer,0.0,0.0,0.0,0.0,0.0
CharBuffer,0.0,0.05034231209338088,0.0,0.006662277075778663,0.05700458916915954
CharInfo,0.1212040898355382,0.18402561030802203,0.0132939977784417,0.029183202388161196,0.3477069003101631
Class,0.0,0.004865111920422599,0.0,0.0006203002715126514,0.005485412191935251
ClassLoader,0.0,0.05586733333378409,0.0,0.004120000000208771,0.05998733333399286
CodeSource,0.0,0.0,0.0,0.0,0.0
CoderResult,0.0,0.0,0.0,0.0,0.0
Config,0.0,0.0,0.0,0.0,0.0
ConfigFile,0.0,0.059285333336447366,0.0,0.00855999999960962,0.06784533333605698
DTMAxisTraverser,0.0,0.0,0.0,0.0,0.0
DTMDefaultBase,0.02339917817268069,0.0,0.00484945448939039,0.0,0.028248632662071078
DTMDefaultBaseTraversers,0.0,0.04073473950190416,0.0,0.005349386845092732,0.04608412634699689
DTMManagerDefault,0.0559406390149062,0.0022957282982631927,0.011301626234160655,0.00019072906415665232,0.0697287226114867
ElemApplyTemplates,0.13996937830670553,0.0,0.017294717819391757,0.0,0.1572640961260973
ElemAttribute,0.0,0.0,0.0,0.0,0.0
ElemLiteralResult,0.017145427756929132,0.0,0.003232425836040736,0.0,0.02037785359296987
ElemNumber,0.0,0.0,0.0,0.0,0.0
ElemTemplateElement,0.011121261083324991,0.0,0.0012778029187727569,0.0,0.012399064002097749
ExpandedNameTable,0.0023333258541867684,0.0,0.00045227764753690605,0.0,0.0027856035017236745
ExtendedType,0.0,0.0,0.0,0.0,0.0
FileOutputStream,0.11551762240869475,0.04592410313857063,0.013128739436143778,0.006042455026889642,0.1806129200102988
Handler,0.0,0.0,0.0,0.0,0.0
HashMap,0.002336372092919868,0.04381770454545569,0.00045837209303457247,0.0060027272727231976,0.052615176004133325
Hashtable,0.004463909090687098,0.0,0.0008918181814475578,0.0,0.005355727272134655
Hashtable$Enumerator,0.0,0.0,0.0,0.0,0.0
Inflater,0.0,0.0497174285701476,0.0,0.004701428572713796,0.05441885714286139
IntStack,0.0,0.0,0.0,0.0,0.0
IteratorPool,0.10766822630685297,0.0,0.011711369534198452,0.0,0.11937959584105141
LocPathIterator,0.051026766153811486,0.0,0.009433870821750522,0.0,0.060460636975562004
Long,0.0,0.026813376605116592,0.0,0.004185025265690489,0.03099840187080708
NamespaceMappings,0.0,0.0,0.0,0.0,0.0
NamespaceSupport,0.0,0.0,0.0,0.0,0.0
NodeSequence,0.0,0.0,0.0,0.0,0.0
NodeTest,0.0,0.0,0.0,0.0,0.0
NodeVector,0.0,0.0,0.0,0.0,0.0
Object,0.0,0.0,0.0,0.0,0.0
ObjectStack,0.017596285714490373,0.0011425646418981533,0.0019830814639534944,0.00017435049001332412,0.020896282310355348
ObjectVector,0.0,0.0,0.0,0.0,0.0
Operation,0.0020700644008733657,0.0,0.00026768074155019447,0.0,0.0023377451424235604
OutputStreamWriter,0.0,0.0,0.0,0.0,0.0
PredicatedNodeTest,0.0,0.0,0.0,0.0,0.0
ProgressMonitor,0.0,0.0,0.0,0.0,0.0
Properties$LineReader,0.10710149501609703,0.0,0.0164930232554176,0.0,0.12359451827151463
SAX2DTM,0.050180272611148206,0.0,0.007682946104904517,0.0,0.057863218716052725
SerializerBase,0.0,0.0,0.0,0.0,0.0
Stack,0.04276332332612475,0.02018111764696454,0.008558517930882935,0.0025963235292532343,0.07409928243322547
StepPattern,0.0,0.00275581818167473,0.0,0.00037000000002356535,0.0031258181816982956
StreamEncoder,0.023080181738121017,0.0,0.005254188595803567,0.0,0.028334370333924584
String,0.0,0.00333308249640318,0.0,0.00040200916391107633,0.0037350916603142562
StringBuffer,0.0,0.0,0.0,0.0,0.0
StylesheetHandler,0.0,0.03902200000205387,0.0,0.004139999999703528,0.0431620000017574
SuballocatedIntVector,0.0,0.0,0.0,0.0,0.0
TemplateList,0.0,0.0,0.0,0.0,0.0
TemplateSubPatternAssociation,0.045746641001913946,0.0,0.005041461039031835,0.0,0.05078810204094578
Throwable,0.0,0.0,0.0,0.0,0.0
ToHTMLStream,0.0,0.0,0.0,0.0,0.0
ToStream,0.36238671038321296,0.4817596552337785,0.04097581995272358,0.07915323984133286,0.9642754254110478
ToStream$BoolStack,0.0,0.0,0.0,0.0,0.0
ToTextStream,0.0,0.0,0.0,0.0,0.0
TransformerImpl,0.0,0.010065725568218012,0.0,0.0010094043437977591,0.011075129912015771
URLClassLoader,0.0,0.06007899999773751,0.0,0.00443000000086613,0.06450899999860364
URLClassPath$JarLoader,0.0,0.0,0.0,0.0,0.0
UTF8Reader,0.0,0.0,0.0,0.0,0.0
UnionPattern,0.0,0.0,0.0,0.0,0.0
Vector,0.0,0.025595349577806834,0.0,0.003472175233490726,0.02906752481129756
XIncludeAwareParserConfiguration,0.06632335714415863,0.0,0.006958928571423582,0.0,0.07328228571558221
XMLAttributesImpl,0.0,0.010065725568218012,0.0,0.0010094043437977591,0.011075129912015771
XMLChar,0.0,0.0,0.0,0.0,0.0
XMLDocumentFragmentScannerImpl,0.0059301136364162885,0.0,0.000995795454483331,0.0,0.0069259090908996195
XMLDocumentFragmentScannerImpl$FragmentContentDispatcher,0.0,0.0,0.0,0.0,0.0
XMLEntityScanner,0.0,0.0,0.0,0.0,0.0
XMLString,0.012043555555662288,0.0,0.0017846626983627509,0.0,0.013828218254025039
XNodeSet,0.0,0.0,0.0,0.0,0.0
XPathContext,0.0696932698711753,0.04814238235292792,0.00776557927094188,0.006337941176324796,0.1319391726713699
XPathParser,0.0,0.04566620278543065,0.0,0.006189237743345973,0.05185544052877662
XSLTBench$XalanWorker,0.0,0.0,0.0,0.0,0.0
XSLTSchema,0.0,0.05220533333582959,0.0,0.002760000000610792,0.05496533333644039
ZipFile,0.0,0.0,0.0,0.0,0.0
