method,package1,package2,dram1,dram2,energy
AbstractSAXParser,0.0,0.0,0.0,0.0,0.0
AbstractSAXParser$LocatorProxy,0.0,0.05661000000044523,0.0,0.009166666665502513,0.06577666666594774
AccessController,0.0,0.0,0.0,0.0,0.0
ArrayList,0.0,0.0039381648568461184,0.0,0.0007996168392509339,0.004737781696097052
Arrays,0.0,0.0,0.0,0.0,0.0
AttributeInfo,0.0,0.0,0.0,0.0,0.0
AttributesImpl,0.0,0.0,0.0,0.0,0.0
AxesWalker,0.0,0.0,0.0,0.0,0.0
BoolStack,0.0,0.0,0.0,0.0,0.0
BufferedInputStream,0.0,0.116943333336773,0.0,0.017854999998235144,0.13479833333500812
BufferedReader,0.0064187189826259965,0.0,0.0009737903225234486,0.0,0.007392509305149445
CharBuffer,0.07000743148061309,0.0,0.010667732519274992,0.0,0.08067516399988808
CharInfo,0.07520563292042785,0.1307607395261763,0.007776570234797976,0.02168591271322816,0.23542885539463027
ChildIterator,0.012056756570671684,0.0,0.0012138749779733846,0.0,0.013270631548645068
Class,0.0,0.0,0.0,0.0,0.0
ClassLoader,0.0,0.1027016666679022,0.0,0.015140000000731863,0.11784166666863406
CoderResult,0.0,0.0,0.0,0.0,0.0
DTMDefaultBase,0.08433972482896036,0.0,0.012456831244105477,0.0,0.09679655607306584
DTMDefaultBaseTraversers,0.0,0.0,0.0,0.0,0.0
DTMDefaultBaseTraversers$AncestorTraverser,0.0,0.006961761760859418,0.0,0.0014096786080484527,0.00837144036890787
DTMManagerDefault,0.0,0.002404195122014754,0.0,0.0005103658535872676,0.0029145609756020215
DataInputStream,0.0,0.11128733333316633,0.0,0.01786499999919518,0.1291523333323615
ElemApplyTemplates,0.012428570805962798,0.0012732059373839885,0.0015489119919143905,0.0002558498535209676,0.015506538588782145
ElemContext,0.0,0.0,0.0,0.0,0.0
ElemElement,0.10316544702452994,0.0,0.011151017289963957,0.0,0.1143164643144939
ElemIf,0.0,0.0,0.0,0.0,0.0
ElemLiteralResult,0.0,0.0,0.0,0.0,0.0
ElemTemplateElement,0.0,0.0,0.0,0.0,0.0
ElemTextLiteral,0.0,0.0,0.0,0.0,0.0
ExpandedNameTable,0.0,0.0,0.0,0.0,0.0
FastStringBuffer,0.0,0.0,0.0,0.0,0.0
FileInputStream,0.0,0.0,0.0,0.0,0.0
FileOutputStream,0.0415189826496285,0.19432275864056256,0.0060937242354961035,0.03379341056936421,0.27572887609505137
FilterInputStream,0.0,0.05096433333528694,0.0,0.00826000000233762,0.05922433333762456
Hashtable,0.0,0.0655110000031224,0.0,0.009639999999005036,0.07515100000212745
ISO_8859_1,0.0,0.0,0.0,0.0,0.0
ISO_8859_1$Encoder,0.0,0.0,0.0,0.0,0.0
Inflater,0.0,0.04998230303030913,0.0,0.008014545453162016,0.05799684848347114
InflaterInputStream,0.0,0.0,0.0,0.0,0.0
IntStack,0.0,0.0,0.0,0.0,0.0
IteratorPool,0.002969811188706915,0.023560672783163997,0.000548937062782128,0.00509493415348317,0.03217435518813621
LocPathIterator,0.0,0.0018173166525749789,0.0,0.00034464776586653,0.002161964418441509
MethodAccessorGenerator,0.0,0.06027222222150563,0.0,0.009154166665313015,0.06942638888681864
NamespaceMappings,0.0,0.0,0.0,0.0,0.0
NativeMethodAccessorImpl,0.0,0.0,0.0,0.0,0.0
NodeSequence,0.0,0.0,0.0,0.0,0.0
NodeTest,0.0,0.0,0.0,0.0,0.0
Object,0.0,0.026918076923511062,0.0,0.004356923076743558,0.03127500000025462
ObjectVector,0.0,0.0,0.0,0.0,0.0
Properties,0.0,0.01224198404092358,0.0,0.0017067305349205534,0.013948714575844134
Properties$LineReader,0.0,0.0,0.0,0.0,0.0
QName,0.0,0.0,0.0,0.0,0.0
Reflection,0.0,0.0,0.0,0.0,0.0
SAX2DTM,0.10316544702452994,0.00451635359429402,0.011151017289963957,0.0007267626097718707,0.11955958051855978
SecuritySupport12$1,0.0,0.0,0.0,0.0,0.0
Stack,0.0,0.0,0.0,0.0,0.0
StepPattern,0.0243113995016164,0.0,0.002535921926829417,0.0,0.026847321428445814
StreamEncoder,0.008840566209040465,0.03562530000066335,0.0010717362563804052,0.00625117947202807,0.051788781938112295
String,0.0,0.03396103529029068,0.0,0.005967016690971984,0.03992805198126267
SuballocatedIntVector,0.0,0.0,0.0,0.0,0.0
TemplateList,0.0,0.004886670401216911,0.0,0.0010545164556533132,0.005941186856870224
Thread,0.0,0.0,0.0,0.0,0.0
Throwable,0.05351918359739617,0.0,0.005697553588089577,0.0,0.05921673718548575
ToHTMLStream,0.02554605988954225,0.0,0.0026744101394256033,0.0,0.028220470028967853
ToStream,0.32409062750638445,0.18638757560752364,0.03397297425649066,0.03098073048365879,0.5754319078540576
ToStream$BoolStack,0.0,0.01982569823681312,0.0,0.003586606686895198,0.02341230492370832
TransformerImpl,0.01048584000003757,0.0,0.0016391999999177645,0.0,0.012125039999955334
URL,0.0,0.0,0.0,0.0,0.0
URLClassLoader$1,0.0,0.0,0.0,0.0,0.0
URLConnection,0.0,0.0,0.0,0.0,0.0
UTF8Reader,0.026082532255735744,0.0,0.0028688477114800397,0.0,0.028951379967215782
UnixFileSystem,0.0,0.0,0.0,0.0,0.0
Vector,0.0,0.039950738550208476,0.0,0.008554198971123654,0.04850493752133213
XML11Configuration,0.0,0.0,0.0,0.0,0.0
XMLAttributesImpl,0.0,0.0,0.0,0.0,0.0
XMLChar,0.0,0.02654908163317394,0.0,0.0039371296907090335,0.03048621132388297
XMLDocumentFragmentScannerImpl$FragmentContentDispatcher,0.0,0.0,0.0,0.0,0.0
XMLEntityScanner,0.018534381949264416,0.0,0.001646140464914451,0.0,0.020180522414178868
XMLScanner,0.0,0.0,0.0,0.0,0.0
XMLVersionDetector,0.0009843623821479124,0.0,0.0001275981330238587,0.0,0.001111960515171771
XPath,0.0,0.0,0.0,0.0,0.0
XPathContext,0.0,0.008477614433119288,0.0,0.0015484440395441648,0.010026058472663453
XPathParser,0.0,0.0,0.0,0.0,0.0
XSLTBench$XalanWorker,0.0,0.0,0.0,0.0,0.0
XSLTSchema,0.0,0.07495133332849946,0.0,0.01239999999961583,0.08735133332811529
XString,0.0,0.0,0.0,0.0,0.0
ZipFile,0.009386653602359008,0.0,0.0010945738873144924,0.0,0.0104812274896735
ZipFile$ZipFileInflaterInputStream,0.0,0.0,0.0,0.0,0.0
ZipFile$ZipFileInputStream,0.01676860526315163,0.0,0.0023526315790628645,0.0,0.019121236842214496
