method,package1,package2,dram1,dram2,energy
AbstractAlgorithmConstraints,0.04381535801847773,0.0,0.0019059953616800773,0.0,0.04572135338015781
AbstractSAXParser,0.015961239727696228,0.0,0.0018225587769150984,0.0,0.01778379850461133
AbstractStringBuilder,0.0,0.0,0.0,0.0,0.0
AccessController,0.0,0.0,0.0,0.0,0.0
BoolStack,0.0027709880586400675,0.0,0.0005105120935780147,0.0,0.003281500152218082
Buffer,0.008415507834254852,0.0,0.0011955162945392213,0.0,0.009611024128794074
BufferedInputStream,0.0,0.0,0.0,0.0,0.0
CharInfo,0.0,0.14778346021338581,0.0,0.02500233181949578,0.17278579203288158
Character,0.0,0.02980744374984873,0.0,0.004812476306818195,0.03461992005666693
CharsetEncoder,0.0,0.0,0.0,0.0,0.0
ChildIterator,0.0,0.0,0.0,0.0,0.0
ClassLoader,0.06654833391753481,0.06826840140807612,0.007447849306013105,0.006793309859858709,0.14905789449148277
CoderResult,0.0,0.0,0.0,0.0,0.0
CommandLineArgs,0.0,0.0,0.0,0.0,0.0
Currency,0.0,0.0,0.0,0.0,0.0
DTDDVFactory,0.0,0.0,0.0,0.0,0.0
DTMDefaultBase,0.043954690101173755,0.006158843125971705,0.006167294931839174,0.0009785807550861123,0.05725940891407074
DTMManager,0.0,0.0,0.0,0.0,0.0
DTMManagerDefault,0.018193555670134764,0.0,0.002794807179491067,0.0,0.02098836284962583
DataInputStream,0.04559970148416548,0.0,0.001725566837836058,0.0,0.04732526832200153
ElemApplyTemplates,0.0,0.14407596592503347,0.0,0.0244943324596729,0.16857029838470636
ElemLiteralResult,0.0,0.017585227677942846,0.0,0.003184475467931801,0.020769703145874646
ElemVariable,0.0,0.0,0.0,0.0,0.0
ExpandedNameTable,0.0,0.04860522314963784,0.0,0.009551349987776736,0.058156573137414576
ExtendedType,0.0,0.013731867899813224,0.0,0.002355172233888603,0.016087040133701828
FileInputStream,0.0,0.0,0.0,0.0,0.0
FileOutputStream,0.1805367518254088,0.11936635171018962,0.02363194720821001,0.023485714648204155,0.34702076539201254
HashMap,0.04488805290177332,0.0,0.0022007452098329423,0.0,0.04708879811160626
Hashtable,0.0,0.03429640120302784,0.0,0.007225586489775174,0.04152198769280302
ISO_8859_1$Encoder,0.0052490303031377025,0.0,0.0007227272728800237,0.0,0.005971757576017726
Inflater,0.058688440145204135,0.0,0.004267719347969944,0.0,0.06295615949317408
IntStack,0.0,0.0,0.0,0.0,0.0
IteratorPool,0.007246096032911854,0.009611319694927813,0.0012701568864215884,0.001965867430257811,0.020093440044519066
JarFile,0.060147010393751664,0.0,0.007426255814492055,0.0,0.06757326620824372
JarFile$JarFileEntry,0.0,0.0,0.0,0.0,0.0
LocPathIterator,0.006562051282134445,0.028737550418859236,0.001103461538523567,0.0060564178475876855,0.04245948108710493
NodeTest,0.0,0.0,0.0,0.0,0.0
NodeVector,0.13346080461338064,0.0,0.014484599517325891,0.0,0.14794540413070653
Object,0.0,0.0,0.0,0.0,0.0
ObjectVector,0.0,0.0,0.0,0.0,0.0
OutputStreamWriter,0.0,0.0,0.0,0.0,0.0
PredicatedNodeTest,0.0,0.009029192539816416,0.0,0.0020689681564795147,0.01109816069629593
Properties,0.018715010677036167,0.0,0.0013499390565943022,0.0,0.02006494973363047
Properties$LineReader,0.0561450320311085,0.041749682507087715,0.004049817169782907,0.00709568258531316,0.10904021429329229
SAX2DTM,0.0,0.06433910087602253,0.0,0.012304234701625364,0.0766433355776479
SecuritySupport,0.0,0.0,0.0,0.0,0.0
SecuritySupport12,0.0,0.0,0.0,0.0,0.0
Stack,0.02890974871566454,0.0,0.004036543763771281,0.0,0.03294629247943582
StepPattern,0.0,0.0,0.0,0.0,0.0
StreamEncoder,0.022552621826010692,0.022998732307811666,0.0024622037263483908,0.004709308813197224,0.05272286667336798
String,0.0,0.09755847021564656,0.0,0.016341550943894362,0.11390002115954093
StylesheetRoot,0.04425114820629693,0.028796952381006637,0.0037863204849037436,0.005912857142989413,0.08274727821519673
SuballocatedIntVector,0.0,0.0,0.0,0.0,0.0
SymbolTable,0.0,0.0,0.0,0.0,0.0
System,0.0,0.0,0.0,0.0,0.0
TemplateList,0.0,0.0,0.0,0.0,0.0
TestHarness,0.0,0.0,0.0,0.0,0.0
Thread,0.0,0.0,0.0,0.0,0.0
Throwable,0.0,0.0,0.0,0.0,0.0
ToHTMLStream,0.0,0.053227362013636745,0.0,0.010697093226149786,0.06392445523978653
ToHTMLStream$Trie,0.0,0.0,0.0,0.0,0.0
ToStream,0.15964672534717517,0.17441455006067122,0.017192136648024162,0.029675193084976285,0.3809286051408468
TransformerFactoryImpl,0.053052553866093775,0.0,0.0032118790592621754,0.0,0.05626443292535595
TransformerImpl,0.0,0.0,0.0,0.0,0.0
URL,0.012469627906982571,0.0,0.0019213953486922587,0.0,0.01439102325567483
UTF8Reader,0.022552621826010692,0.032270818713475584,0.0024622037263483908,0.004230292397721436,0.061515936663556106
UnixFileSystem,0.03798598694101405,0.0,0.0041868608701037145,0.0,0.04217284781111776
VariableStack,0.0,0.0,0.0,0.0,0.0
Vector,0.04905617996534959,0.0,0.0067926934420095885,0.0,0.05584887340735918
Writer,0.0,0.0,0.0,0.0,0.0
XMLAttributesImpl,0.0,0.0,0.0,0.0,0.0
XMLChar,0.02059887818011416,0.02786834205820066,0.00233113655195671,0.00566111997048361,0.056459476760755134
XMLDocumentFragmentScannerImpl$FragmentContentDispatcher,0.02558081409529981,0.0,0.003608694629696628,0.0,0.029189508724996437
XMLEntityScanner,0.0046376384524179325,0.0,0.0005085777750416117,0.0,0.005146216227459545
XPathContext,0.001047962577882441,0.009319399999933212,0.00010388773399368394,0.001951333333272487,0.012422583645081824
ZipFile,0.0985446777677044,0.0,0.00794325698173129,0.0,0.10648793474943569
ZipInputStream,0.04380457135612867,0.0,0.0033611514320026205,0.0,0.04716572278813129
