method,dram1,package1,dram2,package2,energy
TeeOutputStream.write,0.24335667081073636,3.428868918713865,0.5239506823057418,3.6606660477141792,7.856842319544522
DacapoClassLoader.loadClass,0.207744570964662,3.0139185909702846,0.4316715046265023,2.6792499169540394,6.332584583515488
Benchmark.fileFromInputStream,0.16215012578391447,2.302173827645442,0.49420181070310465,3.2984608631838217,6.256986627316285
