dram,epoch,package,socket
0.0,0,0.0,1
0.0,1,0.0,1
0.09997500000099535,2,1.25787400000263,1
0.0,3,0.0,1
0.0029250000006868504,4,0.030456000007689,1
0.0,5,0.0,1
0.005834999999933643,6,0.06359899998642504,1
0.0,7,0.0,1
0.0,8,0.0,1
0.0,9,0.0,1
0.023489999999583233,10,0.25982600000861567,1
0.0,11,0.0,1
0.002970000001369044,12,0.03039600000192877,1
0.0,13,0.0,1
0.002909999999246793,14,0.03485099998943042,1
0.0,15,0.0,1
0.0,16,0.0,1
0.0,17,0.0,1
0.0029549999999289867,18,0.03143300001102034,1
0.0,19,0.0,1
0.01465499999903841,20,0.1665649999922607,1
0.0,21,0.0,1
0.0029250000006868504,22,0.03466800000751391,1
0.0,23,0.0,1
0.002970000001369044,24,0.03149399999529123,1
0.0,25,0.0,1
0.0,26,0.0,1
0.0,27,0.0,1
0.0029250000006868504,28,0.030639999997220002,1
0.0,29,0.0,1
0.02050499999677413,30,0.20886199999949895,1
0.0,31,0.0,1
0.0029250000006868504,32,0.02948000001197215,1
0.0,33,0.0,1
0.0,34,0.0,1
0.0,35,0.0,1
0.0029250000006868504,36,0.03301999998802785,1
0.0,37,0.0,1
0.0,38,0.0,1
0.0,39,0.0,1
0.01757999999972526,40,0.19750999999814667,1
0.0,41,0.0,1
0.002909999999246793,42,0.028320000012172386,1
0.0,43,0.0,1
0.008730000001378357,44,0.09637499999371357,1
0.0,45,0.0,1
0.002909999999246793,46,0.03546100000676233,1
0.0,47,0.0,1
0.0029699999977310654,48,0.030578999998397194,1
0.0,49,0.0,1
0.017520000004878966,50,0.18994099998963065,1
0.0,51,0.0,1
0.0040799999951559585,52,0.0354010000010021,1
0.0,53,0.0,1
0.004140000000916189,54,0.035400000007939525,1
0.0,55,0.0,1
0.0,56,0.0,1
0.0,57,0.0,1
0.002909999999246793,58,0.04040500000701286,1
0.0,59,0.0,1
0.011685000001307344,60,0.17791799998667557,1
0.0,61,0.0,1
0.0029100000028847717,62,0.03503400000045076,1
0.0,63,0.0,1
0.0,64,0.0,1
0.0,65,0.0,1
0.0029250000006868504,66,0.03363000000535976,1
0.0,67,0.0,1
0.002909999999246793,68,0.03582799999276176,1
0.0,69,0.0,1
0.011744999996153638,70,0.12719700000889134,1
0.0,71,0.0,1
0.0029250000006868504,72,0.033263999997871,1
0.0,73,0.0,1
0.002970000001369044,74,0.031860999995842576,1
0.0,75,0.0,1
0.0,76,0.0,1
0.0,77,0.0,1
0.002909999999246793,78,0.034912000002805144,1
0.0,79,0.0,1
0.021690000001399312,80,0.25854500000423286,1
0.0,81,0.0,1
0.002939999998488929,82,0.03204299999924842,1
0.0,83,0.0,1
0.002939999998488929,84,0.03356900000653695,1
0.0,85,0.0,1
0.0029250000006868504,86,0.03216599998995662,1
0.0,87,0.0,1
0.002909999999246793,88,0.033020000002579764,1
0.0,89,0.0,1
0.021660000002157176,90,0.2330319999891799,1
0.0,91,0.0,1
0.002909999999246793,92,0.029297000015503727,1
0.0,93,0.0,1
0.002909999999246793,94,0.030639999997220002,1
0.0,95,0.0,1
0.0029550000035669655,96,0.028624999991734512,1
0.0,97,0.0,1
0.0,98,0.0,1
0.0,99,0.0,1
0.014639999997598352,100,0.14959700001054443,1
0.0,101,0.0,1
0.0029100000028847717,102,0.030944999991334043,1
0.0,103,0.0,1
0.002909999999246793,104,0.033020000002579764,1
0.0,105,0.0,1
0.0,106,0.0,1
0.0,107,0.0,1
0.002909999999246793,108,0.03222700000333134,1
0.0,109,0.0,1
0.011669999996229308,110,0.12457299999368843,1
0.0,111,0.0,1
0.002940000002126908,112,0.03173800000513438,1
0.0,113,0.0,1
0.0,114,0.0,1
0.0,115,0.0,1
0.002909999999246793,116,0.03485099998943042,1
0.0,117,0.0,1
0.0,118,0.0,1
0.0,119,0.0,1
0.01344000000244705,120,0.15094000000681262,1
0.0,121,0.0,1
0.001799999998183921,122,0.027893000005860813,1
0.0,123,0.0,1
0.0,124,0.0,1
0.0,125,0.0,1
0.0017399999996996485,126,0.028686000005109236,1
0.0,127,0.0,1
0.0,128,0.0,1
0.0,129,0.0,1
0.00819000000046799,130,0.11871399999654386,1
0.0,131,0.0,1
0.002909999999246793,132,0.02911399998993147,1
0.0,133,0.0,1
0.0029250000006868504,134,0.02801500000350643,1
0.0,135,0.0,1
0.0,136,0.0,1
0.0,137,0.0,1
0.0017399999996996485,138,0.027526999998372048,1
0.0,139,0.0,1
0.010529999999562278,140,0.12170400000468362,1
0.0,141,0.0,1
0.002940000002126908,142,0.028686000005109236,1
0.0,143,0.0,1
0.0,144,0.0,1
0.0,145,0.0,1
0.002909999999246793,146,0.03240999998524785,1
0.0,147,0.0,1
0.0,148,0.0,1
0.0,149,0.0,1
0.0070500000001629815,150,0.11889599999994971,1
0.0,151,0.0,1
0.0017399999996996485,152,0.030213000005460344,1
0.0,153,0.0,1
0.0,154,0.0,1
0.0,155,0.0,1
0.0017700000025797635,156,0.02886900000157766,1
0.0,157,0.0,1
0.0,158,0.0,1
0.0,159,0.0,1
0.007019999997282866,160,0.11657800000102725,1
0.0,161,0.0,1
0.0017399999996996485,162,0.029479999997420236,1
0.0,163,0.0,1
0.0017400000033376273,164,0.029846000004909,1
0.0,165,0.0,1
0.0,166,0.0,1
0.0,167,0.0,1
0.014624999999796273,168,0.2446289999934379,1
0.0,169,0.0,1
0.038579999996727565,170,0.4192500000062864,1
0.0,171,0.0,1
0.009360000000015134,172,0.13824499999464024,1
0.0,173,0.0,1
0.020460000003367895,174,0.22412099999201018,1
0.0,175,0.0,1
0.017009999999572756,176,0.2648920000065118,1
0.0,177,0.0,1
0.018809999997756677,178,0.24279800000658724,1
0.0,179,0.0,1
0.02741999999852851,180,0.3519899999955669,1
0.0,181,0.0,1
0.0070800000030430965,182,0.12121599999954924,1
0.0,183,0.0,1
0.02282999999806634,184,0.2901609999971697,1
0.0,185,0.0,1
0.011775000002671732,186,0.2377320000086911,1
0.0,187,0.0,1
0.024554999996325932,188,0.29510499999742024,1
0.0,189,0.0,1
0.03724500000316766,190,0.4313959999999497,1
0.0,191,0.0,1
0.016319999998813728,192,0.16674800000328105,1
0.0,193,0.0,1
0.025709999998070998,194,0.29040600000007544,1
0.0,195,0.0,1
0.027465000002848683,196,0.3178099999931874,1
0.0,197,0.0,1
0.020549999997456325,198,0.22729500000423286,1
0.0,199,0.0,1
0.03570000000036089,200,0.36706499999854714,1
0.0,201,0.0,1
0.016919999998208368,202,0.16955599999346305,1
0.0,203,0.0,1
0.030000000002473826,204,0.3009640000091167,1
0.0,205,0.0,1
0.02457000000140397,206,0.27349899998807814,1
0.0,207,0.0,1
0.022290000000793952,208,0.2682490000152029,1
0.0,209,0.0,1
0.026774999998451676,210,0.4048459999903571,1
0.0,211,0.0,1
0.013979999999719439,212,0.12475600000470877,1
0.0,213,0.0,1
0.02981999999974505,214,0.29388499999186024,1
0.0,215,0.0,1
0.023864999999204883,216,0.21942100001615472,1
0.0,217,0.0,1
0.02223000000230968,218,0.2686159999866504,1
0.0,219,0.0,1
0.04199999999764259,220,0.4307249999983469,1
0.0,221,0.0,1
0.010530000003200257,222,0.14019700001517776,1
0.0,223,0.0,1
0.02681999999913387,224,0.27288899998529814,1
0.0,225,0.0,1
0.020009999996545957,226,0.25445500000205357,1
0.0,227,0.0,1
0.01765500000328757,228,0.24835199999506585,1
0.0,229,0.0,1
0.02051999999821419,230,0.3503420000051847,1
0.0,231,0.0,1
0.01464000000123633,232,0.15234400000190362,1
0.0,233,0.0,1
0.02690999999686028,234,0.2583009999943897,1
0.0,235,0.0,1
0.015390000000479631,236,0.24017299999832176,1
0.0,237,0.0,1
0.014175000000250293,238,0.2310180000058608,1
0.0,239,0.0,1
0.021840000001247972,240,0.32043500000145286,1
0.0,241,0.0,1
0.008835000000544824,242,0.14300500000535976,1
0.0,243,0.0,1
0.01404000000184169,244,0.24231000000145286,1
0.0,245,0.0,1
0.022454999994806712,246,0.24981599999591708,1
0.0,247,0.0,1
0.018210000005637994,248,0.2113649999955669,1
0.0,249,0.0,1
0.021359999998821877,250,0.32391399999323767,1
0.0,251,0.0,1
0.0123299999977462,252,0.13464300001214724,1
0.0,253,0.0,1
0.017010000003210735,254,0.20422400000097696,1
0.0,255,0.0,1
0.015119999996386468,256,0.24371300000348128,1
0.0,257,0.0,1
0.012480000001232838,258,0.19403099999180995,1
0.0,259,0.0,1
0.021420000000944128,260,0.32098400000541005,1
0.0,261,0.0,1
0.00713999999788939,262,0.10681100000510924,1
0.0,263,0.0,1
0.01426500000161468,264,0.22265699999115895,1
0.0,265,0.0,1
0.009884999999485444,266,0.2174070000037318,1
0.0,267,0.0,1
0.01426500000161468,268,0.21246300000348128,1
0.0,269,0.0,1
0.021464999997988343,270,0.32324299999163486,1
0.0,271,0.0,1
0.008910000000469154,272,0.1370230000029551,1
0.0,273,0.0,1
0.011535000001458684,274,0.19360399998549838,1
0.0,275,0.0,1
0.012524999998277053,276,0.21722400000726338,1
0.0,277,0.0,1
0.010754999999335269,278,0.2146000000066124,1
0.0,279,0.0,1
0.01794000000154483,280,0.2980949999910081,1
0.0,281,0.0,1
0.008894999999029096,282,0.13018800001009367,1
0.0,283,0.0,1
0.01946999999927357,284,0.24212699999043252,1
0.0,285,0.0,1
0.012480000001232838,286,0.18389900001056958,1
0.0,287,0.0,1
0.01600499999767635,288,0.2438350000011269,1
0.0,289,0.0,1
0.016035000000556465,290,0.2684939999890048,1
0.0,291,0.0,1
0.008880000001227017,292,0.13366700000187848,1
0.0,293,0.0,1
0.01643999999942025,294,0.2302240000135498,1
0.0,295,0.0,1
0.014325000000098953,296,0.21240299998316914,1
0.0,297,0.0,1
0.021195000001171138,298,0.23278800000844058,1
0.0,299,0.0,1
0.02299499999935506,300,0.31817600000067614,1
0.0,301,0.0,1
0.008819999999104766,302,0.14587399999436457,1
0.0,303,0.0,1
0.016469999998662388,304,0.2397460000065621,1
0.0,305,0.0,1
0.014130000003206078,306,0.23138499999186024,1
0.0,307,0.0,1
0.021225000000413274,308,0.2315060000109952,1
0.0,309,0.0,1
0.019589999999880092,310,0.3151849999994738,1
0.0,311,0.0,1
0.009900000000925502,312,0.1462409999949159,1
0.0,313,0.0,1
0.018824999999196734,314,0.2391349999961676,1
0.0,315,0.0,1
0.01525499999843305,316,0.23547400000097696,1
0.0,317,0.0,1
0.012449999998352723,318,0.2003780000086408,1
0.0,319,0.0,1
0.022560000004887115,320,0.34808399999747053,1
0.0,321,0.0,1
0.007034999998722924,322,0.11578399999416433,1
0.0,323,0.0,1
0.020549999997456325,324,0.2660520000063116,1
0.0,325,0.0,1
0.014220000000932487,326,0.2330319999891799,1
0.0,327,0.0,1
0.013545000001613516,328,0.20001200000115205,1
0.0,329,0.0,1
0.021284999998897547,330,0.3489380000100937,1
0.0,331,0.0,1
0.007065000001603039,332,0.11669999999867287,1
0.0,333,0.0,1
0.014100000000325963,334,0.2703239999973448,1
0.0,335,0.0,1
0.012314999996306142,336,0.2079470000026049,1
0.0,337,0.0,1
0.014175000000250293,338,0.2683720000059111,1
0.0,339,0.0,1
0.02125499999965541,340,0.2963249999884283,1
0.0,341,0.0,1
0.012344999999186257,342,0.14917000000423286,1
0.0,343,0.0,1
0.01578000000154134,344,0.2725219999992987,1
0.0,345,0.0,1
0.012480000001232838,346,0.2066039999917848,1
0.0,347,0.0,1
0.014189999998052372,348,0.23797600000398234,1
0.0,349,0.0,1
0.026549999998678686,350,0.33129899999767076,1
0.0,351,0.0,1
0.008880000001227017,352,0.1460570000053849,1
0.0,353,0.0,1
0.03079499999876134,354,0.22668500000145286,1
0.0,355,0.0,1
0.03187500000058208,356,0.22186299999884795,1
0.0,357,0.0,1
0.03246000000217464,358,0.24139399999694433,1
0.0,359,0.0,1
0.043079999999463325,360,0.3731079999997746,1
0.0,361,0.0,1
0.015224999999190914,362,0.11511199999949895,1
0.0,363,0.0,1
0.024675000000570435,364,0.23217800000566058,1
0.0,365,0.0,1
0.014205000003130408,366,0.2269279999891296,1
0.0,367,0.0,1
0.014189999998052372,368,0.22851600001740735,1
0.0,369,0.0,1
0.01937999999790918,370,0.3126219999830937,1
0.0,371,0.0,1
0.00878999999986263,372,0.14624000001640525,1
0.0,373,0.0,1
0.021210000002611196,374,0.23614499998802785,1
0.0,375,0.0,1
0.022124999999505235,376,0.23468000000866596,1
0.0,377,0.0,1
0.02613000000201282,378,0.22796699999889825,1
0.0,379,0.0,1
0.046994999996968545,380,0.4498289999901317,1
0.0,381,0.0,1
0.01621499999964726,382,0.14971900000819005,1
0.0,383,0.0,1
0.03222000000096159,384,0.3253169999952661,1
0.0,385,0.0,1
0.031005000000732252,386,0.3198859999974957,1
0.0,387,0.0,1
0.025559999998222338,388,0.2609250000095926,1
0.0,389,0.0,1
0.034439999999449356,390,0.32641599999624304,1
0.0,391,0.0,1
0.00999000000228989,392,0.14123500000278,1
0.0,393,0.0,1
0.019889999999577412,394,0.20568899999489076,1
0.0,395,0.0,1
0.03214500000103726,396,0.28967300000658724,1
0.0,397,0.0,1
0.02621999999610125,398,0.2758179999946151,1
0.0,399,0.0,1
0.0337950000030105,400,0.3681639999995241,1
0.0,401,0.0,1
0.019199999998818384,402,0.17217999999411404,1
0.0,403,0.0,1
0.025110000002314337,404,0.22265599999809638,1
0.0,405,0.0,1
0.029790000000502914,406,0.28155500000866596,1
0.0,407,0.0,1
0.023399999998218846,408,0.27826000000641216,1
0.0,409,0.0,1
0.03227999999944586,410,0.36089999999967404,1
0.0,411,0.0,1
0.011774999999033753,412,0.1196289999934379,1
0.0,413,0.0,1
0.02442000000155531,414,0.2587889999995241,1
0.0,415,0.0,1
0.03096000000005006,416,0.28625499999907333,1
0.0,417,0.0,1
0.02373000000079628,418,0.23077399999601766,1
0.0,419,0.0,1
0.04844999999841093,420,0.4158940000052098,1
0.0,421,0.0,1
0.011700000002747402,422,0.1317140000028303,1
0.0,423,0.0,1
0.035504999996192055,424,0.28893999999854714,1
0.0,425,0.0,1
0.02628000000186148,426,0.22204599999531638,1
0.0,427,0.0,1
0.029099999999743886,428,0.2575680000009015,1
0.0,429,0.0,1
0.04546500000287779,430,0.4287719999992987,1
0.0,431,0.0,1
0.016259999996691477,432,0.14721700000518467,1
0.0,433,0.0,1
0.028379999999742722,434,0.23895300000731368,1
0.0,435,0.0,1
0.03192000000126427,436,0.23498500000278,1
0.0,437,0.0,1
0.031379999996715924,438,0.265625,1
0.0,439,0.0,1
0.048105000001669396,440,0.42443899999489076,1
0.0,441,0.0,1
0.01608000000123866,442,0.14562899999145884,1
0.0,443,0.0,1
0.031214999999065185,444,0.2920540000050096,1
0.0,445,0.0,1
0.0313800000003539,446,0.27001900000323076,1
0.0,447,0.0,1
0.03262499999982538,448,0.2785650000005262,1
0.0,449,0.0,1
0.049019999998563435,450,0.42913799999223556,1
0.0,451,0.0,1
0.016260000003967434,452,0.13342300000658724,1
0.0,453,0.0,1
0.032429999995656544,454,0.2902219999959925,1
0.0,455,0.0,1
0.03340500000194879,456,0.3097529999940889,1
0.0,457,0.0,1
0.029129999998986023,458,0.25183100000140257,1
0.0,459,0.0,1
0.047955000001820736,460,0.44812000000092667,1
0.0,461,0.0,1
0.015449999998963904,462,0.14001499999722,1
0.0,463,0.0,1
0.027600000001257285,464,0.24700900001334958,1
0.0,465,0.0,1
0.027884999999514548,466,0.30401599999458995,1
0.0,467,0.0,1
0.031500000000960426,468,0.2542729999986477,1
0.0,469,0.0,1
0.045255000000906875,470,0.3633419999969192,1
0.0,471,0.0,1
0.008729999997740379,472,0.09545900000375696,1
0.0,473,0.0,1
0.03672000000005937,474,0.27136199999949895,1
0.0,475,0.0,1
0.030300000002171146,476,0.2371220000059111,1
0.0,477,0.0,1
0.02209499999662512,478,0.21032699999341276,1
0.0,479,0.0,1
0.041430000001128064,480,0.4021610000054352,1
0.0,481,0.0,1
0.01622999999744934,482,0.12261899998702575,1
0.0,483,0.0,1
0.03250500000285683,484,0.2927250000066124,1
0.0,485,0.0,1
0.02833499999906053,486,0.2715449999959674,1
0.0,487,0.0,1
0.03644999999960419,488,0.3435670000035316,1
0.0,489,0.0,1
0.03502500000104192,490,0.36053499999979977,1
0.0,491,0.0,1
0.016889999998966232,492,0.169861000002129,1
0.0,493,0.0,1
0.031290000002627494,494,0.2797850000060862,1
0.0,495,0.0,1
0.025574999999662396,496,0.2753909999883035,1
0.0,497,0.0,1
0.024629999996250262,498,0.2681270000030054,1
0.0,499,0.0,1
0.041415000003325986,500,0.4463499999983469,1
0.0,501,0.0,1
0.011879999998200219,502,0.11126700000022538,1
0.0,503,0.0,1
0.035340000002179295,504,0.33862300000328105,1
0.0,505,0.0,1
0.021600000000034925,506,0.2452400000038324,1
0.0,507,0.0,1
0.020534999999654246,508,0.30932600000232924,1
0.0,509,0.0,1
0.03328499999770429,510,0.38354499998968095,1
0.0,511,0.0,1
0.011685000001307344,512,0.13549800000328105,1
0.0,513,0.0,1
0.02915999999822816,514,0.2548220000026049,1
0.0,515,0.0,1
0.02223000000230968,516,0.24780199999804609,1
0.0,517,0.0,1
0.018765000000712462,518,0.25024400000984315,1
0.0,519,0.0,1
0.03515999999945052,520,0.3724369999981718,1
0.0,521,0.0,1
0.012285000000701984,522,0.12158199999248609,1
0.0,523,0.0,1
0.02058000000033644,524,0.25378400000045076,1
0.0,525,0.0,1
0.023460000000341097,526,0.24896300000546034,1
0.0,527,0.0,1
0.023564999999507563,528,0.24151599999458995,1
0.0,529,0.0,1
0.02938499999800115,530,0.3390499999950407,1
0.0,531,0.0,1
0.018045000000711298,532,0.16198699999949895,1
0.0,533,0.0,1
0.024689999998372514,534,0.2554320000053849,1
0.0,535,0.0,1
0.017745000004651956,536,0.2494509999960428,1
0.0,537,0.0,1
0.0123299999977462,538,0.21655300000566058,1
0.0,539,0.0,1
0.028154999999969732,540,0.3673700000072131,1
0.0,541,0.0,1
0.007140000001527369,542,0.14379899999767076,1
0.0,543,0.0,1
0.017039999995176913,544,0.21185300000070129,1
0.0,545,0.0,1
0.021000000000640284,546,0.2691039999917848,1
0.0,547,0.0,1
0.02223000000230968,548,0.2451779999973951,1
0.0,549,0.0,1
0.046394999997573905,550,0.43035900000541005,1
0.0,551,0.0,1
0.014025000000401633,552,0.12475600000470877,1
0.0,553,0.0,1
0.028080000000045402,554,0.24578899999323767,1
0.0,555,0.0,1
0.026940000003378373,556,0.24706999999762047,1
0.0,557,0.0,1
0.021014999998442363,558,0.2541510000010021,1
0.0,559,0.0,1
0.04133999999976368,560,0.3741449999943143,1
0.0,561,0.0,1
0.015060000001540175,562,0.1324460000032559,1
0.0,563,0.0,1
0.02449499999784166,564,0.2561649999988731,1
0.0,565,0.0,1
0.019350000002305023,566,0.2887570000020787,1
0.0,567,0.0,1
0.01465499999903841,568,0.24755899999581743,1
0.0,569,0.0,1
0.021674999999959255,570,0.39764400001149625,1
0.0,571,0.0,1
0.012300000002142042,572,0.157653999995091,1
0.0,573,0.0,1
0.01907999999821186,574,0.22119099998963065,1
0.0,575,0.0,1
0.02404500000193366,576,0.28546100000676233,1
0.0,577,0.0,1
0.018089999994117534,578,0.22601399999985006,1
0.0,579,0.0,1
0.021135000002686866,580,0.3524780000007013,1
0.0,581,0.0,1
0.015794999999343418,582,0.16216999999596737,1
0.0,583,0.0,1
0.03629999999975553,584,0.30377200001385063,1
0.0,585,0.0,1
0.02291999999943073,586,0.22863800000050105,1
0.0,587,0.0,1
0.024585000002844026,588,0.267638999997871,1
0.0,589,0.0,1
0.027014999996026745,590,0.36730899999383837,1
0.0,591,0.0,1
0.0192300000016985,592,0.16815199999837205,1
0.0,593,0.0,1
0.03133499999967171,594,0.2955939999956172,1
0.0,595,0.0,1
0.028065000002243323,596,0.2935790000046836,1
0.0,597,0.0,1
0.0290099999983795,598,0.29364000000350643,1
0.0,599,0.0,1
0.04423500000120839,600,0.4132079999981215,1
0.0,601,0.0,1
0.020024999997986015,602,0.18841499999689404,1
0.0,603,0.0,1
0.032265000001643784,604,0.3000490000122227,1
0.0,605,0.0,1
0.03147000000171829,606,0.27490299999772105,1
0.0,607,0.0,1
0.03109499999845866,608,0.28125,1
0.0,609,0.0,1
0.031005000000732252,610,0.3732299999828683,1
0.0,611,0.0,1
0.015494999999646097,612,0.18035800001234747,1
0.0,613,0.0,1
0.03190499999982421,614,0.29516599999624304,1
0.0,615,0.0,1
0.03257999999914318,616,0.2759399999922607,1
0.0,617,0.0,1
0.027975000000878936,618,0.27484200001345016,1
0.0,619,0.0,1
0.04223999999885564,620,0.3831779999891296,1
0.0,621,0.0,1
0.020250000001396984,622,0.1819460000115214,1
0.0,623,0.0,1
0.032640000001265435,624,0.2970579999964684,1
0.0,625,0.0,1
0.03221999999732361,626,0.28063999999722,1
0.0,627,0.0,1
0.03229500000088592,628,0.2831420000002254,1
0.0,629,0.0,1
0.03997499999968568,630,0.34265099999902304,1
0.0,631,0.0,1
0.014610000001994194,632,0.1962889999995241,1
0.0,633,0.0,1
0.030240000000048894,634,0.2698369999998249,1
0.0,635,0.0,1
0.022724999998899875,636,0.22863800000050105,1
0.0,637,0.0,1
0.02621999999973923,638,0.2921139999962179,1
0.0,639,0.0,1
0.026789999999891734,640,0.31811500000185333,1
0.0,641,0.0,1
0.01465499999903841,642,0.14996300000348128,1
0.0,643,0.0,1
0.02502000000094995,644,0.2826540000096429,1
0.0,645,0.0,1
0.013530000000173459,646,0.20214899998973124,1
0.0,647,0.0,1
0.017114999998739222,648,0.2594600000011269,1
0.0,649,0.0,1
0.024659999999130378,650,0.28350799999316223,1
0.0,651,0.0,1
0.012855000000854488,652,0.17376800000783987,1
0.0,653,0.0,1
0.02149500000086846,654,0.2186890000011772,1
0.0,655,0.0,1
0.022260000001551816,656,0.24432300000626128,1
0.0,657,0.0,1
0.013589999998657731,658,0.23089599999366328,1
0.0,659,0.0,1
0.02125499999965541,660,0.35162400000263005,1
0.0,661,0.0,1
0.0072000000000116415,662,0.11450199999671895,1
0.0,663,0.0,1
0.013979999999719439,664,0.23181099999055732,1
0.0,665,0.0,1
0.01420499999949243,666,0.2269289999967441,1
0.0,667,0.0,1
0.014280000003054738,668,0.22998000001825858,1
0.0,669,0.0,1
0.019440000000031432,670,0.31842100000358187,1
0.0,671,0.0,1
0.009959999999409774,672,0.1414179999846965,1
0.0,673,0.0,1
0.01945499999783351,674,0.25982700000167824,1
0.0,675,0.0,1
0.012480000001232838,676,0.19934099999954924,1
0.0,677,0.0,1
0.014219999997294508,678,0.22802700000465848,1
0.0,679,0.0,1
0.019425000002229353,680,0.315307999990182,1
0.0,681,0.0,1
0.011189999997441191,682,0.14501900001778267,1
0.0,683,0.0,1
0.018285000001924345,684,0.23394799999368843,1
0.0,685,0.0,1
0.01427999999941676,686,0.22576899999694433,1
0.0,687,0.0,1
0.016469999998662388,688,0.24133299999812152,1
0.0,689,0.0,1
0.019395000002987217,690,0.3348390000028303,1
0.0,691,0.0,1
0.009869999998045387,692,0.1541140000044834,1
0.0,693,0.0,1
0.027990000002318993,694,0.287291999993613,1
0.0,695,0.0,1
0.01643999999942025,696,0.2790530000056606,1
0.0,697,0.0,1
0.01766999999745167,698,0.2581789999967441,1
0.0,699,0.0,1
0.024150000001100125,700,0.35101299999223556,1
0.0,701,0.0,1
0.008760000000620494,702,0.15655500000866596,1
0.0,703,0.0,1
0.03972000000067055,704,0.3551030000089668,1
0.0,705,0.0,1
0.009900000000925502,706,0.08618099999148399,1
0.0,707,0.0,1
0.022859999997308478,708,0.2821659999899566,1
0.0,709,0.0,1
0.024134999999660067,710,0.3435670000180835,1
0.0,711,0.0,1
0.01171500000054948,712,0.12524399998073932,1
0.0,713,0.0,1
0.023490000003221212,714,0.25225800000771414,1
0.0,715,0.0,1
0.026474999998754356,716,0.28369100000418257,1
0.0,717,0.0,1
0.02059499999813852,718,0.22753999999258667,1
0.0,719,0.0,1
0.028874999999970896,720,0.34619100000418257,1
0.0,721,0.0,1
0.013530000000173459,722,0.16216999999596737,1
0.0,723,0.0,1
0.023460000000341097,724,0.2608040000050096,1
0.0,725,0.0,1
0.02170500000283937,726,0.27734299999428913,1
0.0,727,0.0,1
0.017114999995101243,728,0.214112000001478,1
0.0,729,0.0,1
0.02652000000307453,730,0.3424680000025546,1
0.0,731,0.0,1
0.012360000000626314,732,0.15637199999764562,1
0.0,733,0.0,1
0.02630999999746564,734,0.2838130000018282,1
0.0,735,0.0,1
0.020700000000942964,736,0.21637000000919215,1
0.0,737,0.0,1
0.016500000001542503,738,0.24499499998637475,1
0.0,739,0.0,1
0.021120000001246808,740,0.36999500000092667,1
0.0,741,0.0,1
0.009404999997059349,742,0.12371900001016911,1
0.0,743,0.0,1
0.02462999999988824,744,0.25707999999576714,1
0.0,745,0.0,1
0.023640000003069872,746,0.24310300000070129,1
0.0,747,0.0,1
0.020009999996545957,748,0.24633799999719486,1
0.0,749,0.0,1
0.02710500000102911,750,0.3695670000015525,1
0.0,751,0.0,1
0.01171500000054948,752,0.12347500000032596,1
0.0,753,0.0,1
0.0199800000009418,754,0.24969399999827147,1
0.0,755,0.0,1
0.01990499999737949,756,0.2486580000113463,1
0.0,757,0.0,1
0.023535000003903406,758,0.22399899999436457,1
0.0,759,0.0,1
0.03238499999861233,760,0.31085199999506585,1
0.0,761,0.0,1
0.013559999999415595,762,0.13824400000157766,1
0.0,763,0.0,1
0.021164999998291023,764,0.22869899999932386,1
0.0,765,0.0,1
0.014160000002448214,766,0.22631800000090152,1
0.0,767,0.0,1
0.02239499999632244,768,0.22863800000050105,1
0.0,769,0.0,1
0.032490000001416774,770,0.31487999999080785,1
0.0,771,0.0,1
0.011760000001231674,772,0.11395300000731368,1
0.0,773,0.0,1
0.026460000000952277,774,0.25909400000819005,1
0.0,775,0.0,1
0.012494999999034917,776,0.221557999990182,1
0.0,777,0.0,1
0.016964999998890562,778,0.2282100000011269,1
0.0,779,0.0,1
0.030000000002473826,780,0.3164680000045337,1
0.0,781,0.0,1
0.014684999998280546,782,0.146666999993613,1
0.0,783,0.0,1
0.02058000000033644,784,0.20428499999979977,1
0.0,785,0.0,1
0.024150000001100125,786,0.25836200000776444,1
0.0,787,0.0,1
0.012419999999110587,788,0.19921799999428913,1
0.0,789,0.0,1
0.031589999998686835,790,0.35308899999654386,1
0.0,791,0.0,1
0.014699999999720603,792,0.14111300000513438,1
0.0,793,0.0,1
0.014670000000478467,794,0.1997680000058608,1
0.0,795,0.0,1
0.019365000000107102,796,0.2603759999910835,1
0.0,797,0.0,1
0.019964999999501742,798,0.231750999999349,1
0.0,799,0.0,1
0.03456000000005588,800,0.31750399999145884,1
0.0,801,0.0,1
0.011730000001989538,802,0.11785900000541005,1
0.0,803,0.0,1
0.026549999998678686,804,0.26873799999884795,1
0.0,805,0.0,1
0.012269999999261927,806,0.20355200000631157,1
0.0,807,0.0,1
0.02575500000239117,808,0.22711199999321252,1
0.0,809,0.0,1
0.04267500000059954,810,0.38421700001345016,1
0.0,811,0.0,1
0.011639999996987171,812,0.08727999999246094,1
0.0,813,0.0,1
0.020475000001169974,814,0.22729500000423286,1
0.0,815,0.0,1
0.03313500000149361,816,0.23425300000235438,1
0.0,817,0.0,1
0.03314999999929569,818,0.2601929999946151,1
0.0,819,0.0,1
0.0405899999968824,820,0.3159790000063367,1
0.0,821,0.0,1
0.01608000000123866,822,0.11791899999661837,1
0.0,823,0.0,1
0.036165000001346925,824,0.26471000000310596,1
0.0,825,0.0,1
0.027375000001484295,826,0.20623799999884795,1
0.0,827,0.0,1
0.03094499999861,828,0.23736499999358784,1
0.0,829,0.0,1
0.047969999999622814,830,0.35290600000007544,1
0.0,831,0.0,1
0.020025000001623994,832,0.14800999998988118,1
0.0,833,0.0,1
0.03389999999853899,834,0.23449700001219753,1
0.0,835,0.0,1
0.02172000000064145,836,0.21588099999644328,1
0.0,837,0.0,1
0.023549999998067506,838,0.22839400000520982,1
0.0,839,0.0,1
0.03258000000278116,840,0.29266399999323767,1
0.0,841,0.0,1
0.024239999998826534,842,0.17358300001069438,1
0.0,843,0.0,1
0.03254999999990105,844,0.22998099998221733,1
0.0,845,0.0,1
0.03237000000081025,846,0.2260740000056103,1
0.0,847,0.0,1
0.027285000000119908,848,0.201111000002129,1
0.0,849,0.0,1
0.052544999998644926,850,0.3588259999960428,1
0.0,851,0.0,1
0.01510499999858439,852,0.11047300000791438,1
0.0,853,0.0,1
0.01780500000313623,854,0.21716299999388866,1
0.0,855,0.0,1
0.02102999999624444,856,0.21490500001527835,1
0.0,857,0.0,1
0.0169800000039686,858,0.18798799999058247,1
0.0,859,0.0,1
0.03791999999884865,860,0.29455599999346305,1
0.0,861,0.0,1
0.018059999998513376,862,0.1323240000056103,1
0.0,863,0.0,1
0.03088500000012573,864,0.24841299999388866,1
0.0,865,0.0,1
0.01825499999904423,866,0.1990360000054352,1
0.0,867,0.0,1
0.015960000000632135,868,0.2452999999950407,1
0.0,869,0.0,1
0.015960000000632135,870,0.24102800000400748,1
0.0,871,0.0,1
0.01246499999979278,872,0.18499799999699462,1
0.0,873,0.0,1
0.012449999998352723,874,0.18994100000418257,1
0.0,875,0.0,1
0.015975000002072193,876,0.24462900000798982,1
0.0,877,0.0,1
0.012435000000550644,878,0.19049099998665042,1
0.0,879,0.0,1
0.017775000000256114,880,0.2695309999980964,1
0.0,881,0.0,1
0.013650000000779983,882,0.1847530000086408,1
0.0,883,0.0,1
0.012374999998428393,884,0.18933199999446515,1
0.0,885,0.0,1
0.01427999999941676,886,0.21832200000062585,1
0.0,887,0.0,1
0.01427999999941676,888,0.21447800000896677,1
0.0,889,0.0,1
0.017775000000256114,890,0.2750239999877522,1
0.0,891,0.0,1
0.010620000000926666,892,0.16394100000616163,1
0.0,893,0.0,1
0.01426500000161468,894,0.21813900000415742,1
0.0,895,0.0,1
0.014189999998052372,896,0.2174079999967944,1
0.0,897,0.0,1
0.01427999999941676,898,0.22052000000257976,1
0.0,899,0.0,1
0.0160649999997986,900,0.24420099999406375,1
0.0,901,0.0,1
0.012405000001308508,902,0.19409200000518467,1
0.0,903,0.0,1
0.014309999998658895,904,0.21581999999762047,1
0.0,905,0.0,1
0.01426500000161468,906,0.2208870000031311,1
0.0,907,0.0,1
0.015974999998434214,908,0.2437740000023041,1
0.0,909,0.0,1
0.015885000000707805,910,0.2458500000066124,1
0.0,911,0.0,1
0.01771500000177184,912,0.16473299998324364,1
0.0,913,0.0,1
0.01434000000153901,914,0.21557700000994373,1
0.0,915,0.0,1
0.012419999995472608,916,0.19061199999123346,1
0.0,917,0.0,1
0.01591500000358792,918,0.2410890000028303,1
0.0,919,0.0,1
0.01598999999987427,920,0.24072299999534152,1
0.0,921,0.0,1
0.012419999999110587,922,0.1908570000086911,1
0.0,923,0.0,1
0.014219999997294508,924,0.21575899999879766,1
0.0,925,0.0,1
0.014280000003054738,926,0.21752900000137743,1
0.0,927,0.0,1
0.012524999998277053,928,0.1876230000052601,1
0.0,929,0.0,1
0.0177300000032119,930,0.2670889999862993,1
0.0,931,0.0,1
0.012959999996382976,932,0.16192700000829063,1
0.0,933,0.0,1
0.016019999999116408,934,0.24005100000067614,1
0.0,935,0.0,1
0.012360000000626314,936,0.18499700000393204,1
0.0,937,0.0,1
0.016049999998358544,938,0.23706099999253638,1
0.0,939,0.0,1
0.015960000004270114,940,0.24023400001169648,1
0.0,941,0.0,1
0.010679999999410938,942,0.15734900000097696,1
0.0,943,0.0,1
0.015974999998434214,944,0.2412719999847468,1
0.0,945,0.0,1
0.012374999998428393,946,0.18664600000192877,1
0.0,947,0.0,1
0.01606500000343658,948,0.24005100000067614,1
0.0,949,0.0,1
0.017759999998816056,950,0.26946999999927357,1
0.0,951,0.0,1
0.008820000002742745,952,0.13696300001174677,1
0.0,953,0.0,1
0.01601999999547843,954,0.24237099998572376,1
0.0,955,0.0,1
0.012585000000399305,956,0.18255599999974947,1
0.0,957,0.0,1
0.015945000002830056,958,0.24426200000743847,1
0.0,959,0.0,1
0.015960000000632135,960,0.24151599999458995,1
0.0,961,0.0,1
0.019290000000182772,962,0.17614799999864772,1
0.0,963,0.0,1
0.0,0,0.0,2
0.0,1,0.0,2
0.21577499999875727,2,1.8493650000018533,2
0.0,3,0.0,2
0.006240000000616419,4,0.04998799998429604,2
0.0,5,0.0,2
0.005069999999250285,6,0.051207999989856035,2
0.0,7,0.0,2
0.004080000000612927,8,0.04809600001317449,2
0.0,9,0.0,2
0.04204500000014377,10,0.37054400000488386,2
0.0,11,0.0,2
0.006180000000313157,12,0.05255199999373872,2
0.0,13,0.0,2
0.006179999998494168,14,0.056029999992460944,2
0.0,15,0.0,2
0.006180000000313157,16,0.052063000010093674,2
0.0,17,0.0,2
0.0,18,0.0,2
0.0,19,0.0,2
0.030915000001186854,20,0.26116900001943577,2
0.0,21,0.0,2
0.006179999998494168,22,0.05102599998645019,2
0.0,23,0.0,2
0.0061499999992520316,24,0.053038999991258606,2
0.0,25,0.0,2
0.006195000001753215,26,0.05145299999276176,2
0.0,27,0.0,2
0.0,28,0.0,2
0.0,29,0.0,2
0.03974999999991269,30,0.3728640000190353,2
0.0,31,0.0,2
0.006120000000009895,32,0.059021000008215196,2
0.0,33,0.0,2
0.0,34,0.0,2
0.0,35,0.0,2
0.0061499999992520316,36,0.049803999994765036,2
0.0,37,0.0,2
0.0,38,0.0,2
0.0,39,0.0,2
0.0308100000002014,40,0.31500299999606796,2
0.0,41,0.0,2
0.0051599999987956835,42,0.04943799998727627,2
0.0,43,0.0,2
0.024465000000418513,44,0.20422400000097696,2
0.0,45,0.0,2
0.0,46,0.0,2
0.0,47,0.0,2
0.005940000000919099,48,0.05645700001332443,2
0.0,49,0.0,2
0.0339300000014191,50,0.30468799998925533,2
0.0,51,0.0,2
0.006134999999630963,52,0.05932600000232924,2
0.0,53,0.0,2
0.0062099999995552935,54,0.049255999983870424,2
0.0,55,0.0,2
0.006059999999706633,56,0.052185000022291206,2
0.0,57,0.0,2
0.0,58,0.0,2
0.0,59,0.0,2
0.02553000000079919,60,0.25726299997768365,2
0.0,61,0.0,2
0.004019999998490675,62,0.052002000011270866,2
0.0,63,0.0,2
0.0,64,0.0,2
0.0,65,0.0,2
0.0040650000009918585,66,0.048401000021840446,2
0.0,67,0.0,2
0.006180000000313157,68,0.05255100000067614,2
0.0,69,0.0,2
0.025709999999889988,70,0.24633799998264294,2
0.0,71,0.0,2
0.005129999997734558,72,0.04577599999902304,2
0.0,73,0.0,2
0.0,74,0.0,2
0.0,75,0.0,2
0.004020000002128654,76,0.04699699999764562,2
0.0,77,0.0,2
0.0,78,0.0,2
0.0,79,0.0,2
0.0369749999990745,80,0.3336790000030305,2
0.0,81,0.0,2
0.011370000000169966,82,0.09197999999742024,2
0.0,83,0.0,2
0.0,84,0.0,2
0.0,85,0.0,2
0.005145000000993605,86,0.044250999999349006,2
0.0,87,0.0,2
0.0062099999995552935,88,0.05169700000260491,2
0.0,89,0.0,2
0.04234499999984109,90,0.35839799999666866,2
0.0,91,0.0,2
0.006240000000616419,92,0.04632599999604281,2
0.0,93,0.0,2
0.004080000000612927,94,0.04901100001006853,2
0.0,95,0.0,2
0.006194999998115236,96,0.052429000003030524,2
0.0,97,0.0,2
0.006269999999858555,98,0.045654000001377426,2
0.0,99,0.0,2
0.030090000000200234,100,0.2359619999770075,2
0.0,101,0.0,2
0.005130000001372537,102,0.051148000013199635,2
0.0,103,0.0,2
0.0,104,0.0,2
0.0,105,0.0,2
0.006179999998494168,106,0.045471000004909,2
0.0,107,0.0,2
0.0,108,0.0,2
0.0,109,0.0,2
0.02485499999966123,110,0.19567899998219218,2
0.0,111,0.0,2
0.006180000002132147,112,0.0513300000311574,2
0.0,113,0.0,2
0.0,114,0.0,2
0.0,115,0.0,2
0.003929999998945277,116,0.048400999992736615,2
0.0,117,0.0,2
0.0,118,0.0,2
0.0,119,0.0,2
0.028739999999743304,120,0.2261970000108704,2
0.0,121,0.0,2
0.005114999999932479,122,0.04693599998427089,2
0.0,123,0.0,2
0.0,124,0.0,2
0.0,125,0.0,2
0.00405000000137079,126,0.04473799998231698,2
0.0,127,0.0,2
0.0,128,0.0,2
0.0,129,0.0,2
0.02885999999853084,130,0.23516900000686292,2
0.0,131,0.0,2
0.005130000001372537,132,0.04870600000140257,2
0.0,133,0.0,2
0.0,134,0.0,2
0.0,135,0.0,2
0.004019999998490675,136,0.0,2
0.0,137,0.0,2
0.0,138,0.05169700000260491,2
0.0,139,0.0,2
0.02269499999965774,140,0.17571999999927357,2
0.0,141,0.0,2
0.006240000000616419,142,0.03979500000423286,2
0.0,143,0.0,2
0.005130000001372537,144,0.04229700000723824,2
0.0,145,0.0,2
0.0,146,0.0,2
0.0,147,0.0,2
0.0,148,0.0,2
0.0,149,0.0,2
0.018434999998135027,150,0.16186499998730142,2
0.0,151,0.0,2
0.004019999998490675,152,0.043579000019235536,2
0.0,153,0.0,2
0.004080000002431916,154,0.03900199999043252,2
0.0,155,0.0,2
0.0,156,0.0,2
0.0,157,0.0,2
0.0,158,0.0,2
0.0,159,0.0,2
0.022334999999657157,160,0.20751899998867884,2
0.0,161,0.0,2
0.0,162,0.0,2
0.0,163,0.0,2
0.004080000000612927,164,0.0427860000054352,2
0.0,165,0.0,2
0.0,166,0.0,2
0.0,167,0.0,2
0.03686999999808904,168,0.3415530000056606,2
0.0,169,0.0,2
0.05205000000023574,170,0.540709999986575,2
0.0,171,0.0,2
0.017370000001392327,172,0.18316700001014397,2
0.0,173,0.0,2
0.035579999999754364,174,0.3640739999973448,2
0.0,175,0.0,2
0.03583499999876949,176,0.3518680000124732,2
0.0,177,0.0,2
0.03276000000187196,178,0.2838749999937136,2
0.0,179,0.0,2
0.044204999998328276,180,0.40386900000157766,2
0.0,181,0.0,2
0.01630500000101165,182,0.16418500000145286,2
0.0,183,0.0,2
0.03784499999892432,184,0.3364259999943897,2
0.0,185,0.0,2
0.03276000000005297,186,0.32232599999406375,2
0.0,187,0.0,2
0.028739999999743304,188,0.2609260000026552,2
0.0,189,0.0,2
0.049155000002429006,190,0.491026999996393,2
0.0,191,0.0,2
0.016319999998813728,192,0.14441000002261717,2
0.0,193,0.0,2
0.028499999998530257,194,0.2214349999849219,2
0.0,195,0.0,2
0.038715000000593136,196,0.3017579999868758,2
0.0,197,0.0,2
0.03282000000035623,198,0.2573240000056103,2
0.0,199,0.0,2
0.04807499999878928,200,0.35217300000658724,2
0.0,201,0.0,2
0.01638000000093598,202,0.12524399999529123,2
0.0,203,0.0,2
0.02975999999944179,204,0.25897200001054443,2
0.0,205,0.0,2
0.03905999999915366,206,0.27893099999346305,2
0.0,207,0.0,2
0.028800000000046566,208,0.21453900000778958,2
0.0,209,0.0,2
0.049245000001974404,210,0.3838499999983469,2
0.0,211,0.0,2
0.01637999999911699,212,0.13635200000135228,2
0.0,213,0.0,2
0.03777000000081898,214,0.28692600000067614,2
0.0,215,0.0,2
0.02869499999906111,216,0.22271799997542985,2
0.0,217,0.0,2
0.03288000000247848,218,0.24621600001410116,2
0.0,219,0.0,2
0.045194999998784624,220,0.3796380000130739,2
0.0,221,0.0,2
0.020640000000639702,222,0.15716599998995662,2
0.0,223,0.0,2
0.028739999999743304,224,0.21697999998286832,2
0.0,225,0.0,2
0.03299999999944703,226,0.26647900002717506,2
0.0,227,0.0,2
0.03720000000066648,228,0.279296999971848,2
0.0,229,0.0,2
0.046019999997952254,230,0.38330100000894163,2
0.0,231,0.0,2
0.01638000000275497,232,0.14080800001102034,2
0.0,233,0.0,2
0.03269999999974971,234,0.2955319999891799,2
0.0,235,0.0,2
0.0329249999995227,236,0.24945100001059473,2
0.0,237,0.0,2
0.03709499999786203,238,0.26446500000020023,2
0.0,239,0.0,2
0.04131000000052154,240,0.3019409999833442,2
0.0,241,0.0,2
0.020460000001548906,242,0.1588750000082655,2
0.0,243,0.0,2
0.032939999997324776,244,0.23590099999273662,2
0.0,245,0.0,2
0.03288000000247848,246,0.25097599999571685,2
0.0,247,0.0,2
0.03275999999823398,248,0.26727300000493415,2
0.0,249,0.0,2
0.041115000001809676,250,0.31604000001971144,2
0.0,251,0.0,2
0.02058000000033644,252,0.13775599998189136,2
0.0,253,0.0,2
0.028979999999137362,254,0.1853640000190353,2
0.0,255,0.0,2
0.03312000000187254,256,0.24145499999576714,2
0.0,257,0.0,2
0.03299999999944703,258,0.20532300000195391,2
0.0,259,0.0,2
0.045419999998557614,260,0.28845199999341276,2
0.0,261,0.0,2
0.019484999998894637,262,0.1310420000081649,2
0.0,263,0.0,2
0.028860000000349828,264,0.17913799999223556,2
0.0,265,0.0,2
0.03367500000058499,266,0.22509799999534152,2
0.0,267,0.0,2
0.028860000002168817,268,0.18158000000403263,2
0.0,269,0.0,2
0.049244999998336425,270,0.3228150000068126,2
0.0,271,0.0,2
0.02051999999821419,272,0.13641299998562317,2
0.0,273,0.0,2
0.021600000000034925,274,0.17553700001735706,2
0.0,275,0.0,2
0.03363000000172178,276,0.22674600000027567,2
0.0,277,0.0,2
0.028949999999895226,278,0.18084699999599252,2
0.0,279,0.0,2
0.049619999997958075,280,0.3181149999873014,2
0.0,281,0.0,2
0.015315000000555301,282,0.10644600000523496,2
0.0,283,0.0,2
0.03610500000286265,284,0.23034600001119543,2
0.0,285,0.0,2
0.028964999999516294,286,0.17700199999671895,2
0.0,287,0.0,2
0.03266999999868858,288,0.22967599998810329,2
0.0,289,0.0,2
0.045030000001133885,290,0.29632500000298023,2
0.0,291,0.0,2
0.01645499999904132,292,0.10601800000586081,2
0.0,293,0.0,2
0.03709500000150001,294,0.2295529999973951,2
0.0,295,0.0,2
0.0289199999988341,296,0.17639200000849087,2
0.0,297,0.0,2
0.044144999998025014,298,0.31543000000237953,2
0.0,299,0.0,2
0.04117500000029395,300,0.2902829999948153,2
0.0,301,0.0,2
0.02058000000215543,302,0.14312699998845346,2
0.0,303,0.0,2
0.0369749999990745,304,0.25103800001670606,2
0.0,305,0.0,2
0.028860000000349828,306,0.1902470000059111,2
0.0,307,0.0,2
0.03710999999930209,308,0.2501829999819165,2
0.0,309,0.0,2
0.04111499999999069,310,0.30407700000796467,2
0.0,311,0.0,2
0.020565000000715372,312,0.1480710000032559,2
0.0,313,0.0,2
0.03712500000074215,314,0.25189199998567346,2
0.0,315,0.0,2
0.028814999999667634,316,0.19616700000187848,2
0.0,317,0.0,2
0.032640000001265435,318,0.22534200000518467,2
0.0,319,0.0,2
0.04520999999840569,320,0.30267299999832176,2
0.0,321,0.0,2
0.020609999999578577,322,0.14385999999649357,2
0.0,323,0.0,2
0.03274499999861291,324,0.22790499999246094,2
0.0,325,0.0,2
0.03298500000346394,326,0.21911700001510326,2
0.0,327,0.0,2
0.02884499999890977,328,0.19067399999767076,2
0.0,329,0.0,2
0.045269999998708954,330,0.3369749999983469,2
0.0,331,0.0,2
0.020565000000715372,332,0.14282200000889134,2
0.0,333,0.0,2
0.033014999999068095,334,0.22521999999298714,2
0.0,335,0.0,2
0.03273000000262982,336,0.2255250000016531,2
0.0,337,0.0,2
0.032954999996945844,338,0.21569799999997485,2
0.0,339,0.0,2
0.045180000000982545,340,0.30694599998241756,2
0.0,341,0.0,2
0.02052000000003318,342,0.1426390000124229,2
0.0,343,0.0,2
0.03477000000202679,344,0.23309300000255462,2
0.0,345,0.0,2
0.03284999999959837,346,0.2221069999941392,2
0.0,347,0.0,2
0.028829999997469713,348,0.19726600001740735,2
0.0,349,0.0,2
0.04925999999977648,350,0.3483269999996992,2
0.0,351,0.0,2
0.020640000000639702,352,0.11212199999135919,2
0.0,353,0.0,2
0.08536500000082015,354,0.44329799998376984,2
0.0,355,0.0,2
0.03461999999854015,356,0.24542200000723824,2
0.0,357,0.0,2
0.036465000001044245,358,0.27728300001763273,2
0.0,359,0.0,2
0.05393999999978405,360,0.38085999999020714,2
0.0,361,0.0,2
0.0248699999992823,362,0.14660599999479018,2
0.0,363,0.0,2
0.028560000002471497,364,0.22949199999857228,2
0.0,365,0.0,2
0.03289499999846157,366,0.22332800000731368,2
0.0,367,0.0,2
0.03705000000081782,368,0.2504880000051344,2
0.0,369,0.0,2
0.03689999999915017,370,0.2863159999833442,2
0.0,371,0.0,2
0.020384999999805586,372,0.1454470000026049,2
0.0,373,0.0,2
0.03694500000165135,374,0.2667840000212891,2
0.0,375,0.0,2
0.034979999998540734,376,0.22039799997583032,2
0.0,377,0.0,2
0.03258000000096217,378,0.278625999999349,2
0.0,379,0.0,2
0.06176999999843247,380,0.43158000001858454,2
0.0,381,0.0,2
0.020265000001018052,382,0.19232099999499042,2
0.0,383,0.0,2
0.03461999999854015,384,0.26892099998076446,2
0.0,385,0.0,2
0.037830000001122244,386,0.3057249999983469,2
0.0,387,0.0,2
0.03659999999945285,388,0.2982180000108201,2
0.0,389,0.0,2
0.0408000000006723,390,0.32360799999150913,2
0.0,391,0.0,2
0.016319999998813728,392,0.16021800000453368,2
0.0,393,0.0,2
0.028650000000197906,394,0.24975600000470877,2
0.0,395,0.0,2
0.03268500000194763,396,0.26110800000606105,2
0.0,397,0.0,2
0.03284999999959837,398,0.23864700000558514,2
0.0,399,0.0,2
0.04513500000030035,400,0.37530600000172853,2
0.0,401,0.0,2
0.02042999999866879,402,0.16418399999383837,2
0.0,403,0.0,2
0.033765000000130385,404,0.2621459999936633,2
0.0,405,0.0,2
0.03258000000096217,406,0.2778319999924861,2
0.0,407,0.0,2
0.03268500000012864,408,0.2813110000133747,2
0.0,409,0.0,2
0.04486499999984517,410,0.4129639999882784,2
0.0,411,0.0,2
0.020474999999350985,412,0.1901250000082655,2
0.0,413,0.0,2
0.031725000000733417,414,0.2718499999900814,2
0.0,415,0.0,2
0.036704999998619314,416,0.3621220000059111,2
0.0,417,0.0,2
0.033690000000206055,418,0.34332300000824034,2
0.0,419,0.0,2
0.04489500000272528,420,0.4437249999900814,2
0.0,421,0.0,2
0.016394999998738058,422,0.14965799999481533,2
0.0,423,0.0,2
0.036689999998998246,424,0.31897000000753906,2
0.0,425,0.0,2
0.03276000000005297,426,0.27142299999832176,2
0.0,427,0.0,2
0.028589999999894644,428,0.265625,2
0.0,429,0.0,2
0.05407500000001164,430,0.43255699999281205,2
0.0,431,0.0,2
0.019560000000637956,432,0.13897699999506585,2
0.0,433,0.0,2
0.032639999999446445,434,0.26293900002201553,2
0.0,435,0.0,2
0.028679999999440042,436,0.22320599999511614,2
0.0,437,0.0,2
0.0366600000015751,438,0.30731200000445824,2
0.0,439,0.0,2
0.04595999999946798,440,0.4340819999924861,2
0.0,441,0.0,2
0.016260000000329455,442,0.15917899999476504,2
0.0,443,0.0,2
0.03460500000073807,444,0.2980960000131745,2
0.0,445,0.0,2
0.03269999999974971,446,0.2678219999943394,2
0.0,447,0.0,2
0.032789999997476116,448,0.2532960000098683,2
0.0,449,0.0,2
0.05094000000099186,450,0.3940429999784101,2
0.0,451,0.0,2
0.01839000000109081,452,0.1350710000115214,2
0.0,453,0.0,2
0.036555000000589644,454,0.2907709999999497,2
0.0,455,0.0,2
0.03071999999883701,456,0.22595300000102725,2
0.0,457,0.0,2
0.036840000000665896,458,0.29913300000771414,2
0.0,459,0.0,2
0.0490799999988667,460,0.4063719999830937,2
0.0,461,0.0,2
0.016185000002224115,462,0.14446999999927357,2
0.0,463,0.0,2
0.034589999997479026,464,0.2776490000105696,2
0.0,465,0.0,2
0.03254999999990105,466,0.2710570000053849,2
0.0,467,0.0,2
0.03267000000050757,468,0.2785649999859743,2
0.0,469,0.0,2
0.04900499999894237,470,0.4197390000190353,2
0.0,471,0.0,2
0.0173400000003312,472,0.14099099997838493,2
0.0,473,0.0,2
0.03453000000081374,474,0.3035890000173822,2
0.0,475,0.0,2
0.03257999999914318,476,0.28619300000718795,2
0.0,477,0.0,2
0.03269999999974971,478,0.29315199999837205,2
0.0,479,0.0,2
0.04914000000098895,480,0.4266970000026049,2
0.0,481,0.0,2
0.01636499999949592,482,0.1420899999793619,2
0.0,483,0.0,2
0.03253500000027998,484,0.2735590000229422,2
0.0,485,0.0,2
0.030600000000049477,486,0.2379769999970449,2
0.0,487,0.0,2
0.03862499999922875,488,0.317931999990833,2
0.0,489,0.0,2
0.04507499999999709,490,0.3825069999875268,2
0.0,491,0.0,2
0.020340000000942382,492,0.1738279999990482,2
0.0,493,0.0,2
0.028515000001789303,494,0.24450700002489612,2
0.0,495,0.0,2
0.03679499999816471,496,0.3104859999875771,2
0.0,497,0.0,2
0.024659999999130378,498,0.2338869999803137,2
0.0,499,0.0,2
0.04906500000106462,500,0.453125,2
0.0,501,0.0,2
0.014339999999720021,502,0.10888600001635496,2
0.0,503,0.0,2
0.0367949999999837,504,0.3157960000098683,2
0.0,505,0.0,2
0.0286050000013347,506,0.23736599998665042,2
0.0,507,0.0,2
0.03695999999763444,508,0.30188000001362525,2
0.0,509,0.0,2
0.04501500000151282,510,0.38537600000563543,2
0.0,511,0.0,2
0.016394999998738058,512,0.13885499998286832,2
0.0,513,0.0,2
0.03689999999915017,514,0.3016349999961676,2
0.0,515,0.0,2
0.028755000001183362,516,0.23895299999276176,2
0.0,517,0.0,2
0.03693000000203028,518,0.3057860000117216,2
0.0,519,0.0,2
0.045029999997495906,520,0.3789059999980964,2
0.0,521,0.0,2
0.020475000001169974,522,0.17712400000891648,2
0.0,523,0.0,2
0.02862000000095577,524,0.23608399998920504,2
0.0,525,0.0,2
0.032939999997324776,526,0.2730719999963185,2
0.0,527,0.0,2
0.03295500000240281,528,0.26928700001735706,2
0.0,529,0.0,2
0.04516499999954249,530,0.38159199997608084,2
0.0,531,0.0,2
0.020415000000866712,532,0.16345200000796467,2
0.0,533,0.0,2
0.03298499999982596,534,0.2499390000011772,2
0.0,535,0.0,2
0.033015000000887085,536,0.24780300000566058,2
0.0,537,0.0,2
0.032864999997400446,538,0.24780199999804609,2
0.0,539,0.0,2
0.04888500000197382,540,0.4110720000026049,2
0.0,541,0.0,2
0.016319999998813728,542,0.12646500000846572,2
0.0,543,0.0,2
0.03280500000073516,544,0.2509149999823421,2
0.0,545,0.0,2
0.032714999997551786,546,0.26080399999045767,2
0.0,547,0.0,2
0.033840000001873705,548,0.2491450000088662,2
0.0,549,0.0,2
0.0490349999981845,550,0.37866200001735706,2
0.0,551,0.0,2
0.016349999999874854,552,0.12902899998880457,2
0.0,553,0.0,2
0.03282000000217522,554,0.2477410000137752,2
0.0,555,0.0,2
0.03276000000005297,556,0.25366199998825323,2
0.0,557,0.0,2
0.03288000000065949,558,0.22473199998785276,2
0.0,559,0.0,2
0.04982999999811,560,0.31622300000162795,2
0.0,561,0.0,2
0.01434000000153901,562,0.12237500000628643,2
0.0,563,0.0,2
0.036930000000211294,564,0.25439500001084525,2
0.0,565,0.0,2
0.03380999999899359,566,0.2569579999835696,2
0.0,567,0.0,2
0.02854499999921245,568,0.26397699999506585,2
0.0,569,0.0,2
0.04479000000173983,570,0.38757299999997485,2
0.0,571,0.0,2
0.02036999999836553,572,0.16204900000593625,2
0.0,573,0.0,2
0.03298500000164495,574,0.20996100001502782,2
0.0,575,0.0,2
0.0368849999995291,576,0.27130100000067614,2
0.0,577,0.0,2
0.030765000001338194,578,0.22112999999080785,2
0.0,579,0.0,2
0.04598999999689113,580,0.39917000000423286,2
0.0,581,0.0,2
0.02058000000215543,582,0.12542700000631157,2
0.0,583,0.0,2
0.04104000000006636,584,0.2651979999936884,2
0.0,585,0.0,2
0.02869499999906111,586,0.20532200000889134,2
0.0,587,0.0,2
0.03274500000225089,588,0.26757899999211077,2
0.0,589,0.0,2
0.040979999997944105,590,0.299499000000651,2
0.0,591,0.0,2
0.020459999999729916,592,0.15197799999441486,2
0.0,593,0.0,2
0.03282000000035623,594,0.2723990000085905,2
0.0,595,0.0,2
0.032715000001189765,596,0.1970219999930123,2
0.0,597,0.0,2
0.039854999997260165,598,0.24835200000961777,2
0.0,599,0.0,2
0.04486500000166416,600,0.3286739999894053,2
0.0,601,0.0,2
0.022290000000793952,602,0.14697300000989344,2
0.0,603,0.0,2
0.03665999999975611,604,0.26532000000588596,2
0.0,605,0.0,2
0.028574999998454587,606,0.19805899998755194,2
0.0,607,0.0,2
0.03660000000127184,608,0.2559200000105193,2
0.0,609,0.0,2
0.04070999999930791,610,0.2927249999920605,2
0.0,611,0.0,2
0.030614999999670545,612,0.1745599999994738,2
0.0,613,0.0,2
0.02757000000019616,614,0.20068399998126552,2
0.0,615,0.0,2
0.03359999999884167,616,0.25714100000914186,2
0.0,617,0.0,2
0.030690000001413864,618,0.25628700001107063,2
0.0,619,0.0,2
0.05114999999932479,620,0.34350600000470877,2
0.0,621,0.0,2
0.016335000000253785,622,0.12115399999311194,2
0.0,623,0.0,2
0.04441500000029919,624,0.22369400000025053,2
0.0,625,0.0,2
0.04837500000030559,626,0.2635500000033062,2
0.0,627,0.0,2
0.0282599999991362,628,0.2064819999941392,2
0.0,629,0.0,2
0.05656500000077358,630,0.3208619999932125,2
0.0,631,0.0,2
0.025799999999435386,632,0.15625,2
0.0,633,0.0,2
0.0368849999995291,634,0.24353000002156477,2
0.0,635,0.0,2
0.037980000000970904,636,0.2548829999868758,2
0.0,637,0.0,2
0.03259499999876425,638,0.22161900000355672,2
0.0,639,0.0,2
0.04904999999962456,640,0.32433999999193475,2
0.0,641,0.0,2
0.01636500000131491,642,0.11755400001129601,2
0.0,643,0.0,2
0.0368849999995291,644,0.2594609999941895,2
0.0,645,0.0,2
0.028575000000273576,646,0.20141600001079496,2
0.0,647,0.0,2
0.03682499999922584,648,0.2520749999966938,2
0.0,649,0.0,2
0.04081500000029337,650,0.3194579999981215,2
0.0,651,0.0,2
0.0245550000017829,652,0.17840599999180995,2
0.0,653,0.0,2
0.02876999999898544,654,0.21710199999506585,2
0.0,655,0.0,2
0.02862000000095577,656,0.21575900001334958,2
0.0,657,0.0,2
0.036839999998846906,658,0.2865599999931874,2
0.0,659,0.0,2
0.04500000000007276,660,0.35015899999416433,2
0.0,661,0.0,2
0.016320000000632717,662,0.12573200001497753,2
0.0,663,0.0,2
0.03896999999960826,664,0.3096309999964433,2
0.0,665,0.0,2
0.028800000000046566,666,0.2677009999897564,2
0.0,667,0.0,2
0.03508499999952619,668,0.25366199998825323,2
0.0,669,0.0,2
0.04471499999999651,670,0.4072870000236435,2
0.0,671,0.0,2
0.021314999999958673,672,0.1883549999911338,2
0.0,673,0.0,2
0.03663000000233296,674,0.33740199999010656,2
0.0,675,0.0,2
0.028739999997924315,676,0.2545780000073137,2
0.0,677,0.0,2
0.03258000000096217,678,0.2975460000016028,2
0.0,679,0.0,2
0.049080000000685686,680,0.4426880000100937,2
0.0,681,0.0,2
0.016439999997601262,682,0.14843799998925533,2
0.0,683,0.0,2
0.03269999999974971,684,0.2920529999973951,2
0.0,685,0.0,2
0.03907500000059372,686,0.3281860000133747,2
0.0,687,0.0,2
0.02847000000110711,688,0.2562859999889042,2
0.0,689,0.0,2
0.04176000000006752,690,0.4061890000157291,2
0.0,691,0.0,2
0.021509999998670537,692,0.18591399997239932,2
0.0,693,0.0,2
0.03792000000248663,694,0.29168700001901016,2
0.0,695,0.0,2
0.032489999997778796,696,0.29388399999879766,2
0.0,697,0.0,2
0.034815000000889995,698,0.29254100000252947,2
0.0,699,0.0,2
0.05444999999963329,700,0.40411399998993147,2
0.0,701,0.0,2
0.030764999999519205,702,0.18914800000493415,2
0.0,703,0.0,2
0.10548000000198954,704,0.5415650000068126,2
0.0,705,0.0,2
0.024239999997007544,706,0.16528299999481533,2
0.0,707,0.0,2
0.04384500000196567,708,0.35961899999529123,2
0.0,709,0.0,2
0.06780000000071595,710,0.40234400001645554,2
0.0,711,0.0,2
0.03202500000043074,712,0.1827999999950407,2
0.0,713,0.0,2
0.036990000000514556,714,0.24664299997675698,2
0.0,715,0.0,2
0.050369999997201376,716,0.3240360000199871,2
0.0,717,0.0,2
0.042930000001433655,718,0.30267299999832176,2
0.0,719,0.0,2
0.05318999999872176,720,0.4048469999979716,2
0.0,721,0.0,2
0.025649999999586726,722,0.18121299998892937,2
0.0,723,0.0,2
0.030915000001186854,724,0.24755900002492126,2
0.0,725,0.0,2
0.04489500000090629,726,0.31146199998329394,2
0.0,727,0.0,2
0.03487499999937427,728,0.2437130000180332,2
0.0,729,0.0,2
0.05228999999781081,730,0.3865969999751542,2
0.0,731,0.0,2
0.025440000001253793,732,0.17419400000653695,2
0.0,733,0.0,2
0.04306499999984226,734,0.3171390000061365,2
0.0,735,0.0,2
0.028740000001562294,736,0.24041799998667557,2
0.0,737,0.0,2
0.032654999997248524,738,0.2755120000074385,2
0.0,739,0.0,2
0.04102500000044529,740,0.3925779999990482,2
0.0,741,0.0,2
0.01645500000086031,742,0.13024899999436457,2
0.0,743,0.0,2
0.04185000000143191,744,0.28564500001084525,2
0.0,745,0.0,2
0.03365999999914493,746,0.22387699999671895,2
0.0,747,0.0,2
0.03277499999967404,748,0.24957300000824034,2
0.0,749,0.0,2
0.05527500000061991,750,0.37951599998632446,2
0.0,751,0.0,2
0.021420000000944128,752,0.16143800001009367,2
0.0,753,0.0,2
0.030779999997321283,754,0.22106999999959953,2
0.0,755,0.0,2
0.03268500000012864,756,0.2549429999780841,2
0.0,757,0.0,2
0.03673500000331842,758,0.2775270000274759,2
0.0,759,0.0,2
0.041729999997187406,760,0.31964099998003803,2
0.0,761,0.0,2
0.02035500000056345,762,0.15447999999742024,2
0.0,763,0.0,2
0.0367500000011205,764,0.24450700002489612,2
0.0,765,0.0,2
0.04711500000121305,766,0.24481199998990633,2
0.0,767,0.0,2
0.029474999999365536,768,0.24829099999624304,2
0.0,769,0.0,2
0.04748999999719672,770,0.35272200001054443,2
0.0,771,0.0,2
0.02973000000201864,772,0.16406299998925533,2
0.0,773,0.0,2
0.03362999999990279,774,0.2561640000058105,2
0.0,775,0.0,2
0.036989999998695566,776,0.2541510000010021,2
0.0,777,0.0,2
0.037814999999682186,778,0.25323499999649357,2
0.0,779,0.0,2
0.05433000000084576,780,0.3540650000068126,2
0.0,781,0.0,2
0.02246999999988475,782,0.15997300000162795,2
0.0,783,0.0,2
0.04927499999939755,784,0.25085399999807123,2
0.0,785,0.0,2
0.046080000001893495,786,0.2500609999842709,2
0.0,787,0.0,2
0.03251999999883992,788,0.2487190000101691,2
0.0,789,0.0,2
0.06453000000146858,790,0.35443099998519756,2
0.0,791,0.0,2
0.03152999999838357,792,0.16094900001189671,2
0.0,793,0.0,2
0.03483000000051106,794,0.21685800001432654,2
0.0,795,0.0,2
0.04078499999923224,796,0.2827149999793619,2
0.0,797,0.0,2
0.039165000000139116,798,0.2472540000017034,2
0.0,799,0.0,2
0.07325999999920896,800,0.4041130000114208,2
0.0,801,0.0,2
0.024315000000569853,802,0.13830599999346305,2
0.0,803,0.0,2
0.03964499999892723,804,0.2773440000019036,2
0.0,805,0.0,2
0.044055000002117595,806,0.24786399998993147,2
0.0,807,0.0,2
0.03658499999983178,808,0.21679600000788923,2
0.0,809,0.0,2
0.08068499999899359,810,0.4421390000061365,2
0.0,811,0.0,2
0.022649999998975545,812,0.1489259999943897,2
0.0,813,0.0,2
0.03807000000233529,814,0.2528069999971194,2
0.0,815,0.0,2
0.04888500000015483,816,0.3206179999979213,2
0.0,817,0.0,2
0.05459999999948195,818,0.3748780000023544,2
0.0,819,0.0,2
0.06871500000124797,820,0.4498290000046836,2
0.0,821,0.0,2
0.024584999999206048,822,0.15277099999366328,2
0.0,823,0.0,2
0.051044999998339335,824,0.33526600000914186,2
0.0,825,0.0,2
0.04482000000098196,826,0.3015750000049593,2
0.0,827,0.0,2
0.028275000000576256,828,0.2604369999899063,2
0.0,829,0.0,2
0.06645000000025902,830,0.5134890000044834,2
0.0,831,0.0,2
0.050819999998566345,832,0.27429199998732656,2
0.0,833,0.0,2
0.06585000000086438,834,0.4285890000028303,2
0.0,835,0.0,2
0.03997499999968568,836,0.34350600000470877,2
0.0,837,0.0,2
0.037005000000135624,838,0.2593380000034813,2
0.0,839,0.0,2
0.05447999999887543,840,0.3371579999948153,2
0.0,841,0.0,2
0.02862000000095577,842,0.25177000000257976,2
0.0,843,0.0,2
0.038715000000593136,844,0.3002930000075139,2
0.0,845,0.0,2
0.038129999999000574,846,0.20867900000303052,2
0.0,847,0.0,2
0.04650000000037835,848,0.2760619999899063,2
0.0,849,0.0,2
0.07216499999958614,850,0.46929999999701977,2
0.0,851,0.0,2
0.020490000000791042,852,0.15185499998915475,2
0.0,853,0.0,2
0.03300000000126602,854,0.2233890000206884,2
0.0,855,0.0,2
0.030824999999822467,856,0.2161859999760054,2
0.0,857,0.0,2
0.030600000000049477,858,0.1881110000249464,2
0.0,859,0.0,2
0.04175999999824853,860,0.31017999998584855,2
0.0,861,0.0,2
0.024584999999206048,862,0.1616820000053849,2
0.0,863,0.0,2
0.03267000000232656,864,0.20849699999962468,2
0.0,865,0.0,2
0.03290999999990163,866,0.1881710000016028,2
0.0,867,0.0,2
0.0329699999983859,868,0.18359400000190362,2
0.0,869,0.0,2
0.03708000000187894,870,0.20758000000205357,2
0.0,871,0.0,2
0.02885999999853084,872,0.167847000004258,2
0.0,873,0.0,2
0.03289499999846157,874,0.18450899998424575,2
0.0,875,0.0,2
0.03297000000202388,876,0.18109100000583567,2
0.0,877,0.0,2
0.03299999999944703,878,0.18121399999654386,2
0.0,879,0.0,2
0.034679999998843414,880,0.20629899999767076,2
0.0,881,0.0,2
0.028860000002168817,882,0.16265800001565367,2
0.0,883,0.0,2
0.028904999999213032,884,0.16033999998762738,2
0.0,885,0.0,2
0.03718499999922642,886,0.20074400000157766,2
0.0,887,0.0,2
0.028814999999667634,888,0.15979000000515953,2
0.0,889,0.0,2
0.04132500000014261,890,0.22448799999256153,2
0.0,891,0.0,2
0.02472000000307162,892,0.1411740000039572,2
0.0,893,0.0,2
0.0329699999983859,894,0.17633099999511614,2
0.0,895,0.0,2
0.03298499999982596,896,0.17755100000067614,2
0.0,897,0.0,2
0.0330599999979313,898,0.18023700000776444,2
0.0,899,0.0,2
0.04116000000249187,900,0.2288200000039069,2
0.0,901,0.0,2
0.024839999998221174,902,0.13562100000854116,2
0.0,903,0.0,2
0.03709500000150001,904,0.20379599997249898,2
0.0,905,0.0,2
0.02884499999890977,906,0.1581420000147773,2
0.0,907,0.0,2
0.03718499999922642,908,0.20001200000115205,2
0.0,909,0.0,2
0.03711000000294007,910,0.20758099999511614,2
0.0,911,0.0,2
0.024659999999130378,912,0.16870100000232924,2
0.0,913,0.0,2
0.028935000000274158,914,0.1508789999934379,2
0.0,915,0.0,2
0.02878499999860651,916,0.17883299999812152,2
0.0,917,0.0,2
0.03299999999944703,918,0.179260000018985,2
0.0,919,0.0,2
0.03710999999930209,920,0.20709199998236727,2
0.0,921,0.0,2
0.028785000002244487,922,0.1624759999976959,2
0.0,923,0.0,2
0.03305999999975029,924,0.17273000002023764,2
0.0,925,0.0,2
0.03298499999982596,926,0.18041899998206645,2
0.0,927,0.0,2
0.02884499999890977,928,0.15734900000097696,2
0.0,929,0.0,2
0.04529999999977008,930,0.24914600000192877,2
0.0,931,0.0,2
0.020549999999275315,932,0.1372680000058608,2
0.0,933,0.0,2
0.037140000002182205,934,0.20330799999646842,2
0.0,935,0.0,2
0.028814999999667634,936,0.16021699999691918,2
0.0,937,0.0,2
0.03715500000180327,938,0.20135499999742024,2
0.0,939,0.0,2
0.036929999998392304,940,0.20062300001154654,2
0.0,941,0.0,2
0.02885999999853084,942,0.15930099999241065,2
0.0,943,0.0,2
0.03295500000058382,944,0.17968800001835916,2
0.0,945,0.0,2
0.032940000000962755,946,0.1808469999668887,2
0.0,947,0.0,2
0.03292500000134169,948,0.17822300000989344,2
0.0,949,0.0,2
0.03694499999801337,950,0.23388600001635496,2
0.0,951,0.0,2
0.024659999999130378,952,0.12268099999346305,2
0.0,953,0.0,2
0.030630000001110602,954,0.2004400000005262,2
0.0,955,0.0,2
0.02884499999890977,956,0.15777499999967404,2
0.0,957,0.0,2
0.0329249999995227,958,0.20031799998832867,2
0.0,959,0.0,2
0.036990000000514556,960,0.2214959999982966,2
0.0,961,0.0,2
0.028560000000652508,962,0.1954960000148276,2
0.0,963,0.0,2
