method,package1,package2,dram1,dram2,energy
ATMegaFamily$PortRegister,0.03105924999908893,0.0,0.003292500000043219,0.0,0.03435174999913215
Arithmetic,0.0,0.0,0.0,0.0,0.0
AtmelInterpreter,0.09696746717359953,0.023141802331360387,0.010265744949306693,0.003464118699164835,0.13383913315343143
AtmelInterpreter$IORegBehavior,0.0,0.04719880680646727,0.0,0.007449141621393703,0.05464794842786097
Avrora,0.044323800000711344,0.0,0.005154000000766245,0.0,0.04947780000147759
Benchmark,0.6596109333370501,0.0,0.08077999999950405,0.0,0.7403909333365541
Chaperone,0.0,0.02452917990302321,0.0,0.003940571691826963,0.028469751594850174
ClassFile,0.04615479999920353,0.0,0.005858999999327352,0.0,0.05201379999853088
CommandLineArgs,0.0,0.0,0.0,0.0,0.0
ConfigFile,0.013061533332802357,0.0,0.0014910000000478854,0.0,0.014552533332850243
CtClassType,0.07130933333731566,0.0,0.007179999999304224,0.0,0.0784893333366199
DacapoClassLoader,0.0,0.1447790805503672,0.0,0.018248761807343195,0.1630278423577104
DeltaQueue,0.0,0.05978510933895088,0.0,0.009373836322502773,0.06915894566145366
DeltaQueue$Link,0.0,0.06662148731333375,0.0,0.010536039468233165,0.07715752678156693
ELFDataInputStream,0.0,0.11656129651701844,0.0,0.014022718965827172,0.1305840154828456
ELFSymbolTable$Entry,0.0,0.038644126500091726,0.0,0.004716177682716521,0.04336030418280824
FiniteStateMachine,0.0,0.0,0.0,0.0,0.0
Handler,0.0,0.02325356815920181,0.0,0.0033719550560452217,0.026625523215247034
InterruptTable,0.04648833333428201,0.0,0.004729545454955024,0.0,0.05121787878923704
LEDMonitor$Mon,0.0,0.10115086313069042,0.0,0.01590791921252906,0.11705878234321948
Launcher$AppClassLoader,0.04458006666585182,0.0,0.00468900000002274,0.0,0.04926906666587456
LegacyDisassembler$InvalidInstruction,0.0,0.08854288658093533,0.0,0.010935216677695241,0.09947810325863057
LegacyInstr$AND,0.0,0.0,0.0,0.0,0.0
LegacyInstr$CP,0.020047515151733752,0.0,0.0019175757574441184,0.0,0.02196509090917787
LegacyInstr$JMP,0.0,0.04261968982379187,0.0,0.0054953234549757046,0.04811501327876758
LegacyInstr$PUSH,0.0,0.0,0.0,0.0,0.0
LegacyInstr$RJMP,0.0,0.0,0.0,0.0,0.0
LegacyInterpreter,0.08466128872026975,0.02759472969055765,0.008275934343645368,0.003947597112603047,0.12447954986707581
LegacyRegister,0.08529595555446574,0.0,0.007795333333827631,0.0,0.09309128888829338
MainClock,0.0426383080808922,0.09519734158826278,0.004275568181684421,0.011489704339511986,0.1536009221903514
Medium$Probe$List,0.0,0.0,0.0,0.0,0.0
Medium$Receiver,0.010888130434424331,0.0,0.0013995652174660634,0.0,0.012287695651890394
Medium$Receiver$Ticker,0.0,0.0,0.0,0.0,0.0
Medium$TXRX,0.01306158333318308,0.0,0.0012137499998061685,0.0,0.014275333332989248
MetaIndex,0.0,0.0209308701191876,0.0,0.002798174491605352,0.023729044610792952
MulticastFSMProbe,0.0,0.0,0.0,0.0,0.0
Options,0.02708130000028177,0.0,0.00307574999951612,0.0,0.03015704999979789
PacketMonitor$Mon,0.0,0.06453054146494175,0.0,0.007426711329688156,0.0719572527946299
RWRegister,0.0,0.0,0.0,0.0,0.0
Resource,0.0,0.08611280343077765,0.0,0.01169036096532478,0.09780316439610243
RippleSynchronizer,0.7122814364583769,1.0706478889624242,0.0797679509120775,0.13752451463345486,2.0002217909663336
RippleSynchronizer$NotifyEvent,0.0,0.0,0.0,0.0,0.0
SPI$TransferEvent,0.056671250000363216,0.0,0.0058499999995547105,0.0,0.06252124999991793
SimPrinter,0.0,0.0,0.0,0.0,0.0
StringUtil,0.0,0.012466003560883149,0.0,0.001632219870475901,0.01409822343135905
TeeOutputStream,0.5267539503810315,0.802702411353311,0.05271688534616879,0.10556280286556732,1.4877360499460786
Terminal,0.0,0.0,0.0,0.0,0.0
TestHarness,0.05631499999920681,0.0,0.006454000000909825,0.0,0.06276900000011663
TransactionalList,0.0,0.0,0.0,0.0,0.0
URLClassPath$JarLoader,0.04615479999920353,0.014140756793199875,0.005858999999327352,0.002083315355601153,0.0682378721473319
URLClassPath$JarLoader$2,0.0,0.020616851952917528,0.0,0.002935590162411181,0.023552442115328708
