method,package1,package2,dram1,dram2,energy
avrora.arch.legacy,0.19206498852145032,0.2417255396572596,0.02322004439622886,0.030958374036148154,0.4879689466110869
avrora.monitors,0.0,0.15986592283524492,0.0,0.015565563188296104,0.17543148602354103
avrora.sim,0.02889751235903833,0.23334515715851517,0.0025143399106823928,0.028796879328601296,0.2935538887568372
avrora.sim.clock,0.5302763146329112,1.2268774061383882,0.06075337920643629,0.14797343111223127,1.965880531089967
avrora.sim.mcu,0.003403938794046738,0.0,0.0003404710400064308,0.0,0.0037444098340531687
avrora.sim.platform,0.024635867736903117,0.0,0.003181333588248288,0.0,0.027817201325151406
avrora.sim.radio,0.03812543137167927,0.0,0.0041526470590278934,0.0,0.04227807843070717
avrora.sim.util,0.0,0.0,0.0,0.0,0.0
avrora.syntax.elf,0.015313520636194485,0.0,0.0015608080609459658,0.0,0.01687432869714045
cck.text,0.04776589473782989,0.0,0.005155789473894656,0.0,0.052921684211724544
cck.util,0.04141699966037348,0.0,0.004674660704376394,0.0,0.046091660364749876
chappie,0.0,0.0,0.0,0.0,0.0
javassist,0.0069584205282569676,0.0,0.0008578852449004474,0.0,0.007816305773157416
org.dacapo.harness,0.8186416170191574,1.0591421613418668,0.09014436182229145,0.14759958350945085,2.1155277236927663
sun.misc,0.18680361156784947,0.028251133334318487,0.025563490770656696,0.004677000000083352,0.24529523567290804
sun.net.www.protocol.file,0.0372978942726748,0.0,0.004460753078177863,0.0,0.04175864735085266
sun.util.locale.provider,0.0,0.0,0.0,0.0,0.0
