method,package1,package2,dram1,dram2,energy
avrora.actions,0.0,0.0,0.0,0.0,0.0
avrora.arch.legacy,0.0,0.29750448813888386,0.0,0.029030582569019647,0.3265350707079035
avrora.sim,0.07376045270012305,0.14724322997657507,0.00726251930483162,0.020552306060448316,0.24881850804197805
avrora.sim.clock,0.5510439683446874,0.8464260903371825,0.05188425278206481,0.10336729870951741,1.552721610173452
avrora.sim.mcu,0.0,0.0,0.0,0.0,0.0
avrora.sim.radio,0.02807974477953716,0.0,0.0033870515970872415,0.0,0.031466796376624404
avrora.sim.util,0.0807534234227391,0.038783428571020656,0.010124312231269065,0.0070778571428361066,0.13673902136786492
cck.text,0.0,0.038360500000029184,0.0,0.005469999999756206,0.04383049999978539
cck.util,0.0,0.0,0.0,0.0,0.0
chappie,0.0,0.05352343252235218,0.0,0.003177741154933677,0.05670117367728585
javassist,0.0,0.010609833332030878,0.0,0.0013600000005074735,0.01196983333253835
javassist.bytecode,0.0,0.036909000859473066,0.0,0.005177889216220989,0.04208689007569406
org.dacapo.harness,0.5790239548596007,1.5785628831950493,0.05726408049272437,0.21007211061493133,2.4249230291623056
org.dacapo.parser,0.0,0.03984583333173456,0.0,0.005457499999768818,0.04530333333150338
sun.misc,0.0,0.08517339752003755,0.0,0.007191679755895622,0.09236507727593317
