method,package1,package2,dram1,dram2,energy
ADC$ControlRegister.insertConversion|ADC$ControlRegister.startConversion|ADC$ControlRegister.write,0.0,0.0,0.0,0.0,0.0
AtmelInterpreter$IORegBehavior.write|AtmelInterpreter.writeVolatile|AtmelInterpreter.writeSRAM,0.0,0.0,0.0,0.0,0.0
AtmelInterpreter$SREGBehavior.read|AtmelInterpreter.readVolatile|AtmelInterpreter.readSRAM,0.0,0.0,0.0,0.0,0.0
AtmelInterpreter.commit|LegacyInterpreter.fastLoop|LegacyInterpreter.runLoop,0.06686858820905495,0.009199361111111809,0.004556614135050504,0.001790000000002894,0.08241456345522015
AtmelInterpreter.getRegisterByte|AtmelInterpreter.getRegisterWord|LegacyInterpreter.visit,0.0,0.0,0.0,0.0,0.0
AtmelInterpreter.getRegisterByte|LegacyInterpreter.visit|LegacyInstr$CPC.accept,0.0,0.0,0.0,0.0,0.0
AtmelInterpreter.popByte|LegacyInterpreter.visit|LegacyInstr$POP.accept,0.0,0.0,0.0,0.0,0.0
AtmelInterpreter.readSRAM|AtmelInterpreter.getDataByte|AtmelInterpreter.popByte,0.0,0.0,0.0,0.0,0.0
AtmelInterpreter.readVolatile|AtmelInterpreter.readSRAM|AtmelInterpreter.setIORegBit,0.0,0.0,0.0,0.0,0.0
AtmelInterpreter.setIORegBit|LegacyInterpreter.visit|LegacyInstr$CBI.accept,0.0,0.007005472222469203,0.0,0.0011825000000398075,0.008187972222509011
AtmelInterpreter.setSP|AtmelInterpreter.popByte|LegacyInterpreter.visit,0.0,0.0,0.0,0.0,0.0
AtmelInterpreter.toSRAM|AtmelInterpreter.getIORegisterByte|LegacyInterpreter.visit,0.0,0.0,0.0,0.0,0.0
AtmelInterpreter.writeRegisterByte|LegacyInterpreter.visit|LegacyInstr$LDS.accept,0.0,0.0,0.0,0.0,0.0
AtmelInterpreter.writeRegisterByte|LegacyInterpreter.visit|LegacyInstr$POP.accept,0.014320457110242222,0.043133477537541536,0.0009038605705792778,0.006980082583565527,0.06533787780192855
AtmelInterpreter.writeSRAM|AtmelInterpreter.writeDataByte|AtmelInterpreter.pushByte,0.0,0.0,0.0,0.0,0.0
AtmelInterpreter.writeVolatile|AtmelInterpreter.writeSRAM|AtmelInterpreter.writeIORegisterByte,0.0,0.02491357736211416,0.0,0.0027958302204088713,0.02770940758252303
Benchmark.unpackZipStream|Benchmark.unpackZipFileResource|Benchmark.prepare,0.005743238093730594,0.0,0.0007771428569131308,0.0,0.006520380950643724
CC1000Radio$MainRegister.decode|CC1000Radio$RadioRegister.write|CC1000Radio$SerialConfigurationInterface.clockInBit,0.06414569934693397,0.0,0.006710706281471061,0.0,0.07085640562840503
CC1000Radio$SerialConfigurationInterface.clockInBit|CC1000Radio$SerialConfigurationInterface.access$200|CC1000Radio$SerialConfigurationInterface$PCLKOutput.write,0.01959615481585564,0.0,0.0015279231485345929,0.0,0.021124077964390232
DacapoClassLoader.<init>|DacapoClassLoader.create|Benchmark.initialize,0.0124730769237384,0.0,0.0014269230767893484,0.0,0.013900000000527747
DefaultMCU$Pin.printWrite|DefaultMCU$Pin.write|ATMegaFamily$PortRegister.write,0.0,0.0,0.0,0.0,0.0
DefaultMCU$Pin.write|ATMegaFamily$PortRegister.write|AtmelInterpreter$IORegBehavior.write,0.0,0.0366083888875437,0.0,0.0052402083332354875,0.04184859722077919
DefaultMCU$Pin.write|DefaultMCU$Pin.setOutputDir|ATMegaFamily$DirectionRegister.write,0.0,0.0,0.0,0.0,0.0
Defaults$AutoProgramReader.read|Main.loadProgram|LoadableProgram.load,0.0,0.03254699999888544,0.0,0.0041043749999971615,0.0366513749988826
DeltaQueue$Link.add|DeltaQueue.insertEvent|MainClock.insertEvent,0.0,0.0,0.0,0.0,0.0
DeltaQueue$Link.fire|DeltaQueue.skipAhead|MainClock.skipAhead,0.0,0.0,0.0,0.0,0.0
DeltaQueue.advance|MainClock.advance|AtmelInterpreter.commit,0.0,0.04333011233387417,0.0,0.007781951758962575,0.051112064092836744
DeltaQueue.free|DeltaQueue.skipAhead|MainClock.skipAhead,0.0,0.0,0.0,0.0,0.0
DeltaQueue.insertEvent|MainClock.insertEvent|Medium$Receiver$Ticker.deliverByte,0.0,0.0,0.0,0.0,0.0
DeltaQueue.insertEvent|MainClock.insertEvent|Medium$Receiver$Ticker.fireUnlocked,0.0,0.0,0.0,0.0,0.0
DeltaQueue.newEventList|DeltaQueue.access$000|DeltaQueue$Link.add,0.0,0.0,0.0,0.0,0.0
DeltaQueue.newLink|DeltaQueue.insertAfter|DeltaQueue.insertEvent,0.0,0.0,0.0,0.0,0.0
DeltaQueue.skipAhead|MainClock.skipAhead|LegacyInterpreter.sleepLoop,0.0,0.0,0.0,0.0,0.0
ELFIdentifier.<clinit>|ELFHeader.getArchitecture|ELFParser.getArchitecture,0.0,0.03254699999888544,0.0,0.0041043749999971615,0.0366513749988826
ExternalFlash$PD5Output.write|DefaultMCU$Pin.write|ATMegaFamily$PortRegister.write,0.0,0.0,0.0,0.0,0.0
ExternalFlash.access$100|ExternalFlash$PD5Output.write|DefaultMCU$Pin.write,0.0,0.0,0.0,0.0,0.0
FiniteStateMachine.transition|AtmelMicrocontroller.sleep|LegacyInterpreter.enterSleepMode,0.0,0.0,0.0,0.0,0.0
LegacyInstr$NOP.accept|LegacyInterpreter.fastLoop|LegacyInterpreter.runLoop,0.015958600000400718,0.0,0.0017909999999877375,0.0,0.017749600000388454
LegacyInstr$PUSH.accept|LegacyInterpreter.fastLoop|LegacyInterpreter.runLoop,0.0,0.0,0.0,0.0,0.0
LegacyInstr$STS.accept|LegacyInterpreter.fastLoop|LegacyInterpreter.runLoop,0.0,0.0,0.0,0.0,0.0
LegacyInterpreter.fastLoop|LegacyInterpreter.runLoop|AtmelInterpreter.start,0.07556740567273665,0.07208767734800449,0.005427699589831523,0.013120443813797072,0.16620322642436974
LegacyInterpreter.leaveSleepMode|LegacyInterpreter.invokeInterrupt|LegacyInterpreter.runLoop,0.0,0.0,0.0,0.0,0.0
LegacyInterpreter.runLoop|AtmelInterpreter.start|Simulator.start,0.0,0.04906226191264693,0.0,0.0062073741126906536,0.05526963602533759
LegacyInterpreter.visit|LegacyInstr$AND.accept|LegacyInterpreter.fastLoop,0.0,0.0,0.0,0.0,0.0
LegacyInterpreter.visit|LegacyInstr$BRGE.accept|LegacyInterpreter.fastLoop,0.0,0.0,0.0,0.0,0.0
LegacyInterpreter.visit|LegacyInstr$CPC.accept|LegacyInterpreter.fastLoop,0.0,0.0,0.0,0.0,0.0
LegacyInterpreter.visit|LegacyInstr$EOR.accept|LegacyInterpreter.fastLoop,0.0,0.0,0.0,0.0,0.0
LegacyInterpreter.visit|LegacyInstr$IN.accept|LegacyInterpreter.fastLoop,0.0,0.0,0.0,0.0,0.0
LegacyInterpreter.visit|LegacyInstr$LDS.accept|LegacyInterpreter.fastLoop,0.0,0.0,0.0,0.0,0.0
LegacyInterpreter.visit|LegacyInstr$OR.accept|LegacyInterpreter.fastLoop,0.0,0.0,0.0,0.0,0.0
LegacyInterpreter.visit|LegacyInstr$OUT.accept|LegacyInterpreter.fastLoop,0.023773250000279703,0.0,0.0013350000002295321,0.0,0.025108250000509234
LegacyInterpreter.visit|LegacyInstr$POP.accept|LegacyInterpreter.fastLoop,0.03378296938825195,0.03700659648931928,0.0032840816325470047,0.004602105263314258,0.0786757527734325
LegacyInterpreter.visit|LegacyInstr$PUSH.accept|LegacyInterpreter.fastLoop,0.0,0.0,0.0,0.0,0.0
LegacyInterpreter.visit|LegacyInstr$RET.accept|LegacyInterpreter.fastLoop,0.0,0.0,0.0,0.0,0.0
LegacyInterpreter.visit|LegacyInstr$ROR.accept|LegacyInterpreter.fastLoop,0.0,0.0,0.0,0.0,0.0
LegacyInterpreter.visit|LegacyInstr$SBC.accept|LegacyInterpreter.fastLoop,0.0,0.03883125467728142,0.0,0.006431962201337629,0.04526321687861905
LegacyInterpreter.visit|LegacyInstr$SBIW.accept|LegacyInterpreter.fastLoop,0.0,0.0,0.0,0.0,0.0
LegacyInterpreter.visit|LegacyInstr$SUBI.accept|LegacyInterpreter.fastLoop,0.0,0.0,0.0,0.0,0.0
LegacyRegister.getNumber|AtmelInterpreter.getRegisterByte|AtmelInterpreter.getRegisterWord,0.0,0.0,0.0,0.0,0.0
LegacyRegister.getNumber|AtmelInterpreter.getRegisterByte|LegacyInterpreter.visit,0.02696278039639784,0.0,0.002420689025787201,0.0,0.029383469422185043
LegacyRegister.getNumber|AtmelInterpreter.writeRegisterByte|LegacyInterpreter.visit,0.0,0.0,0.0,0.0,0.0
MainClock.advance|AtmelInterpreter.commit|LegacyInterpreter.fastLoop,0.0,0.04403399145379072,0.0,0.008163034188022555,0.05219702564181328
Medium$Probe$List.fireBeforeTransmitEnd|Medium$Transmitter$Ticker.fire|DeltaQueue$Link.fire,0.0,0.0,0.0,0.0,0.0
Medium$Receiver$Ticker.deliverByte|Medium$Receiver$Ticker.fireLocked|Medium$Receiver$Ticker.fire,0.0,0.0,0.0,0.0,0.0
Medium$Receiver$Ticker.fireUnlocked|Medium$Receiver$Ticker.fire|DeltaQueue$Link.fire,0.013969374999760477,0.0,0.0007799999998496787,0.0,0.014749374999610156
Medium$Receiver.earliestNewTransmission|Medium$Receiver.access$100|Medium$Receiver$Ticker.fireUnlocked,0.04145300000042577,0.0,0.003140000000106132,0.0,0.0445930000005319
Medium$Receiver.getIntersection|Medium$Receiver.access$200|Medium$Receiver$Ticker.deliverByte,0.0,0.0314145064765395,0.0,0.004836633271492356,0.03625113974803185
MulticastFSMProbe.fireBeforeTransition|FiniteStateMachine.fireBefore|FiniteStateMachine.transition,0.0,0.0,0.0,0.0,0.0
Parser.parseMethodCall|Parser.parsePostfix|Parser.parseUnaryExpr,0.003521526782856447,0.0,0.0005301977668234869,0.0,0.004051724549679934
RippleSynchronizer$NotifyEvent.currentWaitLink|RippleSynchronizer$NotifyEvent.access$100|RippleSynchronizer.waitForNeighbors,0.0,0.0,0.0,0.0,0.0
RippleSynchronizer$NotifyEvent.fire|DeltaQueue$Link.fire|DeltaQueue.skipAhead,0.0,0.0,0.0,0.0,0.0
RippleSynchronizer.advance|RippleSynchronizer.waitForNeighbors|Medium$Receiver.waitForNeighbors,0.09053693665323223,0.07399979845162068,0.010564751131091333,0.008463252437411087,0.18356473867335532
RippleSynchronizer.waitForNeighbors|Medium$Receiver.waitForNeighbors|Medium$Receiver.access$000,0.04035375433936748,0.0324911666684784,0.004568648299770703,0.004810000000058304,0.08222356930767488
SPI.receive|SPI.exchange|CC1000Radio$SPITicker.fire,0.050785714284367185,0.0,0.005882142856665138,0.0,0.05666785714103233
SimPrinter.printBuffer|PacketMonitor$Mon.fireAfterReceiveEnd|Medium$Probe$List.fireAfterReceiveEnd,0.0,0.0,0.0,0.0,0.0
