method,hits
BufferedInputStream.read,4
Class.getDeclaredConstructors0,2
ClassLoader.defineClass1,4
DataInputStream.readUnsignedShort,2
FileOutputStream.open0,4
FileOutputStream.write,244
FileOutputStream.writeBytes,2
Formatter.parse,2
HashMap.getNode,14
Inflater.inflateBytes,22
LinkedList$ListItr.<init>,2
Manifest.<init>,2
Object.hashCode,4
Object.notifyAll,16
Object.wait,204
RandomAccessFile.read0,2
String.format,2
String.toUpperCase,2
System.nanoTime,2
URLStreamHandler.equals,2
UnixFileSystem.delete0,4
ZipFile.releaseInflater,2
