method,package1,package2,dram1,dram2,energy
Arrays.copyOf,0.0,0.030106221534860957,0.0,0.004164526591454019,0.034270748126314976
Arrays.copyOfRange,0.0,0.0,0.0,0.0,0.0
BufferedInputStream.<init>,0.07130933333731566,0.0,0.007179999999304224,0.0,0.0784893333366199
BufferedWriter.flushBuffer,0.0,0.0,0.0,0.0,0.0
Class.forName0,0.044323800000711344,0.0,0.005154000000766245,0.0,0.04947780000147759
ClassLoader.defineClass1,0.031518533333049464,0.12416222859744966,0.0031979999999748546,0.015313171644932014,0.174191933575406
ClassLoader.findLoadedClass0,0.0,0.020616851952917528,0.0,0.002935590162411181,0.023552442115328708
File.<init>,0.058489900000373976,0.0,0.006951000000966207,0.0,0.06544090000134019
FileOutputStream.open0,0.0882690666655738,0.0,0.010279499999645243,0.0,0.09854856666521904
FileOutputStream.write,0.5267539503810315,0.802702411353311,0.05271688534616879,0.10556280286556732,1.4877360499460786
FileOutputStream.writeBytes,0.04704806666607812,0.0,0.005610999999892859,0.0,0.052659066665970984
Formatter$FormatSpecifier.print,0.0,0.02452917990302321,0.0,0.003940571691826963,0.028469751594850174
HashMap.getNode,0.0,0.2556175280633728,0.0,0.031394805140186575,0.28701233320355934
Inflater.inflateBytes,0.4524880333362185,0.05600658189591669,0.05656649999970492,0.007525834373870761,0.5725869496057109
JarVerifier.<init>,0.01909179999978126,0.0,0.002219999999942957,0.0,0.02131179999972422
LinkedList.listIterator,0.010888130434424331,0.0,0.0013995652174660634,0.0,0.012287695651890394
Object.notifyAll,0.01580717391334474,0.0,0.0018119565217036152,0.0,0.017619130435048355
Object.wait,0.5718593180961355,0.7598877370496894,0.0665357860551831,0.10065042309036357,1.4989332642913715
RandomAccessFile.read0,0.0,0.11656129651701844,0.0,0.014022718965827172,0.1305840154828456
String.startsWith,0.0,0.0209308701191876,0.0,0.002798174491605352,0.023729044610792952
String.toCharArray,0.0,0.014140756793199875,0.0,0.002083315355601153,0.016224072148801026
StringBuffer.append,0.0,0.0464719584269573,0.0,0.004631992613514997,0.051103951040472294
Throwable.fillInStackTrace,0.013061533332802357,0.08854288658093533,0.0014910000000478854,0.010935216677695241,0.11403063659148081
URLStreamHandler.getHostAddress,0.0,0.02325356815920181,0.0,0.0033719550560452217,0.026625523215247034
UnixFileSystem.delete0,0.023156733333598817,0.0,0.0026020000002366338,0.0,0.02575873333383545
UnixFileSystem.list,0.011738999998973059,0.0,0.0013600000008106385,0.0,0.013098999999783697
ZipFile.open,0.04615479999920353,0.0,0.005858999999327352,0.0,0.05201379999853088
ZipFile.read,0.0,0.0,0.0,0.0,0.0
ZipInputStream.<init>,0.013315866668805632,0.0,0.0013719999992948331,0.0,0.014687866668100465
