method,package1,package2,dram1,dram2,energy
Arrays.copyOf|StringCoding.safeTrim|StringCoding.access$300,0.0,0.0,0.0,0.0,0.0
BufferedInputStream.read|DataInputStream.readInt|CodeAttribute.<init>,0.2929972466671218,0.0,0.03619779999991199,0.0,0.3291950466670338
BufferedInputStream.read|DataInputStream.readUnsignedByte|ConstPool.readOne,0.022420222222636864,0.0,0.0026016666666287673,0.0,0.025021888889265632
BufferedInputStream.read|DataInputStream.readUnsignedShort|CodeAttribute.<init>,0.02284077777747168,0.0,0.0025233333334553107,0.0,0.02536411111092699
BufferedInputStream.read|DataInputStream.readUnsignedShort|MethodInfo.read,0.0395384000003105,0.0,0.0046979999999166465,0.0,0.04423640000022715
Class.forName0|Class.forName|URL.getURLStreamHandler,0.06417939393996316,0.0,0.007104545454212436,0.0,0.0712839393941756
Class.getDeclaredConstructors0|Class.privateGetDeclaredConstructors|Class.getConstructor0,0.0031263333334613373,0.0,0.00046166666652425187,0.0,0.0035879999999855893
ClassLoader.defineClass1|ClassLoader.defineClass|SecureClassLoader.defineClass,0.062453076923982456,0.0,0.006597692307528072,0.0,0.06905076923151053
ClassLoader.findLoadedClass0|ClassLoader.findLoadedClass|ClassLoader.loadClass,0.009867333331688615,0.0,0.0009699999997489307,0.0,0.010837333331437545
DataInputStream.readUnsignedShort|MemberrefInfo.<init>|MethodrefInfo.<init>,0.0,0.0,0.0,0.0,0.0
FileOutputStream.open0|FileOutputStream.open|FileOutputStream.<init>,0.10306800000156119,0.0,0.011239999999816064,0.0,0.11430800000137725
FileOutputStream.writeBytes|FileOutputStream.write|BufferedOutputStream.flushBuffer,0.1462069696969014,0.0,0.016550000000279397,0.0,0.1627569696971808
FileOutputStream.writeBytes|FileOutputStream.write|BufferedOutputStream.write,0.07516483333165523,0.0,0.008694999999837213,0.0,0.08385983333149244
FileOutputStream.write|FileOutputStream.write|TeeOutputStream.write,0.4072593022269055,0.3105200934799619,0.04120360617115032,0.03854423485781513,0.7975272367358328
FilterOutputStream.write|PrintStream.write|StreamEncoder.writeBytes,0.0,0.0,0.0,0.0,0.0
HashMap.containsKey|HashSet.contains|LegacyRegister$Set.contains,0.0761404848502328,0.0,0.005603181817467415,0.0,0.08174366666770021
HashMap.getNode|HashMap.get|RippleSynchronizer.waitForNeighbors,0.0,0.0,0.0,0.0,0.0
HashMap.hash|HashMap.get|RippleSynchronizer.waitForNeighbors,0.0,0.0,0.0,0.0,0.0
Inflater.inflateBytes|Inflater.inflate|InflaterInputStream.read,0.3123358879546422,0.0,0.03355959673599465,0.0,0.3458954846906368
JarFile.entries|CommandLineArgs.extractBenchmarkSet|CommandLineArgs.<init>,0.0,0.0,0.0,0.0,0.0
LinkedList$ListItr.<init>|LinkedList.listIterator|AbstractList.listIterator,0.0,0.0,0.0,0.0,0.0
Object.hashCode|HashMap.hash|HashMap.get,0.0,0.0,0.0,0.0,0.0
Object.notifyAll|RippleSynchronizer.notifyLink|RippleSynchronizer.advance,0.039910195844195716,0.04676726865208068,0.005137494235383321,0.006214639093833099,0.09802959782549281
Object.wait|Object.wait|RippleSynchronizer.waitForLink,0.2971115763219855,0.3596983225440451,0.028841593384267096,0.022972674818178673,0.7086241670684763
PrintStream.println|Terminal.println|SimPrinter.printBuffer,0.0,0.10350873077550203,0.0,0.012115384615404205,0.11562411539090624
UnixFileSystem.createDirectory|File.mkdir|Benchmark.unpackZipStream,0.02951050000168228,0.0,0.0034149999998286753,0.0,0.032925500001510954
UnixFileSystem.delete0|UnixFileSystem.delete|File.delete,0.06121833333357547,0.0,0.006810000000162593,0.0,0.06802833333373806
UnixFileSystem.normalize|File.<init>|TestHarness.rmdir,0.0,0.0,0.0,0.0,0.0
ZipFile.getEntry|ZipFile.getEntry|JarFile.getEntry,0.028235846154320125,0.0,0.0021830769227772877,0.0,0.030418923077097412
ZipFile.read|ZipFile.access$1400|ZipFile$ZipFileInputStream.read,0.06397024242367919,0.0,0.005609545454441985,0.0,0.06957978787812118
