method,hits
AbstractStringBuilder.newCapacity,2
Arrays.copyOf,2
Buffer.hasRemaining,2
BufferedInputStream.<init>,2
BufferedInputStream.read,6
CharacterData00.<clinit>,2
ClassLoader.defineClass1,8
DigitList.<init>,2
FileOutputStream.close0,2
FileOutputStream.open0,6
FileOutputStream.write,238
FileOutputStream.writeBytes,6
Formatter.parse,2
HashMap.getNode,42
HashMap.hash,8
Hashtable$Enumerator.nextElement,2
Inflater.inflateBytes,16
LinkedList.listIterator,2
Long.getChars,2
Object.notifyAll,18
Object.wait,260
String.indexOf,2
StringBuffer.append,2
UnixFileSystem.delete0,4
UnixFileSystem.getBooleanAttributes0,2
ZipFile.read,4
ZipFile.releaseInflater,2
