method,package1,package2,dram1,dram2,energy
Buffer.hasRemaining,0.0,0.0,0.0,0.0,0.0
BufferedInputStream.read,0.0,0.03012087500064808,0.0,0.004226250000328946,0.03434712500097703
ClassLoader.defineClass1,0.0,0.08095319540358292,0.0,0.010331724138205604,0.09128491954178852
CodeSource.matchCerts,0.0,0.10624166666821112,0.0,0.012279999999615637,0.11852166666782676
FileOutputStream.close0,0.0,0.022996666666585952,0.0,0.0031883333332290123,0.026184999999814964
FileOutputStream.open0,0.0,0.11574972222378063,0.0,0.015716666666877346,0.13146638889065798
FileOutputStream.write,0.5115242398353479,1.3338019042208682,0.04973517051758178,0.1671638528693484,2.062225167443146
FileOutputStream.writeBytes,0.0,0.1854449999987587,0.0,0.023625000000417153,0.20906999999917586
HashMap.getNode,0.0,0.10774964659078563,0.0,0.012589479962617113,0.12033912655340274
HashMap.hash,0.0,0.0,0.0,0.0,0.0
Hashtable$Enumerator.nextElement,0.0,0.041463166666896235,0.0,0.005490000000160458,0.04695316666705669
Inflater.inflateBytes,0.0,0.20001894444673476,0.0,0.02614000000024437,0.22615894444697915
LinkedList.listIterator,0.0,0.0,0.0,0.0,0.0
Object.hashCode,0.0,0.0,0.0,0.0,0.0
Object.notifyAll,0.0,0.023095699999248608,0.0,0.003290999999990163,0.02638669999923877
Object.wait,0.3148779162133032,0.37910102221761954,0.031063276693640895,0.047455724022481285,0.772497939147045
String.format,0.0,0.09762549999868496,0.0,0.014369999998052663,0.11199549999673762
String.substring,0.0,0.018630413794167463,0.0,0.0022696551722815607,0.020900068966449022
Writer.write,0.0,0.0,0.0,0.0,0.0
ZipFile$ZipFileInputStream.<init>,0.0,0.05470799999602605,0.0,0.007500000000012126,0.062207999996038175
ZipFile.open,0.0,0.006408666665568792,0.0,0.0006799999994958246,0.007088666665064617
ZipFile.read,0.0,0.08624266666690042,0.0,0.010860000000927052,0.09710266666782746
