method,package1,package2,dram1,dram2,energy
avrora.arch.legacy,0.5379235740198947,0.0,0.04869223211648409,0.0,0.5866158061363788
avrora.core,0.06230666666670004,0.0,0.006042500000451885,0.0,0.06834916666715192
avrora.sim,0.18587764868885792,0.1604618456973687,0.017187618193176057,0.01988072777240949,0.3834078403518122
avrora.sim.clock,0.10695047922083688,0.13470327777354718,0.008303784190208111,0.017445972222049022,0.2674035134066412
avrora.sim.mcu,0.006831357802404559,0.0,0.0007207547600377902,0.0,0.007552112562442349
avrora.sim.output,0.0,0.0,0.0,0.0,0.0
avrora.sim.platform,0.02688599999964936,0.0,0.0027275000005223165,0.0,0.029613500000171676
avrora.sim.radio,0.1762136642788087,0.0,0.016621482709553048,0.0,0.19283514698836174
avrora.sim.util,0.0,0.0,0.0,0.0,0.0
cck.util,0.06866466666785223,0.0,0.008155000000745833,0.0,0.07681966666859806
java.io,0.5122504768573513,0.6184599777014345,0.046297835153774516,0.07880042365981361,1.255808713372374
java.lang,1.0721670312972438,0.9701715817482602,0.10561042178836258,0.12935152381081153,2.277300558644678
java.net,0.061625000002095476,0.0,0.006480000000010477,0.0,0.06810500000210595
java.security,0.07918312499714375,0.0,0.008369375000256696,0.0,0.08755249999740045
java.util,0.0,0.09874327932609253,0.0,0.011615126552804573,0.1103584058788971
java.util.zip,0.7010931679667707,0.0,0.06357733766135622,0.0,0.7646705056281269
javassist,0.06866466666785223,0.0,0.008155000000745833,0.0,0.07681966666859806
javassist.bytecode,0.06082912499732629,0.0,0.004821250000228853,0.0,0.06565037499755515
org.dacapo.parser,0.057047466665972026,0.0,0.006240000000495153,0.0,0.06328746666646717
sun.misc,0.05577337500471913,0.0,0.005613124999854335,0.0,0.06138650000457346
