method,package1,dram1,energy
AbstractCodePointMapping.mapChar,0.04589062500002683,0.0036937500021849705,0.0495843750022118
AbstractLayoutManager.createChildLMs,0.14722424242418952,0.0119545454535083,0.15917878787769782
AbstractLayoutManager.getChildLM,0.15659566666662764,0.012754999998530062,0.1693506666651577
AbstractRenderer.renderText,0.1279499999999795,0.00841000000218628,0.13636000000216578
AppContext$2.run,0.06385629629632468,0.00472000000256769,0.06857629629889236
AttributeInfo.<init>,0.05310304301079419,0.006499354840069759,0.05960239785086395
Benchmark.fileFromInputStream,0.588684333333352,0.0370550000006915,0.6257393333340435
BreakingAlgorithm.considerLegalBreak,0.02691092000001504,0.002825550000998192,0.029736470001013232
ClassPool.makeClass,0.07241562500001444,0.006143750000167832,0.07855937500018227
CommandLineArgs.defineCallback,0.0,0.0,0.0
CommonAccessibility.<init>,0.037373999999961896,0.002380000000509123,0.03975400000047102
CompoundPropertyMaker.makeCompound,0.2175086666667312,0.01435999999133249,0.2318686666580637
Config.parse,0.011169666666660305,0.0009700000009615907,0.012139666667621896
ConfigFileTokenManager.jjMoveNfa_0,0.08935566666665788,0.008610000001984492,0.09796566666864237
ConstPool.readOne,0.08841288888880978,0.007088333331921603,0.09550122222073139
CorrespondingPropertyMaker.compute,0.07869466666666843,0.007849999999355834,0.08654466666602426
DacapoClassLoader.loadClass,0.2677892916666972,0.020483750004132162,0.28827304167082934
FONode.clone,0.0922443333333452,0.007614999997410146,0.09985933333075535
FixedColRowGroupBuilder.addTableCell,0.07096727272727492,0.0043090909104758985,0.07527636363775082
FontInfo.getInternalFontKey,0.07584666666669666,0.0041549999999309275,0.08000166666662759
FontSetup.setup,0.06628433333336639,0.00473999999667285,0.07102433333003924
Glyphs.stringToGlyph,0.15254733333328355,0.011420000004970158,0.1639673333382537
InputHandler.createMainSource,0.1188559999999749,0.007699999999507175,0.12655599999948208
Jdk14Logger.getLogger,0.03153477777779143,0.003340000000510675,0.034874777778302106
Launcher$AppClassLoader.loadClass,0.0,0.0,0.0
ListBlockLayoutManager.getParentArea,0.04742588888885595,0.0035795833335012296,0.05100547222235718
LogFactory.getContextClassLoader,0.053161333333340124,0.002959999997983686,0.05612133333132381
NumericOp.subtraction,0.1502890000000055,0.011124999999689559,0.16141399999969505
PSGenerator.<init>,0.04872666666669071,0.003575000000031044,0.05230166666672176
PSGenerator.formatDouble,0.10630266666665496,0.010415000001861092,0.11671766666851605
PSRenderer.renderText,0.19888596969697186,0.01979499999883542,0.21868096969580728
PropertyCache.fetch,0.052231212121183264,0.004463636364424459,0.05669484848560773
Resource.getBytes,0.02191155555556179,0.0015866666678145214,0.023498222223376313
SAXParserImpl.<init>,0.04961285714286879,0.005578571430565457,0.055191428573434245
SerializerBase.getLocalName,0.05413333333331721,0.002999999998838832,0.05713333333215605
StackMapTable$Walker.stackMapFrames,0.03153477777779143,0.003340000000510675,0.034874777778302106
SymbolTable.addSymbol,0.06926545454544711,0.005731818181988218,0.07499727272743532
TableBody.bind,0.07096727272727492,0.0043090909104758985,0.07527636363775082
TestHarness.main,0.07151299999994383,0.006050000001171914,0.07756300000111574
TextLayoutManager.getNextKnuthElements,0.07560840000002142,0.006569499999992937,0.08217790000001436
TimesBoldItalic.<init>,0.08133933333332757,0.005915000001550652,0.08725433333487823
US_ASCII$Decoder.decodeArrayLoop,0.06973250000001485,0.005568750002566958,0.07530125000258181
Utf8Info.<init>,0.02087400000004891,0.002330000000559569,0.023204000000608477
XMLEntityManager.<init>,0.04689547619044615,0.003928571428072505,0.05082404761851866
XMLEntityScanner.peekChar,0.09604435897437304,0.007515384616757122,0.10355974359113015
XMLEntityScanner.scanContent,0.07104151515153663,0.007163636363464209,0.07820515151500083
XMLScanner.scanCharReferenceValue,0.10990092307691576,0.00812307692383631,0.11802400000075207
