method,package1,dram1,energy
AbstractLayoutManager.createChildLMs|AbstractLayoutManager.createNextChildLMs|LMiter.hasNext,0.09191899999999956,0.007834999999128437,0.099753999999128
AlgorithmDecomposer.<clinit>|DisabledAlgorithmConstraints.<init>|SignatureFileVerifier.<clinit>,0.059692333333297626,0.004140000002128848,0.06383233333542647
Benchmark.fileFromInputStream|Benchmark.extractFileResource|Benchmark.prepareJars,0.36665155555558865,0.02392999999897761,0.39058155555456625
Benchmark.fileFromInputStream|Benchmark.unpackZipStream|Benchmark.unpackZipFileResource,0.059692333333297626,0.004140000002128848,0.06383233333542647
ClassPool.createCtClass|ClassPool.get0|ClassPool.get,0.10567233333332143,0.0076400000010229015,0.11331233333434433
CodeAttribute.<init>|AttributeInfo.read|MethodInfo.read,0.08809400000003127,0.0059250000000853715,0.09401900000011665
ConfigFileTokenManager.jjCheckNAdd|ConfigFileTokenManager.jjCheckNAddStates|ConfigFileTokenManager.jjMoveNfa_0,0.006171333333327311,0.0009066666655902127,0.007077999998917524
DacapoClassLoader.create|Benchmark.initialize|Benchmark.<init>,0.0599366666667341,0.005909999997432654,0.06584666666416675
DacapoClassLoader.loadClass|ClassLoader.loadClass|Class.forName0,0.1364631190475783,0.008783214286571214,0.14524633333414952
DacapoClassLoader.loadClass|ClassLoader.loadClass|ClassLoader.defineClass1,0.08218750000001053,0.0061406249983519965,0.08832812499836253
DacapoClassLoader.loadClass|ClassLoader.loadClass|FOElementMapping.initialize,0.10618066666665983,0.007095000000845175,0.113275666667505
DacapoClassLoader.loadClass|ClassLoader.loadClass|PSExtensionElementMapping.initialize,0.054382090909081686,0.004180909089468927,0.058562999998550615
DacapoClassLoader.loadClass|ClassLoader.loadClass|TableStepper.activateCells,0.06416799999995723,0.006049999998746594,0.07021799999870383
ElementListUtils.calcContentLength|ElementListUtils.calcContentLength|ListItemLayoutManager.getCombinedKnuthElementsForListItem,0.11113628571427267,0.006891428569880579,0.11802771428415325
ElementMappingRegistry.addElementMapping|ElementMappingRegistry.setupDefaultMappings|ElementMappingRegistry.<init>,0.07444266666664134,0.006474999999530458,0.0809176666661718
FObj.getPropertyMakerFor|PropertyList.findMaker|PropertyList.get,0.09970777777779302,0.007337499998053923,0.10704527777584695
FeatureState.<clinit>|ParserConfigurationSettings.checkFeature|XML11Configuration.checkFeature,0.07061236363633519,0.004352727273891849,0.07496509091022704
FileURLMapper.exists|URLClassPath$JarLoader.getJarFile|URLClassPath$JarLoader.access$800,0.05072033333332608,0.0011799999992945231,0.051900333332620605
FloatingDecimal$BinaryToASCIIBuffer.dtoa|FloatingDecimal$BinaryToASCIIBuffer.access$100|FloatingDecimal.getBinaryToASCIIConverter,0.08588812500001097,0.004424999999628199,0.09031312499963917
Glyphs.<clinit>|AbstractCodePointMapping.mapChar|Symbol.hasChar,0.0834205882353324,0.0055323529415866645,0.08895294117691906
Glyphs.loadGlyphList|Glyphs.<clinit>|AbstractCodePointMapping.mapChar,0.22814588235298605,0.014038235295789916,0.24218411764877595
Glyphs.stringToGlyph|Glyphs.charToGlyphName|PSFontUtils.defineWinAnsiEncoding,0.2438966666666147,0.01358999999744507,0.2574866666640598
JRELocaleProviderAdapter.getCalendarProvider|JRELocaleProviderAdapter.getLocaleServiceProvider|LocaleProviderAdapter.findAdapter,0.06298062499997313,0.0038718749988220225,0.06685249999879515
Jdk14Logger.getLogger|Jdk14Logger.<init>|NativeConstructorAccessorImpl.newInstance0,0.03861483333334566,0.0022624999995362787,0.04087733333288194
LayoutManagerMapping$FOTextLayoutManagerMaker.make|LayoutManagerMapping.makeLayoutManagers|AbstractLayoutManager.createChildLMs,0.08079314285711396,0.006085714285810743,0.0868788571429247
LineBreakStatus.nextChar|TextLayoutManager.getNextKnuthElements|LineLayoutManager.collectInlineKnuthElements,0.08127833333333001,0.00472500000129609,0.0860033333346261
LineLayoutManager.addAreas|BlockLayoutManager.addAreas|AreaAdditionUtil.addAreas,0.07796233333328928,0.004879999997986791,0.08284233333127607
LineLayoutManager.collectInlineKnuthElements|LineLayoutManager.getNextKnuthElements|BlockStackingLayoutManager.getNextKnuthElements,0.09793306666661013,0.007648000000820805,0.10558106666743093
LogFactoryImpl.isJdk14Available|LogFactoryImpl.getLogClassName|LogFactoryImpl.getLogConstructor,0.012023833333330458,0.0010799999993954164,0.013103833332725875
MemberrefInfo.<init>|MethodrefInfo.<init>|ConstPool.readOne,0.020385666666678997,0.0023399999990942892,0.022725666665773286
MethodInfo.read|MethodInfo.<init>|ClassFile.read,0.4476211416666549,0.03631649999794415,0.48393764166459907
NameAndTypeInfo.<init>|ConstPool.readOne|ConstPool.read,0.007812666666647297,0.0013600000020232985,0.009172666668670596
NamespaceMappings.lookupNamespace|ToXMLSAXHandler.ensurePrefixIsDeclared|ToXMLSAXHandler.startElement,0.06751158333337533,0.007209583330728088,0.07472116666410342
PSFontUtils.embedFont|PSFontUtils.writeFontDict|PSFontUtils.writeFontDict,0.11773699999995793,0.006489999997332537,0.12422699999729046
PSGenerator.formatDouble|PSGenerator.convertColorToPS|PSGenerator.useColor,0.1015826666666347,0.004740000001523488,0.10632266666815818
PSGenerator.formatDouble|PSRenderer.renderText|PSRenderer.renderWord,0.14328986666660057,0.010450000004008567,0.15373986667060913
PSRenderer.stopRenderer|RenderPagesModel.endDocument|AreaTreeHandler.endDocument,0.08949766666671621,0.0041350000028614895,0.0936326666695777
PSRenderer.writeHeader|PSRenderer.renderPage|RenderPagesModel.checkPreparedPages,0.08218750000001053,0.0061406249983519965,0.08832812499836253
PageBreakingAlgorithm.getLineWidth|PageBreakingAlgorithm.computeDifference|BreakingAlgorithm.considerLegalBreak,0.1015826666666347,0.004740000001523488,0.10632266666815818
PrimaryGridUnit.getStartEndBorderWidths|TableCellLayoutManager.getIPIndents|TableCellLayoutManager.getNextKnuthElements,0.1346640000000055,0.007625000000795505,0.142289000000801
PropertyList.get|CommonHyphenation.getInstance|PropertyList.getHyphenationProps,0.048794166666633984,0.004212499999185739,0.05300666666581973
PropertyMaker.findProperty|PropertyMaker.get|CompoundPropertyMaker.get,0.11983266666667684,0.009799999999813735,0.1296326666664906
Resource.getBytes|URLClassLoader.defineClass|URLClassLoader.access$100,0.23424466666666224,0.018980999999378884,0.2532256666660411
SpaceResolver$SpaceHandlingBreakPosition.notifyBreakSituation|SpaceResolver.performConditionalsNotification|AbstractBreaker.addAreas,0.06420124999998222,0.003829687502729939,0.06803093750271216
SpaceVal.<init>|BlockLayoutManager.initialize|AbstractLayoutManager.getChildLM,0.10614000000002002,0.004690000001573935,0.11083000000159396
StringProperty.hashCode|CommonHyphenation.hashCode|PropertyCache.hash,0.11983266666667684,0.009799999999813735,0.1296326666664906
TestHarness.<init>|TestHarness.main|Harness.main,0.023139111111112876,0.0026166666664519445,0.025755777777564822
TestHarness.twoDecimalPlaces|TestHarness.<clinit>|Harness.main,0.0,0.0,0.0
ToXMLSAXHandler.endElement|AbstractSAXParser.endElement|XIncludeHandler.endElement,0.1288180555555603,0.013366666664498756,0.14218472222005907
URLClassPath$JarLoader.getResource|URLClassPath.getResource|URLClassLoader$1.run,0.007237208333328719,0.0010540000015680565,0.008291208334896775
XIncludeHandler.<init>|XIncludeAwareParserConfiguration.configurePipeline|XML11Configuration.parse,0.04616300000001653,0.002920000001419491,0.04908300000143602
XMLAttributesImpl.addAttributeNS|XMLNSDocumentScannerImpl.scanAttribute|XMLNSDocumentScannerImpl.scanStartElement,0.10097688095238157,0.006681071429262548,0.10765795238164412
XMLDTDProcessor.<init>|XML11Configuration.<init>|XIncludeAwareParserConfiguration.<init>,0.04490133333338993,0.0005949999977019615,0.04549633333109189
XMLDocumentFragmentScannerImpl.scanDocument|XML11Configuration.parse|XML11Configuration.parse,0.067387490196057,0.0064564705909088286,0.07384396078696583
XMLWhiteSpaceHandler.handleWhiteSpace|XMLWhiteSpaceHandler.handleWhiteSpace|XMLWhiteSpaceHandler.handleWhiteSpace,0.11208419444446664,0.009849583332955564,0.1219337777774222
