method,hits
AbstractCodePointMapping.mapChar,2
AbstractLayoutManager.createChildLMs,2
AbstractLayoutManager.getChildLM,2
AbstractRenderer.renderText,2
AppContext$2.run,2
AttributeInfo.<init>,2
Benchmark.fileFromInputStream,18
BreakingAlgorithm.considerLegalBreak,2
ClassPool.makeClass,2
CommandLineArgs.defineCallback,2
CommonAccessibility.<init>,2
CompoundPropertyMaker.makeCompound,6
Config.parse,2
ConfigFileTokenManager.jjMoveNfa_0,2
ConstPool.readOne,4
CorrespondingPropertyMaker.compute,2
DacapoClassLoader.loadClass,6
FONode.clone,2
FixedColRowGroupBuilder.addTableCell,2
FontInfo.getInternalFontKey,2
FontSetup.setup,2
Glyphs.stringToGlyph,4
InputHandler.createMainSource,2
Jdk14Logger.getLogger,2
Launcher$AppClassLoader.loadClass,2
ListBlockLayoutManager.getParentArea,2
LogFactory.getContextClassLoader,2
NumericOp.subtraction,2
PSGenerator.<init>,2
PSGenerator.formatDouble,2
PSRenderer.renderText,4
PropertyCache.fetch,2
Resource.getBytes,2
SAXParserImpl.<init>,2
SerializerBase.getLocalName,2
StackMapTable$Walker.stackMapFrames,2
SymbolTable.addSymbol,2
TableBody.bind,2
TestHarness.main,2
TextLayoutManager.getNextKnuthElements,2
TimesBoldItalic.<init>,2
US_ASCII$Decoder.decodeArrayLoop,2
Utf8Info.<init>,2
XMLEntityManager.<init>,2
XMLEntityScanner.peekChar,2
XMLEntityScanner.scanContent,2
XMLScanner.scanCharReferenceValue,2
