method,package1,package2,dram1,dram2,energy
AbstractSAXParser$LocatorProxy,0.0,0.042765333331772126,0.0,0.005460000000311993,0.04822533333208412
ActiveCell,0.07533649931372466,0.0,0.004849174635945686,0.0,0.08018567394967034
AttributesImpl,0.0,0.12109366666603212,0.0,0.011609999998957694,0.1327036666649898
CharacterProperty,0.07348292047876667,0.0,0.004778076784670918,0.0,0.07826099726343759
ClassPool,0.0,0.051981740742458316,0.0,0.00745111110962979,0.0594328518520881
CommonBorderPaddingBackground,0.0,0.058634333331913986,0.0,0.0068399999994047285,0.06547433333131872
FOPropertyMapping,0.07530859463414359,0.0,0.009997642192177752,0.0,0.08530623682632134
FObj,0.03483336195414133,0.1417236666699561,0.004037265500681288,0.015079999999822272,0.19567429412460097
FloatingDecimal$ASCIIToBinaryBuffer,0.0493250677144164,0.0,0.005763595835840322,0.0,0.055088663550256725
FloatingDecimal$BinaryToASCIIBuffer,0.04416265933979475,0.12109366666603212,0.004402414553622325,0.011609999998957694,0.18126874055840692
FontFamilyProperty,0.05247472873314652,0.0,0.005774404332632435,0.0,0.05824913306577895
IndentPropertyMaker,0.0493250677144164,0.0,0.005763595835840322,0.0,0.055088663550256725
LengthProperty,0.06811935996313083,0.0,0.006250030047383094,0.0,0.07436939001051393
LineBreakStatus,0.0,0.10941566666830717,0.0,0.014080000000831204,0.12349566666913837
PSRenderer,0.0,0.06288633333072842,0.0,0.008249999998952262,0.07113633332968068
PartiallyOrderedSet,0.0,0.05952966666518478,0.0,0.00683500000013737,0.06636466666532215
PropertyList,0.07348292047876667,0.0,0.004778076784670918,0.0,0.07826099726343759
RecursiveCharIterator,0.0,0.11383066666409528,0.0,0.011960000001029886,0.12579066666512517
SAXParserFactoryImpl,0.0,0.062214999998104765,0.0,0.010940000000118744,0.0731549999982235
StaticPropertyList,0.08861812729818644,0.0,0.009457068604798287,0.0,0.09807519590298472
TextLayoutManager,0.041196495621346335,0.0,0.002634157790714525,0.0,0.04383065341206086
TransformerFactoryImpl,0.0,0.09466533333276553,0.0,0.013760000001639128,0.10842533333440466
Unsafe,0.0,0.07891866666614078,0.0,0.00960000000001552,0.08851866666615629
XIncludeAwareParserConfiguration,0.0,0.08616099999926519,0.0,0.012355000001358954,0.09851600000062415
XML11Configuration,0.0,0.05658618518376628,0.0,0.009628888888983056,0.06621507407274933
XMLDocumentFragmentScannerImpl,0.0663075817249327,0.0,0.00760695123981802,0.0,0.07391453296475073
XMLEntityManager,0.0,0.06937207407382731,0.0,0.010651666667803915,0.08002374074163122
XMLEntityScanner,0.0,0.20670600000448758,0.0,0.02469999999933255,0.23140600000382014
