method,package1,package2,dram1,dram2,energy
ASCIICaseInsensitiveComparator.compare|ASCIICaseInsensitiveComparator.compare|Attributes$Name.equals,0.0,0.06799325000065437,0.0,0.009982500001569859,0.07797575000222423
AbstractBaseLayoutManager.setGeneratesBlockArea|BlockStackingLayoutManager.<init>|BlockLayoutManager.<init>,0.07716460521384014,0.0,0.003953426723423578,0.0,0.08111803193726372
AppContext$2.run|AppContext$2.run|AccessController.doPrivileged,0.0,0.16142272916673994,0.0,0.021206250000735356,0.1826289791674753
AppContext.<init>|SunToolkit.createNewAppContext|AppContext$2.run,0.0,0.07183833333450214,0.0,0.008169999998547912,0.08000833333305005
AttributeInfo.<init>|LineNumberAttribute.<init>|AttributeInfo.read,0.0,0.0770670000007764,0.0,0.010899999998703908,0.08796699999948031
Courier.getWidth|Font.getWidth|Font.getCharWidth,0.08380346206184529,0.0,0.0074590364317145205,0.0,0.0912624984935598
FObjMixed.flushText|FObjMixed.endOfNode|Inline.endOfNode,0.07821907440742402,0.0,0.008342483590621126,0.0,0.08656155799804516
FontFamilyProperty$Maker.make|PropertyList.convertAttributeToProperty|PropertyList.addAttributesToList,0.07042165199569671,0.0,0.004638451211871775,0.0,0.07506010320756848
FontSetup.setup|PrintRenderer.setupFontInfo|RenderPagesModel.<init>,0.0,0.05494800000063455,0.0,0.009372000000439584,0.06432000000107413
Glyphs.loadGlyphList|Glyphs.<clinit>|AbstractCodePointMapping.mapChar,0.08361716553829228,0.0,0.004828026984496986,0.0,0.08844519252278926
Glyphs.stringToGlyph|Glyphs.charToGlyphName|PSFontUtils.defineWinAnsiEncoding,0.07524075189788976,0.0,0.004602182400173519,0.0,0.07984293429806327
HelveticaBold.<clinit>|FontSetup.setup|PrintRenderer.setupFontInfo,0.0,0.03339840000068458,0.0,0.005472000001464039,0.03887040000214862
IIORegistry.<clinit>|ImageIO.<clinit>|ImageLoaderFactoryImageIO.getSupportedMIMETypes,0.0,0.0829825208334114,0.0,0.009977500000180346,0.09296002083359174
IIORegistry.registerStandardSpis|IIORegistry.<init>|IIORegistry.getDefaultInstance,0.0,0.10599766666564392,0.0,0.0123200000016368,0.11831766666728072
KeepProperty.hashCode|PropertyCache.get|PropertyCache.fetch,0.05379927025349278,0.0,0.0045254598159038045,0.0,0.058324730069396584
LineBreakStatus.nextChar|TextLayoutManager.getNextKnuthElements|LineLayoutManager.collectInlineKnuthElements,0.08839505434060585,0.0,0.005129604115825478,0.0,0.09352465845643133
PSState.<clinit>|PSGenerator.<init>|PSRenderer$1.<init>,0.0,0.05970053333439865,0.0,0.009916000000278776,0.06961653333467742
PrimaryGridUnit.<clinit>|FixedColRowGroupBuilder.addTableCell|TableCellContainer.addTableCellChild,0.06130981647664156,0.0,0.00401154742692604,0.0,0.0653213639035676
PropertyCache.get|PropertyCache.fetch|PropertyCache.fetch,0.07115633115732248,0.0,0.0046011687888079566,0.0,0.07575749994613043
PropertyList.findSubPropertyName|PropertyList.isValidPropertyName|PropertyList.convertAttributeToProperty,0.027510237775051488,0.0,0.0016396793779065114,0.0,0.029149917152957998
PropertyParser.parseArgs|PropertyParser.parsePrimaryExpr|PropertyParser.parseUnaryExpr,0.05379927025349278,0.0,0.0045254598159038045,0.0,0.058324730069396584
SpaceProperty$Maker.makeNewProperty|CompoundPropertyMaker.makeCompound|CompoundPropertyMaker.convertProperty,0.07131915780358554,0.0,0.0045976689913201025,0.0,0.07591682679490565
TimesRoman.getWidth|Font.getWidth|Font.getCharWidth,0.09557528003252412,0.0,0.0075880230547178545,0.0,0.10316330308724198
TransletOutputHandlerFactory.getSerializationHandler|TransformerImpl.getOutputHandler|TransformerImpl.transform,0.05397218886792892,0.0,0.003999827010231646,0.0,0.05797201587816057
US_ASCII.newDecoder|StreamDecoder.<init>|StreamDecoder.forInputStreamReader,0.05925124282657272,0.0,0.00402098711974285,0.0,0.06327222994631557
UTF8Reader.read|XMLEntityScanner.load|XMLEntityScanner.scanQName,0.09430057358645977,0.0,0.011918270113986662,0.0,0.10621884370044643
UTF_8$Encoder.encodeArrayLoop|UTF_8$Encoder.encodeLoop|CharsetEncoder.encode,0.05500484754052718,0.0,0.00680476315678354,0.0,0.061809610697310724
XIncludeAwareParserConfiguration.configurePipeline|XML11Configuration.parse|XML11Configuration.parse,0.053309989896653816,0.0,0.004131362280666319,0.0,0.05744135217732013
XIncludeNamespaceSupport.pushContext|XMLNSDocumentScannerImpl.scanStartElement|XMLDocumentFragmentScannerImpl$FragmentContentDriver.next,0.07425040065636282,0.0,0.0044757200351706345,0.0,0.07872612069153345
XML11Configuration.<init>|XIncludeAwareParserConfiguration.<init>|XIncludeAwareParserConfiguration.<init>,0.0,0.08087166666761428,0.0,0.009925000000900278,0.09079666666851456
XMLAttributesImpl.checkDuplicatesNS|XMLNSDocumentScannerImpl.scanStartElement|XMLDocumentFragmentScannerImpl$FragmentContentDriver.next,0.08284876407338485,0.0,0.006887655612222996,0.0,0.08973641968560785
XMLEntityManager.expandSystemIdStrictOff|XMLEntityManager.expandSystemId|XMLEntityManager.setupCurrentEntity,0.05505475464934344,0.0,0.0036964503445128705,0.0,0.05875120499385631
XMLEntityManager.setupCurrentEntity|XMLVersionDetector.determineDocVersion|XML11Configuration.parse,0.053309989896653816,0.0,0.004131362280666319,0.0,0.05744135217732013
XMLEntityScanner.scanQName|XMLNSDocumentScannerImpl.scanStartElement|XMLDocumentFragmentScannerImpl$FragmentContentDriver.next,0.06350472123064699,0.0,0.006040303121193074,0.0,0.06954502435184007
