method,package1,dram1,energy
java.awt,0.11045515151519075,0.008036363638397728,0.11849151515358848
java.io,0.2986664848484541,0.025488181817997953,0.32415466666645204
java.lang,0.5756374450018414,0.04375259403969731,0.6193900390415388
java.lang.ref,0.0635376666667374,0.00473499999983081,0.0682726666665682
java.net,0.0472210256410236,0.004027692306501707,0.05124871794752531
java.security,0.07029222222216605,0.0054333333294683435,0.07572555555163439
java.util,0.30064065897438996,0.02423269230551877,0.32487335127990874
java.util.logging,0.06612149999997048,0.008549999999862242,0.07467149999983272
java.util.regex,0.07737233333326306,0.006645000001299195,0.08401733333456225
java.util.zip,0.5658176373627759,0.04538192308826935,0.6111995604510453
