method,hits
AccessController.doPrivileged,2
Arrays.copyOf,4
BufferedInputStream.read,4
Class.getDeclaredConstructors0,2
Class.getDeclaredMethods0,2
ClassLoader.defineClass1,6
ClassLoader.findLoadedClass0,2
DataInputStream.readUTF,2
EventQueue.<clinit>,2
FileOutputStream.<init>,2
FileOutputStream.writeBytes,4
Hashtable.<init>,2
Hashtable.get,2
Hashtable.rehash,2
Inflater.inflateBytes,14
LogManager.<init>,2
LogManager.readPrimordialConfiguration,2
Pattern.union,2
SoftReference.get,2
String.charAt,2
String.hashCode,2
StringBuffer.length,2
System.arraycopy,2
Toolkit.<clinit>,2
TreeMap.put,2
URLStreamHandler.getHostAddress,2
ZipFile.open,2
ZipFile.read,2
