method,package2,dram2,energy
com.sun.org.apache.xerces.internal.impl,0.07055918623843924,0.010553875602387236,0.08111306184082648
com.sun.org.apache.xerces.internal.jaxp,0.07356578946314289,0.010378707683504443,0.08394449714664734
com.sun.org.apache.xerces.internal.parsers,0.20530866063088654,0.03152350235934771,0.23683216299023424
com.sun.org.apache.xerces.internal.util,0.08240239464031514,0.01033034124867864,0.09273273588899378
java.io,0.5955755454395771,0.09138390795285911,0.6869594533924362
java.lang,0.762072691208868,0.11283878340653189,0.8749114746153999
java.nio,0.03335412820509684,0.005236587755772162,0.038590715960869
java.text,0.24456926462997494,0.04064462519934871,0.28521388982932366
java.util,0.3945470557928441,0.06362470201241559,0.4581717578052597
java.util.jar,0.029623958898312163,0.0039486343228928,0.03357259322120496
java.util.zip,0.4934793687679588,0.07827491202732248,0.5717542807952812
org.apache.fop.fo,0.21932277916290976,0.03330140797294753,0.2526241871358573
org.apache.fop.fo.expr,0.05327157002542584,0.005316039127941072,0.05858760915336691
org.apache.fop.fo.flow,0.11586024758810652,0.016640563520727094,0.1325008111088336
org.apache.fop.fo.properties,0.0815725519979951,0.01046027509507843,0.09203282709307353
org.apache.fop.fonts,0.05904823117964799,0.008157210096930939,0.06720544127657893
org.apache.fop.image.loader.batik,0.08010581206423903,0.009081121448263035,0.08918693351250206
org.apache.fop.layoutmgr,0.2815699864240832,0.03691892338881013,0.31848890981289335
org.apache.fop.layoutmgr.inline,0.17960871203557166,0.02375731648307918,0.20336602851865085
org.apache.fop.render.ps,0.08268146886751235,0.0105185429161055,0.09320001178361785
org.apache.fop.text.linebreak,0.14302000089313618,0.01943752088872306,0.16245752178185924
org.apache.xmlgraphics.fonts,0.40908184748765153,0.05578128060221847,0.46486312808987
org.dacapo.harness,0.0,0.0,0.0
sun.misc,0.031316150728118525,0.0038694698648409774,0.0351856205929595
sun.security.util,0.06277449999834063,0.009281250000640284,0.07205574999898091
