method,hits
ASCIICaseInsensitiveComparator.compare,2
AbstractBaseLayoutManager.setGeneratesBlockArea,2
AbstractStringBuilder.<init>,2
AppContext$2.run,4
AppContext.<init>,2
AttributeInfo.<init>,2
BufferedInputStream.read,6
Class.getDeclaredConstructors0,2
ClassLoader.defineClass1,4
Courier.getWidth,2
FObjMixed.flushText,2
FileOutputStream.writeBytes,2
FontFamilyProperty$Maker.make,2
FontSetup.setup,2
Glyphs.loadGlyphList,2
Glyphs.stringToGlyph,2
HelveticaBold.<clinit>,2
IIORegistry.<clinit>,2
IIORegistry.registerStandardSpis,2
Inflater.inflateBytes,2
KeepProperty.hashCode,2
LineBreakStatus.nextChar,2
LinkedList.linkLast,2
PSState.<clinit>,2
PrimaryGridUnit.<clinit>,2
PropertyCache.get,2
PropertyList.findSubPropertyName,2
PropertyParser.parseArgs,2
SimpleDateFormat.initializeCalendar,2
SpaceProperty$Maker.makeNewProperty,2
String.charAt,2
String.compareTo,2
String.getChars,2
StringBuffer.append,2
StringBuffer.length,4
TimesRoman.getWidth,2
TransletOutputHandlerFactory.getSerializationHandler,2
US_ASCII.newDecoder,2
UTF8Reader.read,2
UTF_8$Encoder.encodeArrayLoop,2
UnixFileSystem.getBooleanAttributes0,2
XIncludeAwareParserConfiguration.configurePipeline,2
XIncludeNamespaceSupport.pushContext,2
XML11Configuration.<init>,2
XMLAttributesImpl.checkDuplicatesNS,2
XMLEntityManager.expandSystemIdStrictOff,2
XMLEntityManager.setupCurrentEntity,2
XMLEntityScanner.scanQName,2
