method,package1,package2,dram1,dram2,energy
AbstractLayoutManager,0.0,0.10003666666792316,0.0,0.012240000001232449,0.1122766666691556
AffineTransform,0.0,0.09401388657163068,0.0,0.012261586431481892,0.10627547300311257
AppContext,0.0696702657953772,0.0,0.005344616921543388,0.0,0.0750148827169206
AppContext$2,0.07188635585762419,0.0,0.0052770918996160685,0.0,0.07716344775724027
BufferedInputStream,0.1281351425978274,0.0,0.013799252554050685,0.0,0.14193439515187808
BufferedOutputStream,0.053324333333345436,0.0,0.006900000000314321,0.0,0.06022433333365976
BufferedReader,0.0,0.11604833333209776,0.0,0.01366500000100738,0.12971333333310514
ClassLoader,0.07080066666670366,0.08133933333495709,0.00787500000054327,0.009610000000975559,0.1696250000031796
CollapsingBorderModel,0.0,0.07404428571213169,0.0,0.009415714286400804,0.08345999999853249
CommonHyphenation,0.0,0.10379204968284476,0.0,0.014548488832218978,0.11834053851506374
ConfigFile,0.041951666666667116,0.0,0.004929999997936344,0.0,0.04688166666460346
FOElementMapping,0.05641865513828314,0.0,0.005957161481865442,0.0,0.062375816620148586
FObj,0.0,0.028860857142717574,0.0,0.0035314285716075188,0.03239228571432509
FileOutputStream,0.06835933333331923,0.0,0.006895000001046961,0.0,0.0752543333343662
FloatingDecimal$BinaryToASCIIBuffer,0.0,0.15813946666768364,0.0,0.02107560000033118,0.17921506666801482
Font,0.0,0.08878566666680854,0.0,0.010904999997971268,0.09969066666477981
FontSetup,0.03672148305818696,0.0,0.002775626212277353,0.0,0.03949710927046431
FopFactory,0.017244869484962618,0.0,0.002651508018408157,0.0,0.019896377503370775
Glyphs,0.0,0.20434566666760173,0.0,0.027305000000827324,0.23165066666842907
Gregorian,0.0,0.07554100000076383,0.0,0.010935000000851385,0.08647600000161522
Hashtable,0.04113727784669344,0.08742266666619494,0.005583430883758205,0.011019999998097774,0.14516337539474436
Inflater,0.6979003192582487,0.0,0.07439008323571503,0.0,0.7722904024939637
InflaterInputStream,0.13002562739051307,0.0,0.01247440405616864,0.0,0.14250003144668172
LayoutContext,0.0,0.06546374074160767,0.0,0.008462222221607118,0.07392596296321478
Logger,0.0645180565697407,0.1300250000009934,0.006960569544995257,0.016394999998738058,0.21789862611446742
MapMaker,0.04113727784669344,0.0,0.005583430883758205,0.0,0.04672070873045164
Math,0.0,0.08133933333495709,0.0,0.009610000000975559,0.09094933333593265
MethodAccessorGenerator,0.030039494520751206,0.0,0.0037777668299158046,0.0,0.03381726135066701
NCnameProperty,0.0,0.05071999999684825,0.0,0.006860000001324806,0.05757999999817306
Page,0.0,0.1338835000013205,0.0,0.01425000000175108,0.14813350000307157
PropertyList,0.0,0.21488433333191398,0.0,0.024669999998877756,0.23955433333079174
SAXParser,0.06390190941907974,0.0,0.004421750647125086,0.0,0.06832366006620483
SAXParserImpl,0.07718776585197779,0.0,0.006581013775757054,0.0,0.08376877962773484
SimpleDateFormat,0.0,0.15688066666674177,0.0,0.021894999998039566,0.17877566666478134
SpaceVal,0.0,0.12900800000109786,0.0,0.014395000000755925,0.14340300000185377
StaticPropertyList,0.0,0.050577666666261685,0.0,0.0065049999999852535,0.05708266666624694
String,0.0,0.09763599999860162,0.0,0.010970000000573538,0.10860599999917515
StringBuffer,0.0,0.100744031747112,0.0,0.012191666668629279,0.11293569841574128
TextLayoutManager,0.0,0.08395157750183678,0.0,0.011708137159711637,0.09565971466154842
TraitSetter,0.0,0.13590466666452508,0.0,0.016495000001062483,0.15239966666558757
TransletOutputHandlerFactory,0.0,0.05385570370385216,0.0,0.007288888888002406,0.06114459259185457
TreeMap,0.0,0.09444166666798992,0.0,0.010909999999663949,0.10535166666765387
URL,0.06508811244618445,0.0,0.005067958511328283,0.0,0.07015607095751274
XIncludeAwareParserConfiguration,0.0,0.14894370370354776,0.0,0.020728888889102057,0.16967259259264983
XMLAttributesImpl,0.0,0.10457366666620753,0.0,0.010920000000623986,0.11549366666683152
XMLDocumentFragmentScannerImpl,0.0,0.12548833333615522,0.0,0.013344999999389984,0.1388333333355452
XMLDocumentFragmentScannerImpl$FragmentContentDriver,0.0,0.07564857143110462,0.0,0.009445714284083806,0.08509428571518843
XMLEntityStorage,0.032415325411176026,0.0,0.002805272889380077,0.0,0.0352205983005561
ZipFile,0.19105482953218722,0.12917066666705068,0.023448147860630236,0.0150299999974474,0.35870364405731553
ZipFile$ZipFileInputStream,0.051010284173609435,0.0,0.006571871233247827,0.0,0.057582155406857266
ZoneInfoFile,0.0,0.10909000000053007,0.0,0.015044999997674797,0.12413499999820486
