method,package1,dram1,energy
AbstractLayoutManager.addMarkersToPage,0.0657171548281686,0.004141855921813741,0.06985901074998234
AbstractPathOrientedRenderer.drawBorders,0.06124805446232846,0.0055618518669170785,0.06680990632924554
AbstractStringBuilder.<init>,0.07699333055819996,0.004427620464205768,0.08142095102240572
ArrayList.ensureExplicitCapacity,0.08006733298390896,0.007710426483071872,0.08777775946698083
Arrays.copyOf,0.029739638499982162,0.0018887012811446406,0.0316283397811268
BlockLayoutManager$ProxyLMiter.hasNext,0.08555485411958991,0.004551906281211912,0.09010676040080182
BlockLayoutManager.addAreas,0.03943834676221293,0.0046940166070893186,0.04413236336930225
BlockStackingLayoutManager.getBreakBefore,0.0913729413229185,0.004456091257640711,0.0958290325805592
BreakingAlgorithm.considerLegalBreak,0.030948062785965725,0.0021691493653645776,0.0331172121513303
BufferedInputStream.read,0.02224307801482154,0.002435042125593837,0.024678120140415375
Calendar$Builder.build,0.043691181865262586,0.002888751297608534,0.04657993316287112
Class.forName0,0.08791922011741884,0.006418924511117895,0.09433814462853674
Class.getDeclaredMethods0,0.028760419301730226,0.0030168487957766303,0.031777268097506854
ClassLoader.defineClass1,0.2874260242989314,0.020070270144461475,0.3074962944433929
ClassLoader.findBootstrapClass,0.07958755180485669,0.006242750394634088,0.08583030219949078
Color.getColorSpace,0.046763793492320016,0.003215283057946539,0.04997907655026655
CondLengthProperty$Maker.makeNewProperty,0.05219731610310769,0.003745292612434311,0.055942608715542
ConfigFile.<init>,0.05693228823479436,0.005682188174309042,0.0626144764091034
CtClassType.makeFieldCache,0.06528896054777718,0.004441094834206353,0.06973005538198353
DataInputStream.readUnsignedShort,0.0416410822080354,0.0027474560222895327,0.04438853823032493
DecimalFormat.subformat,0.0751382813005196,0.003908652400752046,0.07904693370127164
Double.doubleToLongBits,0.0810911957606044,0.007249055713361952,0.08834025147396636
FOElementMapping$RegionAfterMaker.make,0.04529457844533009,0.003467704145533805,0.04876228259086389
FOElementMapping.initialize,0.0619395394951962,0.004126562957701125,0.06606610245289732
FONode.getUserAgent,0.085721180729127,0.005725927579553056,0.09144710830868005
FONode.setLocator,0.049875134934752,0.003615739146384513,0.053490874081136515
FObj.<clinit>,0.05324710245287133,0.004266912793401328,0.05751401524627266
FObj.addChildNode,0.2349797011862117,0.021698122734004486,0.2566778239202162
FObj.createPropertyList,0.0484749348802208,0.0028591705393804364,0.05133410541960124
FileOutputStream.writeBytes,0.1566325176623142,0.010503210831368681,0.16713572849368288
FontFamilyProperty$Maker.make,0.08477433075445627,0.004997366099607133,0.0897716968540634
FontSetup.setup,0.08820241990039383,0.005953122149597186,0.09415554204999102
Glyphs.loadGlyphList,0.059566497260872216,0.0035088274464725824,0.0630753247073448
Glyphs.stringToGlyph,0.043535712936556566,0.0027324875200800173,0.046268200456636585
Gregorian.newCalendarDate,0.02008154948512444,0.0013942965341305546,0.021475846019254997
Hashtable.get,0.023061994021673592,0.001701743835998406,0.024763737857671997
IIORegistry.getDefaultInstance,0.029419314724915782,0.002081976446396619,0.0315012911713124
Inflater.ensureOpen,0.07545243843853193,0.005787325776915831,0.08123976421544776
Inflater.inflateBytes,0.6154768677270316,0.04675145335622846,0.66222832108326
InlineLayoutManager.addAreas,0.043312899839320934,0.0026491979042227395,0.04596209774354367
LayoutManagerMapping$BlockLayoutManagerMaker.make,0.04495619190820885,0.0050203554764759895,0.049976547384684836
LineBreakStatus.nextChar,0.02219458836832721,0.0014844653936422411,0.02367905376196945
LinkedList$ListItr.previous,0.06839285292242332,0.004254786651200492,0.07264763957362382
LocatorImpl.<init>,0.06083368016478202,0.003986181658758444,0.06481986182354046
LogManager.getLevelProperty,0.06528896054777718,0.004441094834206353,0.06973005538198353
Logger.<init>,0.0066284885183906525,0.000744914893760975,0.007373403412151628
MethodAccessorGenerator.generate,0.0619074813135983,0.004056144624081753,0.06596362593768006
PageNumberLayoutManager.initialize,0.043312899839320934,0.0026491979042227395,0.04596209774354367
PropertyList.getBorderPaddingBackgroundProps,0.0963505884043358,0.008218509186100276,0.10456909759043607
PropertyParser.parse,0.1032806866978308,0.010203320228210995,0.1134840069260418
ResourceTracker.registerSuppliedResource,0.045549216665357765,0.0030347312565421817,0.04858394792189995
Root.getFOEventHandler,0.0369837716849268,0.002649198304829485,0.03963296998975629
SAXParserImpl.<init>,0.09776331212347378,0.007153515111782048,0.10491682723525583
SVGDOMImplementation.initLocalizable,0.02224307801482154,0.002435042125593837,0.024678120140415375
SimpleCharStream.UpdateLineColumn,0.01638195608644702,0.0011043701227892947,0.017486326209236312
String.hashCode,0.07201310055208712,0.0044806169991703695,0.07649371755125749
String.intern,0.0730790344517709,0.004312938943399038,0.07739197339516994
String.lastIndexOf,0.04591393012174397,0.003014303914821972,0.04892823403656594
StringBuffer.append,0.06276394900670246,0.0040253485218756544,0.06678929752857811
TableCell.validateChildNode,0.085721180729127,0.005725927579553056,0.09144710830868005
TestHarness.twoDecimalPlaces,0.0,0.0,0.0
TextLayoutManager.createTextArea,0.0707138546614298,0.007275995273811245,0.07798984993524105
ToXMLSAXHandler.<init>,0.06375845556565247,0.004025498777959589,0.06778395434361206
TransletOutputHandlerFactory.getSerializationHandler,0.06375845556565247,0.004025498777959589,0.06778395434361206
TreeMap.put,0.025323278276181853,0.0016428770018478685,0.026966155278029723
TreeMap.setColor,0.05802287068475082,0.0033361848556964922,0.061359055540447315
UTF8Reader.read,0.06083368016478202,0.003986181658758444,0.06481986182354046
XIncludeHandler.<init>,0.06678879460436951,0.005170402780759078,0.07195919738512858
XIncludeHandler.startElement,0.04265127938477508,0.003024559797368525,0.0456758391821436
XML11Configuration.<init>,0.03564910260377143,0.003089255616669397,0.038738358220440826
XML11Configuration.configurePipeline,0.055021680087763626,0.0040361537696173904,0.05905783385738102
XMLAttributesImpl.getValue,0.06919796096561018,0.004486789909948196,0.07368475087555837
XMLDocumentFragmentScannerImpl.scanDocument,0.07455887400849219,0.00449573764422374,0.07905461165271593
XMLEntityManager.<init>,0.03751893672274605,0.002586226199103116,0.040105162921849166
XMLEntityManager.setScannerVersion,0.030554849959166026,0.0020776163485289947,0.03263246630769502
XMLEntityManager.setupCurrentEntity,0.055021680087763626,0.0040361537696173904,0.05905783385738102
XMLEntityScanner.getBaseSystemId,0.06678879460436951,0.005170402780759078,0.07195919738512858
XMLSecurityManager$Limit.<clinit>,0.06594294133470413,0.005248236492830461,0.07119117782753459
XMLWhiteSpaceHandler.handleWhiteSpace,0.14891967658141558,0.008975250701980129,0.15789492728339571
ZipFile$ZipFileInflaterInputStream.close,0.012737934668239206,0.0008245522463942058,0.013562486914633413
ZipFile.read,0.06781688125450928,0.004595844774913054,0.07241272602942234
