time,sys_package,sys_dram,sock1_app_package,sock1_app_dram,sock2_app_package,sock2_app_dram
0,0.0,0.0,0.0,0.0,0.0,0.0
1,0.0,0.0,0.0,0.0,0.0,0.0
2,0.0,0.0,0.0,0.0,0.0,0.0
3,0.0,0.0,0.0,0.0,0.0,0.0
4,0.0,0.0,0.0,0.0,0.0,0.0
5,0.0,0.0,0.0,0.0,0.0,0.0
6,0.0,0.0,0.0,0.0,0.0,0.0
7,0.0,0.0,0.0,0.0,0.0,0.0
8,0.0,0.0,0.0,0.0,0.0,0.0
9,0.0,0.0,0.0,0.0,0.0,0.0
10,0.09452984839269074,0.010956186002433668,0.0775215496086381,0.006287722161980162,0.10426833333379666,0.015034999999140078
11,0.09452984839269074,0.010956186002433668,0.08439108693945853,0.0068449058397524725,0.10426833333379666,0.015034999999140078
12,0.014434166516334196,0.001745855098916766,0.016477658262640485,0.001933518866780745,0.010701666668561908,0.0013599999995979788
13,0.014434166516334196,0.001745855098916766,0.015465675373384582,0.0018147709246856024,0.010701666668561908,0.0013599999995979788
14,0.008629396369945318,0.001217514381151225,0.007199835581073968,0.0009468853446436967,0.009236666667372143,0.0013800000015180556
15,0.008629396369945318,0.001217514381151225,0.00736103834634805,0.0009680859032169104,0.009236666667372143,0.0013800000015180556
16,0.009601386671628992,0.0012178024156211265,0.007635138172522045,0.000947863618599359,0.010538666664312284,0.0013599999995979788
17,0.009601386671628992,0.0012178024156211265,0.007382755148540228,0.0009165315482452957,0.010538666664312284,0.0013599999995979788
18,0.008513075245020964,0.0012251882466685756,0.00741570096385738,0.0009182616627758147,0.008382000002408555,0.0013799999990927365
19,0.008513075245020964,0.0012251882466685756,0.007804148548739834,0.0009663618392707783,0.008382000002408555,0.0013799999990927365
20,0.08290165457008025,0.010826486939319969,0.06469913907320668,0.007896667779495192,0.08917233333098314,0.012300000002142042
21,0.08290165457008025,0.010826486939319969,0.07619988511751292,0.00930035833904762,0.08917233333098314,0.012300000002142042
22,0.009396271790010203,0.0012168220680552058,0.0074776438796158124,0.0009402456556800305,0.010254000000713859,0.0013599999995979788
23,0.009396271790010203,0.0012168220680552058,0.007603812541014777,0.0009561102164525387,0.010254000000713859,0.0013599999995979788
24,0.008992313685012913,0.0012150771697450541,0.007378768887826987,0.0009090308405491725,0.009460333332147759,0.0013799999990927365
25,0.008992313685012913,0.0012150771697450541,0.0077179370745706155,0.0009508148219382274,0.009460333332147759,0.0013799999990927365
26,0.010362557785170822,0.0014156249863158622,0.009227846549845691,0.001294050908859305,0.010233666667772923,0.0013599999995979788
27,0.010362557785170822,0.0014156249863158622,0.0014597045474328838,0.0002046991122000366,0.010233666667772923,0.0013599999995979788
28,0.09616474823471953,0.013428686445981303,0.005740177610039204,0.0007663850543235959,0.05723066666784385,0.008820000000317425
29,0.09616474823471953,0.013428686445981303,0.013640992588514304,0.0018212420514118735,0.05723066666784385,0.008820000000317425
30,0.12485511914189133,0.01098566949631557,0.006013426216682436,0.0005360401547330827,0.08992506666497016,0.007727999998799835
31,0.1360957524750126,0.011951669496165551,0.15896940216445418,0.014170620851330841,0.08992506666497016,0.007727999998799835
32,0.02888307810146121,0.0027562202255500337,0.006071416401064253,0.00044957186876328495,0.016259733335270234,0.0021920000008928283
33,0.02888307810146121,0.0027562202255500337,0.0034840940650204696,0.000257987687927937,0.016259733335270234,0.0021920000008928283
34,0.10554130323485006,0.00998351962702411,0.007291315667948381,0.0006174097942796793,0.053255199997996286,0.0061839999999695775
35,0.10554130323485006,0.00998351962702411,0.016835077860170085,0.0014255509474128529,0.053255199997996286,0.0061839999999695775
36,0.06287017513048594,0.0071285730247047045,0.003915784605510564,0.00031821239651800377,0.04145520000020042,0.006600000000617001
37,0.17603649036536065,0.019960004469173172,0.0007075148730507119,5.7495502436156886e-05,0.04145520000020042,0.006600000000617001
38,1.0105086492316344,0.10182350828838106,0.26214081548691165,0.02664637198162024,0.3514974222233933,0.03521866666722215
39,0.6496127030774792,0.06545796961395926,0.25867689819015705,0.026294267985028,0.3514974222233933,0.03521866666722215
40,0.04271585374520933,0.00634814809304797,0.03082596458917501,0.004738852515176872,0.050063684523289936,0.007259196428527675
41,0.04537747792258254,0.006757317590109866,0.035141194261775026,0.005402229550092025,0.050063684523289936,0.007259196428527675
42,0.007733759855102747,0.0008847377904898676,0.0050827100403242325,0.0005797540827041626,0.008683946427871497,0.000995714285419949
43,0.007733759855102747,0.0008847377904898676,0.005256055532562049,0.0005995265576330737,0.008683946427871497,0.000995714285419949
44,0.027248986026130788,0.004656197700220963,0.0010970075611012675,0.0001928769700457712,0.028807869048077483,0.0047955357147743795
45,0.027248986026130788,0.004656197700220963,0.020657769871963525,0.003632069825304817,0.028807869048077483,0.0047955357147743795
46,0.002325228498878805,0.0,0.0034302634203147078,0.0,0.0,0.0
47,0.002325228498878805,0.0,0.003791290585990671,0.0,0.0,0.0
48,0.006914762569263832,0.0007305398243946304,0.00419291446358602,0.0003329532295239209,0.007969130952958602,0.0009957142836442686
49,0.006914762569263832,0.0007305398243946304,0.004657350457260765,0.00036983341521435457,0.007969130952958602,0.0009957142836442686
50,0.04554612825804775,0.004940749810525301,0.03578260248064806,0.002786934146780935,0.05165599999842622,0.006810000001375252
51,0.04554612825804775,0.004940749810525301,0.03879514100190744,0.0030215662274947763,0.05165599999842622,0.006810000001375252
52,0.009134999766372973,0.0009987268345047484,0.0077585187810076395,0.0005342655845177408,0.009013000000171207,0.0013599999995979788
53,0.009134999766372973,0.0009987268345047484,0.008252481686286686,0.0005682807603223052,0.009013000000171207,0.0013599999995979788
54,0.010475346851554653,0.0011410234319841406,0.010147453070404662,0.0007980345818038594,0.009480666667514015,0.0013799999990927365
55,0.010475346851554653,0.0011410234319841406,0.001270519893966315,9.991855150451644e-05,0.009480666667514015,0.0013799999990927365
56,0.08459879337893426,0.00883236081284555,0.004491547384615839,0.00036829322170955984,0.05157466666423716,0.008020000001124572
57,0.08459879337893426,0.00883236081284555,0.007402532521603474,0.0006069851473746202,0.05157466666423716,0.008020000001124572
58,0.11521446493475757,0.011178561011941954,0.013004404883015486,0.0009934095786001543,0.07076033333335847,0.010160000000420649
59,0.11521446493475757,0.011178561011941954,0.012690998581218577,0.000969468396746817,0.07076033333335847,0.010160000000420649
60,0.13217356537502492,0.011971777363810828,0.00802575593455891,0.0005593842583099471,0.1026000000007722,0.012669999998858351
61,0.13217356537502492,0.011971777363810828,0.1607931133162533,0.011207061012964006,0.1026000000007722,0.012669999998858351
62,0.05682397121980127,0.003904105003553889,0.003502646708335941,0.000199671606104671,0.030354666669154536,0.0030600000003081127
63,0.05682397121980127,0.003904105003553889,0.007931077520909404,0.00045211838892338205,0.030354666669154536,0.0030600000003081127
64,0.10778324084616499,0.010661622744830013,0.005955577151145607,0.0004501860446679251,0.06821700000000419,0.010184999999182764
65,0.10778324084616499,0.010661622744830013,0.011000941156652792,0.0008315684712413571,0.06821700000000419,0.010184999999182764
66,0.12274044445430414,0.011027498405920603,0.011647895717167336,0.0008087860454401465,0.06553166666465889,0.009560000001026006
67,0.12274044445430414,0.011027498405920603,0.011466882038696221,0.00079621713679466,0.06553166666465889,0.009560000001026006
68,0.12836704394458742,0.011030717100183014,0.012914870501391056,0.0008608547228979492,0.06618233333574608,0.009360000001227792
69,0.12836704394458742,0.011030717100183014,0.010767374945213315,0.0007177110737425943,0.06618233333574608,0.009360000001227792
70,0.13283965050687047,0.01308940173943059,0.006839629258706271,0.00045929160982136915,0.09861233333018997,0.014959999998003088
71,0.13283965050687047,0.01308940173943059,0.1182684030577857,0.007941904915718723,0.09861233333018997,0.014959999998003088
72,0.09357433593624027,0.00894714347630213,0.004384462874354912,0.0003227148843672679,0.055440333334748466,0.008199999999002708
73,0.09357433593624027,0.00894714347630213,0.009415198587521715,0.0006929981643222327,0.055440333334748466,0.008199999999002708
74,0.09864477744625944,0.01042862320665381,0.006735703780677624,0.0005658464526992006,0.06298833333372991,0.009575000001253406
75,0.09864477744625944,0.01042862320665381,0.007522074660738244,0.0006319071328414447,0.06298833333372991,0.009575000001253406
76,0.11795679655893346,0.011255161156575287,0.007191244621177984,0.0005745593499569576,0.07407633333302023,0.009580000000520764
77,0.11795679655893346,0.011255161156575287,0.008950495594025606,0.0007151183419836951,0.07407633333302023,0.009580000000520764
78,0.11775931768685757,0.013419501544877959,0.005667056971558451,0.0005246063255589528,0.07932533333223546,0.012380000000121072
79,0.11775931768685757,0.013419501544877959,0.01135764098732278,0.00105139057808671,0.07932533333223546,0.012380000000121072
80,0.10046536649409113,0.010664995339859196,0.006006482361910593,0.000433021288507009,0.1036250833349186,0.014314999999138912
81,0.1156693742524136,0.01176108763369974,0.09476720131774836,0.006831988033968247,0.1036250833349186,0.014314999999138912
82,0.05055388095604014,0.004766622156463245,0.007842642372866294,0.0006034303381823197,0.03884358333228495,0.004742500001157168
83,0.05055388095604014,0.004766622156463245,0.006322650137828386,0.000486478756710652,0.03884358333228495,0.004742500001157168
84,0.10757785870652908,0.009852516369610376,0.008450746893696298,0.0006183600606357874,0.07644145833395062,0.009554999998423831
85,0.10757785870652908,0.009852516369610376,0.015419531903491424,0.0011282816540075017,0.07644145833395062,0.009554999998423831
86,0.11074207521998224,0.010277850145001755,0.006481021051552945,0.00047601971797375147,0.08028679166606402,0.010184999999485928
87,0.11074207521998224,0.010277850145001755,0.014602038930313853,0.0010724943489859849,0.08028679166606402,0.010184999999485928
88,0.107297535249436,0.010000333138043764,0.0059050315423182,0.00046848405461581233,0.08315270833312145,0.009572500002226054
89,0.107297535249436,0.010000333138043764,0.013943740140746308,0.0011062464054309837,0.08315270833312145,0.009572500002226054
90,0.13187955516334515,0.012401046854894212,0.007562489539593744,0.0005460693845852917,0.13128795555708672,0.015236666666007497
91,0.13656841071895537,0.012945213521537335,0.13126735569056933,0.009478503575151854,0.13128795555708672,0.015236666666007497
92,0.06799089210593662,0.005729727084477637,0.006151046894255585,0.0004033435699596575,0.04116746666388482,0.0050726666658495855
93,0.06799089210593662,0.005729727084477637,0.0090311688911749,0.0005922022647684481,0.04116746666388482,0.0050726666658495855
94,0.12249279803191815,0.010978902045082402,0.01003237939188326,0.0007352057217284643,0.07126466666878614,0.008960000000014488
95,0.12249279803191815,0.010978902045082402,0.01701602454647862,0.0012469901823853045,0.07126466666878614,0.008960000000014488
96,0.13101219335495917,0.01166630863344583,0.008411965322328808,0.0006125404871213768,0.08520244444306525,0.01017333333438728
97,0.13101219335495917,0.01166630863344583,0.016957981299480895,0.0012348422428949716,0.08520244444306525,0.01017333333438728
98,0.129075448779107,0.011412376633591147,0.014868879513860815,0.0010774989642395216,0.08761386666899651,0.010192000000582386
99,0.129075448779107,0.011412376633591147,0.017080222930667948,0.0012377477737726403,0.08761386666899651,0.010192000000582386
100,0.1170833128138235,0.011332298989608889,0.0058709834677594455,0.0004140592574293395,0.14420599999963693,0.016320000000026386
101,0.09304897948055066,0.008612298989604493,0.08906372423739453,0.006281342763804569,0.14420599999963693,0.016320000000026386
102,0.055789953390621976,0.004569318302825481,0.00660783948677946,0.0004270463033034261,0.050577666666261685,0.0061599999996057395
103,0.055789953390621976,0.004569318302825481,0.0065140315096483435,0.0004209837544272972,0.050577666666261685,0.0061599999996057395
104,0.1015212580940024,0.008418357639106186,0.006771795175697897,0.00042628934941788015,0.10917166666574,0.012955000000753595
105,0.1015212580940024,0.008418357639106186,0.013560799746821884,0.0008536620425857882,0.10917166666574,0.012955000000753595
106,0.09016710194612304,0.007611312143422867,0.01269053797243926,0.0008265191363208787,0.08803299999999581,0.010949999998653462
107,0.09016710194612304,0.007611312143422867,0.011375258134937751,0.0007408565775173879,0.08803299999999581,0.010949999998653462
108,0.08951883777003325,0.007421928773879638,0.0051979093118177545,0.0003462291456898328,0.07788066666641194,0.009565000000293368
109,0.08951883777003325,0.007421928773879638,0.0118088595927649,0.0007865799734286568,0.07788066666641194,0.009565000000293368
110,0.1330631111531082,0.011829635402580025,0.008253470710917234,0.0005138185415897601,0.12687166666728444,0.014989999998457884
111,0.1330631111531082,0.011829635402580025,0.13777097364986934,0.008576910639610195,0.12687166666728444,0.014989999998457884
112,0.08076348752293991,0.0073435320438782195,0.00465537550628551,0.0003436921490128656,0.05523700000048848,0.006840000001830049
113,0.08076348752293991,0.0073435320438782195,0.010148649448407774,0.0007492437793239496,0.05523700000048848,0.006840000001830049
114,0.1321741916613859,0.011732080085251395,0.012062148948168134,0.0008472275437887152,0.08703599999959502,0.011009999999563052
115,0.1321741916613859,0.011732080085251395,0.013078467728532784,0.0009186122752900996,0.08703599999959502,0.011009999999563052
116,0.11220452311311746,0.010358122328946211,0.00797329213031147,0.0005965931612850925,0.07611099999970368,0.009619999999510279
117,0.11220452311311746,0.010358122328946211,0.0107206616435486,0.0008021621830056597,0.07611099999970368,0.009619999999510279
118,0.14094500743101596,0.013166644642172175,0.00927795646009766,0.0006970203893865152,0.09482833333216452,0.012280000000221964
119,0.14094500743101596,0.013166644642172175,0.017100362009571574,0.0012846903343235224,0.09482833333216452,0.012280000000221964
120,0.11107602752236159,0.011711961479274363,0.005483789486824871,0.0004096768967568268,0.10642080000034183,0.014777999999932944
121,0.11107602752236159,0.011711961479274363,0.11460655546930246,0.008561900143223423,0.10642080000034183,0.014777999999932944
122,0.056605900650255975,0.005284832355519438,0.0048456322057879656,0.0003556036457284704,0.03614489999963552,0.004914000000280794
123,0.056605900650255975,0.005284832355519438,0.0050994664930215676,0.0003742316377257452,0.03614489999963552,0.004914000000280794
124,0.10345138121773309,0.009862739876962805,0.013794908273090859,0.001057088191621216,0.06194460000042455,0.008617500001128063
125,0.10345138121773309,0.009862739876962805,0.008788229291952013,0.0006734320537602727,0.06194460000042455,0.008617500001128063
126,0.12309958536140898,0.011990983986881486,0.007416296389750313,0.0005733147090991479,0.07987080000093555,0.011123999998380896
127,0.12309958536140898,0.011990983986881486,0.01346253288842443,0.0010407173231819311,0.07987080000093555,0.011123999998380896
128,0.1079033829256241,0.010447545041844367,0.006433392024202229,0.0004883851146451902,0.07073370000071008,0.00988200000138022
129,0.1079033829256241,0.010447545041844367,0.01707884212516389,0.001296524794062989,0.07073370000071008,0.00988200000138022
130,0.1042408507235632,0.010490871735642789,0.004851854599756064,0.00037230910490625743,0.07814106666482985,0.010979999999593322
131,0.11400848405666693,0.011863371735591953,0.09722951061798972,0.007460947422141878,0.07814106666482985,0.010979999999593322
132,0.07964794452086722,0.007542803942735703,0.004520188906178184,0.0003434075956655253,0.04060880000082155,0.005471999999523783
133,0.07964794452086722,0.007542803942735703,0.0046199220530772,0.0003509845179790897,0.04060880000082155,0.005471999999523783
134,0.14821409744844025,0.01265014105989731,0.006749221636772425,0.00041368708110994015,0.0671386666673546,0.009820000000763685
135,0.14821409744844025,0.01265014105989731,0.01225291680005056,0.0007510308090163523,0.0671386666673546,0.009820000000763685
136,0.12138533350887137,0.009671295631778518,0.007157193495950669,0.0004017565478617253,0.05522453333251179,0.007671999999244387
137,0.12138533350887137,0.009671295631778518,0.009898806152264895,0.0005556521826518135,0.05522453333251179,0.007671999999244387
138,0.14104637402317416,0.013573842525481047,0.005407368348057417,0.0004001369153947309,0.06580400000093505,0.009888000000501052
139,0.14104637402317416,0.013573842525481047,0.011245883606895844,0.0008321780370238783,0.06580400000093505,0.009888000000501052
140,0.10305822540774195,0.010211116046679843,0.005787073316842982,0.0004316245447883409,0.07051277777564892,0.010308333332634194
141,0.09175791932108904,0.009368291149952718,0.09853925364305316,0.0073494766989867875,0.07051277777564892,0.010308333332634194
142,0.06556073344147849,0.006900624099800442,0.003170229732182075,0.00024022388185235855,0.04004583333476654,0.006899999999505882
143,0.06556073344147849,0.006900624099800442,0.0055200100098618254,0.00041827827774492836,0.04004583333476654,0.006899999999505882
144,0.09439194062802157,0.00943146821900346,0.006310318155683125,0.0004856238217864729,0.04784472222228134,0.008016666668279666
145,0.09439194062802157,0.00943146821900346,0.009925691004309588,0.0007638524525175275,0.04784472222228134,0.008016666668279666
146,0.11169593635225,0.011236176124647737,0.005833466711940053,0.0004456390601680743,0.06378166666763717,0.010279166666199064
147,0.11169593635225,0.011236176124647737,0.012534286043658643,0.0009575382406727016,0.06378166666763717,0.010279166666199064
148,0.08363348106362825,0.00883128071268698,0.003795261673893939,0.0003023275231285705,0.04638666666424898,0.008033333334525295
149,0.08363348106362825,0.00883128071268698,0.008192383770538785,0.000652598768328011,0.04638666666424898,0.008033333334525295
150,0.12553653524800018,0.013495136162377096,0.0037988264155027506,0.0002789210708430599,0.10738133333506994,0.01643999999942025
151,0.12553653524800018,0.013495136162377096,0.14260943642327795,0.0104708066041606,0.10738133333506994,0.01643999999942025
152,0.06308589754185795,0.005986885807213217,0.0039111149556206645,0.0002815567417529431,0.03582766666659154,0.005469999998846712
153,0.06308589754185795,0.005986885807213217,0.004926756627637625,0.00035467163691874553,0.03582766666659154,0.005469999998846712
154,0.1263973792457604,0.01267931485334033,0.004829261705358579,0.00035374063677028647,0.07533766666650384,0.012360000000626314
155,0.1263973792457604,0.01267931485334033,0.012049646469190885,0.000882629659547913,0.07533766666650384,0.012360000000626314
156,0.13053663109989264,0.01136113156760857,0.005993127692134048,0.00038651254599391337,0.05651866666691299,0.00953000000057121
157,0.13053663109989264,0.01136113156760857,0.0118032767753381,0.0007612243208991713,0.05651866666691299,0.00953000000057121
158,0.1496967343053267,0.01338478765884265,0.007763363435964183,0.0005315615675770238,0.08748366666744307,0.012259999998301888
159,0.1496967343053267,0.01338478765884265,0.013419834620651716,0.0009188631173096806,0.08748366666744307,0.012259999998301888
160,0.06525482867076915,0.008173917514769806,0.0011401102222831935,7.541482545590002e-05,0.09055566666696298,0.013704999999996895
161,0.035069606448448164,0.0036055841814375067,0.039635232436531206,0.002621750141068874,0.09055566666696298,0.013704999999996895
162,0.02846605055654839,0.002535466612409466,0.0012220340969117019,8.527682673011564e-05,0.055684666665911216,0.007180000000516884
163,0.02846605055654839,0.002535466612409466,0.0031114203452531517,0.0002171232818603433,0.055684666665911216,0.007180000000516884
164,0.04787177159020717,0.003676295707538104,0.003434600083341632,0.00022084752265313297,0.09224433333292836,0.009519999999611171
165,0.04787177159020717,0.003676295707538104,0.004974967847161991,0.0003198943975031138,0.09224433333292836,0.009519999999611171
166,0.05511925757068602,0.004452113502013695,0.002735790561645745,0.00017594146470981256,0.1061400000010811,0.012269999999261929
167,0.05511925757068602,0.004452113502013695,0.0051286942974813725,0.0003298315300148258,0.1061400000010811,0.012269999999261929
168,0.04701016252491652,0.0035325458058902788,0.002011485056172397,0.00012273014282109904,0.09505233333281164,0.009784999999586336
169,0.04701016252491652,0.0035325458058902788,0.003258967671589848,0.0001988449114032525,0.09505233333281164,0.009784999999586336
170,0.11546461977025421,0.010302914319783975,0.005780377708977518,0.00036932964511155456,0.1362039130413061,0.014553478260337297
171,0.13929304041135793,0.01182539997418672,0.09400775033726123,0.006006501792412775,0.1362039130413061,0.014553478260337297
172,0.08612509295285375,0.007061571255436147,0.003418706408851944,0.00022339206946926012,0.05624060869825147,0.0065426086974026566
173,0.08612509295285375,0.007061571255436147,0.005588550077039921,0.00036517840894731467,0.05624060869825147,0.0065426086974026566
174,0.12621598742746765,0.011188983433679873,0.0050938521517111465,0.0003599537730923601,0.08410823188361077,0.010483478260499873
175,0.12621598742746765,0.011188983433679873,0.010979533722594827,0.0007758616607895071,0.08410823188361077,0.010483478260499873
176,0.13490766511426072,0.011076112679694126,0.009753849750644698,0.0006026280396718508,0.08002165217265532,0.010426086955282
177,0.13490766511426072,0.011076112679694126,0.00982472807192491,0.0006070071581635523,0.08002165217265532,0.010426086955282
178,0.13382932830277575,0.010735681970218252,0.005652375777743728,0.00035033096444327344,0.06838397101492391,0.009120434784774156
179,0.13382932830277575,0.010735681970218252,0.0077738623208942065,0.00048181946696672156,0.06838397101492391,0.009120434784774156
180,0.1640901298230737,0.014062302474008533,0.005199249821309893,0.00030170971595632064,0.14784766666707586,0.01766000000012961
181,0.1640901298230737,0.014062302474008533,0.17842115719965626,0.010353685341041013,0.14784766666707586,0.01766000000012961
182,0.07772790008402265,0.005982633145381257,0.003835975605405011,0.0002313939445347608,0.047281999999540865,0.005439999998391915
183,0.07772790008402265,0.005982633145381257,0.005360224226027651,0.0003233397588617791,0.047281999999540865,0.005439999998391915
184,0.12378085684644141,0.01027066702423032,0.012308339678274322,0.0007516820518413897,0.0677489999992152,0.009560000001026006
185,0.12378085684644141,0.01027066702423032,0.011248946627780565,0.0006869839071105236,0.0677489999992152,0.009560000001026006
186,0.15110388377725834,0.012514449574637095,0.007405991088605544,0.0004441765689502126,0.09055566666696298,0.012334999999438878
187,0.15110388377725834,0.012514449574637095,0.01903990802410449,0.0011419242769932524,0.09055566666696298,0.012334999999438878
188,0.12812780149515302,0.011957387495892242,0.0041931067167639054,0.0003273393245649015,0.08992500000022119,0.010929999999158705
189,0.12812780149515302,0.011957387495892242,0.012398290293568304,0.0009678856858640584,0.08992500000022119,0.010929999999158705
190,0.09094642740751047,0.008768085149979784,0.0054266487227267145,0.00032206170328885137,0.09303300000101444,0.012262500000360887
191,0.10649690199996162,0.00969097745240955,0.08797127424068801,0.0052209346633755645,0.09303300000101444,0.012262500000360887
192,0.052958280862263805,0.0044354826375917365,0.002776765882033514,0.00017876501007902068,0.03190600000016275,0.004106250000404543
193,0.052958280862263805,0.0044354826375917365,0.003367818025962592,0.00021681627077418982,0.03190600000016275,0.004106250000404543
194,0.10142943157990059,0.01019839672518451,0.0038045743728231797,0.0003650540513677279,0.06469724999806202,0.00713999999970838
195,0.10142943157990059,0.01019839672518451,0.0064973788405852,0.0006234322782515397,0.06469724999806202,0.00713999999970838
196,0.12833154903329008,0.010936248708982,0.004197025726445325,0.0003203065278589208,0.09408575000088604,0.0094649999991816
197,0.12833154903329008,0.010936248708982,0.009245864595364127,0.0007056213086649492,0.09408575000088604,0.0094649999991816
198,0.11267476268263342,0.008621328627906318,0.0039150460056598686,0.00023078541487045625,0.07998650000081398,0.008673750002344605
199,0.11267476268263342,0.008621328627906318,0.005460305576222458,0.00032187588240500627,0.07998650000081398,0.008673750002344605
200,0.16455338214839432,0.012873599180591697,0.007389008510268925,0.00044203068962992136,0.14786800000001676,0.014904999998786176
201,0.16455338214839432,0.012873599180591697,0.13833822719304326,0.008275770948610817,0.14786800000001676,0.014904999998786176
202,0.12744891585199342,0.008922790380466143,0.004580927609867119,0.00026186817217224045,0.08494066666753497,0.008129999999558397
203,0.12744891585199342,0.008922790380466143,0.012289907354013445,0.000702551065864809,0.08494066666753497,0.008129999999558397
204,0.17925077374857493,0.01332261301893466,0.007722996506960033,0.0004201118047436992,0.11464433333215615,0.013380000001537455
205,0.17925077374857493,0.01332261301893466,0.010931789327834021,0.0005946621547032153,0.11464433333215615,0.013380000001537455
206,0.1533653550583546,0.012260416539374795,0.007648556465446314,0.0004383167169907393,0.1077879999987393,0.013119999998404332
207,0.1533653550583546,0.012260416539374795,0.011182733416774232,0.000640850207534827,0.1077879999987393,0.013119999998404332
208,0.18470011974535294,0.01469350451280359,0.00872398826286669,0.0005346264031698033,0.13031000000046333,0.01473499999944276
209,0.18470011974535294,0.01469350451280359,0.01359877224661112,0.0008333645661442062,0.13031000000046333,0.01473499999944276
210,0.14712575896506905,0.013557908580050852,0.0060627107079190105,0.0003527545552718308,0.14403814141582133,0.01837575757603227
211,0.14484979871485215,0.013425483434837678,0.1489609127777979,0.008667185863112775,0.14403814141582133,0.01837575757603227
212,0.11149320088055081,0.008084779190363175,0.004424096509145942,0.0002328152313665349,0.07382432323165539,0.008320000001483342
213,0.11149320088055081,0.008084779190363175,0.009355510007689164,0.000492327692781856,0.07382432323165539,0.008320000001483342
214,0.18146537704460242,0.014112405442268081,0.007136201661419954,0.000422253441545076,0.12109349494931672,0.013915151515223009
215,0.18146537704460242,0.014112405442268081,0.01446512485031137,0.0008559103344072012,0.12109349494931672,0.013915151515223009
216,0.13287188549584988,0.010963577057799295,0.007145033730898595,0.0004350260228952996,0.08637155555517911,0.011006060606715351
217,0.13287188549584988,0.010963577057799295,0.010636369099976707,0.0006475962916171423,0.08637155555517911,0.011006060606715351
218,0.16421014994569816,0.013406356922594544,0.00936125019105732,0.0005512159228459242,0.11679288888858122,0.014351515151146388
219,0.16421014994569816,0.013406356922594544,0.012875982212456116,0.000758172922732778,0.11679288888858122,0.014351515151146388
220,0.14340671057675233,0.013018013246160596,0.004640346709204588,0.0002772019721816134,0.15782970588214296,0.01833088235263644
221,0.15651200785031316,0.013800888853936053,0.12803807135276024,0.007648653886769402,0.15782970588214296,0.01833088235263644
222,0.0973308276377467,0.007620442380562094,0.002890883571418003,0.00015914814861042452,0.06615147058790385,0.008166176470267066
223,0.0973308276377467,0.007620442380562094,0.00739274071062653,0.00040698318288758434,0.06615147058790385,0.008166176470267066
224,0.1373456218940633,0.011965609050820399,0.005957100845645117,0.000349654825518126,0.10381352941348107,0.013901470586407573
225,0.1373456218940633,0.011965609050820399,0.008322798762709393,0.0004885105732807989,0.10381352941348107,0.013901470586407573
226,0.15025266919497796,0.011926279616945945,0.006728119695255182,0.0003692313444473378,0.09264794117531412,0.012445588237075271
227,0.15025266919497796,0.011926279616945945,0.009134821286439993,0.0005013083146034123,0.09264794117531412,0.012445588237075271
228,0.16507649444938374,0.013673806789238512,0.005335729548998976,0.0003178936082775817,0.1149794117651147,0.014527941177006782
229,0.16507649444938374,0.013673806789238512,0.013755586344459102,0.0008195342243000881,0.1149794117651147,0.014527941177006782
230,0.14853436651084184,0.013089490018657581,0.006358301185778879,0.00035678892612378847,0.14115399999961178,0.017429999997451283
231,0.14853436651084184,0.013089490018657581,0.15315696579225502,0.008594231030706138,0.14115399999961178,0.017429999997451283
232,0.10507309695956624,0.007997610229878199,0.004977121592559268,0.0002868955920602915,0.06927499999922777,0.00787500000054327
233,0.10507309695956624,0.007997610229878199,0.008203684487401098,0.00047288394995359756,0.06927499999922777,0.00787500000054327
234,0.16293100597455654,0.012284460506794808,0.00807369965226713,0.0004879999530212751,0.1106363333359089,0.01156000000143346
235,0.16293100597455654,0.012284460506794808,0.009977621734344992,0.0006030790278725753,0.1106363333359089,0.01156000000143346
236,0.16321493187737626,0.012071915267029443,0.006997319327477101,0.00040745894128045167,0.10028066666563973,0.010974999999840898
237,0.16321493187737626,0.012071915267029443,0.01105448358338554,0.0006437105363479848,0.10028066666563973,0.010974999999840898
238,0.14821562880057693,0.011925890602116313,0.009236232739900863,0.0005721706715278772,0.08937566666766845,0.011024999999790452
239,0.14821562880057693,0.011925890602116313,0.012285176326927737,0.0007610481228401863,0.08937566666766845,0.011024999999790452
240,0.1326982510627061,0.010459482188603667,0.006631734867551699,0.0003793769550719674,0.08282979166627531,0.01047500000064853
241,0.15754718856258867,0.013601982188798226,0.18104055467316726,0.010356658664462328,0.08282979166627531,0.01047500000064853
242,0.0763675329662531,0.006480500909694951,0.005523966544484014,0.0003291917428629038,0.02801270833363863,0.004081249999217107
243,0.0763675329662531,0.006480500909694951,0.0063733008567423725,0.0003798064307459767,0.02801270833363863,0.004081249999217107
244,0.1396458222674391,0.011868894021386384,0.01143142609749654,0.0007293739147130893,0.04948937499951474,0.006856250000358462
245,0.1396458222674391,0.011868894021386384,0.013679929366657115,0.0008728380475068082,0.04948937499951474,0.006856250000358462
246,0.13764749483906086,0.011879144954391086,0.007086978751711518,0.00046105151270791565,0.04948937499951474,0.006874999999126885
247,0.13764749483906086,0.011879144954391086,0.015612031570032112,0.0010156585794854718,0.04948937499951474,0.006874999999126885
248,0.14336757436905403,0.01189600661333624,0.007880131518119603,0.0004892066791042908,0.05002333333322895,0.006850000001274262
249,0.14336757436905403,0.01189600661333624,0.01351105307621098,0.0008387800877963296,0.05002333333322895,0.006850000001274262
250,0.09862615029047456,0.010256034013871759,0.00507358799109381,0.0003165509396626634,0.11018866666806083,0.015079999997396953
251,0.07107898362345935,0.006486034014522519,0.06545527809620952,0.0040838810371689425,0.11018866666806083,0.015079999997396953
252,0.047007711999197635,0.003743899304997465,0.004147973551729007,0.00024289423097080103,0.05507399999866417,0.007190000001476922
253,0.047007711999197635,0.003743899304997465,0.004172102449023081,0.00024430715462600956,0.05507399999866417,0.007190000001476922
254,0.07185950982310962,0.005481674309808039,0.005277213815953927,0.00030265347084146304,0.09429933333255272,0.010849999998754356
255,0.07185950982310962,0.005481674309808039,0.005910933204264777,0.00033899790923279215,0.09429933333255272,0.010849999998754356
256,0.07716507724937147,0.0055424780605807,0.006556820377233579,0.0003602942149075302,0.07845066666777711,0.009520000002036491
257,0.07716507724937147,0.0055424780605807,0.007183858458037002,0.00039474966435443297,0.07845066666777711,0.009520000002036491
258,0.08968491351616133,0.006643519031109103,0.004977798396581197,0.000272252269226576,0.0962929999999081,0.012219999999312371
259,0.08968491351616133,0.006643519031109103,0.009703374570965245,0.0005307096703464593,0.0962929999999081,0.012219999999312371
260,0.13996194221210795,0.012794167164371737,0.008744957790178667,0.0004896435118095915,0.10965999999946993,0.016055000000051226
261,0.13996194221210795,0.012794167164371737,0.16925815778492606,0.009477022161651845,0.10965999999946993,0.016055000000051226
262,0.08506794199114462,0.007744530464857282,0.005746827275514335,0.00035173913662351713,0.04058833333450214,0.007560000000618553
263,0.08506794199114462,0.007744530464857282,0.008809622076668829,0.0005391999297472606,0.04058833333450214,0.007560000000618553
264,0.09937533121101838,0.009667487440550997,0.007563302147481584,0.0004947195200985065,0.0498453333323899,0.009594999998322844
265,0.09937533121101838,0.009667487440550997,0.03432636876330638,0.00224530560199316,0.0498453333323899,0.009594999998322844
266,0.15253516947099194,0.012784315555710437,0.017683998480091452,0.0010625789537375154,0.0834146666675224,0.012249999999767171
267,0.15253516947099194,0.012784315555710437,0.026774329245008315,0.0016087899344830508,0.0834146666675224,0.012249999999767171
268,0.15527571647192823,0.011931093029677497,0.010603686577929856,0.0006261783593141725,0.09613033333395528,0.011200000000826549
269,0.15527571647192823,0.011931093029677497,0.01374421381221652,0.0008116355752073853,0.09613033333395528,0.011200000000826549
270,0.1090203828937132,0.009507266264805874,0.005797093373990389,0.0003315584794686436,0.09000085714173367,0.01169142857335308
271,0.11816609065411982,0.01003034511882435,0.09866149798045028,0.0056428375639531285,0.09000085714173367,0.01169142857335308
272,0.08603233165856815,0.00687806565150095,0.0056981790478104356,0.00033550259248222333,0.057512571428170685,0.007011428568927969
273,0.08603233165856815,0.00687806565150095,0.007182240549398701,0.00042288252158031813,0.057512571428170685,0.007011428568927969
274,0.14430444766384007,0.010115461238056808,0.007091272506971439,0.0003647172198335959,0.07666000000192849,0.009330000000772998
275,0.14430444766384007,0.010115461238056808,0.01569019408307866,0.0008069756110774482,0.07666000000192849,0.009330000000772998
276,0.1415903571011859,0.010608958834009932,0.007749920932034649,0.000417037695571239,0.07890971428423654,0.01022571428620722
277,0.1415903571011859,0.010608958834009932,0.01003095413933874,0.0005397843455871669,0.07890971428423654,0.01022571428620722
278,0.12297796518140236,0.009453495612587029,0.007618432514369769,0.0004330378335579342,0.07739257142904014,0.009325714285036415
279,0.12297796518140236,0.009453495612587029,0.008767378418794334,0.000498344843154571,0.07739257142904014,0.009325714285036415
280,0.14161254419661304,0.012116573261491594,0.007091800871921425,0.0004111982375657696,0.10305808333335638,0.013786666667430027
281,0.1341055856524518,0.011681303267510212,0.17931919406787192,0.010397321906536479,0.10305808333335638,0.013786666667430027
282,0.06804059776928766,0.0053532005423094775,0.0060365156007432495,0.0003468012598586157,0.03700063888936711,0.0050141666656094855
283,0.06804059776928766,0.0053532005423094775,0.00806760441857063,0.00046348846941714883,0.03700063888936711,0.0050141666656094855
284,0.15215636649678355,0.01250718088883502,0.011030717495278073,0.000678045023960234,0.09123399999892473,0.011916666665759596
285,0.15215636649678355,0.01250718088883502,0.017139755601038066,0.0010535602967035687,0.09123399999892473,0.011916666665759596
286,0.14994802168559512,0.012218692214469709,0.009929112934921751,0.0005459972675468592,0.08453897222231413,0.012595000001965673
287,0.14994802168559512,0.012218692214469709,0.01209390035760864,0.0006650379135092736,0.08453897222231413,0.012595000001965673
288,0.12532171052344096,0.008756830428092291,0.009514186934460251,0.00046039934384773084,0.06905952777762851,0.00872666666631024
289,0.12532171052344096,0.008756830428092291,0.013097293135402812,0.0006337888047879657,0.06905952777762851,0.00872666666631024
290,0.14332884149290756,0.013439625775776912,0.007470219068437884,0.0004488826855431765,0.11226400000062617,0.016400000000430737
291,0.14332884149290756,0.013439625775776912,0.1736050979464578,0.01043186576943157,0.11226400000062617,0.016400000000430737
292,0.0695460151216579,0.005939747633714128,0.004545366835194646,0.0002907197618741532,0.03841133333238152,0.005439999998391915
293,0.0695460151216579,0.005939747633714128,0.006406936253399756,0.0004097849633409167,0.03841133333238152,0.005439999998391915
294,0.15347189163281338,0.013330772383815647,0.008956905792724441,0.0005915369338147764,0.09039333333445634,0.012360000000626314
295,0.15347189163281338,0.013330772383815647,0.01729064427632593,0.001141918307012668,0.09039333333445634,0.012360000000626314
296,0.12879809935735312,0.010540659263764147,0.009581651206546749,0.0005780490206380124,0.07275366666726768,0.009930000000167638
297,0.12879809935735312,0.010540659263764147,0.011447816746014076,0.000690632451111921,0.07275366666726768,0.009930000000167638
298,0.14875748226961422,0.011784717205448022,0.013652518579493466,0.0007952386486516322,0.08017999999962436,0.010909999999663949
299,0.14875748226961422,0.011784717205448022,0.013396516880984321,0.0007803269352128588,0.08017999999962436,0.010909999999663949
300,0.11929339599995806,0.010580982477524795,0.004879446654689874,0.0002961781572619859,0.11466466666509707,0.013640000002245262
301,0.10655287748161393,0.009065426921719766,0.12317898356623792,0.007476856895440648,0.11466466666509707,0.013640000002245262
302,0.07174360377231007,0.005939107889748493,0.003470183468416713,0.00021053185413294305,0.05135100000188686,0.007194999998318963
303,0.07174360377231007,0.005939107889748493,0.006439831210514163,0.0003906968082213033,0.05135100000188686,0.007194999998318963
304,0.12213884848513788,0.010308618839907248,0.0064173474320375614,0.0003991584497929193,0.08532700000068871,0.012280000000221964
305,0.12213884848513788,0.010308618839907248,0.015241955598364231,0.0009480483070127103,0.08532700000068871,0.012280000000221964
306,0.08718068754553136,0.008096047781081278,0.004520365705550562,0.0003021833247673109,0.05643733333272394,0.009604999999282882
307,0.08718068754553136,0.008096047781081278,0.009518074017635023,0.0006362766730352402,0.05643733333272394,0.009604999999282882
308,0.10902231499272291,0.008544523530189075,0.010939422198054612,0.0005686370761072744,0.06850166666602793,0.01096000000203882
309,0.10902231499272291,0.008544523530189075,0.00990935522315618,0.0005150936382367559,0.06850166666602793,0.01096000000203882
310,0.13495981663623777,0.011758975947281484,0.010434337019457531,0.0005605022785889922,0.11445171110988465,0.015166666666078122
311,0.13642714626585167,0.011953420391718383,0.15479018526247884,0.008314879170669358,0.11445171110988465,0.015166666666078122
312,0.08776282584848458,0.0068525060713372846,0.006675023220532278,0.000376267718037506,0.04970564444552615,0.006517333332643223
313,0.08776282584848458,0.0068525060713372846,0.008807917676355134,0.0004964979109810623,0.04970564444552615,0.006517333332643223
314,0.14509699658111674,0.010418726038702412,0.009028477096241652,0.0005311372100746589,0.09669602222161806,0.009359999998964162
315,0.14509699658111674,0.010418726038702412,0.01571915937056475,0.0009247440475067721,0.09669602222161806,0.009359999998964162
316,0.15163100339096597,0.011272688498696518,0.010461950136190659,0.0005534384967506091,0.08772111111158867,0.010980666667779184
317,0.15163100339096597,0.011272688498696518,0.013170857896846496,0.0006967400628426946,0.08772111111158867,0.010980666667779184
318,0.15891131546164106,0.012155709266624872,0.011254405818899738,0.0006091682932310239,0.10884466666530998,0.012822333333638705
319,0.15891131546164106,0.012155709266624872,0.01411229658984694,0.0007638576185666195,0.10884466666530998,0.012822333333638705
320,0.17938908828522787,0.012669168729045471,0.012259191087490458,0.0006508639888139484,0.1573696551733582,0.014645172413017053
321,0.18521759403238927,0.01321158252212018,0.15333728751547487,0.008140970955911849,0.1573696551733582,0.014645172413017053
322,0.10884689435915029,0.008783485360725941,0.008564820240241048,0.00047766027506446863,0.07059662068987281,0.008989137930319852
323,0.10884689435915029,0.008783485360725941,0.010944391041594304,0.0006103690081876035,0.07059662068987281,0.008989137930319852
324,0.18183870736053964,0.013895088708830095,0.010046271072731271,0.0005331004829690165,0.11664465517192026,0.014095862071904962
325,0.18183870736053964,0.013895088708830095,0.01840631420576241,0.0009767221013382151,0.11664465517192026,0.014095862071904962
326,0.1611795969251741,0.01346010806451257,0.010908354868590223,0.000656473459313776,0.10101724137900324,0.013081034480851014
327,0.1611795969251741,0.01346010806451257,0.013514451280985678,0.0008133104111511864,0.10101724137900324,0.013081034480851014
328,0.15412106212206997,0.011736294135746738,0.01107820067568836,0.0006612094837565041,0.09086462069134196,0.010148275863120315
329,0.15412106212206997,0.011736294135746738,0.015518008414896962,0.000926202244689483,0.09086462069134196,0.010148275863120315
330,0.12486272035440432,0.012325774485272858,0.005171020985531404,0.00035599073188243127,0.11845400000068668,0.015614374999737873
331,0.13101606913759756,0.012749392015154473,0.13059833830652376,0.008990835304372875,0.11845400000068668,0.015614374999737873
332,0.08790089821668592,0.006374007503840803,0.0057213353019407295,0.00032630142032858767,0.05591570833106137,0.005910624999766393
333,0.08790089821668592,0.006374007503840803,0.009229327004626687,0.0005263705675954939,0.05591570833106137,0.005910624999766393
334,0.1488197292591939,0.012430402587248448,0.009252031075396487,0.0004988263515643543,0.0930329166667434,0.013829375000265523
335,0.1488197292591939,0.012430402587248448,0.013786330660008684,0.0007432946310437269,0.0930329166667434,0.013829375000265523
336,0.1422291594145271,0.01223668225253886,0.00948710649681123,0.0005521469532134332,0.09157312500034699,0.013247499998518226
337,0.1422291594145271,0.01223668225253886,0.010450316288461776,0.0006082054945551955,0.09157312500034699,0.013247499998518226
338,0.14914526250001572,0.011929046809150743,0.007838756074395655,0.000428201600565017,0.09732304166755057,0.012880000001435594
339,0.14914526250001572,0.011929046809150743,0.01535314487881228,0.0008386842438289377,0.09732304166755057,0.012880000001435594
340,0.15639434661775142,0.015340463129118513,0.007354730454272381,0.00047268611541689874,0.14512133333240246,0.01990499999859215
341,0.15639434661775142,0.015340463129118513,0.16292890964260265,0.01047138761466574,0.14512133333240246,0.01990499999859215
342,0.10368897507566333,0.009226273362612884,0.006080294018765594,0.00034743971625807976,0.07126866666900848,0.010675000000143578
343,0.10368897507566333,0.009226273362612884,0.011375422498987677,0.0006500135607202817,0.07126866666900848,0.010675000000143578
344,0.1698602490211698,0.01401819295819819,0.010390059049785402,0.0005883604035375665,0.1122436666652599,0.015155000000959262
345,0.1698602490211698,0.01401819295819819,0.015368109573266384,0.0008702536825643262,0.1122436666652599,0.015155000000959262
346,0.13803565948852226,0.011328749082681016,0.009969773688986943,0.0005959896093549786,0.09126766666546852,0.011609999998957694
347,0.13803565948852226,0.011328749082681016,0.012989573999323241,0.0007765122233512699,0.09126766666546852,0.011609999998957694
348,0.17587028655070008,0.01425591460965295,0.010129709159405696,0.0006198914059115863,0.12032066666627846,0.014350000000073727
349,0.17587028655070008,0.01425591460965295,0.019254384405480024,0.001178279379126359,0.12032066666627846,0.014350000000073727
350,0.13796538398184022,0.011140526270301397,0.00787833003929302,0.00039450356094038473,0.12890383333403102,0.014918749999803062
351,0.14308061546334938,0.011732540159182472,0.14611279088669415,0.0073165272356261,0.12890383333403102,0.014918749999803062
352,0.08765069047237678,0.007236329328164291,0.0065942873413753576,0.0004144611311886775,0.05320991666728029,0.006545000000187429
353,0.08765069047237678,0.007236329328164291,0.008522590973463657,0.000535657988901563,0.05320991666728029,0.006545000000187429
354,0.15760966959395228,0.012236679890953332,0.009698199904472108,0.0006107824636589135,0.09707395833265764,0.010395000000547343
355,0.15760966959395228,0.012236679890953332,0.01919992387008172,0.001209191078647952,0.09707395833265764,0.010395000000547343
356,0.14622383772117484,0.012260969968169277,0.009449930318342308,0.0005386065477893645,0.09954816666747016,0.012949999999667243
357,0.14622383772117484,0.012260969968169277,0.01036154238854004,0.0005905646272155468,0.09954816666747016,0.012949999999667243
358,0.15192454251067575,0.012195641800835454,0.01144493455667064,0.0006672774550251798,0.0899176250001498,0.011427499999930051
359,0.15192454251067575,0.012195641800835454,0.012107091533093363,0.0007058833919894061,0.0899176250001498,0.011427499999930051
360,0.17799461529658947,0.01615227567338411,0.007336864079825121,0.0004137230650278514,0.1805216666665122,0.02241000000018781
361,0.17324404512115493,0.015562538831273905,0.1745400983091047,0.009842251901772523,0.1805216666665122,0.02241000000018781
362,0.08749348908638199,0.007603301637676081,0.0053239359429976,0.00030587897827297547,0.07381166666649126,0.00968000000041987
363,0.08749348908638199,0.007603301637676081,0.0063601385157920545,0.0003654124864976704,0.07381166666649126,0.00968000000041987
364,0.14919139168323475,0.011910650373816433,0.009939517732502531,0.0006037144614131415,0.10439066666731378,0.012355000001358954
365,0.14919139168323475,0.011910650373816433,0.013539172585561088,0.0008223532072127625,0.10439066666731378,0.012355000001358954
366,0.17453895861980884,0.015673650169977616,0.009480216852265659,0.0007037552114622045,0.13496899999881862,0.015754999997928582
367,0.17453895861980884,0.015673650169977616,0.016441550117818067,0.0012205234078760765,0.13496899999881862,0.015754999997928582
368,0.1465037626662254,0.011930705939505624,0.010052432499575102,0.0005561117069134804,0.10860200000024632,0.014085000000098562
369,0.1465037626662254,0.011930705939505624,0.011746779010550077,0.0006498448337323892,0.10860200000024632,0.014085000000098562
370,0.15953298836910523,0.013973434560493523,0.008625065964235519,0.0004982127325687144,0.15171299999929033,0.018279999999019005
371,0.16937728111845346,0.014542073920609293,0.12700043098073555,0.007335970764592856,0.15171299999929033,0.018279999999019005
372,0.10447714455328479,0.008594384411669893,0.0060185798921018226,0.00034187447082578183,0.07025133333324142,0.00931000000127824
373,0.10447714455328479,0.008594384411669893,0.008807249153089438,0.0005002797499779912,0.07025133333324142,0.00931000000127824
374,0.17374610346242753,0.015516383628075517,0.008521374307249457,0.0005021882096146898,0.13075766666831135,0.018259999999524247
375,0.17374610346242753,0.015516383628075517,0.014361931778673313,0.0008463884517318308,0.13075766666831135,0.018259999999524247
376,0.16081927387748385,0.013055206192652626,0.01128040764205843,0.0006540467790435679,0.10198966666454604,0.013374999999844778
377,0.16081927387748385,0.013055206192652626,0.0113976987507376,0.0006608474084424593,0.10198966666454604,0.013374999999844778
378,0.16717022976984525,0.013598736645633814,0.010472195672583366,0.0006003484112268335,0.11136900000080156,0.01441500000025068
379,0.16717022976984525,0.013598736645633814,0.011963814213711779,0.0006858596878798626,0.11136900000080156,0.01441500000025068
380,0.17472947551812476,0.015698188083585016,0.008563081973467716,0.000566672908323908,0.17989099999977046,0.020175000000259992
381,0.17472947551812476,0.015698188083585016,0.16866996699019454,0.011161950923438914,0.17989099999977046,0.020175000000259992
382,0.10690532567168133,0.010171143636781038,0.0054788077746518405,0.00030710766885989416,0.07238766666705487,0.012414999999843229
383,0.10690532567168133,0.010171143636781038,0.010447207549107813,0.0005856050601640012,0.07238766666705487,0.012414999999843229
384,0.16453423989644356,0.011944988771376792,0.009369044565383613,0.0005070721733859461,0.10198966666697136,0.011600000000422977
385,0.16453423989644356,0.011944988771376792,0.014651142308768069,0.0007929502865791553,0.10198966666697136,0.011600000000422977
386,0.1872372212744359,0.014517771245079573,0.009708511641677723,0.0005690516675876822,0.1291300000011688,0.014655000001463728
387,0.1872372212744359,0.014517771245079573,0.018262045810075917,0.0010704058464712826,0.1291300000011688,0.014655000001463728
388,0.08918899010850909,0.008131363630936179,0.0042832289021271786,0.00023647540990582208,0.0748139999977866,0.010544999997364357
389,0.26756697032552723,0.024394090892808532,0.0010518106597077039,5.807005942973701e-05,0.0748139999977866,0.010544999997364357
390,0.3620847957885056,0.05495882887152239,0.3023330903496001,0.02804540051248961,0.3915200000022499,0.07906000000123943
391,0.37720523176917653,0.056361449677968085,0.33086315140923683,0.030691941743348813,0.3915200000022499,0.07906000000123943
392,0.01326270116824586,0.0017265473469016644,0.01057001530864718,0.0012119397067150775,0.014201000000563603,0.0020399999993969686
393,0.01326270116824586,0.0017265473469016644,0.01075128254985095,0.0012327234956431626,0.014201000000563603,0.0020399999993969686
394,0.01247477709204171,0.0017477772678891497,0.010091027870787346,0.0012333015102412694,0.013203666664291328,0.0020600000013170448
395,0.01247477709204171,0.0017477772678891497,0.010193075235832945,0.00124577349734094,0.013203666664291328,0.0020600000013170448
396,0.041386750801738995,0.004840318009490116,0.009907263235045595,0.0009552140398564897,0.025411000002350196,0.004150000000663567
397,0.041386750801738995,0.004840318009490116,0.0045380269642466605,0.00043753627683596966,0.025411000002350196,0.004150000000663567
398,0.17392322101676716,0.020852938904286234,0.021756271701781158,0.0022873462095793404,0.1014406666654395,0.015799999998610776
399,0.17392322101676716,0.020852938904286234,0.020087017544245238,0.0021118491289029784,0.1014406666654395,0.015799999998610776
400,0.17532020570293189,0.022542536969664725,0.012274361825481922,0.0012819306984366268,0.15315733333409298,0.024460000000544824
401,0.17532020570293189,0.022542536969664725,0.1965535601024796,0.020527995358527267,0.15315733333409298,0.024460000000544824
402,0.0631188096207114,0.007320122109376744,0.008763695804421138,0.0008252645183712344,0.04754633333262366,0.007230000000466437
403,0.0631188096207114,0.007320122109376744,0.006844018286644185,0.000644491271844688,0.04754633333262366,0.007230000000466437
404,0.16380476587464637,0.012312246500661577,0.01502636835585238,0.0008746728558756633,0.09080000000055102,0.010840000000219636
405,0.16380476587464637,0.012312246500661577,0.024409099895423038,0.0014208341369835215,0.09080000000055102,0.010840000000219636
406,0.15677748496528546,0.013490354965733978,0.013876577150232015,0.0008026085446363519,0.08990499999830111,0.01404499999868373
407,0.15677748496528546,0.013490354965733978,0.02700045291776925,0.0015616815289706213,0.08990499999830111,0.01404499999868373
408,0.15445742372487134,0.014561230442029383,0.013988714690715463,0.0009080836615646881,0.10276266666672502,0.015740000000126503
409,0.15445742372487134,0.014561230442029383,0.024793104526096985,0.0016094554530129376,0.10276266666672502,0.015740000000126503
410,0.17246623323663576,0.02036002784599868,0.011435113536289992,0.0008800430777644164,0.17152933333272813,0.027375000000271637
411,0.16237627245235764,0.018749733728335643,0.17270175332327212,0.013291077700941954,0.17152933333272813,0.027375000000271637
412,0.049479050712424213,0.00589260513818185,0.006888770183086082,0.0006785685829466742,0.03934733333395949,0.006185000000793176
413,0.049479050712424213,0.00589260513818185,0.008414598980950665,0.0008288681948757168,0.03934733333395949,0.006185000000793176
414,0.14869503190620245,0.017492931434069332,0.01419301795947066,0.0014231083026334495,0.10485833333465658,0.016369999999975942
415,0.14869503190620245,0.017492931434069332,0.019461035876312947,0.0019513229541817125,0.10485833333465658,0.016369999999975942
416,0.15190092172170763,0.016811954667287604,0.016726468055430058,0.0015026495389279,0.10919199999868093,0.016984999999597978
417,0.15190092172170763,0.016811954667287604,0.01934786497033521,0.0017381470063236233,0.10919199999868093,0.016984999999597978
418,0.15067747032649065,0.015255624904169552,0.018236564609525743,0.0015443075176034345,0.10589600000093924,0.014625000001008932
419,0.15067747032649065,0.015255624904169552,0.019853200620697897,0.0016812073777874908,0.10589600000093924,0.014625000001008932
420,0.14364256992703595,0.018375160660275173,0.012776794533164174,0.0011703176828571115,0.1340541199998309,0.022714799998502712
421,0.15261752966135578,0.01919724119485225,0.1522657150245621,0.013947102172112312,0.1340541199998309,0.022714799998502712
422,0.07019982881485107,0.008317610504333574,0.0072489518949612015,0.000694872672164317,0.04589542666741181,0.007576200001058169
423,0.07019982881485107,0.008317610504333574,0.009187879724331629,0.0008807351225504082,0.04589542666741181,0.007576200001058169
424,0.14610864667468554,0.016486228180687873,0.012689136769993076,0.0010439027929199122,0.09036761333273413,0.016366800000444832
425,0.14610864667468554,0.016486228180687873,0.01999853584938947,0.001645228340264635,0.09036761333273413,0.016366800000444832
426,0.14170228291425413,0.01459714566429188,0.011161940998515436,0.0008198706641833048,0.08359212000165522,0.014517599999186741
427,0.14170228291425413,0.01459714566429188,0.02053451925858504,0.0015083084515014151,0.08359212000165522,0.014517599999186741
428,0.14300347520961199,0.019435719604312045,0.010941475888341526,0.0012489105444431635,0.07784610666431642,0.015110999999257428
429,0.14300347520961199,0.019435719604312045,0.014840111543320331,0.0016939188073259825,0.07784610666431642,0.015110999999257428
