method,package1,package2,dram1,dram2,energy
ASCIICaseInsensitiveComparator.compare,0.0,0.0,0.0,0.0,0.0
AbsoluteTimeDateFormat.<init>,0.02578733333333124,0.0,0.003022500000952277,0.0,0.028809833334283518
AbstractBuffer.get,0.0,0.0,0.0,0.0,0.0
AbstractBuffer.hashCode,0.0,0.0,0.0,0.0,0.0
AbstractBuffers.getBuffer,0.0,0.0,0.0,0.0,0.0
AbstractClassGenerator.create,0.0,0.0,0.0,0.0,0.0
AbstractContext.lookup,0.0,0.001127239583335419,0.0,0.00021250000001297545,0.0013397395833483945
AbstractName.createURI,0.0,0.0,0.0,0.0,0.0
AbstractName.hashCode,0.0,0.0,0.0,0.0,0.0
AbstractNameQuery.createURI,0.0,0.0,0.0,0.0,0.0
AbstractRepository.getReifier,0.0,0.0,0.0,0.0,0.0
AbstractSAXParser.endElement,0.0,0.0,0.0,0.0,0.0
AbstractSAXParser.startDocument,0.0,0.00015919951049547736,0.0,2.7063851441601362e-05,0.0001862633619370787
AccessorGenerator.emitBoxingContantPoolEntries,0.0,0.0,0.0,0.0,0.0
AccountDataBean.class$,0.0,0.0,0.0,0.0,0.0
ActiveMQEndpointWorker.start,0.0,0.0,0.0,0.0,0.0
AdvisoryBroker.fireAdvisory,0.0,0.0,0.0,0.0,0.0
Assembler.<init>,0.0,0.0004728316827354418,0.0,8.209594871708562e-05,0.0005549276314525274
AttributePropertyInfoImpl.<init>,0.0,0.08526599999944058,0.0,0.01223999999880713,0.09750599999824772
AxisEngine.setCurrentMessageContext,0.0,0.002313424855451479,0.0,0.0002958815029070805,0.0026093063583585594
AxisFault.output,0.0,0.0,0.0,0.0,0.0
BCClass.newConstructorBuilder,0.0,0.0,0.0,0.0,0.0
BaseDataFileFactoryJ4.newRAFContainer,0.0,0.0,0.0,0.0,0.0
BaseIndex.compareRows,0.0,0.0,0.0,0.0,0.0
BaseIndex.compareValues,0.0,0.0,0.0,0.0,0.0
BaseMonitor.findImplementation,0.0,0.0,0.0,0.0,0.0
BaseMonitor.getImplementations,0.0,0.0,0.0,0.0,0.0
BasePage.releaseExclusive,0.0,0.0,0.0,0.0,0.0
BasicKernel.boot,0.19104145238088677,0.0,0.013530000005024096,0.0,0.20457145238591087
BasicKernel.listGBeans,0.0044738098979661455,0.0,0.0006098663113201141,0.0,0.00508367620928626
BasicLifecycleMonitor.addSource,0.0,0.0,0.0,0.0,0.0
BasicProxyManager$ManagedProxyFactory.<init>,0.0,0.06432786711926404,0.0,0.007363877294278801,0.07169174441354284
BasicRegistry.listGBeans,0.0,0.0,0.0,0.0,0.0
BasicStreamReader.readEndElem,0.0,0.04360809707993436,0.0,0.007147635955866016,0.05075573303580038
BeanDeserializer.<init>,0.0,0.0016612498986752398,0.0,0.0002696996596243156,0.0019309495582995554
BeanSerializer.serialize,0.0,0.0,0.0,0.0,0.0
BeanUtils$1.run,0.0,0.0,0.0,0.0,0.0
BeanUtils.getPropertyDescriptors,0.0,0.0,0.0,0.0,0.0
Benchmark.fileFromInputStream,2.8242761067748052,0.0,0.28042042159581754,0.0,3.104696528370623
Benchmark.unpackZipStream,0.09771724999882281,0.0,0.006941249999727006,0.0,0.10465849999854981
BrokerService.createRegionBroker,0.0,0.0,0.0,0.0,0.0
BrokerService.createTransportConnector,0.0,0.0,0.0,0.0,0.0
BuiltinSchemaTypeSystem.fillInType,0.0,0.012816953042064769,0.0,0.0014552492435998324,0.0142722022856646
ByteArray.toByteArray,0.0,0.0,0.0,0.0,0.0
CalendarDate.setMonth,0.0,0.0,0.0,0.0,0.0
CalendarDeserializer.makeValue,0.0012660189072406776,0.0,0.00020300853725708527,0.0,0.001469027444497763
CalendarProviderImpl.getInstance,0.0,0.0,0.0,0.0,0.0
Cipher.getConfiguredPermission,0.0,0.0023868211381311523,0.0,0.0002648780487735218,0.002651699186904674
ClassFile.addMethod2,0.0,0.0,0.0,0.0,0.0
ClassFile.read,0.0,0.0,0.0,0.0,0.0
ClassFileAssembler.emitByte,0.0,0.0001974904458898648,0.0,2.598726113881489e-05,0.0002234777070286797
ClassFileAssembler.emitInt,0.0,0.042640331892076166,0.0,0.0065579368654691255,0.049198268757545294
ClassFinder.findClass,0.0,0.0,0.0,0.0,0.0
ClassInfoImpl.addProperty,0.0,0.0,0.0,0.0,0.0
ClassPool.cacheCtClass,0.0,0.00020321387282136636,0.0,2.3583815021930276e-05,0.00022679768784329663
ClassPool.compress,0.0,0.001115905660304897,0.0,0.00018150943399878488,0.001297415094303682
ClassTailor.tailor,0.0,0.03919808205391996,0.0,0.006240255342058286,0.045438337395978246
CodeAttribute.<init>,0.04004933333393031,0.0,0.004104999998768713,0.0,0.044154333332699025
CodeEmitter.visitMaxs,0.0,0.004450651214163284,0.0,0.0005650662251656401,0.005015717439328924
Command.executeQueryLocal,0.0,0.0007173594331941267,0.0,0.00012839722046622886,0.0008457566536603556
Command.executeUpdate,0.0,0.0,0.0,0.0,0.0
CommandContainer.update,0.0,0.0,0.0,0.0,0.0
CompileError.<init>,0.0041296236055493535,0.0,0.0006096541013613972,0.0,0.0047392777069107505
ConfigurationFactory.<init>,0.0,0.001307141232499693,0.0,0.0002170050292259383,0.0015241462617256313
ConfigurationFactory.parseConstructorArgs,0.0,0.003603938714177753,0.0,0.0005933947548805909,0.0041973334690583435
ConfigurationImpl.fromProperties,0.0,0.0,0.0,0.0,0.0
ConnectionInfo.setTrace,0.00039441299638942997,0.0,4.473743920198513e-05,0.0,0.0004391504355914151
ConnectionState.<init>,0.0,0.0,0.0,0.0,0.0
ConnectionTrackingCoordinator.setEnvironment,0.0,0.0,0.0,0.0,0.0
ConstPool.addItem,0.0,0.0,0.0,0.0,0.0
ConstPool.readOne,0.00017863668260778966,0.0,2.735671742189151e-05,0.0,0.00020599340002968116
ControlRow.searchForEntry,0.0,0.0,0.0,0.0,0.0
CtClassType.getClassFile3,0.0034245053451977298,0.0,0.0004557700873672057,0.0,0.0038802754325649356
CurveDB.add,0.0,0.005762319672150446,0.0,0.0006362704917875341,0.0063985901639379795
DOMParser.<init>,0.0,0.0524036230794829,0.0,0.00898862953124075,0.061392252610723654
DaCapoServerRunner.initialize,0.0325611851844264,0.0,0.00397999999997275,0.0,0.036541185184399146
DataType.add,0.0,0.0,0.0,0.0,0.0
DataWriter.setIndentStep,0.0,0.05729593406388017,0.0,0.009280392529932084,0.06657632659381225
Database.open,0.0,0.0011468977923598366,0.0,0.0001896267117807164,0.001336524504140553
DateCache.format,0.0,0.0,0.0,0.0,0.0
DbObjectBase.getSQL,0.0,0.0,0.0,0.0,0.0
DefaultHandler.startPrefixMapping,0.0,0.0,0.0,0.0,0.0
DefaultNamingPolicy.getClassName,0.0,0.04319688926854776,0.0,0.007450366653262462,0.05064725592181023
DerbyNetworkGBean.<clinit>,0.0,0.0,0.0,0.0,0.0
Descriptor.toJavaName,0.0,0.0,0.0,0.0,0.0
DeserializationContext.getSOAPConstants,0.0,0.0,0.0,0.0,0.0
DeserializationContext.getTypeFromXSITypeAttr,0.0,0.0,0.0,0.0,0.0
DeserializationContext.pushElementHandler,0.0,0.0,0.0,0.0,0.0
DeserializationContext.startElement,0.0,0.0,0.0,0.0,0.0
DeserializerImpl.setValue,0.0017944085385506816,0.0,0.00025463302751113653,0.0,0.0020490415660618182
DocumentBuilderImpl.<init>,0.0,0.0,0.0,0.0,0.0
DocumentBuilderImpl.newDocument,0.0,0.06319186856013652,0.0,0.010461649904521312,0.07365351846465783
Driver40.newEmbedDatabaseMetaData,0.0,0.002361322147688702,0.0,0.0003529781879112593,0.0027143003355999612
EPollArrayWrapper.epollCtl,0.0,0.0,0.0,0.0,0.0
EPollArrayWrapper.epollWait,0.0006341194678325697,0.0,0.00010042270193464509,0.0,0.0007345421697672147
EPollArrayWrapper.setInterest,0.0,0.0,0.0,0.0,0.0
EPollSelectorImpl.doSelect,0.0005947011359471784,0.0,7.838053668447432e-05,0.0,0.0006730816726316527
EPollSelectorImpl.implDereg,0.0,0.0010855721393183096,0.0,0.00020947761194252252,0.0012950497512608321
EPollSelectorImpl.updateSelectedKeys,0.0010539398907064817,0.0,0.00017172131148107154,0.0,0.0012256612021875532
EjbJarBuilder.build,0.0,0.0012952564639715535,0.0,0.0002049475891276762,0.0015002040530992296
EjbResolver.<init>,0.0,0.0,0.0,0.0,0.0
Engine.getSession,0.0,0.00032917497251627986,0.0,5.324562396466913e-05,0.000382420596480949
Engine.openSession,0.0,0.0004915555125668934,0.0,8.086663632359906e-05,0.0005724221488904924
Enhancer.emitMethods,0.0,0.06708696131594306,0.0,0.010537269298688515,0.07762423061463158
EnterpriseBeanBuilder.load,0.0,0.0,0.0,0.0,0.0
EntityManagerFactoryImpl.setBrokerFactory,0.0,0.0003166512928181995,0.0,4.561844866450779e-05,0.0003622697414827073
ExpressionColumn.mapColumns,0.0,0.0,0.0,0.0,0.0
ExpressionFactory.<clinit>,0.0,0.0,0.0,0.0,0.0
FactoryFinder.<init>,0.0,0.0,0.0,0.0,0.0
FieldInfo.read,0.0,0.0,0.0,0.0,0.0
FileContainer.getUserPage,0.0,0.0,0.0,0.0,0.0
FileDispatcherImpl.force0,0.0,0.0,0.0,0.0,0.0
FileDispatcherImpl.read0,0.0,0.0,0.0,0.0,0.0
FileDispatcherImpl.writev0,0.0,0.0,0.0,0.0,0.0
FileLogger.<init>,0.0,0.0011947961630982547,0.0,0.0001674100719619826,0.0013622062350602373
FileURLConnection.initializeHeaders,0.0,0.057556081266011125,0.0,0.008130581095080476,0.06568666236109161
FileURLMapper.exists,0.0,0.0,0.0,0.0,0.0
Flag.initialize,0.00041810419056475737,0.0,5.029684185646967e-05,0.0,0.000468401032421227
Function.invoke,0.0,0.0,0.0,0.0,0.0
FutureResponse.<init>,0.0,0.0,0.0,0.0,0.0
GBeanAttribute.<init>,0.11662135531114871,0.0,0.0085473076931641,0.0,0.1251686630043128
GBeanInfo.readObject,0.0,0.0001873821656888493,0.0,3.9745222945448466e-05,0.00022712738863429777
GBeanInstance.<init>,0.06737170833376796,0.0,0.007062083334454252,0.0,0.07443379166822221
GeneratedMethodAccessor2.invoke,0.00035714265568654967,0.0,5.6031049150041383e-05,0.0,0.0004131737048365911
GeneratedMethodAccessor33.invoke,0.0004153727619325045,0.0,6.221359062295145e-05,0.0,0.00047758635255545597
GeneratedMethodAccessor4.invoke,0.0,0.004371451033318628,0.0,0.0006676684636815124,0.005039119497000141
GeneratedMethodAccessor64.invoke,0.0,0.011943418156415095,0.0,0.0018779892106500046,0.0138214073670651
GenericServiceEndpoint.createCall,0.0,0.0,0.0,0.0,0.0
GeronimoUserTransaction.getStatus,0.0,0.0,0.0,0.0,0.0
GetPropertyAction.run,0.0,0.0,0.0,0.0,0.0
HTTPSender.readFromSocket,0.0,0.0,0.0,0.0,0.0
HTTPSender.readHeadersFromSocket,0.011982334450823489,0.0,0.001588599059724458,0.0,0.013570933510547946
Handler.parseURL,0.05911943859616274,0.0,0.005624210526947168,0.0,0.06474364912310991
HandlerChainImpl.getMessageInfo,0.0,0.0,0.0,0.0,0.0
Hierarchy.<init>,0.029712888889695963,0.0,0.002097777777601516,0.0,0.031810666667297476
HttpConnection.getInputStream,0.0,0.0,0.0,0.0,0.0
ISO_8859_1.newEncoder,0.0,0.0,0.0,0.0,0.0
ImmutableDescriptor.<init>,0.0005396055108999165,0.0,4.653466688391237e-05,0.0,0.0005861401777838289
Injector$1.run,0.0,0.0,0.0,0.0,0.0
J2DoPrivHelper$11.run,0.0,0.0,0.0,0.0,0.0
JDBCDriverRegistrationGBean.<init>,0.0034575349341255074,0.0,0.00046504163265925313,0.0,0.00392257656678476
JDK12Hooks.getSystemProperty,0.0,0.0006528398240691612,0.0,0.00012198346033184776,0.0007748232844010089
JMXManagementService$3.run,0.0,0.0,0.0,0.0,0.0
JarIndex.get,0.0,0.0003100939597207865,0.0,5.51677852085379e-05,0.0003652617449293244
JavaUtils.isJavaKeyword,0.0,0.0,0.0,0.0,0.0
JdbcConnection.<init>,0.0,0.003057463705136975,0.0,0.0005112571479396117,0.003568720853076587
JdbcResultSet.getColumnIndex,0.0,0.0,0.0,0.0,0.0
JdbcXAConnection$PooledJdbcConnection.checkClosed,0.0,0.0,0.0,0.0,0.0
JdkFeatures.<clinit>,0.0,0.0,0.0,0.0,0.0
JdkXmlUtils.getSAXFactory,0.0,0.0,0.0,0.0,0.0
JettyServletHolder.<init>,0.003010646199649795,0.0,0.0004027310413016952,0.0,0.00341337724095149
JmxMBeanServer.<init>,0.02395618353095307,0.0,0.0029751115166957625,0.0,0.02693129504764883
JournalPersistenceAdapter.recover,0.0,0.0,0.0,0.0,0.0
KeyFactory$Generator.generateClass,0.0,0.06783035983410927,0.0,0.010094642650576559,0.07792500248468584
Launcher$AppClassLoader.loadClass,0.04253290001736261,0.0005163437500154293,0.004642210551204192,7.647321431899659e-05,0.047767927532901225
LocalResult.<init>,0.0,0.0,0.0,0.0,0.0
LocalResult.close,0.0,0.0,0.0,0.0,0.0
LocalizedResource.initMaxSizes2,0.0006317486095766052,0.0,6.402636050892249e-05,0.0,0.0006957749700855278
LocatableAnnotation.create,0.0,0.0,0.0,0.0,0.0
LockableHashtable.get,0.0,0.0,0.0,0.0,0.0
Log4jService.<clinit>,0.0,0.0,0.0,0.0,0.0
Log4jService.logEnvInfo,0.0,0.034240811758644116,0.0,0.004512792324136874,0.03875360408278099
LogBufferManager$FlushManager.run,0.0,0.0,0.0,0.0,0.0
LogFactory$2.run,0.03218133333333146,0.0,0.003133333333405769,0.0,0.03531466666673723
LogFactoryImpl$1.run,0.0,0.0,0.0,0.0,0.0
LogManager.<clinit>,0.0,0.0,0.0,0.0,0.0
Logger$2.compute,0.0,0.0008264349417509671,0.0,0.0001356013865506722,0.0009620363283016392
LongVector.addElement,0.0,0.0011554685823712198,0.0,0.0001908324365063012,0.001346301018877521
MBeanServerBuilder.newMBeanServerDelegate,0.0,0.0,0.0,0.0,0.0
MXBeanSupport.getMBeanIntrospector,0.0,0.0,0.0,0.0,0.0
ManagedProperties.getValueProperty,0.0,0.0,0.0,0.0,0.0
ManagementFactoryHelper.getDiagnosticCommandMBean,0.0,0.0,0.0,0.0,0.0
MapMaker.isTarget,0.00014301758290423516,0.0,2.1704506898844064e-05,0.0,0.00016472208980307924
Mapping.setNamespaceURI,0.007881287292809512,0.020013386132422362,0.0013004419890210515,0.003515022396194468,0.03271013781044739
Mapping.setPrefix,0.0,0.0,0.0,0.0,0.0
Maven2Repository.list,0.0,0.0,0.0,0.0,0.0
MemberrefInfo.<init>,0.0,0.05088469335082863,0.0,0.008666412947493441,0.059551106298322075
MemoryPoolImpl.<init>,0.0,0.0,0.0,0.0,0.0
Message.setup,0.008295107431351383,0.0,0.0013567533246919596,0.0,0.009651860756043342
MessageContext.getProperty,0.0006829328816192909,0.0,8.889415605227121e-05,0.0,0.0007718270376715622
MessageElement.setEndIndex,0.0,0.001089984969750102,0.0,0.00019966775965991808,0.00128965272941002
MetaIndex.mayContain,0.0,0.040951366370758316,0.0,0.00663213944519678,0.04758350581595509
MethodAccessorGenerator$1.run,0.0,0.0,0.0,0.0,0.0
MethodFinder.<clinit>,0.0,0.0,0.0,0.0,0.0
MimeTable.parse,0.0,0.0,0.0,0.0,0.0
MimeTypes.getCharsetFromContentType,0.0,0.0007194976307928607,0.0,0.00013268399034408932,0.0008521816211369501
MultiParentClassLoader.checkParents,0.0,0.003957198064769402,0.0,0.0006370039048227667,0.004594201969592169
MultiParentClassLoader.loadClassInternal,0.005261488092403286,0.02255441755450604,0.0006455314269739772,0.0034501098095629833,0.03191154688344629
MultiParentClassLoader.loadOptimizedClass,0.07178680552278192,0.0979560746518973,0.006597632697864077,0.01496638183032319,0.1913068947028665
MultiVersionIndex.commit,0.0003207658902487169,0.0,4.172522701373404e-05,0.0,0.00036249111726245094
NCSARequestLog.log,0.0,0.0,0.0,0.0,0.0
NSStack.add,0.008716462969715809,0.0,0.0013177892164853767,0.0,0.010034252186201185
NSStack.cloneFrame,0.0,0.0,0.0,0.0,0.0
NSStack.getPrefix,0.0,0.01971451806220776,0.0,0.003431567251902215,0.023146085314109974
NamespaceSupport.getURI,0.0,0.0,0.0,0.0,0.0
NamespaceSupport.popContext,0.0,0.0016998272727836259,0.0,0.00030252272729492025,0.002002350000078546
Native.invokeInt,0.0,0.0,0.0,0.0,0.0
NativeMethodAccessorImpl.invoke0,0.0,0.06254420829185793,0.0,0.010304479522716294,0.07284868781457422
NetworkServerControlImpl.blockingStart,0.0,0.0,0.0,0.0,0.0
NodeFactoryImpl.getNode,0.0002898823489698032,0.003636024363084702,4.5594448049873574e-05,0.00028484862357745826,0.004256349783681838
NodeImpl.initializeChildren,0.0,0.0,0.0,0.0,0.0
NodeImpl.removeNodeFromChildList,0.0,0.00993938288291673,0.0,0.0018677702702572445,0.011807153153173974
NormalizerImpl.<init>,0.0,0.0,0.0,0.0,0.0
NotFoundException.<init>,0.0,0.0,0.0,0.0,0.0
NsInputElementStack.<init>,0.0,0.07461453855175305,0.0,0.010630005880940523,0.08524454443269358
ObjectArray$ObjectArrayIterator.next,0.0,0.0,0.0,0.0,0.0
ObjectArray.ensureCapacity,0.0,0.0,0.0,0.0,0.0
ObjectArray.get,0.0,0.0,0.0,0.0,0.0
ObjectArray.newInstance,0.0,0.0,0.0,0.0,0.0
ObjectIdentifier.pack,0.0,0.02398785607754108,0.0,0.0029496462868569967,0.026937502364398076
ObjectName.<clinit>,0.0,0.0,0.0,0.0,0.0
OpenEjbSystemGBean.<init>,0.0,0.0,0.0,0.0,0.0
OpenJPAConfigurationImpl.<init>,0.0,0.0,0.0,0.0,0.0
OptimizedAccessorFactory.instanciate,0.0,0.06485999999858905,0.0,0.00960000000001552,0.07445999999860456
OptionConverter.instantiateByClassName,0.0,0.0,0.0,0.0,0.0
ParameterDesc.readObject,0.0,0.0,0.0,0.0,0.0
ParseUtil.encodePath,0.034654444444135554,0.0,0.0022333333326969296,0.0,0.036887777776832484
Parser.<init>,0.08799947619107634,0.0,0.010119999999698759,0.0,0.0981194761907751
Parser.initialize,0.0,0.0,0.0,0.0,0.0
Parser.prepareCommand,0.0,0.005133821883737462,0.0,0.0006752963602644128,0.0058091182440018745
Parser.read,6.179768194803597e-06,0.0,6.998956394188471e-07,0.0,6.879663834222445e-06
Parser.readCondition,0.0,0.0,0.0,0.0,0.0
Parser.readIf,0.0,0.0,0.0,0.0,0.0
ParserImpl.getParser,0.00016301579677641332,0.0,1.6259673317424796e-05,0.0,0.0001792754700938381
ParserImpl.getTokenManager,0.0,0.0,0.0,0.0,0.0
PerfCounter.get,0.0,0.003188147558459929,0.0,0.00047730891719862626,0.003665456475658555
PersistenceMetaDataFactory.newClassArgParser,0.0,0.0,0.0,0.0,0.0
PersistenceProviderImpl.newConfigurationImpl,0.0,0.00037081761003044327,0.0,5.754716979902028e-05,0.00042836477982946357
PiccoloLexer.<init>,0.0,0.0,0.0,0.0,0.0
Plan.<init>,0.0,0.0,0.0,0.0,0.0
PreHashedMap.get,0.0,0.005855119352540176,0.0,0.0010738269644533813,0.0069289463169935565
PrefixedQName.<init>,0.0,0.0,0.0,0.0,0.0
ProjectResourceBundle$Context.loadBundle,0.0,0.0,0.0,0.0,0.0
PropertySetter.introspect,0.04285399999979276,0.0,0.003255000001500417,0.0,0.04610900000129318
ProviderList$ServiceList.iterator,0.0,0.12138180872887933,0.0,0.014316393447710638,0.13569820217658995
RPCElement.updateOperationsByName,0.0,0.0,0.0,0.0,0.0
RPCHandler.<init>,0.009611909991303591,0.0,0.001633706907054408,0.0,0.011245616898357999
ReflectClassesJava2.loadGeneratedClassFromData,0.0022632345404986877,0.0,0.0003298560005766436,0.0,0.0025930905410753314
ReflectLoaderJava2.loadGeneratedClass,0.0,0.00013566206185057782,0.0,2.667218640488884e-05,0.00016233424825546665
Reflection.getCallerClass,0.0,0.0,0.0,0.0,0.0
ReflectionFactory.copyConstructor,0.0,0.0,0.0,0.0,0.0
ReflectionNavigator.getMethodParameters,0.0,0.07551976634587589,0.0,0.012246970171049035,0.08776673651692492
ReflectionNavigator.isOverriding,0.0,0.19670506263730955,0.0,0.02707315924161971,0.22377822187892926
ReplaceableString.<init>,0.0,0.0,0.0,0.0,0.0
Repository.<init>,0.04359161602808222,0.0,0.005373965092536305,0.0,0.04896558112061852
RepositoryConfigurationStore.<init>,0.0,0.0,0.0,0.0,0.0
Resource.getBytes,0.08427178010370699,0.0,0.004734652331086319,0.0,0.08900643243479331
RolloverFileOutputStream.write,0.0006717441115237834,0.008427270581624161,0.00010179479935330567,0.0010024098545325108,0.010203219347033762
Row.getValue,0.0,0.0,0.0,0.0,0.0
RowOrderingImpl.<init>,0.0,0.0,0.0,0.0,0.0
RuntimeModelBuilder.createTransducer,0.0,0.0,0.0,0.0,0.0
SAX2EventRecorder$objArrayVector.add,0.0,0.0,0.0,0.0,0.0
SAX2EventRecorder$objArrayVector.getLength,0.0,0.014314367149755187,0.0,0.0024629710145139447,0.016777338164269132
SAX2EventRecorder.replay,0.0,0.0,0.0,0.0,0.0
SAXOutputter.startElement,0.0,0.0,0.0,0.0,0.0
SAXParserFactoryImpl.newSAXParser,0.0,0.0,0.0,0.0,0.0
SAXParserImpl.<init>,0.0,0.002965231296701299,0.0,0.0005159203983358138,0.003481151695037113
SHA.implCompress,0.0009363594818550627,0.0,0.0001495640591885473,0.0,0.00108592354104361
SOAPEnvelope.outputImpl,0.0,0.0,0.0,0.0,0.0
SOAPHandler.characters,0.0,0.0,0.0,0.0,0.0
SOAPHandler.startElement,0.0010332380952171487,0.0,0.0001735714285608819,0.0,0.0012068095237780306
SOAPPart.<init>,7.345126953596642e-05,0.0,9.388702187894479e-06,0.0,8.28399717238609e-05
SOAPPart.writeTo,0.0006069102648533546,0.0004556337209451581,8.083950963612729e-05,8.777616278885668e-05,0.0012311596582234967
SQLExceptionFactory.getSQLException,0.0,0.0,0.0,0.0,0.0
Scheduler$1.newThread,0.0,0.0,0.0,0.0,0.0
Schema.findTableOrView,0.0,0.0,0.0,0.0,0.0
SchemaTypeLoaderBase.getMethod,0.0,0.017437537617977682,0.0,0.001969277885310542,0.019406815503288224
SchemaTypeSystemImpl$XsbReader.readString,0.0,0.0009914764378201259,0.0,0.00016214579001257358,0.0011536222278326995
SecureRandom.engineNextBytes,0.0,0.0,0.0,0.0,0.0
Select.preparePlan,0.0,0.0,0.0,0.0,0.0
SelectNode.class$,0.0,0.00012360276015181666,0.0,1.1440438462348215e-05,0.00013504319861416488
SelectorImpl.processDeregisterQueue,0.0,0.0,0.0,0.0,0.0
SelectorManager$SelectSet.doSelect,0.0,0.0,0.0,0.0,0.0
SelectorManager.doSelect,0.0,0.0,0.0,0.0,0.0
SelectorProviderImpl.openServerSocketChannel,0.0,0.0,0.0,0.0,0.0
SerializationContext.getActualJavaClass,0.0,0.0,0.0,0.0,0.0
SerializationContext.getPrefixForURI,0.0,0.0,0.0,0.0,0.0
SerializationContext.qName2String,0.0,0.0,0.0,0.0,0.0
SerializationContext.registerPrefixForURI,0.0,0.009120181855294904,0.0,0.0016531620795201753,0.010773343934815079
SerializationContext.startElement,0.0,0.0,0.0,0.0,0.0
SerializationContext.writeXMLDeclaration,0.0,0.0,0.0,0.0,0.0
SerializedConfigurationMarshaler.readConfigurationData,0.1144779848473263,0.0011639426751351462,0.012249090910203944,0.00018229299361348912,0.12807331142627887
SerializedGBeanState.loadGBeans,0.0,0.0,0.0,0.0,0.0
ServerSocketChannelImpl.accept0,0.0,0.0,0.0,0.0,0.0
SignatureFileVerifier.<clinit>,0.0,0.0,0.0,0.0,0.0
SimpleDeserializer.init,0.0,0.0,0.0,0.0,0.0
SocketChannelImpl.isConnected,0.0,0.0,0.0,0.0,0.0
SocketFactoryFactory.getFactory,0.0,0.0,0.0,0.0,0.0
SocketInputStream.close,0.024842642403626942,0.008925776636185262,0.003316262756964756,0.0013961472602662802,0.03848082905704324
StAXStreamConnector.processText,0.0,0.0,0.0,0.0,0.0
StandardMBean.getDescriptor,0.00129323671996,0.0,0.00010404766665940012,0.0,0.0013972843866194
StringUtils.toUpperEnglish,0.0,0.0,0.0,0.0,0.0
SubqueryNode.generateExpression,0.0,0.0,0.0,0.0,0.0
SuperProperties.decodeNextCharacter,0.0,0.0,0.0,0.0,0.0
SymbolTable.addSymbol,0.0010732590361215671,0.0013819027866368377,0.00014575301199318304,0.0002046569004185696,0.0028055717351701576
TCCLInterceptor.returnConnection,0.0,0.0,0.0,0.0,0.0
Table.setColumns,0.0006545556147239436,0.0,0.00010444255779260044,0.0,0.0007589981725165441
TableData.doLock,0.0,0.0,0.0,0.0,0.0
TableFilter.getBestPlanItem,0.0,0.0,0.0,0.0,0.0
TemplateRow.allocate_objects,0.0,0.0,0.0,0.0,0.0
TextBuffer.<init>,0.0,0.07243350000135251,0.0,0.007065000001603039,0.07949850000295555
ThreadPool$ContextClassLoaderRunnable.run,0.0008557615560904911,0.0,0.00012192309418674216,0.0,0.0009776846502772333
ThreadPool.execute,0.0,0.0,0.0,0.0,0.0
ThreadPoolExecutor.addThread,0.0,0.0,0.0,0.0,0.0
Timeout.schedule,0.0,0.0,0.0,0.0,0.0
TopicRegion.createSubscription,0.0007829466119477352,0.0,6.579280335220007e-05,0.0,0.0008487394152999352
TradeAction.logout,0.0,0.0,0.0,0.0,0.0
TradeConfig.getTrace,0.0,0.0,0.0,0.0,0.0
TradeConfig.random,0.0,0.0,0.0,0.0,0.0
TradeDirect.buy,0.0,0.0,0.0,0.0,0.0
TransformerFactoryImpl.newTransformer,0.0,0.0,0.0,0.0,0.0
TransformerFactoryImpl.newTransformerHandler,0.0,0.05565261015835205,0.0,0.009542308886543966,0.06519491904489602
TransletOutputHandlerFactory.getSerializationHandler,0.0,0.0626047630018826,0.0,0.010624862916627457,0.07322962591851005
TreeCursor.next,0.0,0.0,0.0,0.0,0.0
TypeMappingImpl$Pair.<init>,0.0,0.02252617229521464,0.0,0.0039511520085438534,0.026477324303758494
TypeMappingImpl.internalRegister,0.0,0.0014534457539526428,0.0,0.00025927207199150716,0.00171271782594415
TypeUtils.parseSignature,0.0,0.0,0.0,0.0,0.0
UCode_CharStream.GetImage,0.0,0.0,0.0,0.0,0.0
URIUtil.canonicalPath,0.0,0.0,0.0,0.0,0.0
URLClassPath$FileLoader.getResource,0.039882861206723484,0.03592350844616208,0.003335652670282397,0.003729227056921524,0.08287124938008948
URLClassPath$JarLoader$2.getInputStream,0.11655281481368242,0.0011434757692464622,0.010779791666411458,0.00018992506445608435,0.12866600731379643
URLClassPath$JarLoader.checkResource,0.0,0.000387276640982144,0.0,1.1505387723185107e-05,0.0003987820287053291
URLClassPath$JarLoader.getJarFile,0.0,0.0,0.0,0.0,0.0
URLClassPath$JarLoader.getResource,0.003983430155692693,0.046229560759532794,0.0004838191266166168,0.005843174633955672,0.05653998467579777
URLClassPath$Loader.getBaseURL,0.0,0.0014194271864590151,0.0,0.0002183992076814141,0.0016378263941404293
URLConnection.getContentType,0.0,0.0,0.0,0.0,0.0
URLUtil.urlNoFragString,0.0,0.0,0.0,0.0,0.0
UTF8Encoder.writeEncoded,0.0009306291524573047,0.0,0.00014462318615029987,0.0,0.0010752523386076045
UTF_8$Encoder.encodeArrayLoop,0.0,0.0,0.0,0.0,0.0
UnixFileSystemProvider.newDirectoryStream,0.0,0.0012142520325260267,0.0,0.00013024390240226367,0.0013444959349282904
Unsafe.defineClass,0.058980409091335874,0.0015931065375549272,0.0040890909061118055,0.0002522875856201979,0.0649148941206228
Unsafe.park,0.0,0.0,0.0,0.0,0.0
Unsafe.setMemory,0.0,0.0009597304139229814,0.0,0.00011614601371833701,0.0010758764276413183
Unsafe.unpark,0.0,0.0,0.0,0.0,0.0
User.getCreateSQL,0.0,0.00017613466390605632,0.0,2.5608931559413118e-05,0.00020174359546546944
Utf8Info.<init>,0.0,0.0,0.0,0.0,0.0
Util$3.iterator,0.0,0.0,0.0,0.0,0.0
Validator.getInstance,0.0,0.0,0.0,0.0,0.0
W3CDomHandler.marshal,0.0,0.0,0.0,0.0,0.0
WstxInputFactory.doCreateSR,0.0,0.06430637837782377,0.0,0.010671808612356164,0.07497818699017994
XML11Configuration.<init>,0.0,0.0,0.0,0.0,0.0
XMLChar.<clinit>,0.0,0.0,0.0,0.0,0.0
XMLDTDValidator.<init>,0.0,0.07119009004069929,0.0,0.0119915573087545,0.08318164734945378
XMLDocumentFragmentScannerImpl.getString,0.010660584143127113,0.0,0.00131699137228756,0.0,0.011977575515414673
XMLDocumentFragmentScannerImpl.seekCloseOfStartTag,0.0,0.0,0.0,0.0,0.0
XMLEncoderFactory.getEncoder,0.0,0.0,0.0,0.0,0.0
XMLEntityManager$RewindableInputStream.read,0.0,0.0,0.0,0.0,0.0
XMLEntityManager.setScannerVersion,0.0,0.0,0.0,0.0,0.0
XMLEntityManager.setupCurrentEntity,0.0,0.006351754057060083,0.0,0.0008977602492396186,0.007249514306299701
XMLEntityScanner.invokeListeners,0.0,0.0,0.0,0.0,0.0
XMLEntityScanner.registerListener,0.0004958460599821425,0.0,6.162174607634659e-05,0.0,0.0005574678060584891
XMLEntityScanner.scanQName,0.0,0.0,0.0,0.0,0.0
XMLEntityScanner.skipChar,0.0,0.0,0.0,0.0,0.0
XMLLimitAnalyzer.getTotalValue,0.004529888235265389,0.0,0.0005814705882478258,0.0,0.005111358823513215
XMLScanner.scanXMLDeclOrTextDecl,0.0,0.0,0.0,0.0,0.0
XMLSecurityManager$Limit.values,0.0,0.0,0.0,0.0,0.0
XMLSecurityManager.isNoLimit,0.0,0.0,0.0,0.0,0.0
XMLUtils.releaseSAXParser,0.008548444529448045,0.0,0.0012585969727938785,0.0,0.009807041502241924
Xact.<init>,0.0,0.0,0.0,0.0,0.0
