method,package1,package2,dram1,dram2,energy
com.ctc.wstx.compat,0.0,0.0,0.0,0.0,0.0
com.ctc.wstx.sr,0.0,0.11822263563168742,0.0,0.017777641836806538,0.13600027746849397
com.ctc.wstx.stax,0.0,0.06430637837782377,0.0,0.010671808612356164,0.07497818699017994
com.ctc.wstx.util,0.0,0.07243350000135251,0.0,0.007065000001603039,0.07949850000295555
com.sun.beans.finder,0.0,0.0,0.0,0.0,0.0
com.sun.jmx.mbeanserver,0.06754779955903528,0.0,0.008349076609232068,0.0,0.07589687616826735
com.sun.jna,0.0,0.0,0.0,0.0,0.0
com.sun.org.apache.xalan.internal.xsltc.runtime.output,0.0,0.0626047630018826,0.0,0.010624862916627457,0.07322962591851005
com.sun.org.apache.xalan.internal.xsltc.trax,0.0,0.05565261015835205,0.0,0.009542308886543966,0.06519491904489602
com.sun.org.apache.xerces.internal.impl,0.011156430203109255,0.006351754057060083,0.0013786131183639065,0.0008977602492396186,0.019784557627772863
com.sun.org.apache.xerces.internal.impl.dtd,0.0,0.07119009004069929,0.0,0.0119915573087545,0.08318164734945378
com.sun.org.apache.xerces.internal.jaxp,0.0,0.06615709985683782,0.0,0.010977570302857126,0.07713467015969494
com.sun.org.apache.xerces.internal.parsers,0.0,0.05256282258997838,0.0,0.009015693382682353,0.06157851597266073
com.sun.org.apache.xerces.internal.util,0.0010732590361215671,0.0030817300594204633,0.00014575301199318304,0.0005071796277134899,0.004807921735248703
com.sun.org.apache.xerces.internal.utils,0.004529888235265389,0.0,0.0005814705882478258,0.0,0.005111358823513215
com.sun.xml.bind.marshaller,0.0,0.05729593406388017,0.0,0.009280392529932084,0.06657632659381225
com.sun.xml.bind.v2.bytecode,0.0,0.03919808205391996,0.0,0.006240255342058286,0.045438337395978246
com.sun.xml.bind.v2.model.annotation,0.0,0.0,0.0,0.0,0.0
com.sun.xml.bind.v2.model.impl,0.0,0.08526599999944058,0.0,0.01223999999880713,0.09750599999824772
com.sun.xml.bind.v2.model.nav,0.0,0.27222482898318545,0.0,0.03932012941266874,0.31154495839585417
com.sun.xml.bind.v2.runtime.reflect.opt,0.0,0.06485999999858905,0.0,0.00960000000001552,0.07445999999860456
com.sun.xml.bind.v2.runtime.unmarshaller,0.0,0.0,0.0,0.0,0.0
edu.emory.mathcs.backport.java.util.concurrent,0.0,0.0,0.0,0.0,0.0
javassist,0.0034245053451977298,0.0013191195331262635,0.0004557700873672057,0.00020509324902071515,0.005404488214711915
javassist.bytecode,0.040227970016538106,0.05204016193319985,0.004132356716190605,0.008857245383999743,0.10525773404992832
javassist.bytecode.stackmap,0.00014301758290423516,0.0,2.1704506898844064e-05,0.0,0.00016472208980307924
javassist.compiler,0.0041296236055493535,0.0,0.0006096541013613972,0.0,0.0047392777069107505
javax.crypto,0.0,0.0023868211381311523,0.0,0.0002648780487735218,0.002651699186904674
javax.management,0.0018328422308599166,0.0,0.00015058233354331248,0.0,0.001983424564403229
javax.xml.bind.annotation,0.0,0.0,0.0,0.0,0.0
jdk.xml.internal,0.0,0.0,0.0,0.0,0.0
net.sf.cglib.core,0.0,0.11547790031682031,0.0,0.018110075529004663,0.133587975845825
net.sf.cglib.proxy,0.0,0.06708696131594306,0.0,0.010537269298688515,0.07762423061463158
org.apache.activemq.advisory,0.0,0.0,0.0,0.0,0.0
org.apache.activemq.broker,0.0,0.0,0.0,0.0,0.0
org.apache.activemq.broker.region,0.0007829466119477352,0.0,6.579280335220007e-05,0.0,0.0008487394152999352
org.apache.activemq.ra,0.0,0.0,0.0,0.0,0.0
org.apache.activemq.state,0.0,0.0,0.0,0.0,0.0
org.apache.activemq.store.journal,0.0,0.0,0.0,0.0,0.0
org.apache.activemq.thread,0.0,0.0,0.0,0.0,0.0
org.apache.activemq.transport,0.0,0.0,0.0,0.0,0.0
org.apache.activemq.util,0.0,0.0,0.0,0.0,0.0
org.apache.axis,0.009658401847359995,0.002769058576396637,0.0015358756925682527,0.0003836576656959372,0.01434699378202082
org.apache.axis.components.encoding,0.0009306291524573047,0.0,0.00014462318615029987,0.0,0.0010752523386076045
org.apache.axis.components.net,0.0,0.0,0.0,0.0,0.0
org.apache.axis.description,0.0,0.0,0.0,0.0,0.0
org.apache.axis.encoding,0.0017944085385506816,0.033099799904462185,0.00025463302751113653,0.005863586160055536,0.04101242763057954
org.apache.axis.encoding.ser,0.0012660189072406776,0.0016612498986752398,0.00020300853725708527,0.0002696996596243156,0.0033999770027973186
org.apache.axis.handlers,0.0,0.0,0.0,0.0,0.0
org.apache.axis.i18n,0.0,0.0,0.0,0.0,0.0
org.apache.axis.message,0.01064514808652074,0.02534373500242202,0.00180727833561529,0.004530409044431107,0.04232657046898916
org.apache.axis.transport.http,0.03682497685445043,0.008925776636185262,0.004904861816689214,0.0013961472602662802,0.052051762567591184
org.apache.axis.utils,0.025146194791973366,0.039727904194630126,0.0038768281783003065,0.0069465896480966835,0.07569751681300046
org.apache.commons.discovery.jdk,0.0,0.0006528398240691612,0.0,0.00012198346033184776,0.0007748232844010089
org.apache.commons.discovery.tools,0.0,0.0,0.0,0.0,0.0
org.apache.commons.jexl,0.0,0.0,0.0,0.0,0.0
org.apache.commons.jexl.parser,0.08799947619107634,0.0,0.010119999999698759,0.0,0.0981194761907751
org.apache.commons.logging,0.03218133333333146,0.0,0.003133333333405769,0.0,0.03531466666673723
org.apache.commons.logging.impl,0.0,0.0,0.0,0.0,0.0
org.apache.derby.iapi.tools.i18n,0.0006317486095766052,0.0,6.402636050892249e-05,0.0,0.0006957749700855278
org.apache.derby.impl.drda,0.0,0.0,0.0,0.0,0.0
org.apache.derby.impl.jdbc,0.0,0.0,0.0,0.0,0.0
org.apache.derby.impl.services.bytecode,0.0,0.0,0.0,0.0,0.0
org.apache.derby.impl.services.jmx,0.0,0.0,0.0,0.0,0.0
org.apache.derby.impl.services.monitor,0.0,0.0,0.0,0.0,0.0
org.apache.derby.impl.services.reflect,0.0022632345404986877,0.00013566206185057782,0.0003298560005766436,2.667218640488884e-05,0.002755424789330798
org.apache.derby.impl.sql.compile,0.0004528981457462165,0.0037596271232365184,6.185412136729837e-05,0.0002962890620398065,0.00457066845238984
org.apache.derby.impl.store.access.btree,0.0,0.0,0.0,0.0,0.0
org.apache.derby.impl.store.access.conglomerate,0.0,0.0,0.0,0.0,0.0
org.apache.derby.impl.store.raw.data,0.0,0.0,0.0,0.0,0.0
org.apache.derby.impl.store.raw.log,0.0,0.0011947961630982547,0.0,0.0001674100719619826,0.0013622062350602373
org.apache.derby.impl.store.raw.xact,0.0,0.0,0.0,0.0,0.0
org.apache.derby.jdbc,0.0,0.002361322147688702,0.0,0.0003529781879112593,0.0027143003355999612
org.apache.geronimo.axis.client,0.0,0.0,0.0,0.0,0.0
org.apache.geronimo.connector.outbound,0.00039441299638942997,0.0,4.473743920198513e-05,0.0,0.0004391504355914151
org.apache.geronimo.connector.outbound.connectiontracking,0.0,0.0,0.0,0.0,0.0
org.apache.geronimo.derby,0.0,0.0,0.0,0.0,0.0
org.apache.geronimo.gbean,0.0,0.0001873821656888493,0.0,3.9745222945448466e-05,0.00022712738863429777
org.apache.geronimo.gbean.runtime,0.1839930636449167,0.0,0.015609391027618352,0.0,0.19960245467253504
org.apache.geronimo.jetty6,0.003010646199649795,0.0,0.0004027310413016952,0.0,0.00341337724095149
org.apache.geronimo.kernel.basic,0.1955152622788529,0.06432786711926404,0.01413986631634421,0.007363877294278801,0.28134687300873995
org.apache.geronimo.kernel.config,0.1915262784625115,0.12563163294630791,0.019492255035042,0.01923578853832243,0.35588595498218384
org.apache.geronimo.kernel.repository,0.0,0.0,0.0,0.0,0.0
org.apache.geronimo.openejb,0.0,0.0,0.0,0.0,0.0
org.apache.geronimo.pool,0.0008557615560904911,0.0,0.00012192309418674216,0.0,0.0009776846502772333
org.apache.geronimo.samples.daytrader,0.0,0.0,0.0,0.0,0.0
org.apache.geronimo.samples.daytrader.direct,0.0,0.0,0.0,0.0,0.0
org.apache.geronimo.system.configuration,0.0,0.0,0.0,0.0,0.0
org.apache.geronimo.system.logging.log4j,0.0,0.034240811758644116,0.0,0.004512792324136874,0.03875360408278099
org.apache.geronimo.system.util,0.0034575349341255074,0.0,0.00046504163265925313,0.0,0.00392257656678476
org.apache.geronimo.transaction,0.0,0.0,0.0,0.0,0.0
org.apache.log4j,0.029712888889695963,0.0,0.002097777777601516,0.0,0.031810666667297476
org.apache.log4j.config,0.04285399999979276,0.0,0.003255000001500417,0.0,0.04610900000129318
org.apache.log4j.helpers,0.02578733333333124,0.0,0.003022500000952277,0.0,0.028809833334283518
org.apache.openejb.assembler.classic,0.0,0.0017680881467069952,0.0,0.00028704353784476185,0.0020551316845517573
org.apache.openejb.config,0.0,0.004911079946677446,0.0,0.0008103997841065292,0.005721479730783976
org.apache.openejb.util,0.0,0.0008264349417509671,0.0,0.0001356013865506722,0.0009620363283016392
org.apache.openjpa.conf,0.0,0.0,0.0,0.0,0.0
org.apache.openjpa.lib.conf,0.0,0.0,0.0,0.0,0.0
org.apache.openjpa.lib.util,0.0,0.0,0.0,0.0,0.0
org.apache.openjpa.persistence,0.0,0.0006874689028486427,0.0,0.00010316561846352806,0.0007906345213121709
org.apache.xbean.naming.context,0.0,0.001127239583335419,0.0,0.00021250000001297545,0.0013397395833483945
org.apache.xmlbeans.impl.piccolo.xml,0.0,0.0,0.0,0.0,0.0
org.apache.xmlbeans.impl.schema,0.0,0.03124596709786258,0.0,0.003586672918922948,0.03483264001678553
org.dacapo.daytrader,0.0325611851844264,0.0,0.00397999999997275,0.0,0.036541185184399146
org.dacapo.harness,2.921993356773628,0.0,0.28736167159554454,0.0,3.2093550283691727
org.h2.command,6.179768194803597e-06,0.005851181316931589,6.998956394188471e-07,0.0008036935807306417,0.006661754561496454
org.h2.command.dml,0.0,0.0,0.0,0.0,0.0
org.h2.engine,0.0,0.002143762941349066,0.0,0.0003493479036283977,0.0024931108449774636
org.h2.expression,0.0,0.0,0.0,0.0,0.0
org.h2.index,0.0003207658902487169,0.0,4.172522701373404e-05,0.0,0.00036249111726245094
org.h2.jdbc,0.0,0.003057463705136975,0.0,0.0005112571479396117,0.003568720853076587
org.h2.jdbcx,0.0,0.0,0.0,0.0,0.0
org.h2.result,0.0,0.0,0.0,0.0,0.0
org.h2.schema,0.0,0.0,0.0,0.0,0.0
org.h2.table,0.0006545556147239436,0.0,0.00010444255779260044,0.0,0.0007589981725165441
org.h2.util,0.0,0.0,0.0,0.0,0.0
org.h2.value,0.0,0.0,0.0,0.0,0.0
org.mortbay.io,0.0,0.0,0.0,0.0,0.0
org.mortbay.io.nio,0.0,0.0,0.0,0.0,0.0
org.mortbay.jetty,0.0,0.0007194976307928607,0.0,0.00013268399034408932,0.0008521816211369501
org.mortbay.thread,0.0,0.0,0.0,0.0,0.0
org.mortbay.util,0.0006717441115237834,0.008427270581624161,0.00010179479935330567,0.0010024098545325108,0.010203219347033762
org.objectweb.howl.log,0.0,0.0,0.0,0.0,0.0
org.xml.sax.helpers,0.0,0.0,0.0,0.0,0.0
sun.management,0.00041810419056475737,0.0,5.029684185646967e-05,0.0,0.000468401032421227
sun.misc,0.3462041953885041,0.13262203739281483,0.028065217251712786,0.017601754311999354,0.5244932043450311
sun.net.util,0.0,0.0,0.0,0.0,0.0
sun.net.www,0.034654444444135554,0.0,0.0022333333326969296,0.0,0.036887777776832484
sun.net.www.protocol.file,0.05911943859616274,0.057556081266011125,0.005624210526947168,0.008130581095080476,0.1304303114842015
sun.nio.ch,0.0022827604944862297,0.0010855721393183096,0.00035052455010019094,0.00020947761194252252,0.003928334795847252
sun.nio.cs,0.0,0.0,0.0,0.0,0.0
sun.nio.fs,0.0,0.0012142520325260267,0.0,0.00013024390240226367,0.0013444959349282904
sun.reflect,0.0007725154176190542,0.12169689981955768,0.00011824463977299283,0.01943406132365575,0.14202172120060547
sun.reflect.generics.repository,0.0,0.0,0.0,0.0,0.0
sun.security.action,0.0,0.0,0.0,0.0,0.0
sun.security.ec,0.0,0.005762319672150446,0.0,0.0006362704917875341,0.0063985901639379795
sun.security.jca,0.0,0.12138180872887933,0.0,0.014316393447710638,0.13569820217658995
sun.security.provider,0.0009363594818550627,0.0,0.0001495640591885473,0.0,0.00108592354104361
sun.security.util,0.0,0.02398785607754108,0.0,0.0029496462868569967,0.026937502364398076
sun.security.validator,0.0,0.0,0.0,0.0,0.0
sun.text.normalizer,0.0,0.0,0.0,0.0,0.0
sun.util,0.0,0.005855119352540176,0.0,0.0010738269644533813,0.0069289463169935565
sun.util.calendar,0.0,0.0,0.0,0.0,0.0
sun.util.locale.provider,0.0,0.0,0.0,0.0,0.0
