method,hits
AbsoluteTimeDateFormat.<init>,1
AbstractBuffer.equalsIgnoreCase,1
AbstractBuffer.isReadOnly,1
AbstractBuffers.returnBuffer,1
AbstractNIOConnector.newBuffer,1
AbstractName.hashCode,1
AbstractNameQuery.matches,1
AbstractSAXParser.characters,1
AbstractSAXParser.parse,1
AbstractSAXParser.setProperty,1
AbstractSAXParser.startDocument,1
AbstractSinglePoolConnectionInterceptor.getConnection,1
AbstractSinglePoolConnectionInterceptor.returnConnection,1
AbstractXADataSourceMCF.createConnectionFactory,1
AbstractXADataSourceMCF.matchManagedConnections,2
AlgorithmDecomposer.<clinit>,1
ArraySerializer.serialize,1
Assembler.<init>,1
AttachmentUtils.isAttachment,1
AttributeInfo.<init>,1
AttributeInfo.read,1
AttributesImpl.addAttribute,1
BCClass.newConstructorBuilder,1
BCMethod.<init>,1
BCMethod.push,1
BackgroundCleaner.<init>,1
BaseIndex.compareRows,4
BaseMonitor.classFromIdentifier,1
BaseMonitor.getImplementations,1
BasicRegistry.listGBeans,2
BasicStreamReader.createElementStack,1
BeanDeserializer.getDeserializer,1
BeanDeserializer.onStartChild,1
BeanUtils$1.run,4
BeanUtils.processPropertyDescriptors,5
Benchmark.fileFromInputStream,154
Benchmark.unpackZipStream,6
BrokerService.createBrokerObjectName,1
ByteArray.writeTo,1
ByteArrayAccess.b2iBig64,1
ByteArrayISO8859Writer.write,1
CachingLog4jLog.<init>,1
CalendarProviderImpl.getInstance,2
CalendarSystem.<clinit>,1
Call.invoke,1
ChannelEndPoint.getRemoteAddr,1
Cipher.getConfiguredPermission,1
ClassFile.getName,1
ClassFile.read,1
ClassFinder.findClass,1
ClassHolder.findMatchingEntry,1
ClassPool.compress,6
ClassPool.makeClass,1
ClassRepository.parse,1
Command.executeQueryLocal,3
Command.executeUpdate,4
CommandContainer.query,7
CompareMode.compareString,1
ConcurrentHashMap$Segment.remove,1
ConfigFile.<init>,1
ConfigurationFactory.<init>,4
ConfigurationMonitorGBean.doStart,1
ConnectionInfo.setTrace,1
Constants.equals,1
CopyOnWriteArrayList.add,1
CoreContainerSystem.<init>,1
CoreDocumentImpl.<init>,1
DMLStatementNode.class$,1
DaCapoDBBuilder.getOrdinal,1
DataValueFactoryImpl.getNullDVDWithUCS_BASICcollation,2
Database.getTrace,2
Database.open,1
DbObjectBase.getSQL,1
DefaultMXBeanMappingFactory.makeTabularMapping,1
DeserializationContext.endElement,1
DeserializationContext.getCurrentRecordPos,1
DeserializationContext.getNamespaceURI,1
DeserializationContext.popElementHandler,1
DeserializationContext.startElement,1
DeserializationContext.startPrefixMapping,1
DeserializerImpl.registerValueTarget,1
DestinationFilter.parseFilter,1
DiagnosticCommandImpl.getMBeanInfo,1
Driver40.newEmbedDatabaseMetaData,2
Driver40.newEmbedResultSet,1
EPollArrayWrapper.epollCtl,1
EPollArrayWrapper.epollWait,2
EPollArrayWrapper.setUpdateEvents,1
EPollSelectorImpl.implDereg,1
EPollSelectorImpl.implRegister,2
EPollSelectorImpl.wakeup,1
EmitUtils.member_helper_type,1
Enhancer.generateClass,1
Entity.clear,1
EnvelopeBuilder.<init>,1
FactoryFinder.newInstance,2
FileDispatcherImpl.preClose0,2
FileDispatcherImpl.read0,1
FileDispatcherImpl.writev0,4
FileURLMapper.exists,2
FloatingDecimal.readJavaFormatString,1
FutureResponse.<init>,1
GBeanAttribute.<init>,3
GBeanData$V0Externalizable.readExternal,1
GBeanInfo.readObject,1
GBeanInstance.<init>,1
GeneratedConstructorAccessor91.newInstance,1
GeneratedMethodAccessor16.invoke,2
GeneratedMethodAccessor160.invoke,1
GeneratedMethodAccessor4.invoke,6
GeneratedMethodAccessor51.invoke,9
GenericResultSetFactory.getBulkTableScanResultSet,1
GenericResultSetFactory.getInsertResultSet,1
HTTPSender.readHeadersFromSocket,2
HTTPSender.writeToSocket,3
Handler.hostsEqual,1
Handler.parseURL,1
HttpConnection.<init>,1
IOUtil.drain,1
IOUtil.write,1
IOUtils.readFully,2
IndexCondition.getCurrentValue,1
JDBCConfigurationImpl.<init>,1
JDK12Hooks.getSystemProperty,1
JavaUtils.class$,1
JavaUtils.isJavaKeyword,1
JceSecurityManager.<clinit>,1
JdbcResultSet.getColumnIndex,5
JdbcStatement.executeQuery,1
JettyWebAppContext.<init>,1
KeySequenceDirect.getNextID,1
Launcher$AppClassLoader.loadClass,15
Level2OptimizerFactoryImpl.getOptimizerImpl,1
LinkedBlockingQueue.<init>,1
LocalizedResource.class$,1
LockableHashtable.get,1
LogFactoryImpl$1.run,1
LoggingSupport$1.run,1
LongVector.addElement,1
MBeanInfo.<init>,1
MBeanNotificationInfo.<init>,1
ManagedProperties.getParent,1
Mapping.setNamespaceURI,3
Mapping.setPrefix,3
MarshallerFactory.<clinit>,1
MdbContainer.deploy,1
MemberrefInfo.<init>,2
Message.getMimeHeaders,1
Message.getProperty,1
Message.setup,1
MessageContext.getProperty,1
MessageContext.setService,1
MessageService.formatMessage,1
MetaIndex.forJar,1
MethodAccessorGenerator$1.run,1
MethodCache$MethodKey.equals,1
MimeTypes.getCharsetFromContentType,1
MultiParentClassLoader.checkParents,10
MultiParentClassLoader.loadClassInternal,23
MultiParentClassLoader.loadOptimizedClass,35
NSStack.add,2
NSStack.getNamespaceURI,2
NSStack.getPrefix,4
NSStack.next,1
NameImpl.skipSeparator,1
NamingProperties.<init>,1
NativeMethodAccessorImpl.invoke0,1
NativeObject.getInt,1
Net.localInetAddress,2
New.hashMap,2
NodeFactoryImpl.getNode,11
NodeImpl.appendChild,1
NodeImpl.reset,1
NodeImpl.setDirty,3
NodeImpl.setParentElement,1
NormalizerBase.next,1
NotFoundException.<init>,2
ObjectArray.<init>,1
ObjectArray.add,1
ObjectArray.ensureCapacity,1
ObjectArray.newInstance,1
OpenEjbSystemGBean.<init>,1
OpenWireFormat.unmarshal,1
OptionConverter.selectAndConfigure,1
ParameterDesc.readObject,1
ParseUtil.encodePath,1
Parser.<init>,1
Parser.initialize,2
Parser.prepareCommand,2
Parser.read,1
Parser.readFunction,1
Parser.readIf,1
Parser.readTerm,1
ParserImpl.getParser,1
PatternLayout.createPatternParser,3
PerfCounter.add,2
Piccolo.<clinit>,1
PrefixedQName.<init>,1
ProjectResourceBundle$Context.loadBundle,2
PropertySetter.introspect,1
PropertySetter.setProperty,1
QName.hashCode,1
RMIRegistryService.doStart,1
ReflectUtil.isNonPublicProxyClass,2
ReflectUtils.addAllMethods,1
Reflection.getCallerClass,2
ReflectionFactory.copyConstructor,1
ReflectionUtil.findStaticFactory,1
RegistryImpl.<init>,1
RepositoryConfigurationStore.containsConfiguration,1
Resource.getBytes,20
RolloverFileOutputStream.write,3
RootContext.setComponentContext,1
Row.getValue,1
RowLocking3.lockContainer,1
RowUtil.newTemplate,1
RuntimeModelBuilder.createClassInfo,1
SAX2EventRecorder$objArrayVector.add,1
SAX2EventRecorder$objArrayVector.get,3
SAX2EventRecorder$objArrayVector.getLength,1
SAX2EventRecorder.replay,3
SAXOutputter.endElement,1
SAXOutputter.startElement,1
SAXParserFactoryImpl.newSAXParser,1
SAXParserImpl.<init>,2
SHA.implCompress,1
SOAPHandler.characters,2
SOAPHandler.endElement,1
SOAPPart.writeTo,4
SYSSTATEMENTSRowFactory.makeSYSSTATEMENTSrow,1
Scan.getNextRecordBackward,1
ScanIndex.incrementRowCount,1
ScanIndex.remove,1
Schema.createTable,1
SchemaTypeImpl.getJavaImplConstructor,1
SchemaTypeSystemImpl$XsbReader.readInt,1
SchemaTypeSystemImpl$XsbReader.readShort,1
SecuritySupport.getContextClassLoader,1
SecuritySupport.getSystemProperty,2
Select.preparePlan,1
Select.queryFlat,1
SelectChannelEndPoint.doUpdateKey,1
SelectNode.isUpdatableCursor,1
SelectorManager$SelectSet.doSelect,3
SelectorManager$SelectSet.getNow,1
SeqValue.<init>,1
SerializationContext.<init>,1
SerializationContext.endElement,2
SerializationContext.getActualJavaClass,2
SerializationContext.getEncoder,1
SerializationContext.getPrefixForURI,2
SerializationContext.qName2String,3
SerializationContext.startElement,1
SerializedConfigurationMarshaler.readConfigurationData,1
ServerSocketChannelImpl.accept0,2
ServiceManager.init,1
ServiceUtils.<clinit>,1
ServletHandler.getFilterChain,1
SignatureParser.advance,1
SimpleSerializer.<init>,1
SocketInputStream.close,3
StoredPage.getTotalSpace,1
StoredPage.releaseExclusive,1
StreamEncoder.<init>,1
StreamRemoteCall.getOutputStream,1
StringCache.getNew,1
StringUtils.getStripEnd,1
StringUtils.toUpperEnglish,1
Subject$2.run,1
SymbolTable.addSymbol,1
TableFilter.startQuery,1
TcpTransport.doStop,1
TcpTransport.oneway,1
TestHarness.findClass,1
ThreadClassloaderHandler.handle,1
ThreadPool$ThreadPoolThreadFactory.newThread,1
Topic.<init>,1
TraceSystem.getTrace,1
TradeDirect.getHoldingDataFromResultSet,1
TradeDirect.getInGlobalTxn,1
TransformerImpl.getOutputHandler,1
TreeIndex.replace,1
TrustManagerFactoryImpl$SimpleFactory.getInstance,1
TypeDesc.getFieldNameForElement,1
TypeMappingImpl.finalGetSerializer,1
TypeMappingImpl.getSerializer,1
Types.isNullable,1
UCode_CharStream.FillBuff,1
URLClassPath$FileLoader.getResource,3
URLClassPath$JarLoader.getJarFile,1
URLClassPath$JarLoader.getResource,13
URLClassPath.check,1
URLClassPath.getLoader,5
URLClassPath.getNextLoader,2
UTF8Encoder.writeEncoded,2
UTF8Reader.read,1
Unsafe.defineClass,2
Unsafe.park,1
Unsafe.setMemory,1
Unsafe.unpark,4
Update.prepare,1
Utf8Info.<init>,4
Util$3.iterator,1
VM.latestUserDefinedLoader0,1
ValueInt.<clinit>,1
ValueString.hashCode,1
ValueTimestamp.convertScale,1
Version.toString,1
VersionHelper12.getContextClassLoader,1
VersionHelper12.getJndiProperties,1
WorkerContext.<clinit>,1
XML11Configuration.checkProperty,1
XML11Configuration.reset,1
XML11Configuration.resetCommon,1
XMLAttributesImpl.setValue,1
XMLDocumentScannerImpl$PrologDriver.next,2
XMLDocumentScannerImpl$TrailingMiscDriver.next,1
XMLEntityManager$RewindableInputStream.read,1
XMLEntityScanner.load,1
XMLEntityScanner.scanChar,1
XMLEntityScanner.scanQName,3
XMLEntityScanner.skipSpaces,1
XMLEntityScanner.skipString,1
XMLLimitAnalyzer.addValue,2
XMLNSDocumentScannerImpl$NSContentDriver.reconfigurePipeline,1
XMLNSDocumentScannerImpl.scanAttribute,3
XMLSecurityManager$Limit.values,1
XmlBeans.buildMethod,1
XmlObjectBase.<clinit>,1
ZoneInfo.clone,1
ZoneInfo.getLastRuleInstance,1
ZoneInfoFile.addOldMapping,1
