method,hits
AbstractBuffer.hashCode,1
AbstractBuffer.setGetIndex,1
AbstractBuffers.getBuffer,1
AbstractClassGenerator.create,1
AbstractConnector$Acceptor.run,2
AbstractConnector.toString,1
AbstractRegion.addDestination,1
AbstractSAXParser.endNamespaceMapping,1
AbstractSAXParser.setProperty,1
AbstractSinglePoolConnectionInterceptor.returnConnection,1
AccessorGenerator.getClassName,1
AttributeInfo.<init>,3
AttributePropertyInfoImpl.calcXmlName,1
AxisWebServiceContainer.doService,1
BaseContainerHandle.preDirty,1
BasicLifecycleMonitor.addSource,2
BasicStreamReader.parseNormalizedAttrValue,1
BodyBuilder.onStartChild,1
ByteArrayOutputStream.needNewBuffer,1
CachedStatement.setIdentity,1
CalendarDeserializer.makeValue,3
Call.getParamList,1
Call.invoke,3
ClassFileAssembler.emitByte,1
ClassMember.addAttribute,1
ClassPool.compress,4
ClassWriter.visitMethod,1
CodeWriter.visitMaxs,1
CodeWriter.visitMethodInsn,1
Command.executeQueryLocal,4
Command.executeUpdate,11
ConfigurationFactory.<clinit>,2
ConfigurationFactory.<init>,1
ConnectionTrackingCoordinator.handleObtained,1
ConstPool.readOne,1
CopyOnWriteArrayList.toArray,1
CryptoPolicyParser.parseGrantEntry,1
DaCapoClientRunner.initialize,1
DataDictionaryImpl.locateSchemaRow,1
Database.getSessionCount,1
Database.open,2
DbObjectBase.getSQL,1
DefaultMXBeanMappingFactory.makeCompositeMapping,1
DelegatingDriver.<clinit>,1
DerInputStream.subStream,1
DeserializationContext.<init>,1
DeserializationContext.characters,1
DeserializationContext.endElement,1
DeserializationContext.getTypeFromAttributes,1
DeserializationContext.parse,1
DeserializationContext.pushElementHandler,1
DeserializationContext.pushNewElement,1
DeserializationContext.startElement,1
DiagnosticCommandImpl.getDiagnosticCommandInfo,1
DocumentBuilderImpl.newDocument,1
Driver40.getNewEmbedConnection,1
Driver40.newEmbedPreparedStatement,1
EPollArrayWrapper.epollCtl,1
EPollArrayWrapper.epollWait,4
EPollArrayWrapper.interrupt,3
EPollSelectorImpl.doSelect,1
Enhancer.emitMethods,1
EnvelopeBuilder.<init>,1
ExpressionFactory.<clinit>,1
ExpressionVisitor.get,1
FastCharsetProvider.canonicalize,1
FileChannelImpl.<init>,1
FileDispatcherImpl.read0,1
FloatingDecimal$BinaryToASCIIBuffer.developLongDigits,1
GeneratedMethodAccessor16.invoke,1
GenericResultSetFactory.getSortResultSet,1
GeronimoConnectionEventListener.connectionClosed,1
HTTPSender.readHeadersFromSocket,2
Handler.openConnection,1
HandlerInfoChainFactory.createHandlerChain,1
HexBinary.<clinit>,1
HttpConnection.<init>,1
HttpConnection.destroy,1
HttpFields$Field.<init>,1
HttpParser.parseNext,1
HttpStatus.<clinit>,1
IOUtil.configureBlocking,1
IOUtil.drain,2
IndexCondition.getCurrentValue,1
JavaProvider.invoke,1
JdbcConnection.createStatement,1
JdbcConnection.prepareCommand,1
JdbcConnection.prepareStatement,1
JdbcConnection.setExecutingStatement,1
JdbcResultSet.get,2
JdbcResultSet.getColumnIndex,1
JdbcResultSet.next,1
JdbcStatement.executeQuery,1
JdbcXAConnection$PooledJdbcConnection.checkClosed,1
JmxMBeanServer.<init>,1
KernelGBean.<clinit>,1
LazyLoaderGenerator.<clinit>,1
LiveRef.write,1
LocalResult.<init>,2
LockableHashtable.put,1
Log4jLogStreamFactory.createLogStream,1
LogFileManager.readRecordInfo,1
LongVector.addElement,1
MBeanGBeanBridge$LifecycleBridge.running,1
MXBeanIntrospector.<clinit>,1
ManagedConnectionInfo.addConnectionHandle,1
MarshalOutputStream.replaceObject,1
Message.isAttachmentSupportEnabled,1
MessageElement.<init>,1
MessageElement.getOwnerDocument,1
MessageElement.setContentsIndex,1
MessageElement.setNSMappings,1
NSStack.clearFrame,1
NameImpl.extractComp,1
NameImpl.size,1
NamespaceSupport.getURI,1
Net.localInetAddress,1
Net.shutdown,1
NodeImpl.initializeChildren,1
NodeImpl.setDirty,4
NodeImpl.setParent,1
NormalizerBase.<init>,1
NormalizerImpl.<clinit>,1
ObjectArray$ObjectArrayIterator.hasNext,1
ObjectArray.set,1
OpenJPAConfigurationImpl.<init>,1
OperationDesc.getParameters,1
Parameter.setValue,1
ParseUtil.encodePath,1
Parser.initialize,3
Parser.prepareCommand,1
Parser.read,1
Parser.readFunction,1
Parser.readIf,1
ParserConfigurationSettings.checkProperty,1
ParserImpl.getParser,5
PiccoloLexer.calcAsciiTables,1
Prepared.needRecompile,1
PreparedStatementHandle.setString,1
PropertyState.isExceptional,1
QName.<init>,1
Query.query,4
RMIRegistryService.doStart,1
RPCElement.updateOperationsByName,1
RPCHandler.onStartChild,1
RSAKeyFactory.toRSAKey,1
RangeToken.sortRanges,1
Reflection.getCallerClass,1
Reflection.isSubclassOf,1
RegionBroker.<init>,1
Row.getValue,1
SAX2DOM.createDocument,1
SAX2EventRecorder$objArrayVector.add,1
SAX2EventRecorder.replay,4
SAXParserImpl.<init>,2
SOAPEnvelope.setOwnerDocumentForChildren,1
SOAPHandler.makeNewElement,1
SOAPHandler.startElement,1
SOAPPart.createTextNode,1
SOAPPart.getMessage,1
SOAPPart.setMimeHeader,1
SQLParser.jj_3R_202,1
SQLWarningFactory.newSQLWarning,1
SSLEngineImpl.init,1
ScanIndex.<init>,1
ScanIndex.incrementRowCount,1
Schema.createTable,1
Select.init,1
Select.queryFlat,2
SelectChannelEndPoint.flush,1
SelectorManager$SelectSet.doSelect,1
SelectorProviderImpl.openServerSocketChannel,1
SerializationContext.initialize,1
SerializationContext.registerPrefixForURI,1
SerializationContext.startElement,1
ServerSocketChannelImpl.accept0,2
ServiceImpl.buildDelegateService,1
SignatureParser.parseFormalTypeParameter,1
SignerInfo.verify,1
SocketChannelImpl.ensureReadOpen,1
StandardMBean.<clinit>,1
Stmnt.<init>,1
StringCache.getNew,2
StringUtils.getStripEnd,1
StringUtils.strip,1
SuperProperties.load,1
SymbolTable.addSymbol,1
Table.getColumn,1
Table.getTemplateRow,1
TcpTransportFactory.createTcpTransportServer,1
ThreadPool$1.run,1
ThreadPool.finishWork,1
TopicRegion.createSubscription,1
TradeDirect.initializeDaCapo,1
TransformerFactoryImpl.<init>,1
TransformerFactoryImpl.newTransformerHandler,1
TreeIndex.next,1
Type.getType,1
TypeChecker.atExpr,1
TypeDesc.getFieldNameForAttribute,1
TypeMappingRegistryImpl.getTypeMapping,3
TypeMappingRegistryImpl.registerSOAPENCDefault,1
UCompactIntArray.initPlane,1
URLClassPath$JarLoader.<init>,1
URLClassPath$JarLoader.parseClassPath,1
URLClassPath$Loader.getBaseURL,1
URLClassPath.getNextLoader,2
UTF8.encode,1
UTF8Encoder.writeEncoded,2
UTF_8$Encoder.encode,1
Unsafe.defineClass,1
Unsafe.park,1
VM.latestUserDefinedLoader0,1
Value.compareTypeSave,1
ValueDecimal.add,1
ValueTimestamp.get,1
WildcardTypeImpl.getUpperBounds,1
WstxInputFactory.doCreateSR,1
X509CertInfo.parse,1
X509Factory.engineGenerateCertPath,1
XML11Configuration.<init>,3
XML11Configuration.parse,1
XMLChar.isSpace,1
XMLDocumentFragmentScannerImpl.<init>,1
XMLDocumentFragmentScannerImpl.scanEndElement,2
XMLEntityManager.setScannerVersion,1
XMLEntityScanner.checkNodeCount,1
XMLEntityScanner.load,1
XMLEntityScanner.skipSpaces,1
XMLNSDocumentScannerImpl.scanAttribute,1
XMLNSDocumentScannerImpl.scanStartElement,3
XMLSecurityManager.<init>,1
XMLUtils.releaseSAXParser,1
XMLVersionDetector.determineDocVersion,1
ZoneInfo.getLastRuleInstance,1
