method,package1,package2,dram1,dram2,energy
com.ctc.wstx.stax,0.0,0.050800397938336336,0.0,0.0066465548272582,0.057446952765594535
com.sun.jmx.mbeanserver,0.0,0.00491476510069333,0.0,0.0005231375839288155,0.005437902684622146
com.sun.jna,0.0015660623182662,0.0,0.00017312782549637918,0.0,0.0017391901437625794
com.sun.org.apache.xalan.internal.xsltc.runtime.output,0.0709839999981341,0.0,0.008799999998397348,0.0,0.07978399999653145
com.sun.org.apache.xalan.internal.xsltc.trax,0.0,0.0,0.0,0.0,0.0
com.sun.org.apache.xerces.internal.impl,0.004578938289283746,0.010813956982621642,0.0006284744653010609,0.001991122907991787,0.018012492645198237
com.sun.org.apache.xerces.internal.jaxp,0.0582476666677394,0.0010555454545074147,0.008164999999280553,0.00017647058821288259,0.06764468270974025
com.sun.org.apache.xerces.internal.parsers,0.0,0.0,0.0,0.0,0.0
com.sun.org.apache.xerces.internal.util,0.0,0.03212147304578642,0.0,0.005894974820497812,0.038016447866284234
com.sun.xml.bind.v2.model.annotation,0.0,0.0,0.0,0.0,0.0
com.sun.xml.bind.v2.model.impl,0.0,0.18312886021302532,0.0,0.0230001506216925,0.20612901083471782
com.sun.xml.bind.v2.runtime,0.0,0.0,0.0,0.0,0.0
com.sun.xml.bind.v2.runtime.reflect,0.0,0.0,0.0,0.0,0.0
edu.emory.mathcs.backport.java.util.concurrent,0.0,0.0,0.0,0.0,0.0
javassist,0.06414415172325319,0.0,0.007713931035310641,0.0,0.07185808275856383
javassist.bytecode,0.0,0.002105814408273834,0.0,0.00029491816877102545,0.0024007325770448594
javax.management,0.0,0.0008193674496964523,0.0,0.00013318791946788057,0.0009525553691643329
javax.xml.namespace,0.0,0.0,0.0,0.0,0.0
net.sf.cglib.asm,0.0013745459805225321,0.0,9.473050461466992e-05,0.0,0.001469276485137202
net.sf.cglib.core,0.0,0.0,0.0,0.0,0.0
org.apache.activeio.journal.active,0.0,0.0001805151514638441,0.0,2.472727276405997e-05,0.00020524242422790406
org.apache.activemq,0.0,0.0,0.0,0.0,0.0
org.apache.activemq.advisory,0.004126099808363965,0.0,0.0004656256265707786,0.0,0.004591725434934743
org.apache.activemq.broker,0.0,0.0010616810810657822,0.0,0.000177405405407331,0.0012390864864731132
org.apache.activemq.broker.jmx,0.0,0.0,0.0,0.0,0.0
org.apache.activemq.store.jdbc,0.0,0.0010912363636166311,0.0,0.00013209090909433805,0.0012233272727109692
org.apache.activemq.transport,0.0,0.0011491135135607644,0.0,0.000177405405407331,0.0013265189189680955
org.apache.axis,0.0,0.0,0.0,0.0,0.0
org.apache.axis.description,0.0002582448233793357,0.0,4.237099062498333e-05,0.0,0.00030061581400431904
org.apache.axis.encoding,0.0015449366515870545,0.06217175313512569,0.00024780542986774055,0.01049954124221644,0.07446403645879693
org.apache.axis.encoding.ser,0.013564521911913291,0.010686259911885888,0.0017305214823223089,0.002086784140979215,0.028068087447100706
org.apache.axis.i18n,0.0011379524646639805,0.0,0.00011275686410657452,0.0,0.001250709328770555
org.apache.axis.message,0.0,0.0,0.0,0.0,0.0
org.apache.axis.providers.java,0.0,0.00534146398294436,0.0,0.0009072996675174496,0.0062487636504618095
org.apache.axis.transport.http,0.0,0.0,0.0,0.0,0.0
org.apache.axis.utils,0.0,0.0039010349292569546,0.0,0.0005414400305329034,0.004442474959789858
org.apache.commons.discovery.jdk,0.0,0.0,0.0,0.0,0.0
org.apache.commons.discovery.log,0.0,0.00135550267375286,0.0,0.00017518716578541154,0.0015306898395382714
org.apache.commons.discovery.tools,0.0,0.021858513296255527,0.0,0.0038935807050118217,0.025752094001267347
org.apache.derby.iapi.services.classfile,0.0,0.0001497406060242969,0.0,1.9636363616551863e-05,0.00016937696964084876
org.apache.derby.iapi.services.monitor,0.0,0.0,0.0,0.0,0.0
org.apache.derby.iapi.types,0.0,0.0,0.0,0.0,0.0
org.apache.derby.impl.drda,0.0,0.0,0.0,0.0,0.0
org.apache.derby.impl.jdbc,0.0,0.0011145527950366554,0.0,0.00020487577633994416,0.0013194285713765996
org.apache.derby.impl.services.bytecode,0.0,0.0034198892929807614,0.0,0.0004767515151491013,0.0038966408081298628
org.apache.derby.impl.services.stream,0.0,0.0,0.0,0.0,0.0
org.apache.derby.impl.sql.compile,0.0,0.00037089696970081537,0.0,6.645454544776279e-05,0.00043735151514857814
org.apache.derby.impl.sql.conn,0.0,0.0,0.0,0.0,0.0
org.apache.derby.impl.sql.execute,0.0,0.0012207018634122187,0.0,0.0001336024844637921,0.0013543043478760107
org.apache.derby.impl.store.access,0.0,0.0,0.0,0.0,0.0
org.apache.derby.impl.store.access.btree.index,0.0,0.004109074534166471,0.0,0.0005245341615037709,0.004633608695670242
org.apache.derby.impl.store.access.conglomerate,0.0,0.0003427838383952739,0.0,4.921212120362642e-05,0.0003919959595989003
org.apache.derby.impl.store.raw.data,0.0,0.0,0.0,0.0,0.0
org.apache.derby.impl.store.raw.xact,0.0,0.0,0.0,0.0,0.0
org.apache.derby.jdbc,0.0,0.0005195292425533932,0.0,8.050940015307142e-05,0.0006000386427064647
org.apache.geronimo.axis.client,0.0,0.0,0.0,0.0,0.0
org.apache.geronimo.connector.outbound,0.0,0.0,0.0,0.0,0.0
org.apache.geronimo.gbean.runtime,0.0,0.0,0.0,0.0,0.0
org.apache.geronimo.gjndi,0.0,0.003367327711944951,0.0,0.0004602308369834327,0.0038275585489283837
org.apache.geronimo.j2ee.management.impl,0.0,0.06273277083619178,0.0,0.010831562500243308,0.07356433333643508
org.apache.geronimo.jetty6.handler,0.0,0.0,0.0,0.0,0.0
org.apache.geronimo.kernel.basic,0.0,0.09709885130946992,0.0,0.011421509121261636,0.10852036043073156
org.apache.geronimo.kernel.config,0.06606363796729793,0.0,0.009342136279446479,0.0,0.07540577424674441
org.apache.geronimo.kernel.repository,0.0,0.0,0.0,0.0,0.0
org.apache.geronimo.openejb,0.0,0.003502828876934896,0.0,0.0004378074866017317,0.003940636363536628
org.apache.geronimo.samples.daytrader,0.0,0.0,0.0,0.0,0.0
org.apache.geronimo.samples.daytrader.dacapo,0.0,0.0,0.0,0.0,0.0
org.apache.log4j.config,0.0,0.0,0.0,0.0,0.0
org.apache.log4j.helpers,0.0,0.0,0.0,0.0,0.0
org.apache.openejb.config.sys,0.0,0.000450096256691056,0.0,4.3957219269241205e-05,0.0004940534759602972
org.apache.openjpa.persistence,0.00031180771441074176,0.0,5.4375699414292657e-05,0.0,0.0003661834138250344
org.apache.xmlbeans.impl.schema,0.0,0.2017103529389144,0.0,0.027522352940971304,0.2292327058798857
org.apache.xmlbeans.impl.store,0.0,0.0034984444444826628,0.0,0.0004223333333761224,0.0039207777778587855
org.apache.xmlbeans.impl.validator,0.0,0.0,0.0,0.0,0.0
org.apache.xmlbeans.impl.values,0.0,0.0,0.0,0.0,0.0
org.dacapo.harness,0.0,0.0,0.0,0.0,0.0
org.dacapo.parser,0.0,0.043908134058500865,0.0,0.006773539258344918,0.05068167331684578
org.h2.command,0.0,0.0016609335141789946,0.0,0.00020207577606733563,0.0018630092902463301
org.h2.command.dml,0.0,0.0,0.0,0.0,0.0
org.h2.engine,0.0,0.002786229997277476,0.0,0.0004256058798254509,0.0032118358771029273
org.h2.expression,0.0,0.0,0.0,0.0,0.0
org.h2.index,0.0,0.002635337938506649,0.0,0.0004779829751218218,0.0031133209136284708
org.h2.jdbc,0.0,0.0,0.0,0.0,0.0
org.h2.jdbcx,0.0,0.00299365775397279,0.0,0.0004356417112067382,0.003429299465179528
org.h2.table,0.0,0.0,0.0,0.0,0.0
org.h2.util,0.002812761338221239,0.0,0.00036295632693802434,0.0,0.0031757176651592634
org.h2.value,0.0,0.0,0.0,0.0,0.0
org.mortbay.io,0.0,0.0,0.0,0.0,0.0
org.mortbay.io.nio,0.0,0.001936258771916312,0.0,0.0003512499999743069,0.002287508771890619
org.mortbay.jetty,0.0,0.008702228297195247,0.0,0.0013316158880464029,0.01003384418524165
org.mortbay.util,0.0,0.056282666667054095,0.0,0.00928000000033838,0.06556266666739248
org.slf4j.helpers,0.0,0.06829833333419325,0.0,0.009519999999611171,0.07781833333380442
org.tranql.connector.h2,0.0,0.0,0.0,0.0,0.0
sun.management,0.0,0.006409307046924857,0.0,0.0008202936241281923,0.007229600671053049
sun.misc,0.004956325441344389,0.0009281130633897676,0.0007125649859452101,0.00012490450724259635,0.006721907997921963
sun.net.www,0.0016983675536375335,0.0,0.0001501986321293903,0.0,0.0018485661857669238
sun.net.www.protocol.file,0.0,0.0,0.0,0.0,0.0
sun.nio.ch,0.006440144793225595,0.0013443476000508416,0.0008532627183840257,0.00025126962328483513,0.008889024734945298
sun.nio.cs,0.0,0.006564790807271914,0.0,0.0009491621572735942,0.0075139529645455085
sun.reflect,0.0,0.07645221971027155,0.0,0.008677615261639338,0.08512983497191089
sun.reflect.generics.parser,0.0,0.06739460383431843,0.0,0.01059334085941467,0.0779879446937331
sun.reflect.generics.repository,0.0,0.0,0.0,0.0,0.0
sun.reflect.generics.visitor,0.0,0.0,0.0,0.0,0.0
sun.security.pkcs,0.0,0.0,0.0,0.0,0.0
sun.security.smartcardio,0.0,0.0,0.0,0.0,0.0
sun.security.ssl,0.0,0.001773446629260761,0.0,0.00026721910114829776,0.002040665730409059
sun.security.util,0.0,0.0,0.0,0.0,0.0
sun.text.normalizer,0.0,0.0007789925925425012,0.0,9.066666663986529e-05,0.0008696592591823665
sun.util.calendar,0.0,0.0007499000000031876,0.0,0.00015081818181153554,0.0009007181818147232
sun.util.locale.provider,0.0,0.0,0.0,0.0,0.0
