method,package1,package2,dram1,dram2,energy
AbstractBuffer.get,0.0,0.0,0.0,0.0,0.0
AbstractBuffer.putIndex,0.002016362052637716,0.0,0.00032484093628584054,0.0,0.0023412029889235565
AbstractNameQuery.createURI,0.04041888888928548,0.0,0.0038000000010166937,0.0,0.04421888889030217
AbstractSAXParser.endElement,0.0,0.001251025430680886,0.0,0.00019025594748561453,0.0014412813781665005
AbstractSAXParser.xmlDecl,0.011716275335243909,0.0,0.00154461267944104,0.0,0.01326088801468495
AbstractSinglePoolConnectionInterceptor.<init>,0.003978804195803668,0.0,0.0005903496503951256,0.0,0.004569153846198794
Artifact.hashCode,0.06762700000035693,0.0,0.00803250000171829,0.0,0.07565950000207522
AttachmentsImpl.mergeinAttachments,0.05809646768829889,0.0,0.007993716923125022,0.0,0.06609018461142391
AxisClient.invoke,0.0,0.0,0.0,0.0,0.0
BCMethod.<init>,0.0004672030668402538,0.0,7.041684627189639e-05,0.0,0.0005376199131121502
BCMethod.conditionalIf,0.0009114259226153088,0.0,0.00014119461978724285,0.0,0.0010526205424025517
BaseIndex.compareRows,0.0,0.0,0.0,0.0,0.0
BaseIndex.getCostRangeIndex,0.0,0.0,0.0,0.0,0.0
BaseMonitor.getImplementations,0.0011716223776424336,0.0,0.00018503496509250514,0.0,0.0013566573427349388
BasicDependencyManager.<init>,0.0,0.0,0.0,0.0,0.0
BasicLifecycleMonitor.addSource,0.0,0.004456124833323702,0.0,0.0005582325699487732,0.005014357403272475
BasicRegistry.listGBeans,0.0,0.0,0.0,0.0,0.0
BeanDeserializer.getAnyPropertyDesc,0.0,0.0,0.0,0.0,0.0
BeanDeserializer.onStartChild,0.002027152074143189,0.0,0.000350471910274798,0.0,0.002377623984417987
BeanPropertyTarget.set,0.0,0.0,0.0,0.0,0.0
BeanSerializer.serialize,0.0022728425531742228,0.0,0.00033408510641125527,0.0,0.002606927659585478
BeanSerializerFactory.init,0.0004177805253519256,0.0,7.739761582650595e-05,0.0,0.0004951781411784316
BeanUtils$1.run,0.0,0.0,0.0,0.0,0.0
Benchmark.fileFromInputStream,0.072041999999783,0.0,0.012967499999528325,0.0,0.08500949999931133
ByteArrayInputStream.read,0.002567054253752257,0.0,0.00047106683905499407,0.0,0.003038121092807251
ByteVector.putUTF8,0.0,0.0,0.0,0.0,0.0
ByteVectorImpl.add,0.0,0.0,0.0,0.0,0.0
Chaperone.retire,0.0,0.0,0.0,0.0,0.0
CipherSuite.<clinit>,0.0,0.0,0.0,0.0,0.0
ClassFactory.<clinit>,0.03410473684147163,0.0,0.003592105262214318,0.0,0.03769684210368595
ClassFileAssembler.emitByte,0.0010931662553459037,0.0,0.00019303924273002932,0.0,0.001286205498075933
ClassHolder.<init>,0.00014448934967677335,0.0,2.3880336026684188e-05,0.0,0.00016836968570345753
ClassPool.compress,0.0,0.0,0.0,0.0,0.0
ClassReader.readUnsignedShort,0.07550066666590283,0.0,0.009569999997135406,0.0,0.08507066666303824
ClassWriter.newClass,0.04064943750017847,0.0,0.004972499998530111,0.0,0.04562193749870858
ClassWriter.newString,0.0,0.0,0.0,0.0,0.0
Command.executeQueryLocal,0.0,0.0,0.0,0.0,0.0
Command.executeUpdate,0.0,0.0,0.0,0.0,0.0
CommandContainer.query,0.0,0.0030536216666546857,0.0,0.0004205250000086381,0.003474146666663324
Comparison.optimize,0.0,0.0,0.0,0.0,0.0
ConcurrentReferenceHashMap.<clinit>,0.0,0.0,0.0,0.0,0.0
Config.parse,0.0,0.0,0.0,0.0,0.0
ConfigFile.<init>,0.06774900000164052,0.0,0.009515000000343813,0.0,0.07726400000198434
ConfigurationFactory.<init>,0.0024546407962236136,0.0,0.00042029347408822985,0.0,0.0028749342703118437
ConstPool.read,0.00012010650183645171,0.0,2.0122142167603395e-05,0.0,0.0001402286440040551
ContextFinder.<clinit>,0.0,0.0,0.0,0.0,0.0
DaCapoTrader.doQuote,0.0,0.0,0.0,0.0,0.0
DataDescriptorGenerator.newPrimaryKeyConstraintDescriptor,0.0,0.0,0.0,0.0,0.0
DataSource.getConnection,0.0,0.0,0.0,0.0,0.0
Database.open,0.0,0.0,0.0,0.0,0.0
DatabaseClasses.boot,0.0,0.0,0.0,0.0,0.0
DbObjectBase.getSQL,0.00023477459193212488,0.0,3.549030048100098e-05,0.0,0.00027026489241312586
DefaultMBeanServerInterceptor.preRegister,0.0,0.0,0.0,0.0,0.0
DefaultMXBeanMappingFactory.<clinit>,0.0003632237762599448,0.0,4.090909091869721e-05,0.0,0.000404132867178642
DefaultMXBeanMappingFactory.makeCompositeMapping,0.0015378251748214072,0.0,0.000202027971986958,0.0,0.0017398531468083651
DefaultTypeMappingImpl.initMappings,0.0007656758621029942,0.0,8.400000003567929e-05,0.0,0.0008496758621386734
DerValue.toByteArray,0.0,0.0,0.0,0.0,0.0
Descriptor.toDescriptor,0.0,0.0,0.0,0.0,0.0
DeserializationContext.endElement,0.029344425072929663,0.0,0.003973315513177501,0.0,0.03331774058610716
DeserializationContext.getTypeFromAttributes,0.0,0.0,0.0,0.0,0.0
DeserializationContext.getTypeFromXSITypeAttr,0.0,0.012848492734222472,0.0,0.002276947146724683,0.015125439880947155
DeserializationContext.startElement,0.002570454596884147,0.0,0.0004077161606568784,0.0,0.002978170757541025
DeserializationContext.startPrefixMapping,0.011376937606269727,0.0,0.0017878201956402781,0.0,0.013164757801910006
DiagnosticCommandImpl.getDiagnosticCommandInfo,0.0,0.0,0.0,0.0,0.0
DiscoverSingleton.find,0.07643653333155573,0.0,0.010161749999436628,0.0,0.08659828333099236
DocumentBuilderImpl.newDocument,0.0246380256408324,0.0,0.003661538461762038,0.0,0.028299564102594436
Driver40.boot,0.0,0.0,0.0,0.0,0.0
Driver40.newEmbedDatabaseMetaData,0.0,0.0,0.0,0.0,0.0
Driver40.newEmbedPreparedStatement,0.0001607908863857734,0.0,2.627878860942034e-05,0.0,0.00018706967499519374
EPollArrayWrapper.epollCtl,0.0013284374941629653,0.0,0.00018667389102868063,0.0,0.001515111385191646
EPollArrayWrapper.epollWait,0.06295231991879169,0.0,0.00866581001910104,0.0,0.07161812993789272
EPollArrayWrapper.setInterest,0.0018399100246684927,0.0,0.00022885432563996005,0.0,0.0020687643503084527
EPollSelectorImpl.doSelect,0.0,0.01207307678860117,0.0,0.002172205150645848,0.014245281939247019
Engine.openSession,0.0,0.0,0.0,0.0,0.0
Enhancer.getMethods,0.0,0.0,0.0,0.0,0.0
EnvelopeBuilder.endElement,0.0,0.0,0.0,0.0,0.0
ExpressionClassBuilder.pushGetExecutionFactoryExpression,0.0003652465482955592,0.0,8.071005919923421e-05,0.0,0.0004459566074947934
ExpressionColumn.mapColumns,0.0,0.0,0.0,0.0,0.0
ExpressionFactory.<clinit>,0.0,0.0,0.0,0.0,0.0
FileDispatcherImpl.force0,0.0,0.0,0.0,0.0,0.0
FileDispatcherImpl.read0,0.0,0.0021474743638171733,0.0,0.00035657437123562906,0.0025040487350528025
FileDispatcherImpl.writev0,0.021753419937554815,0.0,0.003527462029158935,0.0,0.02528088196671375
GBeanBuilder.<init>,0.0,0.014424520884440187,0.0,0.0021790549611353555,0.016603575845575543
GBeanInfoBuilder.isGetter,0.0,0.0,0.0,0.0,0.0
GBeanInstance.createInstance,0.0,0.0,0.0,0.0,0.0
GeneratedMethodAccessor206.invoke,0.0,0.0,0.0,0.0,0.0
GenericServiceEndpoint.createCall,0.010458141010569869,0.0,0.0017875483261073622,0.0,0.01224568933667723
GetPropertyAction.<init>,0.0,0.0,0.0,0.0,0.0
GetPropertyAction.run,0.0,0.0,0.0,0.0,0.0
HTTPSender.readFromSocket,0.014456704381728256,0.0,0.0021218472187890056,0.0,0.01657855160051726
HttpConnection.handle,0.0,0.0,0.0,0.0,0.0
HttpParser.parseNext,0.0,0.0,0.0,0.0,0.0
IOUtil.drain,0.015916655337635408,0.0,0.002481669144989562,0.0,0.01839832448262497
IOUtil.write,0.0,0.0,0.0,0.0,0.0
Insert.update,0.0,0.0,0.0,0.0,0.0
InternalDriver.connect,0.0003342027972343254,0.0,5.7482517404169154e-05,0.0,0.0003916853146384945
JdbcResultSet.getDouble,0.0,0.0,0.0,0.0,0.0
JdbcStatement.executeQuery,0.0,0.0,0.0,0.0,0.0
JettyFilterHolder.<init>,0.0,0.0,0.0,0.0,0.0
JettyWebAppContext.<init>,0.0004651310344844864,0.0,5.6275862052330174e-05,0.0,0.0005214068965368165
Level2OptimizerFactoryImpl.getOptimizerImpl,0.0023983607567060524,0.0,0.0003802459903121959,0.0,0.0027786067470182483
LocalResult.createShallowCopy,0.0,0.0,0.0,0.0,0.0
LockableHashtable.get,0.0,0.0,0.0,0.0,0.0
Log.isDebugEnabled,0.0,0.0,0.0,0.0,0.0
LogManager.<clinit>,0.0388184999992518,0.0,0.004965000001902808,0.0,0.04378350000115461
LongVector.addElement,0.0,0.0,0.0,0.0,0.0
MXBeanIntrospector.getMBeanOperationInfo,0.0011411468531786616,0.0,0.00013787412590190922,0.0,0.0012790209790805708
ManagedRegionBroker.createQueueRegion,0.0,0.0,0.0,0.0,0.0
Mapping.setPrefix,0.0,0.0,0.0,0.0,0.0
MarshallerImpl.<init>,0.0,0.0,0.0,0.0,0.0
MarshallerImpl.createWriter,0.0,0.0,0.0,0.0,0.0
Message.setup,0.0,0.0,0.0,0.0,0.0
MessageContext.getProperty,0.0,0.0,0.0,0.0,0.0
MessageElement.<init>,0.0,0.0,0.0,0.0,0.0
MessageElement.setNSMappings,0.0,0.02428014869226411,0.0,0.00394793265039362,0.02822808134265773
MethodAccessorGenerator.emitInvoke,0.0,0.0,0.0,0.0,0.0
MethodAccessorGenerator.generate,0.06970672222262321,0.0,0.008767777775237509,0.0,0.07847449999786071
MethodCache.getMethodCache,0.010645585585597759,0.0,0.0015939018370074894,0.0,0.012239487422605248
MimeTable.parse,0.009023846153957913,0.0,0.001255384613894141,0.0,0.010279230767852053
Monitor.startMonitor,0.0013194571678392171,0.0,0.0001365734266404285,0.0,0.0014560305944796457
NOPLoggerFactory.getLogger,0.0,0.0,0.0,0.0,0.0
Native.invokeInt,0.0,0.0,0.0,0.0,0.0
NetworkServerControl.<init>,0.0,0.0,0.0,0.0,0.0
NodeImpl.appendChild,0.0,0.0,0.0,0.0,0.0
NodeImpl.setDirty,0.0,0.0,0.0,0.0,0.0
NormalizeResultSetNode.init,0.0,0.0,0.0,0.0,0.0
ObjectArray.createArray,0.0,0.0,0.0,0.0,0.0
OptimizerFactoryImpl.getOptimizer,0.0,0.0,0.0,0.0,0.0
Parser.parseInsert,0.0,0.0,0.0,0.0,0.0
Parser.parseSelectUnion,0.0,0.0,0.0,0.0,0.0
Parser.prepareCommand,0.0,0.0,0.0,0.0,0.0
Parser.read,0.0,0.0,0.0,0.0,0.0
Parser.readCondition,0.0024515084600299306,0.0,0.0003797609583316688,0.0,0.0028312694183615992
Parser.readFunction,0.001047638741316248,0.0,0.00014271457175651377,0.0,0.0011903533130727618
Parser.readIf,0.0,0.0,0.0,0.0,0.0
ParserConfigurationSettings.getFeature,0.0,0.0,0.0,0.0,0.0
ParserImpl.getParser,0.0,0.0,0.0,0.0,0.0
PerfCounter.add,0.0,0.0,0.0,0.0,0.0
Piccolo.reportEndTag,0.0,0.0003105782619465517,0.0,4.772728095618316e-05,0.00035830554290273487
Plan.<init>,0.0,0.0,0.0,0.0,0.0
PropertyEditors.<clinit>,0.001001866359349041,0.0,0.00015873894015145946,0.0,0.0011606052995005007
ProxyCollection.<init>,0.0958283076925466,0.0,0.012952307692149846,0.0,0.10878061538469645
QNameMap.entrySet,0.0,0.0,0.0,0.0,0.0
RPCElement.deserialize,0.0,0.0,0.0,0.0,0.0
RPCElement.needHeaderProcessing,0.0,0.0,0.0,0.0,0.0
RSASignature.initCommon,0.0,0.0,0.0,0.0,0.0
ReflectionFactory.checkInitted,0.017903703704144357,0.0,0.0025722222239387017,0.0,0.02047592592808306
ResultColumnList.bindUntypedNullsToResultColumns,0.000475883029953766,0.0,5.659294990890007e-05,0.0,0.0005324759798626661
Row.<init>,0.0033172764977003545,0.0,0.00037479262669867954,0.0,0.003692069124399034
SAX2EventRecorder$objArrayVector.get,0.0,0.0,0.0,0.0,0.0
SAX2EventRecorder.replay,0.0019328134559438621,0.01207307678860117,0.000309069607936248,0.002172205150645848,0.01648716500312713
SAXParserImpl.<init>,0.002482838282531665,0.0,0.00045944314586109287,0.0,0.0029422814283927576
SEIFactoryImpl.createServiceEndpoint,0.0,0.0,0.0,0.0,0.0
SOAPEnvelope.<init>,0.0,0.0,0.0,0.0,0.0
SOAPHandler.endElement,0.0,0.0,0.0,0.0,0.0
SOAPPart.<init>,0.0,0.0008248465185458759,0.0,0.00014934961039292542,0.0009741961289388013
SOAPService.getInitializedServiceDesc,0.0,0.0,0.0,0.0,0.0
SQLDecimal.class$,0.0,0.0,0.0,0.0,0.0
Scheduler.<clinit>,0.0,0.0,0.0,0.0,0.0
SecuritySupport$4.run,0.0,0.0,0.0,0.0,0.0
Select.setEvaluatable,0.0,0.0,0.0,0.0,0.0
SelectNode.init,0.001978993095176256,0.0,0.00033117801139951177,0.0,0.0023101711065757675
SelectorImpl.processDeregisterQueue,0.0,0.0,0.0,0.0,0.0
SerializationContext.getActualJavaClass,0.0,0.0,0.0,0.0,0.0
SerializationContext.startElement,0.0,0.0,0.0,0.0,0.0
ServerSocketChannelImpl.accept0,0.0,0.0,0.0,0.0,0.0
ServletHandler.getFilterChain,0.0,0.0,0.0,0.0,0.0
Session.setCurrentCommand,0.0,0.0,0.0,0.0,0.0
SessionHandler.<init>,0.0,0.0,0.0,0.0,0.0
SignatureParser.parseBaseType,0.0,0.0,0.0,0.0,0.0
SimpleConfigurationManager.isLoaded,0.0,0.0,0.0,0.0,0.0
SimpleDeserializer.<init>,0.0,0.01019580349346214,0.0,0.001644104803486841,0.011839908296948982
SimpleDeserializerFactory.initConstructor,0.0006889272735214432,0.0,5.328272529935864e-06,0.0,0.0006942555460513791
SimpleSerializer.getObjectAttributes,0.0,0.0,0.0,0.0,0.0
SimpleSerializer.init,0.0,0.0014504404826050435,0.0,0.00026318113482603567,0.0017136216174310792
SocketChannelImpl.socket,0.0,0.0,0.0,0.0,0.0
SocketFactory.getDefault,0.0,0.0,0.0,0.0,0.0
StatefulContainer.newStatefulInstanceManager,0.0001909020596183728,0.0,3.5795781221670225e-05,0.0,0.00022669784084004303
StatelessContainer.<init>,0.0019523216620268027,0.0,0.0003440106571912739,0.0,0.0022963323192180763
StatementNode.generate,0.0,0.0,0.0,0.0,0.0
StringCache.getNew,0.0,0.0,0.0,0.0,0.0
StringUtils.strip,0.0,0.0,0.0,0.0,0.0
Style$Type.<init>,0.0,0.0,0.0,0.0,0.0
SuperProperties.load,0.0,0.0,0.0,0.0,0.0
SymbolTable.addSymbol,0.0,0.0,0.0,0.0,0.0
TableData.lock,0.0,0.0,0.0,0.0,0.0
TcpTransportFactory.compositeConfigure,0.0,0.0,0.0,0.0,0.0
TopicRegion.createSubscription,0.0,0.0,0.0,0.0,0.0
TopicRegion.getInactiveDestinations,0.0,0.0,0.0,0.0,0.0
TopicSubscription.<init>,0.00042495473115854333,0.0,6.754441865723365e-05,0.0,0.000492499149815777
TraceSystem.getTrace,0.0,0.0,0.0,0.0,0.0
TypeDesc.getFieldByName,0.0,0.0,0.0,0.0,0.0
TypeMappingImpl.finalGetSerializer,0.0,0.0,0.0,0.0,0.0
URLClassPath$1.hasMoreElements,0.0,0.0,0.0,0.0,0.0
URLClassPath.getLoader,0.0,0.0,0.0,0.0,0.0
URLClassPath.getNextLoader,0.0,0.0,0.0,0.0,0.0
URLClassPath.getResource,0.0,0.0,0.0,0.0,0.0
UTF8.utf8Length,0.04157014583339939,0.0,0.004324375001639661,0.0,0.045894520835039046
UTF_8$Encoder.encode,0.0,0.0,0.0,0.0,0.0
UndoLog.size,0.0,0.0,0.0,0.0,0.0
Unsafe.defineClass,0.0016075289047342782,0.0,0.00025888051068500965,0.0,0.0018664094154192878
Unsafe.getLong,0.0,0.0,0.0,0.0,0.0
Unsafe.park,0.0,0.0,0.0,0.0,0.0
Unsafe.setMemory,0.0,0.0,0.0,0.0,0.0
Unsafe.unpark,0.0,0.0019022183406103691,0.0,0.0003104148471756436,0.0022126331877860127
Value.cache,0.0,0.004203758794002951,0.0,0.0006130402009751668,0.004816798994978118
View.update,0.0,0.0,0.0,0.0,0.0
WritableContext.getDeepBinding,0.0,0.0,0.0,0.0,0.0
WstxInputFactory.doCreateSR,0.0,0.0,0.0,0.0,0.0
X509CertInfo.parse,0.0,0.0021678077691704373,0.0,0.0003566104610571089,0.0025244182302275463
XML11Configuration.<init>,0.06628102564121573,0.0,0.009852307690426899,0.0,0.07613333333164263
XML11Configuration.configurePipeline,0.0,0.0,0.0,0.0,0.0
XML11Configuration.reset,0.0,0.0016225508894723401,0.0,0.0003323928259062079,0.001954943715378548
XMLAttributesImpl.removeAllAttributes,0.0,0.0,0.0,0.0,0.0
XMLDocumentFragmentScannerImpl$FragmentContentDriver.next,0.0012570126582048086,0.0,0.00019012658226471747,0.0,0.001447139240469526
XMLDocumentFragmentScannerImpl.scanEndElement,0.0,0.0,0.0,0.0,0.0
XMLEntityScanner.load,0.007473601757238405,0.0,0.0009966028351145596,0.0,0.008470204592352964
XMLEntityScanner.skipString,0.0,0.009904867384664862,0.0,0.0017045323508006413,0.011609399735465504
XMLNSDocumentScannerImpl.scanAttribute,0.06065222826245294,0.0,0.00840929569698066,0.0,0.0690615239594336
XMLNSDocumentScannerImpl.scanStartElement,0.0,0.0,0.0,0.0,0.0
XMLString.toString,0.0019198597036001407,0.0,0.0002571556794596868,0.0,0.0021770153830598274
XmlObjectBase.<clinit>,0.0,0.02634470661961024,0.0,0.003935771966124051,0.03028047858573429
XmlOutputAbstractImpl.endTag,0.0,0.0,0.0,0.0,0.0
ZoneInfo.getOffsets,0.0,0.0014786078431557946,0.0,0.00023867647056855879,0.0017172843137243533
ZoneInfo.getTransitionIndex,0.0,0.0,0.0,0.0,0.0
