method,package1,package2,dram1,dram2,energy
AbstractCollection,0.0,0.0,0.0,0.0,0.0
AbstractInterruptibleChannel,0.0,0.00889179423866303,0.0,0.0011204938271498297,0.01001228806581286
AbstractPlainSocketImpl,0.0,0.0,0.0,0.0,0.0
AbstractStringBuilder,0.0,0.0005911338812344707,0.0,7.453319790104595e-05,0.0006656670791355166
AccessController,0.0,0.030570051814750546,0.0,0.0031301872882574465,0.03370023910300799
Array,0.0,0.0,0.0,0.0,0.0
ArrayList,0.02915452114912999,0.0,0.005021967655290005,0.0,0.034176488804419994
Arrays,0.0,0.057939334938330166,0.0,0.00932830195034324,0.0672676368886734
Attributes,0.0,0.05668133333771645,0.0,0.0016699999978300186,0.05835133333554647
BufferedInputStream,0.16296150337172516,0.21800180314975565,0.022057674473942093,0.02657122966181942,0.4295922106572423
BufferedWriter,0.0005341934388875065,0.0,9.870475113781156e-05,0.0,0.0006328981900253181
ByteArrayInputStream,0.0,0.000395084704768977,0.0,5.041859686537712e-05,0.0004455033016343541
ByteArrayOutputStream,0.0,0.034154336902415795,0.0,0.0043177012019955776,0.038472038104411375
Character,0.0,0.0,0.0,0.0,0.0
Charset,0.0,0.0,0.0,0.0,0.0
Class,0.07170419999893056,0.06618850405433205,0.009305999999924095,0.010859727298023848,0.15805843135121053
ClassLoader,0.10033052094683038,0.035878740952164194,0.012385423561454403,0.00512510311062387,0.15371978857107282
CollationElementIterator,0.0,0.0,0.0,0.0,0.0
Collator,0.0,0.0010323143032327422,0.0,0.00014088397791027163,0.001173198281143014
Constructor,0.0,0.0007446480570160298,0.0,5.696181929603969e-05,0.0008016098763120695
DataInputStream,0.0,0.041138084709733416,0.0,0.004366289042932508,0.04550437375266592
DateFormatSymbols,0.0,0.0,0.0,0.0,0.0
FileInputStream,0.0,0.0,0.0,0.0,0.0
FileOutputStream,0.39566103028795957,0.34918903703779774,0.02854046985696234,0.0019783333342207627,0.7753688705169405
FilterInputStream,0.06957066760352955,0.0,0.006551095888223179,0.0,0.07612176349175273
HashMap,0.0,0.0,0.0,0.0,0.0
HashMap$EntryIterator,0.0,0.0010084923076926944,0.0,0.00016892307694667044,0.0011774153846393649
HashMap$Node,0.0,0.0,0.0,0.0,0.0
HashSet,0.0,0.0,0.0,0.0,0.0
Hashtable,0.02915452114912999,0.0,0.005021967655290005,0.0,0.034176488804419994
Hashtable$Enumerator,0.0,0.00014323659131135154,0.0,1.2945117661253295e-05,0.00015618170897260483
Inflater,0.7212192666127433,0.5630037703599858,0.04930008080056047,0.0024479999995997382,1.3359711177728892
InflaterInputStream,0.035078877943251166,0.0,0.004156196605149877,0.0,0.03923507454840104
Introspector,0.0,0.048644999997729116,0.0,0.00029999999969732016,0.048944999997426436
LogManager,0.0,0.07441028630726414,0.0,0.012296952907094694,0.08670723921435883
MutableBigInteger,0.0,0.0,0.0,0.0,0.0
Normalizer,0.0,0.0009981343958005682,0.0,0.0001230450313094993,0.0011211794271100675
Object,0.002864588631901792,0.0,0.00044898949927610614,0.0,0.003313578131177898
ObjectInputStream$BlockDataInputStream,0.00022027736006762885,0.0,2.626566415335189e-05,0.0,0.00024654302422098074
Objects,0.0007202884990319819,0.0,9.11111110645722e-05,0.0,0.0008113996100965541
OutputStreamWriter,0.0,0.0,0.0,0.0,0.0
PlainSocketImpl,0.012043804550051275,0.004761349351646527,0.002134773036324941,0.0006936283076864416,0.019633555245709186
PropertyDescriptor,0.0,0.010536538463390182,0.0,0.001593104139350489,0.012129642602740671
RBTableBuilder,0.0,0.0,0.0,0.0,0.0
ReentrantReadWriteLock$Sync,0.0,0.0,0.0,0.0,0.0
RuleBasedCollator,0.0,0.0,0.0,0.0,0.0
SocketAddress,0.0,0.0,0.0,0.0,0.0
SocketInputStream,0.0,0.0,0.0,0.0,0.0
SocketOutputStream,0.0023336834771313466,0.0,0.0004061721332224683,0.0,0.002739855610353815
String,0.004127337494059128,0.02306321866678593,0.0005303744506287729,0.003563297256534292,0.03128422786800812
StringBuffer,0.0,0.001041755678343425,0.0,0.00015609576426871798,0.001197851442612143
StringBuilder,0.0,0.0,0.0,0.0,0.0
SynchronousQueue$TransferStack,0.0,0.0,0.0,0.0,0.0
ThreadGroupContext,0.0,0.0,0.0,0.0,0.0
ThreadPoolExecutor,0.0,0.0,0.0,0.0,0.0
Throwable,0.0045667442644954995,0.08578478440738055,0.0005514543529124567,0.010213185591529726,0.10111616861631822
TimSort,0.0,0.028202728254594495,0.0,0.003023894212985857,0.031226622467580352
TreeMap,0.0,0.0010574615384643543,0.0,8.387573966797794e-05,0.0011413372781323321
URI,0.0,0.0,0.0,0.0,0.0
UnixFileSystem,0.02086445541307906,0.004725043183673374,0.001931786327039005,0.0005021226314535596,0.028023407555245
Vector,0.0,0.03615258809555815,0.0,0.0,0.03615258809555815
ZipCoder,0.0,0.003259248685765241,0.0,0.0003433071096660409,0.003602555795431282
ZipFile,0.18479213994370744,0.02202696296498524,0.024874978907569033,0.0,0.23169408181626172
ZipFile$ZipFileInflaterInputStream,0.0,0.0,0.0,0.0,0.0
ZipFile$ZipFileInputStream,0.002917549707596626,0.0,0.0003595614035417086,0.0,0.0032771111111383347
