method,hits
AbstractSelectableChannel.removeKey,1
AbstractStringBuilder.<init>,1
AbstractStringBuilder.append,1
AbstractStringBuilder.ensureCapacityInternal,2
AccessController.doPrivileged,9
ArrayList.toArray,1
Arrays.copyOf,3
Arrays.copyOfRange,2
BigInteger.smallToString,1
BigInteger.subN,1
Bits$1.getDirectBufferPool,1
Buffer.checkIndex,1
BufferedInputStream.<init>,2
BufferedInputStream.read,3
BufferedInputStream.read1,1
BufferedOutputStream.write,1
BufferedWriter.<init>,3
BufferedWriter.flushBuffer,1
BufferedWriter.write,2
ByteArrayOutputStream.<init>,1
ByteArrayOutputStream.reset,1
ByteArrayOutputStream.write,1
Calendar.internalGet,1
CharArrayWriter.<init>,1
CharArrayWriter.write,1
Character.toUpperCase,1
CharacterDataLatin1.getProperties,1
CharacterDataLatin1.toUpperCaseEx,1
Class.forName0,13
Class.getDeclaredConstructors0,2
Class.getDeclaredFields0,8
Class.getDeclaredMethods0,3
Class.isPrimitive,1
Class.privateGetPublicFields,1
Class.searchMethods,1
ClassLoader.defineClass1,40
ClassLoader.findBootstrapClass,4
ClassLoader.findLoadedClass0,10
ClassLoader.preDefineClass,1
Collator.getDecomposition,2
Collections.nCopies,1
ConcurrentHashMap.get,1
DataInputStream.readInt,1
DataInputStream.readUTF,1
DataInputStream.readUnsignedShort,3
Date.clone,1
DecimalFormat.format,1
DecimalFormat.parse,1
File.<init>,1
File.mkdir,1
FileInputStream.open0,1
FileInputStream.read0,2
FileInputStream.readBytes,2
FileOutputStream.open0,1
FileOutputStream.writeBytes,37
Finalizer.add,1
HashMap$HashIterator.<init>,2
HashMap$HashIterator.nextNode,1
HashMap.<init>,2
HashMap.getNode,2
HashMap.newNode,1
HashMap.resize,2
HashSet.<init>,1
Hashtable$Enumerator.nextElement,1
Hashtable.get,1
Hashtable.rehash,1
IdentityHashMap.keySet,1
Inflater.finished,1
Inflater.inflate,4
Inflater.inflateBytes,117
InflaterInputStream.read,1
Integer.hashCode,1
Introspector.getTargetBeanDescriptor,1
Introspector.processPropertyDescriptors,1
Locale.isUnicodeExtensionKey,1
Logger.demandLogger,1
Long.<init>,1
Object.<init>,1
Object.clone,1
Object.getClass,1
ObjectInputStream$BlockDataInputStream.readUTFSpan,1
ObjectInputStream$HandleTable.finish,1
ObjectInputStream.<init>,1
ObjectInputStream.readOrdinaryObject,1
ObjectStreamClass.computeDefaultSUID,1
ObjectStreamClass.getDeclaredSUID,1
Pattern.sequence,1
PlainSocketImpl.socketClose0,2
PlainSocketImpl.socketConnect,4
PlainSocketImpl.socketCreate,1
Properties.setProperty,1
ReferenceQueue$Lock.<init>,1
RuleBasedCollator.compare,2
Runtime.addShutdownHook,1
ServiceLoader.iterator,1
SocketOutputStream.socketWrite0,1
SoftReference.get,1
Stack.pop,1
String.charAt,1
String.compareTo,1
String.equals,3
String.getChars,1
String.hashCode,2
String.indexOf,1
String.intern,19
String.lastIndexOf,1
String.length,1
String.startsWith,1
String.substring,1
StringBuffer.append,3
StringBuffer.toString,1
StringCoding.decode,1
SynchronousQueue$TransferStack.awaitFulfill,3
SynchronousQueue$TransferStack.snode,1
System.arraycopy,1
Thread.run,1
Thread.sleep,1
Thread.start0,1
ThreadGroupContext.getBeanInfo,1
ThreadLocal$ThreadLocalMap.getEntry,1
ThreadLocal$ThreadLocalMap.set,1
Throwable.fillInStackTrace,41
TimSort.gallopLeft,1
URI$Parser.at,1
URL.getFile,1
URLStreamHandler.hostsEqual,1
UnixFileSystem.checkAccess,1
UnixFileSystem.createDirectory,4
UnixFileSystem.delete0,1
UnixFileSystem.getBooleanAttributes0,4
UnixFileSystem.getLastModifiedTime,1
UnixFileSystem.normalize,1
Vector.<init>,1
Vector.addElement,1
WeakHashMap$Entry.<init>,1
Writer.<init>,1
ZipCoder.getBytes,1
ZipFile.getEntry,12
ZipFile.getInputStream,1
ZipFile.open,3
ZipFile.read,6
ZipInputStream.read,1
