method,package1,package2,dram1,dram2,energy
$Proxy4,0.0,0.0,0.0,0.0,0.0
AbstractBuffer,0.0,0.0,0.0,0.0,0.0
AbstractClassGenerator,0.0011244657280920821,0.0,0.00012382179557432642,0.0,0.0012482875236664085
AbstractManagedConnection,0.0,0.0,0.0,0.0,0.0
AbstractPlainSocketImpl,0.0,0.022936744523931414,0.0,0.004022739295888326,0.02695948381981974
AbstractQueuedSynchronizer,0.0,0.0,0.0,0.0,0.0
AbstractSAXParser$AttributesProxy,0.0,0.0,0.0,0.0,0.0
AbstractStringBuilder,0.0,0.0,0.0,0.0,0.0
AccessController,0.056920904015845854,0.006374310803962802,0.006255402008934228,0.0008845095680122446,0.07043512639675512
AllResultColumn,0.0,0.0,0.0,0.0,0.0
ArrayList,0.0,0.0,0.0,0.0,0.0
ArrayList$Itr,0.0,0.0,0.0,0.0,0.0
ArrayOutputStream,0.0,0.0,0.0,0.0,0.0
Arrays,0.0,0.009327574162666004,0.0,0.0013797129186538144,0.010707287081319818
Arrays$ArrayList,0.0,0.0,0.0,0.0,0.0
AttachmentsImpl,0.0,0.0005973993594489914,0.0,9.882237004662299e-05,0.0006962217294956144
AugmentationsImpl$SmallContainer,0.0,0.0,0.0,0.0,0.0
B2I,0.0,0.0,0.0,0.0,0.0
BCClass,0.0,0.0,0.0,0.0,0.0
BCJava,0.0,0.0,0.0,0.0,0.0
BCMethod,0.0,0.0,0.0,0.0,0.0
BaseContainer,0.0,0.0,0.0,0.0,0.0
BaseDataFileFactoryJ4,0.0,0.0,0.0,0.0,0.0
BaseIndex,0.0,0.0039551798611655534,0.0,0.0005022157842955282,0.0044573956454610816
BasePage,0.0,0.0,0.0,0.0,0.0
BaseSerializerFactory,0.0,0.0,0.0,0.0,0.0
BasicHandler,0.0,0.00875277748520957,0.0,0.0015138940092119027,0.010266671494421472
BasicLifecycleMonitor,0.0,0.0,0.0,0.0,0.0
BasicRegistry,0.0,0.0,0.0,0.0,0.0
BasicUUIDFactory,0.0,0.0,0.0,0.0,0.0
BeanDeserializer,0.008586060324144463,0.0,0.0010015498725190286,0.0,0.009587610196663491
BeanSerializerFactory,0.003677341390940214,0.0,0.00043213800315037486,0.0,0.004109479394090589
BeanUtils,0.00013908581321798078,0.0,2.5683191524909516e-05,0.0,0.0001647690047428903
Benchmark,0.0,0.0,0.0,0.0,0.0
BigDecimal,0.0,0.0,0.0,0.0,0.0
BigInteger,0.00749768417780638,0.0018028016528066567,0.0009346156947379414,0.0002698760330200788,0.010504977558371056
Boolean,0.0,0.0,0.0,0.0,0.0
Buffer,0.0,0.0,0.0,0.0,0.0
BufferedInputStream,0.16131355176954795,0.04992478527659178,0.014979840791065534,0.007748748950562368,0.23396692678776765
BufferedWriter,0.0,0.011065353597967934,0.0,0.0014690806611077965,0.01253443425907573
ByteArray,0.0,0.0,0.0,0.0,0.0
ByteArrayInputStream,0.030285840102130788,0.0,0.003078528920705471,0.0,0.03336436902283626
ByteArrayOutputStream,0.0008343617021424468,0.0006935054573022201,0.00015877659573929355,0.0001321779160366983,0.001818821671220659
ByteVector,0.0,0.0,0.0,0.0,0.0
Calendar,0.0,0.0012936641887402738,0.0,0.0001811417259193361,0.0014748059146596098
Call,0.003327067685225309,0.0,0.00044982761930949315,0.0,0.0037768953045348025
CharArrayWriter,0.0,0.01077920370368735,0.0,0.0018968750000230676,0.012676078703710418
Class,0.15555890693521227,0.10984582131089352,0.017214648119735814,0.014902145788835083,0.2975215221546767
Class$MethodArray,0.0,0.05647190476121891,0.0,0.0016178571431304418,0.05808976190434935
ClassEmitter,0.0,0.0,0.0,0.0,0.0
ClassFileAssembler,0.0,0.0,0.0,0.0,0.0
ClassLoader,0.5263678737990567,0.12785592700381673,0.05512527953585988,0.015409626750056853,0.7247587070887902
ClassPool,0.004788477867117182,0.0,0.0006155205965686087,0.0,0.00540399846368579
CodeEmitter,0.0,0.043934255709788886,0.0,0.0014948063120376078,0.04542906202182649
CodeIterator,0.0,0.0,0.0,0.0,0.0
CodeWriter,0.0,0.0,0.0,0.0,0.0
CollationElementIterator,0.0,0.0,0.0,0.0,0.0
Command,0.0,0.0,0.0,0.0,0.0
ConcurrentLockSet$Entry,0.0046613653076868185,0.0,0.0005984981635882532,0.0,0.005259863471275072
ConfigFile,0.0,0.0,0.0,0.0,0.0
Configurations,0.004842785282357933,0.0,0.0004550932480850293,0.0,0.005297878530442962
ConstPool,0.00015365576217848232,0.0,2.7556384765719623e-05,0.0,0.00018121214694420194
Constants,0.0,0.0008272198528891375,0.0,0.00013910712057346524,0.0009663269734626027
Constructor,0.0,0.0,0.0,0.0,0.0
ContextFlyweight,0.0,0.000816317291080266,0.0,0.00012126224359560815,0.0009375795346758741
ContextUtil$SimpleNameParser,0.0,0.0,0.0,0.0,0.0
CopyOnWriteArrayList,0.0,0.0,0.0,0.0,0.0
CoreReflectionFactory,0.0,0.0,0.0,0.0,0.0
CtClassType,0.0005101698089644618,0.0,7.8772941983884e-05,0.0,0.0005889427509483458
DaCapoTrader,0.0,0.0,0.0,0.0,0.0
DataDescriptorGenerator,0.0,0.0,0.0,0.0,0.0
DataDictionaryImpl,0.0,0.0005516767955593538,0.0,0.0001026381215619924,0.0006543149171213462
DataInputStream,0.0,0.0523733906586134,0.0,0.0066261615609078724,0.05899955221952127
DataValueFactoryImpl,0.00021377975766100844,0.0005987597764866406,3.5905706069487284e-05,9.180167598055426e-05,0.0009402469161976907
Database,0.0,0.0,0.0,0.0,0.0
DefaultSocketFactory,0.0,0.0,0.0,0.0,0.0
DeferredDocumentImpl,0.05145742608722725,0.0,0.006387652174706328,0.0,0.05784507826193357
Descriptor,0.0,0.0,0.0,0.0,0.0
DeserializationContext,0.0,0.00031914166663200096,0.0,4.295454544979183e-05,0.0003620962120817928
DiagnosticCommandImpl,0.0,0.0,0.0,0.0,0.0
DisabledAlgorithmConstraints$Constraints,0.0,0.0,0.0,0.0,0.0
DocumentBuilderImpl,0.0,0.032501249999768334,0.0,0.005159999998795684,0.03766124999856402
Driver40,0.0,0.0004653653631366623,0.0,7.320670391479768e-05,0.00053857206705146
EJBMethodPermission$MethodSpec,0.0,0.0,0.0,0.0,0.0
EPollArrayWrapper,0.0011118908098487767,0.0,0.00018005471568413562,0.0,0.0012919455255329124
EPollSelectorImpl,0.0,0.0,0.0,0.0,0.0
EjbDaemon,0.0002857049038405488,0.0,4.0210420590157784e-05,0.0,0.0003259153244307066
ElementImpl,0.0,0.0768633333306449,0.0,0.0029600000004090053,0.07982333333105392
EmitUtils,0.09254966666533923,0.0,0.008809999999357387,0.0,0.10135966666469662
Engine,0.0,0.0,0.0,0.0,0.0
Enhancer,0.0,0.0,0.0,0.0,0.0
Exceptions,0.0,0.0,0.0,0.0,0.0
Executable,0.0,0.0,0.0,0.0,0.0
ExpressionFactory,0.0,0.0,0.0,0.0,0.0
ExtendedPlatformComponent,0.0012387834113666762,0.0,0.00016978194382576714,0.0,0.0014085653551924432
FactoryFinder,0.0,0.0,0.0,0.0,0.0
FeatureState,0.0,0.06988525000269874,0.0,0.011354999998729907,0.08124025000142865
File,0.0,0.07480028396729893,0.0,0.010632093273624887,0.08543237724092381
FileContainer,0.0,0.0,0.0,0.0,0.0
FileDispatcherImpl,0.0,0.0,0.0,0.0,0.0
FileInputStream,0.001530444609670262,0.0,0.00018442173748281347,0.0,0.0017148663471530754
FileOutputStream,1.092072477288176,0.0,0.09439535758636178,0.0,1.1864678348745379
Formatter,0.0,0.0,0.0,0.0,0.0
GeneratedMethodAccessor34,0.0018831110780126782,0.0,0.0002458047836414735,0.0,0.0021289158616541516
GenericResultSetFactory,0.0,0.0,0.0,0.0,0.0
HTTPSender,0.0,0.0005202388982029452,0.0,7.755462811304474e-05,0.0005977935263159899
HashMap,0.0010899617486185512,0.03071817194790493,0.00013540983602437675,0.003812603964665579,0.03575614749721344
HashSet,0.0011059959990745724,0.0,0.00017470559323692537,0.0,0.0012807015923114978
Hashtable,0.01460376605576131,0.0,0.0026024289238842386,0.0,0.017206194979645546
Hashtable$Enumerator,0.00033300740211067903,0.0,5.7077390362465736e-05,0.0,0.0003900847924731448
Heap,0.0020960960387397237,0.0,0.00031732529010904657,0.0,0.00241342132884877
HeapByteBuffer,0.0,0.0,0.0,0.0,0.0
HeapRowLocation,0.0,0.0,0.0,0.0,0.0
HttpConnection$RequestHandler,0.0,0.07529937542348522,0.0,0.012830945488154685,0.0881303209116399
HttpParser$Input,0.0,0.014366663212407203,0.0,0.002301683937820095,0.0166683471502273
HttpStatus,0.0,0.0,0.0,0.0,0.0
IOUtil,0.0008236670999137905,0.0020688085700133717,0.00016576920237025992,0.00033990739470675293,0.003398152267004175
IdUtil,0.003212481148210811,0.0,0.0004718780009735152,0.0,0.0036843591491843262
Inflater,2.0286500024268164,7.452486186302446e-05,0.1531654489600947,1.1270718208613205e-05,2.1819012469669827
InflaterInputStream,0.06007961421862041,0.0,0.007788107956026719,0.0,0.06786772217464712
Introspector,0.11755557024481689,0.0,0.0068869902671943,0.0,0.12444256051201119
JMXManagementService,0.0,0.0,0.0,0.0,0.0
JarFile,0.02558239413096696,0.0,0.004011966119281146,0.0,0.029594360250248107
JarFileFactory,0.0,0.06673166666587349,0.0,0.01104000000001785,0.07777166666589135
JavaUtils,0.0,0.0,0.0,0.0,0.0
JaxbOpenejb$1,0.00029398387187500264,0.0,4.97977168132825e-05,0.0,0.0003437815886882851
JdbcConnection,0.0029558775284683537,0.0,0.00033287710785820927,0.0,0.003288754636326563
JdbcStatement,0.0,0.0,0.0,0.0,0.0
JdbcXAConnection$PooledJdbcConnection,0.0,0.0,0.0,0.0,0.0
JvstCodeGen,0.00011461185565035012,0.0,5.919401295678577e-06,0.0,0.0001205312569460287
KeyFactory$Generator,0.0,0.02226271766018514,0.0,0.00026580938825623124,0.022528527048441372
LocalizedResource,0.0007258166873479798,0.0,0.00011216669156277473,0.0,0.0008379833789107545
Localizer,0.0,0.0,0.0,0.0,0.0
LongVector,0.0014866182017337507,0.0,0.00019032396048262068,0.0,0.0016769421622163713
MXBeanIntrospector,0.0035489804481556725,0.0,0.0005534606846248498,0.0,0.004102441132780523
MXBeanSupport,0.0003752526928306138,0.0,5.676002990137477e-05,0.0,0.0004320127227319886
ManagedProperties,0.0,0.0,0.0,0.0,0.0
ManagedRegionBroker,0.0,0.0,0.0,0.0,0.0
ManagementFactory,0.0,0.0,0.0,0.0,0.0
ManagementFactory$2,0.0,0.0,0.0,0.0,0.0
ManagementFactoryHelper,0.0011918269227841642,0.0,0.00016355305265407106,0.0,0.0013553799754382353
Mapping,0.0,0.0,0.0,0.0,0.0
Math,0.009253305421997385,0.0,0.0013408135253880676,0.0,0.010594118947385453
MessageBundle,0.0042082408657317045,0.0,0.0005946023994792441,0.0,0.004802843265210949
MessageContext,0.0,0.0012705797665428136,0.0,0.00021227626457261396,0.0014828560311154276
MessageElement,0.0,0.0009954571428741994,0.0,0.00016271428570949607,0.0011581714285836954
MessagesConstants,0.0,0.0,0.0,0.0,0.0
MethodAccessorGenerator$1,0.0,0.0,0.0,0.0,0.0
MethodCache,0.0,0.0,0.0,0.0,0.0
MethodDescriptor,0.0,0.0032358556477646142,0.0,0.00041088957056164616,0.0036467452183262606
MultiParentClassLoader,0.0,0.06871673766189358,0.0,0.009700359703364013,0.0784170973652576
MultiVersionIndex,0.0,0.0,0.0,0.0,0.0
NCSARequestLog,0.0,0.0,0.0,0.0,0.0
NOPLoggerFactory,0.0,0.0,0.0,0.0,0.0
NSStack,0.0,0.0013266418918373984,0.0,0.00012833333334150688,0.0014549752251789053
NameImpl,0.0,0.0,0.0,0.0,0.0
NamespaceSupport,0.0,0.008798827999969944,0.0,0.0013453800000133927,0.010144207999983336
NativeConstructorAccessorImpl,0.0,0.0,0.0,0.0,0.0
NativePRNG,0.0,0.0010613663650316581,0.0,0.00016700226245217972,0.0012283686274838378
Net,0.0,0.001640601851788772,0.0,0.0001959027778058145,0.0018365046295945866
NodeImpl,0.0,0.0018324133333387886,0.0,0.0002726000000257045,0.0021050133333644933
ObjectArray,0.0,0.0,0.0,0.0,0.0
ObjectInputStream,0.0,0.04728367942703608,0.0,0.006556600243110333,0.053840279670146415
ParseUtil,0.0,0.0,0.0,0.0,0.0
Parser,0.0,0.0040797177033357395,0.0,0.0005089234449395479,0.004588641148275287
ParserConfigurationSettings,0.0,0.0,0.0,0.0,0.0
ParserImpl,0.0026450409897117856,0.0,0.00034514565066782636,0.0,0.002990186640379612
PatternLayout,0.05520041268489867,0.0,0.004404133618331416,0.0,0.05960454630323009
Piccolo,0.05591637531121072,0.0,0.0066781413933074,0.0,0.06259451670451813
PlainSocketImpl,0.021504530860463673,0.0,0.00348538127206686,0.0,0.024989912132530535
PlatformComponent,0.0014192649710173698,0.0,0.00023069549388982988,0.0,0.0016499604649071996
PlatformLogger$Level,0.0,0.0,0.0,0.0,0.0
Prepared,0.0,0.0,0.0,0.0,0.0
PreparedStatementHandle,0.0,0.0,0.0,0.0,0.0
ProjectRestrictNode,0.0,0.0,0.0,0.0,0.0
Properties,0.0,0.0,0.0,0.0,0.0
Properties$LineReader,0.0,0.04142826410807377,0.0,0.006304309466009584,0.04773257357408336
PropertyDescriptor,0.0,0.017551605485179513,0.0,0.002859274009225295,0.02041087949440481
QName,0.01064755021705082,0.0,0.0017611138176166126,0.0,0.012408664034667434
QuoteDataBean,0.0024479886670779024,0.0,0.0003426023617652851,0.0,0.0027905910288431876
RAMAccessManager,0.0,0.002642446927360113,0.0,0.00031771508377831034,0.002960162011138423
RFC822Name,0.0,0.0008882892560762207,0.0,0.00013586776865038192,0.0010241570247266026
RMIConnectorServer,0.0,0.0,0.0,0.0,0.0
RPCElement,0.0,0.0,0.0,0.0,0.0
ReentrantReadWriteLock,0.0,0.0,0.0,0.0,0.0
Reference,0.0,0.0,0.0,0.0,0.0
Reflection,0.00031367348087381184,0.0,4.808176706032596e-05,0.0,0.0003617552479341378
Reifier,0.0,0.0,0.0,0.0,0.0
ResourceClassDiscoverImpl$1,0.0,0.0,0.0,0.0,0.0
Response,0.0,0.0012959368314757974,0.0,0.0002249642429071313,0.0015209010743829287
ResultColumnList,0.0,0.0,0.0,0.0,0.0
Row,0.0,0.0,0.0,0.0,0.0
RowResultSetNode,0.003176246468863841,0.0,0.00046864314720275214,0.0,0.0036448896160665933
RuleBasedCollator,0.0024479886670779024,0.0,0.0003426023617652851,0.0,0.0027905910288431876
RuntimeModelBuilder,0.06641099999978907,0.0,0.0074630769225992625,0.0,0.07387407692238833
SAX2EventRecorder,0.0,0.008389008403285061,0.0,0.0013223096511314713,0.009711318054416532
SAX2EventRecorder$objArrayVector,0.0,0.0,0.0,0.0,0.0
SAXOutput,0.0,0.0,0.0,0.0,0.0
SAXOutputter,0.0,0.0,0.0,0.0,0.0
SAXParserFactoryImpl,0.002792317382777657,0.0,0.000361054293468414,0.0,0.003153371676246071
SAXParserImpl,0.0,0.0,0.0,0.0,0.0
SHA,0.0,0.24689151074448146,0.0,0.03331496712529327,0.2802064778697747
SOAPBody,0.0,0.0,0.0,0.0,0.0
SOAPEnvelope,0.0,0.0,0.0,0.0,0.0
SOAPHandler,0.0,0.0,0.0,0.0,0.0
SQLParser,0.0,0.0,0.0,0.0,0.0
SSLContextImpl$AbstractTLSContext,0.0,0.0015677520661318506,0.0,0.00023801652892600469,0.0018057685950578553
Schema,0.002208687320223333,0.0,0.00040225042276137527,0.0,0.0026109377429847083
Select,0.0,0.0,0.0,0.0,0.0
SelectChannelConnector$ConnectorEndPoint,0.0,0.001041756985884334,0.0,0.0001908508634257417,0.0012326078493100758
SelectChannelEndPoint,0.0,0.0,0.0,0.0,0.0
SelectorManager$SelectSet,0.0,0.0,0.0,0.0,0.0
SelectorProviderImpl,0.0,0.0,0.0,0.0,0.0
Semaphore$Sync,0.000782668487435332,0.0,0.00013465519501389253,0.0,0.0009173236824492246
SerializationContext,0.0,0.0,0.0,0.0,0.0
ServerSocketChannelImpl,0.0,0.0,0.0,0.0,0.0
ServiceSupport,0.0,0.0,0.0,0.0,0.0
SharedSecrets,0.01098502673796082,0.0,0.0019816844919830295,0.0,0.01296671122994385
SocketChannelImpl,0.0,0.0,0.0,0.0,0.0
SocketInputStream,0.011446393755811152,0.0,0.0021766136332804736,0.0,0.013623007389091626
SocketOutputStream,0.0,0.0019578205128289897,0.0,0.00033430769227636167,0.002292128205105351
SocksSocketImpl,0.0,0.0,0.0,0.0,0.0
String,0.01584600357638486,0.04716721117634568,0.002209526898407147,0.002189678196156324,0.06741241984729401
StringBuffer,0.0,0.0,0.0,0.0,0.0
StringBuilder,0.028531548730386137,0.0,0.002821916765531762,0.0,0.0313534654959179
StringCoding$StringDecoder,0.0,0.0,0.0,0.0,0.0
StringReader,0.0,0.0,0.0,0.0,0.0
SymbolTable,0.01094919815669582,0.003814230950416885,0.0017140092165772653,0.0005582645263797663,0.017035702850069737
TcpTransportFactory,0.0,0.0,0.0,0.0,0.0
TestHarness,0.0,0.0,0.0,0.0,0.0
Thread,0.002317565944975778,0.0,0.0003095007808972196,0.0,0.0026270667258729975
ThreadLocal$ThreadLocalMap,0.0,0.0,0.0,0.0,0.0
ThreadPool$1,0.0,0.0,0.0,0.0,0.0
ThreadPool$ContextClassLoaderRunnable,0.0,0.0,0.0,0.0,0.0
ThreadPoolExecutor,0.0,0.009847742268040334,0.0,0.00166476804127145,0.011512510309311785
Throwable,0.008983562961457964,0.0009973732718912462,0.0011956381279953868,0.00016264976955862278,0.01133922413090322
TimeZone,0.0,0.0,0.0,0.0,0.0
TraceSystem,0.0,0.0,0.0,0.0,0.0
TransletOutputHandlerFactory,0.0,0.0,0.0,0.0,0.0
TreeIndex,0.0,0.0,0.0,0.0,0.0
TreeMap$Values,0.0,0.0,0.0,0.0,0.0
UCode_CharStream,0.0,0.0,0.0,0.0,0.0
URI$Parser,0.0,0.0,0.0,0.0,0.0
URLClassPath,0.08611425143445424,0.0,0.009693252735979263,0.0,0.0958075041704335
URLClassPath$JarLoader,0.0,0.08898321304271667,0.0,0.011655614465965995,0.10063882750868267
UTF8Reader,0.0,0.011097031914919463,0.0,0.0017729521276781638,0.012869984042597628
UTF_8$Encoder,0.0026120394270221,0.0,0.0003493166510320228,0.0,0.0029613560780541227
UnixFileSystem,0.06389510696943491,0.11844725005889459,0.00730272109549915,0.01667071288462407,0.20631579100845274
UnmarshallingContext$ExpectedTypeRootLoader,0.0,0.0,0.0,0.0,0.0
Unsafe,0.014999130995710194,0.0,0.002110822468630095,0.0,0.01710995346434029
Update,0.0,0.0,0.0,0.0,0.0
VMTypeIdCacheable,0.0006299995581058491,0.0,9.51598417495474e-05,0.0,0.0007251593998553965
ValueInt,0.0,0.0,0.0,0.0,0.0
Vector,0.02820228408355851,0.0,0.004314593674085389,0.0,0.0325168777576439
WstxInputFactory,0.0,0.0,0.0,0.0,0.0
XIncludeAwareParserConfiguration,0.0,0.0,0.0,0.0,0.0
XML11Configuration,0.0,0.12851966666251732,0.0,0.02063000000149865,0.14914966666401597
XMLDocumentFragmentScannerImpl,0.0005387952305664173,0.07678233333475266,8.126767607254286e-05,0.01104000000001785,0.08844239624140948
XMLDocumentFragmentScannerImpl$FragmentContentDriver,0.000936225736333409,0.0,0.0001520422692986118,0.0,0.0010882680056320208
XMLDocumentScannerImpl$TrailingMiscDriver,0.0,0.0,0.0,0.0,0.0
XMLDocumentScannerImpl$XMLDeclDriver,0.0,0.0,0.0,0.0,0.0
XMLEntityManager,0.0,0.042562000002362765,0.0,0.006860000001324806,0.04942200000368757
XMLEntityScanner,0.0,0.0,0.0,0.0,0.0
XMLNSDocumentScannerImpl,0.002033577468686845,0.0,0.00030009856303847375,0.0,0.002333676031725319
XMLSecurityManager,0.0,0.0,0.0,0.0,0.0
XMLString,0.0,0.0,0.0,0.0,0.0
XMLUtils,0.0,0.0,0.0,0.0,0.0
XMLVersionDetector,0.01098502673796082,0.0,0.0019816844919830295,0.0,0.01296671122994385
XactFactory,0.0,0.0,0.0,0.0,0.0
ZipCoder,0.0,0.0,0.0,0.0,0.0
ZipFile,0.3086688128808587,0.0,0.027723102704145318,0.0,0.336391915585004
ZipFile$ZipFileInflaterInputStream,0.05835581641627021,0.0,0.0028543963838151267,0.0,0.06121021280008534
ZoneInfo,0.0,0.0,0.0,0.0,0.0
ZoneInfoFile,0.07558467107987046,0.0,0.009700874271618715,0.0,0.08528554535148918
