method,package1,package2,dram1,dram2,energy
$Proxy0,0.0,0.0,0.0,0.0,0.0
AbstractManagedConnection,0.0,0.0,0.0,0.0,0.0
AbstractPlainSocketImpl,0.0011309735099295471,0.0,0.00018655629132778708,0.0,0.0013175298012573341
AbstractQueuedSynchronizer,0.0,0.0,0.0,0.0,0.0
AbstractSAXParser,0.0,0.0,0.0,0.0,0.0
AbstractStringBuilder,0.0,0.011579331699370718,0.0,0.0017261519607773212,0.013305483660148039
AccessController,0.0019209411759138636,0.0009766131082277166,0.0002301276416934294,0.0001280493871424587,0.003255731312977468
ActiveMQConnectionFactory,0.0,0.0,0.0,0.0,0.0
Array,0.0,0.0009142633602475627,0.0,0.00014424452133060395,0.0010585078815781666
ArrayList,0.016695264769601884,0.00028934309625107727,0.0024725823457148162,3.439330545333935e-05,0.019491583517021117
Arrays,0.0,0.0,0.0,0.0,0.0
Arrays$ArrayList,0.0,0.0,0.0,0.0,0.0
AttributesImpl,0.0,0.0,0.0,0.0,0.0
BaseDataFileFactoryJ4,0.0,0.0,0.0,0.0,0.0
BaseSerializerFactory,0.0,0.0,0.0,0.0,0.0
BasicProxyManager,0.0,0.0,0.0,0.0,0.0
BeanDeserializer,0.010721588491027487,0.0,0.0017151737799183152,0.0,0.012436762270945801
BeanSerializer,0.0,0.0,0.0,0.0,0.0
BeanUtils$1,0.0,0.0,0.0,0.0,0.0
Benchmark,0.0,0.0,0.0,0.0,0.0
BodyBuilder,0.00046527506868296336,0.0,7.700279388351847e-05,0.0,0.0005422778625664819
BrokeredConnection,0.0,0.0,0.0,0.0,0.0
BufferCache,0.0,0.0,0.0,0.0,0.0
BufferedInputStream,0.10278558117840307,0.0,0.012383710646487899,0.0,0.11516929182489097
BufferedWriter,0.009691654377864258,0.0,0.0014867281106280266,0.0,0.011178382488492285
Calendar$Builder,0.0,0.05605211247767062,0.0,0.0053612258315650545,0.06141333830923568
Call,0.0,0.0003832821782299728,0.0,4.563118811419561e-05,0.00042891336634416844
CertificateValidity,0.0009852102068411016,0.0,9.725551697805028e-05,0.0,0.0010824657238191519
CharacterDataLatin1,0.0,0.0,0.0,0.0,0.0
Class,0.05958703173790306,0.0005527866568451283,0.008620197756419253,0.00010219618815845561,0.06886221233932589
ClassDefiner,0.004105024218548813,0.0,0.0006350574720437951,0.0,0.004740081690592608
ClassEmitter,0.0,0.0,0.0,0.0,0.0
ClassFileAssembler,0.0,0.0,0.0,0.0,0.0
ClassHolder,0.0,0.0,0.0,0.0,0.0
ClassInfoImpl$1,0.08508321052731684,0.0,0.009372368421361642,0.0,0.09445557894867848
ClassLoader,0.2606633538005187,0.030732316281100795,0.0259028245344087,0.0007429599837329633,0.31804145459976113
ClassPool,0.04915582108608136,0.0,0.006558478069689933,0.0,0.055714299155771294
CodeEmitter,0.0,0.0,0.0,0.0,0.0
CollationElementIterator,0.0,0.0,0.0,0.0,0.0
Collator,0.0,0.0,0.0,0.0,0.0
Collections,0.0,0.0,0.0,0.0,0.0
Column,0.0,0.0,0.0,0.0,0.0
Command,0.0,0.0,0.0,0.0,0.0
CommandContainer,0.0,0.0,0.0,0.0,0.0
ConcurrentLockSet,0.0,0.0010150758620825243,0.0,0.00011275862070133684,0.0011278344827838612
ConfigurationFactory,0.0014823873868060672,0.0,0.00010470530666155967,0.0,0.0015870926934676269
ConfigurationUtil,0.023393076922869887,0.0,0.0029134615383204967,0.0,0.026306538461190382
ConstPool,0.0,0.00033251533741517097,0.0,5.0797546023511516e-05,0.00038331288343868247
Constants,0.0,0.01410557699900252,0.0,0.002345463498938943,0.016451040497941462
Constructor,0.0,0.0,0.0,0.0,0.0
ContextHandler,0.0,0.0,0.0,0.0,0.0
Cur,0.0,0.0,0.0,0.0,0.0
DOMParser,0.0,0.0,0.0,0.0,0.0
DaCapoDBBuilder,0.0,0.0,0.0,0.0,0.0
DataInputStream,0.0,0.0,0.0,0.0,0.0
Database,0.0,0.0,0.0,0.0,0.0
DbObjectBase,0.0,0.0,0.0,0.0,0.0
DerbySystemGBean,0.0,0.0003081475247452898,0.0,3.7692191739974746e-05,0.00034583971648526453
DeserializationContext,0.009286549599136766,0.0,0.0017429782279047288,0.0,0.011029527827041495
DeserializerImpl,0.0,0.0,0.0,0.0,0.0
DestinationFactoryImpl,0.0,0.0,0.0,0.0,0.0
DigitList,0.0,0.0005924249963441759,0.0,0.00010383952749236288,0.0006962645238365389
DocumentBuilderImpl,0.0691326666662159,0.0,0.007590000001073348,0.0,0.07672266666728925
Driver40,0.0,0.0004082295451391575,0.0,4.405005272510139e-05,0.0004522795978642589
DynamicGBeanDelegate,0.0,0.0,0.0,0.0,0.0
EPollArrayWrapper,0.0021206817410587262,0.0016424894737275804,0.0003905162313186017,0.0003024473684490658,0.004456134814553974
EPollSelectorImpl,0.011651193850064783,0.0,0.002100640481085893,0.0,0.013751834331150676
EjbDaemon,0.0,0.0,0.0,0.0,0.0
EjbResolver,0.00011491350267682397,0.0,2.3197869160140475e-05,0.0,0.00013811137183696444
EnterpriseNamingContext,0.0,0.0,0.0,0.0,0.0
EphemeralKeyManager,0.0,0.0,0.0,0.0,0.0
ExpressionVisitor,0.0,0.0,0.0,0.0,0.0
FeatureDescriptor,0.0,0.03656092384823659,0.0,0.00014909100206243918,0.036710014850299025
FileDispatcherImpl,0.006032702702696037,0.006426685277847706,0.0008844314436066418,0.0008005860600399079,0.014144405484190293
FileInputStream,0.033870286364573815,0.00022299346402576621,0.00391985285530525,2.6666666658783904e-05,0.03803979935056362
FileOutputStream,0.0,1.4393552801127572,0.0,0.2408078049047541,1.6801630850175113
FromBaseTable,0.0,0.0,0.0,0.0,0.0
FutureResponse,0.0,0.0,0.0,0.0,0.0
GBeanInstance,0.0,0.0,0.0,0.0,0.0
GenericLanguageConnectionFactory,0.0,0.0,0.0,0.0,0.0
GenericResultSetFactory,0.0,0.00013620398775147674,0.0,1.564417177451663e-05,0.00015184815952599338
GregorianCalendar,0.0,0.012651036269395793,0.0,0.002094559585490117,0.01474559585488591
HashMap,0.00819135910149052,0.0,0.0015650191832197295,0.0,0.00975637828471025
HashMap$EntrySet,0.0,0.0,0.0,0.0,0.0
HashMap$HashIterator,0.0009511321150819359,0.0,0.00012417980897166177,0.0,0.0010753119240535978
Hashtable,0.0,0.0,0.0,0.0,0.0
Hashtable$Enumerator,0.0025584141139146244,0.0,0.0002866344829231523,0.0,0.002845048596837777
HttpConnection,0.007239629752066395,0.0002976798245901846,0.001230396694196571,3.565789474554262e-05,0.008803364165598694
HttpGenerator,0.0,0.0,0.0,0.0,0.0
HttpParser,0.0016097502335471552,0.0,0.00030567347247557,0.0,0.0019154237060227252
HttpURLConnection$3,0.06524659999995493,0.0,0.0064800000007380724,0.0,0.071726600000693
IOUtil,0.0,0.0,0.0,0.0,0.0
ImmutableContext$NestedImmutableContext,0.0,0.0,0.0,0.0,0.0
IndexCursor,0.0,0.0,0.0,0.0,0.0
IndexRowToBaseRowResultSet,0.0,0.005011929190830676,0.0,0.0005997373678378273,0.005611666558668503
Inflater,0.04142292317163642,1.7366754205419936,0.004125038978517161,0.2877143930809908,2.069937775773138
InflaterInputStream,0.006515556571795358,0.0,0.000950732418105327,0.0,0.0074662889899006855
Integer,0.0008412109503218591,0.0,0.00013014197626443644,0.0,0.0009713529265862955
InternalDriver,0.0,0.0,0.0,0.0,0.0
Introspector,0.0,0.03126685552816602,0.0,0.0,0.03126685552816602
JAXBContextImpl,0.05482992307672528,0.0,0.005279999997956344,0.0,0.060109923074681625
JavaServiceDesc,0.0,0.0,0.0,0.0,0.0
JavaUtils,0.0,0.0,0.0,0.0,0.0
JaxbOpenejb,0.0007171757608303786,0.0,2.9588048866541193e-05,0.0,0.0007467638096969199
JdbcResultSet,0.0,0.0,0.0,0.0,0.0
JdbcStatement,0.0,0.0,0.0,0.0,0.0
JdbcXAConnection$PooledJdbcConnection,0.0,0.0,0.0,0.0,0.0
JdkXmlUtils,0.08913166666510126,0.0,0.008235000001150183,0.0,0.09736666666625145
JmxMBeanServer,0.05848399999958929,0.0,0.008822999999392778,0.0,0.06730699999898207
KernelGBean,0.07775880000117469,0.0,0.008531999999831895,0.0,0.08629080000100658
Level2OptimizerFactoryImpl,0.0,0.0007023165643463723,0.0,9.121472389862923e-05,0.0007935312882450015
LinkedHashMap,0.02074502918713124,0.0,0.002662494591554833,0.0,0.023407523778686073
LogFile,0.0,0.0,0.0,0.0,0.0
LogToFile,0.0,0.0001798301019328542,0.0,2.2218933654603825e-05,0.00020204903558745805
Logger,0.0,0.0,0.0,0.0,0.0
MBeanServerBuilder,0.0,0.0,0.0,0.0,0.0
ManagedRegionBroker,0.0,0.0,0.0,0.0,0.0
ManagedXAConnection,0.0,0.0,0.0,0.0,0.0
ManagementFactoryHelper,0.0,0.0029606331415355184,0.0,0.00044558479626697104,0.0034062179378024893
MessageContext,0.0,0.0,0.0,0.0,0.0
MessageElement,0.0014257421154321552,0.0,0.0002301633465169836,0.0,0.0016559054619491387
Method,0.0,0.0,0.0,0.0,0.0
MethodAccessorGenerator,0.0,0.0,0.0,0.0,0.0
MultiParentClassLoader,0.0,0.0,0.0,0.0,0.0
Native,0.009286549599136766,0.0,0.0017429782279047288,0.0,0.011029527827041495
Net,0.0,0.0,0.0,0.0,0.0
NodeImpl,0.0,0.0,0.0,0.0,0.0
Object,0.0,0.0012061664992938405,0.0,0.0001823584726857173,0.0013885249719795577
ObjectArray,0.0009408570901975641,0.0,3.641648500552045e-05,0.0,0.0009772735752030845
ObjectInputStream$BlockDataInputStream,0.0,0.0,0.0,0.0,0.0
ObjectStreamClass,0.13161233333327496,0.0,0.012549999999464491,0.0,0.14416233333273945
ObjectStreamClass$FieldReflector,0.0,0.0,0.0,0.0,0.0
OpenEjbSystemGBean,0.0009238562964336695,0.0,2.3409023666013857e-05,0.0,0.0009472653200996834
OperationDesc,0.009414797286380438,0.0,0.0018455268828426637,0.0,0.011260324169223101
PKCS7,0.0,0.0,0.0,0.0,0.0
Parser,0.0012123667519837495,0.0,0.00017985011228172383,0.0,0.0013922168642654734
ParserImpl,0.0,0.0,0.0,0.0,0.0
Pattern,0.0,0.06457255301093721,0.0,0.009380244928775849,0.07395279793971306
PiccoloLexer,0.0,0.0,0.0,0.0,0.0
PlainSocketImpl,0.011527619947010013,0.0025393157367322584,0.0020501465006196417,0.0003861703795014384,0.01650325256386335
Prepared,0.0,0.0,0.0,0.0,0.0
Properties$LineReader,0.0,0.0,0.0,0.0,0.0
PropertyDescriptor,0.0,0.0,0.0,0.0,0.0
PropertyEditors,9.31005806023873e-05,0.0,1.4817646502653448e-05,0.0,0.00010791822710504074
PropertyState,0.0,0.0,0.0,0.0,0.0
QuoteDataBean,0.0,0.0,0.0,0.0,0.0
RBTableBuilder,0.0,0.0,0.0,0.0,0.0
RMIConnector,0.03687687683492004,0.0,0.003489449610683221,0.0,0.04036632644560326
RPCParam,0.0,0.0,0.0,0.0,0.0
ReentrantReadWriteLock,0.027034594554883964,0.0,0.002706710561535463,0.0,0.029741305116419425
Reflection,0.0,0.0,0.0,0.0,0.0
RegularExpression,0.01288902316745293,0.0,0.0015122798719232199,0.0,0.014401303039376149
Repository,0.0,0.0,0.0,0.0,0.0
Resource,0.03237394611011609,0.0,0.0037882071310441725,0.0,0.03616215324116026
Row,0.0,0.0,0.0,0.0,0.0
RuntimeClassInfoImpl,0.0,0.0,0.0,0.0,0.0
SAX2EventRecorder,0.010453833882483131,0.02037322874021847,0.001942059666478448,0.0031719786612087685,0.03594110095038881
SAX2EventRecorder$objArrayVector,0.0,0.009721609828250904,0.0,0.0014733761020637823,0.011194985930314687
SAXOutputter,0.0,0.0,0.0,0.0,0.0
SAXParser,0.0,0.0,0.0,0.0,0.0
SAXParserImpl,0.0008983140713357338,0.0,9.857326992423814e-06,0.0,0.0009081713983281576
SAXParserImpl$JAXPSAXParser,0.0,0.0011799920990937032,0.0,0.00017116520793346188,0.0013511573070271652
SHA,0.002770013597960988,0.0,0.00030874977407902796,0.0,0.003078763372040016
SOAPBody,0.0,0.0,0.0,0.0,0.0
SOAPPart,0.0,0.0,0.0,0.0,0.0
SQLChar,0.0,0.0,0.0,0.0,0.0
SSLEngineImpl,0.0022034129626496745,0.0,0.00032144287485505186,0.0,0.0025248558375047265
SYSCOLUMNSRowFactory,0.0,0.0,0.0,0.0,0.0
SecuritySupport$4,0.0,0.0,0.0,0.0,0.0
Select,0.0,0.0,0.0,0.0,0.0
SelectorManager$SelectSet,0.0,0.011125321782108785,0.0,0.0017633168316762641,0.012888638613785048
SerializationContext,0.0006591828571150213,0.01089341768057471,9.171428570490595e-05,0.001622036891661609,0.013266351715056246
ServerProvider,0.0,0.0,0.0,0.0,0.0
ServerSocketChannelImpl,0.0,0.0,0.0,0.0,0.0
ServletHolder,0.0,0.0,0.0,0.0,0.0
SessionUtils,0.0,0.0,0.0,0.0,0.0
SignerInfo,0.0,0.0,0.0,0.0,0.0
SimpleDeserializer,0.0,0.0,0.0,0.0,0.0
SocketAdaptor,0.0,0.0,0.0,0.0,0.0
SocketChannelImpl,0.0004460579530144176,0.0,5.017958972573762e-05,0.0,0.0004962375427401552
SocketInputStream,0.0,0.0,0.0,0.0,0.0
SocketOutputStream,0.0,0.008734782610250848,0.0,0.0012663142044622266,0.010001096814713074
SoftReference,0.0,0.0,0.0,0.0,0.0
SortOrder,0.0001419811453803808,0.0,2.3036788117987868e-05,0.0,0.0001650179334983687
StreamEncoder,0.0,0.0012509313725984207,0.0,0.00020009803921692981,0.0014510294118153504
String,0.10616395438993044,0.0457293857824877,0.013080038560224622,0.0031236288621483534,0.1680970075947911
StringBuffer,0.0,0.0,0.0,0.0,0.0
StringCache,0.0,0.0004811338911921168,0.0,6.000000000643937e-05,0.0005411338911985562
StringMap,0.0,0.0,0.0,0.0,0.0
Stub,0.0,0.0011091086722139838,0.0,0.00015695934150177055,0.0012660680137157544
Subject,0.0010309729751560377,0.0,0.00011718678458266392,0.0,0.0011481597597387016
SynchronousQueue$TransferStack,0.0,0.0,0.0,0.0,0.0
TableData,0.0009481087838841207,0.0,4.376185921266273e-05,0.0,0.0009918706430967835
TestHarness,0.0,0.0,0.0,0.0,0.0
ThreadLocal$ThreadLocalMap,0.0,0.0,0.0,0.0,0.0
Throwable,0.1612854767628755,0.05951017195939652,0.018613995143418587,0.006496152907385602,0.24590579677307622
TimeUnit,0.0,0.0,0.0,0.0,0.0
TimeZone,0.0,0.0,0.0,0.0,0.0
Timeout,0.0,0.00916028502416923,0.0,0.0013728985507173376,0.010533183574886567
TraceObject,0.0,0.0,0.0,0.0,0.0
TraceSystem,0.0,0.0,0.0,0.0,0.0
TradeAction,0.0,0.005208377625546919,0.0,0.0008069415021549602,0.006015319127701879
TransformerFactoryImpl,0.0,0.0,0.0,0.0,0.0
TransletOutputHandlerFactory,0.1296183333324734,0.0,0.015454999998231262,0.0,0.14507333333070468
TreeIndex,0.0,0.0,0.0,0.0,0.0
TypeCompilerFactoryImpl,0.0,0.0005090993864781744,0.0,8.050306749093045e-05,0.0005896024539691049
TypeMappingImpl,0.0,0.0,0.0,0.0,0.0
TypeMappingImpl$Pair,0.0,0.009861602803780845,0.0,0.001548240196564075,0.01140984300034492
URI$Parser,0.0,0.0,0.0,0.0,0.0
URLClassPath,0.0010042864923810026,0.0,0.00014035947716486497,0.0,0.0011446459695458675
URLClassPath$JarLoader,0.0,0.0,0.0,0.0,0.0
URLStreamHandler,0.07940679999883288,0.0,0.011345999999321066,0.0,0.09075279999815394
UTF_8$Encoder,0.0001236098862874331,0.0,1.807743333893266e-05,0.0,0.00014168731962636575
UnixFileSystem,0.0,0.101658401792473,0.0,0.014653025665441839,0.11631142745791484
UnixSecureDirectoryStream,0.006565967279701279,0.0,0.0009072563523937339,0.0,0.007473223632095013
Unsafe,0.0520672956131998,0.0010092877204418275,0.005735033232148715,0.00015070938402815306,0.058962325949818505
Utf8Info,0.043505800000275485,0.0,0.004701000000932253,0.0,0.048206800001207736
Value,0.0,0.001660906578885674,0.0,0.00023826982141613858,0.0018991764003018126
Vector,0.0,0.0,0.0,0.0,0.0
View,0.0,0.0,0.0,0.0,0.0
VirtualTopic,0.0,0.0,0.0,0.0,0.0
XML11Configuration,0.1294963333348278,0.008792785793677118,0.014520000001842465,0.0013394095026905961,0.154148528633038
XMLAttributesImpl,0.0,0.011964032710238824,0.0,0.0017653037382876738,0.013729336448526497
XMLDocumentScannerImpl$TrailingMiscDriver,0.0,0.0017309262672619474,0.0,0.0003136175115027332,0.0020445437787646806
XMLEntityManager,0.0,0.0,0.0,0.0,0.0
XMLEntityManager$RewindableInputStream,0.0,0.0,0.0,0.0,0.0
XMLEntityScanner,0.007239629752066395,0.0020479152198339115,0.001230396694196571,0.00031301757811019325,0.010830959244207072
XMLNSDocumentScannerImpl,0.0,0.0,0.0,0.0,0.0
XMLUtils,0.0,0.00916028502416923,0.0,0.0013728985507173376,0.010533183574886567
XMLVersionDetector,0.0,0.0,0.0,0.0,0.0
ZipFile,0.12817941224174836,0.09838422120972103,0.015466745011516916,0.016348148447174242,0.25837852691016056
ZoneInfo,0.0,0.0,0.0,0.0,0.0
ZoneInfoFile,0.0,0.0,0.0,0.0,0.0
