method,hits
AbstractConnector$Acceptor.run,2
AbstractNameQuery.matches,1
AbstractQueuedSynchronizer.releaseShared,1
AbstractRepository.contains,1
AbstractSelectableChannel.register,1
AbstractStringBuilder.<init>,2
AccessController.doPrivileged,7
AdvisoryBroker.addDestination,1
AdvisoryBroker.fireAdvisory,1
AnnotationDeployer.<init>,1
ArrayList.<init>,2
ArrayList.ensureCapacityInternal,1
ArrayList.rangeCheck,1
Arrays.copyOf,5
Arrays.copyOfRange,1
AttributeInfo.<init>,1
AttributeInfo.remove,1
BackgroundCleaner.<init>,1
BaseCalendar.getCalendarDateFromFixedDate,1
BaseDataFileFactoryJ4.newRAFContainer,1
BaseIndex.compareRows,5
BaseLocale.hashCode,1
BeanDeserializerFactory.getGeneralPurpose,1
Benchmark.fileFromInputStream,1
BigDecimal.<init>,1
BigInteger.multiplyToLen,1
BigInteger.smallToString,1
BitSet.wordIndex,1
BufferUtil.isPrefix,1
BufferedInputStream.<init>,3
BufferedInputStream.fill,1
BufferedInputStream.read,4
BufferedReader.readLine,1
BufferedWriter.write,1
ByteArrayInputStream.read,1
ByteArrayOutputStream.needNewBuffer,1
ByteArrayOutputStream.write,2
Calendar.<init>,1
Calendar.getTimeInMillis,1
Calendar.set,1
CalendarDeserializer.makeValue,2
CalendarSystem.<clinit>,1
CharArrayWriter.write,1
Character.getType,1
Character.toUpperCase,1
CharacterData.of,2
CharacterDataLatin1.toLowerCase,1
CharacterDataLatin1.toUpperCaseEx,1
Class.forName0,19
Class.getDeclaredConstructors0,5
Class.getDeclaredFields0,2
Class.getDeclaredMethods0,2
Class.isArray,1
Class.isAssignableFrom,1
ClassHolder.<init>,1
ClassLoader.defineClass1,30
ClassLoader.findBootstrapClass,8
ClassLoader.findLoadedClass0,7
ClassLoader.loadClass,1
ClassNameReader.<clinit>,1
ClassPool.compress,3
ClassRepository.parse,1
Collator.getDecomposition,1
Collator.getStrength,1
Collections$SynchronizedCollection.size,1
Collections$SynchronizedMap.get,1
Column.validateConvertUpdateSequence,1
Command.executeQueryLocal,8
Command.executeUpdate,16
CommandContainer.<init>,1
CommandContainer.query,4
Comparison.createIndexConditions,1
ConcurrentHashMap.putVal,1
ConcurrentHashMap.tabAt,2
ConcurrentHashMap.transfer,1
ConfigFile.<init>,1
ConfigurationResolver.resolveDependency,1
ConnectionTrackingCoordinator.handleObtained,1
ConnectionTrackingCoordinator.handleReleased,1
ConnectionTrackingInterceptor.getConnection,1
ConstInfo.<init>,1
ConstPool.readOne,1
Constants.isSchemaXSD,1
Constructor.newInstance,1
ContainerKey.match,1
CoreDeploymentInfo.setMethodTransactionAttribute,1
CoreDocumentImpl.<init>,1
CtBehavior.insertBefore,1
CursorNode.genTargetResultColList,1
DOMParser.<init>,1
DataInputStream.<init>,1
DataInputStream.readUTF,1
DataInputStream.readUnsignedShort,4
DataOutputStream.writeInt,1
DataSource$HandleFactory.newHandle,1
Database.getTrace,1
Database.open,1
DateFormat.parse,1
DbObjectBase.getSQL,3
DbObjectBase.initDbObjectBase,1
DerInputStream.readVector,1
DeserializationContext.getCurrentRecordPos,1
DeserializationContext.getStartOfMappingsPos,1
DeserializationContext.startElement,1
DirectByteBuffer.ix,1
DocumentBuilderImpl.<init>,1
DocumentBuilderImpl.newDocument,1
Driver40.newEmbedDatabaseMetaData,3
EPollArrayWrapper.epollWait,2
EPollArrayWrapper.interrupt,2
EPollSelectorImpl.doSelect,2
EjbHomeProxyHandler$1.<clinit>,1
EmitUtils.member_helper_size,1
Engine.openSession,1
EnvelopeBuilder.<init>,1
EventObject.<init>,1
Executable.declaredAnnotations,1
ExpressionColumn.getAlias,1
ExpressionColumn.mapColumns,1
ExpressionVisitor.get,1
FastCharsetProvider.charsetForName,1
FeaturePropertyBase.<init>,1
FileDispatcherImpl.read0,1
FileDispatcherImpl.writev0,1
FileInputStream.read0,2
FileInputStream.readBytes,1
FileOutputStream.open0,2
FileOutputStream.writeBytes,36
Function.invoke,1
GBeanInfoBuilder.addInterface,1
GBeanInfoBuilder.addOperation,1
GeneralName.<init>,1
GenericAuthorizer.authorize,1
GenericResultDescription.readExternal,1
GenericResultSetFactory.getBulkTableScanResultSet,1
GroupByNode.init,1
HTTPSender.invoke,1
HTTPSender.readHeadersFromSocket,1
HashMap$HashIterator.nextNode,1
HashMap$KeyIterator.next,1
HashMap$Node.<init>,2
HashMap.<init>,1
HashMap.getNode,4
HashMap.putVal,3
HashMap.resize,1
Hashtable$Enumerator.next,1
Hashtable$Enumerator.nextElement,2
Hashtable.addEntry,1
HeapConglomerateFactory.readConglomerate,1
Hierarchy.<init>,1
HttpParser.parseAvailable,1
HttpParser.parseNext,1
HttpStatus.<clinit>,1
IOUtil.read,1
IOUtils.readFully,1
Inflater.inflateBytes,88
InflaterInputStream.<init>,1
Integer.valueOf,1
Introspector.processPropertyDescriptors,1
Item.isEqualTo,1
JAFDataHandlerDeserializer.class$,1
JarFile$JarEntryIterator.nextElement,1
JarFile.maybeInstantiateVerifier,1
JarFileFactory.close,1
JdbcConnection.createStatement,1
JdbcStatement.checkClosed,1
JdbcStatement.executeQuery,1
JdbcXAConnection$PooledJdbcConnection.checkClosed,2
JdkXmlUtils.getSAXFactory,1
JspServlet.<init>,1
KeyFactory.nextSpi,1
Level2OptimizerFactoryImpl.getOptimizerImpl,1
LinkedList.add,1
LinkedList.listIterator,1
LocalAttributeManager.applyOverrides,1
LocalizedResource.<clinit>,1
Location.writeToPacket,1
LockableHashtable.put,1
LogFile.open,1
LogManager.<clinit>,1
Logger.getInstance,1
MBeanFeatureInfo.<init>,1
ManagementFactoryHelper.getCompilationMXBean,1
Manifest.read,1
Math.ceil,1
MemberCodeGen.atMethodCallCore2,1
Message.setup,1
MessageContext.setResponseMessage,1
MessageElement.output,1
MetaTable.createColumns,1
MethodCache$MethodKey.<init>,1
MultiParentClassLoader.checkParents,1
MultiParentClassLoader.loadClass,1
MultiParentClassLoader.loadClassInternal,1
MultiVersionIndex.commit,1
MultiVersionIndex.find,1
NSStack.getPrefix,1
NamespaceContextImpl.<init>,1
Native.invokeInt,1
Net.localInetAddress,1
Normalizer.normalize,1
NormalizerBase.<init>,1
NormalizerBase.clearBuffer,1
NormalizerBase.next,1
Object.<init>,1
Object.hashCode,1
ObjectStreamClass$2.run,1
OpenEjbSystemGBean.<init>,1
OpenWireFormat.marshal,1
OptimizerFactoryImpl.getOptimizer,1
OptimizerImpl.<init>,1
OrderDataBean.pcSetprice,1
PKCS7.parseSignedData,1
ParseUtil.encodePath,2
Parser.addExpected,1
Parser.getKeywordOrIdentifier,1
Parser.initialize,2
Parser.parse,1
Parser.prepareCommand,1
Parser.readIf,1
Parser.readTableOrView,1
ParserImpl.getParser,1
Pattern.expr,1
PerfCounter.get,1
Piccolo.<init>,1
PlainSocketImpl.socketAvailable,1
PlainSocketImpl.socketClose0,5
PlainSocketImpl.socketConnect,2
Plan.<init>,1
PlatformLogger.<clinit>,1
PrintWriter.write,1
Properties$LineReader.readLine,1
PropertyConfigurator.parseCatsAndRenderers,1
Provider.parseLegacyPut,1
RAMAccessManager.getAndNameTransaction,1
RAMTransaction.createBackingStoreHashtableFromScan,1
RPCElement.updateOperationsByName,1
RPCHandler.onStartChild,2
RSAKeyFactory.generatePrivate,1
RandomAccessFile.read,1
ReaderConfig.createRecycler,1
Reflection.getCallerClass,2
RemoveInfoMarshaller.tightMarshal1,1
ResourceBundle$Control.newBundle,1
ResourceClassDiscoverImpl.findResourceClasses,1
ResultSetHandle.getString,1
Row.setValue,1
RuntimeBuiltinLeafInfoImpl.<clinit>,1
RuntimeModelBuilder.createTypeInfoSet,1
SAX2EventRecorder$objArrayVector.add,1
SAX2EventRecorder.clone,1
SAX2EventRecorder.replay,2
SAX2EventRecorder.startElement,1
SAXOutputter.<init>,1
SAXOutputter.endDocument,1
SAXParser.setProperty,1
SAXParserImpl.<init>,2
SAXParserImpl.setProperty,1
SOAPHandler.characters,1
SOAPHandler.startElement,1
SOAPPart.getAsSOAPEnvelope,1
SOAPPart.isFormOptimizationAllowed,1
SOAPService.getUse,1
SQLParser.exactNumericType,1
SSLEngineImpl.init,1
SSLSessionImpl.<init>,1
ScanIndex.remove,1
Select.expandColumnList,2
Select.init,1
Select.prepare,2
Select.queryFlat,1
SerializationContext.endElement,1
SerializationContext.getActualJavaClass,1
SerializationContext.registerPrefixForURI,1
SerializationContext.serialize,1
SerializationContext.startElement,5
SerializationContext.writeSafeString,1
ServerSocketChannelImpl.accept0,1
ServiceProvider.getProperties,1
ServletHandler.handle,2
Session.commit,1
SessionUtils.generateSessionId,1
SharedSecrets.getJavaLangAccess,1
SimpleCharStream.backup,1
SimpleDeserializer.<init>,1
SimpleDeserializer.makeValue,1
SimpleDeserializer.onEndElement,1
SinglePoolConnectionInterceptor.internalGetConnection,1
SocketInputStream.socketRead0,1
SocketOutputStream.socketWrite0,1
SocksSocketImpl.connect,1
Stack.push,1
Statements.getCreateSchemaStatements,1
StoredPage.readPageHeader,1
String.charAt,1
String.equals,1
String.indexOf,1
String.intern,11
String.lastIndexOf,1
String.length,2
String.regionMatches,1
String.startsWith,2
String.substring,1
String.toUpperCase,1
StringBuffer.append,4
StringBuffer.toString,1
StringCoding$StringDecoder.decode,1
Subquery.getValue,1
SuperProperties.load,1
SymbolTable.addSymbol,1
SynchronousQueue$TransferStack.awaitFulfill,2
System.getProperty,1
TableData.addIndex,1
TableFilter.<init>,1
TestHarness.main,1
Thread.isInterrupted,1
Thread.run,2
Thread.start0,1
ThreadPool.execute,1
Throwable.fillInStackTrace,30
TradeDirect.commit,2
TradeWebSoapProxy.convertOrderDataBean,1
TransactionCommand.update,1
TransformerFactoryImpl.newTransformerHandler,1
TreeIndex.findFirstNode,1
TypeMappingImpl$Pair.<init>,1
TypeMappingImpl.getClassForQName,1
URI.checkPath,1
URL.openStream,1
URLClassPath$JarLoader.getJarFile,1
URLClassPath$JarLoader.getResource,1
URLClassPath.getLoader,1
URLClassPath.getNextLoader,1
UTF8.utf8Length,1
UTF8Reader.close,1
UTF_8$Encoder.encode,3
UTF_8$Encoder.encodeArrayLoop,1
UnixDirectoryStream$UnixDirectoryIterator.<init>,1
UnixFileSystem.createDirectory,2
UnixFileSystem.getBooleanAttributes0,4
Unsafe.defineClass,6
Unsafe.park,1
Unsafe.unpark,1
Value.convertTo,1
ValueInt.compareSecure,1
Vector.<init>,1
Vector.elements,1
Vector.ensureCapacityHelper,1
Vector.get,2
WstxInputFactory.<init>,1
WstxInputFactory.doCreateSR,1
XML11Configuration.<init>,1
XML11Configuration.reset,1
XMLDocumentFragmentScannerImpl$FragmentContentDriver.next,1
XMLDocumentFragmentScannerImpl.<init>,1
XMLDocumentFragmentScannerImpl.scanEndElement,2
XMLDocumentScannerImpl$TrailingMiscDriver.next,1
XMLEntityManager.<init>,1
XMLEntityScanner.invokeListeners,1
XMLEntityScanner.scanContent,1
XMLEntityScanner.skipChar,1
XMLEntityScanner.skipSpaces,1
XMLNSDocumentScannerImpl.scanStartElement,3
XMLScanner.scanXMLDeclOrTextDecl,1
XMLSecurityManager.isOverLimit,3
XMLSecurityPropertyManager.getIndex,1
XMLUtils.releaseSAXParser,1
XMLWriter.characters,1
ZStreamRef.address,1
ZipCoder.getBytes,1
ZipFile.getEntry,14
ZipFile.read,8
ZipInputStream.read,1
