method,package1,package2,dram1,dram2,energy
AbstractDOMParser.startDocument|XMLDTDValidator.startDocument|XMLDocumentScannerImpl.startEntity,0.04386400000006081,0.0,0.005420000001322478,0.0,0.04928400000138329
ArrayUtil.toAdjustedArray|TableBase.addIndex|TableBase.createPrimaryIndex,0.07179939393939673,0.0,0.009954545453321329,0.0,0.08175393939271806
BenchmarkState.getState|ThreadBench.runRateLimitedMultiPhase|ThreadBench.runRateLimitedBenchmark,0.1177298109589969,0.0,0.016711362377193388,0.0,0.1344411733361903
ByteVectorFactory.create|MethodAccessorGenerator.generate|MethodAccessorGenerator.generateConstructor,0.0,0.0,0.0,0.0,0.0
CalendarDataUtility$CalendarWeekParameterGetter.<init>|CalendarDataUtility$CalendarWeekParameterGetter.<clinit>|CalendarDataUtility.retrieveFirstDayOfWeek,0.0,0.023160418375522084,0.0,0.003879319859830429,0.027039738235352512
Category.forcedLog|Category.info|DBWorkload.main,0.07032900000012887,0.0,0.01123363636460536,0.0,0.08156263636473424
CharacterType.compare|IndexAVL.compareRowForInsertOrDelete|IndexAVL.insert,0.05947262222210459,0.0,0.010266666665362814,0.0,0.0697392888874674
CharsetMapping.<clinit>|ConnectionImpl.<init>|JDBC4Connection.<init>,0.06884766666659439,0.0,0.01096499999888086,0.0,0.07981266666547525
ConnectionImpl.getMetaData|ConnectionImpl.<init>|JDBC4Connection.<init>,0.04037475000006907,0.0,0.006165000000692089,0.0,0.04653975000076116
CtClassType.getInterfaces|ThreadCoreMapInjector.isRunnable|ThreadCoreMapInjector.transform,0.10969329411779527,0.0,0.014658823528603248,0.0,0.12435211764639852
DBWorkload.main|NativeMethodAccessorImpl.invoke0|NativeMethodAccessorImpl.invoke,0.04044854166674365,0.0,0.006862500000958486,0.0,0.047311041667702135
GranteeManager.<clinit>|Database.reopen|Database.open,0.07985433333336307,0.0,0.009634999999737676,0.0,0.08948933333310075
IndexAVL.next|IndexAVL$IndexRowIterator.getNextRow|RowStoreAVL.insertIndexNodes,0.06856266666666973,0.0,0.009589999999055484,0.0,0.0781526666657252
JDBCConnection.getMetaData|Catalog.init|Catalog.<init>,0.06488439999997757,0.0,0.010266666667626446,0.0,0.07515106666760402
JDBCStatementBase.performPostExecute|JDBCStatement.fetchResult|JDBCStatement.executeQuery,0.17801933333339548,0.0,0.027310000000094682,0.0,0.20532933333349015
JRELocaleProviderAdapter.getCurrencyNameProvider|JRELocaleProviderAdapter.getLocaleServiceProvider|LocaleServiceProviderPool.<init>,0.0728735416667329,0.0,0.011150000000270666,0.0,0.08402354166700357
JXPathContextReferenceImpl.compileExpression|JXPathContextReferenceImpl.iteratePointers|JXPathContext.selectNodes,0.039101454545454384,0.0,0.0067581818161257115,0.0,0.045859636361580094
Label.add|ClassFileAssembler.opc_if_icmpeq|MethodAccessorGenerator.emitInvoke,0.0,0.0,0.0,0.0,0.0
Logger.<init>|Driver.<clinit>|NativeConstructorAccessorImpl.newInstance0,0.06028345098048685,0.0,0.007922352942770492,0.0,0.06820580392325734
MysqlIO.getResultSet|MysqlIO.readResultsForQueryOrUpdate|MysqlIO.readAllResults,0.0,0.0,0.0,0.0,0.0
MysqlIO.reuseAndReadPacket|MysqlIO.checkErrorPacket|MysqlIO.sendCommand,0.0,0.0,0.0,0.0,0.0
NonRegisteringDriver.connect|DriverManager.getConnection|DriverManager.getConnection,0.2699589999992895,0.0,0.04671999999845865,0.0,0.3166789999977482
ParserDQL.readColumnOrFunctionExpression|ParserDQL.XreadSimpleValueExpressionPrimary|ParserDQL.XreadAllTypesValueExpressionPrimary,0.07824699999991935,0.0,0.010979999999108259,0.0,0.08922699999902761
PatternParser.finalizeConverter|PatternParser.parse|PatternLayout.setConversionPattern,0.0,0.05358873352519603,0.0,0.01050167770526218,0.06409041123045821
PreparedStatement.executeQuery|Balance.run|SmallBankWorker.executeWork,0.0,0.0,0.0,0.0,0.0
ResultSetRow.getString|ByteArrayRow.getString|ResultSetImpl.getStringInternal,0.0,0.0,0.0,0.0,0.0
Session.execute|JDBCStatement.fetchResult|JDBCStatement.execute,0.032186000000122776,0.0,0.005133333332681407,0.0,0.03731933333280418
SingleByteCharsetConverter.<clinit>|ConnectionImpl.getCharsetConverter|StringUtils.getBytes,0.7142714074074554,0.0,0.09303444444608261,0.0,0.8073058518535381
StringUtil.<clinit>|DBWorkload.<clinit>|NativeMethodAccessorImpl.invoke0,0.0,0.04256895770528385,0.0,0.003340811720861086,0.045909769426144935
StringUtils.<clinit>|NonRegisteringDriver.connect|DriverManager.getConnection,0.03896099999989625,0.0,0.006880000000819564,0.0,0.045841000000715816
ThreadBench.runRateLimitedMultiPhase|ThreadBench.runRateLimitedBenchmark|DBWorkload.runWorkload,0.05368100198045934,0.0,0.007699611384539075,0.0,0.061380613364998414
Tokens.<clinit>|Scanner.scanToken|Scanner.scanNext,0.19494600000007267,0.0,0.028780000000551805,0.0,0.22372600000062448
Worker.<init>|SmallBankWorker.<init>|SmallBankBenchmark.makeWorkersImpl,0.10542800000015023,0.0,0.015019999998912681,0.0,0.12044799999906292
WorkloadState.addToQueue|ThreadBench.runRateLimitedMultiPhase|ThreadBench.runRateLimitedBenchmark,0.06665467704342146,0.0,0.009000409662039658,0.0,0.07565508670546112
XMLEntityManager.<init>|XML11Configuration.<init>|XIncludeAwareParserConfiguration.<init>,0.06070966666675304,0.0,0.009659999998499794,0.0,0.07036966666525284
XPathParser.jj_3R_86|XPathParser.jj_3R_18|XPathParser.jj_3R_105,0.039101454545454384,0.0,0.0067581818161257115,0.0,0.045859636361580094
