method,package1,package2,dram1,dram2,energy
com.mysql.jdbc,0.0,1.3281865583814716,0.0,0.20729879312293534,1.535485351504407
com.mysql.jdbc.util,0.0,0.0,0.0,0.0,0.0
com.oltpbenchmark,0.0,0.08089316860292214,0.0,0.011152789265784151,0.0920459578687063
com.oltpbenchmark.api,0.0,0.0,0.0,0.0,0.0
com.oltpbenchmark.benchmarks.smallbank,0.0,0.07664155296441852,0.0,0.01140867690660593,0.08805022987102445
com.sun.org.apache.xerces.internal.dom,0.0,0.06389712225426475,0.0,0.010640895374259305,0.07453801762852405
com.sun.org.apache.xerces.internal.impl,0.0,0.11883964890453533,0.0,0.020943032069749425,0.13978268097428476
com.sun.org.apache.xerces.internal.parsers,0.0,0.1408458171062051,0.0,0.02255379829653952,0.16339961540274464
javassist.bytecode,0.0,0.10258153854409022,0.0,0.015878965886028565,0.11846050443011878
javassist.bytecode.stackmap,0.0,0.061589096076974326,0.0,0.009328008316020634,0.07091710439299496
org.apache.commons.configuration,0.0,0.01786649885924313,0.0,0.0026269121586240435,0.020493411017867173
org.apache.commons.io,0.0,0.07566579912893884,0.0,0.010548268897015343,0.08621406802595419
org.apache.commons.jxpath.ri.compiler,0.0,0.032575821672400765,0.0,0.005227338269319213,0.037803159941719976
org.apache.log4j.spi,0.0,0.041222541892966716,0.0,0.006692307959231099,0.047914849852197815
org.hsqldb,0.0,0.6277681343507199,0.0,0.09044891756936004,0.7182170519200799
org.hsqldb.jdbc,0.0,0.19903601685678776,0.0,0.03199499785725495,0.23103101471404272
org.hsqldb.lib,0.0,0.1262303809951233,0.0,0.018573193929522298,0.1448035749246456
org.hsqldb.rights,0.0,0.043142851727861316,0.0,0.0056041745412665,0.048747026269127816
org.hsqldb.store,0.0,0.0692317819868816,0.0,0.0117073368821283,0.0809391188690099
sun.misc,0.0,0.04890118506715558,0.0,0.007502846258652169,0.05640403132580775
sun.net.spi,0.0,0.04441156997948555,0.0,0.008254022385908444,0.052665592365394
sun.nio.cs,0.0,0.04552156341475904,0.0,0.007788067952299431,0.05330963136705847
sun.util.calendar,0.0,0.060216242071956874,0.0,0.010395942235428623,0.0706121843073855
