method,hits
AbstractRepository.getReifier,2
Chaperone.retire,2
ClassPool.get,2
ConnectionImpl.clientPrepareStatement,2
ConnectionImpl.coreConnect,2
ConnectionImpl.getCharsetNameForIndex,2
ConstPool.getItem,2
DBWorkload.main,2
DefaultProxySelector.select,2
DocumentBuilderImpl.<init>,2
ElementImpl.getAttributes,2
FloatingDecimal$BinaryToASCIIBuffer.getChars,2
ISO_8859_1$Decoder.decodeArrayLoop,2
JDBCConnection.getMetaData,2
JDBCStatementBase.performPostExecute,4
JRELocaleProviderAdapter.getCurrencyNameProvider,2
MysqlIO.readSingleRowSet,2
MysqlIO.reuseAndReadPacket,4
MysqlIO.unpackField,2
NonRegisteringDriver.connect,10
PerfCounter.addElapsedTimeFrom,2
Phase.totalWeight,4
PreparedStatement.setDouble,2
ResultSetImpl.checkClosed,2
SingleByteCharsetConverter.<clinit>,32
SmallBankWorker.executeWork,2
SmallBankWorker.generateCustIds,2
StringUtils.fixDecimalExponent,2
Table.getColumn,2
ThreadBench.runRateLimitedMultiPhase,16
Tokens.<clinit>,2
TreeCompiler.function,2
TypeResolver.resolve,2
URLClassPath$JarLoader$2.getCodeSourceURL,2
ValuePool.<clinit>,2
WorkloadState.addToQueue,2
WorkloadState.fetchWork,2
XML11Configuration.<init>,2
XMLEntityManager.setupCurrentEntity,2
ZoneInfo.getTimeZone,2
