method,package1,package2,dram1,dram2,energy
com.mysql.jdbc,1.4011216401101818,0.07941585617846858,0.17875761779162616,0.012149879029502784,1.6714449931097792
com.oltpbenchmark,0.0,0.051132299997698284,0.0,0.006000000000312866,0.05713229999801115
com.oltpbenchmark.api,0.0,0.0,0.0,0.0,0.0
com.oltpbenchmark.benchmarks.smallbank,0.07069023183230579,0.0,0.01065698980934014,0.0,0.08134722164164593
com.oltpbenchmark.benchmarks.smallbank.procedures,0.0,0.0,0.0,0.0,0.0
com.oltpbenchmark.catalog,0.05383039402579352,0.0,0.006058795799452886,0.0,0.0598891898252464
com.sun.org.apache.xerces.internal.impl,0.05817501425272839,0.0,0.008071780828613893,0.0,0.06624679508134229
com.sun.org.apache.xerces.internal.jaxp,0.06746747081114329,0.0,0.010592099175285924,0.0,0.07805956998642921
com.sun.org.apache.xerces.internal.parsers,0.13857274441456685,0.0,0.019096336775705866,0.0,0.15766908119027273
com.sun.org.apache.xerces.internal.util,0.03400095134591088,0.0,0.005211873121128596,0.0,0.03921282446703948
com.sun.org.apache.xerces.internal.utils,0.03400095134591088,0.0,0.005211873121128596,0.0,0.03921282446703948
javassist,0.04480504622579037,0.0,0.0076270981147180126,0.0,0.05243214434050838
javassist.bytecode,0.14144166653810666,0.0,0.021364879622616344,0.0,0.16280654616072301
org.apache.commons.jxpath.ri,0.12036249646238348,0.0,0.01686416923923351,0.0,0.13722666570161698
org.apache.commons.jxpath.ri.parser,0.0590450863092533,0.0,0.008666956231265247,0.0,0.06771204254051855
org.apache.log4j,0.041098919417812484,0.0,0.007946926189978646,0.0,0.04904584560779113
org.hsqldb,0.18235349560684583,0.0,0.027857577739299515,0.0,0.21021107334614533
org.hsqldb.jdbc,0.1690557273835764,0.0,0.027167239091720002,0.0,0.1962229664752964
org.hsqldb.resources,0.06307066293186811,0.0,0.008769267791522841,0.0,0.07183993072339095
sun.misc,0.00584961654202264,0.0,0.0008606963254933043,0.0,0.006710312867515944
sun.net.www.protocol.jar,0.06586525228291239,0.0,0.010553208144342352,0.0,0.07641846042725474
sun.nio.cs,0.052457998829576136,0.0,0.008962955577683588,0.0,0.061420954407259726
sun.reflect,0.12770747325191262,0.0,0.019575876639609788,0.0,0.14728334989152242
sun.util.resources,0.0932285297904046,0.0,0.016142159876129214,0.0,0.10937068966653381
