method,hits
AbstractQueuedSynchronizer.compareAndSetState,2
ArrayList.iterator,4
AtomicLong.get,2
BigDecimal.<clinit>,2
BufferedInputStream.getBufIfOpen,2
BufferedInputStream.read,8
Class.forName0,2
ClassLoader.defineClass1,12
ClassLoader.initSystemClassLoader,2
ConcurrentHashMap.transfer,2
DataInputStream.readUTF,6
DecimalFormatSymbols.initialize,2
Formatter$FormatSpecifier.<init>,2
Formatter$FormatSpecifier.localizedMagnitude,2
Formatter$FormatSpecifier.print,2
HashSet.clear,2
Inflater.inflateBytes,6
InflaterInputStream.<init>,2
LinkedHashMap.get,2
Long.toString,2
Object.<init>,2
Properties$LineReader.readLine,2
Random.nextInt,4
SocketInputStream.socketRead0,2
SocketOutputStream.socketWrite,2
SocketOutputStream.socketWrite0,2
String.contains,4
System.nanoTime,4
Thread.sleep,26
Throwable.fillInStackTrace,6
ZipFile.getEntry,2
