method,package1,package2,dram1,dram2,energy
AbstractCalendar,0.46868722862266166,0.0,0.0519525040157736,0.0,0.5206397326384352
AlgorithmDecomposer,0.04967148148204648,0.0,0.007917777777711979,0.0,0.05758925925975846
AttributeInfo,0.022851733332693892,0.0,0.0026559999998426067,0.0,0.0255077333325365
BaseCalendar,0.3509027370690557,0.0,0.0376205541561537,0.0,0.38852329122520946
BaseCalendar$Date,0.1314391047264239,0.0,0.01526889461329873,0.0,0.14670799933972262
BaseIndex,5.153890794304423,0.18319716429780653,0.6692482462169485,0.03465053571446463,6.040986740533643
Benchmark,0.7729468592599409,0.0,0.11169088888930641,0.0,0.8846377481492473
CacheObject,0.20905176827219138,0.04745725926181034,0.027737141308797668,0.007864999999920083,0.2921111688427195
CalendarDate,0.25343070467964746,0.0,0.030257004676695107,0.0,0.2836877093563426
Column,0.9943267902136539,0.04745725926181034,0.13366334746888411,0.007864999999920083,1.1833123969442685
Command,0.5501070190644575,0.3156654166559747,0.0684290867920643,0.05335484374964494,0.9875563662621414
CompareMode,0.2047458508245399,0.0,0.03133695088369239,0.0,0.2360828017082323
Comparison,1.6353860067827495,0.0,0.2515973406304191,0.0,1.8869833474131685
ConditionAndOr,0.34981175435490064,0.0,0.04464297299507566,0.0,0.3944547273499763
ConfigFile,0.022851733332693892,0.0,0.0026559999998426067,0.0,0.0255077333325365
ConfigFileTokenManager,0.06160480000059276,0.0,0.007183999999930772,0.0,0.06878880000052354
ConstPool,0.0,0.040676647598955305,0.0,0.003925191273632372,0.044601838872587674
ConstraintReferential,0.0,0.0,0.0,0.0,0.0
ConstraintUnique,0.0,0.0,0.0,0.0,0.0
DacapoClassLoader,0.1257477067347385,0.0,0.01457604040467479,0.0,0.14032374713941329
Database,0.1445519999991423,0.0,0.011000000000422002,0.0,0.15555199999956432
Delete,0.06798940394890676,0.0,0.010908624933789,0.0,0.07889802888269576
DisabledAlgorithmConstraints,0.08256381818170086,0.0,0.011361818181864113,0.0,0.09392563636356498
Driver,0.0059925454545670855,0.0,0.0007418181815988977,0.0,0.006734363636165983
Expression,0.05132730029707252,0.0,0.007938309216338991,0.0,0.05926560951341151
ExpressionColumn,0.7199569657212804,0.08335899999898781,0.10437641592348716,0.013082499999654829,0.9207748816434101
ExpressionVisitor,0.07893866666684819,0.0,0.010480000000219055,0.0,0.08941866666706724
FloatingDecimal,0.0,0.0,0.0,0.0,0.0
Function,0.09132666666725224,0.0,0.008861111110928944,0.0,0.10018777777818119
Gregorian,0.060840611001425626,0.0,0.0045846890359378285,0.0,0.06542530003736345
Gregorian$Date,0.09126981015468957,0.0,0.008642972348447294,0.0,0.09991278250313687
HashBase,0.0,0.0,0.0,0.0,0.0
IOUtils,0.05349611111106006,0.0,0.005863888888968547,0.0,0.05936000000002861
IndexCursor,0.9822034708394539,0.0,0.1301862801567595,0.0,1.1123897509962135
Insert,0.20181214633368788,0.3973799293107322,0.026047763653220084,0.07048132677505042,0.6957211660726905
JdbcConnection,1.0978632092742888,0.0,0.1335707224159717,0.0,1.2314339316902605
JdbcPreparedStatement,0.07430573149016867,0.13615014390492308,0.009051590743766172,0.023910256963060254,0.24341772310191817
JdbcResultSet,0.24724330914383968,0.0,0.017295351843306654,0.0,0.26453866098714635
JdbcSQLException,0.05303609711461865,0.0,0.007812517249051978,0.0,0.06084861436367063
JdbcStatement,0.465856207548867,0.15083588305584217,0.05755832688549828,0.024776683436525025,0.6990271009267324
Launcher$AppClassLoader,0.06980800000019373,0.0,0.00872400000031727,0.0,0.078532000000511
LocalResult,0.4875481955859366,0.0,0.06687019879031021,0.0,0.5544183943762468
MathUtils,0.22631666666729872,0.0,0.028009999997448177,0.0,0.2543266666647469
MultiVersionCursor,1.7862334376267577,0.6271463333371987,0.24752096427589063,0.09867499999912373,2.759575735238971
MultiVersionIndex,0.17468266666764976,0.0,0.027604999999918313,0.0,0.20228766666756806
OERandom,1.2748085600269656,0.16737929599107773,0.16722927176130153,0.03015766618953848,1.6395747939688834
ObjectArray,1.5408898411895238,0.033242426012994146,0.20627379171172777,0.0058665328726808155,1.7862725917869264
ObjectArray$ObjectArrayIterator,0.1564353241157337,0.0,0.02365518667151591,0.0,0.1800905107872496
ObjectUtils,0.18758902570297814,0.0,0.01901236146076444,0.0,0.20660138716374257
Operation,0.0,0.0,0.0,0.0,0.0
Parser,0.08498943782329438,0.0,0.010399613813747866,0.0,0.09538905163704224
Prepared,0.06975294139845174,0.0,0.007441850910668022,0.0,0.07719479230911977
Query,0.3088340666651978,0.0,0.04409099999938917,0.0,0.35292506666458695
RandomUtils,0.053690333334088784,0.0,0.0056549999990238575,0.0,0.05934533333311264
Record,0.05701886547938762,0.0,0.007364592276151954,0.0,0.06438345775553958
Row,3.5327611703834867,0.1399549283679985,0.4700993080462188,0.023176539334797616,4.165991946132501
SHA256,0.03759763636348493,0.03489531668861159,0.005132727273038736,0.005145526243640711,0.08277120656877597
ScanCursor,0.07307349860680969,0.0,0.010299130178864895,0.0,0.08337262878567459
ScanIndex,1.246559495284714,0.1425172450040001,0.1557663984009719,0.022211011920318862,1.5670541506100049
Select,2.131523001679183,0.0,0.28038085823105346,0.0,2.4119038599102365
Session,0.6449638790290123,0.20715834492756183,0.07911792630884247,0.03286710364663792,0.9641072539120545
SessionFactoryEmbedded,0.1028284444441346,0.0,0.0105111111112853,0.0,0.1133395555554199
SimpleInsert,0.20841001224647157,0.1560162246995025,0.026614234555444,0.025514770201202505,0.4165552417026206
Standard,0.0,0.0,0.0,0.0,0.0
StatementHelper,0.0543246391155152,0.05009789999749046,0.008991250694215172,0.009616499999901863,0.12303028980712272
StringCache,0.0,0.11662828607795127,0.0,0.0199393756165381,0.13656766169448936
StringUtils,0.0,0.0,0.0,0.0,0.0
Submitter,0.05625092734871731,0.0,0.005771981346542648,0.0,0.06202290869525996
SysProperties,0.03759763636348493,0.0,0.005132727273038736,0.0,0.04273036363652367
TPCC,1.6153017060568617,0.03489531668861159,0.20051472727047132,0.005145526243640711,1.8558572762595853
TPCCSubmitter,0.0,0.0,0.0,0.0,0.0
Table,1.149056268180421,0.04397202495174471,0.15736249921622256,0.009663313654107508,1.360054106002496
TableData,0.9586504203344304,0.07626371875321766,0.12359783497397064,0.015268365928618362,1.173780339990237
TableData$1,0.4196252770417587,0.0,0.05297333593478264,0.0,0.4725986129765414
TableFilter,1.2443090801531103,0.0,0.18510125230828076,0.0,1.429410332461391
TableView,0.06206455174195436,0.0,0.008362679305683842,0.0,0.0704272310476382
TeeOutputStream,0.0,0.03472222222222222,0.0,0.005426666666608071,0.04014888888883029
Trace,0.53727565541926,0.03770084725205258,0.0686949530372486,0.007724239057488725,0.65139569476605
TraceObject,0.06502107965197412,0.03881594444289847,0.007568239844746491,0.006221111111244682,0.11762637505086376
TraceSystem,0.15697979072464305,0.0,0.01930821313871863,0.0,0.1762880038633617
TransactionCommand,0.0,0.035919124999054475,0.0,0.006922500000086984,0.04284162499914146
TreeCursor,0.3142685092930474,0.06488033333152997,0.03636984964546951,0.011189999999563344,0.4267086922696102
TreeIndex,3.4670681349404746,0.1525827333323832,0.4649379722168585,0.024153000000418007,4.108741840490135
URLClassPath$JarLoader,0.11337623703829765,0.0,0.010686222222284412,0.0,0.12406245926058206
UndoLog,0.06067040390684905,0.0,0.00832412903814299,0.0,0.06899453294499204
Update,0.051201211727248376,0.0,0.008262498388654373,0.0,0.05946371011590275
Utf8Info,0.030173636363708112,0.0,0.003861818181824425,0.0,0.034035454545532536
Value,1.7683219908226198,0.24090803868986818,0.21671261101241526,0.042635277391307805,2.268577917916211
ValueBoolean,0.08528633333359417,0.0,0.013639999999819944,0.0,0.09892633333341412
ValueDecimal,0.5333074270634791,0.04397202495174471,0.05772956501799803,0.009663313654107508,0.6446723306873294
ValueHashMap,0.0,0.0,0.0,0.0,0.0
ValueInt,1.2205498145106684,0.2652186941681166,0.14335444920607837,0.04532319770323695,1.6744461555881003
ValueShort,2.338366933957277,0.0,0.2471938993432334,0.0,2.5855608333005105
ValueString,0.08714127378251417,0.0,0.009991525782010959,0.0,0.09713279956452513
ValueStringBase,0.0,0.0,0.0,0.0,0.0
ValueStringFixed,0.0,0.024721733751537002,0.0,0.00497533629118465,0.02969707004272165
ValueTimestamp,7.800483299864064,0.7869737479587593,0.823881279188237,0.14825537745104822,9.55959370446211
ViewCursor,0.11505395833281302,0.0,0.017176249999730924,0.0,0.13223020833254395
ZoneInfo,0.13573551851947774,0.0,0.015131666666733238,0.0,0.15086718518621098
ZoneInfoFile,0.05971496296223011,0.0,0.006995555555072819,0.0,0.06671051851730293
