method,package1,package2,dram1,dram2,energy
AbstractCalendar,0.5147194166632592,0.0,0.050304999998237086,0.0,0.5650244166614963
BaseCalendar,0.6786902166673826,0.10302001249791104,0.05655199999961648,0.011517449699749072,0.8497796788646592
BaseIndex,1.9959972713340475,3.0504116300050352,0.18400975833009964,0.4904809919726237,5.7208996516418065
Benchmark,0.5301239999987754,0.0,0.059421666663992144,0.0,0.5895456666627675
CacheObject,0.07314478859972465,0.0,0.012220734470036874,0.0,0.08536552306976153
CalendarProviderImpl,0.030351060605894563,0.0,0.005213636364218969,0.0,0.03556469697011353
CalendarSystem,0.02390545454545645,0.0,0.004045454545231416,0.0,0.027950909090687866
ClassPool,0.06287863095236562,0.0,0.01052696428528829,0.0,0.07340559523765391
CodeAttribute,0.0,0.0,0.0,0.0,0.0
Column,0.5959523764432976,0.5720872306999556,0.06812451016514239,0.09345045020110979,1.3296145675095055
Command,0.42407710177102687,0.14794556542458168,0.04135875743255321,0.02126038815565855,0.6346418127838204
CommandContainer,0.12382367592639369,0.0,0.012097111110792697,0.0,0.13592078703718638
CompareMode,0.0,0.13675642944383004,0.0,0.020310375562162267,0.1570668050059923
Comparison,0.3418998571442422,0.6103400139918027,0.0317321428575659,0.10034626942854301,1.0843182834221539
ConditionAndOr,0.2201952563602197,0.23327420703825946,0.020506815046211855,0.029018809994573534,0.5029950884392645
ConnectionInfo,0.06935923809595848,0.0,0.012382857143252513,0.0,0.081742095239211
ConstPool,0.007737509643298134,0.0,0.0008019659650153233,0.0,0.008539475608313458
ConstraintReferential,0.0,0.0,0.0,0.0,0.0
Customer,0.0,0.0,0.0,0.0,0.0
DacapoClassLoader,0.11389314285764748,0.0,0.015691904761715992,0.0,0.12958504761936349
Database,0.16200464404198675,0.05914354996683883,0.015816289592314774,0.009971523845437532,0.24693600744657787
Delete,0.042019111110777066,0.0,0.004596666666151981,0.0,0.046615777776929046
DisabledAlgorithmConstraints,0.020982555555545127,0.0,0.003366666666705795,0.0,0.024349222222250923
Expression,0.07063169230801017,0.0,0.008280000000712998,0.0,0.07891169230872316
ExpressionColumn,0.5198042886845303,0.4529477657397009,0.06253541113991576,0.07233082929067625,1.1076182948548232
ExpressionVisitor,0.23405350256236998,0.19190459318812425,0.02797746153932493,0.019240008037419713,0.4731755653272389
Function,0.04475916666605271,0.0,0.005758333333890025,0.0,0.05051749999994273
Gregorian,0.10628266666632649,0.0,0.01307999999880849,0.0,0.11936266666513498
Gregorian$Date,0.14658600000014604,0.0,0.011225000000801327,0.0,0.15781100000094736
IndexCondition,0.07116699999945315,0.0,0.005284999999275897,0.0,0.07645199999872905
IndexCursor,0.32705926877042013,0.24902506176091813,0.0371285657895491,0.03887639890636181,0.6520892952272492
Insert,0.11752686842064611,0.0,0.017375789473269086,0.0,0.1349026578939152
JdbcConnection,1.0459629631071434,0.0,0.10981210783683534,0.0,1.1557750709439787
JdbcResultSet,0.4769565333327158,0.0,0.058600857140949564,0.0,0.5355573904736654
JdbcSQLException,0.0,0.0,0.0,0.0,0.0
JdbcStatement,0.1737667999996726,0.07061634827258237,0.019683999999203176,0.010506207968114722,0.2745733562395729
LocalResult,0.10828641666557814,0.0,0.013075000000753791,0.0,0.12136141666633193
LocaleData$1,0.0,0.0,0.0,0.0,0.0
MathUtils,0.02132165079358004,0.327261620941067,0.0031161904762340123,0.056290791598866095,0.4079902538097471
MultiVersionCursor,1.1302429095202582,1.3620455746064448,0.11372571428553724,0.22036751256310824,2.826381710975349
MultiVersionIndex,0.27843202408024614,0.39242947346277085,0.034403606810949824,0.06415714170847894,0.7694222460624457
OERandom,1.0659823174752165,0.09286769425159017,0.13910764218434185,0.016391216156818992,1.3143488700679675
ObjectArray,0.9837513102982536,0.4071201720184036,0.12153115542990904,0.0640917734681947,1.576494411214761
ObjectArray$ObjectArrayIterator,0.0530023500002345,0.0,0.007778333333630547,0.0,0.06078068333386504
ObjectUtils,0.0749436874998537,0.0,0.010264374999981856,0.0,0.08520806249983555
Operation,0.0,0.0,0.0,0.0,0.0
Parameter,0.03405456410240358,0.0,0.0039876923080718815,0.0,0.03804225641047546
Parser,0.11349969047761296,0.0,0.01554104285769773,0.0,0.1290407333353107
Prepared,0.19902207513356984,0.06963122217770833,0.02397073016000114,0.01048136330307535,0.30310539077435467
Query,0.2252195217381771,0.1902342036953918,0.024609782608488295,0.03295966966565479,0.47302317770771196
Resource,0.25956997402675963,0.08931499999501588,0.038035930734646145,0.018559999999827898,0.4054809047562496
Row,1.5682252872885165,1.2381628859740994,0.1666618397931079,0.20415829148710235,3.1772083045428263
RowList,0.08770733333343135,0.0,0.008004999999684514,0.0,0.09571233333311586
ScanCursor,0.1638250000000375,0.06742473822869492,0.018630000000889088,0.010563359353460243,0.26044309758308176
ScanIndex,2.149554502536102,0.0755748007330688,0.2630712967587675,0.010621650523485465,2.4988222505514233
Schema,0.03730974358936342,0.0,0.005683076923536972,0.0,0.04299282051290039
SchemaObjectBase,0.049137333333298255,0.0,0.003776000000167793,0.0,0.052913333333466046
ScriptReader,0.02778053571429544,0.0,0.0043898214283087465,0.0,0.03217035714260419
Select,1.5862765898034112,0.6847627664417149,0.17005932329630505,0.10879928777705906,2.54989796731849
Session,0.960409957513972,0.0,0.11749725000084218,0.0,1.0779072075148142
SimpleInsert,0.16937757349993404,0.0,0.023486732920514456,0.0,0.1928643064204485
Standard,0.0,0.0,0.0,0.0,0.0
StatementHelper,0.0,0.0,0.0,0.0,0.0
StringCache,0.02000076923090651,0.0,0.003659615384747621,0.0,0.02366038461565413
StringUtils,0.0,0.0,0.0,0.0,0.0
Submitter,0.0,0.0,0.0,0.0,0.0
TPCC,0.6418379166660896,0.3333513392778865,0.08378266666620927,0.049431809246790866,1.1084037318569764
TPCCSubmitter,0.0,0.0,0.0,0.0,0.0
Table,0.6748948257903018,0.6967520703672088,0.06366056274703326,0.11234200077519976,1.5476494596797437
TableData,0.2614798075152169,0.4920247361005611,0.029554859797156694,0.0824844723125109,0.8655438757254454
TableData$1,0.10256327731063716,0.5404518476215522,0.012695210084211666,0.0888848389859114,0.7445951740023125
TableFilter,0.8401031978528256,0.4109711835308302,0.10381250827300384,0.06651061992467762,1.4213975095813374
TeePrintStream,0.06553133333363803,0.0,0.008625000000392902,0.0,0.07415633333403093
Trace,0.24461763947343376,0.0,0.030278947369614593,0.0,0.27489658684304835
TraceObject,0.10858154166756626,0.0,0.0202774999996412,0.0,0.12885904166720746
TraceSystem,0.046303484848591106,0.0,0.007650000000494676,0.0,0.053953484849085784
TreeCursor,0.09058216666720303,0.5353409085377061,0.009377999999984846,0.08551736791878273,0.7208184431236768
TreeIndex,1.2360473496958906,1.8772231337343375,0.1316475063770849,0.3046979990766778,3.549615988883991
UndoLog,0.04135219600723036,0.0,0.00737629002536003,0.0,0.04872848603259039
Update,0.07859300000078898,0.0,0.012780000000323827,0.0,0.0913730000011128
Utf8Info,0.020982555555545127,0.0,0.003366666666705795,0.0,0.024349222222250923
Value,0.6279277881641718,0.9204243001694861,0.08911119664289131,0.18626071544075126,1.8237240004173003
ValueBoolean,0.0,0.06386387557789269,0.0,0.010658322424624054,0.07452219800251675
ValueDecimal,0.11601783333359586,0.08171806501631622,0.020440000000538323,0.015071011592662546,0.23324690994311295
ValueExpression,0.07157400000020668,0.06608998603041796,0.005600000000413274,0.01073439337260075,0.15399837940363864
ValueInt,0.8527905666701675,0.08102766763695964,0.08801699999906606,0.011213633200096716,1.0330488675062899
ValueShort,2.375127419446855,0.42842952543512913,0.23849383333572402,0.06921439607266568,3.111265174290374
ValueString,0.0,0.0,0.0,0.0,0.0
ValueStringFixed,0.07941554838719314,0.0,0.0100370797965254,0.0,0.08945262818371855
ValueTimestamp,8.415701837326871,0.32117035150034506,1.0144772556731825,0.045647577045780596,9.79699702154618
ViewIndex,0.02698817333327801,0.0,0.0035255999995327633,0.0,0.030513773332810773
ZoneInfo,0.1767380000007203,0.0,0.017250000000785803,0.0,0.1939880000015061
ZoneInfoFile,0.02390545454545645,0.0,0.004045454545231416,0.0,0.027950909090687866
