method,hits
Aggregate.updateAggregate,2
AttributeInfo.read,2
BaseIndex.compareKeys,6
BaseIndex.compareRows,148
BaseIndex.compareValues,50
Benchmark.fileFromInputStream,24
Bytecode.<init>,2
CalendarProviderImpl.getInstance,2
CalendarSystem.<clinit>,2
ClassFileAssembler.setStack,2
ClassPool.getCached,2
ClassPool.makeClass,2
CodeAttribute.<init>,4
CodeIterator.appendGap,2
Column.convert,14
Column.getColumnId,24
Column.validateConvertUpdateSequence,4
Command.executeQueryLocal,6
Command.executeUpdate,212
CommandContainer.recompileIfRequired,4
CompareMode.compareString,4
Comparison.getAdditional,2
Comparison.getValue,40
Comparison.isEverything,10
ConditionAndOr.getValue,6
ConditionAndOr.isEverything,6
ConditionExists.getValue,2
ConstPool.readOne,2
Customer.setMiddle,2
DacapoClassLoader.loadClass,6
Database.getOptimizeReuseResults,2
DbObjectBase.getSQL,2
Delete.update,2
DisabledAlgorithmConstraints$Constraint$Operator.values,2
Engine.openSession,2
Expression.getBooleanValue,2
ExpressionColumn.getValue,22
ExpressionColumn.isEverything,8
ExpressionColumn.mapColumns,2
IndexCondition.isAlwaysFalse,6
IndexCondition.isStart,4
IndexCursor.find,14
IndexCursor.getMax,2
IndexCursor.getSearchRow,8
IndexCursor.isAlwaysFalse,2
IndexCursor.next,4
Insert.insertRows,20
JdbcConnection.checkClosed,30
JdbcPreparedStatement.checkClosed,2
JdbcPreparedStatement.executeUpdate,2
JdbcPreparedStatement.executeUpdateInternal,2
JdbcPreparedStatement.setParameter,6
JdbcResultSet.<init>,2
JdbcResultSet.checkOnValidRow,2
JdbcResultSet.get,2
JdbcResultSet.getColumnIndex,2
JdbcResultSet.getString,8
JdbcResultSet.getTimestamp,2
JdbcResultSet.nextRow,2
JdbcSQLException.<init>,8
JdbcStatement.checkClosed,4
JdbcStatement.executeQuery,2
Launcher$AppClassLoader.loadClass,6
LocalResult.addRow,6
LocalResult.close,2
LocalResult.getList,4
LocalResult.next,10
MathUtils.compare,12
MathUtils.setScale,4
MemberrefInfo.<init>,2
Message.translate,4
MethodInfo.read,2
MultiVersionCursor.<init>,2
MultiVersionCursor.getSearchRow,44
MultiVersionCursor.loadNext,30
MultiVersionCursor.next,44
MultiVersionCursor.step,22
MultiVersionIndex.add,6
MultiVersionIndex.compareRows,4
MultiVersionIndex.find,6
MultiVersionIndex.removeIfExists,4
NativeConstructorAccessorImpl.newInstance,2
OERandom.randomAString,6
OERandom.randomAString10_20,2
OERandom.randomAString26_50,2
OERandom.randomAString300_500,4
OERandom.randomData,2
OERandom.randomDecimalString,10
OERandom.randomInt,30
OERandom.randomNString,2
OERandom.setSeed,2
ObjectArray$ObjectArrayIterator.<init>,2
ObjectArray$ObjectArrayIterator.hasNext,66
ObjectArray.add,2
ObjectArray.createArray,6
ObjectArray.get,16
ObjectArray.sort,20
ObjectArray.swap,2
Parameter.getParamValue,4
Parameter.setValue,2
Parser.parseAlterTableAddConstraintIf,2
Prepared.<init>,2
Prepared.checkCanceled,2
Prepared.setCurrentRowNumber,2
Query.query,8
Record.<init>,2
Record.commit,2
Record.setSessionId,2
Resource.getBytes,2
Resources.loadFromZip,2
Row.getValue,88
Row.setValue,8
RowList.next,2
ScanCursor.next,2
ScanIndex.add,6
ScanIndex.commit,6
ScanIndex.getNextRow,56
ScanIndex.incrementRowCount,6
Schema.add,2
Select.isEverything,26
Select.queryFlat,36
Select.queryWithoutCache,6
Session.closeTemporaryResults,2
Session.commit,4
Session.getDatabase,4
Session.getLogId,2
Session.isClosed,4
Session.isReconnectNeeded,20
Session.waitIfExclusiveModeEnabled,2
SimpleInsert.customerTable,2
SimpleInsert.itemTable,2
SimpleInsert.stockTable,4
Standard.newOrder,2
Standard.payment,4
Standard.paymentById,2
StringCache.get,2
StringCache.getCache,4
TPCC.calculateSumDB,40
TPCCSubmitter.runTransactions,2
Table.compareTypeSave,12
Table.fireConstraints,2
Table.getTemplateRow,22
Table.validateConvertUpdateSequence,4
TableData$1.compare,22
TableData.addIndex,16
TableData.addRow,2
TableData.addRowsToIndex,8
TableData.lock,2
TableData.removeRow,2
TableData.unlock,2
TableFilter.getValue,14
TableFilter.isOk,4
TableFilter.next,24
TeeOutputStream.write,2
Trace.isEnabled,12
TraceSystem.<init>,2
TraceSystem.getTrace,4
TreeCursor.<init>,2
TreeCursor.get,2
TreeCursor.next,22
TreeIndex.add,24
TreeIndex.balance,24
TreeIndex.find,4
TreeIndex.findFirstNode,44
TreeIndex.next,56
TreeIndex.remove,4
TreeIndex.replace,6
TreeIndex.set,8
UndoLog.size,2
UndoLogRecord.commit,2
UndoLogRecord.undo,2
Update.update,4
Utf8Info.<init>,2
Value.<clinit>,2
Value.cache,6
Value.checkPrecision,2
Value.compareTo,2
Value.compareTypeSave,24
Value.convertScale,2
Value.convertTo,18
ValueBoolean.get,2
ValueDecimal.compareSecure,2
ValueDecimal.get,6
ValueDecimal.getPrecision,10
ValueDecimal.getString,8
ValueInt.compareSecure,22
ValueInt.get,2
ValueInt.getString,64
ValueShort.<init>,2
ValueShort.compareSecure,18
ValueShort.equals,2
ValueShort.getString,68
ValueString.equals,2
ValueString.get,2
ValueStringFixed.get,2
ValueStringFixed.hashCode,2
ValueTimestamp.convertScale,18
ValueTimestamp.getString,249
ViewCursor.next,6
ZoneInfo.<init>,2
