method,package1,package2,dram1,dram2,energy
org.apache.derbyTesting.system.oe.client,0.0,0.0,0.0,0.0,0.0
org.apache.derbyTesting.system.oe.direct,0.06735051793568578,0.0,0.009928888030018694,0.0,0.07727940596570447
org.apache.derbyTesting.system.oe.load,0.05910811141467409,0.08039466666782066,0.009266784955664508,0.013202222222456907,0.16197178526061617
org.apache.derbyTesting.system.oe.util,0.019391697165015886,0.05216604444237116,0.003927579590774375,0.008608333333500518,0.08409365453166194
org.dacapo.h2,0.46635811357359763,0.0,0.0632192055072858,0.0,0.5295773190808835
org.h2.command,0.5115515901779357,0.5002788701732954,0.07355353291466306,0.07512666361394285,1.1605106568798371
org.h2.command.dml,1.1144854527957315,0.9877570912744121,0.1592054746439909,0.15951459692513317,2.4209626156392674
org.h2.constraint,0.04149125742088945,0.0,0.007711343263480945,0.0,0.0492026006843704
org.h2.engine,0.34927210425491884,0.1182668083369208,0.04956811271006713,0.016544500000190965,0.5336515253020977
org.h2.expression,1.118883697211675,1.0542312016055824,0.18702967005455967,0.16549984826726089,2.5256444171390777
org.h2.index,5.992868985756653,3.4838137410661,0.8285099983777214,0.5703819882464712,10.875574713446946
org.h2.jdbc,1.1632141298850047,0.14051739629888926,0.1502794015198546,0.023695833332863847,1.4777067610366124
org.h2.message,0.30038168502089124,0.0,0.04690986378145113,0.0,0.34729154880234236
org.h2.result,1.3983990823863364,1.129878196761994,0.19681977612776555,0.1847757871712487,2.909872842447345
org.h2.table,2.1095122904371193,2.0922756938652696,0.2909070305219851,0.33702482664461225,4.829719841468985
org.h2.util,0.5472748647519505,0.40155054253943456,0.08184575483727935,0.07072409568296369,1.1013952578116282
org.h2.value,1.0225158225142008,0.9387844450334168,0.12450252782438939,0.15541481797212586,2.241217613344133
sun.misc,0.03205127243568228,0.0,0.0021151849051576988,0.0,0.03416645734083998
sun.net.www.protocol.file,0.0,0.0,0.0,0.0,0.0
sun.util.calendar,0.4715729191535244,0.0,0.06051512218095677,0.0,0.5320880413344812
