method,package1,package2,dram1,dram2,energy
BaseIndex,2.648740928561219,3.347478283323861,0.3140198541710456,0.532515089282084,6.84275415533821
CacheObject,0.1428566038482715,0.0,0.017723376831078805,0.0,0.1605799806793503
ClassPool,0.029601999999916487,0.0,0.005109999999755624,0.0,0.03471199999967211
Column,1.0693653306568314,0.4157106666631686,0.13915708081210185,0.0686850000013995,1.6929180781335014
Command,0.4232068748147568,0.30488753934175494,0.056299182766903426,0.04277567022241479,0.82716926714583
CommandContainer,0.020066721997345,0.0,0.002537901028696773,0.0,0.022604623026041774
CompareMode,0.1357167046206326,0.06241866666823625,0.016723322207031294,0.006240000000010089,0.22109869349591024
Comparison,0.3691032397476928,0.36633333333399304,0.04458771333433228,0.058800000000701395,0.8388242864167196
ConditionAndOr,0.19162900009655898,0.06604000000030888,0.026251584333511373,0.009519999999611171,0.29344058442999044
Customer,0.0,0.0,0.0,0.0,0.0
Database,0.09777264053037578,0.0,0.009018152941407726,0.0,0.10679079347178351
Delete,0.035569966487293984,0.0,0.002416326389738936,0.0,0.03798629287703292
Expression,0.07611095537133032,0.0,0.005199629441961631,0.0,0.08131058481329195
ExpressionColumn,0.16729049371354382,0.2900393333450969,0.028799991202211054,0.044634999999592154,0.530764818260444
ExpressionVisitor,0.058733265790543186,0.06221000000368804,0.010557143385904235,0.006926250000105938,0.1384266591802414
FloatingDecimal,0.0,0.0,0.0,0.0,0.0
IndexCondition,0.04875219275909432,0.0,0.005655943640884594,0.0,0.054408136399978914
IndexCursor,0.6736441968944811,0.2613320000042828,0.0675993216441633,0.04168499999893053,1.0442605185418579
Insert,0.36312002722816994,0.0,0.05483383452335096,0.0,0.4179538617515209
JdbcConnection,0.8806672087142222,0.1769003333368649,0.0980597106075244,0.023315000000366126,1.1789422526589777
JdbcPreparedStatement,0.0,0.0,0.0,0.0,0.0
JdbcResultSet,0.4765394289136576,0.0,0.052565663328636325,0.0,0.529105092242294
JdbcSQLException,0.0,0.0,0.0,0.0,0.0
JdbcStatement,0.17642188367301312,0.0,0.017859012465151966,0.0,0.19428089613816507
LocalResult,0.04089331709481398,0.1978146666563892,0.0034472406030539014,0.030120000000655033,0.2722752243549121
MathUtils,0.0,0.19333139999847238,0.0,0.0307799999993828,0.22411139999785518
MethodAccessorGenerator,0.0585630530620005,0.0,0.00566559409833121,0.0,0.0642286471603317
MultiVersionCursor,0.8962887531250023,1.5609903190329324,0.11280279953132706,0.2470237417406338,2.8171056134298955
MultiVersionIndex,0.21130155934767714,0.37438206666944696,0.024327985510375995,0.061940000001050065,0.6719516115285501
OERandom,0.1589854095135258,0.0,0.02204583003478162,0.0,0.1810312395483074
ObjectArray,1.1172202711035542,0.5022828000064085,0.14878257401958472,0.07975900000043717,1.8480446451299846
ObjectArray$ObjectArrayIterator,0.07164596153905642,0.07741266666562296,0.007707692307121759,0.013040000000425305,0.16980632051222644
Operation,0.0,0.0,0.0,0.0,0.0
Parameter,0.1788189359465784,0.0,0.02451942170479512,0.0,0.20333835765137354
Parser,0.13164361999774843,0.0,0.01606975093606961,0.0,0.14771337093381803
Prepared,0.11732234338134975,0.1501463333358212,0.016881000051673114,0.02399500000077144,0.30834467676961547
Query,0.25993794610705634,0.42149794445281763,0.025848765004906,0.0625847916674805,0.7698694472322605
Record,0.026710499999580858,0.05993666666715095,0.0037378125000486757,0.009629999999257658,0.10001497916603815
Row,1.7191479983839064,1.0642903333309934,0.24170090975965844,0.16738533333401492,3.1925245748085733
ScanCursor,0.11367853168119323,0.0,0.013786290438575474,0.0,0.1274648221197687
ScanIndex,1.6733304052848386,0.12337233333285742,0.21414035599015477,0.018910000000687432,2.0297530946085383
ScriptReader,0.013689285714073256,0.0,0.0024285714287197195,0.0,0.016117857142792975
Select,1.0243895823018616,0.9897001596707815,0.11727880987919442,0.14112507337784397,2.2724936252296817
Session,0.8028004963971419,0.17824300000211224,0.09062687457776766,0.02462999999988824,1.0963003709769101
SimpleInsert,0.3178318552887214,0.0,0.04372576443125305,0.0,0.3615576197199744
Standard,0.0,0.06914600000082928,0.0,0.009366666666513384,0.07851266666734266
StringCache,0.18868836050194976,0.0,0.029067274261547975,0.0,0.21775563476349774
TPCC,0.04371452925885205,0.34973133333066164,0.0037152154041824154,0.04399499999999534,0.44115607799369144
TPCCDataSource,0.02182738095273505,0.0,0.0036035714284870274,0.0,0.025430952381222078
TPCCSubmitter,0.04490346383361097,0.0,0.008001813962051912,0.0,0.05290527779566288
Table,0.9212694768100584,0.4990843333410642,0.12814287656607684,0.0754050000001977,1.6239016867173972
TableData,0.592350189465179,0.43279153332599285,0.08842372044974077,0.06679000000027978,1.1803554432411922
TableData$1,0.1189230458334805,0.5270996666561889,0.01826599999957731,0.08734000000125282,0.7516287124904996
TableFilter,0.6505047448076067,0.5656930000016777,0.08275888127491984,0.08976500000062515,1.3887216260848292
TestHarness,0.0,0.0,0.0,0.0,0.0
Trace,0.4071186037718316,0.0,0.04534967171376646,0.0,0.4524682754855981
TraceObject,0.23636391746137067,0.0,0.016677567554942787,0.0,0.25304148501631346
TraceSystem,0.09028200467239411,0.0,0.00930567319567547,0.0,0.09958767786806957
TreeCursor,0.29507540138907806,0.530557666667543,0.041850618810132,0.0831649999987955,0.9506486868655485
TreeIndex,1.2334695120140236,1.6999337333693498,0.1635688210387106,0.272091999998247,3.369064066420331
TreeNode,0.052345000000232615,0.0,0.007614285714658936,0.0,0.05995928571489155
UndoLog,0.03555637037014228,0.0,0.005187777778061261,0.0,0.04074414814820354
Value,0.9163430904617905,0.45322313333163033,0.13045233826127656,0.0722389999985656,1.572257562053263
ValueDecimal,0.04490346383361097,0.0,0.008001813962051912,0.0,0.05290527779566288
ValueExpression,0.10254488750054996,0.0,0.01789232092827773,0.0,0.12043720842882769
ValueInt,0.08512647742014987,0.19319280000054276,0.009101400739362778,0.030528999999660297,0.3179496781597157
ValueShort,0.14341909449639467,0.3313638666732004,0.02192987898908496,0.04949700000021645,0.5462098401588964
ValueString,0.07155189580208256,0.0,0.009951024857235483,0.0,0.08150292065931804
ValueTimestamp,0.13698965130782736,0.0,0.015583225390584439,0.0,0.1525728766984118
ViewCursor,0.06268023513572228,0.07714833333254015,0.010420707690968976,0.012420000000323244,0.16266927615955465
ZoneInfo,0.0,0.07771800000530978,0.0,0.009579999999914436,0.08729800000522421
