method,package1,package2,dram1,dram2,energy
AbstractCalendar.getCalendarDate|Gregorian.getCalendarDate|Gregorian.getCalendarDate,0.0,0.2055869999991652,0.0,0.0203199999990223,0.22590699999818747
AbstractCalendar.setTimeOfDay|AbstractCalendar.getCalendarDate|Gregorian.getCalendarDate,0.0,0.17677611666537513,0.0,0.02132724999922478,0.1981033666645999
AlterTableAddConstraint.tryUpdate|AlterTableAddConstraint.update|CreateTable.update,0.0,0.009282848485092858,0.0,0.0012918181817881164,0.010574666666880974
BaseCalendar$Date.<init>|Gregorian$Date.<init>|Gregorian.newCalendarDate,0.0,0.0887653333338676,0.0,0.00968000000041987,0.09844533333428747
BaseCalendar.getCalendarDateFromFixedDate|AbstractCalendar.getCalendarDate|Gregorian.getCalendarDate,0.1344088321282703,0.13939683333204206,0.019288424771731476,0.016795750000407374,0.30988984023245125
BaseIndex.compareKeys|TreeIndex.add|MultiVersionIndex.add,0.3293333161473399,0.0,0.03424398406428073,0.0,0.36357730021162066
BaseIndex.compareRows|MultiVersionIndex.compareRows|MultiVersionCursor.next,0.03326413221710997,0.033467666668002494,0.004352765610849337,0.00465500000003279,0.07573956449599459
BaseIndex.compareRows|MultiVersionIndex.compareRows|TableData$1.compare,0.8188525501901129,0.0,0.0844352386011107,0.0,0.9032877887912236
BaseIndex.compareRows|TreeCursor.next|MultiVersionCursor.step,0.3647859347116043,0.5685260218766172,0.0383985391542756,0.08955464610389754,1.0612651418463948
BaseIndex.compareRows|TreeCursor.next|MultiVersionIndex.removeIfExists,0.0,0.0,0.0,0.0,0.0
BaseIndex.compareRows|TreeIndex.add|MultiVersionIndex.add,1.2735320198261533,0.17698166666377801,0.12268450614479155,0.020594999999351174,1.593793192634074
BaseIndex.compareRows|TreeIndex.add|MultiVersionIndex.remove,0.0,0.0709433333298269,0.0,0.007940000000113892,0.0788833333299408
BaseIndex.compareRows|TreeIndex.findFirstNode|TreeIndex.find,0.9409433061733196,0.3750203333329409,0.1041301662966447,0.04164500000054734,1.4617388058034524
BaseIndex.compareRows|TreeIndex.findFirstNode|TreeIndex.remove,0.06183149980989695,0.35945555555210573,0.005309060343745404,0.04741883333248956,0.4740149490382376
BaseIndex.compareValues|BaseIndex.compareRows|MultiVersionIndex.compareRows,0.09711187584399707,0.0,0.00857914979853288,0.0,0.10569102564252994
BaseIndex.compareValues|BaseIndex.compareRows|TreeCursor.next,0.18251840714030257,0.0,0.016016962505078107,0.0,0.19853536964538068
BaseIndex.compareValues|BaseIndex.compareRows|TreeIndex.add,0.9025616064655798,0.0,0.07920810958814778,0.0,0.9817697160537275
BaseIndex.compareValues|BaseIndex.compareRows|TreeIndex.findFirstNode,0.6669508743421915,0.3765096396861144,0.06639101246516427,0.04857355952239058,1.1584250860158607
BitField.getLastSetBit|Database.allocateObjectId|Prepared.getObjectId,0.06978968749876913,0.0,0.0074812500002963125,0.0,0.07727093749906544
CacheObject.<init>|Record.<init>|Row.<init>,0.12951546464613084,0.0,0.01511075757553779,0.0,0.14462622222166863
CalendarDate.setHours|AbstractCalendar.setTimeOfDay|AbstractCalendar.getCalendarDate,0.0,0.07541199999686796,0.0,0.008291999999528343,0.0837039999963963
CalendarDate.setMinutes|AbstractCalendar.setTimeOfDay|AbstractCalendar.getCalendarDate,0.0,0.030843333331479997,0.0,0.002950000000055297,0.033793333331535294
CalendarProviderImpl.getInstance|Calendar.createCalendar|Calendar.getInstance,0.0,0.0521418333373731,0.0,0.008434999999659945,0.060576833337033044
ClassFile.read|ClassFile.<init>|CtClassType.<init>,0.0,0.0664900833307911,0.0,0.01076687500017215,0.07725695833096324
Column.convert|IndexCursor.find|TableFilter.next,0.0,0.0,0.0,0.0,0.0
Column.convert|Insert.insertRows|Insert.update,0.05076833798902453,0.0,0.003435837233927231,0.0,0.05420417522295176
Column.getColumnId|TableFilter.getValue|ExpressionColumn.getValue,0.6350523810527744,0.0,0.07245407733403336,0.0,0.7075064583868078
Column.updateSequenceIfRequired|Column.validateConvertUpdateSequence|Table.validateConvertUpdateSequence,0.0,0.0,0.0,0.0,0.0
Column.validateConvertUpdateSequence|Table.validateConvertUpdateSequence|Insert.insertRows,0.15870740186269938,0.0,0.012677015556360714,0.0,0.1713844174190601
Command.executeQueryLocal|Command.executeQuery|JdbcPreparedStatement.executeQuery,0.0,0.0,0.0,0.0,0.0
Command.executeUpdate|JdbcConnection.rollbackInternal|JdbcConnection.rollback,0.0,0.0,0.0,0.0,0.0
Command.executeUpdate|JdbcPreparedStatement.executeUpdateInternal|JdbcPreparedStatement.executeUpdate,0.2131434308633401,0.0,0.015197493579256774,0.0,0.22834092444259685
Command.stop|Command.executeUpdate|JdbcConnection.rollbackInternal,0.07727032519333042,0.1474354999991192,0.0055081861006486274,0.020620000000083866,0.2508340112931821
Command.stop|Command.executeUpdate|JdbcConnection.setTransactionIsolation,0.0,0.0,0.0,0.0,0.0
Command.stop|Command.executeUpdate|JdbcPreparedStatement.executeUpdateInternal,0.19804272348733234,0.17005155833952207,0.02236905530895613,0.024393874999668694,0.41485721213547927
CommandContainer.query|Command.executeQueryLocal|Command.executeQuery,0.0,0.0,0.0,0.0,0.0
CommandContainer.recompileIfRequired|CommandContainer.query|Command.executeQueryLocal,0.0,0.04417719999910333,0.0,0.006579000000056113,0.05075619999915944
CompareMode.compareString|ValueString.compareSecure|Value.compareTo,0.0,0.09705899999607936,0.0,0.015376071429467888,0.11243507142554725
CompareMode.compareString|ValueString.compareSecure|Value.compareTypeSave,0.04078410256438357,0.0,0.0037461538457323634,0.0,0.04453025641011593
Comparison.getValue|ConditionAndOr.getValue|ConditionAndOr.getValue,0.09419227777737736,0.0,0.009238666666149382,0.0,0.10343094444352674
Comparison.getValue|ConditionAndOr.getValue|Expression.getBooleanValue,0.5442465044193473,0.19141376919216796,0.048915619471687155,0.030078436975700062,0.8146543300589024
Comparison.getValue|Expression.getBooleanValue|Update.update,0.0,0.06827800000125231,0.0,0.010840000000219636,0.07911800000147194
Comparison.isEverything|ConditionAndOr.isEverything|ConditionAndOr.isEverything,0.04720066666535179,0.0,0.004684999999274925,0.0,0.05188566666462671
Comparison.isEverything|ConditionAndOr.isEverything|Select.isEverything,0.09193480260719027,0.0,0.006863304483733823,0.0,0.09879810709092408
ConditionAndOr.getValue|ConditionAndOr.getValue|Expression.getBooleanValue,0.0526464000006672,0.0,0.006840000000083818,0.0,0.05948640000075102
ConditionAndOr.getValue|Expression.getBooleanValue|Select.queryFlat,0.07734407498309906,0.21866726190221794,0.01030393135482907,0.03369678571423373,0.3400120539543798
ConditionAndOr.getValue|Expression.getBooleanValue|Update.update,0.0,0.0,0.0,0.0,0.0
ConditionAndOr.isEverything|ConditionAndOr.isEverything|Select.isEverything,0.05338559999945573,0.0,0.008439999999730692,0.0,0.06182559999918642
ConditionAndOr.isEverything|Select.isEverything|Query.isEverything,0.11005879633962178,0.0,0.009258765801988787,0.0,0.11931756214161056
ConditionExists.getValue|ConditionNot.getValue|Expression.getBooleanValue,0.08592703634317725,0.0,0.00759540294361336,0.0,0.0935224392867906
ConditionNot.getValue|Expression.getBooleanValue|Select.queryFlat,0.06189192983837542,0.0,0.004644001193789501,0.0,0.06653593103216493
Customer.setData|Standard.paymentById|Standard.payment,0.0,0.06230992307861855,0.0,0.007374230769178561,0.06968415384779711
Database.getOptimizeReuseResults|Query.query|ConditionExists.getValue,0.0495781076239148,0.0,0.008551420043507755,0.0,0.058129527667422555
Database.isMultiVersion|ScanIndex.add|TableData.addRow,0.05718050877860625,0.0,0.005742620322614318,0.0,0.06292312910122057
Database.isReconnectNeeded|Session.isReconnectNeeded|JdbcConnection.checkClosed,0.06312756868096465,0.0,0.0115370995462341,0.0,0.07466466822719875
Delete.update|CommandContainer.update|Command.executeUpdate,0.0,0.07657900000340305,0.0,0.010091999999713153,0.0866710000031162
DisabledAlgorithmConstraints.<init>|SignatureFileVerifier.<clinit>|JarFile.initializeVerifier,0.0,0.033101333334343515,0.0,0.007034999999935583,0.0401363333342791
Driver.connect|TPCC.makeConnection|TPCC.getConnection,0.0,0.13873300000462524,0.0,0.029580000000350992,0.16831300000497623
Engine.openSession|Engine.openSession|Engine.getSession,0.0,0.08881395833547381,0.0,0.017049374999563344,0.10586333333503715
ExpressionColumn.getValue|Comparison.getValue|ConditionAndOr.getValue,0.0,0.0,0.0,0.0,0.0
ExpressionColumn.getValue|IndexCondition.getCurrentValue|IndexCursor.find,0.0,0.13761685714416672,0.0,0.02102785714253384,0.15864471428670054
ExpressionColumn.getValue|Select.queryFlat|Select.queryWithoutCache,0.16890640460462553,0.23411033332619502,0.025878414986028678,0.032450000000001936,0.46134515291685113
ExpressionColumn.isEverything|Comparison.isEverything|ConditionAndOr.isEverything,0.04681472378102298,0.0,0.0012684727460565914,0.0,0.04808319652707957
ExpressionColumn.isEverything|Select.isEverything|Query.isEverything,0.06979870004619419,0.0,0.004998183003181532,0.0,0.07479688304937572
ExpressionVisitor.getType|ExpressionColumn.isEverything|Select.isEverything,0.05533452371830119,0.0,0.006570628674006368,0.0,0.06190515239230756
ExpressionVisitor.get|Query.isEverything|Query.query,0.11418666925519684,0.0,0.014632485881931993,0.0,0.12881915513712883
ExpressionVisitor.get|Query.isEverything|Query.sameResultAsLast,0.26617114414490584,0.0,0.022107837837973272,0.0,0.2882789819828791
ExpressionVisitor.incrementQueryLevel|Select.isEverything|Query.isEverything,0.061913635332043415,0.0,0.004474417398389789,0.0,0.0663880527304332
IndexCondition.getCurrentValue|IndexCursor.find|TableFilter.next,0.11300596046785666,0.0,0.008278377228787307,0.0,0.12128433769664397
IndexCursor.find|TableFilter.next|Select.queryFlat,0.2901126104245752,0.0,0.031057965023033103,0.0,0.3211705754476083
IndexCursor.find|TableFilter.next|Update.update,0.0,0.0,0.0,0.0,0.0
IndexCursor.getSearchRow|IndexCursor.find|TableFilter.next,0.05225771428584786,0.0,0.004994285714236043,0.0,0.0572520000000839
IndexCursor.getSearchRow|TableFilter.next|Select.queryFlat,0.054991414063152375,0.0,0.009988113719222914,0.0,0.06497952778237528
IndexCursor.next|TableFilter.next|Select.queryFlat,0.2999459879271702,0.0,0.03150921602095941,0.0,0.3314552039481296
IndexCursor.next|TableFilter.next|Update.update,0.0,0.04337566667042362,0.0,0.0040799999994002665,0.047455666669823884
Insert.insertRows|Insert.update|CommandContainer.update,0.3167315038854994,0.0,0.03235150976146742,0.0,0.3490830136469668
JdbcConnection.checkClosed|JdbcConnection.checkClosed|JdbcResultSet.checkClosed,0.0,0.36423353332890346,0.0,0.04744900000017273,0.4116825333290762
JdbcConnection.checkClosed|JdbcStatement.checkClosed|JdbcPreparedStatement.checkClosed,0.2973244776808404,0.3090295333240647,0.04441277576781081,0.040611000001687596,0.6913777867744034
JdbcConnection.prepareCommand|JdbcConnection.rollbackInternal|JdbcConnection.rollback,0.0,0.060668666662725926,0.0,0.009350000000267757,0.07001866666299368
JdbcPreparedStatement.execute|TPCC.calculateSumDB|TPCC.calculateSumDB,0.06807860718601946,0.0,0.0051618029541050025,0.0,0.07324041014012446
JdbcPreparedStatement.setParameter|JdbcPreparedStatement.setInt|Standard.newOrder,0.0,0.0,0.0,0.0,0.0
JdbcPreparedStatement.setParameter|JdbcPreparedStatement.setShort|SimpleInsert.orderTable,0.040784888888689835,0.0,0.006333333333410943,0.0,0.04711822222210078
JdbcPreparedStatement.setParameter|JdbcPreparedStatement.setString|SimpleInsert.stockTable,0.1321120145250585,0.0,0.01174327251734437,0.0,0.14385528704240286
JdbcResultSet.getInt|Standard.newOrder|Submitter.runNewOrder,0.0,0.0,0.0,0.0,0.0
JdbcResultSet.getString|TPCC.calculateSumDB|TPCC.calculateSumDB,0.10398145816473972,0.11303733332897536,0.017856448168834006,0.009860000000116997,0.24473523966266608
JdbcResultSet.nextRow|JdbcResultSet.next|TPCC.calculateSumDB,0.030559573952504686,0.09694433333546235,0.003891369589782513,0.012640000000222546,0.1440352768779721
JdbcStatement.checkClosed|JdbcPreparedStatement.checkClosed|JdbcStatement.checkClosed,0.02048837775848065,0.26393566667684354,0.0017277483614706365,0.037520000000464876,0.32367179279725977
LocalResult.addRow|Select.queryFlat|Select.queryWithoutCache,0.038232533332969366,0.043314333335729316,0.004704000000007607,0.004039999999804422,0.0902908666685107
LocalResult.applyLimit|LocalResult.done|Select.queryWithoutCache,0.0,0.0,0.0,0.0,0.0
LocalResult.needToClose|Session.addTemporaryResult|ConditionExists.getValue,0.14472145945884374,0.0,0.01496000000039563,0.0,0.15968145945923937
LocalResult.next|ViewCursor.next|IndexCursor.next,0.10272207892859067,0.0,0.008834197529361284,0.0,0.11155627645795195
MathUtils.compare|ValueInt.compareSecure|Value.compareTypeSave,0.2742697410649613,0.07450366666307673,0.026378892756051143,0.009529999999358552,0.38468230048344776
MathUtils.compare|ValueShort.compareSecure|Value.compareTypeSave,0.04162599999957213,0.0,0.0095350000004449,0.0,0.051161000000017026
MultiVersionCursor.getSearchRow|IndexCursor.getSearchRow|TableFilter.next,0.6310025612424984,0.19597652380703254,0.05711729512096694,0.030780357142486447,0.9148767373129845
MultiVersionCursor.get|IndexCursor.get|TableFilter.get,0.0,0.08359800000228762,0.0,0.010884999999689171,0.09448300000197679
MultiVersionCursor.loadNext|MultiVersionCursor.next|IndexCursor.next,0.6225186099765068,0.330370083332673,0.06570851110824302,0.05777524999994057,1.0763724544173634
MultiVersionCursor.next|IndexCursor.next|TableFilter.next,1.3490992262647588,0.5083078166671232,0.14704686508065787,0.07818175000147676,2.0826356580140164
MultiVersionCursor.step|MultiVersionCursor.loadNext|MultiVersionCursor.next,0.29840192710947033,0.1822816666657066,0.02753843676027542,0.027282500000486227,0.5355045305359386
MultiVersionIndex.add|TableData.addRowsToIndex|TableData.addIndex,0.27353086634097284,0.0,0.02713418290057583,0.0,0.3006650492415487
MultiVersionIndex.compareRows|TableData$1.compare|TableData$1.compare,0.08383683626869046,0.0,0.008966838103048106,0.0,0.09280367437173856
MultiVersionIndex.find|IndexCursor.find|TableFilter.next,0.1554171430134177,0.05191049999848474,0.018504210948370983,0.008234999999785941,0.23406685396005936
NativeConstructorAccessorImpl.newInstance|DelegatingConstructorAccessorImpl.newInstance|Constructor.newInstance,0.0790247457914717,0.0,0.008348369628565017,0.0,0.08737311542003671
OERandom.randomDecimalString|SimpleInsert.orderTable|SimpleInsert.populateForOneWarehouse,0.06491378994857344,0.0,0.004960939646869226,0.0,0.06987472959544266
OERandom.randomIntPerm|SimpleInsert.orderTable|SimpleInsert.populateForOneWarehouse,0.033312040423824886,0.0,0.002393011773117697,0.0,0.03570505219694258
ObjectArray.add|LocalResult.addRow|Select.queryFlat,0.07464833000052659,0.0,0.007677617038013444,0.0,0.08232594703854004
ObjectArray.createArray|ObjectArray.<init>|ObjectArray.newInstance,0.14472145945884374,0.0,0.01496000000039563,0.0,0.15968145945923937
ObjectArray.createArray|ObjectArray.ensureCapacity|ObjectArray.add,0.02116913053741904,0.04972333332989365,0.0014482539028031465,0.004640000000411722,0.07698071777052755
ObjectArray.get|JdbcPreparedStatement.setParameter|JdbcPreparedStatement.setString,0.04358337369735893,0.0,0.003014885928067798,0.0,0.04659825962542673
ObjectArray.get|LocalResult.next|JdbcResultSet.nextRow,0.05860058808090068,0.10613500000423906,0.006780912851888967,0.014674999999442662,0.18619150093647138
ObjectArray.get|LocalResult.next|ViewCursor.next,0.1698663779784709,0.0,0.019788908234790244,0.0,0.18965528621326114
ObjectArray.get|ObjectArray$ObjectArrayIterator.next|IndexCursor.find,0.05461323775299127,0.0,0.005216864365372636,0.0,0.059830102118363905
ObjectArray.get|ObjectArray$ObjectArrayIterator.next|Select.isEverything,0.09197075497734328,0.0,0.006984530489398834,0.0,0.09895528546674211
ObjectArray.get|Prepared.checkParameters|CommandContainer.update,0.0,0.0,0.0,0.0,0.0
ObjectArray.get|Select.queryFlat|Select.queryWithoutCache,0.0603672165246144,0.13100199999947412,0.008530230939905684,0.018270000000484284,0.2181694474644785
ObjectArray.indexOf|Session.addLock|TableData.doLock,0.0915626416608146,0.0,0.012266397988445187,0.0,0.10382903964925978
ObjectArray.iterator|IndexCursor.find|TableFilter.next,0.10534330630574144,0.0,0.012165405405425073,0.0,0.11750871171116652
ObjectArray.iterator|Select.isEverything|Query.isEverything,0.10534330630574144,0.0,0.012165405405425073,0.0,0.11750871171116652
ObjectArray.iterator|TableFilter.getBestPlanItem|Plan.calculateCost,0.0,0.0,0.0,0.0,0.0
ObjectArray.newInstance|LocalResult.<init>|LocalResult.<init>,0.12359600000005835,0.0,0.010644999999688782,0.0,0.13424099999974715
ObjectArray.size|Query.getParameterValues|Query.query,0.06772866666748692,0.0,0.004469999999855645,0.0,0.07219866666734256
ObjectArray.sort|ObjectArray.sort|ObjectArray.sort,0.3358692104817618,0.0,0.029193683712523667,0.0,0.3650628941942855
ObjectArray.sort|ObjectArray.sort|TableData.addRowsToIndex,0.04684166666673704,0.0,0.004480000000264474,0.0,0.05132166666700151
ObjectArray.swap|ObjectArray.sort|ObjectArray.sort,0.20822409398311614,0.0,0.01917697889686937,0.0,0.2274010728799855
ObjectUtils.arrayCopy|ObjectArray.toArray|LocalResult.getList,0.11250261843655646,0.0,0.013574609564018215,0.0,0.12607722800057466
Parser.setSQL|Parser.parsePrepared|Parser.parse,0.0,0.0,0.0,0.0,0.0
Prepared.checkCanceled|Prepared.setCurrentRowNumber|Insert.insertRows,0.13901448325417046,0.0,0.011561884858607978,0.0,0.15057636811277844
Prepared.needRecompile|CommandContainer.recompileIfRequired|CommandContainer.update,0.0,0.0419465000013588,0.0,0.00585000000000946,0.04779650000136826
Prepared.setCurrentRowNumber|Insert.insertRows|Insert.update,0.0,0.04196912121485431,0.0,0.007312499999787895,0.049281621214642204
Prepared.setCurrentRowNumber|Update.update|CommandContainer.update,0.0,0.068013333332298,0.0,0.010820000000118549,0.07883333333241656
Query.closeLastResult|Query.query|ConditionExists.getValue,0.07830145946050893,0.0,0.008143873874502019,0.0,0.08644533333501095
Query.getParameterValues|Query.query|ConditionExists.getValue,0.34371704890949023,0.0,0.041063219823589986,0.0,0.38478026873308024
Query.query|CommandContainer.query|Command.executeQueryLocal,0.30000493436334313,0.36013244697279206,0.030552853703155827,0.05652454545404758,0.7472147804933387
Query.query|ConditionExists.getValue|ConditionNot.getValue,0.25123383119712567,0.0,0.024309781231442354,0.0,0.275543612428568
Record.isDeleted|TableData.removeRow|Delete.update,0.0,0.064714444443881,0.0,0.009104166666576121,0.07381861111045712
Row.getValue|BaseIndex.compareRows|MultiVersionIndex.compareRows,0.29401158399024996,0.0,0.028242707082115917,0.0,0.32225429107236586
Row.getValue|BaseIndex.compareRows|MultiVersionIndex.removeIfExists,0.0,0.09073899999687758,0.0,0.014010000000174234,0.10474899999705181
Row.getValue|BaseIndex.compareRows|TreeCursor.next,0.08077043539181061,0.2519991960799525,0.006672706084087151,0.032777058823931005,0.3722193963797813
Row.getValue|BaseIndex.compareRows|TreeIndex.add,0.35615587190287107,0.07029233333014417,0.03584244453719773,0.01096000000082616,0.4732506497710391
Row.getValue|BaseIndex.compareRows|TreeIndex.findFirstNode,0.5299686803157126,0.05356833332916722,0.05217818682359886,0.006799999999808884,0.6425152004682876
Row.getValue|TableFilter.getValue|ExpressionColumn.getValue,0.2743090979965622,0.09853100000085155,0.029615618991893092,0.012999999999616799,0.4154557169889237
Row.isEmpty|ScanIndex.getNextRow|ScanCursor.next,0.05116150569490214,0.08075353333454889,0.00736388510095632,0.00972800000041995,0.1490069241308273
Row.setValue|IndexCursor.getSearchRow|IndexCursor.find,0.03821599999985968,0.0,0.0037920000002486633,0.0,0.04200800000010835
Row.setValue|Insert.insertRows|Insert.update,0.10250781086719536,0.0,0.0092389852405843,0.0,0.11174679610777966
Row.setValue|Update.update|CommandContainer.update,0.0,0.061140705881567274,0.0,0.00955764705876765,0.07069835294033493
SHA256.getHash|SHA256.getKeyPasswordHash|ConnectionInfo.convertPasswords,0.07264015478306264,0.0,0.004049471430312126,0.0,0.07668962621337477
ScanIndex.getNextRow|ScanCursor.next|IndexCursor.next,0.20989298042488846,0.5741033372475524,0.031594216279632034,0.06748129411759032,0.8830718280696631
ScanIndex.getNextRow|ScanCursor.next|TableData.addIndex,0.41936058813000476,0.0,0.03833068939429217,0.0,0.45769127752429695
ScanIndex.incrementRowCount|ScanIndex.commit|UndoLogRecord.commit,0.0,0.05673839999750877,0.0,0.008788000000155685,0.06552639999766446
ScanIndex.incrementRowCount|ScanIndex.remove|TableData.removeRow,0.0,0.07046166666744587,0.0,0.010750000000270021,0.08121166666771588
Select.getCurrentGroup|ExpressionColumn.getValue|Comparison.getValue,0.07485674666628862,0.0,0.010406400000210852,0.0,0.08526314666649948
Select.isEverything|Query.isEverything|Query.query,0.10493090357848989,0.0,0.00848425162353702,0.0,0.11341515520202691
Select.isEverything|Query.isEverything|Query.sameResultAsLast,0.45001959217326065,0.0,0.04484195164058873,0.0,0.4948615438138494
Select.queryFlat|Select.queryWithoutCache|Query.query,0.5359206695082946,0.8573610000021289,0.05229245045117008,0.10632499999943926,1.551899119961033
Select.queryGroup|Select.queryWithoutCache|Query.query,0.0,0.027847250003105728,0.0,0.0045337499996094275,0.032381000002715155
Select.queryWithoutCache|Query.query|ConditionExists.getValue,0.2578928299302472,0.0,0.02709067294197138,0.0,0.2849835028722186
Session.<init>|Database.open|Database.openDatabase,0.0,0.04830466666890336,0.0,0.007779545454413341,0.0560842121233167
Session.commit|TransactionCommand.update|CommandContainer.update,0.11706457977557583,0.0,0.013144073198677369,0.0,0.1302086529742532
Session.getDatabase|Column.validateConvertUpdateSequence|Table.validateConvertUpdateSequence,0.07088233333342941,0.0,0.006669999999454982,0.0,0.0775523333328844
Session.getLogId|Command.executeUpdate|JdbcConnection.rollbackInternal,0.0,0.0,0.0,0.0,0.0
Session.hashCode|HashMap.hash|HashMap.containsKey,0.06808724644195445,0.0,0.007944073198668961,0.0,0.07603131964062342
Session.isClosed|JdbcConnection.checkClosed|JdbcConnection.checkClosed,0.0,0.11661799999516613,0.0,0.016335000000253785,0.13295299999541993
Session.isReconnectNeeded|JdbcConnection.checkClosed|JdbcConnection.checkClosed,0.0,0.14597599999494074,0.0,0.01590999999946992,0.16188599999441067
Session.isReconnectNeeded|JdbcConnection.checkClosed|JdbcStatement.checkClosed,0.056130385293091264,0.37044266667120007,0.008545685606790575,0.05028500000056132,0.48540373757164323
SimpleInsert.customerTable|SimpleInsert.populateForOneWarehouse|SimpleInsert.populateAllTables,0.13245159946252189,0.0,0.013765084249918113,0.0,0.14621668371244
SimpleInsert.itemTable|SimpleInsert.populateAllTables|ThreadInsert.populateAllTables,0.0,0.04196912121485431,0.0,0.007312499999787895,0.049281621214642204
SimpleInsert.orderTable|SimpleInsert.populateForOneWarehouse|SimpleInsert.populateAllTables,0.11962891596932826,0.0,0.00871778504049369,0.0,0.12834670100982196
SimpleInsert.stockTable|SimpleInsert.populateForOneWarehouse|SimpleInsert.populateAllTables,0.39274427337486206,0.0,0.0371033846406256,0.0,0.42984765801548763
Standard.newOrder|Submitter.runNewOrder|TPCCSubmitter.runTransaction,0.0,0.0,0.0,0.0,0.0
Standard.sortOrderItems|Standard.newOrder|Submitter.runNewOrder,0.058388616517027085,0.0,0.004856644430432579,0.0,0.06324526094745966
Standard.stockLevel|Submitter.runStockLevel|TPCCSubmitter.runTransaction,0.030456964717262325,0.0,0.0043005594338236365,0.0,0.03475752415108596
StreamEncoder.implWrite|StreamEncoder.write|OutputStreamWriter.write,0.0,0.0,0.0,0.0,0.0
StringCache.get|ValueString.get|JdbcPreparedStatement.setString,0.1656389755126646,0.0,0.014363827175405297,0.0,0.1800028026880699
Submitter.warehouse|Submitter.runNewOrder|TPCCSubmitter.runTransaction,0.0,0.0,0.0,0.0,0.0
SysProperties.<clinit>|ConnectionInfo.<clinit>|JdbcConnection.<init>,0.0,0.07187899999553338,0.0,0.011590000000069269,0.08346899999560264
TPCC$3.run,0.0,0.0,0.0,0.0,0.0
TPCC.calculateSumDB|TPCC.calculateSumDB|TPCC.preIterationMemoryDB,1.1858022582254313,0.0,0.14091523488192848,0.0,1.3267174931073598
TPCCSubmitter.runTransactions|TPCC$3.run|end.end,0.0,0.0,0.0,0.0,0.0
Table.compareTypeSave|BaseIndex.compareValues|BaseIndex.compareRows,0.28794724836621094,0.03332500000154444,0.03449593671611516,0.004479999999603025,0.36024818508347356
Table.fireBeforeRow|Insert.insertRows|Insert.update,0.09925691292893814,0.0,0.008650688861794459,0.0,0.1079076017907326
Table.getTemplateRow|IndexCursor.getSearchRow|IndexCursor.find,0.20827171971540986,0.0,0.017084575137562355,0.0,0.2253562948529722
Table.getTemplateRow|Insert.insertRows|Insert.update,0.1112826814344668,0.0,0.008619234452657266,0.0,0.11990191588712407
Table.getTemplateRow|ViewCursor.next|IndexCursor.next,0.139266199998868,0.0,0.014764000000529146,0.0,0.15403019999939715
Table.validateConvertUpdateSequence|Insert.insertRows|Insert.update,0.16700226175514846,0.0,0.01344211240138966,0.0,0.1804443741565381
TableData$1.compare|ObjectArray.sort|ObjectArray.sort,0.19746939926780227,0.0,0.019753530219467002,0.0,0.21722292948726926
TableData$1.compare|TableData$1.compare|ObjectArray.sort,0.4697385400474593,0.0,0.04311895672526245,0.0,0.5128574967727217
TableData.addIndex|AlterTableAddConstraint.createIndex|AlterTableAddConstraint.tryUpdate,0.3422255431620262,0.0,0.03124942866922547,0.0,0.37347497183125167
TableData.addIndex|CreateIndex.update|CommandContainer.update,0.07476025641013763,0.0,0.007376923076662933,0.0,0.08213717948680056
TableData.addRowsToIndex|TableData.addIndex|AlterTableAddConstraint.createIndex,0.05351925338480864,0.0,0.004284312406574718,0.0,0.057803565791383356
TableData.addRowsToIndex|TableData.addIndex|AlterTableAddConstraint.tryUpdate,0.18738350416516977,0.0,0.019928437499341572,0.0,0.20731194166451133
TableData.addRow|Insert.insertRows|Insert.update,0.0415195128205083,0.0,0.0048542307690345645,0.0,0.04637374358954287
TableData.lock|Insert.insertRows|Insert.update,0.0,0.0,0.0,0.0,0.0
TableData.traceLock|TableData.doLock|TableData.lock,0.03778782228937912,0.0,0.0027155415880038983,0.0,0.040503363877383014
TableFilter.getValue|ExpressionColumn.getValue|Comparison.getValue,0.11718499557556791,0.5040107539274294,0.01687889505852335,0.07147829411772309,0.7095529386792438
TableFilter.getValue|ExpressionColumn.getValue|Select.queryFlat,0.11102391454103615,0.03161633333365898,0.01549833767463693,0.003600000000005821,0.16173858554933787
TableFilter.isOk|TableFilter.next|Select.queryFlat,0.03294869664000643,0.19666058332950342,0.0033819529538147448,0.02133999999993345,0.25433123292325804
TableFilter.next|Delete.update|CommandContainer.update,0.0,0.03179940000118222,0.0,0.0042959999998856795,0.036095400001067895
TableFilter.next|Select.queryFlat|Select.queryWithoutCache,0.6426523287668167,0.06886800000211224,0.07900933727114158,0.007870000000669581,0.7983996660407401
TableFilter.next|Update.update|CommandContainer.update,0.0,0.1354979999984304,0.0,0.017990000000888053,0.15348799999931845
Trace.isEnabled|Trace.isDebugEnabled|TableData.traceLock,0.22514249846835271,0.0,0.02192882194189858,0.0,0.2470713204102513
Trace.isEnabled|Trace.isDebugEnabled|TraceObject.debugCodeCall,0.0,0.139587333338568,0.0,0.01981000000099205,0.15939733333956005
Trace.isEnabled|Trace.isInfoEnabled|Command.stop,0.0,0.0,0.0,0.0,0.0
TraceObject.<init>|JdbcResultSet.<init>|JdbcPreparedStatement.executeQuery,0.07686329829930515,0.0,0.009572080176065131,0.0,0.08643537847537028
TraceObject.debugCodeCall|JdbcResultSet.getString|TPCC.calculateSumDB,0.0,0.17048650000409302,0.0,0.024684999999256736,0.19517150000334976
TraceObject.logAndConvert|JdbcResultSet.getInt|Standard.newOrder,0.0,0.0,0.0,0.0,0.0
TraceSystem.getTrace|Database.getTrace|Session.getTrace,0.213224006549266,0.057454444445385076,0.020205434792746668,0.008220000000114344,0.29910388578751207
TransactionCommand.update|CommandContainer.update|Command.executeUpdate,0.03768918723288983,0.0,0.003415114749371079,0.0,0.04110430198226091
TreeCursor.get|MultiVersionIndex.removeIfExists|MultiVersionIndex.add,0.08948390704712116,0.0,0.007767161215602742,0.0,0.0972510682627239
TreeCursor.next|MultiVersionCursor.step|MultiVersionCursor.loadNext,0.36494952379934004,0.0,0.03690406449099172,0.0,0.40185358829033174
TreeCursor.next|MultiVersionIndex.removeIfExists|MultiVersionIndex.remove,0.0,0.042181944445474066,0.0,0.006833333333512806,0.04901527777898687
TreeIndex.add|MultiVersionIndex.add|TableData.addRow,0.0,0.048644999997729116,0.0,0.0046599999999064785,0.05330499999763559
TreeIndex.add|MultiVersionIndex.add|TableData.addRowsToIndex,0.4818221212601159,0.0,0.044258244303108346,0.0,0.5260803655632242
TreeIndex.balance|TreeIndex.add|MultiVersionIndex.add,0.5779033458309791,0.0,0.05733376906871537,0.0,0.6352371148996945
TreeIndex.findFirstNode|TreeIndex.find|MultiVersionIndex.find,0.3615268916770132,0.0,0.043608362830731814,0.0,0.405135254507745
TreeIndex.findFirstNode|TreeIndex.find|MultiVersionIndex.removeIfExists,0.1190082111194647,0.0,0.010342093102659745,0.0,0.12935030422212446
TreeIndex.findFirstNode|TreeIndex.remove|MultiVersionIndex.remove,0.0,0.042181944445474066,0.0,0.006833333333512806,0.04901527777898687
TreeIndex.find|MultiVersionIndex.find|IndexCursor.find,0.23002270834185085,0.0,0.019447012094839525,0.0,0.24946972043669036
TreeIndex.find|MultiVersionIndex.removeIfExists|MultiVersionIndex.add,0.12480175000109739,0.0,0.015007500000137952,0.0,0.13980925000123534
TreeIndex.next|TreeCursor.next|MultiVersionCursor.step,0.914673069494246,0.5796889333408519,0.0829277273508382,0.09191399999908752,1.6692037301850235
TreeIndex.next|TreeCursor.next|MultiVersionIndex.removeIfExists,0.0,0.06787099999686083,0.0,0.009639999999611366,0.0775109999964722
TreeIndex.remove|MultiVersionIndex.remove|TableData.removeRow,0.0,0.0,0.0,0.0,0.0
TreeIndex.replace|TreeIndex.balance|TreeIndex.add,0.05083007999957771,0.0,0.006987599999411031,0.0,0.05781767999898874
TreeIndex.set|TreeIndex.balance|TreeIndex.add,0.0,0.0,0.0,0.0,0.0
TreeIndex.set|TreeIndex.replace|TreeIndex.balance,0.05351925338480864,0.0,0.004284312406574718,0.0,0.057803565791383356
Update.update|CommandContainer.update|Command.executeUpdate,0.0,0.08870446666357262,0.0,0.011855999999655371,0.10056046666322799
Value.cache|ValueString.get|JdbcPreparedStatement.setString,0.19759613721289482,0.0,0.014180484157776015,0.0,0.21177662137067083
Value.cache|ValueStringFixed.get|Value.convertTo,0.11897755555562776,0.0,0.011469999999664852,0.0,0.1304475555552926
Value.checkPrecision|Column.validateConvertUpdateSequence|Table.validateConvertUpdateSequence,0.1033413824739241,0.03475347777744496,0.014941870351779294,0.005412333333232607,0.15844906393638097
Value.compareTo|Database.areEqual|Comparison.compareNotNull,0.0,0.12819399999959086,0.0,0.019114999999753003,0.14730899999934385
Value.compareTypeSave|Table.compareTypeSave|BaseIndex.compareValues,1.3531111466421728,0.0,0.15828055392888532,0.0,1.5113917005710582
Value.convertTo|Column.convert|IndexCursor.find,0.054463666667288635,0.0,0.005340000000311799,0.0,0.05980366666760043
Value.convertTo|Column.convert|Insert.insertRows,0.07290138165393857,0.0,0.006392409527667237,0.0,0.0792937911816058
Value.convertTo|Comparison.getValue|ConditionAndOr.getValue,0.0,0.0,0.0,0.0,0.0
ValueExpression.getValue|Select.queryFlat|Select.queryWithoutCache,0.041791782124478614,0.0,0.004189600103178457,0.0,0.045981382227657075
ValueInt.compareSecure|Value.compareTypeSave|Table.compareTypeSave,0.43788179010737327,0.2920796999955201,0.04678089421027366,0.044719999999809565,0.8214623843129766
ValueInt.get|JdbcPreparedStatement.setInt|SimpleInsert.orderTable,0.039673000000523935,0.0,0.003920000001016889,0.0,0.04359300000154082
ValueLong.get|AggregateData.getValue|Aggregate.getValue,0.0,0.0,0.0,0.0,0.0
ValueShort.compareSecure|Value.compareTypeSave|Table.compareTypeSave,0.1435819654335387,0.04028333333553746,0.011019266045301533,0.006819999999909972,0.2017045648142877
ValueShort.equals|Value.cache|ValueShort.get,0.05670440213353287,0.0,0.005074177051156799,0.0,0.06177857918468967
ValueShort.get|Value.convertTo|Column.convert,0.11245331861572497,0.0,0.009865953302114884,0.0,0.12231927191783985
ValueString.get|JdbcPreparedStatement.setString|SimpleInsert.stockTable,0.10250781086719536,0.0,0.0092389852405843,0.0,0.11174679610777966
ValueStringFixed.equals|Value.cache|ValueStringFixed.get,0.07781430302985068,0.0,0.0077272727269728685,0.0,0.08554157575682354
ValueStringFixed.get|Value.convertTo|Column.convert,0.048080623324098785,0.0,0.003717122544819583,0.0,0.05179774586891837
ValueStringFixed.trimRight|ValueStringFixed.get|Value.convertTo,0.048080623324098785,0.0,0.003717122544819583,0.0,0.05179774586891837
ValueTimestamp.getNoCopy|ValueTimestamp.get|JdbcPreparedStatement.setTimestamp,0.0768748556589812,0.0,0.005851909520739515,0.0,0.0827267651797207
ValueTimestamp.getString|JdbcResultSet.getString|TPCC.calculateSumDB,0.0,0.05139166666776873,0.0,0.005619999999908032,0.057011666667676764
ViewCursor.next|IndexCursor.next|TableFilter.next,0.03434697662706899,0.0,0.0032658757998299376,0.0,0.03761285242689893
ZoneInfo.getOffsets|AbstractCalendar.getCalendarDate|Gregorian.getCalendarDate,0.0,0.04453533333435189,0.0,0.004845000000083624,0.04938033333443551
ZoneInfo.getOffsets|ZoneInfo.getOffsets|AbstractCalendar.getCalendarDate,0.0,0.03992506666885068,0.0,0.004336000000087855,0.04426106666893853
ZoneInfo.getTransitionIndex|ZoneInfo.getOffsets|ZoneInfo.getOffsets,0.0,0.050883000003523186,0.0,0.006184999999580517,0.057068000003103705
ZoneInfoFile.getZoneInfo|ZoneInfoFile.getZoneInfo|ZoneInfoFile.getZoneInfo0,0.0,0.0521418333373731,0.0,0.008434999999659945,0.060576833337033044
