method,package1,package2,dram1,dram2,energy
AbstractStringBuilder.append|StringBuffer.append|Timestamp.toString,0.42369234058095595,0.21095733333883496,0.019242554063453113,0.05188500000015968,0.7057772279834037
AbstractStringBuilder.append|StringBuilder.append|MessageFormat.applyPattern,0.0,0.0,0.0,0.0,0.0
AbstractStringBuilder.ensureCapacityInternal|AbstractStringBuilder.append|StringBuffer.append,0.1621597580285697,0.0,0.006682645441154564,0.0,0.16884240346972426
AbstractStringBuilder.ensureCapacityInternal|AbstractStringBuilder.append|StringBuilder.append,0.038633877466762036,0.0,0.002267090921002433,0.0,0.04090096838776447
AbstractStringBuilder.newCapacity|AbstractStringBuilder.ensureCapacityInternal|AbstractStringBuilder.append,0.12912290611723815,0.18686978739081483,0.0066379757954820465,0.039440390024894134,0.36207105932842915
AccessController.doPrivileged|URLClassLoader.findClass|DacapoClassLoader.loadClass,0.02606214285749177,0.0,0.004647857142637284,0.0,0.03071000000012905
Arrays.copyOfRange|StringBuffer.toString|Timestamp.toString,0.07127823952228733,0.06811533333287419,0.0019438302413299568,0.01657499999995101,0.1579124030964425
Arrays.copyOf|AbstractStringBuilder.ensureCapacityInternal|AbstractStringBuilder.append,0.26991973875250497,0.4608117583893401,0.009969002112218003,0.0933652908045282,0.8340657900585912
Arrays.copyOf|Resource.getBytes|URLClassLoader.defineClass,0.011284666666647855,0.0,0.001795000000129221,0.0,0.013079666666777076
AtomicLong.compareAndSet|Random.next|Random.nextDouble,0.0,0.1911758888907368,0.0,0.026051666666868787,0.2172275555576056
BigDecimal.<init>|BigDecimal.<init>|BigDecimal.<init>,0.0,0.3468750052864807,0.0,0.04931189763962347,0.39618690292610415
BigDecimal.<init>|BigDecimal.add|BigDecimal.add,0.04882800000066506,0.0,0.003546666666402921,0.0,0.052374666667067984
BigDecimal.divideAndRound|BigDecimal.setScale|MathUtils.setScale,0.05464666666739504,0.0,0.0040800000006129275,0.0,0.058726666668007965
BigDecimal.layoutChars|BigDecimal.toString|ValueDecimal.getString,0.03411199068551408,0.0,0.0,0.0,0.03411199068551408
BigDecimal.movePointLeft|ValueTimestamp.convertScale|Column.validateConvertUpdateSequence,0.0,0.06481120000050092,0.0,0.008720000000175787,0.0735312000006767
BigDecimal.multiply|ValueDecimal.multiply|Operation.getValue,0.0,0.015671918461131456,0.0,0.002146987006791832,0.017818905467923286
BigDecimal.setScale|BigDecimal.toBigInteger|BigDecimal.intValue,0.0,0.09332864747322508,0.0,0.011556371195055901,0.10488501866828098
BigInteger.<init>|BigInteger.valueOf|BigDecimal.inflated,0.0,0.0,0.0,0.0,0.0
BigInteger.pow|BigDecimal.<init>|BigDecimal.<init>,0.0,0.05024318394373256,0.0,0.0071509797372335876,0.05739416368096615
BigInteger.valueOf|BigDecimal.inflated|BigDecimal.unscaledValue,0.0,0.222802646771192,0.0,0.025717746888892827,0.24852039366008483
BufferedInputStream.read|DataInputStream.readInt|IntegerInfo.<init>,0.0363871666668274,0.0,0.006109999999959351,0.0,0.04249716666678675
CharacterData.of|Character.toUpperCaseEx|String.toUpperCase,0.0,0.0,0.0,0.0,0.0
ClassLoader.defineClass1|ClassLoader.defineClass|SecureClassLoader.defineClass,0.023106142856704537,0.0,0.0020914285716051896,0.0,0.025197571428309726
ClassLoader.findBootstrapClass|ClassLoader.findBootstrapClassOrNull|ClassLoader.loadClass,0.006147142856726921,0.0,0.00100714285716614,0.0,0.007154285713893061
ClassLoader.findLoadedClass0|ClassLoader.findLoadedClass|ClassLoader.loadClass,0.07873533333380085,0.0,0.009884999999485444,0.0,0.0886203333332863
ConcurrentHashMap.casTabAt|ConcurrentHashMap.transfer|ConcurrentHashMap.addCount,0.026366919038635347,0.0,0.0011964145821444347,0.0,0.02756333362077978
Date.getTime|Timestamp.getTime|Date.equals,0.0,0.03871371428803762,0.0,0.004651428571551583,0.0433651428595892
Date.normalize|Date.getDate|Timestamp.toString,0.16789980291647416,0.0,0.006362504474030792,0.0,0.17426230739050497
Date.normalize|Date.getHours|Timestamp.toString,0.0,0.1191206666699145,0.0,0.02904499999961748,0.148165666669532
Date.normalize|Date.getMinutes|Timestamp.toString,0.0,0.12121163945366473,0.0,0.02553991806716094,0.14675155752082567
Date.normalize|Date.getYear|Timestamp.toString,0.04626150272320029,0.0,0.0,0.0,0.04626150272320029
FileOutputStream.writeBytes|FileOutputStream.write|BufferedOutputStream.write,0.14712533333416405,0.0,0.018800000001344113,0.0,0.16592533333550816
Formatter.parse|Formatter.format|PrintStream.format,0.0,0.0,0.0,0.0,0.0
HashMap.getNode|HashMap.get|ExpressionColumn.getValue,0.04264333333331806,0.06835933333301605,0.003633333333305523,0.01657499999995101,0.13121099999959066
HashMap.hash|HashMap.get|ExpressionColumn.getValue,0.11456333333141328,0.0,0.019629999999475935,0.0,0.1341933333308892
HashMap.hash|HashMap.put|HashSet.add,0.033406444443648466,0.0,0.0023733333332024305,0.0,0.035779777776850895
HashMap.hash|HashMap.remove|HashSet.remove,0.0,0.08332999999968,0.0,0.012437499999830631,0.09576749999951062
HashMap.putVal|HashMap.put|HashSet.add,0.0,0.09039300000101017,0.0,0.010889999999562859,0.10128300000057303
HashMap.putVal|HashMap.put|JdbcResultSet.getColumnIndex,0.0,0.0,0.0,0.0,0.0
HashMap.removeNode|HashMap.remove|HashSet.remove,0.0,0.06209041666807025,0.0,0.008078124999997272,0.07016854166806752
HashMap.resize|HashMap.putVal|HashMap.put,0.0,0.0,0.0,0.0,0.0
Inflater.inflateBytes|Inflater.inflate|InflaterInputStream.read,0.42351733333180164,0.0,0.044004999999591135,0.0,0.46752233333139276
Integer.getChars|Integer.toString|String.valueOf,0.12845913245006102,0.19378121740010107,0.0038852448507533366,0.04526942283277409,0.3713950175336895
Integer.getChars|Integer.toString|Timestamp.toString,0.08196377988809957,0.29248203581645216,0.0020320858317206176,0.06622923989264712,0.4427071414289194
Integer.stringSize|AbstractStringBuilder.append|StringBuilder.append,0.0,0.0,0.0,0.0,0.0
Integer.stringSize|Integer.toString|Timestamp.toString,0.0,0.06760666666862865,0.0,0.016654999999749027,0.08426166666837767
Integer.toString|String.valueOf|ValueInt.getString,0.3645184137266616,0.15121118933132444,0.01021790072129461,0.029549678359241726,0.5554971821385224
Integer.toString|String.valueOf|ValueShort.getString,0.32451392838882437,0.3954307695339809,0.009992263311669615,0.08625555201268921,0.816192513247164
Integer.toString|Timestamp.toString|ValueTimestamp.getString,0.31801580460271833,0.24931381262591337,0.00854214256622831,0.05784736925040788,0.633719129045268
JarFile$JarFileEntry.<init>|JarFile.getEntry|JarFile.getJarEntry,0.04158846153866482,0.0,0.006881538461759471,0.0,0.04847000000042429
JarFile.initializeVerifier|JarFile.getInputStream|URLClassPath$JarLoader$2.getInputStream,0.03071600000021135,0.0,0.00045000000000072765,0.0,0.031166000000212076
Locale.getDefault|MessageFormat.<init>|MessageFormat.format,0.0,0.0,0.0,0.0,0.0
Long.toString|Long.toString|BigInteger.smallToString,0.0,0.0378725000009581,0.0,0.00639750000004824,0.04427000000100634
Math.min|Arrays.copyOf|Resource.getBytes,0.023106142856704537,0.0,0.0020914285716051896,0.0,0.025197571428309726
MutableBigInteger.add|BigDecimal.divideAndRound|BigDecimal.setScale,0.0,0.01886000221144044,0.0,0.003351513381415787,0.022211515592856227
MutableBigInteger.divideMagnitude|MutableBigInteger.divideKnuth|MutableBigInteger.divide,0.0,0.0,0.0,0.0,0.0
MutableBigInteger.divide|MutableBigInteger.divide|BigInteger.smallToString,0.0,0.08756974074209142,0.0,0.009609444444558229,0.09717918518664966
Object.<init>|ObjectArray$ObjectArrayIterator.<init>|ObjectArray.iterator,0.04694911857722076,0.0,0.0011552890292593136,0.0,0.048104407606480076
Object.<init>|Parser.<init>|CommandContainer.recompileIfRequired,0.0,0.04711478570991063,0.0,0.0064063590313092325,0.05352114474121986
Object.clone|Date.clone|ValueTimestamp.getTimestamp,0.0,0.058054461870834274,0.0,0.00811188240836217,0.06616634427919645
Object.hashCode|HashMap.hash|HashMap.remove,0.0,0.06683333333462038,0.0,0.00910000000026735,0.07593333333488773
Object.wait|Command.executeUpdate|JdbcPreparedStatement.executeUpdateInternal,0.09114566666661024,0.0,0.00825500000003861,0.0,0.09940066666664885
Random.nextDouble|OERandom.randomInt|OERandom.randomAString8_16,0.0,0.03581750000012107,0.0,0.005094999999982974,0.040912500000104046
Random.next|Random.nextDouble|OERandom.randomInt,0.0,0.0,0.0,0.0,0.0
SimpleDateFormat.initializeCalendar|SimpleDateFormat.<init>|SimpleDateFormat.<init>,0.03926600000017465,0.0,0.00360500000008162,0.0,0.04287100000025627
SoftReference.get|Value.cache|ValueShort.get,0.0,0.0,0.0,0.0,0.0
String.<init>|String.substring|Timestamp.toString,0.0,0.058944269552216336,0.0,0.011709004260553156,0.0706532738127695
String.<init>|Timestamp.toString|ValueTimestamp.getString,0.040845161217331255,0.1960243333354204,0.0005736053348617071,0.04561000000012427,0.28305309988773764
String.charAt|TPCC.calculateSumDB|TPCC.calculateSumDB,0.25103583692530335,0.0,0.023961386631474745,0.0,0.2749972235567781
String.equals|HashMap.putVal|HashMap.put,0.0,0.05433025067818214,0.0,0.008388530578052927,0.06271878125623506
String.getChars|AbstractStringBuilder.append|StringBuffer.append,0.109888394950325,0.3299103425818536,0.0025252267918467433,0.07397047818308891,0.5162944425071142
String.hashCode|StringCache.get|ValueString.get,0.0,0.12081929999743199,0.0,0.01683399999986553,0.13765329999729753
String.length|AbstractStringBuilder.append|StringBuffer.append,0.08280927836866514,0.0,0.002884744974200401,0.0,0.08569402334286554
String.length|String.concat|OERandom.randomAString26_50,0.0,0.10249197839869724,0.0,0.01236688035730279,0.11485885875600003
String.length|TPCC.calculateSumDB|TPCC.calculateSumDB,0.0232370599221558,0.0,0.0007352645501134474,0.0,0.023972324472269248
String.valueOf|ValueInt.getString|JdbcResultSet.getString,0.04146523976919733,0.0486251085185134,0.00299295067595764,0.00804286950232193,0.1011261684659903
StringBuffer.append|OERandom.randomDecimalString|SimpleInsert.orderTable,0.0,0.07779389873714354,0.0,0.010567213516309949,0.08836111225345349
StringBuffer.append|Timestamp.toString|ValueTimestamp.getString,0.048930124392526704,0.08443199999358815,0.004904472778295185,0.01860999999977745,0.15687659716418748
StringBuffer.append|URLStreamHandler.toExternalForm|URL.toExternalForm,0.02011542857144377,0.0,0.0002571428571432729,0.0,0.02037257142858704
StringBuffer.setLength|OERandom.randomDecimalString|SimpleInsert.orderTable,0.0,0.061952347470000724,0.0,0.008867371195076818,0.07081971866507754
StringBuffer.toString|Timestamp.toString|ValueTimestamp.getString,0.07938666666692976,0.0,0.010899999999916568,0.0,0.09028666666684633
StringBuilder.toString|Timestamp.toString|ValueTimestamp.getString,0.030056478645861494,0.0,0.0,0.0,0.030056478645861494
System.identityHashCode|IdentityHashMap.hash|IdentityHashMap.get,0.0865147754555225,0.0,0.010399663718538218,0.0,0.09691443917406072
Throwable.fillInStackTrace|Throwable.fillInStackTrace|Throwable.<init>,0.02549919999954808,0.15142384426353503,0.001589333333282007,0.025278885640346634,0.20379126323671176
TimeZone.getDefaultRef|Date.normalize|Date.getDate,0.2769203225050013,0.0,0.009046906473970724,0.0,0.28596722897897203
TimeZone.getDefaultRef|Date.normalize|Date.getHours,0.038013345000388485,0.0,0.0017191384313920619,0.0,0.03973248343178055
Timestamp.toString|ValueTimestamp.getString|JdbcResultSet.getString,0.1528947794725958,0.3101512818830607,0.007775260395675384,0.06841333594560814,0.53923465769694
URLClassLoader$1.run|URLClassLoader$1.run|AccessController.doPrivileged,0.03300644444445626,0.0,0.005401666666835403,0.0,0.038408111111291665
WeakHashMap.put|ZipFile.getInputStream|JarFile.getInputStream,0.02606214285749177,0.0,0.004647857142637284,0.0,0.03071000000012905
ZipFile.getInputStream|JarFile.getInputStream|JarURLConnection.getInputStream,0.0,0.0,0.0,0.0,0.0
ZipFile.read|ZipFile.access$1400|ZipFile$ZipFileInputStream.read,0.06266299999939898,0.0,0.005869999999655797,0.0,0.06853299999905478
