method,hits
AbstractStringBuilder.<init>,26
AbstractStringBuilder.append,8
AbstractStringBuilder.ensureCapacityInternal,20
ArrayList$Itr.next,2
ArrayList.add,2
Arrays.copyOf,6
Arrays.copyOfRange,18
Arrays.fill,2
AtomicLong.compareAndSet,12
BigDecimal.<init>,14
BigDecimal.checkScale,2
BigDecimal.layoutChars,2
BigDecimal.longMultiplyPowerTen,2
BigDecimal.movePointRight,2
BigDecimal.setScale,2
BigInteger.<init>,2
BigInteger.getInt,2
BigInteger.implSquareToLenChecks,2
BigInteger.longValue,2
BigInteger.smallToString,2
BigInteger.valueOf,2
Boolean.booleanValue,2
BufferedInputStream.read,4
Character.getType,2
ClassLoader.defineClass1,2
ClassLoader.findBootstrapClass,2
ClassLoader.getPackage,2
ConcurrentHashMap.transfer,2
Date.getMinutes,2
Date.getTimeImpl,4
Date.normalize,2
Double.longBitsToDouble,2
FileOutputStream.writeBytes,2
Formatter$Flags.<clinit>,2
Formatter$FormatSpecifier.checkNumeric,2
HashMap.getNode,14
HashMap.hash,2
HashMap.putVal,2
HashMap.removeNode,10
HashSet.<init>,4
HashSet.remove,2
Inflater.inflateBytes,30
Integer.getChars,52
Integer.toString,154
Integer.valueOf,2
Long.getChars,2
Long.toString,2
MessageFormat.<init>,2
MutableBigInteger.<init>,4
Object.<init>,4
Object.hashCode,8
Object.wait,52
Random.next,12
Random.nextDouble,2
String.<init>,4
String.charAt,6
String.equals,2
String.getChars,8
String.hashCode,4
String.length,4
String.startsWith,2
String.substring,6
String.toCharArray,4
String.toUpperCase,4
StringBuffer.append,22
StringBuilder.<init>,4
StringBuilder.toString,6
Thread.start0,2
Throwable.fillInStackTrace,8
TimeZone.getDefaultRef,6
Timestamp.toString,26
ZipCoder.getBytes,2
ZipFile.read,2
