method,package1,package2,dram1,dram2,energy
AbstractStringBuilder.<init>,0.06061505640432139,0.6195649457890883,0.004247802068088039,0.11147609337376439,0.7959038976352621
AbstractStringBuilder.append,0.050202106489687336,0.310324402959785,0.004612035754396982,0.056879458299339485,0.4220180035032088
AbstractStringBuilder.ensureCapacityInternal,0.03888177777709508,0.1042880844987962,0.0032355555562793995,0.01887723514667898,0.1652826529788497
AbstractStringBuilder.newCapacity,0.044184873904564485,0.0,0.004046424818254259,0.0,0.04823129872281874
ArrayList$Itr.next,0.04204722894461712,0.0,0.005028933702170226,0.0,0.047076162646787344
ArrayList.elementData,0.0,0.0,0.0,0.0,0.0
Arrays.copyOf,0.3923001213064577,0.0,0.03794647701428162,0.0,0.4302465983207393
Arrays.copyOfRange,0.15661054758727191,0.26950166117459007,0.01750901290668568,0.046958160760777495,0.4905793824293251
AtomicLong.compareAndSet,0.2573262987220628,0.0,0.035511900559519326,0.0,0.2928381992815821
BigDecimal.<init>,0.059793999999480235,0.0,0.010899999999916568,0.0,0.07069399999939681
BigDecimal.add,0.025553333332936745,0.0,0.002354999999928016,0.0,0.02790833333286476
BigDecimal.hashCode,0.02305263662485633,0.0,0.0027621064928377123,0.0,0.025814743117694043
BigDecimal.layoutChars,0.026465820913087613,0.0,0.002087095964001764,0.0,0.028552916877089378
BigDecimal.movePointLeft,0.041655607375514096,0.0,0.005524518257140635,0.0,0.04718012563265473
BigDecimal.movePointRight,0.07119878680972665,0.0,0.009356096027771156,0.0,0.0805548828374978
BigDecimal.setScale,0.037506498150585314,0.0,0.004920913953656756,0.0,0.04242741210424207
BigInteger.<init>,0.0,0.0,0.0,0.0,0.0
BigInteger.getInt,0.04124107380838332,0.0,0.006144046192553847,0.0,0.04738512000093717
BigInteger.smallToString,0.06984881148717047,0.0,0.009975599320505693,0.0,0.07982441080767616
Boolean.booleanValue,0.0539486887650664,0.0,0.009319652498010028,0.0,0.06326834126307643
Boolean.equals,0.03645833333333333,0.0,0.0006000000000009701,0.0,0.037058333333334297
BufferedInputStream.read,0.14944562222327945,0.0,0.018480424241487978,0.0,0.16792604646476744
ClassLoader.defineClass1,0.11844255486466582,0.0,0.014426557161548986,0.0,0.1328691120262148
ClassLoader.findBootstrapClass,0.100846400000349,0.0,0.013080000000384949,0.0,0.11392640000073395
Collections$SynchronizedCollection.size,0.0,0.0,0.0,0.0,0.0
Date.clone,0.04317888438283353,0.0,0.004684507489884471,0.0,0.047863391872718
Date.getDate,0.04687691848896805,0.0,0.0035011238225129337,0.0,0.050378042311480985
Date.getSeconds,0.043862559437915984,0.0,0.004064932693653186,0.0,0.04792749213156917
Date.getTimeImpl,0.022648027758024686,0.0497696191397167,0.0019537945601969427,0.007889767877014639,0.08226120933495296
FileOutputStream.writeBytes,0.07446293333293094,0.0,0.00954399999900488,0.0,0.08400693333193582
Formatter.parse,0.0,0.0,0.0,0.0,0.0
HashMap$Node.<init>,0.07379133333233767,0.0,0.006250000000363798,0.0,0.08004133333270147
HashMap.<init>,0.11794033333353582,0.0,0.016910000000279982,0.0,0.1348503333338158
HashMap.getNode,0.06523818092008349,0.0,0.009625003919011103,0.0,0.0748631848390946
HashMap.hash,0.07907639425170983,0.0,0.008614648754718904,0.0,0.08769104300642873
HashMap.newNode,0.07045049922382121,0.0,0.008658348982134927,0.0,0.07910884820595614
HashMap.putVal,0.0453782872123521,0.0,0.006691303443397844,0.0,0.05206959065574994
HashMap.removeNode,0.07700191956308912,0.0,0.009986011569792327,0.0,0.08698793113288145
HashMap.resize,0.0,0.0,0.0,0.0,0.0
HashMap.tableSizeFor,0.03645324999979493,0.0,0.0017550000002302113,0.0,0.03820825000002514
HashSet.<init>,0.0509811997664926,0.0,0.009165043149802205,0.0,0.060146242916294806
HashSet.remove,0.11307299699313683,0.0,0.015822809803636227,0.0,0.12889580679677307
Hashtable.keySet,0.04940180000048712,0.0,0.007344000000011873,0.0,0.056745800000498996
IdentityHashMap.get,0.0,0.0,0.0,0.0,0.0
Inflater.inflateBytes,0.6171877003698493,0.0,0.0879075372231696,0.0,0.7050952375930188
Integer.getChars,0.3444219189086973,0.5828520752477051,0.03857231424995322,0.10725578289969993,1.0731020913060554
Integer.stringSize,0.1002276213212884,0.08232194694021346,0.011335638401256301,0.014892087347649772,0.20877729401040793
Integer.toString,1.60123929874534,2.5846507532422334,0.1604829887124678,0.463526127107169,4.8098991678072105
Integer.valueOf,0.13944999999966967,0.0,0.012480000000323344,0.0,0.15192999999999302
Long.getChars,0.060796047181545985,0.0,0.006880201737780886,0.0,0.06767624891932687
Long.toString,0.047181796644381886,0.0,0.0045742532525804205,0.0,0.05175604989696231
MutableBigInteger.toBigInteger,0.04317888438283353,0.0,0.004684507489884471,0.0,0.047863391872718
Object.<init>,0.1467956320868212,0.0,0.020241628727125652,0.0,0.16703726081394685
Object.clone,0.0,0.0,0.0,0.0,0.0
Object.hashCode,0.17653673527848388,0.0,0.019336420708301577,0.0,0.19587315598678545
Object.wait,0.027781166666803376,0.0,0.0020549999999275315,0.0,0.029836166666730907
Random.next,0.1914768332132338,0.0,0.025704652458824393,0.0,0.2171814856720582
SoftReference.get,0.09520676493269692,0.0,0.011427095910432658,0.0,0.10663386084312958
String.<init>,0.1582156788878831,0.11618233328711708,0.019202702973438644,0.019869387671865704,0.31347010282030446
String.charAt,0.06609842541338197,0.0,0.004806244601494362,0.0,0.07090467001487633
String.getChars,0.059006417976177214,0.11029344142163607,0.006292049793456143,0.020177472035437925,0.19576938122670737
String.hashCode,0.18243687759005056,0.0,0.02019637026024515,0.0,0.2026332478502957
String.length,0.06609842541338197,0.049551250677686065,0.004806244601494362,0.009282892659021831,0.12973881335158421
String.substring,0.0,0.04426754444818333,0.0,0.007961835366931135,0.05222937981511447
String.toCharArray,0.06653341154519407,0.0,0.00843877071575967,0.0,0.07497218226095374
StringBuffer.append,0.10829345404955043,0.05878100857793647,0.015097990937461243,0.010579180714391128,0.19275163427933928
StringBuffer.length,0.13512474828156723,0.0,0.01360210013216798,0.0,0.1487268484137352
StringBuffer.setLength,0.08593154838778108,0.0,0.0064083870963053575,0.0,0.09233993548408644
StringBuffer.toString,0.03248068264171403,0.1693881995738249,0.0047285278076936365,0.03046537328763365,0.23706278331086622
StringBuilder.append,0.0739497807428739,0.0,0.00700038731655676,0.0,0.08095016805943066
StringBuilder.toString,0.0,0.029773600329282807,0.0,0.0052909327802842685,0.03506453310956707
System.identityHashCode,0.0,0.0,0.0,0.0,0.0
ThreadLocal$ThreadLocalMap.nextIndex,0.0,0.0,0.0,0.0,0.0
Throwable.fillInStackTrace,0.0,0.0,0.0,0.0,0.0
TimeZone.getDefaultRef,0.22505782044565545,0.0,0.022520382500738553,0.0,0.247578202946394
Timestamp.getTime,0.04513226869320115,0.1155057207592528,0.006602142243322978,0.019837639085029356,0.18707777078080629
Timestamp.toString,0.11442042368188246,0.22960865690378207,0.014498002617101428,0.04153743678149121,0.4000645199842571
URLStreamHandler.setURL,0.07259100000010221,0.0,0.010860000000320724,0.0,0.08345100000042294
ZipFile.read,0.055598933333142975,0.0,0.007612000000760116,0.0,0.0632109333339031
