method,package1,package2,dram1,dram2,energy
AbstractStringBuilder.<init>|StringBuffer.<init>|Timestamp.toString,0.24202081647525103,0.0,0.025868051321738927,0.0,0.26788886779698995
AbstractStringBuilder.<init>|StringBuilder.<init>|BigInteger.smallToString,0.030191134920323038,0.0,0.003006255104808167,0.0,0.0331973900251312
AbstractStringBuilder.<init>|StringBuilder.<init>|Timestamp.toString,0.15123877587811804,0.035096947367276164,0.016335571256597254,0.004822109499075079,0.20749340400106656
AbstractStringBuilder.append|StringBuffer.append|Timestamp.toString,0.29570006697313855,0.3791562624099636,0.02796407888872357,0.07984583447153124,0.7826662427433569
AbstractStringBuilder.append|StringBuilder.append|JdbcSQLException.buildMessage,0.0,0.0,0.0,0.0,0.0
AbstractStringBuilder.ensureCapacityInternal|AbstractStringBuilder.append|StringBuffer.append,0.34745593312820894,0.0,0.030621355725376432,0.0,0.3780772888535854
AbstractStringBuilder.ensureCapacityInternal|AbstractStringBuilder.append|StringBuilder.append,0.05747850463901062,0.0,0.006906850574326668,0.0,0.06438535521333728
Arrays.copyOfRange|MutableBigInteger.<init>|MutableBigInteger.divideKnuth,0.04158223326282034,0.0,0.005210863621036689,0.0,0.04679309688385703
Arrays.copyOfRange|String.<init>|StringBuilder.toString,0.20753555136089635,0.07626371875321766,0.022833052531600905,0.015268365928618362,0.32190068857433324
Arrays.copyOfRange|String.<init>|Timestamp.toString,0.1128871961471995,0.0,0.010409883020648708,0.0,0.12329707916784821
Arrays.copyOfRange|StringBuffer.toString|Timestamp.toString,0.16749635038108335,0.0,0.019145242948855643,0.0,0.186641593329939
Arrays.copyOf|AbstractStringBuilder.ensureCapacityInternal|AbstractStringBuilder.append,0.44522917344241875,0.0,0.0422050127200096,0.0,0.48743418616242834
Arrays.copyOf|ArrayList.grow|ArrayList.ensureExplicitCapacity,0.06619053018637938,0.0,0.010865847409492235,0.0,0.07705637759587161
Arrays.copyOf|String.concat|OERandom.randomAString26_50,0.0731934504414755,0.0,0.009302834624372662,0.0,0.08249628506584816
Arrays.copyOf|String.concat|OERandom.randomAString300_500,0.059711450207981014,0.0,0.009553832032906223,0.0,0.06926528224088724
AtomicLong.compareAndSet|Random.next|Random.nextDouble,0.34881022523067295,0.0,0.0439148380993375,0.0,0.39272506333001045
BigDecimal.<clinit>|Value.<clinit>|Session.<init>,0.07868975000019418,0.0,0.008332500000051368,0.0,0.08702225000024555
BigDecimal.<init>|BigDecimal.<init>|BigDecimal.<init>,0.04471702797823798,0.024721733751537002,0.0047357263124987075,0.00497533629118465,0.07914982433345832
BigDecimal.<init>|Value.convertTo|Column.convert,0.07693817613996443,0.0,0.009645738106047708,0.0,0.08658391424601214
BigDecimal.<init>|ValueTimestamp.convertScale|Column.validateConvertUpdateSequence,0.11402901297811983,0.05311411111082028,0.015787695525212385,0.010266666666683268,0.19319748628083577
BigDecimal.divideAndRound|BigDecimal.setScale|BigDecimal.toBigInteger,0.15346467747816495,0.0,0.017582663378097916,0.0,0.17104734085626286
BigDecimal.hashCode|ValueDecimal.hashCode|Value.cache,0.032019393939249734,0.0,0.0029381818175986127,0.0,0.034957575756848346
BigDecimal.layoutChars|BigDecimal.toString|ValueDecimal.getString,0.11608370833361428,0.0,0.009172499999597978,0.0,0.12525620833321227
BigDecimal.movePointRight|ValueTimestamp.convertScale|Column.validateConvertUpdateSequence,0.09411949446769247,0.0,0.013263821887489972,0.0,0.10738331635518245
BigDecimal.setScale|BigDecimal.toBigInteger|BigDecimal.intValue,0.1266394598381206,0.0,0.016701745291962583,0.0,0.1433412051300832
BigDecimal.signum|BigDecimal.setScale|BigDecimal.toBigInteger,0.027866173382731497,0.0,0.003206979101410921,0.0,0.031073152484142417
BigDecimal.unscaledValue|ValueDecimal.getPrecision|ValueDecimal.checkPrecision,0.03685778335125718,0.0,0.005186984437466187,0.0,0.04204476778872337
BigDecimal.valueOf|BigDecimal.valueOf|MutableBigInteger.toBigDecimal,0.0,0.0,0.0,0.0,0.0
BigInteger.abs|ValueDecimal.getPrecision|ValueDecimal.convertPrecision,0.0,0.0,0.0,0.0,0.0
BigInteger.multiply|BigInteger.pow|BigDecimal.<init>,0.0,0.0,0.0,0.0,0.0
Boolean.booleanValue|Boolean.equals|Update.update,0.051201211727248376,0.0,0.008262498388654373,0.0,0.05946371011590275
Boolean.equals|ConditionAndOr.getValue|Expression.getBooleanValue,0.05342787651789093,0.0,0.007299857648381966,0.0,0.0607277341662729
Boolean.equals|Select.queryFlat|Select.queryWithoutCache,0.15897233333331923,0.0,0.025108999999429213,0.0,0.18408133333274845
BufferedInputStream.read|Benchmark.fileFromInputStream|Benchmark.extractFileResource,0.054418518518947086,0.0,0.008473888888450649,0.0,0.06289240740739774
BufferedInputStream.read|DataInputStream.readInt|AttributeInfo.<init>,0.022851733332693892,0.0,0.0026559999998426067,0.0,0.0255077333325365
BufferedInputStream.read|DataInputStream.readUnsignedShort|DataInputStream.readUTF,0.030173636363708112,0.0,0.003861818181824425,0.0,0.034035454545532536
CharacterData.of|Character.toUpperCaseEx|String.toUpperCase,0.0,0.0,0.0,0.0,0.0
ClassLoader.defineClass1|ClassLoader.defineClass|SecureClassLoader.defineClass,0.16538207037122415,0.0,0.019438222223167635,0.0,0.18482029259439178
ClassLoader.getPackage|ClassLoader.getPackage|URLClassLoader.getAndVerifyPackage,0.0,0.0,0.0,0.0,0.0
DataInputStream.readShort|ZoneInfoFile.load|ZoneInfoFile.access$000,0.05971496296223011,0.0,0.006995555555072819,0.0,0.06671051851730293
DataInputStream.readUnsignedByte|ConstPool.readOne|ConstPool.read,0.0,0.040676647598955305,0.0,0.003925191273632372,0.044601838872587674
Date.getTimeImpl|Date.getTime|Timestamp.getTime,0.0,0.06673745881207174,0.0,0.0110474767363624,0.07778493554843414
Date.normalize|Date.getDate|Timestamp.toString,0.3283408000015091,0.0,0.03642500000023574,0.0,0.36476580000174486
Date.normalize|Date.getMinutes|Timestamp.toString,0.09969066666599247,0.0,0.0027099999994485797,0.0,0.10240066666544105
Date.normalize|Date.getYear|Timestamp.toString,0.09376269549521973,0.0,0.008759965996341778,0.0,0.10252266149156151
DriverManager.<clinit>|Driver.load|Driver.<clinit>,0.0059925454545670855,0.0,0.0007418181815988977,0.0,0.006734363636165983
FileOutputStream.writeBytes|FileOutputStream.write|BufferedOutputStream.flushBuffer,0.0,0.03472222222222222,0.0,0.005426666666608071,0.04014888888883029
FileOutputStream.writeBytes|FileOutputStream.write|BufferedOutputStream.write,0.16772453333348192,0.0,0.02238800000001599,0.0,0.1901125333334979
HashMap.getNode|HashMap.containsKey|HashSet.contains,0.0,0.07626371875321766,0.0,0.015268365928618362,0.09153208468183602
HashMap.getNode|HashMap.get|ExpressionColumn.getValue,0.0,0.029174999998455558,0.0,0.003099999999903957,0.03227499999835951
HashMap.hash|HashMap.get|ScanIndex.incrementRowCount,0.03305109003001064,0.0,0.0034658011484688376,0.0,0.03651689117847948
HashMap.putVal|HashMap.put|HashSet.add,0.07013680746151743,0.0,0.009260851385939664,0.0,0.0793976588474571
HashMap.putVal|HashMap.put|JdbcResultSet.getColumnIndex,0.0,0.0,0.0,0.0,0.0
HashMap.removeNode|HashMap.remove|HashSet.remove,0.34108814517244046,0.1425172450040001,0.04213493168311856,0.022211011920318862,0.5479513337798779
HashMap.resize|HashMap.putVal|HashMap.put,0.0,0.0,0.0,0.0,0.0
HashSet.<init>|IndexCursor.find|TableFilter.next,0.2579920611803836,0.0,0.03488681369866466,0.0,0.29287887487904823
IdentityHashMap.hash|IdentityHashMap.put|StatementHelper.prepareStatement,0.0,0.0,0.0,0.0,0.0
Inflater.inflateBytes|Inflater.inflate|InflaterInputStream.read,0.604299918518572,0.0,0.08669288888980832,0.0,0.6909928074083803
Integer.getChars|AbstractStringBuilder.append|StringBuilder.append,0.06296799999957632,0.0,0.009730000000369424,0.0,0.07269799999994575
Integer.getChars|Integer.toString|String.valueOf,0.458407265226016,0.0,0.04350580701473079,0.0,0.5019130722407468
Integer.getChars|Integer.toString|Timestamp.toString,0.5668087093053829,0.0,0.05374214937236035,0.0,0.6205508586777432
Integer.stringSize|Integer.toString|String.valueOf,0.08618962502116805,0.0,0.009230177541187878,0.0,0.09541980256235592
Integer.stringSize|Integer.toString|Timestamp.toString,0.06975294139845174,0.0,0.007441850910668022,0.0,0.07719479230911977
Integer.toString|BigDecimal.layoutChars|BigDecimal.toString,0.05244966666699232,0.0,0.00689999999970799,0.0,0.059349666666700315
Integer.toString|String.valueOf|ValueInt.getString,0.7149659449280891,0.0,0.08246723749570448,0.0,0.7974331824237936
Integer.toString|String.valueOf|ValueShort.getString,1.6322803817347347,0.0,0.15921429382001562,0.0,1.7914946755547503
Integer.toString|Timestamp.toString|ValueTimestamp.getString,2.3641445090085207,0.0,0.2567996986111923,0.0,2.620944207619713
Manifest.getAttributes|URLClassLoader.isSealed|URLClassLoader.getAndVerifyPackage,0.030173636363708112,0.0,0.003861818181824425,0.0,0.034035454545532536
MutableBigInteger.divideKnuth|MutableBigInteger.divide|MutableBigInteger.divide,0.032019393939249734,0.0,0.0029381818175986127,0.0,0.034957575756848346
Object.<init>|CacheObject.<init>|Record.<init>,0.045681333333454345,0.0,0.007220000000314837,0.0,0.05290133333376918
Object.<init>|TreeCursor.<init>|TreeIndex.find,0.11678033333373604,0.0,0.01336500000070373,0.0,0.13014533333443978
Object.clone|Date.clone|ValueTimestamp.get,0.0,0.05252328025448338,0.0,0.009483659090093546,0.06200693934457692
Object.hashCode|HashMap.hash|HashMap.remove,0.0731690336777511,0.0,0.010738153870892882,0.0,0.08390718754864399
Object.wait|Command.executeUpdate|JdbcPreparedStatement.executeUpdateInternal,0.0,0.09816466666234193,0.0,0.016354999999748543,0.11451966666209047
Pattern.newSlice|Pattern.atom|Pattern.sequence,0.04967148148204648,0.0,0.007917777777711979,0.0,0.05758925925975846
Random.nextDouble|OERandom.randomAString|SimpleInsert.customerTable,0.07498211762887846,0.0,0.00974348581094278,0.0,0.08472560343982125
Random.nextDouble|OERandom.randomInt|OERandom.randomAString14_24,0.0,0.08102275886726329,0.0,0.014024466650174393,0.09504722551743769
Random.next|Random.nextDouble|OERandom.randomAString,0.20212583133927597,0.0,0.02500479785866859,0.0,0.22713062919794458
Random.next|Random.nextDouble|OERandom.randomInt,0.3414755553733484,0.033242426012994146,0.04525494363237756,0.0058665328726808155,0.4258394578914009
Random.next|Random.nextInt|RandomUtils.nextInt,0.053690333334088784,0.0,0.0056549999990238575,0.0,0.05934533333311264
SimpleDateFormat.initializeCalendar|SimpleDateFormat.<init>|SimpleDateFormat.<init>,0.12487348148068929,0.0,0.013982222222020262,0.0,0.13885570370270955
String.<init>|String.substring|Timestamp.toString,0.037821666667393096,0.0,0.0011600000004060953,0.0,0.03898166666779919
String.<init>|StringBuilder.toString|Timestamp.toString,0.054524666666111436,0.0,0.009499999999510084,0.0,0.06402466666562152
String.<init>|Timestamp.toString|ValueTimestamp.getString,0.07062478437465894,0.0,0.0058942979633255605,0.0,0.0765190823379845
String.charAt|TPCC.calculateSumDB|TPCC.calculateSumDB,0.13222233333241698,0.0,0.02289499999945595,0.0,0.15511733333187294
String.getChars|AbstractStringBuilder.append|StringBuffer.append,0.04945170344086245,0.0,0.0036719071862675117,0.0,0.05312361062712996
String.getChars|AbstractStringBuilder.append|StringBuilder.append,0.05591791094864077,0.0,0.00683848827647159,0.0,0.06275639922511236
String.getChars|Timestamp.toString|ValueTimestamp.getString,0.06599435770975681,0.0,0.0047113772479177906,0.0,0.0707057349576746
String.hashCode|HashMap.hash|HashMap.put,0.0,0.0,0.0,0.0,0.0
String.substring|Timestamp.toString|ValueTimestamp.getString,0.03976099301917642,0.0,0.004831132331420417,0.0,0.04459212535059684
String.toCharArray|BigDecimal.<init>|ValueTimestamp.convertScale,0.04147711137030838,0.07584633332832405,0.005593713495547524,0.012559999999818196,0.13547715819399814
String.toUpperCase|StringUtils.toUpperEnglish|JdbcResultSet.getColumnIndex,0.0,0.0,0.0,0.0,0.0
StringBuffer.append|Timestamp.toString|ValueTimestamp.getString,0.5233742144941851,0.0,0.053052778364348,0.0,0.576426992858533
StringBuffer.toString|Timestamp.toString|ValueTimestamp.getString,0.06347666666624717,0.0,0.008809999999357387,0.0,0.07228666666560456
StringBuilder.toString|BigDecimal.layoutChars|BigDecimal.toString,0.0557377916667671,0.0,0.005971874999810703,0.0,0.0617096666665778
StringBuilder.toString|BigInteger.smallToString|BigInteger.toString,0.048039767983871114,0.0,0.007068070716143774,0.0,0.055107838700014886
StringBuilder.toString|Timestamp.toString|ValueTimestamp.getString,0.12552367306874157,0.0,0.014431482469835836,0.0,0.1399551555385774
Throwable.fillInStackTrace|Throwable.fillInStackTrace|Throwable.<init>,0.05303609711461865,0.0,0.007812517249051978,0.0,0.06084861436367063
TimeZone.getDefaultRef|Date.normalize|Date.getDate,0.04506399999930484,0.0,0.0069100000000617,0.0,0.05197399999936654
TimeZone.getDefaultRef|Date.normalize|Date.getYear,0.06976300000072418,0.0,0.00781000000036632,0.0,0.07757300000109049
Timestamp.getTime|Date.hashCode|Timestamp.hashCode,0.0,0.03142709960142946,0.0,0.0048945350134075105,0.03632163461483697
Timestamp.toString|ValueTimestamp.getString|JdbcResultSet.getString,0.34754657691966007,0.0,0.03741277864270657,0.0,0.38495935556236666
URL.<init>|URL.<init>|URLClassPath$JarLoader.checkResource,0.08677386666701445,0.0,0.008064000000013036,0.0,0.09483786666702748
ZipFile.getEntry|ZipFile.getEntry|JarFile.getEntry,0.0266023703712832,0.0,0.0026222222222713754,0.0,0.029224592593554574
