method,package1,package2,dram1,dram2,energy
java.io,0.12553333333319944,0.0,0.019492142857026398,0.0,0.14502547619022582
java.lang,8.772821348820296,0.5152185921921214,0.8670592042250836,0.06642185394692998,10.221520999184431
java.lang.ref,0.022310769230945233,0.0,0.0033323076924530026,0.0,0.025643076923398234
java.math,0.5848029615144359,0.16607658333183886,0.07791912677794564,0.024169999999533807,0.8529686716237542
java.sql,0.5856845940022111,0.1526693333289586,0.058950272805527365,0.02172000000064145,0.8190242001373385
java.text,0.02796416666630345,0.0,0.005344999999882322,0.0,0.033309166666185774
java.util,3.225085220443931,0.23189266666789382,0.3263287303935397,0.029460000000350796,3.8127666175057153
java.util.concurrent.atomic,0.18101987702231867,0.0,0.02576992838585059,0.0,0.20678980540816927
java.util.jar,0.05779171428626535,0.0,0.010491428570925821,0.0,0.06828314285719117
java.util.regex,0.0,0.0,0.0,0.0,0.0
java.util.zip,0.35198553809488997,0.0,0.0505135714278194,0.0,0.4024991095227094
