method,package1,package2,dram1,dram2,energy
AbstractCalendar,0.3748112002694674,0.0,0.031006392365433042,0.0,0.40581759263490047
AbstractStringBuilder,1.5727306107615129,0.0,0.13740128231560048,0.0,1.7101318930771134
Address,0.0,0.0,0.0,0.0,0.0
Arrays,0.7673305652330804,0.0,0.07272479422836417,0.0,0.8400553594614446
AtomicLong,0.5493396687945884,0.0,0.07127241542854096,0.0,0.6206120842231293
BaseCalendar,0.37885312259144,0.0,0.031285178620094,0.0,0.410138301211534
BaseIndex,4.948792855477121,0.3198038000011972,0.5235156579652265,0.04946499999950901,5.841577313443054
BigDecimal,0.2950641862075488,0.0,0.038014583063848556,0.0,0.33307876927139735
BigInteger,0.227311374981861,0.0,0.02174940305633482,0.0,0.24906077803819582
Boolean,0.060668999999810076,0.0,0.01081999999951222,0.0,0.07148899999932229
BufferedInputStream,0.15519373335173442,0.0,0.017075592534027302,0.0,0.17226932588576171
CalendarDate,0.34905054927998375,0.0,0.03007775761423785,0.0,0.3791283068942216
Character,0.0453696666675872,0.0,0.008135000000644745,0.0,0.05350466666823194
ClassLoader,0.04049819367676388,0.0,0.0057850509115924785,0.0,0.046283244588356365
Column,1.788050416089976,0.0,0.21718754503816468,0.0,2.005237961128141
Command,0.667063849899357,0.2904597166772873,0.07183093124481699,0.04357399999964097,1.0729284978211022
CommandContainer,0.10895131481530133,0.0,0.01301111111126408,0.0,0.12196242592656542
CompareMode,0.0,0.088073666668303,0.0,0.01290500000019771,0.10097866666850072
Comparison,1.3893547101311574,0.0828938666653509,0.16143097029140677,0.0124159999996967,1.6460955470876117
ConditionAndOr,0.2993024212277321,0.0,0.02828000832481292,0.0,0.327582429552545
ConfigFile,0.03090678721607715,0.0,0.003033448038138992,0.0,0.03394023525421614
ConnectionInfo,0.1051261262365789,0.0,0.014731375522340396,0.0,0.1198575017589193
DataInputStream,0.0506212267982154,0.0,0.0052804914340539464,0.0,0.055901718232269346
Database,0.11410868386194745,0.0,0.013701599937782069,0.0,0.12781028379972953
Date,0.7898471971483053,0.0,0.08139117391374691,0.0,0.8712383710620523
DbObjectBase,0.045138429687645934,0.0,0.004119785559673366,0.0,0.0492582152473193
Delete,0.14784433677578945,0.0,0.016223286648819862,0.0,0.16406762342460932
Driver,0.01353097100246568,0.0,0.001580133146493968,0.0,0.015111104148959647
Engine,0.06358091101024288,0.0,0.009051883079859388,0.0,0.07263279409010227
Expression,0.06259010526302614,0.0,0.008450526315611662,0.0,0.0710406315786378
ExpressionColumn,0.7812914741885705,0.0,0.09595043730358864,0.0,0.8772419114921591
ExpressionVisitor,0.11854513016603796,0.0,0.011398036022807697,0.0,0.12994316618884566
FileOutputStream,0.10180656503849733,0.0,0.008792739723783298,0.0,0.11059930476228064
FilterInputStream,0.03312745391628172,0.0,0.0019430709024793823,0.0,0.0350705248187611
Function,0.03723688888874474,0.0,0.003348333333350537,0.0,0.04058522222209528
HashMap,0.2546258088458075,0.0,0.03309484519676135,0.0,0.28772065404256886
IndexCondition,0.06365449054992434,0.0,0.0052572104378892865,0.0,0.06891170098781363
IndexCursor,0.7299705225549316,0.04402166666598835,0.09115487296105901,0.006846875000216338,0.8719939371821953
IndexType,0.046022349206309404,0.0,0.006179047619096106,0.0,0.05220139682540551
Inflater,0.3827288886965525,0.0,0.04551876610424227,0.0,0.4282476548007948
Insert,0.38063315320585994,0.0,0.0433289222311867,0.0,0.42396207543704667
Integer,5.6090208668318295,0.0,0.49247095587078893,0.0,6.101491822702618
JdbcConnection,0.691840959756597,0.0,0.0810800790094679,0.0,0.7729210387660649
JdbcPreparedStatement,0.08240764842831437,0.0,0.009204155698399788,0.0,0.09161180412671416
JdbcResultSet,0.39267907643411964,0.0,0.03227218870853781,0.0,0.42495126514265746
JdbcStatement,0.2497720106528335,0.0,0.029776237417226972,0.0,0.27954824807006046
LocalResult,0.5547498701977508,0.030282923076391362,0.07587438693311353,0.0047319230768082966,0.665639103284064
MathUtils,0.32064086565769734,0.0,0.032259655436320034,0.0,0.35290052109401737
MultiVersionCursor,2.3659228281804334,0.3892791583348298,0.329835979359673,0.06155768749933941,3.1465956533742756
MultiVersionIndex,0.771281073278461,0.03361703124937776,0.0941924040604,0.005774999999914598,0.9048655085881533
MutableBigInteger,0.0932368094339164,0.0,0.01116253572551757,0.0,0.10439934515943397
OERandom,0.2810299819038071,0.0,0.02813420122621199,0.0,0.30916418313001914
Object,0.06279928888848406,0.08522533333355871,0.008870095237401232,0.0122350000001461,0.1691297174595901
ObjectArray,1.6199147888912342,0.1514022857092121,0.17699711729041986,0.021544285714688676,1.9698584776055548
ObjectArray$ObjectArrayIterator,0.2558747033593463,0.0,0.031366261871406516,0.0,0.2872409652307528
ObjectUtils,0.05769115151435306,0.0,0.007883636363355132,0.0,0.0655747878777082
Parameter,0.02966595555578048,0.0,0.004298666666080761,0.0,0.033964622221861245
Parser,0.0,0.0,0.0,0.0,0.0
Pattern$Start,0.052555952061133705,0.0,0.007749670901453971,0.0,0.06030562296258768
Prepared,0.1410401898591805,0.0,0.014993096943034434,0.0,0.15603328680221493
Query,0.24547854851495227,0.0,0.02974408198700661,0.0,0.2752226305019589
Random,0.2600541915836336,0.0,0.03639000103139626,0.0,0.29644419261502986
Row,2.9062229773890453,0.03592933333614685,0.372798225552175,0.0054849999999836046,3.320435536277351
ScanCursor,0.04383876748071764,0.0,0.0028794676379673297,0.0,0.04671823511868497
ScanIndex,0.9130650964689826,0.0,0.10247089581444335,0.0,1.015535992283426
Schema,0.07855037650608372,0.0,0.008575570621566388,0.0,0.08712594712765011
Select,2.302044345478447,0.0,0.2945498661349888,0.0,2.5965942116134357
Session,0.49290537800199685,0.0,0.05043507947814264,0.0,0.5433404574801395
SimpleDateFormat,0.052899340108297284,0.0,0.0064876842738748105,0.0,0.059387024382172096
SimpleInsert,0.15914413375628977,0.0,0.01817975972602885,0.0,0.1773238934823186
SoftReference,0.030571851852410292,0.0,0.003722222222239469,0.0,0.03429407407464976
Standard,0.0,0.03261316666854933,0.0,0.00438250000009551,0.036995666668644844
StatementHelper,0.0,0.0,0.0,0.0,0.0
String,1.694269356203502,0.0,0.15908509300039583,0.0,1.8533544492038978
StringBuffer,0.5590553463516577,0.0,0.056039415213768325,0.0,0.615094761565426
StringBuilder,0.14247794650907195,0.0,0.011253271134018404,0.0,0.15373121764309036
StringCache,0.1418799087714752,0.0,0.022472473683860458,0.0,0.16435238245533565
Submitter,0.0,0.0,0.0,0.0,0.0
TPCC,0.5711266720110335,0.0,0.05676606009244951,0.0,0.6278927321034831
TPCCSubmitter,0.0,0.0,0.0,0.0,0.0
Table,1.7000213375803093,0.0,0.2210817881685594,0.0,1.9211031257488687
TableData,0.729422683219174,0.0,0.07970074889292185,0.0,0.8091234321120959
TableData$1,0.6057577012278168,0.0,0.04527005379108485,0.0,0.6510277550189016
TableFilter,1.1509763237235457,0.0,0.12831138877024365,0.0,1.2792877124937894
Throwable,0.0,0.0,0.0,0.0,0.0
TimeZone,0.2801378576710216,0.0,0.024373460510451063,0.0,0.3045113181814727
Timestamp,0.47477142243192216,0.0,0.04586528049333466,0.0,0.5206367029252568
Trace,0.4593752033542308,0.0,0.05360222437988821,0.0,0.512977427734119
TraceObject,0.09368483727074237,0.0,0.007810093673932833,0.0,0.1014949309446752
TraceSystem,0.13654204044111312,0.0,0.019033988969683786,0.0,0.1555760294107969
TreeCursor,0.3046735095422265,0.11876243333147915,0.04378792240233949,0.016628749999851304,0.48385261527589646
TreeIndex,2.119121696056154,0.07720113679002652,0.26480691770435666,0.009870651823641023,2.471000402374178
UndoLog,0.03880620000054477,0.0,0.004860000000189756,0.0,0.043666200000734526
UndoLogRecord,0.11290562876571787,0.0,0.015136555194543731,0.0,0.1280421839602616
Update,0.278940860853205,0.0,0.03325586788883003,0.0,0.3121967287420351
Value,1.501562966808134,0.0,0.16710997877299757,0.0,1.6686729455811316
ValueBoolean,0.05458554242877703,0.0,0.00587104969553544,0.0,0.06045659212431247
ValueInt,0.856706312890827,0.0,0.09978075546710194,0.0,0.956487068357929
ValueShort,0.6967347919893749,0.11397299999953248,0.08910937989215247,0.016369999999975942,0.9161871718810358
ValueString,0.030978814814632095,0.0,0.0037111111108700883,0.0,0.034689925925502185
ValueTimestamp,0.15692624373514516,0.0,0.014556880535513003,0.0,0.17148312427065815
Warehouse,0.0,0.0,0.0,0.0,0.0
ZipFile,0.08660394852235137,0.0,0.008844370071959397,0.0,0.09544831859431077
ZoneInfo,0.10824056166858445,0.0,0.011092243823373284,0.0,0.11933280549195774
ZoneInfoFile,0.04820906429590658,0.0,0.0042365519406803945,0.0,0.05244561623658697
