method,package1,package2,dram1,dram2,energy
,10.144558658945426,5.157229635736334,1.1093022169311995,0.6606275497442601,17.071718061357217
com.sun.jna,0.05441287872146193,0.0,0.006304339514777255,0.0,0.060717218236239184
javassist,0.07026981818122846,0.0,0.006695709090986797,0.0,0.07696552727221526
javassist.bytecode,0.592726821175807,0.0,0.07506418111101379,0.0,0.6677910022868208
org.antlr.runtime,0.22697532816381616,0.0,0.03370200990667236,0.0,0.26067733807048854
org.antlr.runtime.tree,0.08090042105361231,0.0,0.0107052631585822,0.0,0.0916056842121945
org.dacapo.harness,4.793371557868324,0.1929712586070787,0.5693032322913643,0.02393936403898668,5.579585412805754
org.jruby.ext.posix,0.040462293332287416,0.0,0.004038399999650816,0.0,0.044500693331938235
org.objectweb.asm,0.20598237372655617,0.0,0.029179733018688574,0.0,0.23516210674524474
org.python,0.1106530151489344,0.0,0.01811181818224709,0.0,0.1287648333311815
org.python.antlr,1.8986526526189382,0.0,0.22755506622531052,0.0,2.126207718844249
org.python.antlr.adapter,0.05108633333535787,0.0,0.006749999999253001,0.0,0.05783633333461087
org.python.antlr.ast,0.2426777080705276,0.0,0.03157127203383898,0.0,0.2742489801043666
org.python.compiler,0.2318315476196793,0.0,0.035743428573429506,0.0,0.2675749761931088
org.python.core,12.672288813141735,8.865796286472337,1.5502587442352889,1.1401057149768996,24.228449558826263
org.python.core.io,0.0,0.05249717445465359,0.0,0.006654084644210728,0.059151259098864324
org.python.core.packagecache,10.14797025530842,0.0,1.000738124367116,0.0,11.148708379675536
org.python.expose,0.03766831578947236,0.0,0.004425789473507871,0.0,0.042094105262980235
org.python.util,0.040069545454819236,0.0,0.0032500000003038267,0.0,0.043319545455123065
sun.misc,0.7718857403673655,0.0,0.08558257798206524,0.0,0.8574683183494307
sun.net.www,0.07096333333417229,0.0,0.009520000000823831,0.0,0.08048333333499612
sun.net.www.protocol.file,0.0,0.0,0.0,0.0,0.0
sun.net.www.protocol.jar,0.03376695238070429,0.0,0.004262857142575306,0.0,0.0380298095232796
sun.nio.cs,0.09547119999993203,0.0,0.008170800000079905,0.0,0.10364200000001193
sun.util.locale,0.07761706666555256,0.0,0.007731199999495098,0.0,0.08534826666504765
sun.util.locale.provider,0.060907269843497376,0.17435780579273757,0.009062857142121102,0.024743141434731164,0.2690710742130872
