method,package1,dram1,energy
ANTLRStringStream,0.07377918954324995,0.01009627450978953,0.08387546405303949
AnnotationReader,0.031799333332552734,0.003314999999929569,0.0351143333324823
ArgListCompiler,0.02432453333458397,0.0035880000000664343,0.027912533334650404
Arithmetic$py,2.4737849011426594,0.2059044871820196,2.679689388324679
AttributeInfo,0.03966475555563294,0.004485555555476351,0.044150311111109286
BaseParser,0.36719570666609797,0.030800266666661223,0.3979959733327592
BaseRecognizer,0.09606373202747334,0.011931960784363729,0.10799569281183707
Benchmark,1.7208315069459559,0.15407317124653314,1.874904678192489
Break,0.04156330769276395,0.004474615385193968,0.04603792307795792
BytecodeLoader,0.11761437461340417,0.011632167183219001,0.12924654179662318
BytecodeLoader$Loader,0.2015141026901695,0.022635692910185565,0.22414979560035508
CachedJarsPackageManager,7.616239505090582,0.6931190301241358,8.309358535214718
Calls$py,0.3025589468271004,0.0399558781365042,0.3425148249636046
Chaperone,0.05257586904709959,0.0043921428571030395,0.05696801190420263
ClassFile,0.05482993939200021,0.004200000000392637,0.05902993939239285
ClassPool,0.1338996783368535,0.01512724439686301,0.1490269227337165
ClassWriter,0.03168093939563153,0.003219999999683668,0.0349009393953152
CommonTokenStream,0.1447507111088338,0.019356222221756102,0.1641069333305899
CompilerFlags,0.09093218939657768,0.011029393938320075,0.10196158333489776
ConfigFileTokenManager,0.01553000000098513,0.0011666666667022381,0.01669666666768737
ConstPool,0.07871055555706671,0.008255555555445392,0.08696611111251211
Constructs$py,1.004140999265991,0.09251409890152282,1.0966550981675138
Continue$PyExposer,0.0574148666683565,0.006410249999801939,0.06382511666815843
DFA,0.08214433185242037,0.009112488888872408,0.09125682074129278
DacapoClassLoader,0.5324763524488997,0.05532208110777108,0.5877984335566707
Dict$py,0.7805335274306733,0.07265885719387749,0.8531923846245508
Exceptions$py,0.20040833333533933,0.023799303030917672,0.224207636366257
FieldInfo,0.026513599999210172,0.0027279999999639893,0.02924159999917416
FloatingDecimal,0.29119811180744165,0.033762795953178514,0.32496090776062014
For$PyExposer,0.05434933333293511,0.004963076922696275,0.05931241025563139
Frame,0.0538236480510836,0.007455738286078391,0.06127938633716199
FunctionDef$PyExposer,0.05434933333293511,0.004963076922696275,0.05931241025563139
Global,0.0503382564090246,0.005120769231348859,0.05545902564037346
GrammarActions,0.1028182078435088,0.011598705882130944,0.11441691372563974
ImportFunction,0.1438746623388834,0.01620905844195819,0.1600837207808416
Imports$py,0.047099727273400116,0.005539090908562437,0.05263881818196255
Jython,0.030873611110817163,0.004047916666725844,0.03492152777754301
Launcher$AppClassLoader,0.0,0.0,0.0
Lists$py,0.751471191806133,0.05950516227981177,0.8109763540859447
LocaleResources,0.08499976041624298,0.008841874999461652,0.09384163541570463
Lookups$py,0.9529526458335467,0.07102770833211655,1.0239803541656631
MemberrefInfo,0.031510400000843215,0.003032000000045324,0.03454240000088854
MethodInfo,0.04019270370406081,0.0041630555553166665,0.04435575925937748
MethodWriter,0.15525451066459894,0.014781649831671857,0.1700361604962708
Module,0.0560054727302155,0.0068079999997501025,0.0628134727299656
NotFoundException,0.07835547222142242,0.008998333333996317,0.08735380555541873
Numbers$py,0.223950950179164,0.01536740882855796,0.23931835900772197
PackageManager,8.062789700815472,0.7254817584330842,8.788271459248556
Py,0.4997848115806525,0.056054532510022514,0.555839344090675
PyBaseCode,0.19869212649524326,0.022661435897795394,0.22135356239303866
PyBaseException$PyExposer,0.03690600000118138,0.003435000000536093,0.040341000001717475
PyClass,0.15890890277983594,0.014442916667121608,0.17335181944695754
PyComplex,0.11288193939238989,0.013899696969938397,0.12678163636232828
PyDictionary,0.897752228204925,0.07853253846041273,0.9762847666653377
PyException,2.8568080241760967,0.3045094304100549,3.1613174545861518
PyFastSequenceIter,0.05563104166715978,0.007928125000186506,0.06355916666734629
PyFloat,0.041357333335326985,0.004084000000148079,0.045441333335475065
PyFrame,0.8681492741030827,0.09136767995697954,0.9595169540600623
PyInstance,0.15815216666912116,0.01072999999936049,0.16888216666848166
PyInteger,0.16426599999491975,0.014615000000048891,0.17888099999496865
PyInteger$PyExposer,0.034505142856644286,0.002331428572125289,0.036836571428769574
PyJavaPackage,0.021199555555843592,0.0022033333334547933,0.023402888889298385
PyJavaType,0.1413670858426298,0.012684928845405782,0.1540520146880356
PyList,0.4303353186778275,0.040492614660658996,0.4708279333384865
PyLong,0.31467661111471695,0.023893333334247778,0.3385699444489647
PyObject,0.8034764013434322,0.08822437566578356,0.8917007770092158
PySequence,0.23101889090780098,0.02560727272707895,0.25662616363487994
PyString,1.9562168006173297,0.2854437083262613,2.241660508943591
PyString$str_split_exposer,0.03381878260900165,0.0036234782607567936,0.037442260869758444
PyString$str_upper_exposer,0.033595151515769285,0.0033781818179484235,0.03697333333371771
PyStringMap,1.8907141862464085,0.21455987015865594,2.1052740564050643
PyTableCode,0.2602495925914101,0.035588680555099055,0.2958382731465092
PyTuple,0.027820604167421454,0.0024474999998650064,0.03026810416728646
PyType,0.5672566474394187,0.06873217582292537,0.6359888232623441
PyType$MROMergeState,0.033355666666466284,0.0035274999997151704,0.03688316666618145
PyUnicode,0.15847035765151113,0.01913761140890967,0.1776079690604208
PyUnicode$unicode_upper_exposer,0.028335151514814545,0.00633272727259971,0.03466787878741426
PyXRange,0.04820115151475572,0.0051290909091635094,0.05333024242391923
PythonLexer,0.10687897185145022,0.010462088889412203,0.11734106074086242
PythonLexer$DFA44,0.04899759259219368,0.004024999999711764,0.05302259259190545
PythonParser,0.33797285122991927,0.032831034691754996,0.37080388592167424
PythonTokenSource,0.052567304347378566,0.005018478261025965,0.05758578260840453
PythonTree,0.04708973774459528,0.007109767289994259,0.05419950503458954
PythonTreeAdaptor,0.06364083950649256,0.006583703703384985,0.07022454320987755
Reflection,0.040699764706112224,0.0035976470589601226,0.04429741176507235
Resource,0.3143490836314874,0.030710889254983574,0.34505997288647094
Return$PyExposer,0.03819444444444445,0.003721666666765317,0.04191611111120976
RewriteRuleElementStream,0.051460660252469884,0.007013615505266755,0.058474275757736636
SignatureFileVerifier,0.04597338461574578,0.006452307692178202,0.05242569230792398
StringFormatter,0.04842117646915665,0.002858823529951384,0.05127999999910803
Strings$py,1.8863572691690522,0.1698193503744448,2.056176619543497
TestHarness,0.0,0.0,0.0
ThreadStateMapping,0.5683515287095997,0.0535651432544807,0.6219166719640804
Tuple$PyExposer,0.040917351850280455,0.0053350000001012605,0.046252351850381714
Tuples$py,0.5559985643907372,0.05078213068250217,0.6067806950732394
URLClassPath$JarLoader,0.030271805556670486,0.003545833333191695,0.03381763888986218
URLClassPath$JarLoader$2,0.07835547222142242,0.008998333333996317,0.08735380555541873
Unicode$py,0.9475266895501249,0.13029569265332086,1.0778223822034456
UnsafeFieldAccessorFactory,0.03282656843337956,0.003907808218565874,0.036734376651945434
Utf8Info,0.02902400000140701,0.002410588234745185,0.031434588236152194
Version,0.04837600000017253,0.005468888888976329,0.05384488888914886
__builtin__,0.14465314285501207,0.01531285714268701,0.1599659999976991
_pyx1,0.05653521568655931,0.007559999999905223,0.06409521568646454
comprehension$PyExposer,0.042217641027095035,0.00323076923049461,0.045448410257589646
imp,0.5218565070608311,0.06083619006869719,0.5826926971295283
pkgutil$py,0.035753742423835465,0.004230909090796503,0.039984651514631965
site$py,0.023293538461588558,0.0026507692311544162,0.025944307692742974
unicodedata$py,0.2897894407856655,0.04104305921042364,0.3308324999960891
