method,package1,package2,dram1,dram2,energy
AbstractAlgorithmConstraints.getAlgorithms,0.0,0.02247983297260421,0.0,0.0031536744040092297,0.02563350737661344
Arithmetic$py.test$11,0.0,0.3557242715101666,0.0,0.05492359489507427,0.41064786640524087
Arithmetic$py.test$14,1.0348395333339189,0.0,0.09002299999847309,0.0,1.124862533332392
Arithmetic$py.test$2,0.0,1.0605608000780853,0.0,0.12231392158193069,1.182874721660016
Arithmetic$py.test$5,0.8709700183153803,0.0,0.07381483516731818,0.0,0.9447848534826986
Arithmetic$py.test$8,0.11730625641006881,0.9043536370656895,0.008461538461210111,0.128085757158587,1.1582071890955554
AttributeInfo.<init>,0.0,0.08187298581388819,0.0,0.012901011009240026,0.09477399682312822
AttributeInfo.read,0.0,0.07575489393661193,0.0,0.01012818181877237,0.0858830757553843
BaseParser.setupParser,0.0,0.901164166658418,0.0,0.12561250000089783,1.0267766666593159
Benchmark.deleteTree,0.0,0.46251037306427406,0.0,0.08651250236769234,0.5490228754319664
Benchmark.fileFromInputStream,0.0,3.755923837456181,0.0,0.5280897478463186,4.2840135853025
BuiltinFunctions.__call__,0.0,0.08437240074364978,0.0,0.014806962450125956,0.09917936319377574
BytecodeLoader$Loader.loadClassFromBytes,0.0826004347814571,0.05343099999856135,0.0104713043473685,0.009931764705898412,0.15643450383328536
BytecodeLoader.makeCode,0.1832465736750042,0.11522246480121445,0.02402510444443637,0.012166894409881925,0.334661037330537
CachedJarsPackageManager.addJarToPackages,0.0,0.05179849999694852,0.0,0.0068599999998089824,0.058658499996757506
CachedJarsPackageManager.addZipEntry,0.2523384985046635,0.041992266658538335,0.028417190228149713,0.005508000000069539,0.32825595539142105
CachedJarsPackageManager.filterByName,0.049263270177324084,0.0,0.0066781592830783935,0.0,0.05594142946040248
CachedJarsPackageManager.getZipPackages,4.140519698430533,2.812728012665902,0.3154613372019416,0.32987732864585295,7.59858637694423
CachedJarsPackageManager.listToString,0.0365184461100255,0.0,0.004740798370495598,0.0,0.041259244480521096
CachedJarsPackageManager.outCreateCacheFile,0.032014222764082084,0.0,0.004219730436580658,0.0,0.03623395320066274
Call$PyExposer.<init>,0.0,0.06516533333342522,0.0,0.00849000000016531,0.07365533333359053
Calls$py.j$19,0.042205666667238496,0.0,0.0059149999997316636,0.0,0.04812066666697016
Calls$py.test$13,0.17476730769200144,0.0,0.011201538461486613,0.0,0.18596884615348805
Calls$py.test$16,0.031616166666935897,0.0,0.0023499999994479968,0.0,0.03396616666638389
Calls$py.test$2,0.14000147619143324,0.0,0.01717785714286687,0.0,0.15717933333430012
ClassClassPath.find,0.0,0.027375969925082358,0.0,0.00299523599045423,0.03037120591553659
ClassFile.addMethod,0.0,0.03021242857045893,0.0,0.004112142856943786,0.034324571427402716
ClassPool.compress,0.0,0.1055389166733331,0.0,0.013614318181591001,0.1191532348549241
ClassReader.readConst,0.0,0.02771545454214157,0.0,0.004365909090858732,0.03208136363300031
ClassReader.readUTF8,0.0,0.042326969699140383,0.0,0.004956818181998449,0.047283787881138836
ClassicPyObjectAdapter$9.adapt,0.0,0.07598878787989219,0.0,0.009038636363777296,0.08502742424366949
CodeAttribute.<init>,0.0,0.03065714285808748,0.0,0.004097142857062863,0.034754285715150345
CommonTokenStream.fillBuffer,0.0,0.040796875788765216,0.0,0.006623395550925058,0.047420271339690276
Compare$PyExposer.<init>,0.0,0.027216212119762502,0.0,0.0030909090908222197,0.030307121210584723
ConfigFile.configFile,0.0,0.029322129306527164,0.0,0.003922476245583836,0.033244605552111
ConstPool.readOne,0.0,0.05422462499821752,0.0,0.007157500000099995,0.061382124998317515
ConstantSet$ConstantIterator.next,0.0,0.050441565214777766,0.0,0.006438260869522903,0.05687982608430067
Constructs$py.test$2,0.6042448974327177,0.0,0.04087076923026007,0.0,0.6451156666629778
Constructs$py.test$5,0.14288376666687935,0.0,0.014597999999952864,0.0,0.15748176666683222
Constructs$py.test$8,0.3391404722216167,0.0,0.027633749999646774,0.0,0.3667742222212635
DFA.predict,0.02351309523830769,0.033421578945739085,0.0039919642858876605,0.0031105263157147228,0.06403716478564916
DFA.unpackEncodedString,0.0,0.05881750000116881,0.0,0.005457500000071983,0.0642750000012408
DacapoClassLoader.loadClass,0.0,1.6174686676760208,0.0,0.2053498694355487,1.8228185371115695
Dict$py.test$11,0.1273522539629888,0.0,0.01692126984131324,0.0,0.14427352380430203
Dict$py.test$14,0.28720628571456824,0.0,0.020911142856736356,0.0,0.3081174285713046
Dict$py.test$2,0.14781269696914484,0.0,0.020883160172982862,0.0,0.1686958571421277
Dict$py.test$5,0.10418496296376731,0.0,0.011326666667257625,0.0,0.11551162963102493
Dict$py.test$8,0.26231628571628196,0.0,0.022201904763307304,0.0,0.28451819047958926
EmptyVisitor.visitMethodInsn,0.0,0.02771545454214157,0.0,0.004365909090858732,0.03208136363300031
ExceptionTable.<init>,0.0,0.04118206023162856,0.0,0.006296491600074479,0.04747855183170304
Exceptions$py.test$2,0.0,0.13830513696232855,0.0,0.015279555983100108,0.15358469294542865
Exceptions$py.test$5,0.0,0.3348010033003359,0.0,0.06162571723602802,0.3964267205363639
FileURLConnection.getPermission,0.0,0.0,0.0,0.0,0.0
FileURLMapper.getPath,0.0,0.02247983297260421,0.0,0.0031536744040092297,0.02563350737661344
FloatingDecimal.readJavaFormatString,0.4488052088970935,0.0,0.054547754422059905,0.0,0.5033529633191535
Frame.a,0.0,0.043625595237591325,0.0,0.00436428571425668,0.047989880951848
Handler.parseContextSpec,0.0,0.0735005847397931,0.0,0.008755186279493789,0.08225577101928688
ImportFunction.__call__,0.1959997037049982,0.0,0.01698444444412383,0.0,0.21298414814912203
Imports$py.test$8,0.05532846666804592,0.0,0.006387500000346335,0.0,0.061715966668392255
Instances$py.test$2,0.0,0.11124666667213508,0.0,0.019490000000587315,0.13073666667272238
JavaImportHelper.buildLoadedPackages,0.0,0.056088749997798,0.0,0.007674999999759771,0.06376374999755777
Library$Handler.<init>,0.0,0.019441190475758742,0.0,0.002344285714311159,0.021785476190069902
Lists$py.test$2,0.0,0.7951209476784913,0.0,0.09618500236311267,0.891305950041604
Lists$py.test$8,0.0,0.25015440450670096,0.0,0.03434258872954099,0.28449699323624195
LocaleData$1.run,0.0,0.0,0.0,0.0,0.0
Lookups$py.test$12,0.0,0.37037214131181584,0.0,0.07122156878417366,0.44159371009598947
Lookups$py.test$17,0.06843528889003209,0.0,0.01083466666653597,0.0,0.07926995555656806
Lookups$py.test$2,0.0,0.28541973098126044,0.0,0.03604127966940205,0.3214610106506625
Lookups$py.test$22,0.11346469230473025,0.0,0.010219615384322913,0.0,0.12368430768905316
Lookups$py.test$7,0.18897547058826175,0.0,0.029339999999030943,0.0,0.2183154705872927
MethodInfo.read,0.0,0.052012529413617566,0.0,0.007088529411596349,0.059101058825213916
MethodWriter.a,0.0,0.04022511904449424,0.0,0.004503571428488482,0.044728690472982724
Module.PyCode,0.0,0.039768714285206175,0.0,0.005269285714478298,0.04503799999968447
Module.compile,0.0,0.07621542857460942,0.0,0.008745000000219858,0.08496042857482927
NameAndTypeInfo.<init>,0.0,0.056661000002350186,0.0,0.0075074999998226595,0.06416850000217285
Numbers$py.test$11,0.05899155555461118,0.0,0.00446222222213961,0.0,0.06345377777675079
Numbers$py.test$2,0.1863889999993262,0.0,0.014938999999503717,0.0,0.20132799999882992
Numbers$py.test$5,0.1754126340351948,0.0,0.01349765734207478,0.0,0.18891029137726958
Numbers$py.test$8,0.10386343333157125,0.0,0.00791349999999511,0.0,0.11177693333156635
POSIXFactory.loadLinuxPOSIX,0.0,0.05391439393640735,0.0,0.006718181818514218,0.06063257575492157
PackageManager.checkAccess,4.432017443020508,5.218958667834911,0.42300471994573285,0.6719042098220939,10.745885040623245
ParseUtil.encodePath,0.0,0.10028100000636186,0.0,0.013655000000653672,0.11393600000701554
ProxyMaker.addMethods,0.0,0.07529890908732671,0.0,0.00783999999993918,0.0831389090872659
Py.ImportError,0.0,0.035289545456621316,0.0,0.00370909090937251,0.03899863636599383
Py.getThreadState,0.20506477272984652,0.0,0.022467136363543846,0.0,0.22753190909339038
Py.initClassExceptions,0.0,0.08760566666023806,0.0,0.01231500000055045,0.09992066666078851
Py.make_array,0.0,0.1633105560350302,0.0,0.019005184559485674,0.18231574059451588
Py.newInteger,0.021853743589674242,0.0,0.002573846153935824,0.0,0.024427589743610065
Py.setException,0.038315209338929374,0.0,0.005537340153342149,0.0,0.04385254949227152
Py.unpackSequence,0.20103254307715362,0.0,0.023730713298213774,0.0,0.2247632563753674
PyArray$PyExposer.<init>,0.0,0.038886818180220536,0.0,0.00527272727264393,0.04415954545286446
PyBaseCode.call,0.10066808110141279,0.0926203016792172,0.012645852580265727,0.015746704083575425,0.22168093944447115
PyBaseString.<init>,0.049603958333743016,0.07095311740286643,0.005943749999914871,0.0092196952231115,0.13572052095963583
PyClass.__call__,0.0,0.04294833333794183,0.0,0.010015000000445676,0.05296333333838751
PyClass.__findattr_ex__,0.0,0.036926407274710485,0.0,0.00591111205994919,0.04283751933465967
PyComplex$PyExposer.<init>,0.0,0.10051351852167432,0.0,0.012747777777837687,0.11326129629951201
PyComplex.<init>,0.06935633333584215,0.0,0.0041400000009161895,0.0,0.07349633333675834
PyComplex.coerce,0.04929599999983717,0.0,0.003559999999803646,0.0,0.052855999999640815
PyDictionary$ItemsIter.__iternext__,0.0,0.06415709090828331,0.0,0.007959999999553529,0.07211709090783684
PyDictionary.<init>,0.16695541269926628,0.0,0.014363095237867027,0.0,0.1813185079371333
PyDictionary.__finditem__,0.1726865502657669,0.0,0.020422222222637006,0.0,0.1931087724884039
PyDictionary.dict___delitem__,0.09583201904752059,0.0,0.00765999999944359,0.0,0.10349201904696417
PyDictionary.dict___setitem__,0.31336702876023514,0.0,0.033503787540613124,0.0,0.34687081630084826
PyDictionary.dict_has_key,0.05480095238107467,0.0,0.0038071428571129218,0.0,0.058608095238187594
PyException.fillInStackTrace,1.2234773443768072,2.488401030226259,0.141323334388893,0.3036645352943833,4.156866244286342
PyException.isExceptionClass,0.0,0.07119278923994454,0.0,0.012019758238174468,0.08321254747811901
PyFile.<clinit>,0.0,0.03519683333676464,0.0,0.00548250000004676,0.0406793333368114
PyFloat$PyExposer.<init>,0.0,0.05782058333716121,0.0,0.00838249999992513,0.06620308333708634
PyFloat.canCoerce,0.1081080000013961,0.0,0.00956000000015982,0.0,0.11766800000155592
PyFloat.float___cmp__,0.04382509090889168,0.0,0.002997272727952805,0.0,0.046822363636844486
PyFloat.float___hash__,0.11489933333405855,0.0,0.009965952380991351,0.0,0.1248652857150499
PyFloat.float___mul__,0.1137696666676978,0.0,0.008969999998953426,0.0,0.12273966666665123
PyFrame.<init>,0.0,0.30835855501071774,0.0,0.05371459315919741,0.36207314816991515
PyFrame.getLocals,0.14890761481626583,0.0,0.015992222220436947,0.0,0.16489983703670277
PyFrame.getlocal,0.20192857092223326,0.223842198775004,0.02593609096197375,0.030545723858869774,0.4822525845180808
PyFrame.setline,0.33588376412860405,0.10574020672940963,0.033268800769561055,0.015098129807424459,0.48999090143499924
PyFrame.setlocal,0.07763333333463783,0.04618959331563514,0.010158333333391865,0.006923982430842776,0.1409052424145076
PyFunction.__call__,0.023896666666370855,0.0,0.0030842857141535553,0.0,0.02698095238052441
PyInteger.<clinit>,0.0,0.0610273843520119,0.0,0.007932122335943577,0.06895950668795547
PyInteger.__add__,0.0,0.07457111015061524,0.0,0.0069603435350017355,0.08153145368561697
PyInteger.coerce,0.05549138889061093,0.0,0.005533333333005429,0.0,0.06102472222361636
PyInteger.divide,0.0,0.22045337878717408,0.0,0.02261644359015009,0.24306982237732416
PyInteger.getValue,0.0,0.07842917798035454,0.0,0.010961799318997564,0.0893909772993521
PyJavaType.init,0.0,0.06758202393283244,0.0,0.007573249427912035,0.07515527336074447
PyList$PyExposer.<init>,0.0,0.0345790795685758,0.0,0.0040657032964297,0.0386447828650055
PyList$list_append_exposer.__call__,0.0,0.14945546664026882,0.0,0.023154288871784695,0.17260975551205351
PyList.<init>,0.1258394666662449,0.05024956481519554,0.01561466666595758,0.00791281320351985,0.19961651135091787
PyList.getslice,0.10085706666706956,0.0,0.00876533333406163,0.0,0.10962240000113119
PyList.list___len__,0.0,0.0717521011288877,0.0,0.009229600830941835,0.08098170195982954
PyList.pyadd,0.0,0.09075154904990544,0.0,0.010484293934266784,0.10123584298417222
PyList.pyget,0.15848769444467808,0.0,0.014082083333556107,0.0,0.17256977777823418
PyList.pyset,0.0,0.16426093833166755,0.0,0.024083807415551127,0.18834474574721868
PyList.setslicePyList,0.0342122666654177,0.0,0.0018666666667235808,0.0,0.03607893333214128
PyLong.coerce,0.03199140740670608,0.0,0.0023600000002059252,0.0,0.034351407406912005
PyLong.long___cmp__,0.027526833334074283,0.0,0.0020749999997254536,0.0,0.029601833333799735
PyMethod.<init>,0.03556316666557298,0.0,0.003400000000207607,0.0,0.038963166665780584
PyMethod.__call__,0.0,0.08760566666023806,0.0,0.01231500000055045,0.09992066666078851
PyMethodDescr.method_descriptor___get__,0.0,0.0496066684135191,0.0,0.008036255660587749,0.05764292407410685
PyObject.<init>,0.044657499998316384,0.06517192138718578,0.0030666666670084754,0.011813345158814263,0.12470943321132491
PyObject.__call__,0.09171010777230942,0.05429851346182784,0.009192406472454413,0.008607960639308694,0.16380898834590038
PyObject.__getattr__,0.05290979166602483,0.03877156450835873,0.0059375000000727604,0.005636880685315575,0.1032557368597719
PyObject.__gt__,0.0625206734007391,0.0,0.004896414141393222,0.0,0.06741708754213231
PyObject._eq,0.19648776923191363,0.0,0.010872692307599114,0.0,0.20736046153951274
PyObject._gt,0.019795029858798812,0.0,0.004286995574617347,0.0,0.024082025433416157
PyObject._lt,0.06259384615427385,0.0,0.004375384615671534,0.0,0.06696923076994539
PyObject._try__cmp__,0.0863555925949455,0.0,0.00577444444449308,0.0,0.09213003703943859
PyObject.fastGetDict,0.08753384615276724,0.0,0.006018461538657833,0.0,0.09355230769142507
PyObject.getType,0.24292735777677682,0.11350954065256767,0.019029110291857113,0.015807872162795646,0.3912738808839973
PyObjectDerived.<init>,0.0,0.044942000002871886,0.0,0.007059999999910359,0.052002000002782246
PyObjectDerived.__setattr__,0.0,0.06349700000040077,0.0,0.009819999999914822,0.0733170000003156
PyReflectedFunction.isPackagedProtected,0.0,0.07954933333288257,0.0,0.009529999999358552,0.08907933333224112
PySequence$1.getSlice,0.0,0.05162204056883395,0.0,0.007891497566310024,0.05951353813514398
PySequence$1.len,0.04026955555632917,0.0,0.003153333333708966,0.0,0.04342288889003813
PySequence.<init>,0.045213000001520134,0.0,0.0046938461536438604,0.0,0.049906846155164
PySequence.seq___setslice__,0.0342122666654177,0.0,0.0018666666667235808,0.0,0.03607893333214128
PySet$PyExposer.<init>,0.0,0.05494066666277057,0.0,0.008508888889924427,0.06344955555269499
PySlice.indicesEx,0.0,0.0772702269316808,0.0,0.010426210659641331,0.08769643759132213
PyString$str_isdigit_exposer.bind,0.0,0.05003741023009699,0.0,0.007703758384310428,0.057741168614407416
PyString$str_isspace_exposer.<init>,0.0,0.06043425931175141,0.0,0.008819589219148634,0.06925384853090005
PyString._isalnum,0.0,0.07700308770570127,0.0,0.0113539039141865,0.08835699161988778
PyString.atoi,0.5052053465081197,0.07074463311934168,0.059963764486969,0.009524727340545436,0.6454384714549758
PyString.coerce,0.04111520000102852,0.0,0.003118499999739773,0.0,0.044233700000768296
PyString.decode_UnicodeEscape,0.0,0.04893912121461295,0.0,0.006109090909100786,0.05504821212371373
PyString.fromSubstring,0.059166956520841814,0.0,0.006709565216822184,0.0,0.06587652173766399
PyString.str___add__,0.05807116613651827,0.18403135925353858,0.007298312670120873,0.029659926346876166,0.2790607644070539
PyString.str___gt__,0.01294184766317954,0.0,0.0030114631464895213,0.0,0.015953310809669063
PyString.str_islower,0.0,0.032065350997722765,0.0,0.0052465880843450855,0.03731193908206785
PyString.str_istitle,0.0,0.06043425931175141,0.0,0.008819589219148634,0.06925384853090005
PyString.str_lower,0.0,0.3976479206310771,0.0,0.05233030856997195,0.4499782292010491
PyString.str_partition,0.04580989999740268,0.0,0.003841999999834418,0.0,0.0496518999972371
PyString.str_title,0.0,0.7013063957265357,0.0,0.08272110419351236,0.784027499920048
PyString.str_upper,0.0,0.5178965484440905,0.0,0.061517292638122986,0.5794138410822135
PyString.toString,0.04568483333302235,0.0,0.009857499999876987,0.0,0.05554233333289933
PyStringMap.<init>,0.0,0.06648766667058226,0.0,0.015529999999974581,0.08201766667055684
PyStringMap.__finditem__,0.45338544207531273,1.0750679123242335,0.0481394597094914,0.17532416003476897,1.7519169741438065
PyStringMap.__setitem__,0.5253147611047438,0.325441929190662,0.054662141311413684,0.05453822315378677,0.9599570547606062
PySystemState$DefaultBuiltinsHolder.fillin,0.0,0.05422462499821752,0.0,0.007157500000099995,0.061382124998317515
PyTableCode.call,0.14262060153285544,0.0,0.012048316913400723,0.0,0.15466891844625616
PyTuple.<init>,0.023896666666370855,0.03728166568128021,0.0030842857141535553,0.005478658113512505,0.06974127617531713
PyType.fromClass,0.4289222013244937,0.7299187774624372,0.04456308906742448,0.11069400953346505,1.3140980773878204
PyType.init,0.0,0.08258084391137778,0.0,0.011181788465455334,0.09376263237683312
PyType.invoke_new_,0.05211137930896727,0.0,0.005438793103731487,0.0,0.057550172412698754
PyType.isSubType,0.09008944955176354,0.0,0.00967335284542434,0.0,0.09976280239718788
PyType.lookup,0.12406107692200188,0.15781788359990145,0.00975692307670565,0.02664196746594267,0.31827785106455164
PyUnicode.<init>,0.0,0.07242369263082378,0.0,0.010898149254112414,0.08332184188493619
PyUnicode.fromSubstring,0.0,0.04495187450563565,0.0,0.009418872985246957,0.0543707474908826
PyUnicode.unicode___add__,0.038264136748480816,0.3221078017505881,0.005139006078106203,0.06087972640776097,0.4263906709849361
PyUnicode.unicode_isalpha,0.0,0.0653781333372333,0.0,0.007993333333716792,0.0733714666709501
PythonLexer.<clinit>,0.0,0.03413900000305148,0.0,0.0054799999998067506,0.03961900000285823
PythonLexer.mTRIQUOTE,0.05782670933128127,0.04005831578979269,0.00823887103362086,0.0042047368419604785,0.1103286329966553
PythonParser.<clinit>,0.0,0.11042266666481737,0.0,0.010927500000131355,0.12135016666494873
PythonParser.<init>,0.0,0.14035781578882292,0.0,0.015407105263157542,0.15576492105198048
PythonParser.atom,0.11690730586383466,0.0,0.015466684543652544,0.0,0.1323739904074872
PythonParser.compound_stmt,0.0,0.05168382352983862,0.0,0.007095000000060512,0.05877882352989913
PythonParser.del_stmt,0.0,0.07979533332933593,0.0,0.007601999999800075,0.087397333329136
PythonParser.expr,0.0,0.04893912121461295,0.0,0.006109090909100786,0.05504821212371373
PythonParser.factor,0.0,0.027216212119762502,0.0,0.0030909090908222197,0.030307121210584723
PythonParser.or_test,0.0,0.11259500000284918,0.0,0.015051428571106433,0.1276464285739556
PythonParser.parameters,0.0,0.05168382352983862,0.0,0.007095000000060512,0.05877882352989913
PythonParser.shift_expr,0.03178712727332657,0.0,0.004166909090902966,0.0,0.03595403636422953
PythonParser.while_stmt,0.0,0.053670333329743386,0.0,0.008164999999886883,0.06183533332963027
PythonTreeAdaptor.create,0.0,0.03901105263196912,0.0,0.003975789473770419,0.04298684210573954
Resource.cachedInputStream,0.0,0.062203814811827775,0.0,0.009574444444027634,0.0717782592558554
Resource.getBytes,0.0,0.3686324446460504,0.0,0.048332641438396697,0.4169650860844471
ScopeInfo.cook,0.0,0.033769857144631835,0.0,0.003505714285763263,0.037275571430395095
SequenceIndexDelegate.checkIdxAndFindItem,0.03973237635308366,0.0,0.004582596322927839,0.0,0.0443149726760115
SequenceIndexDelegate.fixindex,0.10009777777870316,0.07644728836272721,0.010124999999890052,0.012420249716356071,0.1990903158576765
StringIO$py.readline$11,0.11430885000287767,0.0,0.01261825000025662,0.0,0.12692710000313429
StringUtil.toBytes,0.0,0.04114987777906421,0.0,0.009514710789026456,0.05066458856809067
Strings$py.test$11,0.0,0.4310760189544576,0.0,0.07092708645437415,0.5020031054088318
Strings$py.test$14,0.0,0.20938285210348553,0.0,0.036707658809106924,0.24609051091259246
Strings$py.test$17,0.0,0.09255579397866527,0.0,0.010449683899806292,0.10300547787847156
Strings$py.test$2,0.014500986287186194,0.0,0.002077905500548926,0.0,0.01657889178773512
Strings$py.test$20,0.0,0.05225567280308792,0.0,0.006901118178774173,0.05915679098186209
Strings$py.test$5,0.6273553043127382,0.0,0.0995606643830861,0.0,0.7269159686958243
Strings$py.test$8,1.3432927155269199,0.0,0.10828241631792787,0.0,1.4515751318448478
Subscript$PyExposer.<init>,0.0,0.04829172726904014,0.0,0.006961818181893746,0.05525354545093388
Suite$PyExposer.<init>,0.0,0.0314592857154951,0.0,0.004105714285677614,0.035565000001172714
SyspathJavaLoader.loadClass,0.0,0.25688106060845184,0.0,0.03271534090888715,0.289596401517339
ThreadStateMapping.getThreadState,0.2597776860132528,0.0,0.025246208914796522,0.0,0.2850238949280493
Time.<clinit>,0.0,0.04093078260927501,0.0,0.005019130434843448,0.04594991304411846
Time.classDictInit,0.0,0.034154166669395636,0.0,0.005112500000071425,0.039266666669467064
Tuples$py.test$2,0.0,0.22136154183662093,0.0,0.030183851191616047,0.251545393028237
Tuples$py.test$5,0.0,0.7257461309898954,0.0,0.09565939893430381,0.8214055299241991
URLClassPath$FileLoader.getResource,0.0,0.040517166666783545,0.0,0.005489999999857294,0.04600716666664084
URLClassPath$JarLoader$2.getInputStream,0.0,0.08211135209315902,0.0,0.010531469167123894,0.09264282126028292
US_ASCII$Decoder.decodeArrayLoop,0.011531309523672376,0.0,0.0014410714283301439,0.0,0.01297238095200252
UTF_8$Decoder.decode,0.05417944701116704,0.0,0.007997867215843167,0.0,0.06217731422701021
Unicode$py.test$11,0.0,0.11996504713719702,0.0,0.02198724267093085,0.14195228980812788
Unicode$py.test$17,0.0,0.10744963866408944,0.0,0.014511433476952463,0.1219610721410419
Unicode$py.test$2,0.0,0.08269529293480593,0.0,0.019940000000243537,0.10263529293504947
Unicode$py.test$20,0.0,0.35262492340713386,0.0,0.06074440457646151,0.4133693279835954
Unicode$py.test$5,0.20643920403572635,0.0,0.032310979526816205,0.0,0.23875018356254257
Unsafe.defineClass,0.06902886666963846,0.0,0.009138499998759169,0.0,0.07816736666839763
Utf8Info.<init>,0.0,0.04272853248238548,0.0,0.0052649501940866565,0.04799348267647213
While$PyExposer.<init>,0.0,0.08449299999726159,0.0,0.010899999999916568,0.09539299999717817
__builtin__.callable,0.0,0.06583524498930066,0.0,0.010205053348029442,0.0760402983373301
__builtin__.fillWithBuiltins,0.0,0.05379233333223965,0.0,0.006819999999303642,0.06061233333154329
__builtin__.map,0.0,0.05852024678332311,0.0,0.008108411194210819,0.06662865797753394
exceptions.classDictInit,0.0,0.1116943333375578,0.0,0.01230000000032305,0.12399433333788085
imp.importName,0.0867694814827431,0.0,0.008257777778285175,0.0,0.09502725926102829
imp.import_logic,0.07125043333120022,0.0,0.005047000000680176,0.0,0.0762974333318804
imp.import_name,0.24661278148360669,0.0,0.02619022222183789,0.0,0.2728030037054446
imp.import_next,0.8633001888784175,0.0,0.07544400000115273,0.0,0.9387441888795702
imp.readBytes,0.09820130232418343,0.0,0.013280930232424508,0.0,0.11148223255660794
slice$PyExposer.<init>,0.0,0.04829172726904014,0.0,0.006961818181893746,0.05525354545093388
unicodedata$py.get$11,0.0,0.0759387712465554,0.0,0.01060574089468638,0.08654451214124179
unicodedata$py.get_int$1,0.07222180952452445,0.0,0.008847142857554162,0.0,0.08106895238207862
unicodedata$py.get_numeric$3,0.04982122713285193,0.0,0.005394908672177018,0.0,0.055216135805028946
unicodedata$py.init_east_asian_width$5,0.05290979166602483,0.0,0.0059375000000727604,0.0,0.05884729166609759
unicodedata$py.init_unicodedata$4,0.0371676307710523,0.0,0.003502407822668177,0.0,0.040670038593720474
zipimporter$PyExposer.<init>,0.0,0.030497166670102164,0.0,0.004065000000082364,0.034562166670184524
zipimporter$exposed___new__.createOfType,0.0,0.03749030302887232,0.0,0.004331818181526614,0.04182212121039893
