method,package1,package2,dram1,dram2,energy
ANTLRStringStream,0.08196385103582511,0.0,0.008475892490526108,0.0,0.09043974352635122
AnnotationReader,0.06851350077463884,0.0,0.005246031285651038,0.0,0.07375953206028989
ArgParser,0.04255819985072958,0.0,0.0050615351764165106,0.0,0.047619735027146094
Arithmetic$py,2.759193814822873,0.32502685869421577,0.28519118438176716,0.048587934782062796,3.4179997926809182
BaseParser,0.3850349964922881,0.0,0.03329335009545669,0.0,0.4183283465877448
Benchmark,0.03018343707884213,0.0,0.0038969323876332147,0.0,0.034080369466475344
BuiltinFunctions,0.06348324466344238,0.0,0.0077361310998971125,0.0,0.07121937576333949
CachedJarsPackageManager,0.04663093907490242,0.0,0.0038621745911044548,0.0,0.050493113666006874
Calls$py,0.2521608364294301,0.0,0.026765030950716223,0.0,0.27892586738014635
ClassReader,0.02306630334134496,0.0,0.003043843107582049,0.0,0.026110146448927007
ClassWriter,0.052482179894008815,0.0,0.0051727260250979705,0.0,0.05765490591910678
ConstPool,0.11524952963137783,0.0,0.012613946611722465,0.0,0.1278634762431003
Constructs$py,0.6497418437713366,0.0,0.08558564595243713,0.0,0.7353274897237737
DFA,0.03974722508997351,0.0,0.004848961473978493,0.0,0.044596186563952006
Delete$PyExposer,0.03974722508997351,0.0,0.004848961473978493,0.0,0.044596186563952006
Dict$py,0.8004687811356265,0.0,0.08476601287401873,0.0,0.8852347940096452
Exceptions$py,0.14261449769136486,0.0,0.02052645172876564,0.0,0.1631409494201305
FunctionDef$PyExposer,0.057349445388837864,0.0,0.005660590404748181,0.0,0.06301003579358605
GrammarActions,0.05661170709054765,0.0,0.005816285928823533,0.0,0.062427993019371186
Imports$py,0.1965848220487802,0.0,0.017240283191140692,0.0,0.21382510523992088
Instances$py,0.06729133968037486,0.0,0.006075964453654275,0.0,0.07336730413402913
JRELocaleProviderAdapter,0.0,0.0,0.0,0.0,0.0
Library$Handler,0.055024314252670486,0.0,0.005816510454737396,0.0,0.060840824707407884
Lists$py,0.06268877630862711,0.28057471825579544,0.00790711201078268,0.05094767857171395,0.4021182851469192
Lookups$py,0.8657038167868482,0.0,0.09269719881706776,0.0,0.9584010156039159
MakeProxies,0.0488062482404718,0.0,0.005558386449962371,0.0,0.05436463469043417
Module,0.23306144456130906,0.0,0.024091974374058522,0.0,0.2571534189353676
Numbers$py,0.6082684185408658,0.0,0.054376498499270724,0.0,0.6626449170401365
PackageManager,0.054531555926225606,0.0,0.003912542211024237,0.0,0.05844409813724984
ParseUtil,0.04361901270098198,0.0,0.003292089378305434,0.0,0.04691110207928741
Py,0.309761953851747,0.037449043480328466,0.04222418649435976,0.006709565217454876,0.3961447490438901
PyArray,0.03887297845647798,0.0,0.004388035367427071,0.0,0.043261013823905056
PyArray$PyExposer,0.050562576708992266,0.0,0.0063063619898214955,0.0,0.056868938698813765
PyBaseCode,0.18129324012696615,0.0,0.023150970837390268,0.0,0.20444421096435642
PyBaseException$PyExposer,0.049545801810668776,0.0,0.006241513963338505,0.0,0.05578731577400728
PyClass,0.06273344844725824,0.0,0.007097182238508539,0.0,0.06983063068576678
PyComplex,0.03401714918116997,0.0,0.002373913213561909,0.0,0.03639106239473188
PyDictionary,0.02650775757590026,0.0,0.004021818181199981,0.0,0.030529575757100243
PyFile$PyExposer,0.031150320326399118,0.0,0.002309053537467202,0.0,0.03345937386386632
PyFloat$PyExposer,0.032279235461355985,0.0,0.0024598601516365665,0.0,0.03473909561299255
PyFrame,1.6178600160098002,0.016949999996237843,0.19715782825605543,0.002562499999688346,1.834530344261782
PyInteger,0.13736853727103193,0.0,0.010764674697510955,0.0,0.1481332119685429
PyJavaType,0.040642020807906465,0.0,0.004407422640191686,0.0,0.04504944344809815
PyList,0.2442504026867074,0.017490952379635667,0.036213740152675596,0.0038171428572067742,0.30177223807622544
PyLong,0.032279235461355985,0.0,0.0024598601516365665,0.0,0.03473909561299255
PyMethod$PyExposer,0.026342995963508448,0.0,0.002393711323503031,0.0,0.028736707287011477
PyObject,0.8344606765943314,0.0,0.09901060786116177,0.0,0.9334712844554932
PyObject$1,0.05458547977231735,0.0,0.007399207863951138,0.0,0.061984687636268486
PyOverridableNew,0.03904102817333725,0.0,0.003300095077736344,0.0,0.042341123251073594
PyReflectedFunction,0.03886971805964692,0.0,0.003935502401566503,0.0,0.04280522046121342
PySequence,0.16929622090246782,0.0,0.0217373423137443,0.0,0.19103356321621212
PySequence$1,0.07747182937533224,0.0,0.012674904749767023,0.0,0.09014673412509927
PySequenceIter,0.05935033957865759,0.0,0.006644630519549077,0.0,0.06599497009820667
PySlice,0.042279963259801434,0.0,0.006628226659911953,0.0,0.048908189919713387
PyString,0.26032636636267703,0.0,0.030115236052201948,0.0,0.290441602414879
PyStringMap,0.2845725013003243,0.0,0.03041011076566745,0.0,0.31498261206599176
PyTableCode,0.14045556695325037,0.0,0.016314689329152702,0.0,0.15677025628240307
PyTuple,0.05458547977231735,0.0,0.007399207863951138,0.0,0.061984687636268486
PyType,0.5739595724067955,0.0,0.0653480987833953,0.0,0.6393076711901908
PyUnicode,0.03658918170006869,0.0,0.004346190051067536,0.0,0.04093537175113623
PyUnicode$PyExposer,0.031105733522311163,0.0,0.0026733768192744025,0.0,0.033779110341585566
PythonLexer,0.11492151614462781,0.0,0.013483284457226925,0.0,0.12840480060185475
PythonLexer$DFA44,0.02090275048641641,0.0,0.0019095559367285023,0.0,0.022812306423144912
PythonParser,0.3813897399169005,0.0,0.039361415364609686,0.0,0.4207511552815102
Return,0.06628241698864208,0.0,0.007234217500087042,0.0,0.07351663448872912
RewriteRuleElementStream,0.023833472546737275,0.0,0.003091442649863342,0.0,0.02692491519660062
ScopesCompiler,0.05567732838593524,0.0,0.0034388796412739594,0.0,0.0591162080272092
StreamIO,0.07264456693872998,0.0,0.004878589798287711,0.0,0.07752315673701769
Strings$py,3.374053940849166,0.0,0.40929129043812834,0.0,3.7833452312872944
Subscript,0.05183496373260333,0.0,0.005354501036316254,0.0,0.05718946476891958
SyspathArchive,0.02883736866863985,0.0,0.002365056451561259,0.0,0.03120242512020111
ThreadStateMapping,0.0502993749999708,0.0,0.005860312500241586,0.0,0.056159687500212385
Tuples$py,0.28672719501287186,0.0,0.033558045351470125,0.0,0.32028524036434197
Unicode$py,0.7732885776312008,0.0,0.09848092663318084,0.0,0.8717695042643817
While$PyExposer,0.029537807637228575,0.0,0.004293213539437753,0.0,0.03383102117666633
Yield$PyExposer,0.03239138103346819,0.0,0.004038916304596125,0.0,0.03643029733806431
ZoneInfoFile,0.03876038604515668,0.0,0.004662056070135878,0.0,0.04342244211529256
__builtin__,0.08512181836392396,0.0,0.006886425005485886,0.0,0.09200824336940985
bisect$py,0.06407116062560657,0.0,0.01054649114258403,0.0,0.0746176517681906
comprehension$PyExposer,0.04982523874349695,0.0,0.005218444261718624,0.0,0.055043683005215574
errno,0.05015018972877328,0.0,0.005463252445087462,0.0,0.055613442173860744
exceptions,0.08326579321470355,0.0,0.007345436810216864,0.0,0.09061123002492041
imp,0.06750824949908935,0.0,0.005108209699195473,0.0,0.07261645919828481
unicodedata$py,0.30376483539637317,0.0,0.04030417048383164,0.0,0.34406900588020484
