method,package1,package2,dram1,dram2,energy
ASTList,0.0,0.05355893333390769,0.0,0.0072853333332912155,0.0608442666671989
AnnotationReader,0.0,0.07314972041788212,0.0,0.007921227284505684,0.0810709477023878
Arithmetic$py,2.1183029898791004,0.0,0.2323920415539507,0.0,2.3506950314330513
AttributeInfo,0.0,0.023697963234877682,0.0,0.002885671547723107,0.026583634782600788
BaseParser,0.0,0.6064179727880885,0.0,0.06986535000106076,0.6762833227891493
BaseRecognizer,0.06842044762015574,0.0,0.008634142857252818,0.0,0.07705459047740856
BaseTreeAdaptor,0.0,0.07281661538395266,0.0,0.008812307692073189,0.08162892307602584
Benchmark,0.0,0.053961721890715714,0.0,0.004813200932519028,0.058774922823234745
Break$PyExposer,0.0,0.06883250000100816,0.0,0.008100000000013097,0.07693250000102125
BuiltinFunctions,0.030943529412159512,0.0,0.005063529411107119,0.0,0.03600705882326663
CachedJarsPackageManager,0.0,0.05672790105127948,0.0,0.005718562571008184,0.06244646362228766
Calls$py,0.35898648455543336,0.0,0.04555100146557591,0.0,0.40453748602100925
ClassReader,0.0,0.11280128872091438,0.0,0.01341061216144336,0.12621190088235773
ClassWriter,0.0,0.09783933333043628,0.0,0.012344999999792586,0.11018433333022887
ClassicPyObjectAdapter$9,0.0,0.09979233332948448,0.0,0.010800000000017462,0.11059233332950194
CommonTokenStream,0.07424585964935436,0.015837742565134653,0.009621403508757346,0.002483627463798979,0.10218863318704532
Compare$PyExposer,0.0,0.049977499998931314,0.0,0.004927499999818489,0.0549049999987498
Constructs$py,0.329210988596807,0.0,0.03165041595434595,0.0,0.3608614045511529
Continue,0.0,0.059645333333323024,0.0,0.006055384615394406,0.06570071794871743
DFA,0.0,0.12165196129881048,0.0,0.014595734925858323,0.1362476962246688
Dict$py,0.5668150632706843,0.0,0.051718851242388036,0.0,0.6185339145130724
Exceptions$py,0.10160128104596913,0.0,0.016535882352293224,0.0,0.11813716339826236
FieldInfo,0.0,0.09695548520279787,0.0,0.011092688449866,0.10804817365266386
FloatingDecimal$BinaryToASCIIBuffer,0.085502170481509,0.0,0.009472986750901129,0.0,0.09497515723241012
Frame,0.0,0.0933151339273276,0.0,0.011911339285623915,0.10522647321295152
Imports$py,0.04086628939310482,0.0,0.004539004276344336,0.0,0.045405293669449155
Instances$py,0.04169379102314442,0.0,0.010466734639040923,0.0,0.05216052566218534
Lexer,0.0,0.08032554666822156,0.0,0.009408000000209235,0.0897335466684308
Lists$py,0.39799799345690057,0.0,0.04780243291852298,0.0,0.44580042637542355
LocaleResources,0.04835197530921482,0.0,0.006324259259184336,0.0,0.05467623456839915
LongVector,0.0,0.023205241922568544,0.0,0.0030789993476548943,0.026284241270223437
Lookups$py,0.8117445714470749,0.0,0.09218509051564007,0.0,0.903929661962715
MethodWriter,0.0,0.05551295238269848,0.0,0.00626285714298276,0.06177580952568124
Module,0.11127490909050472,0.2131553333310876,0.014216727272353388,0.030074999999972835,0.36872196969391857
Numbers$py,0.5670288090402453,0.0,0.06312830952635388,0.0,0.6301571185665992
ParserFacade,0.0,0.08128214937474308,0.0,0.009094493790186715,0.0903766431649298
Pass$PyExposer,0.0,0.06600949999847218,0.0,0.006089999999858264,0.07209949999833044
Print$PyExposer,0.0,0.11800012499816148,0.0,0.015634687500494238,0.13363481249865572
ProxyMaker,0.0,0.08266199999585902,0.0,0.009520000000217502,0.09218199999607653
Py,0.22187631933896315,0.09961274586258104,0.025583236757805702,0.012625372546705723,0.3596976745060556
PyBaseCode,0.22226558309201247,0.0,0.02873354413626404,0.0,0.2509991272282765
PyBaseException$exposed___new__,0.0,0.0990214579493544,0.0,0.012392977777964213,0.1114144357273186
PyBuiltinClassMethodNarrow,0.0,0.04586952515250122,0.0,0.005880571525298285,0.051750096677799506
PyClass,0.0,0.05059800000647858,0.0,0.004739999999704499,0.05533800000618308
PyComplex,0.18325255799956475,0.0,0.0246444218742588,0.0,0.20789697987382355
PyComplex$PyExposer,0.0,0.08063927853828666,0.0,0.009037280088633321,0.08967655862691998
PyComplex$complex___divmod___exposer,0.0,0.08063927853828666,0.0,0.009037280088633321,0.08967655862691998
PyDictionary,0.027214230435409315,0.0,0.0022667569833366703,0.0,0.029480987418745986
PyFloat,0.032085888386988906,0.0,0.00252284918066325,0.0,0.034608737567652155
PyFloat$PyExposer,0.0,0.08849095393699974,0.0,0.011316496870535384,0.09980745080753513
PyFloat$exposed___new__,0.033707522887324703,0.0,0.004430290948437119,0.0,0.03813781383576182
PyFrame,1.266927938359037,0.0,0.1409334556618584,0.0,1.4078613940208955
PyFunction,0.03159184000105597,0.0,0.005164799999911336,0.0,0.03675664000096731
PyInstance,0.08582381451036233,0.0,0.008801701520975919,0.0,0.09462551603133826
PyInstance$PyExposer,0.0,0.11269133333310795,0.0,0.014465000000200234,0.12715633333330817
PyInteger,0.2582695123947172,0.0,0.02993338349772552,0.0,0.2882028958924427
PyList,0.13399508829073087,0.0,0.018090742011340144,0.0,0.152085830302071
PyList$list_append_exposer,0.22652188263857748,0.0,0.028301553963638107,0.0,0.25482343660221557
PyList$list_insert_exposer,0.057559715164570535,0.0,0.0074568415690587095,0.0,0.06501655673362924
PyLong$PyExposer,0.0,0.08918037701384872,0.0,0.01151027680616355,0.10069065382001227
PyModule,0.0,0.07493697060754098,0.0,0.010958191141566686,0.08589516174910766
PyObject,0.6310470059242773,0.14338782296485408,0.06236745397174261,0.01885809600633826,0.8556603788672122
PyObjectDerived,0.06765747788895292,0.0,0.007553123415687943,0.0,0.07521060130464086
PySequence,0.028984683362004483,0.0,0.0047513806084843345,0.0,0.03373606397048882
PySequence$1,0.1266767099064331,0.0,0.013448453005580494,0.0,0.1401251629120136
PySlice,0.08021491390198011,0.0,0.01065292593783104,0.0,0.09086783983981116
PySlice$PyExposer,0.0,0.07493697060754098,0.0,0.010958191141566686,0.08589516174910766
PyString,0.1445808562599503,0.0,0.02078167785792447,0.0,0.16536253411787477
PyString$str_rstrip_exposer,0.06376133333510045,0.0,0.007520000000012158,0.0,0.0712813333351126
PyString$str_title_exposer,0.05355833333548314,0.0,0.006246875000215368,0.0,0.05980520833569851
PyStringMap,0.1344782597929472,0.0,0.020032160291989363,0.0,0.15451042008493657
PySystemState$DefaultBuiltinsHolder,0.0,0.10140528752617033,0.0,0.01311462719078698,0.1145199147169573
PyTuple,0.26581543688894216,0.0,0.03446523649561427,0.0,0.30028067338455644
PyType,0.7807746711070137,0.10137086217387847,0.10812020123104943,0.012185274870848466,1.00245100938279
PyUnicode,0.024914311724656368,0.0,0.005333123115517804,0.0,0.03024743484017417
PyUnicode$PyExposer,0.0,0.10877741088409212,0.0,0.011772557916294705,0.12054996880038683
PythonLexer,0.0,0.03978871795026442,0.0,0.0059476923078107535,0.04573641025807517
PythonParser,0.04193432727373543,0.7684255835009307,0.0060970909094480285,0.09251039794384518,0.9089673996279594
PythonParser$DFA129,0.0,0.05091874404691432,0.0,0.007045395754167074,0.057964139801081394
PythonParser$testlist_return,0.0,0.0988004999999248,0.0,0.01122750000013184,0.11002800000005664
PythonTokenSource,0.0,0.07651766666579836,0.0,0.009555000000545988,0.08607266666634435
ReflectionFactory,0.06369337537062088,0.0,0.008568159569749082,0.0,0.07226153494036996
RewriteRuleElementStream,0.11127490909050472,0.1190329881311824,0.014216727272353388,0.012908399428579458,0.25743302392261996
Strings$py,2.2610336805674374,0.0,0.22966660557596752,0.0,2.490700286143405
TestHarness,0.0,0.04339082006186838,0.0,0.005008870447941603,0.04839969050980999
ThreadStateMapping,0.030890555555136718,0.0,0.004540000000108396,0.0,0.035430555555245116
Token,0.0,0.06187017409377126,0.0,0.00916034430466013,0.07103051839843139
Tuples$py,0.5417891260970722,0.0,0.0638620574803725,0.0,0.6056511835774447
TypeChecker,0.0,0.05976186732951734,0.0,0.006479509547368589,0.06624137687688593
URLClassPath$JarLoader,0.0,0.1060586666620414,0.0,0.013634999999946254,0.11969366666198766
Unicode$py,0.6938327739128836,0.0,0.09350274754277607,0.0,0.7873355214556597
UnsafeFieldAccessorFactory,0.0,0.0928987260271803,0.0,0.010481918911944109,0.10338064493912441
Yield$PyExposer,0.0,0.10632333333584634,0.0,0.01366500000040105,0.1199883333362474
__builtin__,0.0,0.11266343456214728,0.0,0.012459899617385283,0.12512333417953256
exceptions,0.0,0.0851333400535745,0.0,0.009142370224345024,0.09427571027791952
imp,0.0,0.060108709734402015,0.0,0.0072156201166480765,0.0673243298510501
unicodedata$py,0.6451083317105968,0.0,0.07226793205817394,0.0,0.7173762637687707
