method,package1,package2,dram1,dram2,energy
AnnotationReader,0.027765129221823285,0.0,0.003763258095341815,0.0,0.0315283873171651
Arithmetic$py,1.5324994165434478,0.0,0.14319990602090546,0.0,1.6756993225643533
AttributeInfo,0.017814749999160998,0.0,0.0021993750001456647,0.0,0.020014124999306663
BaseParser,0.3188891675195926,0.0,0.03518470549886554,0.0,0.35407387301845816
Benchmark,0.08281777777786677,0.0,0.007073333334119525,0.0,0.08989111111198629
BoolOp,0.0417866842112026,0.0,0.004253684210485324,0.0,0.046040368421687926
BuiltinFunctions,0.0,0.041737833334385264,0.0,0.006127500000123594,0.04786533333450886
CachedJarsPackageManager,0.030604982016019844,0.0,0.002076259221129329,0.0,0.032681241237149175
Call,0.0,0.06157285714011994,0.0,0.011682142857396336,0.07325499999751628
Calls$py,0.19610179572908149,0.0,0.0209839076708027,0.0,0.2170857033998842
ClassFile,0.03227749999981218,0.0,0.003977499999867479,0.0,0.036254999999679655
ClassWriter,0.19005333333310165,0.0,0.028607499999149393,0.0,0.21866083333225103
ClassicPyObjectAdapter$9,0.0,0.05108169231187696,0.0,0.007917692307763409,0.05899938461964037
Code,0.06914791236915087,0.0,0.010387465050063636,0.0,0.0795353774192145
CodeCompiler,0.10618180320370735,0.0,0.014348777137157761,0.0,0.12053058034086511
CommonTokenStream,0.35054416956853973,0.0,0.0479983757375846,0.0,0.3985425453061243
Constructs$py,0.26561221733930024,0.0,0.026402930403041203,0.0,0.29201514774234144
CtClassType,0.047142124999481894,0.01731657142850703,0.005859375,0.0022757142855663825,0.07259378571355532
Dict$py,0.5065595843630393,0.0,0.05176394973649821,0.0,0.5583235340995375
Errno$StringTable,0.007587112320238667,0.0,0.0009258278315588984,0.0,0.008512940151797566
Exceptions$py,0.23021435414635713,0.0,0.025277923018508383,0.0,0.2554922771648655
Exec$PyExposer,0.0,0.006701667300315717,0.0,0.0012247017235647536,0.007926369023880471
FloatingDecimal,0.0,0.02709954545306656,0.0,0.0039027272726095607,0.03100227272567612
FloatingDecimal$BinaryToASCIIBuffer,0.0,0.06418192592725433,0.0,0.00851111111114733,0.07269303703840166
Frame,0.032501166667013116,0.0,0.004012500000195965,0.0,0.03651366666720908
GeneratedMethodAccessor3,0.08201100000102693,0.0,0.015110000001489729,0.0,0.09712100000251665
GeneratorExp$PyExposer,0.02087400000125757,0.0,0.002482105263640589,0.0,0.02335610526489816
Generic,0.0,0.014678456139415827,0.0,0.002075789473708841,0.01675424561312467
GrammarActions,0.16525179561439995,0.0,0.02115671383723973,0.0,0.18640850945163967
Gregorian,0.0,0.06754571428736819,0.0,0.00813571428576353,0.07568142857313172
Imports$py,0.0066807441859661285,0.0,0.0005013953489179238,0.0,0.0071821395348840526
Instances$py,0.03343839285922253,0.0,0.003977678571313196,0.0,0.03741607143053573
Item,0.05269366666713419,0.0,0.004784999999780362,0.0,0.05747866666691455
JavaImportHelper,0.0,0.012638642857339056,0.0,0.0018071428570952514,0.014445785714434308
Linux64HeapFileStat,0.0,0.014678456139415827,0.0,0.002075789473708841,0.01675424561312467
Lists$py,0.39394047849826647,0.0,0.04311603885687169,0.0,0.4370565173551382
LocaleProviderAdapter,0.0,0.0802465267890208,0.0,0.012340424107026678,0.09258695089604749
Lookups$py,0.8855816123738584,0.0,0.09381995691499488,0.0,0.9794015692888532
MethodAccessorGenerator,0.0,-0.01453540740692039,0.0,-0.0018494444444109425,-0.01638485185133133
MethodWriter,0.08656732533335519,0.05108169231187696,0.014354612245414948,0.007917692307763409,0.15992132219841051
Module,0.08013933333495515,0.0,0.009714999999535696,0.0,0.08985433333449085
NewInstances$py,0.04592900000352529,0.0,0.005009999999856518,0.0,0.05093900000338181
Numbers$py,0.290724406554725,0.0,0.02883115069835085,0.0,0.31955555725307583
POSIXFactory,0.0,0.03813292307761283,0.0,0.005676923077072179,0.043809846154685014
PackageManager,0.013180000000027257,0.4386473348939255,0.0007235294118907084,0.04704253368354303,0.4995933979893865
Py,0.25796089475426187,0.15081178043183446,0.032192996323949966,0.020082517045545728,0.46104818855559204
PyArray$PyExposer,0.0,0.016864461535498358,0.0,0.0025199999998641517,0.01938446153536251
PyBaseCode,0.0,0.03661083333524099,0.0,0.006165000000085759,0.04277583333532675
PyBaseException$exposed___new__,0.02053647042264364,0.0,0.003018907387863533,0.0,0.023555377810507174
PyBaseExceptionDerived,0.0,0.023666400000001885,0.0,0.0031241249999311546,0.02679052499993304
PyClass,0.031534800000372336,0.0,0.003596000000349401,0.0,0.03513080000072174
PyComplex,0.011086381332589896,0.0,0.0011185934768512757,0.0,0.01220497480944117
PyDictProxy$PyExposer,0.0,0.006922356306281742,0.0,0.0008766011896273737,0.007798957495909116
PyDictionary,0.12402146031718797,0.0,0.0213480952372756,0.0,0.14536955555446357
PyFile,0.02428442916680289,0.0,0.0027475627715033988,0.0,0.02703199193830629
PyFile$PyExposer,0.02428442916680289,0.0,0.0027475627715033988,0.0,0.02703199193830629
PyFloat,0.04621308890344365,0.0,0.004828886215277129,0.0,0.05104197511872078
PyFloat$PyExposer,0.01777664302306159,0.0,0.0015015484606090944,0.0,0.019278191483670683
PyFrame,0.7498970479213259,0.32027909210974986,0.07780354211019438,0.04584279605257522,1.1938224781938453
PyInstance$PyExposer,0.0,0.018721684209977912,0.0,0.002902105263114719,0.021623789473092632
PyInteger,0.08845796641222226,-0.014275444444609563,0.008183977077849076,-0.0017399999999691282,0.08062649904549263
PyIterator,0.0,0.05463777777751805,0.0,0.006205555555425235,0.060843333332943283
PyList,0.11247898079373372,0.0267417272711596,0.014590347377286202,0.003336136363693433,0.15714719180587297
PyList$list_sort_exposer,0.053476714494256006,0.0,0.007869385228952742,0.0,0.061346099723208744
PyLong,0.027722148776387782,0.0,0.0030894916826192035,0.0,0.030811640459006986
PyLong$PyExposer,0.012901398875384114,0.0,0.0014266072043078314,0.0,0.014328006079691945
PyObject,0.5131594959959865,0.35350007320916965,0.061640214124135964,0.04961859469720063,0.9779183780264928
PyObject$object___setattr___exposer,0.0410459999966406,0.0,0.005448750001050939,0.0,0.04649474999769154
PyOverridableNew,0.05230725000183156,0.0,0.007154999999329449,0.0,0.05946225000116101
PyReflectedConstructor,0.0,0.004605261904154239,0.0,0.0006857142857153942,0.005290976189869633
PySequence,0.057231568947771067,0.0,0.007922107910563303,0.0,0.06515367685833437
PySequence$1,0.019566142857781545,0.0,0.002018571428509728,0.0,0.021584714286291273
PySlice,0.03058507707649168,0.0,0.004119148809773426,0.0,0.03470422588626511
PyString,0.2862412847768255,0.12966368552671273,0.031397593867457066,0.01656082072825965,0.46386338489925494
PyStringMap,0.09391032291979219,0.05571483333430175,0.012335338637436608,0.006810000000162593,0.16877049489169316
PySystemState,0.0320169747668694,0.0,0.002896379932987626,0.0,0.03491335469985703
PyTableCode,0.016716851852025785,0.13211558024574324,0.001463888888793008,0.017079722222032287,0.16737604320859434
PyTuple,0.14971043932644965,0.025917403509211318,0.016991032447882096,0.003142105263178931,0.19576098054672197
PyType,0.31233627557974186,0.39635245151806914,0.04579479026207765,0.05653693313914625,0.8110204504990349
PyUnicode,0.0,0.09904969727398506,0.0,0.012283196217876107,0.11133289349186117
PyUnicode$PyExposer,0.02594680155011405,0.0,0.0032417792763469247,0.0,0.029188580826460975
PythonLexer,0.10630812099893415,-0.01581488888876736,0.013505978081899342,-0.001823333333285754,0.10217587685878037
PythonParser,0.7857405395502518,0.12844303174388763,0.11324697259250976,0.023496428571369115,1.0509269724580181
PythonParser$DFA136,0.02344395864427257,0.0,0.003444912537978789,0.0,0.026888871182251358
PythonParser$DFA78,0.03863533333302863,0.0,0.006699999999303448,0.0,0.045335333332332084
PythonParser$exprlist_return,0.07362881140629189,0.0,0.01110607830730662,0.0,0.08473488971359851
PythonTree,0.0845441904124571,0.0,0.010723538500746633,0.0,0.09526772891320373
Reflection,0.0,0.0045090663965503385,0.0,0.0005645607923195839,0.005073627188869922
RewriteRuleElementStream,0.12194840338663929,0.053504605381942,0.016590284761287946,0.0065385392726239645,0.19858183280249317
ScopeInfo,0.025939833332813574,0.0,0.002920000000206831,0.0,0.028859833333020404
SequenceIndexDelegate,0.03483204132473411,0.027635444443957463,0.003067518507936821,0.004099999999905572,0.06963500427653396
Strings$py,2.735220462009211,0.0,0.2977268407508382,0.0,3.032947302760049
Suite,0.04023233333403671,0.0,0.004592500000095848,0.0,0.044824833334132556
ThreadStateMapping,0.0151961538451873,0.0,0.0014384615385027314,0.0,0.016634615383690033
Time,0.0,0.06754571428736819,0.0,0.00813571428576353,0.07568142857313172
TransformerManager,0.0,0.0382227222224982,0.0,0.0062611111111605345,0.04448383333365873
TryExcept,0.08201100000102693,0.0,0.015110000001489729,0.0,0.09712100000251665
TryFinally$PyExposer,0.0,0.006701667300315717,0.0,0.0012247017235647536,0.007926369023880471
Tuples$py,0.2939386112716042,0.0,0.03901137310401156,0.0,0.33294998437561574
URLClassPath,0.0,-0.014146592592523018,0.0,-0.0017816666666611262,-0.015928259259184143
US_ASCII$Decoder,0.05170494909439027,0.0,0.005576613623649544,0.0,0.057281562718039816
UTF_8$Decoder,0.0412598095232776,0.0,0.004451428571233658,0.0,0.04571123809451126
UnaryOp$PyExposer,0.04123817112918656,0.0,0.004761366181201989,0.0,0.04599953731038855
Unicode$py,0.5033271203757506,0.26708591075345717,0.05209527777750971,0.03931854625654072,0.8618268551632581
UniversalIOWrapper,0.06358707358611312,0.0,0.009901819209961906,0.0,0.07348889279607503
UnsafeFieldAccessorFactory,0.0,0.0,0.0,0.0,0.0
__builtin__,0.052344744356307496,0.0,0.006815972605027701,0.0,0.059160716961335194
arguments,0.0667351146196394,0.0,0.00697679532534895,0.0,0.07371190994498834
bisect$py,0.0,0.05923466666475481,0.0,0.005749999999958769,0.06498466666471359
comprehension$PyExposer,0.025432111913240633,0.0,0.0021469704156624764,0.0,0.02757908232890311
posixpath$py,0.0,0.0,0.0,0.0,0.0
pybench$py,0.025933185184840116,0.0,0.004684444444676585,0.0,0.030617629629516703
sre_compile$py,0.0,-0.011024740741251864,0.0,-0.0013733333334029233,-0.012398074074654788
unicodedata$py,0.0,0.1937485000079955,0.0,0.025145606060909306,0.2188941060689048
