method,package1,package2,dram1,dram2,energy
ArgParser.getList|PyBaseException.BaseException___init__|PyBaseException$BaseException___init___exposer.__call__,0.03678377899067477,0.0,0.00435203455259521,0.0,0.04113581354326998
Arithmetic$py.test$11|Arithmetic$py.call_function|PyTableCode.call,0.0,0.35345988333720013,0.0,0.05053724999988844,0.4039971333370886
Arithmetic$py.test$14|Arithmetic$py.call_function|PyTableCode.call,0.0,0.6977731466985343,0.0,0.10139882637784504,0.7991719730763793
Arithmetic$py.test$2|Arithmetic$py.call_function|PyTableCode.call,0.0,0.7023387175508522,0.0,0.10574502044735788,0.8080837379982101
Arithmetic$py.test$5|Arithmetic$py.call_function|PyTableCode.call,0.0,0.9157140520555686,0.0,0.13996477833108936,1.055678830386658
Arithmetic$py.test$8|Arithmetic$py.call_function|PyTableCode.call,0.0,0.7530347663401475,0.0,0.116420326857409,0.8694550931975565
BaseParser.setupParser|BaseParser.parseModule|CompileMode$3.dispatch,0.3752633298033716,0.0,0.03774074307950546,0.0,0.4130040728828771
BaseRecognizer.pushFollow|PythonParser.xor_expr|PythonParser.expr,0.05344800000043157,0.0,0.008129230769088443,0.0,0.061577230769520014
Benchmark.fileFromInputStream|Benchmark.extractFileResource|Benchmark.prepareJars,0.0,0.0,0.0,0.0,0.0
BoolOp.<init>|GrammarActions.makeBoolOp|PythonParser.or_test,0.06215116910180219,0.0,0.005665294622868747,0.0,0.06781646372467094
CachedJarsPackageManager.filterByName|CachedJarsPackageManager.addZipEntry|CachedJarsPackageManager.getZipPackages,0.036410170741343464,0.0,0.0033098889604984247,0.0,0.03972005970184189
Call.<init>|PythonParser.trailer|PythonParser.power,0.024805739690762912,0.0,0.003991811416705532,0.0,0.028797551107468445
Calls$py.f$28|Calls$py.call_function|PyTableCode.call,0.0,0.04164633333372573,0.0,0.005297499999869615,0.04694383333359534
Calls$py.test$13|Calls$py.call_function|PyTableCode.call,0.0,0.1274299999977302,0.0,0.020132812499582542,0.14756281249731273
Calls$py.test$16|Calls$py.call_function|PyTableCode.call,0.0,0.11992645833136824,0.0,0.01953937499971895,0.1394658333310872
Calls$py.test$27|Calls$py.call_function|PyTableCode.call,0.0,0.04992666666900429,0.0,0.006322500000048118,0.05624916666905241
Calls$py.test$2|Calls$py.call_function|PyTableCode.call,0.0,0.1255035833352546,0.0,0.020842499999768428,0.14634608333502303
ClassFile.addMethod|Module.PyCode|Module.compile,0.04008650689895714,0.0,0.004796547119939615,0.0,0.04488305401889675
ClassWriter.visitMethod|ClassFile.addMethod|Module.PyCode,0.04616379098661553,0.0,0.006996357111742278,0.0,0.053160148098357805
CodeCompiler.visitCall|Call.accept|Visitor.visit,0.04792145728449896,0.0,0.003910673825093444,0.0,0.0518321311095924
CodeCompiler.visitFunctionDef|FunctionDef.accept|Module.traverse,0.04478024230689655,0.0,0.00458630752647373,0.0,0.04936654983337028
Constructs$py.test$2|Constructs$py.call_function|PyTableCode.call,0.0,0.6317742417550807,0.0,0.09282131868105899,0.7245955604361397
Constructs$py.test$5|Constructs$py.call_function|PyTableCode.call,0.0,0.1352392727241033,0.0,0.01573818181747232,0.15097745454157563
Constructs$py.test$8|Constructs$py.call_function|PyTableCode.call,0.0,0.1802911111129409,0.0,0.0267708333336082,0.2070619444465491
Dict$py.test$11|Dict$py.call_function|PyTableCode.call,0.0,0.3539429999994657,0.0,0.05503999999928055,0.40898299999874627
Dict$py.test$14|Dict$py.call_function|PyTableCode.call,0.0,0.22642015805786092,0.0,0.035687836757422105,0.262107994815283
Dict$py.test$2|Dict$py.call_function|PyTableCode.call,0.0,0.537355634922971,0.0,0.08934880952386134,0.6267044444468324
Dict$py.test$5|Dict$py.call_function|PyTableCode.call,0.0,0.3585406666631267,0.0,0.05491500000061933,0.413455666663746
Dict$py.test$8|Dict$py.call_function|PyTableCode.call,0.0,0.24165295237963574,0.0,0.03764571428542868,0.2792986666650644
DisabledAlgorithmConstraints$Constraints.<init>|DisabledAlgorithmConstraints.<init>|DisabledAlgorithmConstraints.<init>,0.02019140740675437,0.0,0.00240000000027336,0.0,0.022591407407027732
Exceptions$py.test$2|Exceptions$py.call_function|PyTableCode.call,0.0,0.09474971428945925,0.0,0.014000000000080379,0.10874971428953963
Exceptions$py.test$5|Exceptions$py.call_function|PyTableCode.call,0.0,0.1371070909028111,0.0,0.019459999999967156,0.15656709090277826
Expr$PyExposer.<init>|Expr.<clinit>|PythonParser.expr_stmt,0.07504921326687909,0.0,0.007761984116638628,0.0,0.08281119738351772
Expr.accept|Visitor.visit|CodeCompiler.suite,0.06431321006208879,0.0,0.0059601670689602825,0.0,0.07027337713104907
FloatingDecimal$BinaryToASCIIBuffer.dtoa|FloatingDecimal$BinaryToASCIIBuffer.access$100|FloatingDecimal.getBinaryToASCIIConverter,0.0,0.03435009815262358,0.0,0.005954552680428196,0.04030465083305178
GeneratorExp$PyExposer.<init>|GeneratorExp.<clinit>|PythonParser.argument,0.06215116910180219,0.0,0.005665294622868747,0.0,0.06781646372467094
IfExp$PyExposer.<init>|IfExp.<clinit>|PythonParser.test,0.050282005605652214,0.0,0.0055061979808566815,0.0,0.05578820358650889
ImportFunction.__call__|PyObject.__call__|__builtin__.__import__,0.0,0.01081000000057328,0.0,0.0018333333333026124,0.012643333333875892
Imports$py.test$2|Imports$py.call_function|PyTableCode.call,0.0,0.02778455555380788,0.0,0.0046766666665563296,0.03246122222036421
Lists$py.test$2|Lists$py.call_function|PyTableCode.call,0.0,0.539131985894151,0.0,0.059809685581962715,0.5989416714761138
Lists$py.test$5|Lists$py.call_function|PyTableCode.call,0.0,0.044951515152316664,0.0,0.008458181817938263,0.053409696970254925
Lists$py.test$8|Lists$py.call_function|PyTableCode.call,0.0,0.3745523809526016,0.0,0.054057142857085905,0.42860952380968753
Lookups$py.test$12|Lookups$py.call_function|PyTableCode.call,0.0,0.20286733333099013,0.0,0.026466666667046307,0.22933399999803644
Lookups$py.test$17|Lookups$py.call_function|PyTableCode.call,0.0,0.3230895000015152,0.0,0.042240000000068306,0.3653295000015835
Lookups$py.test$22|Lookups$py.call_function|PyTableCode.call,0.0,0.3702861528986255,0.0,0.05630798876263007,0.42659414166125553
Lookups$py.test$2|Lookups$py.call_function|PyTableCode.call,0.0,0.15944433333061167,0.0,0.02479999999923166,0.18424433332984333
Lookups$py.test$7|Lookups$py.call_function|PyTableCode.call,0.0,0.12467466665354245,0.0,0.01927999999922273,0.14395466665276518
Module.PyCode|Module.compile|imp.compileSource,0.04008650689895714,0.0,0.004796547119939615,0.0,0.04488305401889675
Module.compile|imp.compileSource|imp.createFromSource,0.028619798397649214,0.0,0.0034163228863308376,0.0,0.03203612128398005
NewInstances$py.test$3|NewInstances$py.call_function|PyTableCode.call,0.0,0.06131104243902904,0.0,0.01049011579766942,0.07180115823669846
Numbers$py.test$11|Numbers$py.call_function|PyTableCode.call,0.0,0.10042437257279908,0.0,0.012799439695213698,0.11322381226801279
Numbers$py.test$2|Numbers$py.call_function|PyTableCode.call,0.0,0.2869433798212805,0.0,0.03706514592676231,0.3240085257480428
Numbers$py.test$5|Numbers$py.call_function|PyTableCode.call,0.0,0.13410475766793611,0.0,0.018178440961661664,0.15228319862959777
Numbers$py.test$8|Numbers$py.call_function|PyTableCode.call,0.0,0.36353154395869064,0.0,0.05358267701852054,0.4171142209772112
PackageManager.checkAccess|CachedJarsPackageManager.addZipEntry|CachedJarsPackageManager.getZipPackages,0.0696071090427657,0.0,0.005534849370272829,0.0,0.07514195841303853
Py.getThreadState|Py.getThreadState|PyObject._gt,0.0,0.03278814285433673,0.0,0.0048692857143794845,0.03765742856871622
Py.getThreadState|Py.getThreadState|PyObject._lt,0.0,0.14065005836834893,0.0,0.025135104995448812,0.16578516336379773
Py.initClassExceptions|PySystemState.doInitialize|PySystemState.initialize,0.04393866645582562,0.0,0.006082877676999509,0.0,0.05002154413282513
Py.newInteger|PyXRange.pyget|PySequence$1.getItem,0.0,0.04164633333372573,0.0,0.005297499999869615,0.04694383333359534
PyBaseCode.call|PyFunction.__call__|PyFunction.__call__,0.0,0.030316879411412475,0.0,0.0051869859806250185,0.035503865392037495
PyBaseCode.call|PyFunction.__call__|PyMethod.__call__,0.0,0.07042437499876543,0.0,0.011361874999996264,0.08178624999876169
PyClass.__findattr_ex__|PyObject.__getattr__|Lookups$py.test$7,0.0,0.029578589745095737,0.0,0.004459615384593446,0.034038205129689185
PyClass.__setattr__|Lookups$py.test$2|Lookups$py.call_function,0.0,0.12373833333549554,0.0,0.01930000000053648,0.14303833333603203
PyClass.lookup|PyInstance.__findattr_ex__|PyObject.__getattr__,0.0,0.06411749999824679,0.0,0.008212499999899592,0.07232999999814638
PyComplex$PyExposer.<init>|PyComplex.<clinit>|__builtin__.fillWithBuiltins,0.06187720101286982,0.0,0.0056742725013303,0.0,0.06755147351420013
PyComplex.complex___add__|PyComplex.__add__|PyComplex.complex___radd__,0.0,0.055634059839401236,0.0,0.0075445710511329155,0.06317863089053415
PyComplex.complex___div__|PyComplex.__div__|PyObject._basic_div,0.0,0.06861497875071296,0.0,0.01070775519124045,0.07932273394195341
PyDictionary$PyExposer.<init>|PyDictionary.<clinit>|PySystemState.<init>,0.02185217456106837,0.0,0.0031381261298881096,0.0,0.02499030069095648
PyDictionary$dict_get_exposer.bind|PyMethodDescr.method_descriptor___get__|PyMethodDescr.__get__,0.0,0.06684117630602042,0.0,0.010686726415914194,0.07752790272193462
PyDictionary.<init>|Dict$py.test$2|Dict$py.call_function,0.0,0.07090266666394503,0.0,0.01143500000034692,0.08233766666429194
PyDictionary.__finditem__|PyObject.__getitem__|Dict$py.test$5,0.0,0.06453466666668342,0.0,0.00960000000001552,0.07413466666669893
PyDictionary.dict_get|PyDictionary$dict_get_exposer.__call__|PyObject.__call__,0.0,0.044868782606183384,0.0,0.004390434782497165,0.04925921738868055
PyException.match|unicodedata$py.get_int$1|unicodedata$py.call_function,0.0456945176059305,0.0,0.00512316442014931,0.0,0.05081768202607981
PyFastSequenceIter.__iternext__|Constructs$py.test$8|Constructs$py.call_function,0.0,0.05547416667266387,0.0,0.008000000000012934,0.0634741666726768
PyFile$PyExposer.<init>|PyFile.<clinit>|PySystemState.<init>,0.024432714677016205,0.0,0.002672223646512432,0.0,0.027104938323528636
PyFloat$PyExposer.<init>|PyFloat.<clinit>|__builtin__.fillWithBuiltins,0.05542857439331759,0.0,0.006665786004384418,0.0,0.062094360397702004
PyFloat.float___add__|PyFloat.__add__|PyObject._basic_add,0.0,0.05946237916837864,0.0,0.00962954033469346,0.0690919195030721
PyFloat.float___cmp__|PyFloat.__cmp__|PyObject._try__cmp__,0.0,0.025094122187995973,0.0,0.003023186129636305,0.02811730831763228
PyFloat.float___div__|PyFloat.__div__|PyObject._basic_div,0.0,0.061696448829310024,0.0,0.008064554936045012,0.06976100376535503
PyFrame.<init>|PyFrame.<init>|PyBaseCode.call,0.0,0.3019228702453845,0.0,0.04373803571476552,0.34566090596015003
PyFrame.doGetglobal|PyFrame.getglobal|Calls$py.f$28,0.0,0.04070366666645794,0.0,0.0052116666665824605,0.045915333333040396
PyFrame.getLocals|imp.importOne|Imports$py.test$5,0.0,0.058036760192419865,0.0,0.0067116114096456205,0.06474837160206548
PyFrame.getglobal|unicodedata$py.init_east_asian_width$5|unicodedata$py.call_function,0.0,0.09094793846150144,0.0,0.013068923076990849,0.1040168615384923
PyFrame.getline|PyTraceback.<init>|PyException.tracebackHere,0.058593643411169134,0.0,0.007139534883285952,0.0,0.06573317829445509
PyFrame.getlocal|Arithmetic$py.test$14|Arithmetic$py.call_function,0.0,0.06142364263480676,0.0,0.009299993621543606,0.07072363625635036
PyFrame.getlocal|Arithmetic$py.test$2|Arithmetic$py.call_function,0.0,0.10033808723035306,0.0,0.01613376414222715,0.1164718513725802
PyFrame.getlocal|Arithmetic$py.test$5|Arithmetic$py.call_function,0.0,0.033065216073068025,0.0,0.005377123630330635,0.03844233970339866
PyFrame.getlocal|Calls$py.g$5|Calls$py.call_function,0.0,0.0480652083260793,0.0,0.008426249999880989,0.05649145832596029
PyFrame.getlocal|Lookups$py.test$22|Lookups$py.call_function,0.0,0.07026105262992674,0.0,0.009061052631933993,0.07932210526186073
PyFrame.getlocal|Lookups$py.test$7|Lookups$py.call_function,0.0,0.023420256409922447,0.0,0.003715384615274021,0.02713564102519647
PyFrame.getlocal|Unicode$py.test$20|Unicode$py.call_function,0.0,0.06285518182266969,0.0,0.00842727272769976,0.07128245455036945
PyFrame.setline|Arithmetic$py.test$5|Arithmetic$py.call_function,0.0,0.09149213801827255,0.0,0.012917819271001458,0.104409957289274
PyFrame.setline|Arithmetic$py.test$8|Arithmetic$py.call_function,0.0,0.05013927024266705,0.0,0.007528565286990517,0.05766783552965757
PyFrame.setline|Constructs$py.test$5|Constructs$py.call_function,0.0,0.02978987179327911,0.0,0.004769230769316215,0.034559102562595326
PyFrame.setline|Lookups$py.test$2|Lookups$py.call_function,0.0,0.07106533333232315,0.0,0.011020000000523092,0.08208533333284625
PyFrame.setline|Numbers$py.test$8|Numbers$py.call_function,0.0,0.05771590750167323,0.0,0.008064238256610515,0.06578014575828374
PyFrame.setlocal|Arithmetic$py.test$11|Arithmetic$py.call_function,0.0,0.09220373333664612,0.0,0.008719999999933255,0.10092373333657938
PyFrame.setlocal|Constructs$py.test$5|Constructs$py.call_function,0.0,0.02978987179327911,0.0,0.004769230769316215,0.034559102562595326
PyFrame.setlocal|Constructs$py.test$8|Constructs$py.call_function,0.0,0.14877444444380702,0.0,0.02279448717911139,0.17156893162291842
PyFunction.function___get__|PyFunction.__get__|PyObjectDerived.dispatch__init__,0.0,0.03558286658032825,0.0,0.005727448906079646,0.04131031548640789
PyInstance.__findattr_ex__|PyObject.__getattr__|Calls$py.j$19,0.0,0.08963295833685454,0.0,0.01559687500017996,0.1052298333370345
PyInstance.instance___setattr__|PyInstance.__setattr__|Calls$py.k$20,0.0,0.0491155000023961,0.0,0.007393749999967744,0.05650925000236384
PyInstance.instance___setattr__|PyInstance.__setattr__|Instances$py.__init__$7,0.0,0.03176423994494176,0.0,0.004946103254312219,0.03671034319925398
PyInteger._sub|PyInteger.int___sub__|PyInteger.__sub__,0.0,0.05909338253962128,0.0,0.009630155238756323,0.0687235377783776
PyInteger.canCoerce|PyInteger.int___cmp__|PyInteger.__cmp__,0.0,0.03986255672032149,0.0,0.004464473401074489,0.04432703012139598
PyInteger.divide|PyInteger.int___div__|PyInteger.__div__,0.0,0.20472164900376227,0.0,0.03279023209226001,0.23751188109602228
PyInteger.divide|PyInteger.int___mod__|PyInteger.__mod__,0.0,0.044454782608385285,0.0,0.004805217391391204,0.04925999999977649
PyInteger.getValue|PyInteger.int___cmp__|PyInteger.__cmp__,0.0,0.05927648921534084,0.0,0.0077672367335452205,0.06704372594888605
PyList$list_append_exposer.__call__|PyObject.__call__|Lists$py.test$2,0.0,0.12747985247860308,0.0,0.017718741679596226,0.1451985941581993
PyList.<init>|PyList.<init>|PyString.splitfields,0.03691234457736543,0.0,0.004828106354673136,0.0,0.04174045093203857
PyList.<init>|PyList.<init>|__builtin__.range,0.0,0.07164000000102533,0.0,0.00950156249984957,0.0811415625008749
PyList.list___len__|PyList.__len__|PySequence$1.len,0.03324785532809372,0.07385249999464981,0.0037778396881049717,0.010804166666578869,0.12168236167742737
PyList.pyadd|PyList.list_append|PyList$list_append_exposer.__call__,0.0,0.06565771624322515,0.0,0.010728194466105876,0.07638591070933103
PyList.pyget|PySequence$1.getItem|SequenceIndexDelegate.checkIdxAndFindItem,0.0,0.3511596739458017,0.0,0.046526074635750064,0.3976857485815518
PyLong$PyExposer.<init>|PyLong.<clinit>|__builtin__.fillWithBuiltins,0.05978268107183929,0.0,0.005358195370905403,0.0,0.06514087644274469
PyLong.coerce|PyLong.long___cmp__|PyLong.__cmp__,0.0,0.05912150734671885,0.0,0.008064446816040396,0.06718595416275924
PyModule$PyExposer.<init>|PyModule.<clinit>|PySystemState.<init>,0.0496750009592943,0.0,0.006146053732978085,0.0,0.05582105469227239
PyObject$object___setattr___exposer.__call__|PyObjectDerived.__setattr__|NewInstances$py.__init__$8,0.0,0.04535572614097283,0.0,0.0075173748900021825,0.05287310103097501
PyObject.<init>|PySequence.<init>|PySequenceList.<init>,0.0,0.06896160000469535,0.0,0.009775999999934962,0.07873760000463031
PyObject.<init>|PyStringMap.<init>|PyStringMap.<init>,0.0,0.022897375966729253,0.0,0.004301138868273068,0.02719851483500232
PyObject.__call__|Calls$py.test$13|Calls$py.call_function,0.0,0.08886312499726046,0.0,0.011465625000255386,0.10032874999751584
PyObject.__getattr__|unicodedata$py.get$11|unicodedata$py.call_function,0.0,0.05727388019719735,0.0,0.010049113990116907,0.06732299418731426
PyObject._basic_add|PyObject._add|Arithmetic$py.test$14,0.0,0.06719884886566957,0.0,0.01073339341260631,0.07793224227827587
PyObject._eq|Numbers$py.test$2|Numbers$py.call_function,0.0,0.04758938483223028,0.0,0.005555299660726681,0.053144684492956965
PyObject._eq|Strings$py.test$5|Strings$py.call_function,0.0,0.03555785430239471,0.0,0.004694301338838167,0.040252155641232884
PyObject._gt|Numbers$py.test$2|Numbers$py.call_function,0.0,0.05322318376784155,0.0,0.007169522110503488,0.060392705878345034
PyObject._gt|Numbers$py.test$5|Numbers$py.call_function,0.0,0.08639435762578535,0.0,0.011182610183421371,0.09757696780920672
PyObject._gt|Numbers$py.test$8|Numbers$py.call_function,0.0,0.05771590750167323,0.0,0.008064238256610515,0.06578014575828374
PyObject._lt|Numbers$py.test$11|Numbers$py.call_function,0.0,0.05115406162487282,0.0,0.0067151624685486,0.05786922409342142
PyObject._lt|Numbers$py.test$5|Numbers$py.call_function,0.0,0.013621444656683095,0.0,0.0019990765056554466,0.015620521162338542
PyObject._lt|Strings$py.test$5|Strings$py.call_function,0.0,0.027317727914333564,0.0,0.0037552546054885924,0.031072982519822157
PyObject._ne|Constructs$py.test$2|Constructs$py.call_function,0.0,0.03847415384557396,0.0,0.0059123076924804925,0.04438646153805446
PyObject._try__cmp__|PyObject._cmpeq_unsafe|PyObject._eq,0.0,0.01911037691061605,0.0,0.002676119773517891,0.02178649668413394
PyObject.delete_token|PyObject._gt|Numbers$py.test$8,0.0,0.06893478459908968,0.0,0.010667166336702987,0.07960195093579267
PyObject.getType|PyObject._add|Arithmetic$py.test$5,0.0,0.05774164248690685,0.0,0.009431183653580056,0.0671728261404869
PyObject.isDataDescr|PyObject.object___findattr__|PyObject.__findattr_ex__,0.0384597975886555,0.06353452381084762,0.0039679775220117655,0.008699999999797519,0.11466229892131241
PyObjectDerived.dispatch__init__|PyType.invoke_new_|PyType.type___call__,0.0,0.03558286658032825,0.0,0.005727448906079646,0.04131031548640789
PySequence$1.getItem|SequenceIndexDelegate.checkIdxAndFindItem|PySequence.seq___finditem__,0.0,0.050964444445627234,0.0,0.007966666667016398,0.05893111111264363
PySequence$1.len|SequenceIndexDelegate.fixindex|SequenceIndexDelegate.checkIdxAndFindItem,0.0,0.04002172381234621,0.0,0.0068437142857008075,0.046865438098047024
PySequence$1.len|SequenceIndexDelegate.getSlice|PySequence.seq___getslice__,0.0,0.1850337740797077,0.0,0.02402834787042627,0.20906212195013396
PySequence.<init>|PyBaseString.<init>|PyString.<init>,0.0,0.13285972222365672,0.0,0.018888333333153342,0.15174805555681006
PySequence.<init>|PySequenceList.<init>|PyTuple.<init>,0.0,0.09418995833887796,0.0,0.014936250000422053,0.10912620833930001
PySequence.seq___lt__|PySequence.__lt__|PyObject._lt,0.0,0.06285518182266969,0.0,0.00842727272769976,0.07128245455036945
PyString$str_isdigit_exposer.bind|PyMethodDescr.method_descriptor___get__|PyMethodDescr.__get__,0.0,0.049816428571440544,0.0,0.010103571428425356,0.0599199999998659
PyString.<init>|PyString.<init>|PyString.createInstance,0.0,0.05243944444777703,0.0,0.006816666666256626,0.05925611111403366
PyString.__add__|PyObject._basic_add|PyObject._add,0.0,0.04492064144416588,0.0,0.009216987573116736,0.05413762901728262
PyString.atoi|PyString.__int__|PyInteger.asPyInteger,0.040422236113146125,0.0,0.004260208333107585,0.0,0.04468244444625371
PyString.coerce|PyString.str___lt__|PyString.__lt__,0.0,0.05166533948880297,0.0,0.00991883449391084,0.061584173982713805
PyString.createInstance|PyString.fromSubstring|PyString.getslice,0.0,0.05243944444777703,0.0,0.006816666666256626,0.05925611111403366
PyString.str_isalnum|PyString$str_isalnum_exposer.__call__|PyObject.__call__,0.0,0.049816428571440544,0.0,0.010103571428425356,0.0599199999998659
PyString.str_title|PyString$str_title_exposer.__call__|PyObject.__call__,0.0,0.035054499998902124,0.0,0.006489999999757856,0.04154449999865998
PyString.str_title|PyUnicode.unicode_title|PyUnicode$unicode_title_exposer.__call__,0.0,0.0967500000014507,0.0,0.00844615384602758,0.10519615384747828
PyString.toString|PyString.coerce|PyString.str___gt__,0.0,0.03619275326677068,0.0,0.004845293139913295,0.04103804640668398
PyStringMap.__finditem__|PyClass.lookup|PyInstance.__findattr_ex__,0.0,0.1171721250017678,0.0,0.018068750000338696,0.1352408750021065
PyStringMap.__finditem__|PyFrame.doGetglobal|PyFrame.getglobal,0.02288402786524467,0.14921413822535398,0.0032700327905735077,0.026587201227263685,0.20195540010843582
PyStringMap.__finditem__|PyType.lookup|PyObject.object___findattr__,0.0,0.07217992982712754,0.0,0.0105852631580395,0.08276519298516703
PySystemState$DefaultBuiltinsHolder.fillin|PySystemState$DefaultBuiltinsHolder.<clinit>|PySystemState.getDefaultBuiltins,0.050225008268100856,0.0,0.006165190434752503,0.0,0.05639019870285336
PySystemState.<init>|PySystemState.doInitialize|PySystemState.initialize,0.02037697092490799,0.0,0.0023905491830914834,0.0,0.022767520107999477
PyTableCode.call|PyBaseCode.call|PyFunction.__call__,0.0,0.24182545826283733,0.0,0.04103852703456815,0.2828639852974055
PyTuple.getslice|PySequence$1.getSlice|SequenceIndexDelegate.getSlice,0.0,0.09987964501293997,0.0,0.013210136752172535,0.1130897817651125
PyTuple.pyget|PySequence$1.getItem|SequenceIndexDelegate.checkIdxAndFindItem,0.0,0.06684117630602042,0.0,0.010686726415914194,0.07752790272193462
PyType.fromClass|PyObject.<init>|PyFrame.<init>,0.0,0.3416198657734504,0.0,0.053661574265180555,0.3952814400386309
PyType.fromClass|PyObject.<init>|PyMethod.<init>,0.07277761111021794,0.0,0.008352499999849291,0.0,0.08113011111006722
PyType.fromClass|PyObject.<init>|PyStringMap.<init>,0.0,0.07573992856049873,0.0,0.010382466986493137,0.08612239554699186
PyType.invoke_new_|PyType.type___call__|PyType.__call__,0.0821228097075811,0.04102976005950081,0.010549045535973602,0.0067012536687368705,0.14040286897179238
PyType.isSubType|PyDescriptor.checkGetterType|PyMethodDescr.method_descriptor___get__,0.0,0.04102976005950081,0.0,0.0067012536687368705,0.04773101372823768
PyType.lookup|PyObject.object___findattr__|PyObject.__findattr_ex__,0.0,0.07217992982712754,0.0,0.0105852631580395,0.08276519298516703
PyUnicode.<init>|PyUnicode.<init>|PyUnicode.fromSubstring,0.0,0.19894704768055296,0.0,0.027335815464856937,0.2262828631454099
PyUnicode.<init>|PyUnicode.<init>|PyUnicode.unicode___add__,0.0,0.02032441484678002,0.0,0.0039751392216219785,0.024299554068402
PyUnicode.<init>|PyUnicode.<init>|PyUnicode.unicode_title,0.0,0.07241123076864123,0.0,0.0085153846151885,0.08092661538382973
PyUnicode.unicode_title|PyUnicode$unicode_title_exposer.__call__|PyObject.__call__,0.0,0.06006951110903173,0.0,0.005821333333410115,0.06589084444244184
PyXRange.getLenOfRange|__builtin__.range|BuiltinFunctions.__call__,0.0,0.07074374999774591,0.0,0.01014375000011114,0.08088749999785705
PyXRange.pyget|PySequence$1.getItem|SequenceIndexDelegate.checkIdxAndFindItem,0.0,0.07313265342772386,0.0,0.011110831914605143,0.084243485342329
PythonLexer.nextToken|BaseParser$PyLexer.nextToken|CommonTokenStream.fillBuffer,0.07296054647319355,0.0,0.009118051244168302,0.0,0.08207859771736185
PythonParser$compound_stmt_return.<init>|PythonParser.compound_stmt|PythonParser.stmt,0.03208835600017572,0.0,0.003952358282831279,0.0,0.036040714283006994
PythonParser.<clinit>|BaseParser.setupParser|BaseParser.parseModule,0.13397134768986635,0.0,0.013281478124564396,0.0,0.14725282581443075
PythonParser.break_stmt|PythonParser.flow_stmt|PythonParser.small_stmt,0.04286890367276803,0.0,0.0048714883990197185,0.0,0.04774039207178775
PythonParser.or_test|PythonParser.test|PythonParser.testlist,0.05130589025294243,0.0,0.0069159272300118365,0.0,0.05822181748295427
PythonParser.simple_stmt|PythonParser.stmt|PythonParser.suite,0.03208835600017572,0.0,0.003952358282831279,0.0,0.036040714283006994
PythonParser.test|PythonParser.testlist|PythonParser.synpred2_Python_fragment,0.04756551685454871,0.0,0.005120654612958449,0.0,0.05268617146750716
Raise$lineno_descriptor.<init>|Raise$PyExposer.<init>|Raise.<clinit>,0.03769545972476578,0.0,0.0033933454524271637,0.0,0.04108880517719295
RewriteRuleElementStream.<init>|RewriteRuleSubtreeStream.<init>|PythonParser.atom,0.03144710539526726,0.0,0.004316539389971974,0.0,0.03576364478523923
SequenceIndexDelegate.fixindex|SequenceIndexDelegate.checkIdxAndFindItem|PySequence.seq___finditem__,0.0,0.08001700000022538,0.0,0.012374999999641052,0.09239199999986643
SignatureFileVerifier.<clinit>|JarFile.initializeVerifier|JarFile.getInputStream,0.04451496296247502,0.0,0.004422222222072175,0.0,0.0489371851845472
Strings$py.test$11|Strings$py.call_function|PyTableCode.call,0.0,0.4023416517917096,0.0,0.07678555103941626,0.47912720283112586
Strings$py.test$14|Strings$py.call_function|PyTableCode.call,0.0,0.28263923610918734,0.0,0.03931562500030042,0.3219548611094878
Strings$py.test$17|Strings$py.call_function|PyTableCode.call,0.0,0.14690711904508394,0.0,0.023321071428784174,0.1702281904738681
Strings$py.test$20|Strings$py.call_function|PyTableCode.call,0.0,0.4324630476129685,0.0,0.06876071428598064,0.5012237618989491
Strings$py.test$2|Strings$py.call_function|PyTableCode.call,0.0,0.3562542366442043,0.0,0.07475298651135215,0.43100722315555645
Strings$py.test$5|Strings$py.call_function|PyTableCode.call,0.0,0.21328193207948914,0.0,0.027828717509144358,0.2411106495886335
Strings$py.test$8|Strings$py.call_function|PyTableCode.call,0.0,0.5317055836697556,0.0,0.06973109384081307,0.6014366775105687
TestHarness.twoDecimalPlaces|TestHarness.<clinit>|Harness.main,0.0,0.0,0.0,0.0,0.0
Tuple$PyExposer.<init>|Tuple.<clinit>|PythonParser.testlist_gexp,0.032864276306987274,0.0,0.004351594454014542,0.0,0.037215870761001815
Tuples$py.test$2|Tuples$py.call_function|PyTableCode.call,0.0,0.11986876353276549,0.0,0.014672136752063736,0.13454090028482923
Tuples$py.test$5|Tuples$py.call_function|PyTableCode.call,0.0,0.43918668889980633,0.0,0.05747833333306415,0.49666502223287046
US_ASCII$Decoder.decodeArrayLoop|US_ASCII$Decoder.decodeLoop|CharsetDecoder.decode,1.219387242978755,0.0,0.14262945054909038,0.0,1.3620166935278453
UTF_8$Decoder.decode|ZipCoder.toString|ZipCoder.toStringUTF8,0.052345156493510826,0.0,0.006479483199143733,0.0,0.05882463969265456
UnaryOp$PyExposer.<init>|UnaryOp.<clinit>|PythonParser.not_test,0.03144710539526726,0.0,0.004316539389971974,0.0,0.03576364478523923
Unicode$py.test$11|Unicode$py.call_function|PyTableCode.call,0.0,0.09722444073963687,0.0,0.0117783478706591,0.10900278861029597
Unicode$py.test$5|Unicode$py.call_function|PyTableCode.call,0.0,0.25417084815923036,0.0,0.04336774184274177,0.29753859000197214
Unicode$py.test$8|Unicode$py.call_function|PyTableCode.call,0.0,0.10023333333406803,0.0,0.018700000000131292,0.11893333333419932
__builtin__.fillWithBuiltins|PySystemState$DefaultBuiltinsHolder.fillin|PySystemState$DefaultBuiltinsHolder.<clinit>,0.08796640068926068,0.0,0.009873504829478035,0.0,0.09783990551873871
__builtin__.isinstance|BuiltinFunctions.__call__|PyObject.__call__,0.0,0.06342362493344555,0.0,0.011803735367924744,0.0752273603013703
traceback$py.<init>|NativeConstructorAccessorImpl.newInstance0|NativeConstructorAccessorImpl.newInstance,0.07342642963318015,0.0,0.01060015442376992,0.0,0.08402658405695007
unicodedata$py.call_function|PyTableCode.call|PyBaseCode.call,0.0,0.11011309090827126,0.0,0.015475909090872103,0.12558899999914336
unicodedata$py.init_east_asian_width$5|unicodedata$py.call_function|PyTableCode.call,0.0,0.005619076922392617,0.0,0.0007606153846539273,0.006379692307046544
unicodedata$py.init_unicodedata$4|unicodedata$py.call_function|PyTableCode.call,0.10232469401336555,0.0,0.012853334249409046,0.0,0.1151780282627746
