method,package1,package2,dram1,dram2,energy
ANTLRStringStream.rewind,0.0921638124987112,0.0,0.014916874999749375,0.0,0.10708068749846057
AccessorGenerator.emitBoxingContantPoolEntries,0.07031395480478718,0.0,0.009979830508246638,0.0,0.08029378531303381
Arithmetic$py.test$11,0.4303695908951496,0.0,0.046384601948279654,0.0,0.47675419284342924
Arithmetic$py.test$14,0.5062563745381676,0.0,0.05694922222166026,0.0,0.5632055967598278
Arithmetic$py.test$2,0.3745605907387557,0.0,0.04440397128567445,0.0,0.41896456202443016
Arithmetic$py.test$5,0.7938420437008853,0.0,0.10197088305185514,0.0,0.8958129267527404
Arithmetic$py.test$8,0.414556543619781,0.0,0.050035838473301786,0.0,0.4645923820930828
BaseLocale.equals,0.02710873292492981,0.0,0.0036009269780381795,0.0,0.03070965990296799
BaseParser.setupParser,0.0,0.12831606666829126,0.0,0.015245999999388003,0.14356206666767926
Benchmark.fileFromInputStream,0.0,0.07580644677154354,0.0,0.010887391009635641,0.08669383778117917
BuiltinFunctions.__call__,0.07939488560495217,0.0,0.007994922721745408,0.0,0.08738980832669757
ByteVector.putByte,0.0,0.09162666666353204,0.0,0.011113636363998838,0.10274030302753089
CachedJarsPackageManager.addZipEntry,0.0,0.060455754765300344,0.0,0.008083578284787035,0.06853933305008739
CachedJarsPackageManager.listToString,0.0,0.036514028914075215,0.0,0.004418822310260033,0.04093285122433525
Calls$py.k$20,0.0,0.16206866666228353,0.0,0.02472500000051999,0.18679366666280353
Calls$py.test$16,0.0,0.1987913333335503,0.0,0.02596999999999146,0.22476133333354179
Calls$py.test$2,0.0,0.4569174666694986,0.0,0.059844999999162,0.5167624666686607
ClassFile.addMethod,0.0,0.06663909091113247,0.0,0.008381818181188657,0.07502090909232113
ClassicPyObjectAdapter$NumberToPyInteger.<init>,0.0,0.06457810751779995,0.0,0.007887329110088439,0.07246543662788839
CodeAttribute.<init>,0.0,0.062178666664597884,0.0,0.007875000000118839,0.07005366666471673
CodeCompiler.visitFunctionDef,0.0,0.023283796297080158,0.0,0.00227916666652298,0.025562962963603136
CommonTokenStream.fillBuffer,0.0,0.023731692309061497,0.0,0.003143076923151966,0.026874769232213463
ConfigFile.<init>,0.0,0.057946420895974175,0.0,0.00802016421414466,0.06596658511011884
Constructs$py.test$2,0.0,0.1661788666641331,0.0,0.022109555555356628,0.18828842221948972
Constructs$py.test$5,0.0,0.05328782221768051,0.0,0.008946666666694605,0.06223448888437512
Constructs$py.test$8,0.0,0.3251903000042755,0.0,0.04702300000044489,0.3722133000047204
DFA.unpackEncodedString,0.0,0.08905202777168597,0.0,0.010349166666451814,0.09940119443813779
Dict$PyExposer.<init>,0.0070891851867566375,0.0,0.0011999999998672,0.0,0.008289185186623837
Dict$py.test$11,0.0,0.1965559999926309,0.0,0.03637444444528363,0.23293044443791452
Dict$py.test$14,0.10924401249922086,0.0,0.012265625000024252,0.0,0.12150963749924511
Dict$py.test$2,0.0,0.27506506666153047,0.0,0.061379999999189756,0.3364450666607202
Dict$py.test$5,0.0,0.0961959111122673,0.0,0.021164000000216118,0.11735991111248342
Dict$py.test$8,0.0,0.3628173333224065,0.0,0.05899800000042886,0.4218153333228354
Exceptions$py.test$2,0.1850329208506155,0.0,0.019069053120571083,0.0,0.2041019739711866
Exceptions$py.test$5,0.16511697270561254,0.0,0.006177035682569838,0.0,0.17129400838818237
FieldInfo.read,0.0,0.03455961571087512,0.0,0.004603994984918146,0.039163610695793265
FloatingDecimal.readJavaFormatString,0.07311649122895783,0.0,0.009079736841913846,0.0,0.08219622807087168
GrammarActions.makeFor,0.0,0.032470666665445874,0.0,0.004379999999838656,0.03685066666528453
GrammarActions.makeFuncdef,0.0,0.032389333337993806,0.0,0.004257777778009228,0.03664711111600304
Imports$py.test$2,0.0,0.03243770833250892,0.0,0.0057843749997725045,0.03822208333228142
Imports$py.test$5,0.02582256410208244,0.0,0.003704615384310436,0.0,0.029527179486392875
Instances$py.test$2,0.0,0.07875973333527023,0.0,0.010076000000602409,0.08883573333587264
JarFileFactory.get,0.019667318181415216,0.0,0.003072272727050321,0.0,0.022739590908465536
JavaImportHelper.buildLoadedPackages,0.0,0.11582666665883692,0.0,0.01158361111110598,0.1274102777699429
ListComp$PyExposer.<init>,0.0,0.04010416666666666,0.0,0.004745999999795457,0.04485016666646212
Lists$py.test$2,0.41272884662418785,0.0,0.05390275153840636,0.0,0.4666315981625942
Lists$py.test$8,0.10906744757522802,0.0,0.009008931848095895,0.0,0.11807637942332391
Lookups$py.test$12,0.16740594596574448,0.0,0.01609301467970046,0.0,0.18349896064544494
Lookups$py.test$17,0.0,0.4820963333331747,0.0,0.06454500000048333,0.546641333333658
Lookups$py.test$2,0.0975231662453511,0.0,0.00930234853584223,0.0,0.10682551478119333
Lookups$py.test$22,0.0,0.07147224999789614,0.0,0.009202499999446443,0.08067474999734259
Lookups$py.test$7,0.0,0.5382302222187043,0.0,0.0629288888891029,0.6011591111078072
Module.PyCode,0.0,0.09162666666353204,0.0,0.011113636363998838,0.10274030302753089
NewInstances$py.test$3,0.0,0.0856710302989196,0.0,0.011141818182130172,0.09681284848104978
Numbers$py.test$11,0.0,0.09394316666778954,0.0,0.01311000000017278,0.10705316666796232
Numbers$py.test$2,0.0,0.07784757575736323,0.0,0.010431818181766146,0.08827939393912937
Numbers$py.test$5,0.0,0.07374456250120905,0.0,0.009016875000080896,0.08276143750128995
Numbers$py.test$8,0.0,0.13049629735084609,0.0,0.016445085227036485,0.14694138257788258
POSIXFactory.loadLinuxPOSIX,0.0,0.048193399995216164,0.0,0.006959999999889986,0.05515339999510615
PackageManager.checkAccess,0.0,0.13180369348522974,0.0,0.013475491765220582,0.14527918525045033
Py.<clinit>,0.0,0.042162458686482614,0.0,0.005208388043313283,0.0473708467297959
Py.getThreadState,0.025576634920157843,0.10647062500114163,0.0036228571423432892,0.015785625000186577,0.15145574206382934
Py.newString,0.0,0.0674183333315644,0.0,0.008587499999824406,0.0760058333313888
PyBaseCode.call,0.03552953315567805,0.14754527161346265,0.0047615709805456895,0.017843703704582166,0.20568007945426856
PyComplex$PyExposer.<init>,0.0,0.04477066666697197,0.0,0.005439999999777812,0.05021066666674978
PyComplex.complex___sub__,0.04404560416605818,0.0,0.006544999999732681,0.0,0.050590604165790864
PyDictionary.<init>,0.0,0.059065600003426276,0.0,0.01302800000072845,0.07209360000415473
PyException.fillInStackTrace,0.04163209301380083,0.0,0.005386074088854885,0.0,0.04701816710265572
PyException.tracebackHere,0.04045421139961207,0.0,0.003852857230639851,0.0,0.04430706863025192
PyFloat.<init>,0.031781906967811295,0.0,0.0038696308979837032,0.0,0.035651537865794995
PyFloat.float___add__,0.027592674033094882,0.0,0.004634369753864679,0.0,0.032227043786959564
PyFloat.float___div__,0.03019199999956375,0.0,0.004184999999779393,0.0,0.03437699999934314
PyFloat.float___mul__,0.03333533333231268,0.0,0.002742499999537055,0.0,0.03607783333184973
PyFrame.<init>,0.32126977919910715,0.11661800000971805,0.03619003528918676,0.016044999999697513,0.49012281449770945
PyFrame.doGetglobal,0.01998570012657488,0.0,0.0023692042268264627,0.0,0.022354904353401345
PyFrame.getLocals,0.05324779487161252,0.0,0.007369230769258231,0.0,0.06061702564087075
PyFrame.getglobal,0.10386208513345765,0.0,0.010500779103670485,0.0,0.11436286423712815
PyFrame.getlocal,0.23275668121030033,0.07996667677070946,0.031709892723051275,0.011505303030068229,0.3559385537341293
PyFrame.setline,0.1280226223026613,0.09128013333199003,0.013786364981029336,0.011771000000044296,0.24486012061572496
PyFrame.setlocal,0.17310502565178146,0.11242767407524365,0.023202251356785945,0.018489777777641492,0.32722472886145254
PyFunction.__call__,0.038243521141126495,0.08983272727522434,0.005180774029347653,0.012436363636383743,0.14569338608208227
PyInstance.__findattr_ex__,0.03939223535238805,0.0,0.00024402418717252446,0.0,0.03963625953956057
PyInteger$PyExposer.<init>,0.0,0.03455961571087512,0.0,0.004603994984918146,0.039163610695793265
PyInteger._sub,0.0334420357036398,0.0,0.002232571349655816,0.0,0.035674607053295615
PyInteger.canCoerce,0.0,0.06042476190486922,0.0,0.009796428571679002,0.07022119047654822
PyInteger.coerce,0.036835053031940006,0.0,0.006590909091452582,0.0,0.043425962123392586
PyInteger.getValue,0.0,0.05387366666885403,0.0,0.006822500000149981,0.06069616666900401
PyInteger.int___div__,0.03156588316867128,0.0,0.00488194094240774,0.0,0.036447824111079025
PyJavaPackage.<init>,0.0,0.06045612245685241,0.0,0.007859216695251688,0.0683153391521041
PyJavaPackage.addPackage,0.0,0.046295336500397764,0.0,0.0061918341142416615,0.05248717061463942
PyJavaType.init,0.0,0.07240299999466515,0.0,0.009157499999673746,0.0815604999943389
PyList$PyExposer.<init>,0.0,0.08947326461801601,0.0,0.01075558639046893,0.10022885100848494
PyList.list___iter__,0.0569949926663071,0.0,0.00615694072153063,0.0,0.06315193338783773
PyList.pyget,0.0,0.07434906667331234,0.0,0.01133600000030128,0.08568506667361363
PyLong.canCoerce,0.09223626471743321,0.0,0.011145305851287887,0.0,0.10338157056872109
PyModule$PyExposer.<init>,0.0,0.06568899999911082,0.0,0.009164999999939027,0.07485399999904985
PyObject.<init>,0.02193007976753079,0.1287103342094929,0.0017348413281494965,0.016484962477894702,0.16886021778306787
PyObject.__call__,0.0,0.044235952383522605,0.0,0.0070785714286189655,0.05131452381214157
PyObject.__findattr__,0.09352942690156583,0.0,0.014891403508358988,0.0,0.10842083040992483
PyObject.__getattr__,0.06913464918162818,0.06262199999764563,0.009553827084140754,0.008245000000291231,0.14955547626370583
PyObject._basic_sub,0.0,0.044235952383522605,0.0,0.0070785714286189655,0.05131452381214157
PyObject._div,0.031781906967811295,0.0,0.0038696308979837032,0.0,0.035651537865794995
PyObject._eq,0.13268076067959553,0.0,0.01666930478220051,0.0,0.14935006546179602
PyObject._gt,0.0,0.024936222222297345,0.0,0.003213333333405899,0.028149555555703244
PyObject._lt,0.02575201611061425,0.024481888887951043,0.00345497488234347,0.003218333333481698,0.05690721321439046
PyObject.asIndex,0.025065118279207932,0.0,0.0035096774189432548,0.0,0.028574795698151186
PyObject.equals,0.09437087194869825,0.0,0.00993672425915939,0.0,0.10430759620785765
PyObject.isDataDescr,0.03476128247422328,0.045159222223446704,0.003451243743107789,0.00791166666668788,0.09128341510746565
PyObjectDerived.dispatch__init__,0.0,0.04588727272648336,0.0,0.006518181818330159,0.05240545454481352
PySequence.<init>,0.013423898326035409,0.0,0.0003568175169940623,0.0,0.013780715843029472
PySequence.seq___finditem__,0.0,0.06438074073823237,0.0,0.010764444444147456,0.07514518518237982
PySequence.seq___setitem__,0.035505092345026946,0.0,0.005450359210199751,0.0,0.040955451555226695
PySequence.sliceLength,0.028403998942869726,0.0,0.00488145660230029,0.0,0.03328545554517002
PySet$PyExposer.<init>,0.0,0.08518761904616397,0.0,0.011685714285011358,0.09687333333117533
PySlice.indicesEx,0.06688435475558935,0.0,0.007963252520324775,0.0,0.07484760727591412
PyString$str_isupper_exposer.bind,0.048285787327386184,0.0,0.005277929020072154,0.0,0.05356371634745834
PyString.atof,0.033624980940887825,0.0,0.0031202906798760512,0.0,0.036745271620763874
PyString.getslice,0.015259338173088654,0.0,0.002099582203968405,0.0,0.01735892037705706
PyString.str_islower,0.04315443150663115,0.0,0.0056750862043595885,0.0,0.048829517710990734
PyString.str_title,0.13632600439687093,0.0,0.01489071634606857,0.0,0.1512167207429395
PyString.unicodeJoin,0.027827883043671925,0.0,0.004898487812323645,0.0,0.03272637085599557
PyStringMap.__finditem__,0.2271083975030786,0.08325200000156957,0.023050142154956085,0.011503999999937757,0.344914539659542
PyStringMap.__setitem__,0.0,0.0915120000039072,0.0,0.01231999999981781,0.10383200000372501
PySystemState.<clinit>,0.0,0.046279129995938126,0.0,0.005646775793608011,0.05192590578954614
PyTableCode.call,0.029786156671767074,0.0514583333348301,0.004014568043204313,0.00807499999999501,0.0933340580497965
PyTuple.<init>,0.035867486495690236,0.0,0.004858555880813414,0.0,0.04072604237650365
PyTuple.getslice,0.15420151790557765,0.0,0.02171563638492975,0.0,0.17591715429050742
PyType.fromClass,0.21223349732282432,0.6412579767672055,0.025510657877143243,0.09074781586320951,0.9697499478303826
PyType.lookup,0.0,0.13499194949867105,0.0,0.020348030303071623,0.15533997980174266
PyUnicode$PyExposer.<init>,0.0,0.06796690476351483,0.0,0.00873928571439007,0.0767061904779049
PyUnicode.<init>,0.0,0.07545638889132532,0.0,0.008995833333419459,0.08445222222474477
PyXRange.xrange___new__,0.03108291758576158,0.0,0.0016482878556451255,0.0,0.0327312054414067
PythonParser.<clinit>,0.0,0.018166564103478614,0.0,0.002086153846063937,0.020252717949542552
PythonParser.else_clause,0.0,0.07127890000071298,0.0,0.008571500000349865,0.07985040000106285
PythonParser.expr_stmt,0.0,0.06686722222285528,0.0,0.009037499999572495,0.07590472222242778
PythonParser.shift_expr,0.0,0.06506364583462224,0.0,0.007726874999889333,0.07279052083451157
PythonParser.synpred11_Python,0.0,0.08483888889006469,0.0,0.009062499999951493,0.09390138889001619
PythonParser.testlist_gexp,0.0,0.032470666665445874,0.0,0.004379999999838656,0.03685066666528453
PythonParser.trailer,0.0,0.1221981592566374,0.0,0.014804833333861702,0.1370029925904991
RewriteRuleElementStream.<init>,0.0,0.06468027777979538,0.0,0.007066666666004394,0.07174694444579977
RuleBasedBreakIterator.handleNext,0.06658792146345949,0.0,0.007004318517939925,0.0,0.07359223998139941
ScopesCompiler.beginScope,0.0,0.07113393939851613,0.0,0.010218181818565812,0.08135212121708194
SequenceIndexDelegate.fixindex,0.0,0.03238259259012045,0.0,0.0045888888888401674,0.036971481478960615
Strings$py.test$11,0.0,0.6684151882723038,0.0,0.12007692082042283,0.7884921090927267
Strings$py.test$14,0.043597244990681835,0.0,0.002230265929590439,0.0,0.04582751092027228
Strings$py.test$17,0.012277846722090795,0.0,0.0012156283885436155,0.0,0.013493475110634411
Strings$py.test$2,0.0,0.12969627777325782,0.0,0.020123055555072992,0.1498193333283308
Strings$py.test$20,0.04668392884965476,0.0,0.007404722658538532,0.0,0.054088651508193294
Strings$py.test$5,0.0,0.44739783333595057,0.0,0.060127499999301406,0.507525333335252
Strings$py.test$8,0.0,0.4336740370423219,0.0,0.057835000000219836,0.49150903704254173
Subscript$PyExposer.<init>,0.0,0.050386466668957526,0.0,0.006621999999515537,0.05700846666847306
Tuples$py.test$2,0.07758483199054443,0.0,0.012926773696979029,0.0,0.09051160568752346
Tuples$py.test$5,0.48155428511908194,0.0,0.08000889789944322,0.0,0.5615631830185251
UTF_8$Decoder.decode,0.0,0.02755019882205466,0.0,0.003625935582759685,0.031176134404814343
Unicode$py.test$17,0.27121437726280306,0.0,0.02785599263599086,0.0,0.29907036989879393
Unicode$py.test$2,0.0,0.028526488889474424,0.0,0.004629333333286923,0.033155822222761346
Unicode$py.test$20,0.02201954591817052,0.0,0.002964181875077993,0.0,0.024983727793248513
Unicode$py.test$5,0.0,0.27166175925608343,0.0,0.03688694444469918,0.30854870370078263
Unicode$py.test$8,0.0,0.07188354838534347,0.0,0.01745806451635285,0.08934161290169632
UnsafeFieldAccessorFactory.newFieldAccessor,0.02783517543751881,0.05622850000509061,0.002740789473535729,0.007698750000145083,0.09450321491629024
exceptions.classDictInit,0.0,0.06002800000351272,0.0,0.008160000000316359,0.06818800000382907
imp.getSyspathJavaLoader,0.0,0.044479499996668885,0.0,0.006135000000085711,0.050614499996754596
imp.import_next,0.0701178958318754,0.0,0.010288437498957135,0.0,0.08040633333083254
unicodedata$py.check_segments$8,0.04354280691643205,0.0,0.00470606038373608,0.0,0.048248867300168134
unicodedata$py.get$11,0.03675038801495708,0.0,0.00525550409266496,0.0,0.04200589210762204
unicodedata$py.init_east_asian_width$5,0.029078410328167482,0.08764407692106965,0.004066819286336895,0.01199923076961941,0.13278853730519344
unicodedata$py.init_unicodedata$4,0.15549648808074026,0.0,0.015309123157385536,0.0,0.1708056112381258
