method,package1,package2,dram1,dram2,energy
AbstractCollection.<init>|AbstractSet.<init>|HashSet.<init>,0.03398982222182288,0.0,0.0029353333338804077,0.0,0.03692515555570329
AbstractCollection.toArray|ArrayList.<init>|PyList.getslice,0.08276384220714723,0.0,0.008085609389061733,0.0,0.09084945159620897
AbstractList.<init>|ArrayList.<init>|Generic.list,0.0,0.06966500000190637,0.0,0.009191666666386784,0.07885666666829315
AccessController.doPrivileged|URLClassLoader.findClass|ClassLoader.loadClass,0.0,0.08215333333646413,0.0,0.009565000000293368,0.0917183333367575
ArrayList.add|Py.make_array|PyTuple.tuple_new,0.0303078212210582,0.0,0.002538274481574144,0.0,0.03284609570263235
Arrays.asList|PyTuple.getList|PyList.list___init__,0.04102372389502065,0.0,0.003568040790521572,0.0,0.044591764685542226
Arrays.copyOfRange|String.<init>|DataInputStream.readUTF,0.0,0.1357420000034229,0.0,0.017780000000129803,0.1535220000035527
Arrays.copyOf|AbstractStringBuilder.ensureCapacityInternal|AbstractStringBuilder.append,0.059762888889235914,0.0,0.005847333334046804,0.0,0.06561022222328272
Arrays.copyOf|String.concat|PyString.str___add__,0.05751146666686205,0.0,0.00878999999986263,0.0,0.06630146666672468
Arrays.copyOf|String.concat|PyUnicode.unicode___add__,0.13966794766385582,0.0,0.018685413683422712,0.0,0.15835336134727854
BigInteger.add|BigInteger.add|PyLong.long___add__,0.029568596917399426,0.0,0.0050073485804661595,0.0,0.034575945497865586
BigInteger.destructiveMulAdd|BigInteger.<init>|GrammarActions.makeInt,0.0,0.03274071710077702,0.0,0.005723834048626796,0.038464551149403815
BufferedInputStream.<init>|BufferedInputStream.<init>|ClassPool.makeClass,0.0,0.06831612684066443,0.0,0.009390907689313742,0.07770703452997818
BufferedInputStream.getBufIfOpen|BufferedInputStream.fill|BufferedInputStream.read1,0.0,0.0830078947374683,0.0,0.008565789473658169,0.09157368421112647
BufferedInputStream.read1|BufferedInputStream.read|FilterInputStream.read,0.038564069639637766,0.08692193749933116,0.003890497767850873,0.011183437500145981,0.14055994240696576
BufferedInputStream.read|DataInputStream.readFully|DataInputStream.readFully,0.0,0.037802896343087165,0.0,0.00465496143234186,0.04245785777542903
BufferedInputStream.read|DataInputStream.readUnsignedByte|ConstPool.readOne,0.026001336145682164,0.0,0.0026109733625903435,0.0,0.028612309508272506
BufferedInputStream.read|DataInputStream.readUnsignedShort|ClassInfo.<init>,0.0,0.06576818181466396,0.0,0.008963181818465027,0.07473136363312899
BufferedInputStream.read|DataInputStream.readUnsignedShort|CodeAttribute.<init>,0.0,0.0,0.0,0.0,0.0
BufferedInputStream.read|DataInputStream.readUnsignedShort|DataInputStream.readUTF,0.0,0.03645869909531154,0.0,0.004076586187594143,0.04053528528290568
BufferedInputStream.read|DataInputStream.readUnsignedShort|MemberrefInfo.<init>,0.0,0.04772518451919632,0.0,0.0058303731783371955,0.05355555769753352
BufferedInputStream.read|DataInputStream.readUnsignedShort|NameAndTypeInfo.<init>,0.0,0.08219400000719664,0.0,0.010940000000118744,0.09313400000731538
BufferedInputStream.read|FilterInputStream.read|PushbackInputStream.read,0.042163750094503516,1.156188482891753,0.002734835425905468,0.1276795570178213,1.3287666254299833
BufferedOutputStream.<init>|Benchmark.fileFromInputStream|Benchmark.unpackZipStream,0.0,0.053804566666561485,0.0,0.008676499999819497,0.06248106666638098
BufferedOutputStream.write|Benchmark.fileFromInputStream|Benchmark.unpackZipStream,0.0,0.033512777779294456,0.0,0.004000000000006467,0.037512777779300926
CRC32.update|ZipInputStream.read|InflaterInputStream.read,0.0,0.14271038889031235,0.0,0.015616666666675074,0.15832705555698742
CRC32.update|ZipInputStream.read|ZipInputStream.skip,0.0,0.07747649999964779,0.0,0.008468437499914216,0.085944937499562
Character.getType|Character.isTitleCase|Character.isTitleCase,0.12901584109198544,0.0,0.010296738427233859,0.0,0.1393125795192193
Character.getType|Character.isUpperCase|Character.isUpperCase,0.040803870978787835,0.0,0.006550872853114014,0.0,0.04735474383190185
Character.isLowerCase|Character.isLowerCase|PyString.str_title,0.051803055419946516,0.0,0.003716301594031829,0.0,0.055519357013978345
Character.isUpperCase|Character.isUpperCase|PyString.str_title,0.04481045060353917,0.0,0.003296199879250093,0.0,0.04810665048278927
Character.toLowerCase|Character.toLowerCase|String.regionMatches,0.0,0.07580563636491372,0.0,0.010071818181875808,0.08587745454678952
Character.toLowerCase|Character.toLowerCase|String.toLowerCase,0.050156691814891484,0.0,0.003119518104035276,0.0,0.05327620991892676
Character.toLowerCase|String.toLowerCase|String.toLowerCase,0.045674188852687314,0.0,0.004646296602814508,0.0,0.05032048545550182
Character.toTitleCase|Character.toTitleCase|PyString.str_title,0.03767011951444334,0.0,0.005370617785816108,0.0,0.043040737300259445
CharacterData.of|Character.toLowerCase|Character.toLowerCase,0.051803055419946516,0.0,0.003716301594031829,0.0,0.055519357013978345
CharacterData00.getPropertiesEx|CharacterData00.isOtherLowercase|Character.isLowerCase,0.06099274779640446,0.0,0.005271182633096424,0.0,0.06626393042950089
CharacterDataLatin1.digit|Character.digit|Character.digit,0.0,0.036997088683689665,0.0,0.006776155908009589,0.043773244591699255
CharacterDataLatin1.getProperties|CharacterDataLatin1.toUpperCaseEx|Character.toUpperCaseEx,0.043963057226591495,0.0,0.00759969949529989,0.0,0.05156275672189139
Class.forName0|Class.forName|Jython.<init>,0.0,0.1357420000034229,0.0,0.017780000000129803,0.1535220000035527
Class.getConstructor0|Class.getConstructor|BytecodeLoader.makeCode,0.0,0.07405460277684353,0.0,0.009494212889861079,0.0835488156667046
Class.getDeclaredConstructors0|Class.privateGetDeclaredConstructors|Class.getConstructor0,0.0,0.48310356766295454,0.0,0.06726410715266645,0.550367674815621
ClassLoader.defineClass1|ClassLoader.defineClass|SecureClassLoader.defineClass,0.12289030908968099,1.2230307900512154,0.014010787878607808,0.15553973677268632,1.5154716237921904
Collections.synchronizedList|ClassFile.<init>|Module.<init>,0.0,0.05116783333505737,0.0,0.00611999999970673,0.057287833334764095
ConcurrentHashMap$Node.<init>|ConcurrentHashMap.putVal|ConcurrentHashMap.put,0.04092613333389939,0.0,0.003989999999854868,0.0,0.04491613333375426
ConcurrentHashMap.addCount|ConcurrentHashMap.putVal|ConcurrentHashMap.put,0.0834345033520418,0.0,0.007768684734926574,0.0,0.09120318808696838
ConcurrentHashMap.casTabAt|ConcurrentHashMap.putVal|ConcurrentHashMap.put,0.07690873842806621,0.0,0.007271703944022203,0.0,0.08418044237208841
ConcurrentHashMap.get|LocaleProviderAdapter.getAdapter|DecimalFormatSymbols.getInstance,0.0,0.0714226875006716,0.0,0.00885937499992906,0.08028206250060066
ConcurrentHashMap.get|PyDictionary.__finditem__|PyObject.__getitem__,0.033320816247949685,0.0,0.0028458238991776372,0.0,0.036166640147127324
ConcurrentHashMap.get|PyDictionary.dict_get|PyDictionary$dict_get_exposer.__call__,0.0343824145801662,0.0,0.004026285944831602,0.0,0.0384087005249978
ConcurrentHashMap.get|PyStringMap.__finditem__|PyClass.lookup,0.08754357030431298,0.0,0.00843933789278133,0.0,0.0959829081970943
ConcurrentHashMap.get|PyStringMap.__finditem__|PyFrame.doGetglobal,0.10462916820935661,0.2026522929228682,0.01223119951759479,0.02971954545460499,0.34923220610442457
ConcurrentHashMap.get|PyStringMap.__finditem__|PyType.lookup,0.03519588699791592,0.09583888888785927,0.003799588151164032,0.00992666666651429,0.1447610307034535
ConcurrentHashMap.putVal|ConcurrentHashMap.put|PyDictionary.dict___setitem__,0.12638056923646082,0.0,0.014480737748479112,0.0,0.14086130698493993
ConcurrentHashMap.putVal|ConcurrentHashMap.put|PyStringMap.__setitem__,0.17871984834001423,0.0,0.015444266710860667,0.0,0.19416411505087489
ConcurrentHashMap.replaceNode|ConcurrentHashMap.remove|PyDictionary.dict___delitem__,0.030681583333262093,0.0,0.0020649999998264925,0.0,0.03274658333308859
ConcurrentHashMap.tabAt|ConcurrentHashMap.get|PyStringMap.__finditem__,0.0,0.03733514322966347,0.0,0.0064404845229501465,0.043775627752613615
ConcurrentHashMap.tabAt|ConcurrentHashMap.putVal|ConcurrentHashMap.put,0.1823100536312209,0.0,0.018745931184775123,0.0,0.20105598481599604
ConcurrentHashMap.transfer|ConcurrentHashMap.addCount|ConcurrentHashMap.putVal,0.026612148459743936,0.0,0.004221059777514946,0.0,0.03083320823725888
DataInputStream.readFully|CodeAttribute.<init>|AttributeInfo.read,0.04113199999869031,0.0,0.005323181817595579,0.0,0.04645518181628589
DataInputStream.readInt|CodeAttribute.<init>|AttributeInfo.read,0.01981349999944844,0.0,0.0,0.0,0.01981349999944844
DataInputStream.readShort|PackageManager.checkAccess|CachedJarsPackageManager.addZipEntry,0.0,0.04797350000202034,0.0,0.005837500000173653,0.05381100000219399
DataInputStream.readUnsignedShort|NameAndTypeInfo.<init>|ConstPool.readOne,0.025986923076113902,0.0,0.00337307692368482,0.0,0.02935999999979872
DataInputStream.readUnsignedShort|PackageManager.checkAccess|CachedJarsPackageManager.addZipEntry,0.0,0.05178220000234432,0.0,0.005700000000069849,0.05748220000241417
DecimalFormatSymbols.<init>|DecimalFormatSymbolsProviderImpl.getInstance|DecimalFormatSymbols.getInstance,0.0,0.03632176068994712,0.0,0.005003997477918091,0.04132575816786521
DecimalFormatSymbols.getInstance|Formatter.getZero|Formatter.<init>,0.0,0.08511894303892603,0.0,0.011900147021745631,0.09701909006067166
EnumSet.noneOf|UniversalIOWrapper.<init>|ParserFacade.prepBufReader,0.0,0.08195345454574138,0.0,0.0147381818178198,0.09669163636356118
FileInputStream.available0|FileInputStream.available|BufferedInputStream.read,0.0,0.4529735890118736,0.0,0.05737534780547136,0.510348936817345
FileInputStream.readBytes|FileInputStream.read|BufferedInputStream.fill,0.05890281176807351,1.2532852457334527,0.004225620858480732,0.15120749836559086,1.4676211767255978
FileOutputStream.open0|FileOutputStream.open|FileOutputStream.<init>,0.0,0.40446611851863845,0.0,0.051355714286356005,0.45582183280499444
FileOutputStream.writeBytes|FileOutputStream.write|BufferedOutputStream.flushBuffer,0.0,1.1127665111091187,0.0,0.1475859999992988,1.2603525111084175
FileOutputStream.writeBytes|FileOutputStream.write|BufferedOutputStream.write,0.0,0.2499510164494015,0.0,0.03314767532548021,0.2830986917748817
FileOutputStream.writeBytes|FileOutputStream.write|imp.cacheCompiledSource,0.0,0.07316745161385554,0.0,0.008985322581089172,0.08215277419494471
Formatter$FormatSpecifier.<init>|Formatter.parse|Formatter.format,0.0,0.03632176068994712,0.0,0.005003997477918091,0.04132575816786521
Formatter$FormatSpecifier.getZero|Formatter$FormatSpecifier.localizedMagnitude|Formatter$FormatSpecifier.print,0.0,0.038330467144138174,0.0,0.005846945900049804,0.04417741304418798
Formatter$FormatSpecifier.precision|Formatter$FormatSpecifier.<init>|Formatter.parse,0.0,0.0928550000001754,0.0,0.00959500000074816,0.10245000000092355
Formatter.format|Formatter.format|String.format,0.0,0.05619898214488198,0.0,0.007975234640293136,0.06417421678517513
HashMap.getNode|HashMap.get|PyType.fromClass,0.03012988235294709,0.0,0.004479999999817023,0.0,0.03460988235276411
HashMap.hash|HashMap.get|CachedJarsPackageManager.addZipEntry,0.0,0.05026108178037213,0.0,0.006695181296795025,0.056956263077167155
HashMap.hash|HashMap.get|PyType.fromClass,0.06952927201363056,0.0,0.006809937474881484,0.0,0.07633920948851204
HashMap.resize|HashMap.putVal|HashMap.put,0.0,0.05244139999849722,0.0,0.006564000000071246,0.05900539999856847
Hashtable.get|ClassPool.getCached|ClassPool.get0,0.0,0.12727866666197465,0.0,0.012609999999767751,0.1398886666617424
HeapByteBuffer.<init>|ByteBuffer.allocate|FileIO.readall,0.0,0.03763833333262785,0.0,0.006084999999984575,0.04372333333261243
Inflater.finished|InflaterInputStream.read|ZipInputStream.read,0.0,0.11866367646578901,0.0,0.013435588235543215,0.13209926470133224
Inflater.inflateBytes|Inflater.inflate|InflaterInputStream.read,1.6280638071444995,17.0264206338344,0.1315021982037669,2.134923980492002,20.920910619674668
Inflater.inflate|InflaterInputStream.read|Resource.getBytes,0.0,0.071214934889862,0.0,0.009612993176119423,0.08082792806598142
Inflater.inflate|InflaterInputStream.read|ZipInputStream.read,0.061784873861368966,0.4704823064160016,0.005161578581244778,0.06152786715909418,0.5989566260177095
Inflater.needsDictionary|InflaterInputStream.read|ZipInputStream.read,0.0,0.06455483333411394,0.0,0.008117499999874173,0.0726723333339881
Inflater.needsInput|InflaterInputStream.read|ZipInputStream.read,0.0,0.02404190476296381,0.0,0.003137142857234548,0.027179047620198356
InflaterInputStream.ensureOpen|InflaterInputStream.read|ZipInputStream.read,0.0,0.09170049122685826,0.0,0.009092631578440835,0.1007931228052991
InflaterInputStream.fill|InflaterInputStream.read|ZipInputStream.read,0.03401276040944255,0.0,0.0026409553265224197,0.0,0.03665371573596497
InflaterInputStream.read|ZipInputStream.read|ZipInputStream.skip,0.0,0.08180769238370762,0.0,0.010757154998243252,0.09256484738195088
Integer.valueOf|PythonParser.atom|PythonParser.power,0.0,0.04164065137879065,0.0,0.004901703919246317,0.04654235529803697
Math.floor|PyFloat.float___hash__|PyFloat.hashCode,0.034124934749262564,0.0,0.0024957746224388163,0.0,0.03662070937170138
MutableBigInteger.divideKnuth|BigInteger.divideKnuth|BigInteger.divide,0.06356757874541674,0.0,0.0058768924653479476,0.0,0.06944447121076469
Object.<init>|PyObject.<init>|PyFrame.<init>,0.036782222222326605,0.0,0.004462500000449331,0.0,0.041244722222775934
Pattern$Start.match|Matcher.search|Matcher.find,0.0,0.050543384614567734,0.0,0.00542769230751452,0.05597107692208225
Pattern.union|Pattern.clazz|Pattern.sequence,0.0,0.0928550000001754,0.0,0.00959500000074816,0.10245000000092355
PushbackInputStream.read|InflaterInputStream.fill|InflaterInputStream.read,0.0,0.04513985714376238,0.0,0.005864999999955345,0.051004857143717726
PushbackInputStream.read|ZipInputStream.read|InflaterInputStream.read,0.0,0.06045592982365889,0.0,0.006513684210675133,0.06696961403433402
String.<init>|StringUtil.fromBytes|StringUtil.fromBytes,0.0,0.07480670330562827,0.0,0.009869054269744527,0.0846757575753728
String.concat|PyString.str___add__|PyString.__add__,0.03425604166598835,0.0,0.00559375000041958,0.0,0.03984979166640793
String.concat|PyUnicode.unicode___add__|PyUnicode.__add__,0.02431591716646821,0.0,0.003998553194310707,0.0,0.028314470360778915
String.hashCode|ConcurrentHashMap.get|PyStringMap.__finditem__,0.034606911111364345,0.06670466666885963,0.002221333333242607,0.012719999999616344,0.11625291111308293
String.hashCode|ConcurrentHashMap.putVal|ConcurrentHashMap.put,0.03930945154178416,0.0,0.004922593268318605,0.0,0.04423204481010277
String.hashCode|HashMap.hash|LinkedHashMap.get,0.0,0.02944950000043415,0.0,0.004267500000423753,0.0337170000008579
String.indexOf|String.indexOf|CachedJarsPackageManager.filterByName,0.03245306574004141,0.09071955019651803,0.0020677674349110693,0.012093232060712894,0.13733361543218342
String.indexOf|String.indexOf|imp.import_name,0.03587660000048345,0.0,0.004116000000794883,0.0,0.03999260000127833
String.intern|ImportFunction.__call__|PyObject.__call__,0.06344811111274692,0.0,0.004961333332903451,0.0,0.06840944444565038
String.intern|PyJavaPackage.addPackage|PackageManager.makeJavaPackage,0.029381642811517474,0.0,0.0018896800883751134,0.0,0.03127132289989259
String.intern|imp.import_next|imp.import_logic,0.03615733333184229,0.0,0.004427999999703995,0.0,0.040585333331546285
String.intern|imp.import_next|imp.import_name,0.17937824444363487,0.0,0.01918266666737812,0.0,0.19856091111101298
String.length|String.concat|PyString.str___add__,0.04506437500064445,0.0,0.00476875000003929,0.0,0.04983312500068374
String.replace|CachedJarsPackageManager.addZipEntry|CachedJarsPackageManager.getZipPackages,0.0,0.06560599999890351,0.0,0.007293333333412494,0.072899333332316
String.substring|imp.import_name|imp.importName,0.033496133334119806,0.0,0.004591999999441517,0.0,0.03808813333356132
String.toLowerCase|String.toLowerCase|PyString.str_lower,0.18872560529272353,0.0,0.014157682886013434,0.0,0.20288328817873696
String.toUpperCase|String.toUpperCase|PyString.str_upper,0.047489270417807004,0.0,0.00326164762376742,0.0,0.050750918041574423
StringCoding.deref|StringCoding.encode|String.getBytes,0.0,0.022854259258127528,0.0,0.0030444444443370835,0.025898703702464613
Thread.currentThread|ReentrantLock$Sync.tryRelease|AbstractQueuedSynchronizer.release,0.0,0.06510083060305431,0.0,0.008921436955190373,0.07402226755824469
ThreadLocal$ThreadLocalMap.getEntry|ThreadLocal$ThreadLocalMap.access$000|ThreadLocal.get,0.0813767990198268,0.060779999469762196,0.008557156863240925,0.004645117052182966,0.1553590724050129
Throwable.fillInStackTrace|Throwable.fillInStackTrace|PyException.fillInStackTrace,1.868760394121936,1.3159180112274302,0.1865896133248972,0.1799607426766081,3.5512287613508717
Throwable.fillInStackTrace|Throwable.fillInStackTrace|Throwable.<init>,0.0,0.9350569612756219,0.0,0.12597661412250646,1.0610335753981284
URLClassLoader$1.run|URLClassLoader$1.run|AccessController.doPrivileged,0.0,0.07117641025942226,0.0,0.010042307692343364,0.08121871795176562
UnixFileSystem.createDirectory|File.mkdir|Benchmark.unpackZipStream,0.0,0.05130200000130572,0.0,0.006492000000192396,0.05779400000149812
UnixFileSystem.getBooleanAttributes0|UnixFileSystem.getBooleanAttributes|File.isDirectory,0.040464883390728776,0.0,0.00438052769707281,0.0,0.04484541108780159
Vector.elementAt|Stack.peek|PythonParser.expr,0.0,0.07706326858440432,0.0,0.009557514314514485,0.08662078289891881
ZStreamRef.address|Inflater.inflate|InflaterInputStream.read,0.0,0.09598359420361584,0.0,0.009020869565732855,0.10500446376934869
ZipFile$ZipFileInflaterInputStream.close|Resource.getBytes|URLClassLoader.defineClass,0.041352393940156384,0.0,0.004320909091334077,0.0,0.04567330303149046
ZipFile$ZipFileInflaterInputStream.fill|InflaterInputStream.read|FilterInputStream.read,0.0,0.08419345454162931,0.0,0.012208636363511409,0.09640209090514072
ZipFile$ZipFileInputStream.read|ZipFile$ZipFileInflaterInputStream.fill|InflaterInputStream.read,0.0,0.03543548484793229,0.0,0.00289545454523415,0.03833093939316644
ZipFile.getEntry|ZipFile.getEntry|JarFile.getEntry,0.03427455555599105,0.0,0.0040050000000822665,0.0,0.03827955555607332
ZipFile.read|ZipFile.access$1400|ZipFile$ZipFileInputStream.read,0.0,0.026822933333460242,0.0,0.003845999999854636,0.030668933333314878
ZipInputStream.ensureOpen|ZipInputStream.read|InflaterInputStream.read,0.038564069639637766,0.0,0.003890497767850873,0.0,0.04245456740748864
ZipInputStream.readEnd|ZipInputStream.read|Benchmark.fileFromInputStream,0.0,0.05295370370462209,0.0,0.007530555555637906,0.06048425926025999
ZipInputStream.readLOC|ZipInputStream.getNextEntry|CachedJarsPackageManager.getZipPackages,0.0,0.03198244444340363,0.0,0.003646666666302028,0.03562911110970566
ZipInputStream.read|InflaterInputStream.read|DataInputStream.readShort,0.0,0.04265333332781058,0.0,0.004789999999957217,0.047443333327767796
ZipInputStream.read|InflaterInputStream.read|DataInputStream.readUnsignedShort,0.04886117211869399,0.09779089582965146,0.006170044432785465,0.010921249999910287,0.1637433623810412
ZipInputStream.read|ZipInputStream.skip|DataInputStream.skipBytes,0.0,0.09862277778059554,0.0,0.01146666666651678,0.11008944444711233
ZipInputStream.skip|DataInputStream.skipBytes|PackageManager.checkAccess,0.01764254093844413,0.05513756250184088,0.0010717801722087967,0.00613124999995307,0.07998313361244688
