method,package1,package2,dram1,dram2,energy
ANTLRStringStream.seek,0.03917587684280779,0.0,0.003978417620181287,0.0,0.04315429446298907
ASCIICaseInsensitiveComparator.compare,0.02596412309638501,0.0,0.003599769591549113,0.0,0.029563892687934124
AbstractCollection.<init>,0.05871310042983741,0.0,0.0037800950950581257,0.0,0.06249319552489554
AbstractCollection.toArray,0.24498462572999374,0.0,0.030943151108779442,0.0,0.2759277768387732
AbstractStringBuilder.<init>,0.07477278504796918,0.0,0.008172553753967434,0.0,0.08294533880193661
AccessController.doPrivileged,0.018237221621726377,0.0,0.00262622788627263,0.0,0.020863449507999007
Arithmetic$py.test$11,0.19778419802227432,0.0,0.021224778717860732,0.0,0.21900897674013506
Arithmetic$py.test$14,0.33869061498834285,0.0,0.05101328793027702,0.0,0.3897039029186199
Arithmetic$py.test$2,0.42166901652158467,0.0,0.031065147623824757,0.0,0.45273416414540946
Arithmetic$py.test$5,0.5456160383603055,0.0,0.06324256910943558,0.0,0.6088586074697411
Arithmetic$py.test$8,0.524330155349261,0.0,0.03916805216568912,0.0,0.5634982075149501
ArrayList.elementData,0.048533587300750816,0.0,0.008289523809845191,0.0,0.05682311111059601
ArrayList.isEmpty,0.03037032953728895,0.0,0.0033741766924058753,0.0,0.033744506229694826
Arrays.copyOf,0.4265743510531309,0.0,0.06953824672596208,0.0,0.496112597779093
Arrays.copyOfRange,0.09378875000119376,0.0,0.012622500000159357,0.0,0.10641125000135311
Arrays.fill,0.029007295006915262,0.0,0.0032209325356615547,0.0,0.032228227542576815
BaseParser.setupParser,0.4236469123680475,0.0,0.05080499148841557,0.0,0.4744519038564631
Benchmark.fileFromInputStream,0.0,0.029367466666735707,0.0,0.0032839999999850983,0.03265146666672081
Benchmark.initialize,0.036785085139417736,0.0,0.004041702938331447,0.0,0.040826788077749185
BigInteger.add,0.05927873436137885,0.0,0.005205740125989939,0.0,0.06448447448736878
BigInteger.multiplyByInt,0.1233879365063908,0.0,0.016929523808704244,0.0,0.14031746031509504
BigInteger.subtract,0.04011657142952557,0.0,0.00620190476229976,0.0,0.04631847619182533
BinOp$right_descriptor.<init>,0.027394584016339797,0.0,0.0031690989106305783,0.0,0.030563682926970377
BufferedInputStream.getBufIfOpen,0.11031712820560922,0.0,0.007489615384260198,0.0,0.11780674358986942
BufferedInputStream.read,2.2779054570036994,0.0,0.220727741726192,0.0,2.4986331987298915
BufferedInputStream.read1,0.42474253561835357,0.0,0.032641393160494324,0.0,0.45738392877884787
BytecodeLoader.makeClass,0.03713006960208587,0.0,0.004607610802319193,0.0,0.041737680404405064
CRC32.update,0.057219259259808385,0.0,0.004146666665932301,0.0,0.06136592592574069
CachedJarsPackageManager.listToString,0.025642933333680645,0.0,0.004039999999804422,0.0,0.029682933333485068
Calls$py.j$19,0.01837648526916693,0.0,0.002818713596533503,0.0,0.021195198865700433
Calls$py.test$13,0.26092702777613236,0.0,0.025657499999902536,0.0,0.2865845277760349
Calls$py.test$2,0.11387266810743245,0.0,0.014999671594949832,0.0,0.12887233970238227
Calls$py.test$27,0.03827215062412352,0.0,0.00585613379881156,0.0,0.04412828442293508
Character.getType,0.01846009803985533,0.0,0.0021485294115229725,0.0,0.0206086274513783
Character.toUpperCaseEx,0.13143448888763992,0.0,0.016583999999824704,0.0,0.14801848888746463
CharacterData.of,0.05713973333412368,0.035514400003012266,0.0064186666665288295,0.005446000000180599,0.10451880000384538
CharacterData00.<clinit>,0.0,0.03999257142866207,0.0,0.006822857143041411,0.04681542857170348
CharacterData00.getProperties,0.0,0.05800380000243119,0.0,0.00873399999945832,0.0667378000018895
CharacterDataLatin1.getProperties,0.0497012830930658,0.0,0.007493420289596683,0.0,0.05719470338266248
Class$2.run,0.025074025898396003,0.0,0.0034019796249607354,0.0,0.02847600552335674
Class$MethodArray.addIfNotPresent,0.05322257142688613,0.0,0.0070457142865052455,0.0,0.06026828571339137
Class$MethodArray.addInterfaceMethods,0.02443079563328262,0.0,0.003274470796311495,0.0,0.027705266429594113
Class.getDeclaredConstructors0,0.03959874004649768,0.10361028165204288,0.00396767954218939,0.013746898602893224,0.16092359984362314
ClassLoader.defineClass1,0.6814793936002999,0.0,0.08708237692186574,0.0,0.7685617705221656
ClassPool.getCached,0.0785147039430155,0.0,0.005834410436451554,0.0,0.08434911437946706
ClassReader.<init>,0.022000389510207927,0.0,0.00372290469221548,0.0,0.025723294202423405
CodeCompiler.suite,0.04335288173876643,0.0,0.005594536944293656,0.0,0.04894741868306009
CommonTokenStream.LT,0.02680691712380161,0.0,0.002864949886824082,0.0,0.029671867010625692
ConcurrentHashMap.casTabAt,0.16006600254598902,0.0,0.02330364326982959,0.0,0.1833696458158186
ConcurrentHashMap.get,0.2385200254120538,0.23468997596249874,0.02902191766498456,0.02545269923232657,0.5276846182718637
ConcurrentHashMap.putVal,0.5433557241568527,0.0,0.06052707106873098,0.0,0.6038827952255837
ConcurrentHashMap.tabAt,0.08832241446372231,0.0,0.00633690475966882,0.0,0.09465931922339113
ConcurrentHashMap.transfer,0.09391299999939898,0.0,0.009379999999509891,0.0,0.10329299999890887
ConfigFile.<init>,0.008878862091487886,0.0,0.0007286302679573428,0.0,0.00960749235944523
Constructs$py.test$2,0.3839139746284479,0.0,0.0314382036089698,0.0,0.4153521782374177
Constructs$py.test$5,0.11230222084426981,0.0,0.01446249920431393,0.0,0.12676472004858375
Constructs$py.test$8,0.1258976405386523,0.0,0.009903798898642426,0.0,0.13580143943729472
Currency.getInstance,0.0636361538445971,0.0,0.005409230769146235,0.0,0.06904538461374334
DataInputStream.readUnsignedShort,0.04389111111231614,0.0,0.004929999999553222,0.0,0.04882111111186936
DataInputStream.skipBytes,0.11422189744021477,0.0,0.008251538461384673,0.0,0.12247343590159944
DecimalFormat.expandAffix,0.0,0.031038648147875426,0.0,0.004915555555406306,0.03595420370328173
Dict$py.test$11,0.1089469893466781,0.0,0.008656458967357469,0.0,0.11760344831403556
Dict$py.test$14,0.11608775899121349,0.0,0.010863122449865722,0.0,0.12695088144107922
Dict$py.test$2,0.25682168935079036,0.0,0.041232476757036104,0.0,0.2980541661078265
Dict$py.test$5,0.038674620251689704,0.0,0.0029793478248156613,0.0,0.041653968076505364
Dict$py.test$8,0.13463519664617907,0.0,0.014121303526749241,0.0,0.1487565001729283
Exceptions$py.test$2,0.0,0.3385829966236875,0.0,0.05483756577774095,0.3934205624014285
Exceptions$py.test$5,0.0,0.17433773552123716,0.0,0.02198132384281371,0.19631905936405086
FileIO.<init>,0.0,0.013641333333604658,0.0,0.00197916666669092,0.015620500000295579
FileInputStream.available0,0.3127897499959242,0.0,0.02576874999992166,0.0,0.33855849999584586
FileInputStream.readBytes,1.7891723422552412,0.0,0.1546520256299881,0.0,1.9438243678852294
FileOutputStream.open0,0.08257733049046466,-0.0019135393938719946,0.008436382092843815,-0.00023099999999623945,0.08886917318944024
FileOutputStream.writeBytes,0.3232272120235162,0.09572340690415349,0.032522765263075466,0.011864280448852831,0.46333766463959797
Formatter$FormatSpecifier.localizedMagnitude,0.09911272727218932,0.0,0.009518181817508195,0.0,0.10863090908969752
Frame.a,0.04335288173876643,0.0,0.005594536944293656,0.0,0.04894741868306009
Generic.set,0.025074025898396003,0.0,0.0034019796249607354,0.0,0.02847600552335674
GrammarActions.extractString,0.02294346167009515,0.0,0.002890329294879089,0.0,0.02583379096497424
GrammarActions.makeBoolOp,0.03713532186987804,0.0,0.005069571419403194,0.0,0.04220489328928123
HashMap.get,0.012688554504781513,0.0,0.0009025761170439148,0.0,0.013591130621825428
HashMap.getNode,0.03928342709966285,0.052054285711381536,0.003986189608130846,0.005828571428580853,0.1011524738477561
ISO_8859_1$Encoder.encodeISOArray,0.0,0.05775966666745565,0.0,0.008730000000165697,0.06648966666762135
If$PyExposer.<init>,0.0257502138411702,0.0,0.00256064124336799,0.0,0.028310855084538192
Imports$py.test$2,0.02547075098709236,0.0,0.003324250124448605,0.0,0.028795001111540965
Inflater.finished,0.10925266666648288,0.0,0.0074999999997089626,0.0,0.11675266666619184
Inflater.inflate,0.7551738902557679,0.0,0.0618294800549625,0.0,0.8170033703107303
Inflater.inflateBytes,18.64122119379224,0.18861670871196146,1.4987746904743822,0.02161269128797895,20.35022528426656
Inflater.needsDictionary,0.1223697618992273,0.0,0.009843571428410497,0.0,0.1322133333276378
InflaterInputStream.fill,0.0690028484849873,0.0,0.006894545455218052,0.0,0.07589739394020535
InflaterInputStream.read,0.20050222470910534,0.0,0.014230607574180003,0.0,0.21473283228328535
Instances$py.test$2,0.06990557575640693,0.0,0.008987272727553676,0.0,0.07889284848396061
Item.a,0.04308920559984767,0.0,0.004707420878374722,0.0,0.047796626478222394
JRELocaleProviderAdapter.getBreakIteratorProvider,0.0,0.03999257142866207,0.0,0.006822857143041411,0.04681542857170348
JumboEnumSet.iterator,0.023909576396646374,0.0,0.0032491496388793763,0.0,0.02715872603552575
Lists$py.test$2,0.43169370418376624,0.0,0.03356119218346814,0.0,0.4652548963672344
Lists$py.test$8,0.1627853968262022,0.0,0.01979428571445631,0.0,0.18257968254065848
Lookups$py.test$12,0.06872235897492665,0.0,0.004676923076681888,0.0,0.07339928205160853
Lookups$py.test$17,0.07888407598044994,0.0,0.00572205384216406,0.0,0.084606129822614
Lookups$py.test$2,0.2704383492078041,0.0,0.026336380952852772,0.0,0.29677473016065686
Lookups$py.test$22,0.19022622222210983,0.0,0.027812708332930924,0.0,0.21803893055504076
Lookups$py.test$7,0.21223415747041394,0.0,0.01593706150970719,0.0,0.22817121898012113
Manifest.<init>,0.0,0.0,0.0,0.0,0.0
Module.PyCode,0.021946941736563842,0.0,0.003444324367638878,0.0,0.02539126610420272
Module.compile,0.0296778275725504,0.0,0.0036912863667446227,0.0,0.03336911393929502
MutableBigInteger.<init>,0.07462196825404784,0.0,0.009211428571558957,0.0,0.0838333968256068
Numbers$py.test$11,0.12140900000061568,0.0,0.008128749998225732,0.0,0.1295377499988414
Numbers$py.test$2,0.23842459259208731,0.0,0.019157000000214554,0.0,0.25758159259230184
Numbers$py.test$5,0.04889391111040216,0.0,0.005173999999735517,0.0,0.05406791111013767
Numbers$py.test$8,0.15022793333401852,0.0,0.012439666667422798,0.0,0.16266760000144131
Object.hashCode,0.034627549830177184,0.0,0.005140542036143374,0.0,0.03976809186632056
PackageManager.checkAccess,0.13219222734936234,0.0,0.0127580256416434,0.0,0.14495025299100575
ParseUtil.encodePath,0.034627549830177184,0.0,0.005140542036143374,0.0,0.03976809186632056
PlatformUtil.isCaseInsensitive,0.02868284194055222,0.0,0.0044543205678403116,0.0,0.033137162508392534
ProcessEnvironment$StringEnvironment.entrySet,0.0264586666659549,0.0,0.005050000000361857,0.0,0.031508666666316756
PushbackInputStream.read,0.17908625925661503,0.0,0.01369666666478561,0.0,0.19278292592140064
Py.findClassEx,0.052891428574054884,0.0,0.004992857141977375,0.0,0.05788428571603226
Py.getThreadState,0.03972718257429345,0.04165352941045592,0.0054750232948954,0.0056514705881329725,0.09250720586777775
Py.initClassExceptions,0.052891428574054884,0.0,0.004992857141977375,0.0,0.05788428571603226
Py.makeCharacter,0.0,0.02546243137091069,0.0,0.002585882352957246,0.028048313723867936
Py.newCode,0.02885594107723488,0.0,0.0035213631892836938,0.0,0.032377304266518574
Py.newInteger,0.026314064515792133,0.0,0.0028219354836994987,0.0,0.02913599999949163
Py.newString,0.027381357466255876,0.0,0.002601642183187804,0.0,0.02998299964944368
PyArray$PyExposer.<init>,0.08195473898335193,0.0,0.009705356733079517,0.0,0.09166009571643144
PyBaseCode.call,0.028762627912392837,0.039299888888813764,0.004095517263665111,0.005116666666759152,0.07727470073163087
PyBaseException$exposed___new__.createOfSubtype,0.015429919040570962,0.0,0.002506517207086347,0.0,0.017936436247657308
PyClass.__call__,0.04900745999975091,0.0,0.004480200000180048,0.0,0.05348765999993096
PyComplex.complex___mul__,0.05111301007377353,0.0,0.006453790461089497,0.0,0.05756680053486303
PyDictionary$PyExposer.<init>,0.05562333333606754,0.0,0.006799999999202554,0.0,0.062423333335270094
PyDictionary.<init>,0.02639784675874234,0.0,0.0043087450560334965,0.0,0.030706591814775835
PyDictionary.__finditem__,0.049406631378465043,0.0,0.005692377049328481,0.0,0.05509900842779353
PyDictionary.dict___setitem__,0.02383998152827168,0.0,0.0020112216162153453,0.0,0.025851203144487026
PyFastSequenceIter.__iternext__,0.05364513681737293,0.0,0.007037450035678948,0.0,0.060682586853051876
PyFile$PyExposer.<init>,0.0264586666659549,0.0,0.005050000000361857,0.0,0.031508666666316756
PyFloat.<clinit>,0.03376266666843245,0.0,0.005350000000059177,0.0,0.03911266666849163
PyFrame.<init>,0.0,0.11286772239391746,0.0,0.013939102167283883,0.12680682456120135
PyFrame.doGetglobal,0.0,0.043547432096085775,0.0,0.005299259259320226,0.048846691355406
PyFrame.getLocals,0.13981163537688135,0.0,0.015972634066707996,0.0,0.15578426944358933
PyFrame.getglobal,0.0,0.10707511111158291,0.0,0.01196481481437567,0.11903992592595858
PyFrame.getlocal,0.3058571518535527,0.02181672222165313,0.027226766222446068,0.0022666666667040163,0.35716730696435595
PyFrame.setline,0.15226956191625193,0.0,0.018484449964177696,0.0,0.17075401188042963
PyFrame.setlocal,0.17876678593221262,0.05047829629584606,0.021788513178957008,0.005605185185377643,0.25663878059239337
PyFrame.setupEnv,0.0,0.015811500001291282,0.0,0.0018791666665897032,0.017690666667880984
PyFunction.__call__,0.029007295006915262,0.0,0.0032209325356615547,0.0,0.032228227542576815
PyInstance.__findattr_ex__,0.21845713333411065,0.0,0.02756599999969088,0.0,0.24602313333380155
PyInteger.divide,0.0706681225675929,0.0,0.004573926301184199,0.0,0.0752420488687771
PyInteger.int_new,0.09462466666688366,0.0,0.010379999999713618,0.0,0.10500466666659727
PyJavaPackage.addClass,0.011885004089515115,0.0,0.0020225912710474967,0.0,0.013907595360562613
PyJavaPackage.addPackage,0.08884699999907752,0.0,0.011870000000878159,0.0,0.10071699999995569
PyList.<init>,0.08418905396579897,0.0,0.013356190476573946,0.0,0.09754524444237292
PyList.list___len__,0.18482246666778035,0.0,0.02274900000023384,0.0,0.20757146666801418
PyList.pyget,0.07048694961194091,0.0284270833338572,0.0067714584845286335,0.003680000000107005,0.10936549143043374
PyList.pyset,0.02645588611160516,0.0,0.0019189609555131345,0.0,0.028374847067118295
PyLong.long___add__,0.048765968252342966,0.0,0.007718095237145287,0.0,0.056484063489488257
PyLong.long___cmp__,0.02988683333387598,0.0,0.002397500000370201,0.0,0.032284333334246185
PyLong.long___div__,0.05927873436137885,0.0,0.005205740125989939,0.0,0.06448447448736878
PyObject$object___init___exposer.bind,0.08571366666486331,0.0,0.009420000000924723,0.0,0.09513366666578804
PyObject.<init>,0.18542807200093603,0.0,0.02032887033604735,0.0,0.20575694233698338
PyObject.__eq__,0.03437299999980799,0.0,0.00270000000030753,0.0,0.03707300000011552
PyObject.__getattr__,0.08497220085532445,0.0,0.008436307692020611,0.0,0.09340850854734506
PyObject._basic_sub,0.04712327156457562,0.0,0.00480783985770106,0.0,0.051931111422276674
PyObject._div,0.015906242800022827,0.0,0.001443131680136168,0.0,0.017349374480158993
PyObject._eq,0.07086409722139958,0.020553583331396414,0.005593611111129979,0.0023799999999027928,0.09939129166382876
PyObject._gt,0.019305400001030648,0.0,0.0019919999998819545,0.0,0.021297400000912604
PyObject._lt,0.05894447777746892,0.0,0.006282000000444693,0.0,0.06522647777791361
PyObject._mod,0.01846009803985533,0.0,0.0021485294115229725,0.0,0.0206086274513783
PyObject.getType,0.05659618291726933,0.0,0.005197506210795557,0.0,0.06179368912806489
PyObject.object___findattr__,0.017494721607822644,0.0,0.0018729400908497663,0.0,0.01936766169867241
PyProperty$PyExposer.<init>,0.031176799999957438,0.0,0.005736000000615604,0.0,0.036912800000573044
PySequence$1.getItem,0.05293139972897407,0.0284270833338572,0.00384720624704977,0.003680000000107005,0.08888568930998805
PySequence$1.len,0.05392266666749493,0.0,0.0064959999998488146,0.0,0.060418666667343746
PySequence.seq___finditem__,0.0446398222223959,0.0,0.007850666666248191,0.0,0.05249048888864409
PySet$PyExposer.<init>,0.04128420000051847,0.0,0.004793999999674269,0.0,0.046078200000192734
PyString$str_join_exposer.__call__,0.0,0.034401078432268806,0.0,0.004197058823610503,0.03859813725587931
PyString.<init>,0.0,0.08865935145957753,0.0,0.011620751971591127,0.10028010343116865
PyString.__eq__,0.02386237037070613,0.0,0.0020111111112378747,0.0,0.025873481481944006
PyString.coerce,0.021524999998897933,0.0,0.0021599999993971624,0.0,0.023684999998295094
PyString.getslice,0.0,0.026047647057281458,0.0,0.003411764705828425,0.029459411763109882
PyString.str___add__,0.02835288888697202,0.0,0.004965333333368309,0.0,0.03331822222034033
PyString.str___gt__,0.033098750000135624,0.0,0.002587500000572618,0.0,0.03568625000070824
PyString.str___lt__,0.037701875000190434,0.0,0.0029499999997521322,0.0,0.040651874999942564
PyString.str_title,0.017664782608862614,0.07448300000396557,0.001608695652132577,0.011929999999362432,0.1056864782643232
PyStringMap.__finditem__,0.3002391189846909,0.1704796154863612,0.03652947543979226,0.020771810232626843,0.5280200201434713
PySystemState$DefaultBuiltinsHolder.fillin,0.03376266666843245,0.0,0.005350000000059177,0.0,0.03911266666849163
PySystemState.<init>,0.08721719999933458,0.0,0.012044999999125137,0.0,0.09926219999845973
PySystemState.initialize,0.07598260855853052,0.0,0.009096342654839428,0.0,0.08507895121336995
PyTableCode.call,0.06058580094506036,0.03873352778019681,0.008178340946423442,0.004586666666505658,0.11208433633818628
PyTuple.<init>,0.0,0.037202476185657786,0.0,0.005425714285852986,0.04262819047151077
PyTuple.getslice,0.021311428570784517,0.0,0.002912500000266369,0.0,0.024223928571050886
PyTuple.pyget,0.0,0.02181672222165313,0.0,0.0022666666667040163,0.024083388888357146
PyType.fromClass,0.6007996784111809,0.16072821296099538,0.07464688188105281,0.02279018518568333,0.8589649584389124
PyType.isSubType,0.022128555555860248,0.0,0.0015750000000278102,0.0,0.02370355555588806
PyUnicode$PyExposer.<init>,0.10970628571521955,0.0,0.015527142856236811,0.0,0.12523342857145636
PyUnicode$unicode_isupper_exposer.bind,0.0,0.04803459999966435,0.0,0.006539999999949941,0.05457459999961429
PyUnicode.<init>,0.06953137778004424,0.0,0.017168000001563793,0.0,0.08669937778160804
PyUnicode.getslice,0.0,0.026047647057281458,0.0,0.003411764705828425,0.029459411763109882
PyXRange.xrange___len__,0.026357797447817258,0.0,0.001694418254142007,0.0,0.028052215701959263
PythonLexer.mNEWLINE,0.05606132594367277,0.0,0.004998637959354239,0.0,0.06105996390302701
PythonLexer.mTRIQUOTE,0.09523720278648055,0.0,0.008977055579535525,0.0,0.10421425836601608
PythonParser.<clinit>,0.07678795317748792,0.0,0.008237899626463522,0.0,0.08502585280395145
PythonParser.<init>,0.02903154938073046,0.0,0.003960659064936235,0.0,0.03299220844566669
PythonParser.atom,0.03857557365447942,0.0,0.005889852908781448,0.0,0.044465426563260864
PythonParser.del_list,0.04408663290378249,0.0,0.005881277248741781,0.0,0.04996791015252427
PythonParser.expr_stmt,0.031120120655547062,0.0,0.00441547610472612,0.0,0.03553559676027318
PythonParser.listmaker,0.029962170626693006,0.0,0.003872117214658025,0.0,0.03383428784135103
PythonParser.print_stmt,0.06835826679829375,0.0,0.007561122697544955,0.0,0.07591938949583871
PythonParser.synpred11_Python_fragment,0.03249420362666067,0.0,0.003645790381896881,0.0,0.036139994008557545
PythonParser.trailer,0.0,0.04794036363477282,0.0,0.0061272727272642605,0.054067636362037076
PythonTokenSource.insertImaginaryIndentDedentTokens,0.036352257147951615,0.0,0.005095310034809599,0.0,0.041447567182761214
PythonTreeAdaptor.setTokenBoundaries,0.0,0.0364288873229249,0.0,0.004374014084507353,0.04080290140743226
RegularEnumSet.contains,0.07105811064905483,0.0,0.008026943054514412,0.0,0.07908505370356925
RuleBasedBreakIterator.readTables,0.0,0.04874666666589854,0.0,0.007219999999852874,0.05596666666575141
SequenceIndexDelegate.fixindex,0.040357550235006534,0.0,0.004980459249596443,0.0,0.045338009484602974
String.<init>,0.05517599999924035,0.02144372222149589,0.004070000000259218,0.002370833333366641,0.08306055555436209
String.charAt,0.08607234147310705,0.04803459999966435,0.011753146414154116,0.006539999999949941,0.15240008788687548
String.concat,0.06520814814440974,0.0,0.01509666666701108,0.0,0.08030481481142082
String.indexOf,0.12604766666451422,0.0,0.010432500000661094,0.0,0.13648016666517532
String.intern,0.6896591341451432,0.0,0.0702598591730649,0.0,0.7599189933182081
String.length,0.0252277777771168,0.0,0.0064520833332911325,0.0,0.031679861110407936
String.replace,0.031724321848606525,0.0,0.004427212175152399,0.0,0.036151534023758924
String.substring,0.0,0.08865935145957753,0.0,0.011620751971591127,0.10028010343116865
String.toLowerCase,0.035243022223261915,0.027352000002671656,0.005717333333126994,0.004359999999966628,0.0726723555590272
String.toUpperCase,0.06824136618104401,0.0,0.007190043478409797,0.0,0.0754314096594538
String.valueOf,0.0,0.013403944444790894,0.0,0.0015966666665513506,0.015000611111342245
StringBuilder.append,0.03464212427962002,0.0,0.002737131726617642,0.0,0.03737925600623766
StringBuilder.toString,0.027381357466255876,0.0,0.002601642183187804,0.0,0.02998299964944368
Strings$py.test$11,0.28504329412067353,0.0,0.03616720588359064,0.0,0.32121050000426415
Strings$py.test$14,0.0,0.298943782436829,0.0,0.041018156508603375,0.33996193894543236
Strings$py.test$17,0.06251384705869865,0.0,0.008651137255328888,0.0,0.07116498431402754
Strings$py.test$2,0.10995048147920493,0.0,0.0272174444442229,0.0,0.13716792592342783
Strings$py.test$20,0.0,0.06968732191522466,0.0,0.009271923229964178,0.07895924514518883
Strings$py.test$5,0.6283562499995442,0.0,0.04997750000132293,0.0,0.6783337500008672
Strings$py.test$8,1.016142544448101,0.0,0.08531222222426789,0.0,1.1014547666723689
ThreadLocal$ThreadLocalMap.getEntry,0.14310041666629128,0.0,0.013703000000047417,0.0,0.1568034166663387
ThreadStateMapping.getThreadState,0.23657733725020066,0.0,0.02960669889662742,0.0,0.26618403614682806
Throwable.fillInStackTrace,1.3590419432776613,3.058189564841756,0.14928091316831282,0.4031421868495998,4.96965460813733
Time.<clinit>,0.011885004089515115,0.0,0.0020225912710474967,0.0,0.013907595360562613
Tuples$py.test$2,0.0,0.07692761904659813,0.0,0.011665714285863075,0.08859333333246121
Tuples$py.test$5,0.39798560952154466,0.0,0.04881257142910077,0.0,0.44679818095064544
URLClassPath$JarLoader.checkResource,0.0,0.010469352941179427,0.0,0.0009600000000372185,0.011429352941216647
URLStreamHandler.toExternalForm,0.0,0.019263904763474348,0.0,0.002528571428618826,0.021792476192093173
UTF8.utf8Length,0.0,0.030290388889423207,0.0,0.004129166666643869,0.03441955555606707
Unicode$py.test$14,0.0,0.039725142860940345,0.0,0.006240000000010089,0.045965142860950436
Unicode$py.test$17,0.0,0.08425352631342033,0.0,0.01670652631535057,0.10096005262877089
Unicode$py.test$2,0.0446398222223959,0.0,0.007850666666248191,0.0,0.05249048888864409
Unicode$py.test$20,0.0,0.04522134803711178,0.0,0.005035294117524423,0.050256642154636204
Unicode$py.test$5,0.31914256018592785,0.0,0.02559583333233469,0.0,0.3447383935182625
Unicode$py.test$8,0.08359955764975874,0.0,0.01448548184784396,0.0,0.0980850394976027
UnixFileSystem.canonicalize0,0.027426172159561214,0.0,0.002665179542997029,0.0,0.030091351702558243
UnixFileSystem.delete0,0.0,0.1861674999987978,0.0,0.028129999999994954,0.21429749999879277
UnixFileSystem.getBooleanAttributes0,0.0,0.09165433332964312,0.0,0.012550000000070819,0.10420433332971395
UnsafeFieldAccessorFactory.newFieldAccessor,0.015429919040570962,0.0,0.002506517207086347,0.0,0.017936436247657308
ZipFile$ZipFileInputStream.read,0.013105741569545241,0.0,0.001996587945966528,0.0,0.01510232951551177
ZipFile.getEntry,0.04002339802737558,0.0,0.005677381517372383,0.0,0.045700779544747966
ZipFile.read,0.15429502048778018,0.0,0.01695610695034885,0.0,0.17125112743812904
ZipInputStream.<init>,0.036097904928217184,0.0,0.0033783022540286433,0.0,0.03947620718224583
ZipInputStream.ensureOpen,0.0280719801120394,0.0,0.0035945233143341343,0.0,0.03166650342637353
ZipInputStream.read,0.2839009812301581,0.0,0.02814303467113524,0.0,0.3120440159012933
ZipInputStream.skip,0.05322266666674598,0.0,0.005660000000110206,0.0,0.05888266666685619
ZipUtils.get16,0.014431531443011068,0.0,0.002057098345757299,0.0,0.016488629788768368
__builtin__.fillWithBuiltins,0.15815782856952865,0.0,0.021871714286680798,0.0,0.18002954285620945
__builtin__.len,0.06853839999918515,0.0,0.009103999999933877,0.0,0.07764239999911902
__builtin__.ord,0.0,0.022145583331924474,0.0,0.0023762500001491085,0.024521833332073584
__builtin__.range,0.09528077777718458,0.0,0.008607500000430767,0.0,0.10388827777761535
bisect$py.bisect_left$4,0.0,0.08027715789227696,0.0,0.014594210526411187,0.09487136841868815
codecs.registry_init,0.0,0.05111208795020655,0.0,0.007632835487293778,0.05874492343750033
imp.getParent,0.05069213504772409,0.0,0.006520321546415038,0.0,0.05721245659413913
imp.import_name,0.01650460852554738,0.0,0.002619119237073611,0.0,0.01912372776262099
unicodedata$py.check_segments$8,0.0,0.046714491226450994,0.0,0.0055926315794829606,0.052307122805933956
unicodedata$py.get_int$1,0.02587640000019746,0.0,0.0029920000001159982,0.0,0.02886840000031346
unicodedata$py.init_unicodedata$4,0.13682146935957906,0.0,0.016272389706866272,0.0,0.15309385906644535
