method,package1,package2,dram1,dram2,energy
AnnotationReader,0.01940270264934358,0.0,0.002201930573937288,0.0,0.021604633223280868
ArgParser,0.07360674013481946,0.0,0.010199343835277139,0.0,0.0838060839700966
Arithmetic$py,4.5805468354662,0.0,0.4223931585709058,0.0,5.002939994037106
ArrayList,0.22157290254380962,0.0,0.025293255549755884,0.0,0.24686615809356552
Arrays,0.6262786347543328,0.0,0.12109996363368876,0.0,0.7473785983880216
BaseParser,0.7297657037022333,0.0,0.054072777776767625,0.0,0.7838384814790009
Benchmark,0.024179302425545758,0.0,0.002507503020818932,0.0,0.02668680544636469
BigInteger,0.044941420291054426,0.0,0.006622608695908928,0.0,0.051564028986963356
BoolOp$PyExposer,0.02842082353034878,0.0,0.003900000000345137,0.0,0.03232082353069392
BufferedInputStream,2.254852128341546,0.0,0.22829371712811086,0.0,2.483145845469657
BufferedOutputStream,0.0335913573144928,0.0,0.0030703197892020155,0.0,0.03666167710369482
CRC32,0.12215077229239986,0.0,0.01013548586162368,0.0,0.13228625815402353
CachedJarsPackageManager,0.15893673662360602,0.0,0.015469228739826237,0.0,0.17440596536343225
Call,0.018193205128810428,0.0,0.0021692307690010727,0.0,0.0203624358978115
Calls$py,0.38775496979527846,0.0,0.04977374203772621,0.0,0.4375287118330047
Character,0.39692427179940415,0.0,0.04731897930001825,0.0,0.4442432510994224
CharacterData,0.1565061869705623,0.0,0.01571314909887282,0.0,0.1722193360694351
CharacterData00,0.16868537617525253,0.0,0.01940466539666201,0.0,0.18809004157191456
CharacterDataLatin1,0.11881773386460318,0.0,0.013111269952343275,0.0,0.13192900381694644
Class,0.022620362333064102,0.0,0.002633809659555559,0.0,0.025254171992619662
Class$MethodArray,0.028870021032220305,0.0,0.0028973556872266713,0.0,0.031767376719446974
ClassLoader,0.8702762649372122,0.0,0.09473718792925304,0.0,0.9650134528664652
ClassPool,0.01696777777801294,0.0,0.0016800000000027162,0.0,0.018647777778015656
ClassReader,0.09575836593643686,0.0,0.0117603298890074,0.0,0.10751869582544425
ClassicPyObjectAdapter$9,0.02862204348017205,0.0,0.002964565218238588,0.0,0.03158660869841064
ConcurrentHashMap,2.1004885614855446,0.0,0.25759525851793985,0.0,2.3580838200034844
ConcurrentHashMap$Node,0.02752000000004449,0.0,0.0029933333337087077,0.0,0.0305133333337532
Constructs$py,0.9266193333303413,0.0,0.09257416666457882,0.0,1.0191934999949201
CtClassType,0.052563521737613264,0.0,0.006355869564699326,0.0,0.05891939130231259
DataInputStream,0.1364238690039992,0.0,0.013606408355677363,0.0,0.15003027735967656
DecimalFormat,0.02297043478355972,0.0,0.004911304347763728,0.0,0.027881739131323448
Dict$py,0.739867847908062,0.0,0.07908697835570108,0.0,0.8189548262637631
Dictionary,0.01940270264934358,0.0,0.002201930573937288,0.0,0.021604633223280868
Double,0.040107999043773934,0.0,0.004466310168449695,0.0,0.04457430921222363
Errno,0.0432553333331739,0.0,0.004553181818526796,0.0,0.047808515151700696
Exceptions$py,0.3270488840967763,0.0,0.05424570460393094,0.0,0.3812945887007072
File,0.04901165307869558,0.0,0.003618180240883482,0.0,0.05262983331957906
FileInputStream,0.7546799263302574,0.0,0.07487529596911086,0.0,0.8295552222993683
FileOutputStream,0.8941073656986873,0.0,0.0822722494695743,0.0,0.9763796151682617
FilterInputStream,0.21604922194613158,0.0,0.022655288925325978,0.0,0.23870451087145755
Frame,0.07087128204987564,0.0,0.007624999999769408,0.0,0.07849628204964505
GrammarActions,0.08703599999716971,0.0,0.008553333333919808,0.0,0.09558933333108952
Harness,0.0,0.0,0.0,0.0,0.0
Hashtable,0.0,0.028458082196901182,0.0,0.0026577138602168504,0.031115796057118034
Inflater,12.42583308719351,0.0,1.1333095293308302,0.0,13.55914261652434
InflaterInputStream,0.14846592241364673,0.0,0.011748645882622972,0.0,0.1602145682962697
Instances$py,0.10861251040635043,0.0,0.01748023204148685,0.0,0.12609274244783727
Lists$py,1.0777942037028776,0.0,0.10281055555599407,0.0,1.1806047592588718
Lookups$py,0.9425630019182262,0.0,0.10298583985137216,0.0,1.0455488417695984
Math,0.02226433333271416,0.0,0.003453333333002067,0.0,0.025717666665716225
Module,0.05998750000071595,0.0,0.006707500000629807,0.0,0.06669500000134576
Numbers$py,0.4828135167657374,0.0,0.04124612946359854,0.0,0.524059646229336
Object,0.0683629369305767,0.0,0.00894795403239759,0.0,0.07731089096297429
Package,0.04269727536281436,0.0,0.00483260869557431,0.0,0.04752988405838867
PackageManager,0.05168782645927523,0.0,0.005464890296625233,0.0,0.05715271675590046
Pattern,0.022292380952941518,0.0,0.002555714285768945,0.0,0.02484809523871046
PushbackInputStream,0.24858113167495963,0.0,0.024839309163661925,0.0,0.27342044083862155
Py,0.300695322989513,0.0,0.034235167516298314,0.0,0.3349304905058113
PyBaseCode,0.1573920183955074,0.0,0.0208079202888737,0.0,0.1781999386843811
PyBaseException,0.03163059232282993,0.0,0.0052651359374518035,0.0,0.03689572826028173
PyClass,0.04526111111044884,0.0,0.0035633333326485525,0.0,0.04882444444309739
PyComplex,0.22772792381057072,0.0,0.030547428571264308,0.0,0.258275352381835
PyDictionary,0.21888379797817234,0.0,0.02486647186186171,0.0,0.24375026984003406
PyDictionary$dict_items_exposer,0.04538414814206581,0.0,0.00718520035797827,0.0,0.05256934850004408
PyFrame,1.46558607555648,0.0,0.15891772792439587,0.0,1.6245038034808759
PyInstance,0.06211466513566025,0.0,0.009253162731900291,0.0,0.07136782786756055
PyInstance$PyExposer,0.0,0.024674967297372192,0.0,0.004082552707287532,0.028757520004659726
PyInteger,0.2926658489880143,0.0,0.029225594101555362,0.0,0.32189144308956963
PyList,0.3622181031723186,0.0,0.03705142856993896,0.0,0.3992695317422576
PyObject,0.7927858269374811,0.0,0.08344863026587539,0.0,0.8762344572033565
PyReflectedFunction,0.029793793426614337,0.0,0.002437149262884955,0.0,0.03223094268949929
PySequence,0.18384685714616875,0.0,0.028515714286013027,0.0,0.21236257143218176
PySequence$1,0.056152333330828696,0.0,0.004744999999578188,0.0,0.06089733333040689
PySlice,0.0534621163707108,0.0,0.011050812128436794,0.0,0.0645129284991476
PyString,0.18500766952209338,0.0,0.019941404908915862,0.0,0.20494907443100924
PyStringMap,0.16439171042559694,0.0,0.019083133306462847,0.0,0.1834748437320598
PyTableCode,0.0702184722239407,0.0,0.0075364583332076214,0.0,0.07775493055714833
PyTuple,0.16042394444459068,0.0,0.0210211111116223,0.0,0.181445055556213
PyType,0.6788825823601858,0.0,0.08167185710016409,0.0,0.76055443946035
PyUnicode,0.10230762607486578,0.0,0.023356017058638337,0.0,0.12566364313350412
PyUnicode$PyExposer,0.01983742042040889,0.0,0.0022102219057072675,0.0,0.022047642326116158
PyXRange,0.05631533333507833,0.0,0.004139999999703528,0.0,0.060455333334781855
PythonLexer,0.1518209960996584,0.0,0.01655435672567366,0.0,0.16837535282533206
PythonLexer$DFA44,0.03834814814790325,0.0,0.004057777777672055,0.0,0.04240592592557531
PythonParser,0.4024557592053885,0.0,0.03908366867883142,0.0,0.4415394278842199
RewriteRuleElementStream,0.02842082353034878,0.0,0.003900000000345137,0.0,0.03232082353069392
ScopesCompiler,0.02771000000090377,0.0,0.0027150000005349284,0.0,0.030425000001438697
SequenceIndexDelegate,0.07934571428631898,0.0,0.009505714286725768,0.0,0.08885142857304475
String,1.1532340476911254,0.0,0.15288176675676252,0.0,1.306115814447888
Strings$py,4.1685573885318625,0.0,0.4368903314327722,0.0,4.605447719964634
ThreadCoreMapInjector,0.030478590764682643,0.0,0.0029632699827787925,0.0,0.03344186074746144
ThreadLocal,0.03654019636427048,0.0,0.0027938083836342,0.0,0.03933400474790468
ThreadLocal$ThreadLocalMap,0.3076827197909198,0.0,0.028895866750420166,0.0,0.33657858654134
Throwable,3.343314317734489,0.0,0.43080676715718846,0.0,3.7741210848916773
Tuples$py,0.36202291011017246,0.0,0.0497442099332044,0.0,0.41176712004337684
URL,0.04021333333324603,0.0,0.00362304347789546,0.0,0.04383637681114149
URLClassLoader,0.016063753082720237,0.0,0.00157399048442998,0.0,0.017637743567150217
UTF_8$Decoder,0.060811105538848324,0.0,0.007814670549998603,0.0,0.06862577608884693
Unicode$py,0.6779104952577347,0.0,0.08550754126239786,0.0,0.7634180365201326
UnixFileSystem,0.3301155555527657,0.0,0.03577916666674558,0.0,0.3658947222195113
Utf8Info,0.03670615942141065,0.0,0.0032952173916809425,0.0,0.04000137681309159
ZipFile,0.20935072250204012,0.0,0.025029953663406008,0.0,0.23438067616544614
ZipInputStream,0.37866636432879763,0.0,0.04249898996287903,0.0,0.4211653542916767
__builtin__,0.18661789734284645,0.0,0.022498960355037415,0.0,0.20911685769788385
bisect$py,0.11662080318083454,0.0,0.01354606311026552,0.0,0.13016686629110005
imp,0.2295438333336885,0.0,0.026706666664783062,0.0,0.25625049999847155
pybench$py,0.055694722226083584,0.0,0.004274999999122681,0.0,0.059969722225206266
unicodedata$py,0.47062901345962604,0.0,0.06262871427898527,0.0,0.5332577277386114
