method,package1,package2,dram1,dram2,energy
AnnotationReader.<init>,0.01940270264934358,0.0,0.002201930573937288,0.0,0.021604633223280868
ArgParser.<init>,0.03378299999894807,0.0,0.004979999999704886,0.0,0.03876299999865296
ArgParser.getList,0.03982374013587139,0.0,0.005219343835572253,0.0,0.04504308397144364
Arithmetic$py.test$11,0.5237516956483992,0.0,0.06341413043328034,0.0,0.5871658260816796
Arithmetic$py.test$14,0.48925513506489526,0.0,0.0712466233756006,0.0,0.5605017584404959
Arithmetic$py.test$2,1.3628743333417028,0.0,0.10287499999928211,0.0,1.465749333340985
Arithmetic$py.test$5,1.1752064047492845,0.0,0.10217440476001699,0.0,1.2773808095093016
Arithmetic$py.test$8,1.0294592666619184,0.0,0.08268300000272576,0.0,1.112142266664644
ArrayList.<init>,0.034911483497010815,0.0,0.0038992555483281788,0.0,0.03881073904533899
ArrayList.elementData,0.08747908571281837,0.0,0.010874000000400147,0.0,0.09835308571321852
ArrayList.ensureCapacityInternal,0.09918233333398044,0.0,0.010520000001027558,0.0,0.10970233333500799
Arrays.copyOf,0.5164939398201641,0.0,0.11016951060199205,0.0,0.6266634504221562
Arrays.copyOfRange,0.10978469493416868,0.0,0.010930453031696711,0.0,0.12071514796586538
BaseParser.setupParser,0.7297657037022333,0.0,0.054072777776767625,0.0,0.7838384814790009
Benchmark.fileFromInputStream,0.024179302425545758,0.0,0.002507503020818932,0.0,0.02668680544636469
BigInteger.multiplyByInt,0.044941420291054426,0.0,0.006622608695908928,0.0,0.051564028986963356
BoolOp$PyExposer.<init>,0.02842082353034878,0.0,0.003900000000345137,0.0,0.03232082353069392
BufferedInputStream.getBufIfOpen,0.1662931583601142,0.0,0.016039233578751515,0.0,0.18233239193886572
BufferedInputStream.read,2.012066532535441,0.0,0.20410418325725865,0.0,2.2161707157926998
BufferedInputStream.read1,0.07649243744599063,0.0,0.008150300292100668,0.0,0.08464273773809129
BufferedOutputStream.write,0.0335913573144928,0.0,0.0030703197892020155,0.0,0.03666167710369482
CRC32.update,0.12215077229239986,0.0,0.01013548586162368,0.0,0.13228625815402353
CachedJarsPackageManager.addZipEntry,0.0901258382456328,0.0,0.007847773873955022,0.0,0.09797361211958783
CachedJarsPackageManager.listToString,0.06881089837797323,0.0,0.007621454865871216,0.0,0.07643235324384445
Call.getInternalArgs,0.018193205128810428,0.0,0.0021692307690010727,0.0,0.0203624358978115
Calls$py.f$28,0.055643666664157834,0.0,0.009419999999712063,0.0,0.0650636666638699
Calls$py.test$13,0.07089314836986574,0.0,0.007361331322801226,0.0,0.07825447969266697
Calls$py.test$2,0.2612181547612549,0.0,0.032992410715212916,0.0,0.2942105654764678
Character.getType,0.03205819251899473,0.0,0.0027130844946561808,0.0,0.03477127701365091
Character.isTitleCase,0.10692173787632271,0.0,0.013038927435940444,0.0,0.11996066531226315
Character.isUpperCase,0.11246582540556702,0.0,0.014704368775933079,0.0,0.1271701941815001
Character.toLowerCase,0.09204660240432884,0.0,0.010370729502203772,0.0,0.10241733190653261
Character.toTitleCase,0.02383755555557501,0.0,0.0026533333334049928,0.0,0.02649088888898
Character.toUpperCaseEx,0.029594358038615886,0.0,0.003838535757879785,0.0,0.03343289379649567
CharacterData.of,0.1565061869705623,0.0,0.01571314909887282,0.0,0.1722193360694351
CharacterData00.getProperties,0.16868537617525253,0.0,0.01940466539666201,0.0,0.18809004157191456
CharacterDataLatin1.getPropertiesEx,0.08675954134560844,0.0,0.010398185457687094,0.0,0.09715772680329554
CharacterDataLatin1.isOtherLowercase,0.03205819251899473,0.0,0.0027130844946561808,0.0,0.03477127701365091
Class$MethodArray.addIfNotPresent,0.028870021032220305,0.0,0.0028973556872266713,0.0,0.031767376719446974
Class.getDeclaredConstructors0,0.0,0.0,0.0,0.0,0.0
Class.getDeclaredMethods0,0.022620362333064102,0.0,0.002633809659555559,0.0,0.025254171992619662
ClassLoader.checkCerts,0.016255005212542424,0.0,0.001378228187551538,0.0,0.017633233400093963
ClassLoader.checkName,0.0,0.0,0.0,0.0,0.0
ClassLoader.defineClass1,0.8540212597246697,0.0,0.0933589597417015,0.0,0.9473802194663712
ClassPool.compress,0.01696777777801294,0.0,0.0016800000000027162,0.0,0.018647777778015656
ClassReader.accept,0.09575836593643686,0.0,0.0117603298890074,0.0,0.10751869582544425
ClassicPyObjectAdapter$9.adapt,0.02862204348017205,0.0,0.002964565218238588,0.0,0.03158660869841064
ConcurrentHashMap$Node.<init>,0.02752000000004449,0.0,0.0029933333337087077,0.0,0.0305133333337532
ConcurrentHashMap.addCount,0.18845987168181347,0.0,0.025856475663963555,0.0,0.21431634734577704
ConcurrentHashMap.casTabAt,0.059082000000801466,0.0,0.0048514285715230325,0.0,0.0639334285723245
ConcurrentHashMap.get,0.3691200338383993,0.0,0.045593378318719915,0.0,0.4147134121571192
ConcurrentHashMap.put,0.0632477083354388,0.0,0.005875000000135818,0.0,0.06912270833557461
ConcurrentHashMap.putVal,0.7027792139459359,0.0,0.08586094570618885,0.0,0.7886401596521248
ConcurrentHashMap.replaceNode,0.028866857143362894,0.0,0.002651428571663841,0.0,0.03151828571502673
ConcurrentHashMap.spread,0.03802483333371735,0.0,0.0059099999998579724,0.0,0.04393483333357533
ConcurrentHashMap.tabAt,0.5818175076917288,0.0,0.07275215987619142,0.0,0.6545696675679202
ConcurrentHashMap.transfer,0.06909053551434684,0.0,0.00824444180969543,0.0,0.07733497732404226
Constructs$py.test$2,0.6993406666644861,0.0,0.07059416666541236,0.0,0.7699348333298985
Constructs$py.test$8,0.22727866666585517,0.0,0.021979999999166465,0.0,0.24925866666502164
CtClassType.<init>,0.052563521737613264,0.0,0.006355869564699326,0.0,0.05891939130231259
DataInputStream.readByte,0.09698306900471557,0.0,0.010006408355671542,0.0,0.10698947736038711
DataInputStream.readFully,0.039440799999283634,0.0,0.003600000000005821,0.0,0.043040799999289454
DecimalFormat.subformat,0.02297043478355972,0.0,0.004911304347763728,0.0,0.027881739131323448
Dict$py.test$11,0.10444320000048417,0.0,0.013160000000304234,0.0,0.1176032000007884
Dict$py.test$14,0.29670047618925477,0.0,0.024262857142145672,0.0,0.3209633333314004
Dict$py.test$2,0.13167683838378938,0.0,0.02115212121240958,0.0,0.15282895959619897
Dict$py.test$5,0.1427406666674263,0.0,0.010720000000825772,0.0,0.15346066666825206
Dict$py.test$8,0.06430666666710749,0.0,0.009792000000015831,0.0,0.07409866666712332
Dictionary.<init>,0.01940270264934358,0.0,0.002201930573937288,0.0,0.021604633223280868
Double.isInfinite,0.040107999043773934,0.0,0.004466310168449695,0.0,0.04457430921222363
Errno.<clinit>,0.0432553333331739,0.0,0.004553181818526796,0.0,0.047808515151700696
Exceptions$py.test$2,0.22509027251442337,0.0,0.03538480747171696,0.0,0.26047507998614033
Exceptions$py.test$5,0.10195861158235292,0.0,0.01886089713221398,0.0,0.1208195087145669
File.isInvalid,0.04901165307869558,0.0,0.003618180240883482,0.0,0.05262983331957906
FileInputStream.available0,0.31328435238166563,0.0,0.031007579946205996,0.0,0.34429193232787164
FileInputStream.readBytes,0.44139557394859186,0.0,0.043867716022904873,0.0,0.4852632899714967
FileOutputStream.open0,0.18844284554424615,0.0,0.022588554185711637,0.0,0.21103139972995777
FileOutputStream.writeBytes,0.7056645201544414,0.0,0.059683695283862664,0.0,0.765348215438304
FilterInputStream.read,0.21604922194613158,0.0,0.022655288925325978,0.0,0.23870451087145755
Frame.a,0.034758846152563375,0.0,0.002907692307463805,0.0,0.03766653846002718
Frame.c,0.036112435897312264,0.0,0.004717307692305603,0.0,0.04082974358961787
GrammarActions.makeFor,0.039008222219611824,0.0,0.004393333333913081,0.0,0.04340155555352491
GrammarActions.makeFuncdef,0.04802777777755788,0.0,0.004160000000006726,0.0,0.05218777777756461
Harness.main,0.0,0.0,0.0,0.0,0.0
Hashtable.get,0.0,0.028458082196901182,0.0,0.0026577138602168504,0.031115796057118034
Inflater.inflate,0.41098823952028785,0.0,0.03233346384905476,0.0,0.4433217033693426
Inflater.inflateBytes,11.862739272172247,0.0,1.0901738870496183,0.0,12.952913159221865
Inflater.needsDictionary,0.06277626840792615,0.0,0.004401786410245051,0.0,0.0671780548181712
Inflater.needsInput,0.04152308922560532,0.0,0.00293904335973026,0.0,0.04446213258533558
Inflater.setInput,0.0478062178674426,0.0,0.0034613486621818904,0.0,0.05126756652962449
InflaterInputStream.fill,0.07347589125183855,0.0,0.005131498256891646,0.0,0.0786073895087302
InflaterInputStream.read,0.07499003116180816,0.0,0.0066171476257313264,0.0,0.0816071787875395
Instances$py.__init__$7,0.10861251040635043,0.0,0.01748023204148685,0.0,0.12609274244783727
Lists$py.test$2,0.6749470000019452,0.0,0.05030999999992976,0.0,0.725257000001875
Lists$py.test$8,0.4028472037009325,0.0,0.05250055555606431,0.0,0.45534775925699683
Lookups$py.test$12,0.15181477777837746,0.0,0.015845000000505628,0.0,0.16765977777888308
Lookups$py.test$17,0.14855708333319245,0.0,0.014046874999470067,0.0,0.16260395833266253
Lookups$py.test$2,0.25410400000068223,0.0,0.026559999999927447,0.0,0.28066400000060965
Lookups$py.test$22,0.1557843729489622,0.0,0.023663429137499123,0.0,0.17944780208646133
Lookups$py.test$7,0.23230276785701184,0.0,0.0228705357139699,0.0,0.2551733035709817
Math.floor,0.02226433333271416,0.0,0.003453333333002067,0.0,0.025717666665716225
Module.PyCode,0.03227749999981218,0.0,0.0039925000000948785,0.0,0.03626999999990706
Module.compile,0.02771000000090377,0.0,0.0027150000005349284,0.0,0.030425000001438697
Numbers$py.test$11,0.10786249999809014,0.0,0.00887916666720735,0.0,0.11674166666529749
Numbers$py.test$2,0.1556285715508296,0.0,0.011728986527324181,0.0,0.16735755807815378
Numbers$py.test$5,0.09953666504572661,0.0,0.010377480457573881,0.0,0.10991414550330049
Numbers$py.test$8,0.1197857801710911,0.0,0.010260495811493135,0.0,0.13004627598258423
Object.<init>,0.0683629369305767,0.0,0.00894795403239759,0.0,0.07731089096297429
Package.getSystemPackages0,0.04269727536281436,0.0,0.00483260869557431,0.0,0.04752988405838867
PackageManager.checkAccess,0.05168782645927523,0.0,0.005464890296625233,0.0,0.05715271675590046
Pattern.peek,0.022292380952941518,0.0,0.002555714285768945,0.0,0.02484809523871046
PushbackInputStream.ensureOpen,0.06805291796292365,0.0,0.007231834544559394,0.0,0.07528475250748304
PushbackInputStream.read,0.18052821371203598,0.0,0.01760747461910253,0.0,0.1981356883311385
Py.<clinit>,0.024471783479603385,0.0,0.002086481299462429,0.0,0.026558264779065813
Py.ValueError,0.03922098558728706,0.0,0.0034542875098341275,0.0,0.042675273097121186
Py.initClassExceptions,0.016258196219841013,0.0,0.001839179331313952,0.0,0.018097375551154964
Py.make_array,0.0582817777774633,0.0,0.007120000000415731,0.0,0.06540177777787903
Py.newBoolean,0.04103021540590108,0.0,0.005891847684642614,0.0,0.04692206309054369
Py.newInteger,0.07766281398602876,0.0,0.009313992982645947,0.0,0.0869768069686747
Py.setException,0.04376955053338843,0.0,0.004529378707983514,0.0,0.04829892924137194
PyBaseCode.call,0.1573920183955074,0.0,0.0208079202888737,0.0,0.1781999386843811
PyBaseException.BaseException___init__,0.03163059232282993,0.0,0.0052651359374518035,0.0,0.03689572826028173
PyClass.__findattr_ex__,0.04526111111044884,0.0,0.0035633333326485525,0.0,0.04882444444309739
PyComplex.<init>,0.07281893333420157,0.0,0.008655999999609776,0.0,0.08147493333381135
PyComplex.__sub__,0.06302106666650313,0.0,0.009619999999995344,0.0,0.07264106666649847
PyComplex._mul,0.028866857143362894,0.0,0.002651428571663841,0.0,0.03151828571502673
PyComplex.canCoerce,0.06302106666650313,0.0,0.009619999999995344,0.0,0.07264106666649847
PyDictionary$dict_items_exposer.bind,0.04538414814206581,0.0,0.00718520035797827,0.0,0.05256934850004408
PyDictionary.<init>,0.017494909091593312,0.0,0.0025090909092052075,0.0,0.02000400000079852
PyDictionary.__finditem__,0.20138888888657905,0.0,0.022357380952656502,0.0,0.22374626983923554
PyFrame.<init>,0.05249306284750983,0.0,0.007829940602052677,0.0,0.06032300344956251
PyFrame.doGetglobal,0.04476682097849228,0.0,0.005098328792348414,0.0,0.049865149770840694
PyFrame.getLocals,0.03432613333376745,0.0,0.00521600000114025,0.0,0.039542133334907706
PyFrame.getlocal,0.8607569696938258,0.0,0.0920680726206434,0.0,0.9528250423144692
PyFrame.setline,0.3128770270964118,0.0,0.029767733176525216,0.0,0.342644760272937
PyFrame.setlocal,0.08118198310731108,0.0,0.007438401964131534,0.0,0.08862038507144261
PyFrame.setupEnv,0.07918407849916156,0.0,0.011499250767554429,0.0,0.09068332926671599
PyInstance$PyExposer.<init>,0.0,0.024674967297372192,0.0,0.004082552707287532,0.028757520004659726
PyInstance.__findattr_ex__,0.06211466513566025,0.0,0.009253162731900291,0.0,0.07136782786756055
PyInteger.canCoerce,0.08520533333648928,0.0,0.006539999999707409,0.0,0.09174533333619668
PyInteger.divide,0.053609333330920585,0.0,0.0038699999992483454,0.0,0.05747933333016893
PyInteger.getValue,0.08296733333312052,0.0,0.01020499999989018,0.0,0.0931723333330107
PyInteger.int___mod__,0.07088384898748391,0.0,0.008610594102709427,0.0,0.07949444309019334
PyList.<init>,0.07104379629742685,0.0,0.008746111110869806,0.0,0.07978990740829665
PyList.__len__,0.09055679629441496,0.0,0.008561944444038629,0.0,0.09911874073845359
PyList.fromList,0.09055679629441496,0.0,0.008561944444038629,0.0,0.09911874073845359
PyList.list___len__,0.0597940000006929,0.0,0.004784999999780362,0.0,0.06457900000047326
PyList.pyget,0.05026671428536896,0.0,0.00639642857121154,0.0,0.0566631428565805
PyObject.__getitem__,0.06697600000188686,0.0,0.005071999999927357,0.0,0.07204800000181422
PyObject._basic_sub,0.04477583333532999,0.0,0.005704166667581175,0.0,0.05048000000291116
PyObject._div,0.04382333333342103,0.0,0.004340000000714403,0.0,0.04816333333413544
PyObject._ge,0.025319475661760304,0.0,0.0026481653533213,0.0,0.027967641015081604
PyObject._gt,0.11461228571889003,0.0,0.010359999999525912,0.0,0.12497228571841594
PyObject._is,0.040107999043773934,0.0,0.004466310168449695,0.0,0.04457430921222363
PyObject._lt,0.032160583792060986,0.0,0.0051419876795073685,0.0,0.03730257147156835
PyObject._try__cmp__,0.10750850327244307,0.0,0.011400530154432641,0.0,0.11890903342687571
PyObject.getType,0.25962816739665334,0.0,0.0251684267068712,0.0,0.28479659410352454
PyObject.object___findattr__,0.0578736453812615,0.0,0.009147043535544328,0.0,0.06702068891680583
PyReflectedFunction.addMethod,0.029793793426614337,0.0,0.002437149262884955,0.0,0.03223094268949929
PySequence$1.setItem,0.056152333330828696,0.0,0.004744999999578188,0.0,0.06089733333040689
PySequence.<init>,0.052958333333663184,0.0,0.014090000000578584,0.0,0.06704833333424176
PySequence.seq___finditem__,0.09407566666777713,0.0,0.009179999999711676,0.0,0.10325566666748881
PySequence.sliceLength,0.03681285714472843,0.0,0.005245714285722767,0.0,0.04205857143045119
PySlice.<init>,0.014178825743094963,0.0,0.0022517209688036263,0.0,0.01643054671189859
PySlice.indicesEx,0.03928329062761583,0.0,0.008799091159633168,0.0,0.048082381787249
PyString.<init>,0.05397527338324973,0.0,0.006337419400737633,0.0,0.06031269278398736
PyString.getslice,0.031334840581225966,0.0,0.00441565217392897,0.0,0.03575049275515493
PyString.str___gt__,0.0636596666687789,0.0,0.004760000001018246,0.0,0.06841966666979714
PyString.str_title,0.0360378888888388,0.0,0.004428333333231017,0.0,0.04046622222206982
PyStringMap.__finditem__,0.13384858542509598,0.0,0.01517375830707233,0.0,0.1490223437321683
PyStringMap.__setitem__,0.030543125000500968,0.0,0.003909374999390518,0.0,0.03445249999989149
PyTableCode.call,0.0702184722239407,0.0,0.0075364583332076214,0.0,0.07775493055714833
PyTuple.<init>,0.16042394444459068,0.0,0.0210211111116223,0.0,0.181445055556213
PyType.fastGetDict,0.09178726041547118,0.0,0.010402690968322309,0.0,0.10218995138379348
PyType.fromClass,0.43312436168613816,0.0,0.05272283112157298,0.0,0.48584719280771116
PyType.lookup,0.15397096025857654,0.0,0.018546335010268804,0.0,0.17251729526884535
PyUnicode$PyExposer.<init>,0.01983742042040889,0.0,0.0022102219057072675,0.0,0.022047642326116158
PyUnicode.<init>,0.10230762607486578,0.0,0.023356017058638337,0.0,0.12566364313350412
PyXRange.pyget,0.05631533333507833,0.0,0.004139999999703528,0.0,0.060455333334781855
PythonLexer$DFA44.specialStateTransition,0.03834814814790325,0.0,0.004057777777672055,0.0,0.04240592592557531
PythonLexer.<clinit>,0.024475111111112502,0.0,0.0027350000002317955,0.0,0.027210111111344297
PythonLexer.mCOMMENT,0.04828192982306957,0.0,0.005428947368815435,0.0,0.053710877191885005
PythonLexer.mNAME,0.03834814814790325,0.0,0.004057777777672055,0.0,0.04240592592557531
PythonLexer.mTRIQUOTE,0.04071580701757308,0.0,0.004332631578954372,0.0,0.045048438596527456
PythonParser.<clinit>,0.08949125925816286,0.0,0.00830888888891355,0.0,0.09780014814707641
PythonParser.<init>,0.10857022222222036,0.0,0.00943333333351701,0.0,0.11800355555573737
PythonParser.del_stmt,0.04112560000066878,0.0,0.004301999999734107,0.0,0.04542760000040289
PythonParser.raise_stmt,0.04410400000051595,0.0,0.004326000000583008,0.0,0.04843000000109896
PythonParser.shift_expr,0.027544102563413803,0.0,0.002994230769381363,0.0,0.030538333332795167
PythonParser.term,0.03146541176487089,0.0,0.003359999999862767,0.0,0.03482541176473365
PythonParser.testlist_gexp,0.039008222219611824,0.0,0.004393333333913081,0.0,0.04340155555352491
PythonParser.varargslist,0.021146941175924014,0.0,0.0019658823529265213,0.0,0.023112823528850534
RewriteRuleElementStream.<init>,0.02842082353034878,0.0,0.003900000000345137,0.0,0.03232082353069392
ScopesCompiler.endScope,0.02771000000090377,0.0,0.0027150000005349284,0.0,0.030425000001438697
SequenceIndexDelegate.fixindex,0.07934571428631898,0.0,0.009505714286725768,0.0,0.08885142857304475
String.charAt,0.02997756410294618,0.0,0.0026346153847556803,0.0,0.03261217948770186
String.concat,0.08659069841225919,0.0,0.014028571427930034,0.0,0.10061926984018922
String.getChars,0.04269755555530234,0.0,0.010479999999612723,0.0,0.05317755555491506
String.hashCode,0.06813533333479428,0.0,0.009434999999939464,0.0,0.07757033333473375
String.indexOf,0.037170424244267815,0.0,0.0044354545460726395,0.0,0.04160587879034045
String.intern,0.6017610025987551,0.0,0.07811125393809935,0.0,0.6798722565368545
String.lastIndexOf,0.03378299999894807,0.0,0.004979999999704886,0.0,0.03876299999865296
String.replace,0.10565656191218403,0.0,0.009733733552048728,0.0,0.11539029546423277
String.toLowerCase,0.127903824667439,0.0,0.01697889213861381,0.0,0.1448827168060528
String.toUpperCase,0.019558082864229387,0.0,0.0020642457699851934,0.0,0.02162232863421458
Strings$py.test$11,0.34972666815802494,0.0,0.0449637789899508,0.0,0.39469044714797574
Strings$py.test$14,0.10441012192761405,0.0,0.019968299796856822,0.0,0.12437842172447088
Strings$py.test$17,0.1600134232490724,0.0,0.023230176411064476,0.0,0.18324359966013687
Strings$py.test$2,0.22640633333341809,0.0,0.05978833333412896,0.0,0.28619466666754706
Strings$py.test$20,0.2241020797672576,0.0,0.03109912767249172,0.0,0.25520120743974933
Strings$py.test$5,1.4393128555508963,0.0,0.11271033333206207,0.0,1.5520231888829583
Strings$py.test$8,1.6645859065455788,0.0,0.14513028189621735,0.0,1.8097161884417963
ThreadCoreMapInjector.isRunnable,0.030478590764682643,0.0,0.0029632699827787925,0.0,0.03344186074746144
ThreadLocal$ThreadLocalMap.getEntry,0.3076827197909198,0.0,0.028895866750420166,0.0,0.33657858654134
ThreadLocal.get,0.03654019636427048,0.0,0.0027938083836342,0.0,0.03933400474790468
Throwable.fillInStackTrace,3.343314317734489,0.0,0.43080676715718846,0.0,3.7741210848916773
Tuples$py.test$2,0.04027149740906506,0.0,0.006352067076947801,0.0,0.04662356448601286
Tuples$py.test$5,0.3217514127011074,0.0,0.0433921428562566,0.0,0.365143555557364
URL.set,0.04021333333324603,0.0,0.00362304347789546,0.0,0.04383637681114149
URLClassLoader.defineClass,0.016063753082720237,0.0,0.00157399048442998,0.0,0.017637743567150217
UTF_8$Decoder.decode,0.060811105538848324,0.0,0.007814670549998603,0.0,0.06862577608884693
Unicode$py.test$11,0.031334840581225966,0.0,0.00441565217392897,0.0,0.03575049275515493
Unicode$py.test$17,0.1918549537266693,0.0,0.0203448254478364,0.0,0.2121997791745057
Unicode$py.test$2,0.12110260572136325,0.0,0.032424206495029945,0.0,0.1535268122163932
Unicode$py.test$5,0.3336180952284762,0.0,0.028322857145602544,0.0,0.36194095237407875
UnixFileSystem.delete0,0.1644388888881723,0.0,0.017462499999965075,0.0,0.18190138888813737
UnixFileSystem.getBooleanAttributes0,0.16567666666459346,0.0,0.018316666666780498,0.0,0.18399333333137396
Utf8Info.<init>,0.03670615942141065,0.0,0.0032952173916809425,0.0,0.04000137681309159
ZipFile.freeEntry,0.03590940403880892,0.0,0.004113075715309214,0.0,0.040022479754118136
ZipFile.open,0.049281480307785896,0.0,0.00587926947760755,0.0,0.05516074978539345
ZipFile.read,0.1241598381554453,0.0,0.015037608470489246,0.0,0.13919744662593456
ZipInputStream.ensureOpen,0.051755633651128466,0.0,0.0055689520190709,0.0,0.057324585670199366
ZipInputStream.getNextEntry,0.02553325243864769,0.0,0.0021391880512063198,0.0,0.02767244048985401
ZipInputStream.read,0.20932854720997685,0.0,0.02574430294785048,0.0,0.23507285015782733
ZipInputStream.readLOC,0.09204893102904467,0.0,0.009046546944751328,0.0,0.101095477973796
__builtin__.__import__,0.08679200000187848,0.0,0.011484999999083813,0.0,0.09827700000096229
__builtin__.fillWithBuiltins,0.04824105558131437,0.0,0.004744579711532494,0.0,0.05298563529284686
__builtin__.range,0.0515848417596536,0.0,0.00626938064442111,0.0,0.057854222404074715
bisect$py.bisect_left$4,0.11662080318083454,0.0,0.01354606311026552,0.0,0.13016686629110005
imp.import_name,0.03802483333371735,0.0,0.0059099999998579724,0.0,0.04393483333357533
imp.import_next,0.19151899999997113,0.0,0.020796666664925093,0.0,0.2123156666648962
pybench$py.run$9,0.055694722226083584,0.0,0.004274999999122681,0.0,0.059969722225206266
unicodedata$py.init_east_asian_width$5,0.2766123501324089,0.0,0.039914077640141925,0.0,0.31652642777255086
unicodedata$py.init_unicodedata$4,0.19401666332721715,0.0,0.022714636638843343,0.0,0.2167312999660605
