method,package1,package2,dram1,dram2,energy
AbstractCollection.<init>|AbstractSet.<init>|HashSet.<init>,0.03398982222182288,0.0,0.0029353333338804077,0.0,0.03692515555570329
AbstractCollection.toArray|ArrayList.<init>|PyList.getslice,0.08276384220714723,0.0,0.008085609389061733,0.0,0.09084945159620897
AbstractList.<init>|ArrayList.<init>|Generic.list,0.0,0.06966500000190637,0.0,0.009191666666386784,0.07885666666829315
AccessController.doPrivileged|URLClassLoader.findClass|ClassLoader.loadClass,0.0,0.08215333333646413,0.0,0.009565000000293368,0.0917183333367575
AnnotationParser.parseSig|AnnotationParser.parseAnnotation2|AnnotationParser.parseAnnotations2,0.0,0.06753709601430401,0.0,0.0097888954482385,0.07732599146254251
AnnotationReader.<init>|imp.readCode|imp.createFromPyClass,0.023801166665331643,0.0,0.002642500000623234,0.0,0.026443666665954876
Arithmetic$py.test$11|Arithmetic$py.call_function|PyTableCode.call,0.16160484746163378,0.0,0.018400127601654444,0.0,0.18000497506328822
Arithmetic$py.test$14|Arithmetic$py.call_function|PyTableCode.call,0.565761541666446,0.0,0.06855699999978242,0.0,0.6343185416662284
Arithmetic$py.test$2|Arithmetic$py.call_function|PyTableCode.call,1.0209363462276813,0.0,0.10971202177333217,0.0,1.1306483680010135
Arithmetic$py.test$5|Arithmetic$py.call_function|PyTableCode.call,0.9648152014109138,0.0,0.09904747391867057,0.0,1.0638626753295843
Arithmetic$py.test$8|Arithmetic$py.call_function|PyTableCode.call,0.6857834662188708,0.0,0.06790384475543368,0.0,0.7536873109743044
ArrayList.add|Py.make_array|PyTuple.tuple_new,0.0303078212210582,0.0,0.002538274481574144,0.0,0.03284609570263235
Arrays.asList|PyTuple.getList|PyList.list___init__,0.04102372389502065,0.0,0.003568040790521572,0.0,0.044591764685542226
Arrays.copyOfRange|String.<init>|DataInputStream.readUTF,0.0,0.1357420000034229,0.0,0.017780000000129803,0.1535220000035527
Arrays.copyOf|AbstractStringBuilder.ensureCapacityInternal|AbstractStringBuilder.append,0.059762888889235914,0.0,0.005847333334046804,0.0,0.06561022222328272
Arrays.copyOf|String.concat|PyString.str___add__,0.05751146666686205,0.0,0.00878999999986263,0.0,0.06630146666672468
Arrays.copyOf|String.concat|PyUnicode.unicode___add__,0.13966794766385582,0.0,0.018685413683422712,0.0,0.15835336134727854
AttributeInfo.read|CodeAttribute.<init>|AttributeInfo.read,0.030021818182748662,0.0,0.0030436363643578557,0.0,0.03306545454710652
BaseParser.setupParser|BaseParser.parseModule|CompileMode$3.dispatch,0.0,0.6862930111123214,0.0,0.08994020615692504,0.7762332172692464
Benchmark.fileFromInputStream|Benchmark.unpackZipStream|Benchmark.unpackZipFileResource,0.0,0.053804566666561485,0.0,0.008676499999819497,0.06248106666638098
Benchmark.unpackZipStream|Benchmark.unpackZipFileResource|Benchmark.prepare,0.0,0.14217100000435795,0.0,0.01494500000020101,0.15711600000455897
BigInteger.add|BigInteger.add|PyLong.long___add__,0.029568596917399426,0.0,0.0050073485804661595,0.0,0.034575945497865586
BigInteger.destructiveMulAdd|BigInteger.<init>|GrammarActions.makeInt,0.0,0.03274071710077702,0.0,0.005723834048626796,0.038464551149403815
BoolOp$PyExposer.<init>|BoolOp.<clinit>|GrammarActions.makeBoolOp,0.0,0.03695785936531665,0.0,0.004729118970714148,0.04168697833603079
BufferedInputStream.<init>|BufferedInputStream.<init>|ClassPool.makeClass,0.0,0.06831612684066443,0.0,0.009390907689313742,0.07770703452997818
BufferedInputStream.getBufIfOpen|BufferedInputStream.fill|BufferedInputStream.read1,0.0,0.0830078947374683,0.0,0.008565789473658169,0.09157368421112647
BufferedInputStream.read1|BufferedInputStream.read|FilterInputStream.read,0.038564069639637766,0.08692193749933116,0.003890497767850873,0.011183437500145981,0.14055994240696576
BufferedInputStream.read|DataInputStream.readFully|DataInputStream.readFully,0.0,0.037802896343087165,0.0,0.00465496143234186,0.04245785777542903
BufferedInputStream.read|DataInputStream.readUnsignedByte|ConstPool.readOne,0.026001336145682164,0.0,0.0026109733625903435,0.0,0.028612309508272506
BufferedInputStream.read|DataInputStream.readUnsignedShort|ClassInfo.<init>,0.0,0.06576818181466396,0.0,0.008963181818465027,0.07473136363312899
BufferedInputStream.read|DataInputStream.readUnsignedShort|CodeAttribute.<init>,0.0,0.0,0.0,0.0,0.0
BufferedInputStream.read|DataInputStream.readUnsignedShort|DataInputStream.readUTF,0.0,0.03645869909531154,0.0,0.004076586187594143,0.04053528528290568
BufferedInputStream.read|DataInputStream.readUnsignedShort|MemberrefInfo.<init>,0.0,0.04772518451919632,0.0,0.0058303731783371955,0.05355555769753352
BufferedInputStream.read|DataInputStream.readUnsignedShort|NameAndTypeInfo.<init>,0.0,0.08219400000719664,0.0,0.010940000000118744,0.09313400000731538
BufferedInputStream.read|FilterInputStream.read|PushbackInputStream.read,0.042163750094503516,1.156188482891753,0.002734835425905468,0.1276795570178213,1.3287666254299833
BufferedOutputStream.<init>|Benchmark.fileFromInputStream|Benchmark.unpackZipStream,0.0,0.053804566666561485,0.0,0.008676499999819497,0.06248106666638098
BufferedOutputStream.write|Benchmark.fileFromInputStream|Benchmark.unpackZipStream,0.0,0.033512777779294456,0.0,0.004000000000006467,0.037512777779300926
BuiltinFunctions.__call__|PyObject.__call__|unicodedata$py.init_unicodedata$4,0.0,0.06747777777814512,0.0,0.009603333333264649,0.07708111111140976
CRC32.update|ZipInputStream.read|InflaterInputStream.read,0.0,0.14271038889031235,0.0,0.015616666666675074,0.15832705555698742
CRC32.update|ZipInputStream.read|ZipInputStream.skip,0.0,0.07747649999964779,0.0,0.008468437499914216,0.085944937499562
CachedJarsPackageManager.listToString|CachedJarsPackageManager.getZipPackages|CachedJarsPackageManager.addJarToPackages,0.03627608629183193,0.0,0.002248883968620797,0.0,0.03852497026045273
Calls$py.f$28|Calls$py.call_function|PyTableCode.call,0.024515694444239167,0.0,0.0030083333331276663,0.0,0.027524027777366834
Calls$py.f1$4|Calls$py.call_function|PyTableCode.call,0.03296706666587852,0.0,0.003902000000137681,0.0,0.036869066666016206
Calls$py.test$13|Calls$py.call_function|PyTableCode.call,0.0,0.1132500718757222,0.0,0.016325499271655757,0.12957557114737794
Calls$py.test$16|Calls$py.call_function|PyTableCode.call,0.0960669803921608,0.0,0.014388235293296806,0.0,0.1104552156854576
Calls$py.test$2|Calls$py.call_function|PyTableCode.call,0.06820666666593087,0.0,0.008449019607403041,0.0,0.07665568627333391
Chaperone.retire|Chaperone.dismiss|Chaperone.main,0.14611201537442708,0.0,0.020472121073791063,0.0,0.16658413644821815
Character.getType|Character.isTitleCase|Character.isTitleCase,0.12901584109198544,0.0,0.010296738427233859,0.0,0.1393125795192193
Character.getType|Character.isUpperCase|Character.isUpperCase,0.040803870978787835,0.0,0.006550872853114014,0.0,0.04735474383190185
Character.isLowerCase|Character.isLowerCase|PyString.str_title,0.051803055419946516,0.0,0.003716301594031829,0.0,0.055519357013978345
Character.isUpperCase|Character.isUpperCase|PyString.str_title,0.04481045060353917,0.0,0.003296199879250093,0.0,0.04810665048278927
Character.toLowerCase|Character.toLowerCase|String.regionMatches,0.0,0.07580563636491372,0.0,0.010071818181875808,0.08587745454678952
Character.toLowerCase|Character.toLowerCase|String.toLowerCase,0.050156691814891484,0.0,0.003119518104035276,0.0,0.05327620991892676
Character.toLowerCase|String.toLowerCase|String.toLowerCase,0.045674188852687314,0.0,0.004646296602814508,0.0,0.05032048545550182
Character.toTitleCase|Character.toTitleCase|PyString.str_title,0.03767011951444334,0.0,0.005370617785816108,0.0,0.043040737300259445
CharacterData.of|Character.toLowerCase|Character.toLowerCase,0.051803055419946516,0.0,0.003716301594031829,0.0,0.055519357013978345
CharacterData00.getPropertiesEx|CharacterData00.isOtherLowercase|Character.isLowerCase,0.06099274779640446,0.0,0.005271182633096424,0.0,0.06626393042950089
CharacterDataLatin1.digit|Character.digit|Character.digit,0.0,0.036997088683689665,0.0,0.006776155908009589,0.043773244591699255
CharacterDataLatin1.getProperties|CharacterDataLatin1.toUpperCaseEx|Character.toUpperCaseEx,0.043963057226591495,0.0,0.00759969949529989,0.0,0.05156275672189139
Class.forName0|Class.forName|Jython.<init>,0.0,0.1357420000034229,0.0,0.017780000000129803,0.1535220000035527
Class.getConstructor0|Class.getConstructor|BytecodeLoader.makeCode,0.0,0.07405460277684353,0.0,0.009494212889861079,0.0835488156667046
Class.getDeclaredConstructors0|Class.privateGetDeclaredConstructors|Class.getConstructor0,0.0,0.48310356766295454,0.0,0.06726410715266645,0.550367674815621
ClassFileAssembler.emitConstantPoolMethodref|AccessorGenerator.emitCommonConstantPoolEntries|MethodAccessorGenerator.generate,0.0,0.09823916808941706,0.0,0.015279837426013325,0.11351900551543039
ClassLoader.defineClass1|ClassLoader.defineClass|SecureClassLoader.defineClass,0.12289030908968099,1.2230307900512154,0.014010787878607808,0.15553973677268632,1.5154716237921904
ClassPoolTail.openClassfile|ClassPool.openClassfile|CtClassType.getClassFile3,0.0,0.06990566666839489,0.0,0.009540000000318587,0.07944566666871347
ClassReader.accept|ClassReader.accept|AnnotationReader.<init>,0.0401256041667087,0.0,0.0002537499999561988,0.0,0.040379354166664896
CodeCompiler.makeStrings|PyCodeConstant.put|Module.addConstants,0.0,0.04003905882264543,0.0,0.003841764705986647,0.04388082352863208
Collections.synchronizedList|ClassFile.<init>|Module.<init>,0.0,0.05116783333505737,0.0,0.00611999999970673,0.057287833334764095
CommandLineArgs.<clinit>|TestHarness.main|Harness.main,0.0,0.0,0.0,0.0,0.0
CommonTokenStream.LT|PythonParser.atom|PythonParser.power,0.0,0.07962111381700923,0.0,0.009950896077066784,0.08957200989407602
ConcurrentHashMap$Node.<init>|ConcurrentHashMap.putVal|ConcurrentHashMap.put,0.04092613333389939,0.0,0.003989999999854868,0.0,0.04491613333375426
ConcurrentHashMap.addCount|ConcurrentHashMap.putVal|ConcurrentHashMap.put,0.0834345033520418,0.0,0.007768684734926574,0.0,0.09120318808696838
ConcurrentHashMap.casTabAt|ConcurrentHashMap.putVal|ConcurrentHashMap.put,0.07690873842806621,0.0,0.007271703944022203,0.0,0.08418044237208841
ConcurrentHashMap.get|LocaleProviderAdapter.getAdapter|DecimalFormatSymbols.getInstance,0.0,0.0714226875006716,0.0,0.00885937499992906,0.08028206250060066
ConcurrentHashMap.get|PyDictionary.__finditem__|PyObject.__getitem__,0.033320816247949685,0.0,0.0028458238991776372,0.0,0.036166640147127324
ConcurrentHashMap.get|PyDictionary.dict_get|PyDictionary$dict_get_exposer.__call__,0.0343824145801662,0.0,0.004026285944831602,0.0,0.0384087005249978
ConcurrentHashMap.get|PyStringMap.__finditem__|PyClass.lookup,0.08754357030431298,0.0,0.00843933789278133,0.0,0.0959829081970943
ConcurrentHashMap.get|PyStringMap.__finditem__|PyFrame.doGetglobal,0.10462916820935661,0.2026522929228682,0.01223119951759479,0.02971954545460499,0.34923220610442457
ConcurrentHashMap.get|PyStringMap.__finditem__|PyType.lookup,0.03519588699791592,0.09583888888785927,0.003799588151164032,0.00992666666651429,0.1447610307034535
ConcurrentHashMap.putVal|ConcurrentHashMap.put|PyDictionary.dict___setitem__,0.12638056923646082,0.0,0.014480737748479112,0.0,0.14086130698493993
ConcurrentHashMap.putVal|ConcurrentHashMap.put|PyStringMap.__setitem__,0.17871984834001423,0.0,0.015444266710860667,0.0,0.19416411505087489
ConcurrentHashMap.replaceNode|ConcurrentHashMap.remove|PyDictionary.dict___delitem__,0.030681583333262093,0.0,0.0020649999998264925,0.0,0.03274658333308859
ConcurrentHashMap.tabAt|ConcurrentHashMap.get|PyStringMap.__finditem__,0.0,0.03733514322966347,0.0,0.0064404845229501465,0.043775627752613615
ConcurrentHashMap.tabAt|ConcurrentHashMap.putVal|ConcurrentHashMap.put,0.1823100536312209,0.0,0.018745931184775123,0.0,0.20105598481599604
ConcurrentHashMap.transfer|ConcurrentHashMap.addCount|ConcurrentHashMap.putVal,0.026612148459743936,0.0,0.004221059777514946,0.0,0.03083320823725888
Constructs$py.test$2|Constructs$py.call_function|PyTableCode.call,0.25076681088529934,0.0,0.029407348337644558,0.0,0.2801741592229439
Constructs$py.test$8|Constructs$py.call_function|PyTableCode.call,0.19881201116608396,0.0,0.023283025641774438,0.0,0.22209503680785841
DataInputStream.readFully|CodeAttribute.<init>|AttributeInfo.read,0.04113199999869031,0.0,0.005323181817595579,0.0,0.04645518181628589
DataInputStream.readInt|CodeAttribute.<init>|AttributeInfo.read,0.01981349999944844,0.0,0.0,0.0,0.01981349999944844
DataInputStream.readShort|PackageManager.checkAccess|CachedJarsPackageManager.addZipEntry,0.0,0.04797350000202034,0.0,0.005837500000173653,0.05381100000219399
DataInputStream.readUnsignedShort|NameAndTypeInfo.<init>|ConstPool.readOne,0.025986923076113902,0.0,0.00337307692368482,0.0,0.02935999999979872
DataInputStream.readUnsignedShort|PackageManager.checkAccess|CachedJarsPackageManager.addZipEntry,0.0,0.05178220000234432,0.0,0.005700000000069849,0.05748220000241417
DecimalFormatSymbols.<init>|DecimalFormatSymbolsProviderImpl.getInstance|DecimalFormatSymbols.getInstance,0.0,0.03632176068994712,0.0,0.005003997477918091,0.04132575816786521
DecimalFormatSymbols.getInstance|Formatter.getZero|Formatter.<init>,0.0,0.08511894303892603,0.0,0.011900147021745631,0.09701909006067166
Dict$py.test$11|Dict$py.call_function|PyTableCode.call,0.1166401917031078,0.0,0.01137664203861076,0.0,0.12801683374171857
Dict$py.test$14|Dict$py.call_function|PyTableCode.call,0.1853142083333902,0.0,0.01726999999884053,0.0,0.20258420833223073
Dict$py.test$2|Dict$py.call_function|PyTableCode.call,0.20578599515168985,0.0,0.01691832251438473,0.0,0.22270431766607457
Dict$py.test$5|Dict$py.call_function|PyTableCode.call,0.17657182705296565,0.0,0.01408258327630016,0.0,0.1906544103292658
Dict$py.test$8|Dict$py.call_function|PyTableCode.call,0.10766182758490724,0.0,0.01189164329903684,0.0,0.11955347088394408
DisabledAlgorithmConstraints.<init>|SignatureFileVerifier.<clinit>|JarFile.initializeVerifier,0.0,0.07082133332733065,0.0,0.010969999999967207,0.08179133332729785
EnumSet.noneOf|UniversalIOWrapper.<init>|ParserFacade.prepBufReader,0.0,0.08195345454574138,0.0,0.0147381818178198,0.09669163636356118
ExceptionTable.<init>|CodeAttribute.<init>|AttributeInfo.read,0.0,0.059539976915387836,0.0,0.008272250809873228,0.06781222772526106
Exceptions$py.test$2|Exceptions$py.call_function|PyTableCode.call,0.07870562460886035,0.0,0.006359294506087556,0.0,0.08506491911494792
Exceptions$py.test$5|Exceptions$py.call_function|PyTableCode.call,0.09573752109095628,0.0,0.010412680232689982,0.0,0.10615020132364626
ExtensiblePyObjectAdapter.findAdapter|ExtensiblePyObjectAdapter.adapt|ClassicPyObjectAdapter.adapt,0.025044777777414613,0.0,0.002136666666855389,0.0,0.027181444444270002
FileInputStream.available0|FileInputStream.available|BufferedInputStream.read,0.0,0.4529735890118736,0.0,0.05737534780547136,0.510348936817345
FileInputStream.readBytes|FileInputStream.read|BufferedInputStream.fill,0.05890281176807351,1.2532852457334527,0.004225620858480732,0.15120749836559086,1.4676211767255978
FileOutputStream.open0|FileOutputStream.open|FileOutputStream.<init>,0.0,0.40446611851863845,0.0,0.051355714286356005,0.45582183280499444
FileOutputStream.writeBytes|FileOutputStream.write|BufferedOutputStream.flushBuffer,0.0,1.1127665111091187,0.0,0.1475859999992988,1.2603525111084175
FileOutputStream.writeBytes|FileOutputStream.write|BufferedOutputStream.write,0.0,0.2499510164494015,0.0,0.03314767532548021,0.2830986917748817
FileOutputStream.writeBytes|FileOutputStream.write|imp.cacheCompiledSource,0.0,0.07316745161385554,0.0,0.008985322581089172,0.08215277419494471
Formatter$FormatSpecifier.<init>|Formatter.parse|Formatter.format,0.0,0.03632176068994712,0.0,0.005003997477918091,0.04132575816786521
Formatter$FormatSpecifier.getZero|Formatter$FormatSpecifier.localizedMagnitude|Formatter$FormatSpecifier.print,0.0,0.038330467144138174,0.0,0.005846945900049804,0.04417741304418798
Formatter$FormatSpecifier.precision|Formatter$FormatSpecifier.<init>|Formatter.parse,0.0,0.0928550000001754,0.0,0.00959500000074816,0.10245000000092355
Formatter.format|Formatter.format|String.format,0.0,0.05619898214488198,0.0,0.007975234640293136,0.06417421678517513
Future.isAbsoluteImportOn|CodeCompiler.visitImportFrom|ImportFrom.accept,0.0,0.038787833334936295,0.0,0.005830000000059954,0.04461783333499625
GrammarActions.extractStrings|PythonParser.atom|PythonParser.power,0.0,0.06547914285017344,0.0,0.007558571428489812,0.07303771427866325
GrammarActions.makeTryExcept|PythonParser.try_stmt|PythonParser.compound_stmt,0.0,0.07706326858440432,0.0,0.009557514314514485,0.08662078289891881
Handler.<init>|MethodWriter.visitTryCatchBlock|Code.trycatch,0.0,0.0811271594214739,0.0,0.014356086956283525,0.09548324637775743
HashMap.getNode|HashMap.get|PyType.fromClass,0.03012988235294709,0.0,0.004479999999817023,0.0,0.03460988235276411
HashMap.hash|HashMap.get|CachedJarsPackageManager.addZipEntry,0.0,0.05026108178037213,0.0,0.006695181296795025,0.056956263077167155
HashMap.hash|HashMap.get|PyType.fromClass,0.06952927201363056,0.0,0.006809937474881484,0.0,0.07633920948851204
HashMap.resize|HashMap.putVal|HashMap.put,0.0,0.05244139999849722,0.0,0.006564000000071246,0.05900539999856847
Hashtable.get|ClassPool.getCached|ClassPool.get0,0.0,0.12727866666197465,0.0,0.012609999999767751,0.1398886666617424
HeapByteBuffer.<init>|ByteBuffer.allocate|FileIO.readall,0.0,0.03763833333262785,0.0,0.006084999999984575,0.04372333333261243
Imports$py.test$2|Imports$py.call_function|PyTableCode.call,0.028841200001382582,0.0,0.002739999999660844,0.0,0.031581200001043426
Inflater.finished|InflaterInputStream.read|ZipInputStream.read,0.0,0.11866367646578901,0.0,0.013435588235543215,0.13209926470133224
Inflater.inflateBytes|Inflater.inflate|InflaterInputStream.read,1.6280638071444995,17.0264206338344,0.1315021982037669,2.134923980492002,20.920910619674668
Inflater.inflate|InflaterInputStream.read|Resource.getBytes,0.0,0.071214934889862,0.0,0.009612993176119423,0.08082792806598142
Inflater.inflate|InflaterInputStream.read|ZipInputStream.read,0.061784873861368966,0.4704823064160016,0.005161578581244778,0.06152786715909418,0.5989566260177095
Inflater.needsDictionary|InflaterInputStream.read|ZipInputStream.read,0.0,0.06455483333411394,0.0,0.008117499999874173,0.0726723333339881
Inflater.needsInput|InflaterInputStream.read|ZipInputStream.read,0.0,0.02404190476296381,0.0,0.003137142857234548,0.027179047620198356
InflaterInputStream.ensureOpen|InflaterInputStream.read|ZipInputStream.read,0.0,0.09170049122685826,0.0,0.009092631578440835,0.1007931228052991
InflaterInputStream.fill|InflaterInputStream.read|ZipInputStream.read,0.03401276040944255,0.0,0.0026409553265224197,0.0,0.03665371573596497
InflaterInputStream.read|ZipInputStream.read|ZipInputStream.skip,0.0,0.08180769238370762,0.0,0.010757154998243252,0.09256484738195088
Instances$py.test$2|Instances$py.call_function|PyTableCode.call,0.021012924187785637,0.0,0.0036842522169188135,0.0,0.024697176404704452
Integer.valueOf|PythonParser.atom|PythonParser.power,0.0,0.04164065137879065,0.0,0.004901703919246317,0.04654235529803697
LineNumberAttribute.<init>|AttributeInfo.read|CodeAttribute.<init>,0.0,0.07248933333418486,0.0,0.010989999999461968,0.08347933333364684
Lists$py.test$2|Lists$py.call_function|PyTableCode.call,0.4991408568789921,0.0,0.04978336393192771,0.0,0.5489242208109198
Lists$py.test$8|Lists$py.call_function|PyTableCode.call,0.10139789290102758,0.0,0.0077989075699200884,0.0,0.10919680047094767
LongVector.addElement|ConstPool.addItem0|ConstPool.read,0.0,0.04347733333027766,0.0,0.005440000000210906,0.04891733333048857
Lookups$py.test$12|Lookups$py.call_function|PyTableCode.call,0.1834103179593731,0.0,0.015825151242722785,0.0,0.1992354692020959
Lookups$py.test$17|Lookups$py.call_function|PyTableCode.call,0.06239382608675994,0.0,0.008752173913070808,0.0,0.07114599999983075
Lookups$py.test$22|Lookups$py.call_function|PyTableCode.call,0.0,0.10233313365332955,0.0,0.018398147099167532,0.12073128075249709
Lookups$py.test$2|Lookups$py.call_function|PyTableCode.call,0.2315929654841265,0.0,0.024325533991031743,0.0,0.25591849947515827
Lookups$py.test$7|Lookups$py.call_function|PyTableCode.call,0.12940897732100687,0.0,0.015008007464614434,0.0,0.14441698478562132
Math.floor|PyFloat.float___hash__|PyFloat.hashCode,0.034124934749262564,0.0,0.0024957746224388163,0.0,0.03662070937170138
MethodWriter.b|MethodWriter.b|MethodWriter.visitMaxs,0.0,0.038064470588270685,0.0,0.00396529411762672,0.04202976470589741
Module.PyCode|Module.compile|imp.compileSource,0.0,0.046864833331104215,0.0,0.005985000000085468,0.052849833331189686
Module.addFunctions|Module.write|Module.compile,0.0,0.05299346570857748,0.0,0.008344988815881098,0.061338454524458574
Module.compile|imp.compileSource|imp.createFromSource,0.0,0.02944950000043415,0.0,0.004267500000423753,0.0337170000008579
MutableBigInteger.divideKnuth|BigInteger.divideKnuth|BigInteger.divide,0.06356757874541674,0.0,0.0058768924653479476,0.0,0.06944447121076469
Numbers$py.test$11|Numbers$py.call_function|PyTableCode.call,0.05067611111169552,0.0,0.003937500000069526,0.0,0.05461361111176504
Numbers$py.test$2|Numbers$py.call_function|PyTableCode.call,0.0,0.2368518305039361,0.0,0.024402054927515595,0.26125388543145167
Numbers$py.test$5|Numbers$py.call_function|PyTableCode.call,0.0,0.11614996958459023,0.0,0.010457166970789715,0.12660713655537995
Numbers$py.test$8|Numbers$py.call_function|PyTableCode.call,0.0,0.1553386170410185,0.0,0.017846987314544524,0.17318560435556302
Object.<init>|PyObject.<init>|PyFrame.<init>,0.036782222222326605,0.0,0.004462500000449331,0.0,0.041244722222775934
Pattern$Start.match|Matcher.search|Matcher.find,0.0,0.050543384614567734,0.0,0.00542769230751452,0.05597107692208225
Pattern.union|Pattern.clazz|Pattern.sequence,0.0,0.0928550000001754,0.0,0.00959500000074816,0.10245000000092355
PushbackInputStream.read|InflaterInputStream.fill|InflaterInputStream.read,0.0,0.04513985714376238,0.0,0.005864999999955345,0.051004857143717726
PushbackInputStream.read|ZipInputStream.read|InflaterInputStream.read,0.0,0.06045592982365889,0.0,0.006513684210675133,0.06696961403433402
Py.getThreadState|Py.getThreadState|Py.getFrame,0.028841199998472195,0.0,0.0036679999999857204,0.0,0.032509199998457916
Py.getThreadState|Py.getThreadState|Py.getSystemState,0.08105459999787853,0.0,0.008885999999620251,0.0,0.08994059999749879
Py.getThreadState|Py.getThreadState|PyObject._gt,0.038566458335177835,0.13395093046643305,0.0029812499997206032,0.021822962616156245,0.19732160141748772
Py.getThreadState|Py.getThreadState|PyObject._lt,0.029148939394155717,0.06803143355818217,0.0021613636366082847,0.011052090720342316,0.11039382730928848
Py.newInteger|PyInteger._sub|PyInteger.int___sub__,0.042953523891054564,0.0,0.004171144961417217,0.0,0.04712466885247178
Py.newInteger|PyString.__int__|PyInteger.asPyInteger,0.0,0.14030254700690764,0.0,0.019136923076930695,0.15943947008383832
Py.newString|__builtin__.__import__|__builtin__.__import__,0.03587660000048345,0.0,0.004116000000794883,0.0,0.03999260000127833
PyArray$PyExposer.<init>|PyArray.<clinit>|ClassicPyObjectAdapter$9.adapt,0.0,0.06305333333633219,0.0,0.007088000000415679,0.07014133333674787
PyBaseCode.call|PyBaseCode.call|PyFunction.__call__,0.021012924187785637,0.0,0.0036842522169188135,0.0,0.024697176404704452
PyBaseExceptionDerived.<init>|PyBaseException$exposed___new__.createOfSubtype|PyOverridableNew.new_impl,0.0,0.07635958974834722,0.0,0.011824615384774426,0.08818420513312165
PyBaseString.<init>|PyString.<init>|PyString.<init>,0.0387985661062297,0.0,0.004578824898765953,0.0,0.04337739100499565
PyClass.lookup|PyClass.cacheDescriptors|PyClass.classobj___new__,0.03325483780230755,0.0,0.0026726009396619067,0.0,0.03592743874196946
PyComplex._div|PyComplex.complex___div__|PyComplex.__div__,0.042734066665677035,0.0,0.004575666666803753,0.0,0.047309733332480786
PyDictionary$PyExposer.<init>|PyDictionary.<clinit>|PySystemState.<init>,0.02107018181810748,0.0,0.002758181817956608,0.0,0.02382836363606409
PyDictionary.__finditem__|PyObject.__getitem__|Dict$py.test$8,0.025846024120785103,0.0,0.003416523439360978,0.0,0.029262547560146082
PyFile$PyExposer.<init>|PyFile.<clinit>|PySystemState.<init>,0.024369696969215787,0.0,0.002405454544879665,0.0,0.02677515151409545
PyFloat.float___add__|PyFloat.__add__|PyObject._basic_add,0.058566666665784486,0.0,0.005059999999907126,0.0,0.06362666666569161
PyFloat.float___cmp__|PyFloat.__cmp__|PyObject._try__cmp__,0.0,0.04346704873758682,0.0,0.00588908004016001,0.04935612877774683
PyFrame.<init>|PyFrame.<init>|PyBaseCode.call,0.11428199290392377,0.0,0.013012643111004394,0.0,0.12729463601492816
PyFrame.doGetglobal|PyFrame.getglobal|unicodedata$py.get$11,0.12462763167804483,0.0,0.014042108453443239,0.0,0.13866974013148808
PyFrame.getLocals|imp.importOne|Imports$py.test$2,0.03555899999919347,0.0,0.004337999999552266,0.0,0.03989699999874574
PyFrame.getLocals|imp.importOne|Imports$py.test$5,0.058105466665195615,0.0,0.007046000000749094,0.0,0.06515146666594471
PyFrame.getlocal|Arithmetic$py.test$14|Arithmetic$py.call_function,0.11591544166752404,0.0,0.014233249999839851,0.0,0.1301486916673639
PyFrame.getlocal|Arithmetic$py.test$5|Arithmetic$py.call_function,0.028086526972383185,0.0,0.00420288088326657,0.0,0.03228940785564975
PyFrame.getlocal|Arithmetic$py.test$8|Arithmetic$py.call_function,0.07206503515178078,0.0,0.005652413594166231,0.0,0.07771744874594701
PyFrame.getlocal|Lookups$py.test$12|Lookups$py.call_function,0.030629649790939507,0.0,0.0024431525773932674,0.0,0.03307280236833277
PyFrame.getlocal|Strings$py.test$5|Strings$py.call_function,0.02167666666619797,0.0,0.001618181818092566,0.0,0.023294848484290535
PyFrame.getlocal|bisect$py.bisect_left$4|bisect$py.call_function,0.05724210575081767,0.0,0.005412953522359192,0.0,0.06265505927317687
PyFrame.setline|Arithmetic$py.test$5|Arithmetic$py.call_function,0.04283261538456337,0.0,0.0031292307690959057,0.0,0.04596184615365928
PyFrame.setline|Constructs$py.test$5|Constructs$py.call_function,0.04002437292814365,0.0,0.00429419963630645,0.0,0.0443185725644501
PyFrame.setline|Constructs$py.test$8|Constructs$py.call_function,0.038798945163867005,0.0,0.007157454808491208,0.0,0.04595639997235821
PyFrame.setline|Dict$py.test$11|Dict$py.call_function,0.026902072603999818,0.0,0.003668464445734261,0.0,0.03057053704973408
PyFrame.setlocal|Arithmetic$py.test$2|Arithmetic$py.call_function,0.06284558707386358,0.0,0.006920333516114993,0.0,0.06976592058997858
PyFrame.setlocal|Constructs$py.test$2|Constructs$py.call_function,0.026473730209288854,0.0,0.004464079887554104,0.0,0.03093781009684296
PyFrame.setlocal|Constructs$py.test$8|Constructs$py.call_function,0.038379708427110575,0.0,0.0069792384851752355,0.0,0.045358946912285814
PyFrame.setlocal|Strings$py.test$11|Strings$py.call_function,0.09542607369186767,0.0,0.01370800300679793,0.0,0.10913407669866561
PyFrame.setlocal|bisect$py.bisect_left$4|bisect$py.call_function,0.034403824302054097,0.0,0.0025793938575214303,0.0,0.036983218159575525
PyFunction.__call__|Calls$py.test$2|Calls$py.call_function,0.024542888889199168,0.0,0.0033766666666552834,0.0,0.02791955555585445
PyInteger.int___add__|PyInteger.__add__|PyObject._basic_add,0.061063217889757715,0.0,0.007410812797082391,0.0,0.0684740306868401
PyInteger.int___div__|PyInteger.__div__|PyObject._basic_div,0.05470062314754971,0.0,0.006089667942122804,0.0,0.060790291089672516
PyJavaType.init|PyType.createType|PyType.addFromClass,0.03198981818136279,0.06933599999805057,0.002138181818405759,0.00818000000011428,0.1116439999979334
PyList$list_append_exposer.bind|PyMethodDescr.method_descriptor___get__|PyMethodDescr.__get__,0.0,0.03392678153681904,0.0,0.006787559167001582,0.04071434070382062
PyList.<init>|PyList.<init>|Lists$py.test$8,0.0626709638299777,0.0,0.005078968781787162,0.0,0.06774993261176486
PyList.pyget|PySequence$1.getItem|SequenceIndexDelegate.checkIdxAndFindItem,0.08595931742914423,0.06941733333385652,0.010739891900969203,0.007690000000164015,0.17380654266413398
PyMethodDescr.method_descriptor___get__|PyMethodDescr.__get__|PyObject.object___findattr__,0.09299374642818631,0.0,0.008643939142018074,0.0,0.10163768557020439
PyObject$object___setattr___exposer.__call__|PyObjectDerived.__setattr__|NewInstances$py.__init__$8,0.02708257210369258,0.0,0.0035575134298225604,0.0,0.030640085533515143
PyObject.__eq__|PyObject._eq|Numbers$py.test$11,0.028601805555202493,0.0,0.0024541666668180064,0.0,0.0310559722220205
PyObject.__lt__|PyObject._lt|Numbers$py.test$2,0.0,0.03039689538339315,0.0,0.0009541016620223812,0.03135099704541553
PyObject.__not__|unicodedata$py.get_codepoint$9|unicodedata$py.call_function,0.04012134249454838,0.0,0.006397729698610027,0.0,0.04651907219315841
PyObject._eq|Constructs$py.test$2|Constructs$py.call_function,0.03734517291423227,0.0,0.004622497495138918,0.0,0.04196767040937119
PyObject._ge|Strings$py.test$8|Strings$py.call_function,0.059422805555691925,0.0,0.00635249999939131,0.0,0.06577530555508324
PyObject._gt|Numbers$py.test$2|Numbers$py.call_function,0.0,0.05459284691679518,0.0,0.003976438102116564,0.058569285018911746
PyObject._gt|Numbers$py.test$8|Numbers$py.call_function,0.0,0.032111848139237974,0.0,0.0025458508115931426,0.034657698950831116
PyObject._lt|Numbers$py.test$5|Numbers$py.call_function,0.0,0.08019062997133508,0.0,0.012109912337842083,0.09230054230917717
PyObject._try__cmp__|PyObject._cmp_unsafe|PyObject._gt,0.0,0.0656323371817345,0.0,0.01073211330786168,0.07636445048959618
PyObject.asIterable|imp.find_module|imp.import_next,0.027404777776812096,0.0,0.003029999999853317,0.0,0.030434777776665412
PyObject.fastGetDict|PyObject.object___findattr__|PyObject.__findattr_ex__,0.0,0.032689670643687635,0.0,0.006008764483211712,0.03869843512689935
PyObject.getType|PyObject._eq|Constructs$py.test$2,0.03734517291423227,0.0,0.004622497495138918,0.0,0.04196767040937119
PyObject.getType|PyObject._sub|Arithmetic$py.test$2,0.06894662174418319,0.0,0.005918018896671561,0.0,0.07486464064085475
PyObject.object___findattr__|PyObject.__findattr_ex__|PyObject.__getattr__,0.0,0.032308319779978445,0.0,0.005948898093005672,0.03825721787298412
PyReflectedFunction._doget|PyObject.__get__|PyObject.object___findattr__,0.025044777777414613,0.0,0.002136666666855389,0.0,0.027181444444270002
PySequence.__iter__|Dict$py.test$2|Dict$py.call_function,0.033467233692296074,0.0,0.0038025435029414704,0.0,0.037269777195237545
PySequence.cmp|PySequence.seq___lt__|PySequence.__lt__,0.06722212041157151,0.0,0.010818257924275277,0.0,0.07804037833584679
PySequence.seq___setitem__|PySequence.__setitem__|Lists$py.test$8,0.05180626469281962,0.0,0.004088074840862185,0.0,0.0558943395336818
PySequence.sliceLength|PyTuple.getslice|PySequence$1.getSlice,0.05262459990433156,0.0,0.005479108676354626,0.0,0.05810370858068619
PySlice.indicesEx|SequenceIndexDelegate.checkIdxAndSetSlice|PySequence.seq___setslice__,0.039489701538675016,0.0,0.003128957064843065,0.0,0.04261865860351808
PySlice.indicesEx|SequenceIndexDelegate.getSlice|PySequence.seq___getslice__,0.0,0.04881821998586882,0.0,0.006362590765610727,0.05518081075147955
PyString$str_islower_exposer.bind|PyMethodDescr.method_descriptor___get__|PyMethodDescr.__get__,0.05578116659033009,0.0,0.003596752877149211,0.0,0.0593779194674793
PyString$str_isupper_exposer.bind|PyMethodDescr.method_descriptor___get__|PyMethodDescr.__get__,0.042733770465050495,0.0,0.002998212679692968,0.0,0.045731983144743464
PyString.atoi|PyString.__int__|PyInteger.asPyInteger,0.0,0.05269682051267666,0.0,0.008052307692242976,0.060749128204919636
PyString.coerce|PyString.str___gt__|PyString.__gt__,0.02167666666619797,0.0,0.001618181818092566,0.0,0.023294848484290535
PyString.str___eq__|PyString.__eq__|PyObject._eq,0.029169722221114275,0.0,0.001975000000129512,0.0,0.031144722221243787
PyString.str___gt__|PyString.__gt__|PyObject._gt,0.05072270833352377,0.0,0.005153124999803064,0.0,0.05587583333332683
PyString.str___hash__|PyString.hashCode|ConcurrentHashMap.putVal,0.029118699227220057,0.0,0.002310659675266067,0.0,0.031429358902486125
PyString.str_islower|PyString$str_islower_exposer.__call__|PyObject.__call__,0.03693984221757808,0.0,0.0026884388311214555,0.0,0.03962828104869954
PyString.str_title|PyString$str_title_exposer.__call__|PyObject.__call__,0.09720118235430347,0.0,0.0071347571247451815,0.0,0.10433593947904865
PyString.str_title|PyUnicode.unicode_title|PyUnicode$unicode_title_exposer.__call__,0.10484420278397946,0.0,0.011089016900270334,0.0,0.1159332196842498
PyStringMap.__finditem__|PyFrame.doGetglobal|PyFrame.getglobal,0.027491249999608648,0.0,0.002447916666723257,0.0,0.029939166666331906
PySystemState.initPackages|PySystemState.doInitialize|PySystemState.initialize,0.0,0.09151201754738986,0.0,0.00931210526313838,0.10082412281052824
PyTableCode.call|PyBaseCode.call|PyFunction.__call__,0.06452182622850612,0.0,0.005760111044229689,0.0,0.07028193727273581
PyTuple.<init>|PyTuple.<init>|unicodedata$py.check_segments$8,0.045061587562677134,0.0,0.007007356353646597,0.0,0.05206894391632373
PyTuple.tuple_new|PyTuple$exposed___new__.new_impl|PyType.invoke_new_,0.04206024206617581,0.0,0.003524892102841469,0.0,0.04558513416901728
PyType.fromClass|PyObject.<init>|AST.<init>,0.0,0.1614358890347274,0.0,0.020020607482986747,0.18145649651771414
PyType.fromClass|PyObject.<init>|PyFrame.<init>,0.25745944066820464,0.0,0.03133787335848574,0.0,0.2887973140266904
PyType.fromClass|PyObject.<init>|PyMethod.<init>,0.024515694444239167,0.0,0.0030083333331276663,0.0,0.027524027777366834
PyType.fromClass|PyObject.<init>|PyStringMap.<init>,0.03325483780230755,0.0,0.0026726009396619067,0.0,0.03592743874196946
PyType.invoke_new_|PyType.type___call__|PyType.__call__,0.0,0.06107140531970854,0.0,0.007575689003163047,0.06864709432287158
PyType.isSubType|PyObjectDerived.dispatch__init__|PyType.invoke_new_,0.05235203673666127,0.0,0.0067423809738490865,0.0,0.059094417710510355
PyType.lookup|PyObject.object___setattr__|PyObject.object___setattr__,0.02708257210369258,0.0,0.0035575134298225604,0.0,0.030640085533515143
PyType.type___call__|PyType.__call__|PyObject.__call__,0.0,0.02949758520012072,0.0,0.005341401755886133,0.03483898695600685
PyUnicode$PyExposer.<init>|PyUnicode.<clinit>|__builtin__.fillWithBuiltins,0.041352393940156384,0.0,0.004320909091334077,0.0,0.04567330303149046
PyUnicode.unicode_new|PyUnicode$exposed___new__.new_impl|PyType.invoke_new_,0.0,0.08195345454574138,0.0,0.0147381818178198,0.09669163636356118
PyXRange.pyget|PySequence$1.getItem|SequenceIndexDelegate.checkIdxAndFindItem,0.0,0.027336694108276532,0.0,0.004813888265607024,0.03215058237388355
PythonLexer.mCOMMENT|PythonLexer.mTokens|PythonLexer.nextToken,0.0,0.08011256409913467,0.0,0.010300000000055522,0.09041256409919018
PythonParser$DFA137.<init>|PythonParser.<init>|PythonParser.<init>,0.0,0.10027330302656276,0.0,0.01446454545415084,0.1147378484807136
PythonParser.<clinit>|BaseParser.setupParser|BaseParser.parseModule,0.0,0.03507149272476718,0.0,0.0048100379306982395,0.039881530655465416
PythonParser.<init>|PythonParser.<init>|PythonParser.<init>,0.0,0.037802896343087165,0.0,0.00465496143234186,0.04245785777542903
PythonParser.and_expr|PythonParser.xor_expr|PythonParser.expr,0.0,0.10634216666775977,0.0,0.011328571428965092,0.11767073809672486
PythonParser.argument|PythonParser.arglist|PythonParser.trailer,0.0,0.05974164472096374,0.0,0.0071908942709791954,0.06693253899194293
PythonParser.atom|PythonParser.power|PythonParser.factor,0.0,0.07273822466905018,0.0,0.011161634282127951,0.08389985895117813
PythonParser.comparison|PythonParser.not_test|PythonParser.and_test,0.0,0.08683457575733139,0.0,0.014060454545621971,0.10089503030295335
PythonParser.term|PythonParser.arith_expr|PythonParser.shift_expr,0.0,0.0644778333319534,0.0,0.008877142857532556,0.07335497618948594
PythonParser.testlist|PythonParser.synpred2_Python_fragment|PythonParser.synpred2_Python,0.0,0.030331053445768818,0.0,0.003684497704662149,0.034015551150430964
PythonParser.yield_expr|PythonParser.yield_stmt|PythonParser.flow_stmt,0.0,0.06547914285017344,0.0,0.007558571428489812,0.07303771427866325
PythonTreeAdaptor.setTokenBoundaries|PythonParser.test|PythonParser.elif_clause,0.0,0.07891224158266355,0.0,0.012334394559890887,0.09124663614255443
Resource.getBytes|URLClassLoader.defineClass|URLClassLoader.access$100,0.0,0.07657899999564202,0.0,0.00953999999971226,0.08611899999535429
RewriteRuleElementStream.<init>|RewriteRuleTokenStream.<init>|PythonParser.atom,0.0,0.054106994888404814,0.0,0.009037137783425431,0.06314413267183025
RuleBasedBreakIterator.handleNext|RuleBasedBreakIterator.following|RuleBasedBreakIterator.isBoundary,0.048796729187544775,0.0,0.0048005515955637035,0.0,0.05359728078310848
String.<init>|StringUtil.fromBytes|StringUtil.fromBytes,0.0,0.07480670330562827,0.0,0.009869054269744527,0.0846757575753728
String.concat|PyString.str___add__|PyString.__add__,0.03425604166598835,0.0,0.00559375000041958,0.0,0.03984979166640793
String.concat|PyUnicode.unicode___add__|PyUnicode.__add__,0.02431591716646821,0.0,0.003998553194310707,0.0,0.028314470360778915
String.hashCode|ConcurrentHashMap.get|PyStringMap.__finditem__,0.034606911111364345,0.06670466666885963,0.002221333333242607,0.012719999999616344,0.11625291111308293
String.hashCode|ConcurrentHashMap.putVal|ConcurrentHashMap.put,0.03930945154178416,0.0,0.004922593268318605,0.0,0.04423204481010277
String.hashCode|HashMap.hash|LinkedHashMap.get,0.0,0.02944950000043415,0.0,0.004267500000423753,0.0337170000008579
String.indexOf|String.indexOf|CachedJarsPackageManager.filterByName,0.03245306574004141,0.09071955019651803,0.0020677674349110693,0.012093232060712894,0.13733361543218342
String.indexOf|String.indexOf|imp.import_name,0.03587660000048345,0.0,0.004116000000794883,0.0,0.03999260000127833
String.intern|ImportFunction.__call__|PyObject.__call__,0.06344811111274692,0.0,0.004961333332903451,0.0,0.06840944444565038
String.intern|PyJavaPackage.addPackage|PackageManager.makeJavaPackage,0.029381642811517474,0.0,0.0018896800883751134,0.0,0.03127132289989259
String.intern|imp.import_next|imp.import_logic,0.03615733333184229,0.0,0.004427999999703995,0.0,0.040585333331546285
String.intern|imp.import_next|imp.import_name,0.17937824444363487,0.0,0.01918266666737812,0.0,0.19856091111101298
String.length|String.concat|PyString.str___add__,0.04506437500064445,0.0,0.00476875000003929,0.0,0.04983312500068374
String.replace|CachedJarsPackageManager.addZipEntry|CachedJarsPackageManager.getZipPackages,0.0,0.06560599999890351,0.0,0.007293333333412494,0.072899333332316
String.substring|imp.import_name|imp.importName,0.033496133334119806,0.0,0.004591999999441517,0.0,0.03808813333356132
String.toLowerCase|String.toLowerCase|PyString.str_lower,0.18872560529272353,0.0,0.014157682886013434,0.0,0.20288328817873696
String.toUpperCase|String.toUpperCase|PyString.str_upper,0.047489270417807004,0.0,0.00326164762376742,0.0,0.050750918041574423
StringCoding.deref|StringCoding.encode|String.getBytes,0.0,0.022854259258127528,0.0,0.0030444444443370835,0.025898703702464613
Strings$py.test$11|Strings$py.call_function|PyTableCode.call,0.2741501086760989,0.0,0.04119695569857391,0.0,0.3153470643746728
Strings$py.test$14|Strings$py.call_function|PyTableCode.call,0.15909500199242466,0.0,0.014855822478825395,0.0,0.17395082447125004
Strings$py.test$17|Strings$py.call_function|PyTableCode.call,0.1487639190417222,0.0,0.010769263394548985,0.0,0.15953318243627118
Strings$py.test$20|Strings$py.call_function|PyTableCode.call,0.2140878100041308,0.0,0.01758771093048666,0.0,0.23167552093461746
Strings$py.test$2|Strings$py.call_function|PyTableCode.call,0.10210508333487571,0.0,0.017256999999214408,0.0,0.11936208333409012
Strings$py.test$5|Strings$py.call_function|PyTableCode.call,0.1838608838377952,0.0,0.013836363635329524,0.0,0.19769724747312473
Strings$py.test$8|Strings$py.call_function|PyTableCode.call,0.45254713888829834,0.0,0.03562916666618953,0.0,0.4881763055544879
Suite$PyExposer.<init>|Suite.<clinit>|CodeCompiler.visitFunctionDef,0.0,0.038787833334936295,0.0,0.005830000000059954,0.04461783333499625
SysPackageManager.findClass|PyJavaPackage.__findattr_ex__|PyObject.__findattr__,0.0,0.07313014583420832,0.0,0.010265937500283446,0.08339608333449176
TextIOInputStream.read|StreamDecoder.readBytes|StreamDecoder.implRead,0.0,0.04195854857293097,0.0,0.004430064891779756,0.04638861346471073
Thread.currentThread|ReentrantLock$Sync.tryRelease|AbstractQueuedSynchronizer.release,0.0,0.06510083060305431,0.0,0.008921436955190373,0.07402226755824469
ThreadLocal$ThreadLocalMap.getEntry|ThreadLocal$ThreadLocalMap.access$000|ThreadLocal.get,0.0813767990198268,0.060779999469762196,0.008557156863240925,0.004645117052182966,0.1553590724050129
Throwable.fillInStackTrace|Throwable.fillInStackTrace|PyException.fillInStackTrace,1.868760394121936,1.3159180112274302,0.1865896133248972,0.1799607426766081,3.5512287613508717
Throwable.fillInStackTrace|Throwable.fillInStackTrace|Throwable.<init>,0.0,0.9350569612756219,0.0,0.12597661412250646,1.0610335753981284
Tuples$py.test$2|Tuples$py.call_function|PyTableCode.call,0.1209967287259232,0.0,0.009613205865536677,0.0,0.13060993459145986
Tuples$py.test$5|Tuples$py.call_function|PyTableCode.call,0.18165559907577233,0.0,0.019122290358086113,0.0,0.20077788943385844
URLClassLoader$1.run|URLClassLoader$1.run|AccessController.doPrivileged,0.0,0.07117641025942226,0.0,0.010042307692343364,0.08121871795176562
URLClassPath.getNextLoader|URLClassPath.getResource|URLClassLoader$1.run,0.0,0.030331053445768818,0.0,0.003684497704662149,0.034015551150430964
UTF8.utf8Length|UTF8.encode|ClassFileAssembler.emitConstantPoolUTF8,0.0,0.035666006241331344,0.0,0.005198118388789482,0.040864124630120825
Unicode$py.test$14|Unicode$py.call_function|PyTableCode.call,0.10797795424832396,0.0,0.012269271967568239,0.0,0.1202472262158922
Unicode$py.test$17|Unicode$py.call_function|PyTableCode.call,0.03519588699791592,0.0,0.003799588151164032,0.0,0.03899547514907995
Unicode$py.test$2|Unicode$py.call_function|PyTableCode.call,0.07393424320355911,0.0,0.012905999923190841,0.0,0.08684024312674996
Unicode$py.test$5|Unicode$py.call_function|PyTableCode.call,0.18815374999727888,0.0,0.016521874999853026,0.0,0.2046756249971319
Unicode$py.test$8|Unicode$py.call_function|PyTableCode.call,0.1022329935598014,0.0,0.014403647817849407,0.0,0.1166366413776508
UnixFileSystem.createDirectory|File.mkdir|Benchmark.unpackZipStream,0.0,0.05130200000130572,0.0,0.006492000000192396,0.05779400000149812
UnixFileSystem.getBooleanAttributes0|UnixFileSystem.getBooleanAttributes|File.isDirectory,0.040464883390728776,0.0,0.00438052769707281,0.0,0.04484541108780159
Unsafe.defineClass|ClassDefiner.defineClass|MethodAccessorGenerator$1.run,0.0,0.03963793901953696,0.0,0.005811280098723097,0.045449219118260054
Vector.elementAt|Stack.peek|PythonParser.expr,0.0,0.07706326858440432,0.0,0.009557514314514485,0.08662078289891881
ZStreamRef.address|Inflater.inflate|InflaterInputStream.read,0.0,0.09598359420361584,0.0,0.009020869565732855,0.10500446376934869
ZipFile$ZipFileInflaterInputStream.close|Resource.getBytes|URLClassLoader.defineClass,0.041352393940156384,0.0,0.004320909091334077,0.0,0.04567330303149046
ZipFile$ZipFileInflaterInputStream.fill|InflaterInputStream.read|FilterInputStream.read,0.0,0.08419345454162931,0.0,0.012208636363511409,0.09640209090514072
ZipFile$ZipFileInputStream.read|ZipFile$ZipFileInflaterInputStream.fill|InflaterInputStream.read,0.0,0.03543548484793229,0.0,0.00289545454523415,0.03833093939316644
ZipFile.getEntry|ZipFile.getEntry|JarFile.getEntry,0.03427455555599105,0.0,0.0040050000000822665,0.0,0.03827955555607332
ZipFile.read|ZipFile.access$1400|ZipFile$ZipFileInputStream.read,0.0,0.026822933333460242,0.0,0.003845999999854636,0.030668933333314878
ZipInputStream.ensureOpen|ZipInputStream.read|InflaterInputStream.read,0.038564069639637766,0.0,0.003890497767850873,0.0,0.04245456740748864
ZipInputStream.readEnd|ZipInputStream.read|Benchmark.fileFromInputStream,0.0,0.05295370370462209,0.0,0.007530555555637906,0.06048425926025999
ZipInputStream.readLOC|ZipInputStream.getNextEntry|CachedJarsPackageManager.getZipPackages,0.0,0.03198244444340363,0.0,0.003646666666302028,0.03562911110970566
ZipInputStream.read|InflaterInputStream.read|DataInputStream.readShort,0.0,0.04265333332781058,0.0,0.004789999999957217,0.047443333327767796
ZipInputStream.read|InflaterInputStream.read|DataInputStream.readUnsignedShort,0.04886117211869399,0.09779089582965146,0.006170044432785465,0.010921249999910287,0.1637433623810412
ZipInputStream.read|ZipInputStream.skip|DataInputStream.skipBytes,0.0,0.09862277778059554,0.0,0.01146666666651678,0.11008944444711233
ZipInputStream.skip|DataInputStream.skipBytes|PackageManager.checkAccess,0.01764254093844413,0.05513756250184088,0.0010717801722087967,0.00613124999995307,0.07998313361244688
__builtin__.fillWithBuiltins|PySystemState$DefaultBuiltinsHolder.fillin|PySystemState$DefaultBuiltinsHolder.<clinit>,0.07540655555468137,0.0,0.009328181817677845,0.0,0.08473473737235922
__builtin__.map|BuiltinFunctions.fancyCall|BuiltinFunctions.__call__,0.03931231404603877,0.0,0.005287581288882008,0.0,0.04459989533492078
_sre.compile|NativeMethodAccessorImpl.invoke0|NativeMethodAccessorImpl.invoke,0.0,0.08061520235042045,0.0,0.011169854945639013,0.09178505729605947
imp.import_name|imp.importName|ImportFunction.__call__,0.06702866666795064,0.0,0.007925999999376166,0.0,0.07495466666732681
unicodedata$py.check_segments$8|unicodedata$py.call_function|PyTableCode.call,0.07008828126357572,0.0,0.00890185005355412,0.0,0.07899013131712984
unicodedata$py.get$11|unicodedata$py.call_function|PyTableCode.call,0.06270193860935423,0.0,0.0085736934512433,0.0,0.07127563206059753
unicodedata$py.init_east_asian_width$5|unicodedata$py.call_function|PyTableCode.call,0.0,0.13913212088575785,0.0,0.022363938605458288,0.16149605949121615
unicodedata$py.init_unicodedata$4|unicodedata$py.call_function|PyTableCode.call,0.0,0.11762364727789607,0.0,0.013468800606210434,0.1310924478841065
zipimporter$zipimporter_find_module_exposer.<init>|zipimporter$PyExposer.<init>|zipimporter.<clinit>,0.016912242424124004,0.0,0.002945454545128582,0.0,0.019857696969252586
