method,package1,package2,dram1,dram2,energy
,7.9457013814381945,0.5090443366849556,0.836402773317097,0.06884081898400587,9.359989310424252
com.kenai.constantine.platform.linux,0.007587112320238667,0.0,0.0009258278315588984,0.0,0.008512940151797566
java.io,2.3023407894786354,0.45234745377394314,0.23113812842969045,0.05924702499401541,3.0450733966762846
java.lang,3.237796510867111,3.524035949701587,0.39390853296700246,0.4852381885416027,7.640979182077303
java.lang.ref,0.0,0.003563777777782417,0.0,0.0005366666666506918,0.004100444444433109
java.lang.reflect,0.010363151607980913,0.0,0.0012885086044659047,0.0,0.011651660212446818
java.math,0.09082241360149777,0.0,0.010030224423293729,0.0,0.1008526380247915
java.net,0.05744000336314017,0.0,0.006257808928059997,0.0,0.06369781229120017
java.nio,0.06889382625095386,0.0,0.010317478664466652,0.0,0.07921130491542051
java.security,0.055045757981097815,0.0,0.00921093051627287,0.0,0.06425668849737068
java.util,0.8772429775777248,0.2551946373828967,0.13184474519201803,0.03298367785240233,1.2972660380050418
java.util.concurrent,0.9201815862473491,0.2606710665179306,0.09827033725495644,0.03700796052626272,1.316130950546499
java.util.jar,0.08788797403203527,0.0494821428548589,0.011640134908129466,0.011339285714105548,0.16034953750912917
java.util.regex,0.0,0.023666400000001885,0.0,0.0031241249999311546,0.02679052499993304
java.util.zip,7.322213620813387,1.5745491283622535,0.6423339737368007,0.19197435967603713,9.731071082588477
javassist,0.047142124999481894,0.01731657142850703,0.005859375,0.0022757142855663825,0.07259378571355532
javassist.bytecode,0.017814749999160998,0.0,0.0021993750001456647,0.0,0.020014124999306663
org.antlr.runtime,0.35054416956853973,0.0,0.0479983757375846,0.0,0.3985425453061243
org.antlr.runtime.tree,0.12194840338663929,0.053504605381942,0.016590284761287946,0.0065385392726239645,0.19858183280249317
org.dacapo.harness,0.08281777777786677,0.0,0.007073333334119525,0.0,0.08989111111198629
org.jruby.ext.posix,0.0,0.05281137921702866,0.0,0.00775271255078102,0.06056409176780968
org.objectweb.asm,0.36181549200060414,0.05108169231187696,0.05175961224454067,0.007917692307763409,0.4725744888647852
org.python.antlr,1.5964419174792286,0.11262814285512027,0.21506889935584989,0.021673095238083362,1.945812054928282
org.python.antlr.ast,0.3183094152095904,0.07497619174075136,0.0403234213979249,0.014131546304525842,0.4477405746527925
org.python.compiler,0.31368638224043915,0.0,0.0413487421868314,0.0,0.35503512442727053
org.python.core,3.3635454087568504,1.9199115756896825,0.40357330965954513,0.26406656588058997,5.951096859986667
org.python.core.adapter,0.0,0.05108169231187696,0.0,0.007917692307763409,0.05899938461964037
org.python.core.io,0.06358707358611312,0.0,0.009901819209961906,0.0,0.07348889279607503
org.python.core.packagecache,0.0437849820160471,0.4386473348939255,0.002799788633020037,0.04704253368354303,0.5322746392265356
org.python.modules.time,0.0,0.06754571428736819,0.0,0.00813571428576353,0.07568142857313172
org.python.util,0.0,0.014678456139415827,0.0,0.002075789473708841,0.01675424561312467
sun.instrument,0.0,0.0382227222224982,0.0,0.0062611111111605345,0.04448383333365873
sun.misc,0.0,0.07713487878779787,0.0,0.010632171717095764,0.08776705050489364
sun.nio.cs,0.09296475861766787,0.0,0.0100280421948832,0.0,0.10299280081255108
sun.reflect,0.08201100000102693,-0.010026341010370051,0.015110000001489729,-0.0012848836520913585,0.08580977534005525
sun.util.calendar,0.0,0.06754571428736819,0.0,0.00813571428576353,0.07568142857313172
sun.util.locale.provider,0.0,0.0802465267890208,0.0,0.012340424107026678,0.09258695089604749
