method,hits
ANTLRStringStream.LA,2
AccessController.getStackAccessControlContext,2
AnnotationReader.<init>,2
ArgListCompiler.visitName,2
Arithmetic$py.test$11,14
Arithmetic$py.test$14,8
Arithmetic$py.test$2,24
Arithmetic$py.test$5,22
Arithmetic$py.test$8,18
ArrayList.add,6
ArrayList.addAll,2
ArrayList.elementData,4
Arrays.asList,2
Arrays.copyOf,2
Arrays.copyOfRange,2
BaseParser.setupParser,18
BaseRecognizer.pushFollow,2
Benchmark.fileFromInputStream,2
BigInteger.add,6
BigInteger.multiplyByInt,2
Break.<clinit>,2
BufferedInputStream.<init>,2
BufferedInputStream.read,60
BufferedInputStream.read1,12
CRC32.update,2
CachedJarsPackageManager.getZipPackages,2
Calls$py.test$13,4
Calls$py.test$16,4
Calls$py.test$2,6
Chaperone.retire,2
Character.getType,6
Character.isUpperCase,2
CharacterData.of,6
CharacterData00.getProperties,2
CharacterDataLatin1.getProperties,4
CharacterDataLatin1.toLowerCase,2
CharacterDataLatin1.toUpperCase,2
Class$MethodArray.addIfNotPresent,2
Class.forName0,2
Class.getDeclaredConstructors0,6
Class.isAssignableFrom,2
ClassFile.addMethod,2
ClassLoader.defineClass1,32
ClassPool.compress,4
ClassWriter.a,2
CommonTokenStream.skipOffTokenChannelsReverse,2
ConcurrentHashMap.addCount,2
ConcurrentHashMap.casTabAt,6
ConcurrentHashMap.get,14
ConcurrentHashMap.putVal,30
ConcurrentHashMap.replaceNode,8
ConcurrentHashMap.spread,4
ConcurrentHashMap.tabAt,10
ConfigFileTokenManager.jjMoveStringLiteralDfa3_0,2
Constructs$py.test$2,28
Constructs$py.test$8,12
Continue$PyExposer.<init>,2
DFA.predict,2
DFA.unpackEncodedString,2
DataInputStream.readByte,4
DataInputStream.readUTF,2
DataInputStream.skipBytes,2
DecimalFormat.setMinimumIntegerDigits,2
Dict$py.test$11,4
Dict$py.test$14,10
Dict$py.test$2,6
Dict$py.test$5,12
Dict$py.test$8,2
Enum.getDeclaringClass,2
Exception.<init>,2
Exceptions$py.test$2,6
Exceptions$py.test$5,6
FileInputStream.available0,12
FileInputStream.open0,2
FileInputStream.readBytes,22
FileOutputStream.open0,4
FileOutputStream.writeBytes,34
FilterInputStream.read,2
For$PyExposer.<init>,2
Frame.a,2
FunctionDef$PyExposer.<init>,2
Global.<clinit>,2
GrammarActions.cantBeNone,2
GrammarActions.makeBoolOp,2
HashMap.get,2
HashMap.getNode,2
Hashtable.get,2
Imports$py.test$5,2
Inflater.finished,4
Inflater.inflate,28
Inflater.inflateBytes,652
Inflater.needsDictionary,4
Inflater.needsInput,4
Inflater.setInput,2
InflaterInputStream.ensureOpen,4
InflaterInputStream.fill,2
InflaterInputStream.read,8
JarFile.getBytes,2
Lists$py.test$2,16
Lists$py.test$8,14
LocaleResources.getDecimalFormatSymbolsData,2
Lookups$py.test$12,10
Lookups$py.test$17,6
Lookups$py.test$2,8
Lookups$py.test$7,14
Math.min,2
MethodWriter.e,2
MethodWriter.visitMethodInsn,2
Module.PyCode,2
Module.compile,2
MutableBigInteger.<init>,2
NumberFormat.format,2
Numbers$py.test$11,4
Numbers$py.test$2,2
Numbers$py.test$5,2
PackageManager.checkAccess,6
Pattern$Curly.match0,2
PushbackInputStream.ensureOpen,2
PushbackInputStream.read,2
Py.getThreadState,8
Py.makeCharacter,2
Py.newInteger,2
Py.newString,2
PyBaseCode.call,6
PyBaseException$PyExposer.<init>,2
PyClass.__setattr__,4
PyClass.lookup,2
PyComplex.canCoerce,4
PyDictionary.<init>,2
PyDictionary.__finditem__,4
PyDictionary.dict___setitem__,2
PyException.isExceptionInstance,2
PyException.match,2
PyFastSequenceIter.__iternext__,2
PyFloat.float___hash__,2
PyFrame.<init>,6
PyFrame.getlocal,18
PyFrame.setline,6
PyFrame.setlocal,4
PyInstance.__findattr_ex__,2
PyInstance.ifindlocal,4
PyInteger$PyExposer.<init>,2
PyInteger.canCoerce,2
PyInteger.int___mul__,2
PyJavaType.<init>,2
PyJavaType.wrapJavaObject,2
PyList.list___len__,2
PyList.pyget,10
PyObject.<init>,12
PyObject.__call__,2
PyObject._basic_mul,2
PyObject._eq,2
PyObject._le,2
PyObject._lt,2
PyObject._try__cmp__,4
PyObject.getType,4
PyObject.isDataDescr,2
PyObject.object___setattr__,2
PySequence.<init>,4
PySequence.seq___setitem__,2
PyString$str_split_exposer.bind,2
PyString$str_upper_exposer.bind,2
PyString.<init>,2
PyString.atoi,2
PyString.fromInterned,2
PyString.str___add__,2
PyString.str_islower,2
PyString.str_lower,2
PyString.str_title,10
PyStringMap.__finditem__,18
PyStringMap.__setitem__,2
PyTableCode.call,10
PyTuple.<init>,2
PyType$MROMergeState.isMerged,2
PyType.fromClass,12
PyType.invoke_new_,4
PyType.lookup,2
PyUnicode$unicode_upper_exposer.bind,2
PyUnicode.<init>,2
PyUnicode.unicode_islower,2
PyXRange.pyget,2
PythonLexer$DFA44.specialStateTransition,2
PythonLexer.<init>,2
PythonLexer.mSTRING,2
PythonParser.<clinit>,6
PythonParser.<init>,2
PythonParser.atom,2
PythonParser.compound_stmt,2
PythonParser.parameters,2
PythonParser.simple_stmt,2
PythonParser.subscript,2
PythonTreeAdaptor.create,2
ReferenceQueue.poll,2
Reflection.getCallerClass,2
RegularEnumSet.contains,4
Return$PyExposer.<init>,2
RewriteRuleElementStream.add,2
SignatureFileVerifier.<clinit>,2
String.charAt,4
String.concat,2
String.equals,2
String.hashCode,4
String.intern,18
String.replace,2
String.startsWith,2
String.substring,6
String.toLowerCase,2
String.toUpperCase,12
StringBuilder.append,2
Strings$py.test$11,10
Strings$py.test$14,2
Strings$py.test$17,2
Strings$py.test$2,4
Strings$py.test$20,2
Strings$py.test$5,14
Strings$py.test$8,36
System.nanoTime,2
Thread.isInterrupted,2
ThreadLocal$ThreadLocalMap.getEntry,18
ThreadStateMapping.getThreadState,4
Throwable.fillInStackTrace,148
Tuple$PyExposer.<init>,2
Tuples$py.test$2,8
Tuples$py.test$5,14
URLStreamHandler.equals,2
Unicode$py.test$11,2
Unicode$py.test$17,12
Unicode$py.test$2,2
Unicode$py.test$20,8
Unicode$py.test$5,6
UnixFileSystem.delete0,6
UnixFileSystem.getBooleanAttributes0,2
UnsafeFieldAccessorFactory.newFieldAccessor,2
Vector.addElement,2
WeakHashMap.getTable,2
ZStreamRef.address,2
ZipCoder.decoder,2
ZipCoder.toString,2
ZipFile.read,4
ZipInputStream.read,22
ZipInputStream.readFully,2
ZipUtils.get16,2
__builtin__.__import__,4
_pyx1.<init>,2
comprehension$PyExposer.<init>,2
imp.importName,2
imp.import_name,2
pkgutil$py.get_data$18,2
site$py.<init>,2
unicodedata$py.call_function,2
unicodedata$py.get$11,2
unicodedata$py.get_codepoint$9,2
unicodedata$py.init_east_asian_width$5,2
unicodedata$py.init_unicodedata$4,2
unicodedata$py.mirrored$19,2
