method,hits
ANTLRStringStream.LA,2
AbstractCollection.toArray,8
AnnotationType.<init>,2
Arithmetic$py.test$11,18
Arithmetic$py.test$14,28
Arithmetic$py.test$2,42
Arithmetic$py.test$5,48
Arithmetic$py.test$8,36
ArrayList$Itr.next,2
ArrayList.<init>,2
ArrayList.rangeCheck,4
Arrays.copyOf,22
AttributeInfo.read,2
BaseParser.setupParser,20
Benchmark.fileFromInputStream,2
BreakIterator.createBreakInstance,2
BufferedInputStream.<init>,2
BufferedInputStream.getBufIfOpen,2
BufferedInputStream.read,44
BufferedInputStream.read1,2
BuiltinFunctions.__call__,2
ByteVector.putByte,2
CRC32.update,2
CachedJarsPackageManager.addZipEntry,2
Calls$py.f$28,4
Calls$py.test$13,6
Calls$py.test$16,2
Calls$py.test$2,4
Character.getType,6
Character.isLowerCase,4
Character.toTitleCase,2
Character.toUpperCaseEx,4
CharacterData.of,2
CharacterData00.getProperties,4
CharacterDataLatin1.getType,2
CharacterDataLatin1.isOtherUppercase,2
CharacterDataLatin1.toLowerCase,2
CharacterDataLatin1.toUpperCase,2
CharacterDataLatin1.toUpperCaseEx,2
Class$MethodArray.addIfNotPresent,2
Class$MethodArray.compactAndTrim,2
Class.forName0,2
Class.getDeclaredConstructors0,10
Class.getDeclaredMethods0,4
Class.isInterface,2
ClassFile.addMethod,2
ClassLoader.checkCerts,2
ClassLoader.defineClass1,34
ClassLoader.findBootstrapClass,2
ClassLoader.findLoadedClass0,2
ClassPool.compress,2
ClassWriter.visitMethod,2
ClassicPyObjectAdapter.<init>,2
CodeCompiler.visitCompare,2
CodeFlag$1.iterator,2
CommonTokenStream.LT,2
CommonTokenStream.skipOffTokenChannelsReverse,2
CompilerFlags.isFlagSet,2
ConcurrentHashMap$EntrySetView.iterator,2
ConcurrentHashMap$Traverser.advance,2
ConcurrentHashMap.addCount,2
ConcurrentHashMap.get,12
ConcurrentHashMap.putVal,24
ConcurrentHashMap.spread,4
ConcurrentHashMap.tabAt,12
ConcurrentHashMap.transfer,2
ConstPool.getItem,2
ConstPool.readOne,2
Constructs$py.test$2,16
Constructs$py.test$8,4
Currency.getMainTableEntry,2
DFA.unpackEncodedString,2
DataInputStream.<init>,2
DataInputStream.readUTF,2
DataInputStream.readUnsignedShort,4
Dict$py.test$11,12
Dict$py.test$14,12
Dict$py.test$2,14
Dict$py.test$5,6
Dict$py.test$8,12
ExceptHandler.traverse,2
Exceptions$py.test$2,6
Exceptions$py.test$5,10
FileInputStream.available0,8
FileInputStream.readBytes,22
FileOutputStream.open0,10
FileOutputStream.writeBytes,16
Formatter$Conversion.isText,2
Generic.list,2
HashMap.getNode,6
HashMap.hash,2
HashSet.<init>,2
Hashtable$Enumerator.hasMoreElements,2
Inflater.finished,4
Inflater.inflate,14
Inflater.inflateBytes,578
Inflater.needsDictionary,2
Inflater.needsInput,8
InflaterInputStream.ensureOpen,2
InflaterInputStream.fill,2
InflaterInputStream.read,10
InputStream.<init>,2
Instances$py.test$2,8
JarFile.getInputStream,2
JavaImportHelper.buildLoadedPackages,2
Lists$py.test$2,28
Lists$py.test$8,6
LocaleProviderAdapter.getAdapter,2
LongVector.addElement,2
Lookups$py.test$12,16
Lookups$py.test$17,14
Lookups$py.test$2,8
Lookups$py.test$22,6
Lookups$py.test$7,12
MethodType$ConcurrentWeakInternSet$WeakEntry.equals,2
MethodWriter.<init>,2
MethodWriter.a,2
Module.<init>,2
Module.compile,2
MutableBigInteger.divideKnuth,2
Native.initIDs,2
Numbers$py.test$11,8
Numbers$py.test$5,8
Numbers$py.test$8,4
Object.<init>,2
POSIXFactory.loadLibC,2
ParseUtil.encodePath,2
Pattern$Curly.match0,2
PushbackInputStream.read,4
Py.<clinit>,4
Py.initClassExceptions,2
Py.newInteger,4
PyArray.setup,2
PyBaseCode.call,4
PyBaseException$exposed___new__.createOfSubtype,2
PyBaseException.BaseException___init__,2
PyClass.__call__,2
PyClass.__findattr_ex__,2
PyClassMethodDescr$PyExposer.<init>,2
PyComplex$complex___rdiv___exposer.<init>,2
PyComplex.canCoerce,2
PyDictionary$PyExposer.<init>,2
PyDictionary$dict_has_key_exposer.bind,2
PyDictionary.<init>,6
PyDictionary.__finditem__,2
PyDictionary.dict_has_key,2
PyException.isExceptionInstance,2
PyFile.file___init__,2
PyFloat.canCoerce,2
PyFloat.float___div__,2
PyFrame.<init>,6
PyFrame.doGetglobal,4
PyFrame.getLocals,4
PyFrame.getglobal,2
PyFrame.getlocal,12
PyFrame.setline,8
PyFrame.setlocal,6
PyInstance.__findattr_ex__,4
PyInteger._sub,2
PyInteger.coerce,2
PyInteger.divide,10
PyJavaType.getCollectionProxies,2
PyJavaType.init,2
PyList$list_append_exposer.__call__,2
PyList$list_append_exposer.bind,2
PyList.<init>,2
PyList.pyget,4
PyMethod.__call__,2
PyMethod.instancemethod___call__,2
PyObject.<init>,2
PyObject.__call__,8
PyObject.__getattr__,2
PyObject.__gt__,2
PyObject._eq,2
PyObject._ge,2
PyObject._gt,4
PyObject._is,2
PyObject._lt,2
PyObject._ne,2
PyObject._sub,2
PyObject._try__cmp__,2
PyObject.asName,2
PyObject.getType,8
PyObject.isDataDescr,2
PyObject.object___findattr__,2
PySequence.<init>,6
PySlice.<init>,2
PyString$str_isupper_exposer.bind,2
PyString.<init>,2
PyString.atof,2
PyString.atoi,2
PyString.splitfields,2
PyString.str___add__,2
PyString.str___ge__,2
PyString.str_isalpha,2
PyString.str_istitle,2
PyString.str_title,4
PyStringMap.__finditem__,6
PyTableCode.call,4
PyTuple.<init>,2
PyTuple.getslice,6
PyType.computeMro,2
PyType.fromClass,18
PyType.isSubType,2
PyType.lookup,2
PyUnicode$PyExposer.<init>,2
PyUnicode$unicode_isspace_exposer.bind,2
PyUnicode$unicode_isupper_exposer.bind,2
PyUnicode$unicode_upper_exposer.<init>,2
PyUnicode.<init>,2
PyUnicode.unicode___add__,2
PyXRange.pyget,2
PythonLexer.mINT,2
PythonLexer.mSTRING,2
PythonLexer.mTRIQUOTE,4
PythonParser$argument_return.getTree,2
PythonParser.<clinit>,2
PythonParser.atom,4
PythonParser.del_stmt,2
PythonParser.expr_stmt,2
PythonParser.factor,2
PythonParser.power,2
PythonParser.return_stmt,2
ReentrantLock.unlock,2
ReflectedArgs.<init>,2
ReflectedArgs.compare,2
Reflection.quickCheckMemberAccess,2
RewriteRuleElementStream.<init>,2
RewriteRuleSubtreeStream.<init>,2
RuleBasedBreakIterator.getInt,2
ScopeInfo.<init>,2
SequenceIndexDelegate.fixindex,2
StrictMath.floorOrCeil,4
String.<init>,2
String.concat,4
String.endsWith,2
String.getChars,2
String.indexOf,4
String.intern,18
String.replace,2
String.substring,2
String.toLowerCase,6
String.toUpperCase,10
StringBuilder.toString,2
StringCharacterIterator.<init>,2
StringCoding$StringEncoder.encode,2
StringIO$py.readline$11,4
StringTokenizer.skipDelimiters,2
Strings$py.test$11,18
Strings$py.test$14,4
Strings$py.test$2,8
Strings$py.test$20,6
Strings$py.test$5,16
Strings$py.test$8,16
Subscript$PyExposer.<init>,2
ThreadLocal$ThreadLocalMap.getEntry,10
ThreadStateMapping.getThreadState,4
Throwable.fillInStackTrace,200
Tuples$py.test$2,4
Tuples$py.test$5,16
US_ASCII.newDecoder,2
Unicode$py.test$11,2
Unicode$py.test$17,2
Unicode$py.test$20,2
Unicode$py.test$5,10
Unicode$py.test$8,6
UnixFileSystem.getBooleanAttributes0,4
ZStreamRef.address,2
ZipCoder.toString,2
ZipFile.freeEntry,2
ZipFile.read,8
ZipInputStream.ensureOpen,2
ZipInputStream.read,10
__builtin__.__import__,2
__builtin__.fillWithBuiltins,2
__builtin__.range,2
bisect$py.bisect_left$4,4
comprehension.<clinit>,2
excepthandler$PyExposer.<init>,2
exceptions.classDictInit,2
imp.getSyspathJavaLoader,2
keyword$PyExposer.<init>,2
os$py.<init>,2
unicodedata$py.get_numeric$3,2
unicodedata$py.init_unicodedata$4,4
