dram,epoch,package,socket
0.0,0,0.0,1
0.0,1,0.0,1
0.10011000000667991,2,1.2451170000022103,1
0.0,3,0.0,1
0.0017549999902257696,4,0.026793999997607898,1
0.0,5,0.0,1
0.0018000000054598786,6,0.026062000000820262,1
0.0,7,0.0,1
0.0017399999924236909,8,0.03198300000076415,1
0.0,9,0.0,1
0.016020000010030344,10,0.23956299999917974,1
0.0,11,0.0,1
0.0035399999978835694,12,0.055358999998134095,1
0.0,13,0.0,1
0.001799999998183921,14,0.022278000000369502,1
0.0,15,0.0,1
0.001799999998183921,16,0.024719000000914093,1
0.0,17,0.0,1
0.0,18,0.0,1
0.0,19,0.0,1
0.012420000006386545,20,0.18890400000236696,1
0.0,21,0.0,1
0.001799999998183921,22,0.02514599999631173,1
0.0,23,0.0,1
0.00893999999971129,24,0.12439000000085798,1
0.0,25,0.0,1
0.014159999998810235,26,0.21191400000316207,1
0.0,27,0.0,1
0.014219999997294508,28,0.18292199999996228,1
0.0,29,0.0,1
0.025349999996251427,30,0.3260499999996682,1
0.0,31,0.0,1
0.0058800000115297735,32,0.059752999997726874,1
0.0,33,0.0,1
0.014159999998810235,34,0.22015400000236696,1
0.0,35,0.0,1
0.014175000003888272,36,0.20440699999744538,1
0.0,37,0.0,1
0.014234999987820629,38,0.20690900000045076,1
0.0,39,0.0,1
0.024749999996856786,40,0.36016899999958696,1
0.0,41,0.0,1
0.010485000006156042,42,0.109375,1
0.0,43,0.0,1
0.013035000003583264,44,0.14691099999981816,1
0.0,45,0.0,1
0.014324999996460974,46,0.2010500000033062,1
0.0,47,0.0,1
0.014220000004570466,48,0.18225099999835948,1
0.0,49,0.0,1
0.023265000003448222,50,0.32781999999861,1
0.0,51,0.0,1
0.007079999988491181,52,0.09704599999895436,1
0.0,53,0.0,1
0.08025000000634464,54,1.0330200000025798,1
0.0,55,0.0,1
0.00413999999727821,56,0.02746599999954924,1
0.0,57,0.0,1
0.004140000004554167,58,0.0275870000004943,1
0.0,59,0.0,1
0.015209999990474898,60,0.12030099999901722,1
0.0,61,0.0,1
0.0017400000142515637,62,0.030150999999023043,1
0.0,63,0.0,1
0.0,64,0.0,1
0.0,65,0.0,1
0.0035399999978835694,66,0.0535280000003695,1
0.0,67,0.0,1
0.01421999999001855,68,0.2103270000006887,1
0.0,69,0.0,1
0.016934999999648426,70,0.2426759999980277,1
0.0,71,0.0,1
0.008865000003424939,72,0.13085900000078254,1
0.0,73,0.0,1
0.01608000000123866,74,0.22851599999921746,1
0.0,75,0.0,1
0.01247999999759486,76,0.19775400000071386,1
0.0,77,0.0,1
0.014280000010330696,78,0.20214800000030664,1
0.0,79,0.0,1
0.016139999992446974,80,0.24401900000157184,1
0.0,81,0.0,1
0.00893999999971129,82,0.1500240000023041,1
0.0,83,0.0,1
0.014220000004570466,84,0.20092799999474664,1
0.0,85,0.0,1
0.01421999999001855,86,0.20770300000003772,1
0.0,87,0.0,1
0.01434000000153901,88,0.20239200000287383,1
0.0,89,0.0,1
0.02139000000897795,90,0.32299799999964307,1
0.0,91,0.0,1
0.007079999995767139,92,0.10766599999988102,1
0.0,93,0.0,1
0.014339999994263053,94,0.19720500000039465,1
0.0,95,0.0,1
0.014325000003736932,96,0.20080500000040047,1
0.0,97,0.0,1
0.012539999996079132,98,0.1913459999996121,1
0.0,99,0.0,1
0.01968000000488246,100,0.29132100000060746,1
0.0,101,0.0,1
0.010635000006004702,102,0.15460199999870383,1
0.0,103,0.0,1
0.01427999999577878,104,0.22546300000249175,1
0.0,105,0.0,1
0.01427999999577878,106,0.20422399999733898,1
0.0,107,0.0,1
0.012465000007068738,108,0.19708299999911105,1
0.0,109,0.0,1
0.01961999999184627,110,0.30303900000217254,1
0.0,111,0.0,1
0.010680000006686896,112,0.14917000000059488,1
0.0,113,0.0,1
0.014219999997294508,114,0.21337899999707588,1
0.0,115,0.0,1
0.012405000001308508,116,0.19976800000222283,1
0.0,117,0.0,1
0.01434000000153901,118,0.24890099999902304,1
0.0,119,0.0,1
0.022860000004584435,120,0.45617700000002515,1
0.0,121,0.0,1
0.007079999995767139,122,0.14752199999929871,1
0.0,123,0.0,1
0.01067999999213498,124,0.24761999999827822,1
0.0,125,0.0,1
0.02139000000897795,126,0.35498000000370666,1
0.0,127,0.0,1
0.02368499999283813,128,0.4745489999986603,1
0.0,129,0.0,1
0.05965500000456814,130,1.07086100000015,1
0.0,131,0.0,1
0.0029699999940930866,132,0.036927000001014676,1
0.0,133,0.0,1
0.0029250000006868504,134,0.041930999999749474,1
0.0,135,0.0,1
0.001799999998183921,136,0.036498999998002546,1
0.0,137,0.0,1
0.0035550000102375634,138,0.07275400000071386,1
0.0,139,0.0,1
0.04372499999590218,140,1.010803000001033,1
0.0,141,0.0,1
0.0036000000036437996,142,0.0852660000018659,1
0.0,143,0.0,1
0.001799999998183921,144,0.04144299999825307,1
0.0,145,0.0,1
0.00938999999925727,146,0.17327899999872898,1
0.0,147,0.0,1
0.021254999992379453,148,0.3762810000007448,1
0.0,149,0.0,1
0.05593500000395579,150,0.8381959999969695,1
0.0,151,0.0,1
0.0058649999991757795,152,0.08899000000383239,1
0.0,153,0.0,1
0.005924999997660052,154,0.08923299999878509,1
0.0,155,0.0,1
0.027659999999741558,156,0.37683100000140257,1
0.0,157,0.0,1
0.026385000004665926,158,0.2968139999975392,1
0.0,159,0.0,1
0.061770000007527415,160,0.8498529999997118,1
0.0,161,0.0,1
0.005879999989701901,162,0.07720999999946798,1
0.0,163,0.0,1
0.0029100000028847717,164,0.039978000000701286,1
0.0,165,0.0,1
0.023654999997233972,166,0.2991330000004382,1
0.0,167,0.0,1
0.02358000000822358,168,0.295654999998078,1
0.0,169,0.0,1
0.0530399999988731,170,0.6948850000044331,1
0.0,171,0.0,1
0.0029100000028847717,172,0.041930999999749474,1
0.0,173,0.0,1
0.01472999999532476,174,0.1958009999980277,1
0.0,175,0.0,1
0.023639999992155936,176,0.29626400000051945,1
0.0,177,0.0,1
0.023625000001629815,178,0.263001000002987,1
0.0,179,0.0,1
0.04735500000970205,180,0.5793459999949846,1
0.0,181,0.0,1
0.0029099999883328564,182,0.037352999999711756,1
0.0,183,0.0,1
0.020655000007536728,184,0.24749800000427058,1
0.0,185,0.0,1
0.02134499999374384,186,0.27575699999943026,1
0.0,187,0.0,1
0.012465000007068738,188,0.2606809999997495,1
0.0,189,0.0,1
0.030014999996637926,190,0.6152340000007825,1
0.0,191,0.0,1
0.0035399999978835694,192,0.07513399999879766,1
0.0,193,0.0,1
0.010620000008202624,194,0.2178959999982908,1
0.0,195,0.0,1
0.01241999999183463,196,0.329834000000119,1
0.0,197,0.0,1
0.021314999998139683,198,0.4353640000008454,1
0.0,199,0.0,1
0.042030000004160684,200,1.0267940000012459,1
0.0,201,0.0,1
0.005340000003343448,202,0.12097200000062003,1
0.0,203,0.0,1
0.0036000000036437996,204,0.07922299999700044,1
0.0,205,0.0,1
0.003539999990607612,206,0.08325200000035693,1
0.0,207,0.0,1
0.012420000006386545,208,0.28881900000124006,1
0.0,209,0.0,1
0.030210000004444737,210,0.6881710000016028,1
0.0,211,0.0,1
0.003599999996367842,212,0.08056600000054459,1
0.0,213,0.0,1
0.007079999995767139,214,0.16705399999773363,1
0.0,215,0.0,1
0.03562499999679858,216,0.7877189999999246,1
0.0,217,0.0,1
0.018960000008519273,218,0.25909500000125263,1
0.0,219,0.0,1
0.03760499999043532,220,0.5803220000016154,1
0.0,221,0.0,1
0.005835000003571622,222,0.0871579999984533,1
0.0,223,0.0,1
0.005879999996977858,224,0.08795199999804026,1
0.0,225,0.0,1
0.04708499999833293,226,0.64495800000077,1
0.0,227,0.0,1
0.008160000004863832,228,0.09027100000093924,1
0.0,229,0.0,1
0.032865000001038425,230,0.40734900000097696,1
0.0,231,0.0,1
0.005939999995462131,232,0.07299799999600509,1
0.0,233,0.0,1
0.005895000002055895,234,0.07513400000243564,1
0.0,235,0.0,1
0.01240499999403255,236,0.2944339999994554,1
0.0,237,0.0,1
0.028200000000651926,238,0.3234859999975015,1
0.0,239,0.0,1
0.034830000011425,240,0.5942990000039572,1
0.0,241,0.0,1
0.0,242,0.0,1
0.0,243,0.0,1
0.019410000000789296,244,0.345459000000119,1
0.0,245,0.0,1
0.01241999999183463,246,0.25976599999921746,1
0.0,247,0.0,1
0.016530000008060597,248,0.3043209999996179,1
0.0,249,0.0,1
0.04637999999249587,250,0.8160400000015215,1
0.0,251,0.0,1
0.002939999998488929,252,0.043517999998584855,1
0.0,253,0.0,1
0.006510000006528571,254,0.16674799999964307,1
0.0,255,0.0,1
0.016020000002754387,256,0.3742679999995744,1
0.0,257,0.0,1
0.015284999994037207,258,0.32049600000027567,1
0.0,259,0.0,1
0.02650500000163447,260,0.5397340000017721,1
0.0,261,0.0,1
0.008160000004863832,262,0.09216299999752664,1
0.0,263,0.0,1
0.014159999991534278,264,0.3306270000030054,1
0.0,265,0.0,1
0.014040000009117648,266,0.32196099999782746,1
0.0,267,0.0,1
0.021824999996169936,268,0.37915000000066357,1
0.0,269,0.0,1
0.032489999997778796,270,0.6428830000004382,1
0.0,271,0.0,1
0.005850000001373701,272,0.08636499999920488,1
0.0,273,0.0,1
0.01598999999987427,274,0.27770999999847845,1
0.0,275,0.0,1
0.023504999997385312,276,0.3103030000020226,1
0.0,277,0.0,1
0.023565000003145542,278,0.30932599999869126,1
0.0,279,0.0,1
0.038265000002866145,280,0.5364379999991797,1
0.0,281,0.0,1
0.008849999998346902,282,0.12316899999859743,1
0.0,283,0.0,1
0.023535000000265427,284,0.31494100000418257,1
0.0,285,0.0,1
0.02293499999359483,286,0.2804570000007516,1
0.0,287,0.0,1
0.024749999996856786,288,0.3391109999975015,1
0.0,289,0.0,1
0.047190000012051314,290,0.675598000001628,1
0.0,291,0.0,1
0.0029699999940930866,292,0.04180899999846588,1
0.0,293,0.0,1
0.012330000005022157,294,0.29327399999965564,1
0.0,295,0.0,1
0.018164999994041864,296,0.38311800000155927,1
0.0,297,0.0,1
0.014160000006086193,298,0.3306879999981902,1
0.0,299,0.0,1
0.031725000000733417,300,0.7784429999992426,1
0.0,301,0.0,1
0.0034799999921233393,302,0.08642600000166567,1
0.0,303,0.0,1
0.005340000003343448,304,0.1206659999988915,1
0.0,305,0.0,1
0.022289999993517995,306,0.3215940000009141,1
0.0,307,0.0,1
0.023595000006025657,308,0.31787099999928614,1
0.0,309,0.0,1
0.03372000000672415,310,0.6288459999996121,1
0.0,311,0.0,1
0.0034799999921233393,312,0.08489900000131456,1
0.0,313,0.0,1
0.012420000006386545,314,0.2833260000006703,1
0.0,315,0.0,1
0.015224999995552935,316,0.32330300000103307,1
0.0,317,0.0,1
0.01474499999312684,318,0.30902100000093924,1
0.0,319,0.0,1
0.03597000000445405,320,0.5783689999989292,1
0.0,321,0.0,1
0.005879999996977858,322,0.07952899999872898,1
0.0,323,0.0,1
0.020670000005338807,324,0.26348899999720743,1
0.0,325,0.0,1
0.025889999997161794,326,0.3060910000021977,1
0.0,327,0.0,1
0.023595000006025657,328,0.3017580000014277,1
0.0,329,0.0,1
0.044219999996130355,330,0.5917969999973138,1
0.0,331,0.0,1
0.0029100000028847717,332,0.04168700000082026,1
0.0,333,0.0,1
0.023549999998067506,334,0.2992550000017218,1
0.0,335,0.0,1
0.06130499999562744,336,0.869263000000501,1
0.0,337,0.0,1
0.0,338,0.0,1
0.0,339,0.0,1
0.022259999997913837,340,0.31060799999613664,1
0.0,341,0.0,1
0.0017399999996996485,342,0.04046600000219769,1
0.0,343,0.0,1
0.010560000002442393,344,0.23394800000096438,1
0.0,345,0.0,1
0.015960000004270114,346,0.32653799999752664,1
0.0,347,0.0,1
0.014100000000325963,348,0.2863160000015341,1
0.0,349,0.0,1
0.022979999994277023,350,0.5002439999989292,1
0.0,351,0.0,1
0.003540000005159527,352,0.07324200000221026,1
0.0,353,0.0,1
0.015959999996994156,354,0.32672099999763304,1
0.0,355,0.0,1
0.012480000004870817,356,0.24658200000340003,1
0.0,357,0.0,1
0.014159999998810235,358,0.297179999997752,1
0.0,359,0.0,1
0.02135999999154592,360,0.4532470000012836,1
0.0,361,0.0,1
0.008190000007743947,362,0.16326899999694433,1
0.0,363,0.0,1
0.014219999997294508,364,0.28717100000358187,1
0.0,365,0.0,1
0.024210000003222376,366,0.3274539999983972,1
0.0,367,0.0,1
0.012539999996079132,368,0.24780200000168406,1
0.0,369,0.0,1
0.022935000000870787,370,0.39599599999928614,1
0.0,371,0.0,1
0.013560000006691553,372,0.18206799999825307,1
0.0,373,0.0,1
0.022379999994882382,374,0.29357900000104564,1
0.0,375,0.0,1
0.012389999996230472,376,0.2515260000000126,1
0.0,377,0.0,1
0.015960000004270114,378,0.32873599999948055,1
0.0,379,0.0,1
0.019499999994877726,380,0.4149170000018785,1
0.0,381,0.0,1
0.011160000001837034,382,0.18817099999796483,1
0.0,383,0.0,1
0.01598999999987427,384,0.25860600000305567,1
0.0,385,0.0,1
0.018285000005562324,386,0.33093299999745796,1
0.0,387,0.0,1
0.022364999997080304,388,0.3002919999998994,1
0.0,389,0.0,1
0.02418000000761822,390,0.41839599999730126,1
0.0,391,0.0,1
0.0072000000000116415,392,0.151612000001478,1
0.0,393,0.0,1
0.01760999998805346,394,0.297484999999142,1
0.0,395,0.0,1
0.015899999998509884,396,0.32501200000115205,1
0.0,397,0.0,1
0.016560000003664754,398,0.28003000000171596,1
0.0,399,0.0,1
0.019500000002153683,400,0.39624000000185333,1
0.0,401,0.0,1
0.008880000001227017,402,0.18347199999698205,1
0.0,403,0.0,1
0.01877999999851454,404,0.281859999999142,1
0.0,405,0.0,1
0.012420000006386545,406,0.24646000000211643,1
0.0,407,0.0,1
0.01648499998555053,408,0.28015099999902304,1
0.0,409,0.0,1
0.024885000006179325,410,0.43365500000072643,1
0.0,411,0.0,1
0.008880000008502975,412,0.17535399999906076,1
0.0,413,0.0,1
0.01241999999183463,414,0.25097699999969336,1
0.0,415,0.0,1
0.014100000000325963,416,0.2946159999992233,1
0.0,417,0.0,1
0.014220000004570466,418,0.32781999999861,1
0.0,419,0.0,1
0.017714999994495884,420,0.37628200000472134,1
0.0,421,0.0,1
0.011189999997441191,422,0.18560799999613664,1
0.0,423,0.0,1
0.014114999998128042,424,0.2952880000011646,1
0.0,425,0.0,1
0.014175000003888272,426,0.29303000000072643,1
0.0,427,0.0,1
0.015959999996994156,428,0.3377680000012333,1
0.0,429,0.0,1
0.017880000013974495,430,0.3699339999984659,1
0.0,431,0.0,1
0.012989999995625112,432,0.2227180000008957,1
0.0,433,0.0,1
0.020654999992984813,434,0.26446500000020023,1
0.0,435,0.0,1
0.023699999997916166,436,0.3047480000022915,1
0.0,437,0.0,1
0.023639999999431893,438,0.34161399999720743,1
0.0,439,0.0,1
0.02664000001095701,440,0.339112000001478,1
0.0,441,0.0,1
0.017729999992297962,442,0.22711099999651196,1
0.0,443,0.0,1
0.015420000010635704,444,0.30413900000348804,1
0.0,445,0.0,1
0.014174999996612314,446,0.30242899999939254,1
0.0,447,0.0,1
0.014234999987820629,448,0.2946159999992233,1
0.0,449,0.0,1
0.017745000004651956,450,0.37829599999895436,1
0.0,451,0.0,1
0.016589999999268912,452,0.22430500000336906,1
0.0,453,0.0,1
0.023625000001629815,454,0.3010249999970256,1
0.0,455,0.0,1
0.020655000007536728,456,0.2636720000009518,1
0.0,457,0.0,1
0.026504999994358514,458,0.3325799999984156,1
0.0,459,0.0,1
0.029579999994894024,460,0.36065700000108336,1
0.0,461,0.0,1
0.017730000006849878,462,0.19763199999943026,1
0.0,463,0.0,1
0.016049999998358544,464,0.21453900000051362,1
0.0,465,0.0,1
0.01609499999176478,466,0.26550200000201585,1
0.0,467,0.0,1
0.012420000006386545,468,0.2088019999973767,1
0.0,469,0.0,1
0.0196799999976065,470,0.3395989999989979,1
0.0,471,0.0,1
0.015375000002677552,472,0.19122300000162795,1
0.0,473,0.0,1
0.023549999998067506,474,0.25329599999895436,1
0.0,475,0.0,1
0.02073000000382308,476,0.2073980000022857,1
0.0,477,0.0,1
0.020714999998745043,478,0.26647899999807123,1
0.0,479,0.0,1
0.015960000004270114,480,0.278931000000739,1
0.0,481,0.0,1
0.020714999998745043,482,0.2279049999997369,1
0.0,483,0.0,1
0.012434999996912666,484,0.2347410000002128,1
0.0,485,0.0,1
0.01606500000343658,486,0.2964480000009644,1
0.0,487,0.0,1
0.012539999996079132,488,0.20758099999875412,1
0.0,489,0.0,1
0.019605000008596107,490,0.33441099999981816,1
0.0,491,0.0,1
0.010619999993650708,492,0.18682900000203517,1
0.0,493,0.0,1
0.012434999996912666,494,0.20355199999903562,1
0.0,495,0.0,1
0.014235000002372544,496,0.23712199999863515,1
0.0,497,0.0,1
0.01412999999593012,498,0.24273700000048848,1
0.0,499,0.0,1
0.017835000006016344,500,0.3126220000012836,1
0.0,501,0.0,1
0.010739999997895211,502,0.18249500000092667,1
0.0,503,0.0,1
0.015914999996311963,504,0.27148399999714456,1
0.0,505,0.0,1
0.012540000010631047,506,0.21020499999940512,1
0.0,507,0.0,1
0.015329999994719401,508,0.23992899999939254,1
0.0,509,0.0,1
0.017760000002454035,510,0.3127450000029057,1
0.0,511,0.0,1
0.01067999999213498,512,0.18456999999762047,1
0.0,513,0.0,1
0.014250000000174623,514,0.23974600000292412,1
0.0,515,0.0,1
0.012539999996079132,516,0.24127199999929871,1
0.0,517,0.0,1
0.014310000005934853,518,0.24121099999683793,1
0.0,519,0.0,1
0.017760000002454035,520,0.31195100000331877,1
0.0,521,0.0,1
0.010620000000926666,522,0.18707200000062585,1
0.0,523,0.0,1
0.01427999999577878,524,0.24719299999560462,1
0.0,525,0.0,1
0.014220000004570466,526,0.24493400000210386,1
0.0,527,0.0,1
0.012419999999110587,528,0.21350100000199745,1
0.0,529,0.0,1
0.019560000000637956,530,0.332457999997132,1
0.0,531,0.0,1
0.010725000000093132,532,0.18658499999946798,1
0.0,533,0.0,1
0.014339999994263053,534,0.24957300000096438,1
0.0,535,0.0,1
0.012480000012146775,536,0.23059000000284868,1
0.0,537,0.0,1
0.01430999998410698,538,0.21899499999926775,1
0.0,539,0.0,1
0.017835000006016344,540,0.2777089999981399,1
0.0,541,0.0,1
0.010664999994332902,542,0.16540600000007544,1
0.0,543,0.0,1
0.014280000010330696,544,0.21820000000298023,1
0.0,545,0.0,1
0.014339999994263053,546,0.2183229999973264,1
0.0,547,0.0,1
0.012495000009948853,548,0.19384800000261748,1
0.0,549,0.0,1
0.042569999990519136,550,0.5205690000002505,1
0.0,551,0.0,1
0.00413999999727821,552,0.036498999998002546,1
0.0,553,0.0,1
0.012405000008584466,554,0.1181639999995241,1
0.0,555,0.0,1
0.01601999998820247,556,0.2653810000010708,1
0.0,557,0.0,1
0.012540000010631047,558,0.19317600000067614,1
0.0,559,0.0,1
0.01787999999942258,560,0.2766719999999623,1
0.0,561,0.0,1
0.012420000006386545,562,0.19573999999920488,1
0.0,563,0.0,1
0.012479999990318902,564,0.18878199999744538,1
0.0,565,0.0,1
0.017310000002908055,566,0.2586670000018785,1
0.0,567,0.0,1
0.01652999999350868,568,0.2730709999996179,1
0.0,569,0.0,1
0.017655000010563526,570,0.3679809999994177,1
0.0,571,0.0,1
0.00887999999395106,572,0.2180789999983972,1
0.0,573,0.0,1
0.014160000006086193,574,0.28308100000140257,1
0.0,575,0.0,1
0.012464999992516823,576,0.25476000000344357,1
0.0,577,0.0,1
0.01427999999577878,578,0.2786869999981718,1
0.0,579,0.0,1
0.0195300000050338,580,0.3880609999978333,1
0.0,581,0.0,1
0.007140000001527369,582,0.13470500000403263,1
0.0,583,0.0,1
0.01246499999979278,584,0.26873799999884795,1
0.0,585,0.0,1
0.014250000000174623,586,0.24792499999966822,1
0.0,587,0.0,1
0.014730000002600718,588,0.25762899999972433,1
0.0,589,0.0,1
0.02072999999654712,590,0.35577399999965564,1
0.0,591,0.0,1
0.01937999999790918,592,0.17541499999788357,1
0.0,593,0.0,1
0.022499999999126885,594,0.3015750000013213,1
0.0,595,0.0,1
0.014250000000174623,596,0.26220699999976205,1
0.0,597,0.0,1
0.014340000008814968,598,0.252624000000651,1
0.0,599,0.0,1
0.019604999994044192,600,0.30468800000016927,1
0.0,601,0.0,1
0.00887999999395106,602,0.13513199999943026,1
0.0,603,0.0,1
0.015330000009271316,604,0.21612500000264845,1
0.0,605,0.0,1
0.015449999998963904,606,0.21972699999605538,1
0.0,607,0.0,1
0.01241999999183463,608,0.20794600000226637,1
0.0,609,0.0,1
0.017790000012610108,610,0.25927799999772105,1
0.0,611,0.0,1
0.00893999999971129,612,0.1322020000043267,1
0.0,613,0.0,1
0.027779999989434145,614,0.24896199999784585,1
0.0,615,0.0,1
0.01434000000153901,616,0.21728499999881024,1
0.0,617,0.0,1
0.014280000003054738,618,0.229737000001478,1
0.0,619,0.0,1
0.01585499999782769,620,0.26000999999814667,1
0.0,621,0.0,1
0.010680000006686896,622,0.1505120000038005,1
0.0,623,0.0,1
0.0,0,0.0,2
0.0,1,0.0,2
0.20908500000223285,2,1.5270999999993364,2
0.0,3,0.0,2
0.00413999999727821,4,0.028686000005109236,2
0.0,5,0.0,2
0.004079999998793937,6,0.030395999987376854,2
0.0,7,0.0,2
0.004080000006069895,8,0.03143300000374438,2
0.0,9,0.0,2
0.03788999999233056,10,0.27062999999907333,2
0.0,11,0.0,2
0.008160000004863832,12,0.05987499999901047,2
0.0,13,0.0,2
0.004079999998793937,14,0.02874800000427058,2
0.0,15,0.0,2
0.0,16,0.0,2
0.0,17,0.0,2
0.004140000004554167,18,0.02423100000305567,2
0.0,19,0.0,2
0.028635000002395827,20,0.206542999992962,2
0.0,21,0.0,2
0.004124999999476131,22,0.030273000003944617,2
0.0,23,0.0,2
0.020399999993969686,24,0.1488649999955669,2
0.0,25,0.0,2
0.028079999996407423,26,0.19866900000488386,2
0.0,27,0.0,2
0.008549999998649582,28,0.14251700000022538,2
0.0,29,0.0,2
0.042480000003706664,30,0.33563300000241725,2
0.0,31,0.0,2
0.008160000004863832,32,0.06225599999743281,2
0.0,33,0.0,2
0.03049499999906402,34,0.20220900000276743,2
0.0,35,0.0,2
0.0328799999988405,36,0.21209700000326848,2
0.0,37,0.0,2
0.0329249999995227,38,0.20245399999112124,2
0.0,39,0.0,2
0.050219999997352716,40,0.3641360000037821,2
0.0,41,0.0,2
0.013230000004114117,42,0.09124700000393204,2
0.0,43,0.0,2
0.02231999999639811,44,0.1741339999862248,2
0.0,45,0.0,2
0.02808000000368338,46,0.18969700000889134,2
0.0,47,0.0,2
0.02411999999458203,48,0.17767299999832176,2
0.0,49,0.0,2
0.03938999999809312,50,0.2954100000060862,2
0.0,51,0.0,2
0.015105000005860347,52,0.09973199998785276,2
0.0,53,0.0,2
0.2160299999959534,54,1.7350460000088788,2
0.0,55,0.0,2
0.006180000003951136,56,0.03320299999177223,2
0.0,57,0.0,2
0.006180000003951136,58,0.031676999999035615,2
0.0,59,0.0,2
0.022559999997611158,60,0.12854100001277402,2
0.0,61,0.0,2
0.004079999998793937,62,0.027953999997407664,2
0.0,63,0.0,2
0.0,64,0.0,2
0.0,65,0.0,2
0.008160000004863832,66,0.05706699999427656,2
0.0,67,0.0,2
0.023999999997613486,68,0.1912850000007893,2
0.0,69,0.0,2
0.02450999999564374,70,0.21130299999640556,2
0.0,71,0.0,2
0.020400000001245644,72,0.13775700000405777,2
0.0,73,0.0,2
0.036990000000514556,74,0.2666620000018156,2
0.0,75,0.0,2
0.030539999999746215,76,0.20196600000053877,2
0.0,77,0.0,2
0.025049999996554106,78,0.18396000000211643,2
0.0,79,0.0,2
0.026535000004514586,80,0.23058999999193475,2
0.0,81,0.0,2
0.024600000004284084,82,0.18371599999954924,2
0.0,83,0.0,2
0.03290999999444466,84,0.22064200000750134,2
0.0,85,0.0,2
0.03289499999664258,86,0.20739799999864772,2
0.0,87,0.0,2
0.028725000003760215,88,0.21264599999267375,2
0.0,89,0.0,2
0.05559000000357628,90,0.36743200000637444,2
0.0,91,0.0,2
0.01631999999517575,92,0.12915000000066357,2
0.0,93,0.0,2
0.03276000000187196,94,0.2699590000047465,2
0.0,95,0.0,2
0.033000000003085006,96,0.25768999999854714,2
0.0,97,0.0,2
0.031889999998384155,98,0.2378539999917848,2
0.0,99,0.0,2
0.046094999997876585,100,0.3826300000073388,2
0.0,101,0.0,2
0.025515000001178123,102,0.21643000000040047,2
0.0,103,0.0,2
0.03770999999687774,104,0.32000800000241725,2
0.0,105,0.0,2
0.033750000002328306,106,0.3181149999945774,2
0.0,107,0.0,2
0.03182999999989988,108,0.27355899999383837,2
0.0,109,0.0,2
0.040679999998246785,110,0.3734140000087791,2
0.0,111,0.0,2
0.03087000000232365,112,0.24230899999383837,2
0.0,113,0.0,2
0.0283800000033807,114,0.24499500000092667,2
0.0,115,0.0,2
0.03257999999914318,116,0.2974250000042957,2
0.0,117,0.0,2
0.03585000000020955,118,0.2750850000011269,2
0.0,119,0.0,2
0.0743399999992107,120,0.534667999992962,2
0.0,121,0.0,2
0.02479499999753898,122,0.18762200000492157,2
0.0,123,0.0,2
0.04318500000226777,124,0.3078610000011395,2
0.0,125,0.0,2
0.06275999999343185,126,0.4393309999941266,2
0.0,127,0.0,2
0.0825299999996787,128,0.6062019999953918,2
0.0,129,0.0,2
0.2290050000010524,130,1.3121940000055474,2
0.0,131,0.0,2
0.008055000005697366,132,0.050965000002179295,2
0.0,133,0.0,2
0.008280000001832377,134,0.04577599999902304,2
0.0,135,0.0,2
0.006059999992430676,136,0.04571499999292428,2
0.0,137,0.0,2
0.012435000004188623,138,0.08331300000281772,2
0.0,139,0.0,2
0.23908499999379274,140,1.2281500000026426,2
0.0,141,0.0,2
0.018345000004046597,142,0.09948699999949895,2
0.0,143,0.0,2
0.00804000000061933,144,0.04614300000685034,2
0.0,145,0.0,2
0.027314999999362044,146,0.18884299998899223,2
0.0,147,0.0,2
0.05526000000099884,148,0.3699950000082026,2
0.0,149,0.0,2
0.17590500000369502,150,1.0469970000049216,2
0.0,151,0.0,2
0.01615499999752501,152,0.10455299999739509,2
0.0,153,0.0,2
0.019245000003138557,154,0.10772699999506585,2
0.0,155,0.0,2
0.07295999999041669,156,0.455749000000651,2
0.0,157,0.0,2
0.053205000003799796,158,0.3493659999949159,2
0.0,159,0.0,2
0.15712499999790452,160,0.9869380000018282,2
0.0,161,0.0,2
0.012255000001459848,162,0.0893560000040452,2
0.0,163,0.0,2
0.006180000003951136,164,0.04095399999641813,2
0.0,165,0.0,2
0.04853999999613734,166,0.3228759999983595,2
0.0,167,0.0,2
0.04507500000181608,168,0.3009650000021793,2
0.0,169,0.0,2
0.09819000000425149,170,0.6765739999973448,2
0.0,171,0.0,2
0.006179999996675178,172,0.03851299999951152,2
0.0,173,0.0,2
0.026699999994889367,174,0.19097900001361268,2
0.0,175,0.0,2
0.0411450000028708,176,0.30041599999094615,2
0.0,177,0.0,2
0.03462000000581611,178,0.2864380000028177,2
0.0,179,0.0,2
0.0804299999945215,180,0.4938350000011269,2
0.0,181,0.0,2
0.010260000002745073,182,0.06408699999883538,2
0.0,183,0.0,2
0.03590999999869382,184,0.2368159999969066,2
0.0,185,0.0,2
0.03784499999892432,186,0.24725399999442743,2
0.0,187,0.0,2
0.037889999999606516,188,0.24560500001098262,2
0.0,189,0.0,2
0.08999999999650754,190,0.5648199999923236,2
0.0,191,0.0,2
0.006135000003268942,192,0.04150300000765128,2
0.0,193,0.0,2
0.043319999997038394,194,0.24151699999492848,2
0.0,195,0.0,2
0.045044999998935964,196,0.30255100000067614,2
0.0,197,0.0,2
0.09715500000311295,198,0.46807799999805866,2
0.0,199,0.0,2
0.24147000000084518,200,1.197998000003281,2
0.0,201,0.0,2
0.031289999998989515,202,0.15820399999211077,2
0.0,203,0.0,2
0.020025000005261973,204,0.1051020000159042,2
0.0,205,0.0,2
0.010019999994256068,206,0.051635999989230186,2
0.0,207,0.0,2
0.07533000000694301,208,0.40826400000514695,2
0.0,209,0.0,2
0.18292499999370193,210,0.8784789999990608,2
0.0,211,0.0,2
0.022185000001627486,212,0.09936499999457737,2
0.0,213,0.0,2
0.04857000000629341,214,0.20318600000609877,2
0.0,215,0.0,2
0.16225499998836312,216,1.0036619999955292,2
0.0,217,0.0,2
0.04857000000629341,218,0.3264770000023418,2
0.0,219,0.0,2
0.13834499999938998,220,0.7393190000075265,2
0.0,221,0.0,2
0.020024999997986015,222,0.10870399999112124,2
0.0,223,0.0,2
0.01923000000533648,224,0.1029049999997369,2
0.0,225,0.0,2
0.16333499999745982,226,0.7770999999993364,2
0.0,227,0.0,2
0.01202999999804888,228,0.05401600000914186,2
0.0,229,0.0,2
0.10498500000539934,230,0.5781859999988228,2
0.0,231,0.0,2
0.00812999999470776,232,0.05053699998825323,2
0.0,233,0.0,2
0.016349999998055864,234,0.1025999999983469,2
0.0,235,0.0,2
0.06939000000420492,236,0.4140020000122604,2
0.0,237,0.0,2
0.06930000000284053,238,0.38171300000249175,2
0.0,239,0.0,2
0.10453499999130145,240,0.6007699999900069,2
0.0,241,0.0,2
0.008099999999103602,242,0.039978000007977244,2
0.0,243,0.0,2
0.06013500000699423,244,0.3536369999856106,2
0.0,245,0.0,2
0.05890499999804888,246,0.3392340000063996,2
0.0,247,0.0,2
0.055484999997133855,248,0.34320000000298023,2
0.0,249,0.0,2
0.1996050000016112,250,0.946472999996331,2
0.0,251,0.0,2
0.011085000005550683,252,0.048216999995929655,2
0.0,253,0.0,2
0.040169999992940575,254,0.17004400000587339,2
0.0,255,0.0,2
0.09363000000303145,256,0.4266360000037821,2
0.0,257,0.0,2
0.07996499999717344,258,0.3531490000023041,2
0.0,259,0.0,2
0.10192500000266591,260,0.5162969999873894,2
0.0,261,0.0,2
0.017220000001543667,262,0.07952900000964291,2
0.0,263,0.0,2
0.06947999999829335,264,0.3331899999975576,2
0.0,265,0.0,2
0.06524999999965075,266,0.3255619999981718,2
0.0,267,0.0,2
0.07330499999807216,268,0.3577880000011646,2
0.0,269,0.0,2
0.13060500000574393,270,0.5905149999962305,2
0.0,271,0.0,2
0.010244999997667037,272,0.04113800000050105,2
0.0,273,0.0,2
0.060120000001916196,274,0.2907100000011269,2
0.0,275,0.0,2
0.07987499999580905,276,0.3728029999983846,2
0.0,277,0.0,2
0.06166500000108499,278,0.32354700000723824,2
0.0,279,0.0,2
0.1161599999977625,280,0.545960000003106,2
0.0,281,0.0,2
0.016275000001769513,282,0.08196999999199761,2
0.0,283,0.0,2
0.07682999999815365,284,0.36138900000514695,2
0.0,285,0.0,2
0.0573900000017602,286,0.26446600000053877,2
0.0,287,0.0,2
0.0686100000020815,288,0.30780000000231666,2
0.0,289,0.0,2
0.116280000002007,290,0.6007689999896684,2
0.0,291,0.0,2
0.008204999998270068,292,0.0410770000089542,2
0.0,293,0.0,2
0.053444999997736886,294,0.2611689999976079,2
0.0,295,0.0,2
0.07860000000073342,296,0.37536599999293685,2
0.0,297,0.0,2
0.06016500000259839,298,0.30291800000850344,2
0.0,299,0.0,2
0.13771499999711523,300,0.7813109999988228,2
0.0,301,0.0,2
0.00721499999781372,302,0.03778099999908591,2
0.0,303,0.0,2
0.030360000004293397,304,0.1837149999992107,2
0.0,305,0.0,2
0.06262499999866122,306,0.3309940000035567,2
0.0,307,0.0,2
0.05545499999425374,308,0.32360799999150913,2
0.0,309,0.0,2
0.11564999999973224,310,0.63287400000263,2
0.0,311,0.0,2
0.016230000008363277,312,0.08587599999736995,2
0.0,313,0.0,2
0.059984999999869615,314,0.2970590000040829,2
0.0,315,0.0,2
0.06442499999684514,316,0.3532709999999497,2
0.0,317,0.0,2
0.07057500000519212,318,0.3356930000009015,2
0.0,319,0.0,2
0.10831499999767402,320,0.5964359999998123,2
0.0,321,0.0,2
0.01224000000365777,322,0.07623299999977462,2
0.0,323,0.0,2
0.0401099999944563,324,0.238707999997132,2
0.0,325,0.0,2
0.05311500000243541,326,0.35577399999601766,2
0.0,327,0.0,2
0.05095499999151798,328,0.32293700000445824,2
0.0,329,0.0,2
0.10660500000813045,330,0.6340950000012526,2
0.0,331,0.0,2
0.007140000001527369,332,0.04119800000626128,2
0.0,333,0.0,2
0.055934999996679835,334,0.3173220000026049,2
0.0,335,0.0,2
0.26836500000354135,336,1.087279999992461,2
0.0,337,0.0,2
0.010064999994938262,338,0.04022200000326848,2
0.0,339,0.0,2
0.06283500000427011,340,0.3022469999923487,2
0.0,341,0.0,2
0.013109999992593657,342,0.07983400000375696,2
0.0,343,0.0,2
0.04311000000598142,344,0.2444450000039069,2
0.0,345,0.0,2
0.056909999999334104,346,0.35748299999249866,2
0.0,347,0.0,2
0.05701499999850057,348,0.3218390000110958,2
0.0,349,0.0,2
0.09757499999977881,350,0.5336299999908078,2
0.0,351,0.0,2
0.014280000003054738,352,0.07983400000375696,2
0.0,353,0.0,2
0.05573999999614898,354,0.35797099999763304,2
0.0,355,0.0,2
0.04527000000234693,356,0.278931000000739,2
0.0,357,0.0,2
0.05756999999721302,358,0.3256829999954789,2
0.0,359,0.0,2
0.08928000000014435,360,0.49322600001323735,2
0.0,361,0.0,2
0.027524999997694977,362,0.1575309999898309,2
0.0,363,0.0,2
0.04911000000720378,364,0.31372100000589853,2
0.0,365,0.0,2
0.05700000000069849,366,0.31945799999084556,2
0.0,367,0.0,2
0.05641499999182997,368,0.3171389999988605,2
0.0,369,0.0,2
0.0713850000029197,370,0.44659400000819005,2
0.0,371,0.0,2
0.0313800000003539,372,0.20300299999507843,2
0.0,373,0.0,2
0.0596399999994901,374,0.3150019999957294,2
0.0,375,0.0,2
0.04808999999659136,376,0.2743530000152532,2
0.0,377,0.0,2
0.043890000008104835,378,0.34753399998589884,2
0.0,379,0.0,2
0.07168499999534106,380,0.431458000006387,2
0.0,381,0.0,2
0.024615000002086163,382,0.15606699999625562,2
0.0,383,0.0,2
0.05032500000379514,384,0.31378200000472134,2
0.0,385,0.0,2
0.058124999995925464,386,0.35534600000391947,2
0.0,387,0.0,2
0.05745000000024447,388,0.31884799998806557,2
0.0,389,0.0,2
0.07870499999989988,390,0.44165000000066357,2
0.0,391,0.0,2
0.032789999997476116,392,0.15576200000214158,2
0.0,393,0.0,2
0.05959499999880791,394,0.31897000000753906,2
0.0,395,0.0,2
0.04935000000114087,396,0.35357599999406375,2
0.0,397,0.0,2
0.043365000004996546,398,0.28295900000375696,2
0.0,399,0.0,2
0.0799049999914132,400,0.4768069999918225,2
0.0,401,0.0,2
0.026775000005727634,402,0.1972660000101314,2
0.0,403,0.0,2
0.04322999999567401,404,0.27557299999170937,2
0.0,405,0.0,2
0.05121000000508502,406,0.32043500000145286,2
0.0,407,0.0,2
0.048930000004475005,408,0.3173220000026049,2
0.0,409,0.0,2
0.07166999999753898,410,0.435486000002129,2
0.0,411,0.0,2
0.03505500000028405,412,0.2011720000009518,2
0.0,413,0.0,2
0.0593250000019907,414,0.32800200000201585,2
0.0,415,0.0,2
0.05509499999607215,416,0.33007899999211077,2
0.0,417,0.0,2
0.05536500000016531,418,0.35479700000723824,2
0.0,419,0.0,2
0.07648499999777414,420,0.42266799999197247,2
0.0,421,0.0,2
0.04013999999733642,422,0.2041020000106073,2
0.0,423,0.0,2
0.04911000000720378,424,0.32586699999228586,2
0.0,425,0.0,2
0.062564999992901,426,0.3277580000067246,2
0.0,427,0.0,2
0.05308500000683125,428,0.3176880000028177,2
0.0,429,0.0,2
0.06628499999351334,430,0.39379899998311885,2
0.0,431,0.0,2
0.0399600000018836,432,0.23675600001297425,2
0.0,433,0.0,2
0.05056499999773223,434,0.3165889999945648,2
0.0,435,0.0,2
0.05196000000432832,436,0.31213400000706315,2
0.0,437,0.0,2
0.051180000002204906,438,0.3223870000001625,2
0.0,439,0.0,2
0.06356999999843538,440,0.39257899999211077,2
0.0,441,0.0,2
0.03676499999710359,442,0.23663300000771414,2
0.0,443,0.0,2
0.04809000000386732,444,0.3231199999936507,2
0.0,445,0.0,2
0.04355999999825144,446,0.2720340000014403,2
0.0,447,0.0,2
0.059324999994714744,448,0.36315900000045076,2
0.0,449,0.0,2
0.06160500000260072,450,0.39556899999297457,2
0.0,451,0.0,2
0.0380250000016531,452,0.23461900000984315,2
0.0,453,0.0,2
0.05038500000227941,454,0.31323199999314966,2
0.0,455,0.0,2
0.03708000000187894,456,0.2745359999971697,2
0.0,457,0.0,2
0.055259999993722886,458,0.36084000000118976,2
0.0,459,0.0,2
0.06370500000048196,460,0.36792000000423286,2
0.0,461,0.0,2
0.03837000000203261,462,0.20379700000194134,2
0.0,463,0.0,2
0.039029999999911524,464,0.23608400000375696,2
0.0,465,0.0,2
0.043019999997341074,466,0.2944939999943017,2
0.0,467,0.0,2
0.042119999998249114,468,0.25329600000259234,2
0.0,469,0.0,2
0.060495000005175825,470,0.3989870000004885,2
0.0,471,0.0,2
0.03702000000339467,472,0.21844499999133404,2
0.0,473,0.0,2
0.053684999991673976,474,0.2552490000016405,2
0.0,475,0.0,2
0.05337000000872649,476,0.29333500000211643,2
0.0,477,0.0,2
0.05734499999380205,478,0.3242790000003879,2
0.0,479,0.0,2
0.04839000000356464,480,0.2824709999986226,2
0.0,481,0.0,2
0.03731999999581603,482,0.17535399999906076,2
0.0,483,0.0,2
0.04992000000493135,484,0.2367560000056983,2
0.0,485,0.0,2
0.04340999999840278,486,0.23589999999967404,2
0.0,487,0.0,2
0.05155499999818858,488,0.24066200000379467,2
0.0,489,0.0,2
0.06762000000162516,490,0.33392299999832176,2
0.0,491,0.0,2
0.026640000003681052,492,0.15130699999281205,2
0.0,493,0.0,2
0.046559999995224643,494,0.23608400000375696,2
0.0,495,0.0,2
0.04651500000181841,496,0.23400800000672461,2
0.0,497,0.0,2
0.03811499999574153,498,0.2337039999983972,2
0.0,499,0.0,2
0.05041499999788357,500,0.2941889999929117,2
0.0,501,0.0,2
0.026700000002165325,502,0.18383800000447081,2
0.0,503,0.0,2
0.04437000000325497,504,0.23626699999294942,2
0.0,505,0.0,2
0.04235999999946216,506,0.23498600000311853,2
0.0,507,0.0,2
0.04250999999931082,508,0.23266600001079496,2
0.0,509,0.0,2
0.05062500000349246,510,0.26635699999314966,2
0.0,511,0.0,2
0.02870999999140622,512,0.2039799999911338,2
0.0,513,0.0,2
0.044340000007650815,514,0.2384030000102939,2
0.0,515,0.0,2
0.03499499999452382,516,0.20428499999979977,2
0.0,517,0.0,2
0.04086000000825152,518,0.26409899999271147,2
0.0,519,0.0,2
0.04493999999249354,520,0.28900100001192186,2
0.0,521,0.0,2
0.025439999997615814,522,0.17993199999182252,2
0.0,523,0.0,2
0.041205000001355074,524,0.2350460000016028,2
0.0,525,0.0,2
0.03187500000058208,526,0.23834299999725772,2
0.0,527,0.0,2
0.03291000000172062,528,0.20861800000420772,2
0.0,529,0.0,2
0.044880000001285225,530,0.3413079999954789,2
0.0,531,0.0,2
0.033000000003085006,532,0.17932200000359444,2
0.0,533,0.0,2
0.02953499999421183,534,0.21234099999128375,2
0.0,535,0.0,2
0.043890000008104835,536,0.27813700000115205,2
0.0,537,0.0,2
0.03695999999035848,538,0.23761000000376953,2
0.0,539,0.0,2
0.04932000000553671,540,0.26745600000867853,2
0.0,541,0.0,2
0.025589999997464474,542,0.19525099999736995,2
0.0,543,0.0,2
0.052709999996295664,544,0.2692269999970449,2
0.0,545,0.0,2
0.04470000000583241,546,0.20880100000067614,2
0.0,547,0.0,2
0.03913499999907799,548,0.23901399999886053,2
0.0,549,0.0,2
0.19032000000152038,550,0.9304190000038943,2
0.0,551,0.0,2
0.006000000001222361,552,0.034362999998847954,2
0.0,553,0.0,2
0.01840499999525491,554,0.10693399999581743,2
0.0,555,0.0,2
0.04402500000287546,556,0.2691040000063367,2
0.0,557,0.0,2
0.031725000000733417,558,0.20745799998985603,2
0.0,559,0.0,2
0.04626000000280328,560,0.29711900000984315,2
0.0,561,0.0,2
0.04127999999036547,562,0.18292300000030082,2
0.0,563,0.0,2
0.04326000000583008,564,0.2437740000023041,2
0.0,565,0.0,2
0.05785499999910826,566,0.27197299998806557,2
0.0,567,0.0,2
0.03920999999536434,568,0.2258300000030431,2
0.0,569,0.0,2
0.05530500000168104,570,0.32952900000236696,2
0.0,571,0.0,2
0.043380000002798624,572,0.21960399999079527,2
0.0,573,0.0,2
0.043980000002193265,574,0.2176520000139135,2
0.0,575,0.0,2
0.05032499999651918,576,0.20403999999689404,2
0.0,577,0.0,2
0.04959000000235392,578,0.21026599999458995,2
0.0,579,0.0,2
0.07409999999799766,580,0.37365800000407035,2
0.0,581,0.0,2
0.024825000000419095,582,0.10882500000298023,2
0.0,583,0.0,2
0.056069999998726416,584,0.22106999999232357,2
0.0,585,0.0,2
0.06152999999903841,586,0.205138999997871,2
0.0,587,0.0,2
0.05101500000455417,588,0.2105710000032559,2
0.0,589,0.0,2
0.06782999999995809,590,0.31195100000331877,2
0.0,591,0.0,2
0.024839999998221174,592,0.11669899999833433,2
0.0,593,0.0,2
0.052620000002207235,594,0.3177490000016405,2
0.0,595,0.0,2
0.04012499999953434,596,0.24603300000308082,2
0.0,597,0.0,2
0.03257999999914318,598,0.24011199999949895,2
0.0,599,0.0,2
0.04576499999529915,600,0.3095089999915217,2
0.0,601,0.0,2
0.028815000005124602,602,0.13446100000146544,2
0.0,603,0.0,2
0.042255000000295695,604,0.2169800000046962,2
0.0,605,0.0,2
0.036029999995662365,606,0.17913799999951152,2
0.0,607,0.0,2
0.04747499999939464,608,0.24005100000067614,2
0.0,609,0.0,2
0.043890000008104835,610,0.2748409999985597,2
0.0,611,0.0,2
0.022499999999126885,612,0.14733899999555433,2
0.0,613,0.0,2
0.03665999999793712,614,0.2531740000049467,2
0.0,615,0.0,2
0.03824999999778811,616,0.18121299999620533,2
0.0,617,0.0,2
0.045090000006894115,618,0.23553500000707572,2
0.0,619,0.0,2
0.04394999999931315,620,0.23803699999552919,2
0.0,621,0.0,2
0.04096499999286607,622,0.1732179999962682,2
0.0,623,0.0,2
