method,package1,package2,dram1,dram2,energy
AbstractJavaRule.addViolation,0.0,0.0,0.0,0.0,0.0
AbstractRuleChainVisitor.indexNode,0.0,0.07975266666714256,0.0,0.011930000000575092,0.09168266666771765
AlgorithmDecomposer.<clinit>,0.0,0.0,0.0,0.0,0.0
Benchmark.deleteTree,0.04793341770252171,0.0,0.0030670256055440885,0.0,0.0510004433080658
Benchmark.fileFromInputStream,0.11458078303821792,0.0,0.008485305815726022,0.0,0.12306608885394395
Benchmark.unpackZipStream,0.0,0.0,0.0,0.0,0.0
Chaperone.retire,0.09699190894593056,0.0,0.010141076995360498,0.0,0.10713298594129106
ClassReader.a,0.0,0.0,0.0,0.0,0.0
ClassTypeResolver.populateType,0.0,0.15425600000162376,0.0,0.024265000002439287,0.17852100000406304
ClassTypeResolver.processOnDemand,0.0,0.06420866666788545,0.0,0.011884999999892898,0.07609366666777835
ClassTypeResolver.rollupTypeUnary,0.0,0.0,0.0,0.0,0.0
CommonAbstractRule.getName,0.0,0.0,0.0,0.0,0.0
CommonAbstractRule.hashCode,0.0,0.0,0.0,0.0,0.0
CtBehavior.insertAfter,0.0,0.0,0.0,0.0,0.0
DacapoClassLoader.loadClass,0.24677569718655923,0.3832699588313361,0.01737635614907675,0.06157197502806849,0.7089939871950406
DefaultBinaryExpr.getText,0.003377224327760657,0.0,0.00015136898300045253,0.0,0.0035285933107611096
DefaultLocationPath.evaluate,0.0,0.0,0.0,0.0,0.0
DefaultLocationPath.simplify,0.0,0.0,0.0,0.0,0.0
DeferredDocumentImpl.getNodeValueString,0.0,0.0,0.0,0.0,0.0
DocumentNavigator.getElementName,0.0013705694123959025,0.0,5.457062280044654e-05,0.0,0.001425140035196349
FieldInfo.read,0.03807674016440432,0.0,0.002918601429843303,0.0,0.04099534159424763
Java15Parser.parse,0.0,0.036551202215003735,0.0,0.007406246693088587,0.04395744890809232
JavaCharStream.readChar,0.01627343749987631,0.0,0.0009581249996699627,0.0,0.01723156249954627
JavaParser.AndExpression,0.0,0.0,0.0,0.0,0.0
JavaParser.ArgumentList,0.0,0.0,0.0,0.0,0.0
JavaParser.CompilationUnit,0.0,0.0262534189435798,0.0,0.0040161260785733215,0.03026954502215312
JavaParser.jj_3R_170,0.0,0.0026815609272891074,0.0,0.0005849484771121999,0.0032665094044013075
JavaParser.jj_3R_83,0.0,0.0,0.0,0.0,0.0
JavaParserTokenManager.getNextToken,0.0,0.0,0.0,0.0,0.0
Launcher$AppClassLoader.loadClass,0.0,0.30375199999495334,0.0,0.05144000000291271,0.35519199999786605
MetaIndex.mayContain,0.03769345755896758,0.0,0.002834118552806881,0.0,0.04052757611177446
ObjectFactory.findJarServiceProvider,0.0,0.0,0.0,0.0,0.0
ObjectFactory.newInstance,0.06119613890243099,0.0,0.004529083757597249,0.0,0.06572522266002824
PMD.<clinit>,0.044650150485002205,0.0,0.0029358543422483827,0.0,0.04758600482725059
PMD.doPMD,0.0,0.0,0.0,0.0,0.0
Pmd.commaSeparate,0.045929276139260115,0.0,0.0035986036055411642,0.0,0.04952787974480128
Report.<init>,0.038792439641431656,0.0,0.002365868093659846,0.0,0.0411583077350915
Resource.getBytes,0.0,0.013732944444200257,0.0,0.002242500000041521,0.015975444444241777
RuleSetFactory.parsePropertyNode,0.03625695809654934,0.0,0.0016003977273106268,0.0,0.03785735582385996
ScopeAndDeclarationFinder.visit,0.0,0.0,0.0,0.0,0.0
SimpleJavaNode.childrenAccept,0.0,0.09287499999967017,0.0,0.015019999998912681,0.10789499999858285
SimpleNode.<init>,0.0,0.0,0.0,0.0,0.0
SimpleNode.getScope,0.0,0.06020346861265319,0.0,0.008435171085235803,0.068638639697889
SimpleNode.jjtAddChild,0.0,0.0,0.0,0.0,0.0
SimpleNode.jjtGetNumChildren,0.0,0.0,0.0,0.0,0.0
SingleObjectIterator.<init>,0.0,0.0,0.0,0.0,0.0
SourceType.hashCode,0.0,0.0,0.0,0.0,0.0
TeeOutputStream.write,0.4515136216987667,0.0,0.030821498341086433,0.0,0.4823351200398531
Token.setTokenType,0.0,0.0,0.0,0.0,0.0
URLClassPath$FileLoader.getResource,0.0,0.06793200000053426,0.0,0.010919999998198666,0.07885199999873292
URLClassPath$JarLoader.checkResource,0.0,0.0,0.0,0.0,0.0
URLClassPath$JarLoader.getJarFile,0.029423676357263756,0.0,0.0028378331920689763,0.0,0.03226150954933273
URLClassPath$JarLoader.getResource,0.0,0.0,0.0,0.0,0.0
URLClassPath.getResource,0.0,0.0,0.0,0.0,0.0
UTF8.utf8Length,0.0,0.0,0.0,0.0,0.0
UTF8Reader.read,0.1330827011854836,0.08878394744762443,0.007350795746136678,0.01290644263211852,0.2421238870113632
Verifier.isXMLNCNameCharacter,0.0,0.0,0.0,0.0,0.0
ViolationNode.equalsNode,0.0,0.0,0.0,0.0,0.0
XML11Configuration.<init>,0.0,0.0,0.0,0.0,0.0
XMLDocumentFragmentScannerImpl$FragmentContentDispatcher.dispatch,0.038371823680961224,0.0,0.0017734431818430731,0.0,0.0401452668628043
XMLDocumentFragmentScannerImpl.scanCDATASection,0.001306176371858397,0.0,6.243175540014032e-05,0.0,0.0013686081272585374
XMLDocumentFragmentScannerImpl.scanStartElement,0.0,0.0,0.0,0.0,0.0
XMLEntityManager$RewindableInputStream.read,0.0,0.0,0.0,0.0,0.0
XMLEntityManager.<clinit>,0.0341011152479695,0.0,0.0023603772213441434,0.0,0.03646149246931364
XMLEntityScanner.load,0.011200947145932406,0.0,0.0005443382662195264,0.0,0.011745285412151932
XMLNSDocumentScannerImpl.createContentDispatcher,0.0,0.0,0.0,0.0,0.0
XMLString.setValues,0.0,0.0,0.0,0.0,0.0
XPathLexer.LA,0.0,0.0,0.0,0.0,0.0
XPathLexer.nextToken,0.0,0.0,0.0,0.0,0.0
XPathLexer.setPreviousToken,0.0,0.0,0.0,0.0,0.0
XPathReader.LA,0.010414871798945123,0.0,0.0005796381992897753,0.0,0.010994509998234899
XPathReader.additiveExpr,0.0,0.0,0.0,0.0,0.0
XPathReader.orExpr,0.025727166184064475,0.0,0.0014907684764499073,0.0,0.027217934660514382
XPathRule.createXPath,0.027077037791373226,0.0,0.0011667059718014885,0.0,0.028243743763174713
