method,package1,package2,dram1,dram2,energy
net.sourceforge.pmd,0.0,0.0,0.0,0.0,0.0
net.sourceforge.pmd.ast,0.0857012798261316,0.03791644444491895,0.006411564000240616,0.007905000000998067,0.13793428827228923
net.sourceforge.pmd.dfa.report,0.05882377797428594,0.0,0.004791266227000653,0.0,0.0636150442012866
net.sourceforge.pmd.symboltable,0.0,0.0,0.0,0.0,0.0
net.sourceforge.pmd.typeresolution,0.0,0.0,0.0,0.0,0.0
org.apache.xerces.dom,0.0003526456140414729,0.08374033333529951,1.3894736848510147e-05,0.00953999999910593,0.09364687368529542
org.apache.xerces.impl,0.0,0.0,0.0,0.0,0.0
org.apache.xerces.impl.io,0.03119627792802857,0.01300178809785092,0.0017541322331965413,0.0018909674366505399,0.047843165695726574
org.dacapo.harness,0.0,0.07039366666625331,0.0,0.008179999997082632,0.07857366666333594
org.jaxen,0.0,0.0,0.0,0.0,0.0
org.jaxen.expr,0.08499121522367388,0.02527665379055576,0.0042834898740249285,0.004786623187972043,0.1193379820762266
org.jaxen.saxpath.base,0.022121347941186236,0.05590987183573501,0.000991297058969983,0.01051887882709615,0.08954139566298738
org.objectweb.asm,0.0,0.0,0.0,0.0,0.0
sun.misc,0.0,0.046413777779283315,0.0,0.007293333333412494,0.053707111112695806
sun.nio.cs,0.0,0.0,0.0,0.0,0.0
sun.security.util,0.0,0.0463324444442858,0.0,0.007300000000719188,0.05363244444500499
