method,package1,package2,dram1,dram2,energy
ASTEmptyStatement,0.0,0.0,0.0,0.0,0.0
ASTIfStatement,0.0,0.0,0.0,0.0,0.0
ASTPrimaryPrefix,0.0,0.0,0.0,0.0,0.0
AbstractDOMParser,0.0,0.0,0.0,0.0,0.0
AccessorGenerator,0.0,0.07952396636803405,0.0,0.008663400278608048,0.08818736664664209
AttributeAxisIterator,0.0,0.03378695652171028,0.0,0.007101521739019992,0.04088847826073027
AttributeInfo,0.0,0.0,0.0,0.0,0.0
Benchmark,0.0,0.04814500000065891,0.0,0.007260714285491434,0.05540571428615035
ClassTypeResolver,0.0,0.0,0.0,0.0,0.0
CommonAbstractRule,0.0,0.0,0.0,0.0,0.0
CtClassType,0.0,0.0,0.0,0.0,0.0
DacapoClassLoader,0.0,0.0,0.0,0.0,0.0
DefaultLocationPath,0.0,0.0,0.0,0.0,0.0
DefaultNameStep,0.0,0.0,0.0,0.0,0.0
DefaultTruthExpr,0.0,0.0,0.0,0.0,0.0
DeferredDocumentImpl,0.0,0.0,0.0,0.0,0.0
DocumentBuilderImpl,0.0,0.050491500000134686,0.0,0.0076349999999365545,0.05812650000007124
JavaParser,0.19337808253082997,0.008948839253975199,0.012097790304527515,0.0015986745335777222,0.2160233866229104
JavaParserTokenManager,0.0,0.048486308318358436,0.0,0.010152821070449227,0.058639129388807665
JaxenHandler,0.0,0.0,0.0,0.0,0.0
NodeImpl,0.0,0.034401960784387745,0.0,0.006697058823355538,0.04109901960774328
PMD,0.0,0.0,0.0,0.0,0.0
ParseUtil,0.0,0.0,0.0,0.0,0.0
RuleSetFactory,0.0,0.0,0.0,0.0,0.0
SimpleCharStream,0.0,0.00641273650018635,0.0,0.0008737996913573963,0.007286536191543747
SimpleJavaNode,0.0,0.0,0.0,0.0,0.0
SimpleNode,0.0024973629964161873,0.0,0.00016871747796150233,0.0,0.00266608047437769
SingletonList,0.03726887077202544,0.0,0.0030068600584716772,0.0,0.04027573083049712
TestHarness,0.0,0.012490159854038159,0.0,0.0017022080078728321,0.014192367861910991
Token,0.0,0.0,0.0,0.0,0.0
URLClassPath,0.06494182431666035,0.0,0.0041493865536637595,0.0,0.0690912108703241
URLClassPath$JarLoader,0.0,0.0,0.0,0.0,0.0
UTF8,0.0,0.034401960784387745,0.0,0.006697058823355538,0.04109901960774328
UTF8Reader,0.02090712103622548,0.011094170435073623,0.0010133691495724875,0.0014661391302892616,0.034480799751160855
Verifier,0.0,0.0,0.0,0.0,0.0
XMLDTDValidator,0.0,0.07088199999755791,0.0,0.009575000001253406,0.08045699999881131
XMLEntityScanner,0.008312336568199142,0.015450425786988997,0.00041487326189460015,0.002103463268357628,0.026281098885440366
XPathLexer,0.0,0.0,0.0,0.0,0.0
XPathReader,0.023566028904825648,0.0056440555557249646,0.0010345244616786664,0.0013491666668414837,0.03159377558907076
XPathReaderFactory,0.0,0.0,0.0,0.0,0.0
