method,hits
ASTAssignmentOperator.jjtAccept,1
AbstractDOMParser.startDocument,1
Axis.lookup,1
ClassFileAssembler.emitByte,1
ClassReader.a,1
DacapoClassLoader.loadClass,2
DefaultAndExpr.getOperator,1
DefaultNameStep.matches,2
DeferredDocumentImpl.getNodeObject,1
DisabledAlgorithmConstraints$Constraints.<init>,1
DocumentBuilderImpl.<init>,2
JJTJavaParserState.closeNodeScope,1
JJTJavaParserState.openNodeScope,1
JavaParser.ClassOrInterfaceBodyDeclaration,1
JavaParser.getToken,2
JavaParser.jj_3R_111,1
JavaParser.jj_3R_119,1
JavaParser.jj_3R_201,1
JavaParser.jj_3R_233,1
JavaParserVisitorAdapter.visit,1
JaxenHandler.peekFrame,1
JaxenHandler.popFrame,1
LongVector.addElement,1
NameOccurrence.isMethodOrConstructorInvocation,1
NodeIterator.getNextSibling,1
PredicateSet.getText,1
Reflection.quickCheckMemberAccess,1
RuleContext.<init>,1
SimpleJavaNode.childrenAccept,4
SimpleJavaNode.jjtOpen,1
SimpleNode.<init>,5
SimpleNode.jjtAddChild,1
SimpleNode.jjtGetChild,1
SimpleNode.jjtGetNumChildren,1
Tracer.setFieldTarget,1
Type.getReturnType,1
URLClassPath.getNextLoader,1
UTF8Reader.read,50
UTF_8$Encoder.encode,1
XML11Configuration.<init>,2
XMLChar.isName,1
XMLDocumentFragmentScannerImpl.scanCDATASection,1
XMLEntityManager.getPropertyDefault,1
XMLEntityScanner.scanContent,1
XPathLexer.getXPath,1
XPathLexer.nextToken,1
XPathReader.LA,3
XPathReader.andExpr,1
XPathReader.nodeTypeTest,1
XPathReader.pathExpr,1
XPathReader.step,1
XPathRule.createXPath,2
