method,package1,package2,dram1,dram2,energy
ASTClassOrInterfaceType,0.0,0.0,0.0,0.0,0.0
AbstractRuleChainVisitor,0.0,0.0,0.0,0.0,0.0
Chaperone,0.0,0.0,0.0,0.0,0.0
ClassFileAssembler,0.0,0.0,0.0,0.0,0.0
Config,0.0,0.0,0.0,0.0,0.0
ConstantAttribute,0.0,0.0,0.0,0.0,0.0
DacapoClassLoader,0.0,0.0,0.0,0.0,0.0
DefaultEqualsExpr,0.0,0.0,0.0,0.0,0.0
DefaultFunctionCallExpr,0.0038920733083037625,0.0,0.00017422932307595504,0.0,0.0040663026313797175
DefaultLocationPath,0.0,0.0,0.0,0.0,0.0
DefaultXPathFactory,0.0,0.0,0.0,0.0,0.0
DocumentBuilderImpl,0.0,0.06933599999562526,0.0,0.010000000002037268,0.07933599999766253
FactoryFinder,0.0,0.0,0.0,0.0,0.0
JJTJavaParserState,0.03935780093931148,0.0,0.0019911238579939524,0.0,0.04134892479730543
JavaParser,0.0810688841976804,0.047281639318833564,0.005866895991564423,0.007201509287817553,0.14141892879589593
JavaParserTokenManager,0.16677758655928543,0.05879716666580255,0.011142354838809678,0.013037499999578964,0.2497546080634766
JaxenHandler,0.0,0.026087725977805065,0.0,0.00490216365220932,0.030989889630014384
MetaIndex,0.09207297228312132,0.0,0.005303864410331089,0.0,0.09737683669345241
NameFinder,0.0,0.0,0.0,0.0,0.0
Option,0.0,0.0,0.0,0.0,0.0
PMDASMClassLoader,0.0,0.1216161914451133,0.0,0.01923864763425144,0.14085483907936475
Pmd,0.0,0.04081013361710401,0.0,0.004584079070284034,0.045394212687388046
RuleSetFactory,0.026718166666493442,0.0,0.001177499999660843,0.0,0.027895666666154284
RuleSets,0.0,0.038106333335842166,0.0,0.0060599999997066325,0.0441663333355488
SimpleJavaNode,0.16195630742336942,0.0,0.01353947715934937,0.0,0.17549578458271878
SimpleNode,0.0,0.0,0.0,0.0,0.0
TestHarness,0.0,0.054036643656168164,0.0,0.006684315712254428,0.06072095936842259
Token,0.0,0.0,0.0,0.0,0.0
UTF8Reader,0.10617583363677686,0.033134243198831986,0.005187462375910019,0.004901470375136902,0.1493990095866558
Unsafe,0.0068397499999264255,0.0,0.00033468750007159537,0.0,0.007174437499998021
Verifier,0.0,0.0,0.0,0.0,0.0
XMLChar,0.0,0.0016340918918423405,0.0,0.0002693918918855677,0.0019034837837279082
XMLDocumentFragmentScannerImpl,0.0,0.0,0.0,0.0,0.0
XMLEntityManager,0.0,0.11484766666399082,0.0,0.01671499999793014,0.13156266666192096
XMLEntityScanner,0.014353919616495929,0.0,0.0007094719817908029,0.0,0.015063391598286732
XPathLexer,0.010939006715482423,0.0,0.0005041758243831913,0.0,0.011443182539865614
XPathReader,0.008296968749959888,0.0,0.0004045312500693399,0.0,0.008701500000029228
XPathRule,0.0,0.0,0.0,0.0,0.0
