method,package1,package2,dram1,dram2,energy
AbstractList.hashCode,0.0015469999999857885,0.0,6.86538461685324e-05,0.0,0.001615653846154321
ArrayDeque.pollFirst,0.0,0.10392233333550394,0.0,0.016489999999369804,0.12041233333487374
ArrayList.add,0.0,0.0,0.0,0.0,0.0
ArrayList.calculateCapacity,0.0,0.0051956288506251605,0.0,0.0010366936441875071,0.006232322494812668
Arrays.copyOf,0.0,0.0,0.0,0.0,0.0
Attributes.read,0.0,0.0,0.0,0.0,0.0
BufferedInputStream.<init>,0.0,0.09102366666532664,0.0,0.013680000001234777,0.10470366666656142
BufferedInputStream.read,0.0,0.08983341666498745,0.0,0.012565000001510876,0.10239841666649833
Class$MethodArray.addIfNotPresent,0.0,0.0,0.0,0.0,0.0
ClassLoader.defineClass1,0.0,0.06713875000241387,0.0,0.009224999999787542,0.07636375000220141
ClassLoader.loadClass,0.13899249999940366,0.0,0.007533750000220606,0.0,0.14652624999962427
ConcurrentHashMap.transfer,0.0,0.0,0.0,0.0,0.0
FileInputStream.readBytes,0.0,0.0,0.0,0.0,0.0
FileOutputStream.close0,0.0,0.0804036666668253,0.0,0.01096000000203882,0.09136366666886413
FileOutputStream.open0,0.0,0.14394138889151187,0.0,0.021987499999846075,0.16592888889135793
FileOutputStream.write,0.0,0.07749433333568352,0.0,0.0109599999996135,0.08845433333529702
FileOutputStream.writeBytes,0.0,0.07314066666731378,0.0,0.010900000001129229,0.08404066666844301
Finalizer.add,0.0,0.0,0.0,0.0,0.0
Hashtable.hashCode,0.0,0.003377024740777706,0.0,0.0006016534348028098,0.003978678175580516
HeapByteBuffer.<init>,0.0,0.0,0.0,0.0,0.0
Inflater.inflateBytes,0.0,0.13191699999879347,0.0,0.02055500000036166,0.15247199999915512
LinkedList.isPositionIndex,0.023803510769156183,0.0,0.0012318923075620727,0.0,0.025035403076718254
LinkedList.unlinkLast,0.0,0.0,0.0,0.0,0.0
LogManager$LoggerContext.<init>,0.0,0.05737305555360056,0.0,0.009179166667713113,0.06655222222131367
Logger.<clinit>,0.0,0.0,0.0,0.0,0.0
Method.copy,0.0,0.0,0.0,0.0,0.0
Pattern$Start.match,0.0,0.006823258342773793,0.0,0.001464785104587615,0.008288043447361408
Pattern.compile,0.0,0.0,0.0,0.0,0.0
String.charAt,0.0,0.0,0.0,0.0,0.0
String.getChars,0.0,0.0,0.0,0.0,0.0
String.replace,0.0,0.0,0.0,0.0,0.0
String.substring,0.0,0.0,0.0,0.0,0.0
StringBuilder.append,0.0,0.10060633333584217,0.0,0.009815000000041131,0.1104213333358833
StringBuilder.toString,0.0,0.0,0.0,0.0,0.0
Throwable.fillInStackTrace,0.0,0.33388034985238957,0.0,0.06511249114865915,0.3989928410010487
URLClassLoader.getAndVerifyPackage,0.0,0.0,0.0,0.0,0.0
URLClassLoader.isSealed,0.0,0.0,0.0,0.0,0.0
UnixFileSystem.createDirectory,0.0,0.0,0.0,0.0,0.0
UnixFileSystem.getBooleanAttributes0,0.0,0.0,0.0,0.0,0.0
ZipFile$ZipFileInputStream.<init>,0.0,0.04048666666575526,0.0,0.0056958333334478075,0.04618249999920307
ZipFile.getEntry,0.0,0.09604357894721416,0.0,0.0122352631572683,0.10827884210448246
ZipFile.open,0.0,0.0,0.0,0.0,0.0
ZipFile.read,0.0,0.0,0.0,0.0,0.0
