method,package1,package2,dram1,dram2,energy
AbstractSequentialList.<init>,0.0,0.0,0.0,0.0,0.0
AccessController.doPrivileged,0.0,0.0,0.0,0.0,0.0
Arrays.copyOf,0.0,0.03324399999595092,0.0,0.005035000001953449,0.03827899999790437
BufferedInputStream.read,0.0,0.059224333332773924,0.0,0.00803999999819401,0.06726433333096793
Class$MethodArray.addIfNotPresent,0.0,0.0295194705881038,0.0,0.004772205882010681,0.03429167647011448
Class$MethodArray.removeByNameAndDescriptor,0.0,0.0,0.0,0.0,0.0
Class.forName0,0.0,0.0632323333362971,0.0,0.009360000001227792,0.07259233333752489
Class.getDeclaredConstructors0,0.0,0.0,0.0,0.0,0.0
Class.getName,0.0,0.0,0.0,0.0,0.0
ClassLoader.defineClass1,0.0,0.10465073470559935,0.0,0.014314258212399044,0.11896499291799839
ClassLoader.findBootstrapClass,0.0,0.061238666666516416,0.0,0.008200000001428027,0.06943866666794445
ClassLoader.findLoadedClass0,0.0594147191733924,0.05282574999910139,0.0035892522832333172,0.0061274999989109355,0.12195722145463804
ConcurrentHashMap.putVal,0.0,0.0,0.0,0.0,0.0
Constructor.getModifiers,0.0,0.017963154149961174,0.0,0.0024975889327798068,0.02046074308274098
DataInputStream.readUnsignedShort,0.0,0.0,0.0,0.0,0.0
ExpiringCache.get,0.0,0.0,0.0,0.0,0.0
FileOutputStream.write,0.515944798066276,0.0,0.03782641072394903,0.0,0.553771208790225
FileOutputStream.writeBytes,0.0,0.04820333333121935,0.0,0.00783928571417207,0.05604261904539142
HashMap$HashIterator.hasNext,0.0,0.0,0.0,0.0,0.0
Inflater.inflateBytes,0.0,0.17245113447464705,0.0,0.021344644419124613,0.19379577889377167
LinkedList.isElementIndex,0.06121820000043954,0.0,0.00517799999943236,0.0,0.0663961999998719
Method.<init>,0.0,0.09847000000202873,0.0,0.013129999999364372,0.1116000000013931
Method.equals,0.0,0.0295194705881038,0.0,0.004772205882010681,0.03429167647011448
Object.getClass,0.0,0.0,0.0,0.0,0.0
OutputStream.<init>,0.0,0.0,0.0,0.0,0.0
String.indexOf,0.0,0.0768633333306449,0.0,0.008845000001504861,0.08570833333214976
String.toCharArray,0.05364691132169407,0.0,0.0034590299562384922,0.0,0.057105941277932566
StringBuffer.toString,0.0,0.0,0.0,0.0,0.0
Throwable.fillInStackTrace,0.3811171457488383,0.0,0.025756672271606804,0.0,0.40687381802044514
TreeSet.<init>,0.0,0.03719430555570903,0.0,0.0046666666662026225,0.04186097222191165
URL.<init>,0.0,0.0,0.0,0.0,0.0
UnixFileSystem.delete0,0.0,0.0,0.0,0.0,0.0
UnixFileSystem.getBooleanAttributes0,0.0,0.0,0.0,0.0,0.0
ZipFile.getEntry,0.0,0.0,0.0,0.0,0.0
