method,package1,package2,dram1,dram2,energy
ASTEmptyStatement.<init>,0.0,0.0,0.0,0.0,0.0
ASTIfStatement.jjtAccept,0.0,0.0,0.0,0.0,0.0
ASTPrimaryPrefix.jjtAccept,0.0,0.0,0.0,0.0,0.0
AbstractDOMParser.endElement,0.0,0.0,0.0,0.0,0.0
AbstractSequentialList.<init>,0.0,0.0,0.0,0.0,0.0
AccessController.doPrivileged,0.0,0.0,0.0,0.0,0.0
AccessorGenerator.emitCommonConstantPoolEntries,0.0,0.07952396636803405,0.0,0.008663400278608048,0.08818736664664209
Arrays.copyOf,0.0,0.03324399999595092,0.0,0.005035000001953449,0.03827899999790437
AttributeAxisIterator.<init>,0.0,0.03378695652171028,0.0,0.007101521739019992,0.04088847826073027
AttributeInfo.read,0.0,0.0,0.0,0.0,0.0
Benchmark.fileFromInputStream,0.0,0.04814500000065891,0.0,0.007260714285491434,0.05540571428615035
BufferedInputStream.read,0.0,0.059224333332773924,0.0,0.00803999999819401,0.06726433333096793
Class$MethodArray.addIfNotPresent,0.0,0.0295194705881038,0.0,0.004772205882010681,0.03429167647011448
Class$MethodArray.removeByNameAndDescriptor,0.0,0.0,0.0,0.0,0.0
Class.forName0,0.0,0.0632323333362971,0.0,0.009360000001227792,0.07259233333752489
Class.getDeclaredConstructors0,0.0,0.0,0.0,0.0,0.0
Class.getName,0.0,0.0,0.0,0.0,0.0
ClassLoader.defineClass1,0.0,0.10465073470559935,0.0,0.014314258212399044,0.11896499291799839
ClassLoader.findBootstrapClass,0.0,0.061238666666516416,0.0,0.008200000001428027,0.06943866666794445
ClassLoader.findLoadedClass0,0.0594147191733924,0.05282574999910139,0.0035892522832333172,0.0061274999989109355,0.12195722145463804
ClassTypeResolver.rollupTypeBinaryNumericPromotion,0.0,0.0,0.0,0.0,0.0
CommonAbstractRule.getName,0.0,0.0,0.0,0.0,0.0
CommonAbstractRule.hashCode,0.0,0.0,0.0,0.0,0.0
ConcurrentHashMap.putVal,0.0,0.0,0.0,0.0,0.0
Constructor.getModifiers,0.0,0.017963154149961174,0.0,0.0024975889327798068,0.02046074308274098
CtClassType.removeClassFile,0.0,0.0,0.0,0.0,0.0
DacapoClassLoader.loadClass,0.0,0.0,0.0,0.0,0.0
DataInputStream.readUnsignedShort,0.0,0.0,0.0,0.0,0.0
DefaultLocationPath.evaluate,0.0,0.0,0.0,0.0,0.0
DefaultNameStep.<init>,0.0,0.0,0.0,0.0,0.0
DefaultTruthExpr.eitherIsNumber,0.0,0.0,0.0,0.0,0.0
DeferredDocumentImpl.getNodeObject,0.0,0.0,0.0,0.0,0.0
DocumentBuilderImpl.<init>,0.0,0.050491500000134686,0.0,0.0076349999999365545,0.05812650000007124
ExpiringCache.get,0.0,0.0,0.0,0.0,0.0
FileOutputStream.write,0.515944798066276,0.0,0.03782641072394903,0.0,0.553771208790225
FileOutputStream.writeBytes,0.0,0.04820333333121935,0.0,0.00783928571417207,0.05604261904539142
HashMap$HashIterator.hasNext,0.0,0.0,0.0,0.0,0.0
Inflater.inflateBytes,0.0,0.17245113447464705,0.0,0.021344644419124613,0.19379577889377167
JavaParser.ConditionalOrExpression,0.0,0.0,0.0,0.0,0.0
JavaParser.PostfixExpression,0.0,0.0,0.0,0.0,0.0
JavaParser.jj_3R_119,0.0,0.008948839253975199,0.0,0.0015986745335777222,0.01054751378755292
JavaParser.jj_3R_206,0.06084210810828105,0.0,0.004217027025800703,0.0,0.06505913513408175
JavaParser.jj_3R_216,0.04293248297712452,0.0,0.00204752322041082,0.0,0.04498000619753534
JavaParser.jj_3R_287,0.04379443483772055,0.0,0.003196334716667741,0.0,0.046990769554388294
JavaParser.jj_3R_89,0.04580905660770384,0.0,0.0026369053416482524,0.0,0.04844596194935209
JavaParserTokenManager.SkipLexicalActions,0.0,0.048486308318358436,0.0,0.010152821070449227,0.058639129388807665
JavaParserTokenManager.jjMoveNfa_0,0.0,0.0,0.0,0.0,0.0
JaxenHandler.endEqualityExpr,0.0,0.0,0.0,0.0,0.0
LinkedList.isElementIndex,0.06121820000043954,0.0,0.00517799999943236,0.0,0.0663961999998719
Method.<init>,0.0,0.09847000000202873,0.0,0.013129999999364372,0.1116000000013931
Method.equals,0.0,0.0295194705881038,0.0,0.004772205882010681,0.03429167647011448
NodeImpl.needsSyncData,0.0,0.034401960784387745,0.0,0.006697058823355538,0.04109901960774328
NodeImpl.ownerDocument,0.0,0.0,0.0,0.0,0.0
Object.getClass,0.0,0.0,0.0,0.0,0.0
OutputStream.<init>,0.0,0.0,0.0,0.0,0.0
PMD.main,0.0,0.0,0.0,0.0,0.0
ParseUtil.encodePath,0.0,0.0,0.0,0.0,0.0
RuleSetFactory.createRuleSets,0.0,0.0,0.0,0.0,0.0
SimpleCharStream.getEndLine,0.0,0.00641273650018635,0.0,0.0008737996913573963,0.007286536191543747
SimpleJavaNode.childrenAccept,0.0,0.0,0.0,0.0,0.0
SimpleNode.<init>,0.0024973629964161873,0.0,0.00016871747796150233,0.0,0.00266608047437769
SingletonList.get,0.03726887077202544,0.0,0.0030068600584716772,0.0,0.04027573083049712
String.indexOf,0.0,0.0768633333306449,0.0,0.008845000001504861,0.08570833333214976
String.toCharArray,0.05364691132169407,0.0,0.0034590299562384922,0.0,0.057105941277932566
StringBuffer.toString,0.0,0.0,0.0,0.0,0.0
TestHarness.main,0.0,0.012490159854038159,0.0,0.0017022080078728321,0.014192367861910991
Throwable.fillInStackTrace,0.3811171457488383,0.0,0.025756672271606804,0.0,0.40687381802044514
Token.getTokenType,0.0,0.0,0.0,0.0,0.0
TreeSet.<init>,0.0,0.03719430555570903,0.0,0.0046666666662026225,0.04186097222191165
URL.<init>,0.0,0.0,0.0,0.0,0.0
URLClassPath$JarLoader.<init>,0.0,0.0,0.0,0.0,0.0
URLClassPath.getNextLoader,0.06494182431666035,0.0,0.0041493865536637595,0.0,0.0690912108703241
UTF8.utf8Length,0.0,0.034401960784387745,0.0,0.006697058823355538,0.04109901960774328
UTF8Reader.read,0.02090712103622548,0.011094170435073623,0.0010133691495724875,0.0014661391302892616,0.034480799751160855
UnixFileSystem.delete0,0.0,0.0,0.0,0.0,0.0
UnixFileSystem.getBooleanAttributes0,0.0,0.0,0.0,0.0,0.0
Verifier.isXMLLetter,0.0,0.0,0.0,0.0,0.0
XMLDTDValidator.<init>,0.0,0.07088199999755791,0.0,0.009575000001253406,0.08045699999881131
XMLEntityScanner.scanData,0.008312336568199142,0.015450425786988997,0.00041487326189460015,0.002103463268357628,0.026281098885440366
XPathLexer.LA,0.0,0.0,0.0,0.0,0.0
XPathLexer.currentPosition,0.0,0.0,0.0,0.0,0.0
XPathReader.LA,0.0,0.0056440555557249646,0.0,0.0013491666668414837,0.006993222222566448
XPathReader.equalityExpr,0.0,0.0,0.0,0.0,0.0
XPathReader.match,0.0,0.0,0.0,0.0,0.0
XPathReader.relationalExpr,0.023566028904825648,0.0,0.0010345244616786664,0.0,0.024600553366504314
XPathReaderFactory.createReader,0.0,0.0,0.0,0.0,0.0
ZipFile.getEntry,0.0,0.0,0.0,0.0,0.0
