method,package1,package2,dram1,dram2,energy
ASTClassOrInterfaceBodyDeclaration,0.0,0.0,0.0,0.0,0.0
AbstractDOMParser,0.0,0.0022492592592158697,0.0,0.00027661290320316317,0.002525872162419033
AbstractList,0.0,0.0,0.0,0.0,0.0
AccessController,0.15002466666555847,0.0,0.013939999999517262,0.0,0.16396466666507573
BufferedInputStream,0.0,0.0,0.0,0.0,0.0
Class$MethodArray,0.0,0.0,0.0,0.0,0.0
ClassFileAssembler,0.0,0.0,0.0,0.0,0.0
ClassLoader,0.05591070714221413,0.0,0.004188661599004059,0.0,0.06009936874121819
ClassPool,0.0,0.0,0.0,0.0,0.0
ClassTypeResolver,0.0,0.0,0.0,0.0,0.0
ClassUtil,0.0,0.0,0.0,0.0,0.0
Config,0.0,0.0,0.0,0.0,0.0
DacapoClassLoader,0.0,0.0,0.0,0.0,0.0
DefaultPathExpr,0.0,0.0,0.0,0.0,0.0
DefaultXPathFactory,0.028726338010192157,0.0,0.00221285732821697,0.0,0.030939195338409126
DeferredDocumentImpl,0.04321299999840751,0.0,0.002380000000509123,0.0,0.04559299999891663
FileInputStream,0.0,0.0,0.0,0.0,0.0
FileOutputStream,0.0,0.65598718336927,0.0,0.08849198535520107,0.7444791687244711
Finalizer,0.04074444444429698,0.0,0.003186666665391789,0.0,0.04393111110968877
Hashtable,0.0,0.0,0.0,0.0,0.0
Inflater,0.18363977777739313,0.0,0.01424066666546019,0.0,0.19788044444285333
JJTJavaParserState,0.0,0.0,0.0,0.0,0.0
JavaParser,0.05566966857162438,0.0,0.004673828571768744,0.0,0.06034349714339312
JavaParserTokenManager,0.0,0.0,0.0,0.0,0.0
Logger,0.0,0.0,0.0,0.0,0.0
Method,0.0,0.0,0.0,0.0,0.0
NamedNodeMapImpl,0.0,0.0,0.0,0.0,0.0
NodeImpl,0.0,0.0,0.0,0.0,0.0
NodeIterator,0.0,0.0,0.0,0.0,0.0
PMD,0.0,0.0,0.0,0.0,0.0
PMDASMClassLoader,0.0,0.0,0.0,0.0,0.0
Pattern,0.0,0.0,0.0,0.0,0.0
SimpleJavaNode,0.0,0.0,0.0,0.0,0.0
SimpleNode,0.08499740259787075,0.003686509091163647,0.005826818181202572,0.0007314545454309237,0.09524218441566791
String,0.05898033333384471,0.0,0.004740000001523488,0.0,0.0637203333353682
StringBuffer,0.0,0.004816661931944179,0.0,0.0009060724431513088,0.005722734375095488
Thread,0.013336181818059149,0.0,0.0009668181820333383,0.0,0.014303000000092487
Throwable,0.2002566666669736,0.0,0.011884999999892898,0.0,0.21214166666686649
Token,0.0,0.04668719096731329,0.0,0.00902120910402065,0.05570840007133394
URLClassLoader,0.03634426666637106,0.0,0.0028760000015608965,0.0,0.039220266667931956
UTF8Reader,0.036063934599148084,0.07607007765820119,0.0020077726992093854,0.009711111111101458,0.12385289606766012
UnixFileSystem,0.0,0.005688857812447168,0.0,0.001169648437496562,0.00685850624994373
XML11Configuration,0.04739573333257188,0.0,0.003811999998288229,0.0,0.05120773333086011
XMLEntityManager,0.04723306666710414,0.0,0.0038079999988743407,0.0,0.051041066665978484
XMLEntityScanner,0.008289574143800703,0.0,0.00044201631309128065,0.0,0.008731590456891983
XMLNSDocumentScannerImpl,0.0,0.0,0.0,0.0,0.0
XPathLexer,0.0,0.0808025078650082,0.0,0.016091662921564748,0.09689417078657295
XPathReader,0.0,0.0404012539325041,0.0,0.008045831460782374,0.048447085393286474
ZipCoder,0.0,0.0,0.0,0.0,0.0
ZipFile,0.08119733333296608,0.0,0.006274999999732246,0.0,0.08747233333269833
