method,hits
AbstractJavaRule.visit,1
AbstractList.hashCode,1
AbstractList.listIterator,1
AbstractSequentialList.iterator,1
AbstractStringBuilder.ensureCapacityInternal,2
AbstractStringBuilder.newCapacity,1
AccessController.doPrivileged,2
Applier.apply,1
Arrays.copyOf,3
AttributeInfo.remove,1
Benchmark.unpackZipStream,1
BufferedInputStream.<init>,1
BufferedInputStream.read,3
Chaperone.retire,1
Class$MethodArray.addIfNotPresent,29
Class$MethodArray.removeByNameAndDescriptor,5
Class.copyMethods,1
Class.forName0,1
Class.getDeclaredConstructors0,2
Class.privateGetPublicMethods,2
ClassFileAssembler.emitByte,1
ClassFileAssembler.emitConstantPoolUTF8,2
ClassLoader.defineClass1,8
ClassLoader.findBootstrapClass,3
ClassLoader.findLoadedClass0,2
ClassLoader.loadClass,1
ClassReader.accept,1
Context.<init>,1
DacapoClassLoader.loadClass,4
DataInputStream.readUnsignedShort,1
DeferredAttrImpl.synchronizeData,1
DeferredDocumentImpl.ensureCapacity,1
FileOutputStream.open0,4
FileOutputStream.write,20
FileOutputStream.writeBytes,3
FilterOutputStream.write,1
Formatter.parse,1
HashMap$HashIterator.nextNode,1
HashMap.getNode,2
Hashtable.hashCode,1
ImageFinderFunction.applyTo,1
Inflater.inflateBytes,10
JJTJavaParserState.closeNodeScope,1
JarFile.initializeVerifier,1
Java15Parser.parse,1
JavaParser.<init>,1
JavaParser.RelationalExpression,1
JavaParser.jj_3R_133,1
JavaParser.jj_3R_189,1
JavaParserTokenManager.getNextToken,1
JaxenHandler.<init>,1
JaxenHandler.pushFrame,2
LinkedList.addLast,2
LinkedList.listIterator,1
Logger.<init>,1
Logger.doSetParent,1
Method.getDeclaringClass,1
Object.<init>,1
PMD.doPMD,1
Pattern$Slice.match,1
PerfCounter.add,1
RuleContext.<init>,1
RuleViolation.<init>,1
SecuritySupport.getSystemClassLoader,1
SimpleJavaNode.childrenAccept,3
SimpleNode.findChildrenOfType,1
SimpleNode.jjtGetChild,1
String.charAt,1
String.indexOf,1
StringBuffer.append,1
StringBuffer.toString,2
StringCoding$StringDecoder.decode,1
TestHarness.twoDecimalPlaces,1
Thread.start0,1
Throwable.fillInStackTrace,25
Type.a,1
URLClassPath.getLoader,1
URLStreamHandler.getHostAddress,1
UTF8Reader.read,51
UnixFileSystem.delete0,1
UnixFileSystem.getBooleanAttributes0,5
Vector.ensureCapacityHelper,1
Verifier.isXMLLetter,1
XML11Configuration.<init>,2
XMLEntityScanner.scanName,1
XPathLexer.dots,1
XPathLexer.getXPath,1
XPathReader.LA,1
XPathReader.absoluteLocationPath,1
XPathReader.functionCall,1
ZipFile$ZipFileInflaterInputStream.<init>,1
ZipFile$ZipFileInflaterInputStream.available,1
ZipFile.getEntry,2
ZipFile.read,2
