method,package1,package2,dram1,dram2,energy
AbstractDOMParser,0.0,0.0,0.0,0.0,0.0
ArrayList,0.0,0.0,0.0,0.0,0.0
Arrays,0.11940466666783323,0.0,0.007145000003220048,0.0,0.12654966667105327
Benchmark,0.06429033333309538,0.0,0.00473999999667285,0.0,0.06903033332976823
BufferedInputStream,0.0,0.0,0.0,0.0,0.0
Chaperone,0.0,0.0,0.0,0.0,0.0
ClassFileAssembler,0.0,0.034795912358798836,0.0,0.006126136144033904,0.040922048502832736
ClassLoader,0.8781344103513051,0.08005766666610725,0.04682587896707212,0.010904999997971268,1.0159229559824559
ClassReader,0.0,0.0,0.0,0.0,0.0
ClassScope,0.08006005674962266,0.0,0.005777147607311446,0.0,0.08583720435693411
CommonAbstractRule,0.034386666176512745,0.0,0.001464147058636716,0.0,0.035850813235149465
Config,0.0,0.0,0.0,0.0,0.0
DacapoClassLoader,0.0,0.019118196171162262,0.0,0.00386240189336276,0.022980598064525022
DefaultNameStep,0.0,0.012191749999601598,0.0,0.0022743750000699947,0.014466124999671592
DefaultTruthExpr,0.0,0.0,0.0,0.0,0.0
DefaultXPathFactory,0.0,0.043253666666714714,0.0,0.006505000001197914,0.04975866666791263
File,0.1291709999992842,0.0,0.008279999999407057,0.0,0.13745099999869126
FileOutputStream,0.18011466666818401,0.1898090000001199,0.010110000002896413,0.02840750000056384,0.40844116667176417
HashMap$HashIterator,0.08794469257708443,0.0,0.008610377669685056,0.0,0.09655507024676949
Hashtable,0.0,0.0,0.0,0.0,0.0
Inflater,0.1562906666670945,0.0,0.0076800000000124165,0.0,0.16397066666710694
JarFile,0.12921133333171989,0.0,0.0088499999983469,0.0,0.1380613333300668
JavaParser,0.08884032130962624,0.015515528162085443,0.006383522652299853,0.0027579735446603085,0.11349734566867185
JavaParserTokenManager,0.05597408660205192,0.0,0.0021780968199936615,0.0,0.05815218342204558
JaxenHandler,0.037471470013898715,0.0045576573202699006,0.0016069598259841164,0.0010216468914541798,0.04465773405160692
Level,0.0,0.0,0.0,0.0,0.0
LogManager$LoggerContext,0.039225333332675895,0.0,0.0024000000000038804,0.0,0.04162533333267977
PMD,0.007064749999699416,0.0,0.0007275000007211929,0.0,0.0077922500004206086
PMDASMClassLoader,0.0,0.0,0.0,0.0,0.0
ParentNode,0.0,0.0,0.0,0.0,0.0
Pattern,0.0,0.0,0.0,0.0,0.0
Pattern$Slice,0.0,0.0,0.0,0.0,0.0
Pattern$Start,0.0,0.0,0.0,0.0,0.0
PredicateSet,0.0,0.0,0.0,0.0,0.0
RuleSet,0.0,0.0,0.0,0.0,0.0
RuleSetFactory,0.0,0.01454762156346594,0.0,0.0033752433443435077,0.01792286490780945
ScopeAndDeclarationFinder,0.051637943093014116,0.0,0.0019976860692236145,0.0,0.05363562916223773
SimpleJavaNode,0.0,0.0,0.0,0.0,0.0
String,0.029044281519742164,0.0,0.0011758155623679471,0.0,0.03022009708211011
SymbolTable,0.0,0.0,0.0,0.0,0.0
Thread,0.017232249999930598,0.0,0.0008899999993445818,0.0,0.01812224999927518
Throwable,0.5201662826257204,0.0,0.03619156656508827,0.0,0.5563578491908087
Type,0.0,0.0160784285714423,0.0,0.002917142857248629,0.018995571428690926
URLClassLoader,0.08752017454497338,0.0,0.005051507540001481,0.0,0.09257168208497486
UTF8Reader,0.010028675894748292,0.004341818093335767,0.0004531126074247649,0.0007667017435150699,0.015590308339023895
UnixFileSystem,0.07523472858011457,0.0,0.006785547497458453,0.0,0.08202027607757302
Verifier,0.01763838299209326,0.0,0.0007028049977683332,0.0,0.018341187989861594
XMLChar,0.0,0.0,0.0,0.0,0.0
XMLEntityScanner,0.0,0.0,0.0,0.0,0.0
XMLScanner,0.0,0.0,0.0,0.0,0.0
XPathLexer,0.0,0.0,0.0,0.0,0.0
XPathReader,0.0,0.0,0.0,0.0,0.0
XPathReaderFactory,0.0,0.0,0.0,0.0,0.0
XPathRule,0.0,0.0,0.0,0.0,0.0
ZipFile,0.0,0.0,0.0,0.0,0.0
ZipFile$ZipFileInputStream,0.016594777777855698,0.0,0.0005983333329721871,0.0,0.017193111110827886
