method,package1,package2,dram1,dram2,energy
AbstractJavaRule.visit|ASTFormalParameter.jjtAccept|SimpleJavaNode.childrenAccept,0.0,0.0,0.0,0.0,0.0
AbstractList.hashCode|RuleSet.hashCode|HashMap.hash,0.0015469999999857885,0.0,6.86538461685324e-05,0.0,0.001615653846154321
AbstractNameDeclaration.getImage|ClassScope.findVariableHere|AbstractScope.contains,0.0,0.0,0.0,0.0,0.0
ArrayDeque.pollFirst|ArrayDeque.poll|ZipFile.getInflater,0.0,0.10392233333550394,0.0,0.016489999999369804,0.12041233333487374
ArrayList.add|XPathReader.LT|XPathReader.LA,0.0,0.0,0.0,0.0,0.0
ArrayList.calculateCapacity|ArrayList.ensureCapacityInternal|ArrayList.add,0.0,0.0051956288506251605,0.0,0.0010366936441875071,0.006232322494812668
Arrays.copyOf|AbstractStringBuilder.ensureCapacityInternal|AbstractStringBuilder.append,0.0,0.0,0.0,0.0,0.0
Attributes.read|Manifest.read|Manifest.<init>,0.0,0.0,0.0,0.0,0.0
BufferedInputStream.<init>|BufferedInputStream.<init>|ClassPool.makeClass,0.0,0.09102366666532664,0.0,0.013680000001234777,0.10470366666656142
BufferedInputStream.read|DataInputStream.readUnsignedShort|CodeAttribute.<init>,0.0,0.06466674999865063,0.0,0.008445000001302105,0.07311174999995274
BufferedInputStream.read|DataInputStream.readUnsignedShort|DataInputStream.readUTF,0.0,0.0,0.0,0.0,0.0
BufferedInputStream.read|DataInputStream.readUnsignedShort|FieldInfo.read,0.0,0.025166666666336827,0.0,0.004120000000208771,0.0292866666665456
Class$MethodArray.addIfNotPresent|Class$MethodArray.addAllIfNotPresent|Class.privateGetPublicMethods,0.0,0.0,0.0,0.0,0.0
ClassLoader.defineClass1|ClassLoader.defineClass|SecureClassLoader.defineClass,0.0,0.06713875000241387,0.0,0.009224999999787542,0.07636375000220141
ClassLoader.loadClass|ClassLoader.loadClass|ClassTypeResolver.populateType,0.13899249999940366,0.0,0.007533750000220606,0.0,0.14652624999962427
ClassReader.accept|ClassReader.accept|PMDASMClassLoader.getImportedClasses,0.0,0.0,0.0,0.0,0.0
ClassScope.findVariableHere|AbstractScope.contains|Search.searchUpward,0.0,0.0,0.0,0.0,0.0
ClassTypeResolver.visit|ASTVariableDeclaratorId.jjtAccept|SimpleJavaNode.childrenAccept,0.0,0.0,0.0,0.0,0.0
CodeIterator.insertGap2|CodeIterator.insertGapCore1|CodeIterator.insertGapCore0,0.0,0.0,0.0,0.0,0.0
CommonAbstractRule.setName|RuleSetFactory.parseSingleRuleNode|RuleSetFactory.parseRuleNode,0.0,0.0,0.0,0.0,0.0
ConcurrentHashMap.transfer|ConcurrentHashMap.addCount|ConcurrentHashMap.putVal,0.0,0.0,0.0,0.0,0.0
DefaultEqualityExpr.evaluate|DefaultAndExpr.evaluate|DefaultPredicate.evaluate,0.0,0.0,0.0,0.0,0.0
DefaultLocationPath.<init>|DefaultAbsoluteLocationPath.<init>|DefaultXPathFactory.createAbsoluteLocationPath,0.0,0.0,0.0,0.0,0.0
DefaultLocationPath.evaluate|DefaultXPathExpr.asList|BaseXPath.selectNodesForContext,0.0,0.0,0.0,0.0,0.0
DefaultXPathFactory.createAbsoluteLocationPath|JaxenHandler.startAbsoluteLocationPath|XPathReader.absoluteLocationPath,0.0,0.0,0.0,0.0,0.0
DeferredDocumentImpl.ensureCapacity|DeferredDocumentImpl.createNode|DeferredDocumentImpl.createDeferredTextNode,0.0,0.0091560553410746,0.0,0.0014081081080733182,0.010564163449147918
FileInputStream.readBytes|FileInputStream.read|XMLEntityManager$RewindableInputStream.read,0.0,0.0,0.0,0.0,0.0
FileOutputStream.close0|FileOutputStream.access$000|FileOutputStream$1.close,0.0,0.0804036666668253,0.0,0.01096000000203882,0.09136366666886413
FileOutputStream.open0|FileOutputStream.open|FileOutputStream.<init>,0.0,0.14394138889151187,0.0,0.021987499999846075,0.16592888889135793
FileOutputStream.writeBytes|FileOutputStream.write|BufferedOutputStream.flushBuffer,0.0,0.0,0.0,0.0,0.0
FileOutputStream.writeBytes|FileOutputStream.write|BufferedOutputStream.write,0.0,0.07314066666731378,0.0,0.010900000001129229,0.08404066666844301
FileOutputStream.write|FileOutputStream.write|TeeOutputStream.write,0.0,0.07749433333568352,0.0,0.0109599999996135,0.08845433333529702
Finalizer.add|Finalizer.<init>|Finalizer.register,0.0,0.0,0.0,0.0,0.0
Hashtable.hashCode|CommonAbstractRule.hashCode|AbstractList.hashCode,0.0,0.003377024740777706,0.0,0.0006016534348028098,0.003978678175580516
HeapByteBuffer.<init>|ByteBuffer.allocate|StreamDecoder.<init>,0.0,0.0,0.0,0.0,0.0
ImageFinderFunction.<init>|LocalScope.findVariableHere|AbstractScope.contains,0.0,0.0,0.0,0.0,0.0
ImageFinderFunction.getDecl|LocalScope.findVariableHere|AbstractScope.contains,0.0,0.0,0.0,0.0,0.0
Inflater.inflateBytes|Inflater.inflate|InflaterInputStream.read,0.0,0.13191699999879347,0.0,0.02055500000036166,0.15247199999915512
JJTJavaParserState.openNodeScope|JavaParser.ConditionalAndExpression|JavaParser.ConditionalOrExpression,0.0,0.09902185724427656,0.0,0.01787257603047262,0.11689443327474919
JarURLConnection.connect|JarURLConnection.getInputStream|URL.openStream,0.0,0.0,0.0,0.0,0.0
Java15Parser.parse|PMD.processFile|PMD.processFile,0.0,0.0,0.0,0.0,0.0
JavaCharStream.UpdateLineColumn|JavaCharStream.readChar|JavaCharStream.BeginToken,0.0,0.1044718888879288,0.0,0.021798333333410684,0.1262702222213395
JavaParser.isNextTokenAnAssert|JavaParser.jj_3R_74|JavaParser.jj_3_39,0.0,0.0,0.0,0.0,0.0
JavaParser.jj_3R_135|JavaParser.jj_3R_84|JavaParser.jj_3_28,0.03276369999985036,0.0,0.0012479999990318905,0.0,0.034011699998882254
JavaParser.jj_3R_77|JavaParser.jj_3_14|JavaParser.jj_3R_70,0.0,0.0,0.0,0.0,0.0
JavaParserTokenManager.jjMoveNfa_0|JavaParserTokenManager.jjStartNfa_0|JavaParserTokenManager.jjMoveStringLiteralDfa1_0,0.0,0.0,0.0,0.0,0.0
JaxenHandler.endAllNodeStep|XPathReader.nodeTypeTest|XPathReader.nodeTest,0.0,0.0,0.0,0.0,0.0
JaxenHandler.endStep|JaxenHandler.endNameStep|XPathReader.nameTest,0.0,0.0,0.0,0.0,0.0
LinkedList.isPositionIndex|LinkedList.checkPositionIndex|LinkedList.listIterator,0.023803510769156183,0.0,0.0012318923075620727,0.0,0.025035403076718254
LinkedList.unlinkLast|LinkedList.removeLast|JaxenHandler.pop,0.0,0.0,0.0,0.0,0.0
LogManager$LoggerContext.<init>|LogManager$LoggerContext.<init>|LogManager$SystemLoggerContext.<init>,0.0,0.05737305555360056,0.0,0.009179166667713113,0.06655222222131367
Logger.<clinit>|PMD.<clinit>|Class.forName0,0.0,0.0,0.0,0.0,0.0
MetaIndex.mayContain|URLClassPath$JarLoader.getResource|URLClassPath.getResource,0.0,0.0,0.0,0.0,0.0
Method.copy|ReflectAccess.copyMethod|ReflectionFactory.copyMethod,0.0,0.0,0.0,0.0,0.0
NodeImpl.<init>|AttrImpl.<init>|DeferredAttrImpl.<init>,0.04544270000005781,0.0,0.0020679999999022886,0.0,0.0475106999999601
NodeImpl.needsSyncData|ElementImpl.getNodeName|RuleSetFactory.parseSingleRuleNode,0.0,0.0,0.0,0.0,0.0
Pattern$Start.match|Matcher.search|Matcher.find,0.0,0.006823258342773793,0.0,0.001464785104587615,0.008288043447361408
Pattern.compile|Pattern.<init>|Pattern.compile,0.0,0.0,0.0,0.0,0.0
Report.<init>|RuleContext.<init>|PMD.doPMD,0.0,0.04462363888726234,0.0,0.00635833333399205,0.05098197222125439
ScopeAndDeclarationFinder.createLocalScope|ScopeAndDeclarationFinder.visit|ASTBlock.jjtAccept,0.0,0.0,0.0,0.0,0.0
SimpleJavaNode.childrenAccept|AbstractJavaRule.visit|AbstractJavaRule.visit,0.0,0.094116333333659,0.0,0.01778999999805819,0.11190633333171719
SimpleJavaNode.childrenAccept|JavaParserVisitorAdapter.visit|JavaParserVisitorAdapter.visit,0.0,0.0,0.0,0.0,0.0
SimpleNode.<init>|SimpleNode.<init>|SimpleJavaNode.<init>,0.0,0.02274575632158533,0.0,0.004725724137816365,0.027471480459401697
SimpleNode.getImage|AbstractNameDeclaration.getImage|ImageFinderFunction.applyTo,0.0,0.0,0.0,0.0,0.0
String.charAt|UTF8.utf8Length|UTF8.encode,0.0,0.0,0.0,0.0,0.0
String.charAt|XPathLexer.LA|XPathLexer.identifier,0.0,0.0,0.0,0.0,0.0
String.getChars|String.concat|URLClassLoader$1.run,0.0,0.0,0.0,0.0,0.0
String.replace|URLClassLoader$1.run|URLClassLoader$1.run,0.0,0.0,0.0,0.0,0.0
String.substring|Token.getTokenText|XPathReader.axisSpecifier,0.0,0.0,0.0,0.0,0.0
StringBuilder.append|ClassClassPath.find|ClassPoolTail.find,0.0,0.10060633333584217,0.0,0.009815000000041131,0.1104213333358833
StringBuilder.toString|URLStreamHandler.parseURL|Handler.parseURL,0.0,0.0,0.0,0.0,0.0
SymbolTable.addSymbol|XMLEntityScanner.scanName|XMLDocumentFragmentScannerImpl.scanStartElement,0.0,0.0,0.0,0.0,0.0
TeeOutputStream.write|FilterOutputStream.write|PrintStream.write,0.0,0.07904812500025096,0.0,0.010018125000139358,0.08906625000039033
Throwable.fillInStackTrace|Throwable.fillInStackTrace|Throwable.<init>,0.0,0.33388034985238957,0.0,0.06511249114865915,0.3989928410010487
Token.getTokenType|XPathLexer.nextToken|XPathReader.LT,0.005971559999946437,0.0,0.00027587368415736004,0.0,0.006247433684103797
Token.setTokenType|Token.<init>|XPathLexer.rightParen,0.0,0.0,0.0,0.0,0.0
Token.setTokenType|Token.<init>|XPathLexer.whitespace,0.0,0.0019927656492106788,0.0,0.00031840877299554307,0.002311174422206222
URLClassLoader.getAndVerifyPackage|URLClassLoader.definePackageInternal|URLClassLoader.defineClass,0.0,0.0,0.0,0.0,0.0
URLClassLoader.isSealed|URLClassLoader.getAndVerifyPackage|URLClassLoader.definePackageInternal,0.0,0.0,0.0,0.0,0.0
UTF8.utf8Length|UTF8.encode|ClassFileAssembler.emitConstantPoolUTF8,0.0,0.0,0.0,0.0,0.0
UTF8Reader.read|XMLEntityScanner.load|XMLEntityScanner.peekChar,0.0,0.021698367719532815,0.0,0.0032752864951684493,0.024973654214701265
UTF8Reader.read|XMLEntityScanner.load|XMLEntityScanner.scanContent,0.03814591721496052,0.002808856874937803,0.0016861137401745462,0.0004086549629086696,0.043049542792981545
UTF8Reader.read|XMLEntityScanner.load|XMLEntityScanner.scanName,0.002041132026990021,0.004169455910043737,9.752243627910778e-05,0.0006017175913499456,0.006909827964662811
UTF8Reader.read|XMLEntityScanner.load|XMLEntityScanner.skipSpaces,0.010696275977578565,0.0183121106821492,0.0005199494621570137,0.0028162162161466365,0.032344552338031414
UnixFileSystem.createDirectory|File.mkdir|Benchmark.unpackZipStream,0.0,0.0,0.0,0.0,0.0
UnixFileSystem.getBooleanAttributes0|UnixFileSystem.getBooleanAttributes|File.exists,0.0,0.0,0.0,0.0,0.0
Unsafe.defineClass|ClassDefiner.defineClass|MethodAccessorGenerator$1.run,0.0,0.0,0.0,0.0,0.0
XML11Configuration.<init>|XIncludeAwareParserConfiguration.<init>|XIncludeAwareParserConfiguration.<init>,0.0,0.0,0.0,0.0,0.0
XMLDocumentFragmentScannerImpl.scanAttribute|XMLDocumentFragmentScannerImpl.scanStartElement|XMLDocumentFragmentScannerImpl$FragmentContentDispatcher.dispatch,0.0,0.0,0.0,0.0,0.0
XMLDocumentFragmentScannerImpl.scanCDATASection|XMLDocumentFragmentScannerImpl$FragmentContentDispatcher.dispatch|XMLDocumentFragmentScannerImpl.scanDocument,0.0,0.0018433516483832239,0.0,0.00026492673993040717,0.002108278388313631
XMLDocumentFragmentScannerImpl.scanEndElement|XMLDocumentFragmentScannerImpl$FragmentContentDispatcher.dispatch|XMLDocumentFragmentScannerImpl.scanDocument,0.0,0.0,0.0,0.0,0.0
XMLEntityScanner.scanName|XMLDocumentFragmentScannerImpl.scanStartElement|XMLDocumentFragmentScannerImpl$FragmentContentDispatcher.dispatch,0.0008390383319558463,0.0,3.570026647662373e-05,0.0,0.00087473859843247
XMLEntityScanner.skipDeclSpaces|XMLVersionDetector.determineDocVersion|XML11Configuration.parse,0.0,0.0,0.0,0.0,0.0
XPathLexer.LA|XPathLexer.identifier|XPathLexer.identifierOrOperatorName,0.0,0.025196563035045142,0.0,0.0053814752760792785,0.03057803831112442
XPathLexer.isIdentifierChar|XPathLexer.identifier|XPathLexer.identifierOrOperatorName,0.0072473382820901905,0.0,0.0002772534464918396,0.0,0.00752459172858203
XPathReader.LA|XPathReader.predicates|XPathReader.nameTest,0.0,0.027907714190497625,0.0,0.005850511426158067,0.033758225616655695
XPathReader.LA|XPathReader.relativeLocationPath|XPathReader.locationPath,0.0,0.025196563035045142,0.0,0.0053814752760792785,0.03057803831112442
XPathReader.LT|XPathReader.LA|XPathReader.step,0.0,0.027907714190497625,0.0,0.005850511426158067,0.033758225616655695
ZipFile$ZipFileInputStream.<init>|ZipFile.getInputStream|JarFile.getInputStream,0.0,0.04048666666575526,0.0,0.0056958333334478075,0.04618249999920307
ZipFile.getEntry|JarFile.getEntry|JarFile.getJarEntry,0.0,0.09604357894721416,0.0,0.0122352631572683,0.10827884210448246
ZipFile.getEntry|ZipFile.getEntry|JarFile.getEntry,0.0,0.0,0.0,0.0,0.0
ZipFile.open|ZipFile.<init>|ZipFile.<init>,0.0,0.0,0.0,0.0,0.0
ZipFile.read|ZipFile.access$1400|ZipFile$ZipFileInputStream.read,0.0,0.0,0.0,0.0,0.0
