dram,epoch,package,socket
0.0,0,0.0,1
0.0,1,0.0,1
0.19011000000318745,2,1.4635009999983595,1
0.0,3,0.0,1
0.002909999999246793,4,0.025756999995792285,1
0.0,5,0.0,1
0.002909999999246793,6,0.02880899999581743,1
0.0,7,0.0,1
0.0029400000003079185,8,0.027466000006825197,1
0.0,9,0.0,1
0.02681999999913387,10,0.223082999997132,1
0.0,11,0.0,1
0.002909999999246793,12,0.02313299999514129,1
0.0,13,0.0,1
0.004020000002128654,14,0.024414000006800052,1
0.0,15,0.0,1
0.004079999998793937,16,0.02606200000445824,1
0.0,17,0.0,1
0.0,18,0.0,1
0.0,19,0.0,1
0.02628000000004249,20,0.2112419999903068,1
0.0,21,0.0,1
0.0,22,0.0,1
0.0,23,0.0,1
0.020490000000791042,24,0.19543500000145286,1
0.0,25,0.0,1
0.02636999999958789,26,0.26971400000184076,1
0.0,27,0.0,1
0.022259999999732827,28,0.20861800000420772,1
0.0,29,0.0,1
0.04386000000158674,30,0.3223879999932251,1
0.0,31,0.0,1
0.005834999999933643,32,0.04656999999861,1
0.0,33,0.0,1
0.023309999998673447,34,0.18689000000449596,1
0.0,35,0.0,1
0.025649999999586726,36,0.1731560000043828,1
0.0,37,0.0,1
0.034440000001268345,38,0.2197879999948782,1
0.0,39,0.0,1
0.0604799999982788,40,0.39923100000305567,1
0.0,41,0.0,1
0.004080000000612927,42,0.02551300000050105,1
0.0,43,0.0,1
0.03223500000058266,44,0.20428399999946123,1
0.0,45,0.0,1
0.03250500000103784,46,0.2041629999948782,1
0.0,47,0.0,1
0.03236999999899126,48,0.2112420000048587,1
0.0,49,0.0,1
0.04477500000029977,50,0.2897949999969569,1
0.0,51,0.0,1
0.015149999999266583,52,0.12274199999956181,1
0.0,53,0.0,1
0.03057000000080734,54,0.21319599999696948,1
0.0,55,0.0,1
0.030704999999215943,56,0.22692900000402005,1
0.0,57,0.0,1
0.027509999999892898,58,0.17883299999812152,1
0.0,59,0.0,1
0.03976499999953376,60,0.33404500000324333,1
0.0,61,0.0,1
0.01284000000123342,62,0.107056000000739,1
0.0,63,0.0,1
0.22571999999854597,64,1.670470999997633,1
0.0,65,0.0,1
0.0,66,0.0,1
0.0,67,0.0,1
0.0059999999994033715,68,0.03308100000140257,1
0.0,69,0.0,1
0.014910000003510504,70,0.09771699999691918,1
0.0,71,0.0,1
0.004019999998490675,72,0.031861000003118534,1
0.0,73,0.0,1
0.0,74,0.0,1
0.0,75,0.0,1
0.016094999999040738,76,0.11975099999835948,1
0.0,77,0.0,1
0.02907000000050175,78,0.20513900000514695,1
0.0,79,0.0,1
0.040440000000671716,80,0.2520749999966938,1
0.0,81,0.0,1
0.020100000001548324,82,0.12359599999763304,1
0.0,83,0.0,1
0.03656999999839172,84,0.20172099999763304,1
0.0,85,0.0,1
0.03247499999997672,86,0.18566899999859743,1
0.0,87,0.0,1
0.02838000000156171,88,0.1918950000035693,1
0.0,89,0.0,1
0.03941999999733525,90,0.23345900000276743,1
0.0,91,0.0,1
0.020220000000335858,92,0.12194799999997485,1
0.0,93,0.0,1
0.03652499999952852,94,0.2252809999990859,1
0.0,95,0.0,1
0.03228000000126485,96,0.20635999999649357,1
0.0,97,0.0,1
0.03223499999876367,98,0.20941200000379467,1
0.0,99,0.0,1
0.04396500000075321,100,0.2743530000007013,1
0.0,101,0.0,1
0.0199800000009418,102,0.13031000000046333,1
0.0,103,0.0,1
0.028200000000651926,104,0.17242399999668123,1
0.0,105,0.0,1
0.032204999997702544,106,0.200500999999349,1
0.0,107,0.0,1
0.045930000002044835,108,0.3109739999999874,1
0.0,109,0.0,1
0.05572500000016589,110,0.4014279999973951,1
0.0,111,0.0,1
0.004019999998490675,112,0.027893000005860813,1
0.0,113,0.0,1
0.02838000000156171,114,0.16491700000187848,1
0.0,115,0.0,1
0.02816999999777181,116,0.1964109999971697,1
0.0,117,0.0,1
0.032340000001568114,118,0.1967159999985597,1
0.0,119,0.0,1
0.06913499999791384,120,0.4136359999974957,1
0.0,121,0.0,1
0.0038400000012188684,122,0.026794000004883856,1
0.0,123,0.0,1
0.02028000000063912,124,0.12310799999977462,1
0.0,125,0.0,1
0.03247499999997672,126,0.19574000000284286,1
0.0,127,0.0,1
0.03250499999921885,128,0.18841499999689404,1
0.0,129,0.0,1
0.06378000000040629,130,0.3679199999969569,1
0.0,131,0.0,1
0.004019999998490675,132,0.022216999997908715,1
0.0,133,0.0,1
0.0325200000024779,134,0.17785600000206614,1
0.0,135,0.0,1
0.02726999999867985,136,0.16314700000657467,1
0.0,137,0.0,1
0.03246000000035565,138,0.18133599999418948,1
0.0,139,0.0,1
0.06517499999972642,140,0.3682859999971697,1
0.0,141,0.0,1
0.004080000000612927,142,0.02356000000872882,1
0.0,143,0.0,1
0.03086999999868567,144,0.21887199999764562,1
0.0,145,0.0,1
0.03079500000239932,146,0.23266599999624304,1
0.0,147,0.0,1
0.033839999996416736,148,0.29339600000093924,1
0.0,149,0.0,1
0.10608000000138418,150,0.9434199999959674,1
0.0,151,0.0,1
0.008744999999180436,152,0.07574500000919215,1
0.0,153,0.0,1
0.003824999999778811,154,0.037108999997144565,1
0.0,155,0.0,1
0.07012500000018917,156,0.7208249999966938,1
0.0,157,0.0,1
0.003824999999778811,158,0.036927000001014676,1
0.0,159,0.0,1
0.04747500000121363,160,0.47680599999875994,1
0.0,161,0.0,1
0.01179000000047381,162,0.11529600000358187,1
0.0,163,0.0,1
0.008145000001604785,164,0.07354699999996228,1
0.0,165,0.0,1
0.02840999999898486,166,0.26446500000020023,1
0.0,167,0.0,1
0.0281699999995908,168,0.2672119999988354,1
0.0,169,0.0,1
0.09629999999924621,170,0.9163209999969695,1
0.0,171,0.0,1
0.007859999999709544,172,0.07653800000116462,1
0.0,173,0.0,1
0.003885000001901062,174,0.03924600000027567,1
0.0,175,0.0,1
0.023939999997310224,176,0.22894300000189105,1
0.0,177,0.0,1
0.028050000000803266,178,0.26934800000162795,1
0.0,179,0.0,1
0.09679500000129337,180,0.9536739999966812,1
0.0,181,0.0,1
0.005969999998342246,182,0.04284699999698205,1
0.0,183,0.0,1
0.005984999999782303,184,0.04364000000350643,1
0.0,185,0.0,1
0.02403000000231259,186,0.20916700000088895,1
0.0,187,0.0,1
0.10214999999880092,188,0.7000740000003134,1
0.0,189,0.0,1
0.1497749999998632,190,1.0507809999980964,1
0.0,191,0.0,1
0.01486500000100932,192,0.1406859999988228,1
0.0,193,0.0,1
0.009959999999409774,194,0.09271200000512181,1
0.0,195,0.0,1
0.06904499999836844,196,0.41619899999932386,1
0.0,197,0.0,1
0.0058200000021315645,198,0.04278599999815924,1
0.0,199,0.0,1
0.09022499999991851,200,0.6647339999981341,1
0.0,201,0.0,1
0.01397999999790045,202,0.09643500000674976,1
0.0,203,0.0,1
0.012930000002597808,204,0.09191899999859743,1
0.0,205,0.0,1
0.020474999999350985,206,0.1780399999988731,1
0.0,207,0.0,1
0.03215999999883934,208,0.3161619999955292,1
0.0,209,0.0,1
0.06861000000026252,210,0.6972040000036941,1
0.0,211,0.0,1
0.008160000001225853,212,0.07751499999722,1
0.0,213,0.0,1
0.04069499999968684,214,0.4303589999981341,1
0.0,215,0.0,1
0.004080000000612927,216,0.038086000000475906,1
0.0,217,0.0,1
0.028304999997999403,218,0.2723390000028303,1
0.0,219,0.0,1
0.5257800000017596,220,4.174986999998509,1
0.0,221,0.0,1
0.06992999999783933,222,0.5443730000042706,1
0.0,223,0.0,1
0.005985000003420282,224,0.048583999996481,1
0.0,225,0.0,1
0.0674399999970774,226,0.38110299999971176,1
0.0,227,0.0,1
0.007905000000391738,228,0.04303000000072643,1
0.0,229,0.0,1
0.06463500000063505,230,0.4608769999977085,1
0.0,231,0.0,1
0.0049499999986437615,232,0.04144300000189105,1
0.0,233,0.0,1
0.0059550000023591565,234,0.04229699999996228,1
0.0,235,0.0,1
0.0,236,0.0,1
0.0,237,0.0,1
0.005969999998342246,238,0.03857399999833433,1
0.0,239,0.0,1
0.05364000000008673,240,0.4286500000016531,1
0.0,241,0.0,1
0.0070500000001629815,242,0.043762000001152046,1
0.0,243,0.0,1
0.006015000000843429,244,0.042968999994627666,1
0.0,245,0.0,1
0.0,246,0.0,1
0.0,247,0.0,1
0.007004999997661798,248,0.05285600000206614,1
0.0,249,0.0,1
0.04966500000227825,250,0.36682200000359444,1
0.0,251,0.0,1
0.0069149999999353895,252,0.05438200000207871,1
0.0,253,0.0,1
0.006975000000238651,254,0.05090299999574199,1
0.0,255,0.0,1
0.006930000001375447,256,0.0516360000037821,1
0.0,257,0.0,1
0.008009999999558204,258,0.054870999992999714,1
0.0,259,0.0,1
0.16997999999694002,260,1.255432000005385,1
0.0,261,0.0,1
0.012045000003126916,262,0.10327099999994971,1
0.0,263,0.0,1
0.0,264,0.0,1
0.0,265,0.0,1
0.035640000000057626,266,0.3038329999981215,1
0.0,267,0.0,1
0.09586499999750231,268,0.6269530000063241,1
0.0,269,0.0,1
0.07604999999966822,270,0.6013189999939641,1
0.0,271,0.0,1
0.005940000000919099,272,0.050232000001415145,1
0.0,273,0.0,1
0.05388000000129978,274,0.44378600000345614,1
0.0,275,0.0,1
0.035939999999754946,276,0.3029179999939515,1
0.0,277,0.0,1
0.1745100000007369,278,1.471863000006124,1
0.0,279,0.0,1
0.05380499999773747,280,0.48095699999976205,1
0.0,281,0.0,1
0.16717500000049768,282,1.2858269999996992,1
0.0,283,0.0,1
0.006974999998419662,284,0.04931699999724515,1
0.0,285,0.0,1
0.006990000001678709,286,0.05200199999671895,1
0.0,287,0.0,1
0.014025000000401633,288,0.09716800000023795,1
0.0,289,0.0,1
0.21032999999988533,290,1.634460000001127,1
0.0,291,0.0,1
0.009750000001076842,292,0.09619199999724515,1
0.0,293,0.0,1
0.009794999998121057,294,0.0950310000043828,1
0.0,295,0.0,1
0.006045000001904555,296,0.048949999996693805,1
0.0,297,0.0,1
0.054794999998193816,298,0.48108000000502216,1
0.0,299,0.0,1
0.06596999999965192,300,0.6213980000029551,1
0.0,301,0.0,1
0.009810000001380104,302,0.09167499999603024,1
0.0,303,0.0,1
0.009809999999561114,304,0.09521500000118976,1
0.0,305,0.0,1
0.006015000000843429,306,0.05206299999554176,1
0.0,307,0.0,1
0.004904999997961568,308,0.04412900000170339,1
0.0,309,0.0,1
0.06577500000094005,310,0.6335440000038943,1
0.0,311,0.0,1
0.2306700000008277,312,1.533447999994678,1
0.0,313,0.0,1
0.007004999999480788,314,0.045409999998810235,1
0.0,315,0.0,1
0.005895000002055895,316,0.048828000006324146,1
0.0,317,0.0,1
0.011924999998882413,318,0.04534899999271147,1
0.0,319,0.0,1
0.11300999999912165,320,0.8517460000075516,1
0.0,321,0.0,1
0.012974999999642023,322,0.09741199999552919,1
0.0,323,0.0,1
0.005940000000919099,324,0.05102500000066357,1
0.0,325,0.0,1
0.011969999999564607,326,0.09368900000117719,1
0.0,327,0.0,1
0.005955000000540167,328,0.04693599999882281,1
0.0,329,0.0,1
0.19715999999971245,330,1.6159669999979087,1
0.0,331,0.0,1
0.011879999998200219,332,0.09429900000395719,1
0.0,333,0.0,1
0.005940000000919099,334,0.048034999999799766,1
0.0,335,0.0,1
0.005940000000919099,336,0.046142999999574386,1
0.0,337,0.0,1
0.11605500000041502,338,0.8945919999969192,1
0.0,339,0.0,1
0.07291499999882944,340,0.5236820000063744,1
0.0,341,0.0,1
0.08611500000006345,342,0.6698599999945145,1
0.0,343,0.0,1
0.006945000000996515,344,0.048644999995303806,1
0.0,345,0.0,1
0.006944999999177526,346,0.0519410000051721,1
0.0,347,0.0,1
0.0069899999998597195,348,0.0510260000010021,1
0.0,349,0.0,1
0.06748499999957858,350,0.5715940000009141,1
0.0,351,0.0,1
0.0059550000023591565,352,0.05236799999693176,1
0.0,353,0.0,1
0.00601499999720545,354,0.05279599999630591,1
0.0,355,0.0,1
0.04186500000105298,356,0.4075920000032056,1
0.0,357,0.0,1
0.09658499999932246,358,0.6779180000012275,1
0.0,359,0.0,1
0.1319999999996071,360,0.8890380000011646,1
0.0,361,0.0,1
0.007980000000316068,362,0.05267299999832176,1
0.0,363,0.0,1
0.00804000000061933,364,0.05059800000162795,1
0.0,365,0.0,1
0.04380000000128348,366,0.31286700000055134,1
0.0,367,0.0,1
0.050444999998944695,368,0.4038079999954789,1
0.0,369,0.0,1
0.08457000000089465,370,0.7222290000063367,1
0.0,371,0.0,1
0.017910000000483706,372,0.1498409999985597,1
0.0,373,0.0,1
0.05048999999962689,374,0.4061279999950784,1
0.0,375,0.0,1
0.044504999998025596,376,0.35681200000544777,1
0.0,377,0.0,1
0.05881500000032247,378,0.41174299999693176,1
0.0,379,0.0,1
0.10065000000031432,380,0.7246700000032433,1
0.0,381,0.0,1
0.01608000000123866,382,0.10815500000171596,1
0.0,383,0.0,1
0.04928999999719963,384,0.40551699999923585,1
0.0,385,0.0,1
0.04725000000144064,386,0.3945319999984349,1
0.0,387,0.0,1
0.04717499999969732,388,0.4022820000027423,1
0.0,389,0.0,1
0.08290500000111933,390,0.6954349999941769,1
0.0,391,0.0,1
0.011805000000094878,392,0.10064699999929871,1
0.0,393,0.0,1
0.04742999999871245,394,0.39477500000066357,1
0.0,395,0.0,1
0.04734000000098604,396,0.38678000000072643,1
0.0,397,0.0,1
0.047355000000607106,398,0.36340300000301795,1
0.0,399,0.0,1
0.07735499999944295,400,0.5664679999972577,1
0.0,401,0.0,1
0.017039999998814892,402,0.11584399999992456,1
0.0,403,0.0,1
0.04174500000044645,404,0.3121339999997872,1
0.0,405,0.0,1
0.037304999999832944,406,0.31781000000046333,1
0.0,407,0.0,1
0.03276000000005297,408,0.31396500000118976,1
0.0,409,0.0,1
0.05429999999978463,410,0.48767100000259234,1
0.0,411,0.0,1
0.0076800000006187474,412,0.0719600000011269,1
0.0,413,0.0,1
0.03787499999998545,414,0.3090209999936633,1
0.0,415,0.0,1
0.027975000000878936,416,0.2584839999981341,1
0.0,417,0.0,1
0.0281699999995908,418,0.21832300000096438,1
0.0,419,0.0,1
0.047730000000228756,420,0.3833620000004885,1
0.0,421,0.0,1
0.015359999999418505,422,0.12963899999886053,1
0.0,423,0.0,1
0.035640000000057626,424,0.2873530000069877,1
0.0,425,0.0,1
0.027779999998529092,426,0.21343999999953667,1
0.0,427,0.0,1
0.03208500000255299,428,0.2290649999922607,1
0.0,429,0.0,1
0.044054999998479616,430,0.31341500000417,1
0.0,431,0.0,1
0.0,0,0.0,2
0.0,1,0.0,2
0.21748500000103377,2,1.6723020000063116,2
0.0,3,0.0,2
0.004079999998793937,4,0.03991699998732656,2
0.0,5,0.0,2
0.004140000000916189,6,0.035400000007939525,2
0.0,7,0.0,2
0.004080000000612927,8,0.03717100000358187,2
0.0,9,0.0,2
0.03282000000035623,10,0.27191100000345614,2
0.0,11,0.0,2
0.004079999998793937,12,0.04760799999348819,2
0.0,13,0.0,2
0.004080000000612927,14,0.04498299999977462,2
0.0,15,0.0,2
0.004139999999097199,16,0.03350799999316223,2
0.0,17,0.0,2
0.0,18,0.0,2
0.0,19,0.0,2
0.02868000000125903,20,0.24383500001567882,2
0.0,21,0.0,2
0.004139999999097199,22,0.029601999995065853,2
0.0,23,0.0,2
0.024674999998751446,24,0.17620899999747053,2
0.0,25,0.0,2
0.03702000000157568,26,0.24810799999977462,2
0.0,27,0.0,2
0.03304500000012922,28,0.2161249999917345,2
0.0,29,0.0,2
0.046904999999242136,30,0.39300600001297425,2
0.0,31,0.0,2
0.008160000001225853,32,0.06555099999241065,2
0.0,33,0.0,2
0.03280499999891617,34,0.25183100000140257,2
0.0,35,0.0,2
0.032939999999143765,36,0.24774200000683777,2
0.0,37,0.0,2
0.03696000000127242,38,0.24279799999203533,2
0.0,39,0.0,2
0.0456899999990128,40,0.40185500000370666,2
0.0,41,0.0,2
0.004080000000612927,42,0.03155599998717662,2
0.0,43,0.0,2
0.03281999999853724,44,0.2288200000039069,2
0.0,45,0.0,2
0.02562000000034459,46,0.20361399999819696,2
0.0,47,0.0,2
0.027900000000954606,48,0.2111810000060359,2
0.0,49,0.0,2
0.044879999999466236,50,0.3336180000042077,2
0.0,51,0.0,2
0.01644000000123924,52,0.12603800000215415,2
0.0,53,0.0,2
0.032939999999143765,54,0.23120099998777732,2
0.0,55,0.0,2
0.03303000000050815,56,0.21930000001157168,2
0.0,57,0.0,2
0.03310500000043248,58,0.22991900000488386,2
0.0,59,0.0,2
0.04936500000076194,60,0.3953860000037821,2
0.0,61,0.0,2
0.016439999997601262,62,0.14324899998609908,2
0.0,63,0.0,2
0.1941450000012992,64,1.574707000007038,2
0.0,65,0.0,2
0.0,66,0.0,2
0.0,67,0.0,2
0.006240000000616419,68,0.04089400000520982,2
0.0,69,0.0,2
0.01548000000002503,70,0.1285399999906076,2
0.0,71,0.0,2
0.004079999998793937,72,0.03765899999416433,2
0.0,73,0.0,2
0.0,74,0.0,2
0.0,75,0.0,2
0.0174299999998766,76,0.1718140000157291,2
0.0,77,0.0,2
0.032940000000962755,78,0.31066799999098293,2
0.0,79,0.0,2
0.04115999999885389,80,0.37133799999719486,2
0.0,81,0.0,2
0.020640000000639702,82,0.180848000003607,2
0.0,83,0.0,2
0.03716999999960535,84,0.32659899999271147,2
0.0,85,0.0,2
0.03297000000020489,86,0.2989500000112457,2
0.0,87,0.0,2
0.03305999999975029,88,0.2982179999962682,2
0.0,89,0.0,2
0.041279999999460415,90,0.3714599999948405,2
0.0,91,0.0,2
0.02058000000033644,92,0.19592199999897275,2
0.0,93,0.0,2
0.032940000000962755,94,0.36309900000924245,2
0.0,95,0.0,2
0.03276000000005297,96,0.3370359999971697,2
0.0,97,0.0,2
0.03266999999868858,98,0.34143000000040047,2
0.0,99,0.0,2
0.04086000000097556,100,0.41009600000688806,2
0.0,101,0.0,2
0.02441999999973632,102,0.2616569999809144,2
0.0,103,0.0,2
0.02862000000095577,104,0.2901610000117216,2
0.0,105,0.0,2
0.032639999999446445,106,0.3269659999932628,2
0.0,107,0.0,2
0.04709999999977299,108,0.4510500000033062,2
0.0,109,0.0,2
0.05423999999948137,110,0.5726310000027297,2
0.0,111,0.0,2
0.008160000001225853,112,0.08801300000050105,2
0.0,113,0.0,2
0.028664999997999985,114,0.3041990000056103,2
0.0,115,0.0,2
0.03273000000081083,116,0.3572999999887543,2
0.0,117,0.0,2
0.03276000000005297,118,0.3330080000014277,2
0.0,119,0.0,2
0.06958499999927881,120,0.6972660000028554,2
0.0,121,0.0,2
0.004080000000612927,122,0.04290699999546632,2
0.0,123,0.0,2
0.02044500000010885,124,0.20422400000097696,2
0.0,125,0.0,2
0.0329249999995227,126,0.3228759999910835,2
0.0,127,0.0,2
0.03283500000179629,128,0.31414800000493415,2
0.0,129,0.0,2
0.065534999999727,130,0.629333000004408,2
0.0,131,0.0,2
0.005189999999856809,132,0.035340000002179295,2
0.0,133,0.0,2
0.03380999999899359,134,0.28442399999767076,2
0.0,135,0.0,2
0.030915000001186854,136,0.2511590000067372,2
0.0,137,0.0,2
0.032864999999219435,138,0.29040499999246094,2
0.0,139,0.0,2
0.06576000000131899,140,0.596862999998848,2
0.0,141,0.0,2
0.004079999998793937,142,0.041016000002855435,2
0.0,143,0.0,2
0.03192000000126427,144,0.2881469999992987,2
0.0,145,0.0,2
0.03370499999982712,146,0.31341499999689404,2
0.0,147,0.0,2
0.036089999997784616,148,0.34899899999436457,2
0.0,149,0.0,2
0.18576000000211934,150,1.1952520000049844,2
0.0,151,0.0,2
0.020324999999502324,152,0.10333199999877252,2
0.0,153,0.0,2
0.010199999998803833,154,0.050965000002179295,2
0.0,155,0.0,2
0.1841100000001461,156,0.9578850000107195,2
0.0,157,0.0,2
0.009060000000317814,158,0.05059899999469053,2
0.0,159,0.0,2
0.10795500000131142,160,0.5960080000077141,2
0.0,161,0.0,2
0.022589999998672283,162,0.1358029999973951,2
0.0,163,0.0,2
0.016410000000178115,164,0.095763999997871,2
0.0,165,0.0,2
0.05753999999978987,166,0.33526599999458995,2
0.0,167,0.0,2
0.05718000000160828,168,0.3406379999942146,2
0.0,169,0.0,2
0.19615499999963504,170,1.190918000007514,2
0.0,171,0.0,2
0.016139999997903942,172,0.09729000000515953,2
0.0,173,0.0,2
0.007994999999937136,174,0.05267299999832176,2
0.0,175,0.0,2
0.04995000000053551,176,0.2955319999891799,2
0.0,177,0.0,2
0.0567750000009255,178,0.3443610000103945,2
0.0,179,0.0,2
0.2025900000007823,180,1.2379759999894304,2
0.0,181,0.0,2
0.008219999999710126,182,0.054260000004433095,2
0.0,183,0.0,2
0.008249999998952262,184,0.04705800001102034,2
0.0,185,0.0,2
0.0387750000008964,186,0.24884000000020023,2
0.0,187,0.0,2
0.1258799999995972,188,0.8222659999883035,2
0.0,189,0.0,2
0.18968999999924563,190,1.2372440000035567,2
0.0,191,0.0,2
0.020309999999881256,192,0.16284099999757018,2
0.0,193,0.0,2
0.014370000000781147,194,0.10833800000546034,2
0.0,195,0.0,2
0.06586499999866646,196,0.43914800000493415,2
0.0,197,0.0,2
0.006015000000843429,198,0.050292999992961995,2
0.0,199,0.0,2
0.10819500000070548,200,0.7389519999996992,2
0.0,201,0.0,2
0.01653000000078464,202,0.10559099999954924,2
0.0,203,0.0,2
0.008294999999634456,204,0.05328399999416433,2
0.0,205,0.0,2
0.04115999999885389,206,0.2532960000098683,2
0.0,207,0.0,2
0.05949000000146043,208,0.3878169999952661,2
0.0,209,0.0,2
0.12107999999898311,210,0.8561400000035064,2
0.0,211,0.0,2
0.014385000000402215,212,0.08972199998970609,2
0.0,213,0.0,2
0.08206500000051165,214,0.5176999999966938,2
0.0,215,0.0,2
0.008309999999255524,216,0.04248100001132116,2
0.0,217,0.0,2
0.04523999999946682,218,0.32519499999762047,2
0.0,219,0.0,2
0.7635900000004767,220,4.785521999991033,2
0.0,221,0.0,2
0.08078999999997905,222,0.6113900000054855,2
0.0,223,0.0,2
0.006015000000843429,224,0.053711000000475906,2
0.0,225,0.0,2
0.04529999999977008,226,0.3192129999952158,2
0.0,227,0.0,2
0.007094999999026186,228,0.05133100000966806,2
0.0,229,0.0,2
0.05527499999880092,230,0.49346899999363814,2
0.0,231,0.0,2
0.006165000000692089,232,0.04650900000706315,2
0.0,233,0.0,2
0.0062099999995552935,234,0.046142999999574386,2
0.0,235,0.0,2
0.0,236,0.0,2
0.0,237,0.0,2
0.006225000000995351,238,0.04553200000373181,2
0.0,239,0.0,2
0.06192000000010012,240,0.46710199999506585,2
0.0,241,0.0,2
0.006135000001449953,242,0.052733999997144565,2
0.0,243,0.0,2
0.0061649999988731,244,0.04870600000140257,2
0.0,245,0.0,2
0.0,246,0.0,2
0.0,247,0.0,2
0.006194999999934225,248,0.05542000000423286,2
0.0,249,0.0,2
0.043154999999387655,250,0.3745729999936884,2
0.0,251,0.0,2
0.006120000000009895,252,0.05346700000518467,2
0.0,253,0.0,2
0.006090000000767759,254,0.05395499999576714,2
0.0,255,0.0,2
0.00608999999894877,256,0.05584699999599252,2
0.0,257,0.0,2
0.006120000000009895,258,0.05413800000678748,2
0.0,259,0.0,2
0.1563750000004802,260,1.3346560000063619,2
0.0,261,0.0,2
0.008280000000013388,262,0.057921999992686324,2
0.0,263,0.0,2
0.00713999999970838,264,0.05914300000586081,2
0.0,265,0.0,2
0.034814999999071006,266,0.27264399999694433,2
0.0,267,0.0,2
0.09441000000151689,268,0.7049560000014026,2
0.0,269,0.0,2
0.08320499999899766,270,0.5959480000019539,2
0.0,271,0.0,2
0.0165900000010879,272,0.10504099998797756,2
0.0,273,0.0,2
0.07418999999936204,274,0.4971320000040578,2
0.0,275,0.0,2
0.04941000000144413,276,0.32873500000278,2
0.0,277,0.0,2
0.25592999999935273,278,1.6097410000074888,2
0.0,279,0.0,2
0.09046499999931257,280,0.5256349999981467,2
0.0,281,0.0,2
0.22111500000028173,282,1.4223019999917597,2
0.0,283,0.0,2
0.00826500000039232,284,0.05468800000380725,2
0.0,285,0.0,2
0.008309999999255524,286,0.050537000002805144,2
0.0,287,0.0,2
0.016470000000481377,288,0.10565199999837205,2
0.0,289,0.0,2
0.27995999999984633,290,1.7678830000077141,2
0.0,291,0.0,2
0.01651500000116357,292,0.1080929999880027,2
0.0,293,0.0,2
0.016589999997449922,294,0.10357700000167824,2
0.0,295,0.0,2
0.008280000001832377,296,0.05065900000045076,2
0.0,297,0.0,2
0.08035500000005413,298,0.5348510000039823,2
0.0,299,0.0,2
0.10756499999843072,300,0.6781619999965187,2
0.0,301,0.0,2
0.01644000000123924,302,0.10430900000210386,2
0.0,303,0.0,2
0.0165900000010879,304,0.10302700000465848,2
0.0,305,0.0,2
0.008249999998952262,306,0.05499299998336937,2
0.0,307,0.0,2
0.00826500000039232,308,0.05188000001362525,2
0.0,309,0.0,2
0.09928500000023632,310,0.6986079999915091,2
0.0,311,0.0,2
0.2549699999981385,312,1.673279000009643,2
0.0,313,0.0,2
0.008160000001225853,314,0.05194099999789614,2
0.0,315,0.0,2
0.00811499999872467,316,0.049499000000650994,2
0.0,317,0.0,2
0.008220000001529115,318,0.053527999989455566,2
0.0,319,0.0,2
0.14668499999970663,320,0.9417730000131996,2
0.0,321,0.0,2
0.016274999999950523,322,0.10504099998797756,2
0.0,323,0.0,2
0.008130000000164728,324,0.05358900000283029,2
0.0,325,0.0,2
0.016154999999344,326,0.10199000001011882,2
0.0,327,0.0,2
0.008159999999406864,328,0.05450399999972433,2
0.0,329,0.0,2
0.28012500000113505,330,1.793151999998372,2
0.0,331,0.0,2
0.016200000000026193,332,0.10473599999386352,2
0.0,333,0.0,2
0.008219999999710126,334,0.05297900000005029,2
0.0,335,0.0,2
0.008219999999710126,336,0.05157499999040738,2
0.0,337,0.0,2
0.1252199999998993,338,0.9254760000039823,2
0.0,339,0.0,2
0.07773000000088359,340,0.6102290000126231,2
0.0,341,0.0,2
0.10381500000039523,342,0.7175289999868255,2
0.0,343,0.0,2
0.008159999999406864,344,0.05865500000072643,2
0.0,345,0.0,2
0.00826500000039232,346,0.0516360000037821,2
0.0,347,0.0,2
0.008234999999331194,348,0.05517599999438971,2
0.0,349,0.0,2
0.0904499999996915,350,0.6159660000121221,2
0.0,351,0.0,2
0.008205000000089058,352,0.055787000004784204,2
0.0,353,0.0,2
0.00819000000046799,354,0.057372999988729134,2
0.0,355,0.0,2
0.06580500000018219,356,0.44787600000563543,2
0.0,357,0.0,2
0.10419000000001688,358,0.7056880000018282,2
0.0,359,0.0,2
0.11048999999911757,360,0.9714969999913592,2
0.0,361,0.0,2
0.006015000000843429,362,0.05816600000252947,2
0.0,363,0.0,2
0.006120000000009895,364,0.053711000000475906,2
0.0,365,0.0,2
0.040754999999990105,366,0.3235480000003008,2
0.0,367,0.0,2
0.06573000000025786,368,0.43701100000180304,2
0.0,369,0.0,2
0.11274000000048545,370,0.7492070000007516,2
0.0,371,0.0,2
0.02455499999996391,372,0.15484599999035709,2
0.0,373,0.0,2
0.06010499999865715,374,0.39514200000849087,2
0.0,375,0.0,2
0.04657500000030268,376,0.3633419999969192,2
0.0,377,0.0,2
0.05125500000031025,378,0.42706299999554176,2
0.0,379,0.0,2
0.0858299999999872,380,0.7504880000051344,2
0.0,381,0.0,2
0.01224000000001979,382,0.10504200001014397,2
0.0,383,0.0,2
0.04853999999977532,384,0.4342649999889545,2
0.0,385,0.0,2
0.04965000000083819,386,0.4333489999989979,2
0.0,387,0.0,2
0.05047500000000582,388,0.42816200001107063,2
0.0,389,0.0,2
0.08885999999984051,390,0.7299189999903319,2
0.0,391,0.0,2
0.012059999999110005,392,0.105347000004258,2
0.0,393,0.0,2
0.04846499999985099,394,0.4190059999964433,2
0.0,395,0.0,2
0.05298000000038883,396,0.38568200000736397,2
0.0,397,0.0,2
0.04891499999939697,398,0.3736570000037318,2
0.0,399,0.0,2
0.0795300000008865,400,0.6193849999835948,2
0.0,401,0.0,2
0.016499999999723514,402,0.1351310000027297,2
0.0,403,0.0,2
0.048404999999547726,404,0.3558960000082152,2
0.0,405,0.0,2
0.03387000000111584,406,0.37060599999676924,2
0.0,407,0.0,2
0.04424999999901047,408,0.35040299998945557,2
0.0,409,0.0,2
0.07430999999996857,410,0.5742800000152783,2
0.0,411,0.0,2
0.012450000000171713,412,0.08734099999128375,2
0.0,413,0.0,2
0.05346000000099593,414,0.3723750000062864,2
0.0,415,0.0,2
0.03071999999883701,416,0.33215399998880457,2
0.0,417,0.0,2
0.02839499999936379,418,0.2805170000065118,2
0.0,419,0.0,2
0.05754000000160886,420,0.4931030000007013,2
0.0,421,0.0,2
0.01952999999957683,422,0.16088900000613648,2
0.0,423,0.0,2
0.048344999999244465,424,0.34612999999080785,2
0.0,425,0.0,2
0.035804999999527354,426,0.2555540000030305,2
0.0,427,0.0,2
0.03682500000104483,428,0.2940680000028806,2
0.0,429,0.0,2
0.04906500000106462,430,0.3735349999915343,2
0.0,431,0.0,2
