method,package1,package2,dram1,dram2,energy
AppContext$2.run|AppContext$2.run|AccessController.doPrivileged,0.053959629630332566,0.0,0.006089999999420359,0.0,0.060049629629752924
Benchmark.<init>|NativeConstructorAccessorImpl.newInstance0|NativeConstructorAccessorImpl.newInstance,0.2010902962976144,0.0,0.023667777776912164,0.0,0.22475807407452658
Benchmark.fileFromInputStream|Benchmark.extractFileResource|Benchmark.prepareJars,0.03870846666638196,0.0,0.004297999999835155,0.0,0.043006466666217116
BoundingBox.getMaximum|KDTree.intersect|Geometry.intersect,0.023901941211112068,0.0,0.003216040253023952,0.0,0.02711798146413602
BoundingIntervalHierarchy.intersect|Scene.trace|LightServer.getRadiance,0.0,0.01261475872680979,0.0,0.0019536931197839816,0.01456845184659377
BoundingIntervalHierarchy.intersect|Scene.trace|Scene.traceShadow,0.5414744440879334,0.6977720972134579,0.05972699844197458,0.11063351137427019,1.4096070511176362
BucketRenderer$ImageSample.bilerp|BucketRenderer.refineSamples|BucketRenderer.renderBucket,0.028319506666933492,0.0,0.0027279333334121877,0.0,0.03104744000034568
BucketRenderer$ImageSample.checkNanInf|BucketRenderer$ImageSample.set|BucketRenderer.computeSubPixel,0.0,0.005321413953450161,0.0,0.0008399302325499796,0.006161344186000141
BucketRenderer.renderBucket|BucketRenderer.access$300|BucketRenderer$BucketThread.run,0.0025259611792010548,0.0013407397221777096,0.0003690218350988257,0.00017774999998032906,0.004413472736457919
ByteInterleavedRaster.getDataElements|BufferedImage.getRGB|Benchmark.<init>,0.06740509090873686,0.0,0.009471818181654351,0.0,0.07687690909039122
Callback.init|TestHarness.runBenchmark|TestHarness.main,0.014265933333323724,0.0,0.0017980000001747009,0.0,0.016063933333498426
ClassFile.read|ClassFile.<init>|CtClassType.<init>,0.0546966808506887,0.0,0.007151170213043595,0.0,0.06184785106373229
ClassInfo.<init>|ConstPool.readOne|ConstPool.read,0.0548196666665414,0.0,0.007032499999695574,0.0,0.061852166666236975
Color.copy|LightSample.setRadiance|TriangleMeshLight$TriangleLight.getSamples,0.0,0.01929451515157284,0.0,0.0031777272727071468,0.022472242424279986
Color.mul|TriangleMeshLight$TriangleLight.getSamples|LightServer.initLightSamples,0.0,0.016458460868186447,0.0,0.003012739352818503,0.01947120022100495
Config.parse|TestHarness.<init>|TestHarness.main,0.02290446666641704,0.0,0.0022270000001299193,0.0,0.02513146666654696
ConfigFile.<init>|ConfigFile.<init>|Config.parse,0.00532633333374785,0.0,0.0005900000000110593,0.0,0.005916333333758909
ConstPool.getUtf8Info|ConstPool.getClassInfo|Tracer.doOpcode148_201,0.0362956666667742,0.0,0.005429999999857197,0.0,0.0417256666666314
ConstPool.readOne|ConstPool.read|ConstPool.<init>,0.02262104166675272,0.0,0.003400000000510772,0.0,0.026021041667263493
DSA.generateV|DSA.engineVerify|DSA.engineVerify,0.042154823528607284,0.0,0.00508470588258705,0.0,0.04723952941119433
ExceptionTable.<init>|CodeAttribute.<init>|AttributeInfo.read,0.03937783333397722,0.0,0.00603999999990871,0.0,0.04541783333388593
Geometry.intersect|Instance.intersect|InstanceList.intersectPrimitive,0.0,0.01589877527329151,0.0,0.001848974845913899,0.01774775011920541
GetInstance.getInstance|GetInstance.getInstance|Security.getImpl,0.047291999999894564,0.0,0.006084999999984575,0.0,0.05337699999987914
Handler.parseContextSpec|Handler.parseURL|URL.<init>,0.0474877407414843,0.0,0.006086111111101303,0.0,0.0535738518525856
IIORegistry.<clinit>|ImageIO.<clinit>|Benchmark.<init>,0.01593485185138114,0.0,0.0015088888884983366,0.0,0.017443740739879476
ImageTypeSpecifier.<clinit>|PNGImageReader.getImageTypes|PNGImageReader.readImage,0.06212874999998045,0.0,0.008449999999887345,0.0,0.0705787499998678
InputStreamImageInputStreamSpi.createInputStreamInstance|ImageIO.createImageInputStream|ImageIO.read,0.035359666666408884,0.0,0.005240000000109528,0.0,0.04059966666651841
Instance.intersect|InstanceList.intersectPrimitive|BoundingIntervalHierarchy.intersect,0.008470052921535883,0.0071618936171363844,0.0008345379693675308,0.0010809574467860695,0.017547441954825868
InstantGI.getIrradiance|LightServer.getIrradiance|ShadingState.getIrradiance,0.03962005531612574,0.06292767179737535,0.004312902171481727,0.007721086025722966,0.11458171531070578
IntersectionState.getStackTop|BoundingIntervalHierarchy.intersect|Scene.trace,0.04761692166648191,0.0,0.004752657632861829,0.0,0.052369579299343744
IntersectionState.getStackTop|KDTree.intersect|Geometry.intersect,0.0,0.0010815954743470264,0.0,0.00012104273998769197,0.0012026382143347184
IntersectionState.setIntersection|Sphere.intersectPrimitive|NullAccelerator.intersect,0.025590623993576686,0.0,0.0030024869168326874,0.0,0.028593110910409374
IntersectionState.setIntersection|TriangleMesh$WaldTriangle.intersect|TriangleMesh.intersectPrimitive,0.0,0.03321557835574755,0.0,0.004554491920582757,0.03777007027633031
JarFileFactory.get|JarURLConnection.connect|JarURLConnection.getJarFile,0.0,0.0,0.0,0.0,0.0
KDTree$BuildTask.<init>|KDTree.buildTree|KDTree.buildTree,0.04316368420979032,0.0,0.005694736841848536,0.0,0.04885842105163885
KDTree.buildTree|KDTree.buildTree|KDTree.build,0.06409042528726765,0.0,0.007106379310442563,0.0,0.0711968045977102
KDTree.buildTree|KDTree.buildTree|KDTree.buildTree,0.46651463460320836,0.0,0.057425199639648636,0.0,0.523939834242857
KDTree.intersect|Geometry.intersect|Instance.intersect,0.5395612602637126,0.40448282013481085,0.05553247994425323,0.057906727142593414,1.0574832874853701
Launcher$AppClassLoader.loadClass|ClassLoader.loadClass|TestHarness.main,0.00966366666762042,0.0,0.0013600000002043089,0.0,0.01102366666782473
LightSample.setShadowRay|TriangleMeshLight$TriangleLight.getSamples|LightServer.initLightSamples,0.012833554449949816,0.009636912257982064,0.001401940298564279,0.0015949382956188993,0.025467345302115058
LoggingSupport.getLogger|PlatformLogger$JavaLoggerProxy.<init>|PlatformLogger$JavaLoggerProxy.<init>,0.15072270370270685,0.0,0.017667222223921003,0.0,0.16838992592662785
Matrix4.transformPY|Ray.transform|Instance.intersect,0.0,0.0,0.0,0.0,0.0
NullAccelerator.intersect|Geometry.intersect|Instance.intersect,0.02017911351343558,0.0,0.0030850540540274967,0.0,0.02326416756746308
Ray.<init>|InstantGI.getIrradiance|LightServer.getIrradiance,0.003686688521803607,0.046185059319812184,0.0003793215079786133,0.007968564687145114,0.05821963403673952
Ray.<init>|TriangleMeshLight$TriangleLight.getSamples|LightServer.initLightSamples,0.003686688521803607,0.0,0.0003793215079786133,0.0,0.00406601002978222
Ray.getMax|KDTree.intersect|Geometry.intersect,0.0,0.03485756700684167,0.0,0.004535937994849243,0.039393505001690914
Ray.getMin|BoundingIntervalHierarchy.intersect|Scene.trace,0.0,0.02107923447762773,0.0,0.003441453615756377,0.02452068809338411
Ray.isInside|TriangleMesh$WaldTriangle.intersect|TriangleMesh.intersectPrimitive,0.03360719959895492,0.05133886693430867,0.0036826447186412464,0.007323171587187376,0.0959518828390922
Ray.setMax|Instance.intersect|InstanceList.intersectPrimitive,0.02017911351343558,0.0,0.0030850540540274967,0.0,0.02326416756746308
Ray.transform|Instance.intersect|InstanceList.intersectPrimitive,0.089990039516368,0.18108395774540784,0.010128753650287453,0.02509371575320139,0.30629646666526467
Scene.traceShadow|ShadingState.traceShadow|LightSample.traceShadow,0.001044820270148569,0.0,0.00010693324099251624,0.0,0.0011517535111410853
Scene.trace|Scene.traceShadow|ShadingState.traceShadow,0.008470052921535883,0.07321304332083667,0.0008345379693675308,0.010163576811324024,0.0926812110230641
ServiceRegistry.<init>|IIORegistry.<init>|IIORegistry.getDefaultInstance,0.015451999999640975,0.0,0.0016499999998510853,0.0,0.01710199999949206
ServiceRegistry.getServiceProviders|ImageIO.getImageReaders|ImageIO.read,0.03937783333397722,0.0,0.00603999999990871,0.0,0.04541783333388593
ShadingState.addSample|TriangleMeshLight$TriangleLight.getSamples|LightServer.initLightSamples,0.017924532777769776,0.03964808950943742,0.001791463997450801,0.006330698338149609,0.0656947846228076
ShadingState.getPoint|TriangleMeshLight$TriangleLight.getSamples|LightServer.initLightSamples,0.001477363782051282,0.0,0.00018768429477416084,0.0,0.0016650480768254428
Solvers.solveQuadric|Sphere.intersectPrimitive|NullAccelerator.intersect,0.0,0.015344288322006763,0.0,0.002598150305285305,0.017942438627292067
Sphere.intersectPrimitive|NullAccelerator.intersect|Geometry.intersect,0.011162600090064066,0.018953715606137025,0.0016448043184851876,0.002638670324646289,0.03439979033933257
TestHarness.main|Harness.main|NativeMethodAccessorImpl.invoke0,0.02290446666641704,0.0,0.0022270000001299193,0.0,0.02513146666654696
TriangleMesh$WaldTriangle.<init>|TriangleMesh.init|TriangleMesh.update,0.0,0.0,0.0,0.0,0.0
TriangleMesh$WaldTriangle.intersect|TriangleMesh.intersectPrimitive|KDTree.intersect,0.2640873178162844,0.255386378415968,0.027591270427275466,0.03597025742837159,0.5830352240878994
TriangleMesh$WaldTriangle.intersect|TriangleMesh.intersectPrimitive|NullAccelerator.intersect,0.01877026865656597,0.0,0.0022573963515297515,0.0,0.021027665008095723
TriangleMesh.intersectPrimitive|KDTree.intersect|Geometry.intersect,0.07765295844406132,0.008591814140059809,0.00724148042544932,0.0012085118863561742,0.09469476489592664
TriangleMesh.intersectPrimitive|NullAccelerator.intersect|Geometry.intersect,0.04215326628594526,0.0,0.004553262857181835,0.0,0.0467065291431271
TriangleMesh.prepareShadingState|Geometry.prepareShadingState|Instance.prepareShadingState,0.0,0.03609361307853325,0.0,0.004446654432141533,0.040540267510674785
TriangleMeshLight$TriangleLight.getSamples,0.004715325581475004,0.0,0.0004611627907230962,0.0,0.0051764883721981
TriangleMeshLight$TriangleLight.getSamples|LightServer.initLightSamples|ShadingState.initLightSamples,0.14936645569229978,0.22689333781974141,0.016750332131155187,0.032748717575328476,0.42575884321852486
TriangleMeshLight$TriangleLight.intersectTriangleKensler|TriangleMeshLight$TriangleLight.getSamples|LightServer.initLightSamples,0.011381828325378292,0.0,0.0014713410808908278,0.0,0.01285316940626912
URLClassPath$JarLoader$2.getManifest|URLClassLoader.defineClass|URLClassLoader.access$100,0.0,0.0,0.0,0.0,0.0
URLClassPath$JarLoader.getClassPath|URLClassPath.getLoader|URLClassPath.getNextLoader,0.014265933333323724,0.0,0.0017980000001747009,0.0,0.016063933333498426
UnixPath.checkNotNul|UnixPath.normalizeAndCheck|UnixPath.<init>,0.0362956666667742,0.0,0.005429999999857197,0.0,0.0417256666666314
Utf8Info.<init>|ConstPool.readOne|ConstPool.read,0.051747666665808836,0.0,0.006207500000224778,0.0,0.05795516666603361
Vector3.dot|TriangleMeshLight$TriangleLight.getSamples|LightServer.initLightSamples,0.0,0.03422967422099504,0.0,0.005167587999192086,0.03939726222018713
