method,package1,package2,dram1,dram2,energy
AVA.toRFC2253CanonicalString,0.02477727049118308,0.0,0.002496142692389154,0.0,0.027273413183572234
AlgorithmDecomposer.<clinit>,0.08049639897361686,0.0,0.005014416852721954,0.0,0.08551081582633882
AppContext$2.run,0.047440877429574466,0.0,0.0055480966581988615,0.0,0.052988974087773325
Benchmark.<init>,0.04250567791791392,0.0,0.006517165783337954,0.0,0.04902284370125187
Benchmark.fileFromInputStream,0.07732334644284164,0.0,0.007707264928862525,0.0,0.08503061137170416
BoundingIntervalHierarchy.intersect,0.8151709769033861,0.8143935713196512,0.10605628949305383,0.10777785103375452,1.843398688749846
BucketRenderer.renderBucket,0.00322844148150007,0.008690450694788014,0.0003749333333366344,0.0012585831691903145,0.013552408678815034
Color.blend,0.01223440887990045,0.023747358974129055,0.0015750599554137186,0.0036946153846096974,0.04125144319405292
Color.madd,0.009856351351363877,0.0,0.0011436486486648366,0.0,0.011000000000028713
ConstPool.readOne,0.061902417190649386,0.0,0.0059439734471359185,0.0,0.0678463906377853
DacapoClassLoader.loadClass,0.040033007843322116,0.0,0.005107731309841731,0.0,0.04514073915316385
FileCacheImageInputStream.<init>,0.04233941258291762,0.0,0.0065822194314348464,0.0,0.04892163201435246
Geometry.intersect,0.025185701390669373,0.0,0.0028921116743392252,0.0,0.0280778130650086
Geometry.prepareShadingState,0.0,0.030077464675677994,0.0,0.0054682054499319115,0.035545670125609906
ImageIO.<clinit>,0.03999561500652096,0.0,0.006620005941674717,0.0,0.04661562094819568
Instance.intersect,0.0,0.08112666306206807,0.0,0.011952952714480856,0.09307961577654893
InstanceList.intersectPrimitive,0.020126465441677985,0.0,0.0027361103122829,0.0,0.022862575753960886
InstantGI.getIrradiance,0.21744352353088509,0.06738010502585999,0.022303714584280553,0.011280226723818858,0.3184075698648445
IntArray.add,0.005381869025902996,0.0,0.0006296049092428343,0.0,0.00601147393514583
IntersectionState.getStack,0.0,0.001101803839506375,0.0,0.00017377944970733503,0.00127558328921371
IntersectionState.getStackTop,0.025185701390669373,0.0,0.0028921116743392252,0.0,0.0280778130650086
KDTree$BuildTask.<init>,0.005381869025902996,0.0,0.0006296049092428343,0.0,0.00601147393514583
KDTree.buildTree,0.9680536672183291,0.0,0.12367436050493477,0.0,1.091728027723264
KDTree.intersect,0.5367241389136433,0.6279081989120596,0.0588016549294958,0.09772970497816637,1.3211636977333654
KDTree.pack,0.0,0.0,0.0,0.0,0.0
KDTree.radix12,0.0,0.0,0.0,0.0,0.0
Launcher$AppClassLoader.loadClass,0.07492076660761622,0.0,0.005237529304237143,0.0,0.08015829591185336
LightSample.setRadiance,0.010154037433061662,0.0,0.0012930481283119125,0.0,0.011447085561373575
Matrix4.transformPY,0.010977595144260874,0.02011009722689296,0.0013536891740425475,0.00334784420002,0.03578922574521638
Matrix4.transformPZ,0.008673337336232764,0.0,0.001238884262793115,0.0,0.009912221599025878
NullAccelerator.intersect,0.02436269970844473,0.0,0.002084752186616009,0.0,0.02644745189506074
Ray.<init>,0.07578567347894649,0.14429301723738183,0.009905807455734252,0.0207957463446083,0.25078024451667086
Ray.getMax,0.06322341627830008,0.13487862528784123,0.006890236599838267,0.01832560864308845,0.223317886809068
Ray.getMin,0.0,0.0194011391098172,0.0,0.0019260344802750247,0.021327173590092223
Ray.isInside,0.05916852529165251,0.17260890842514837,0.005990684196893421,0.027070227074232733,0.264838344987927
Ray.setMax,0.01508764605539666,0.0,0.0013787633261011152,0.0,0.016466409381497776
Ray.transform,0.3870040692841734,0.1630503611558393,0.04618903684966282,0.020626796567175337,0.6168702638568508
Scene.trace,0.010492129032143329,0.0,0.0010470967741463438,0.0,0.011539225806289672
ShadingState.addSample,0.0213415989607548,0.0,0.002142357109006505,0.0,0.023483956069761305
ShadingState.getPoint,0.010154037433061662,0.0,0.0012930481283119125,0.0,0.011447085561373575
ShadingState.traceShadow,0.019090996131880998,0.0,0.002928035207210521,0.0,0.02201903133909152
Solvers.solveQuadric,0.008460219844204992,0.0,0.001011110830140913,0.0,0.009471330674345906
Sphere.intersectPrimitive,0.0,0.0008130446613964541,0.0,0.00010342120877853096,0.000916465870174985
Sphere.prepareShadingState,0.02436269970844473,0.07440919241129194,0.002084752186616009,0.010082253947241205,0.11093889825359389
TriangleMesh$WaldTriangle.intersect,0.22139865343626475,0.33007754044457804,0.02464757358624918,0.05279496740938241,0.6289187348764743
TriangleMesh.intersectPrimitive,0.01181916129045872,0.0,0.0012082258065000194,0.0,0.01302738709695874
TriangleMeshLight$TriangleLight.getSamples,0.2574656397636635,0.15913032370350122,0.02699942462737297,0.023964252691246277,0.467559640785784
TriangleMeshLight$TriangleLight.intersectTriangleKensler,0.019090996131880998,0.0,0.002928035207210521,0.0,0.02201903133909152
URLClassPath$JarLoader.getClassPath,0.061902417190649386,0.0,0.0059439734471359185,0.0,0.0678463906377853
Vector3.dot,0.027487872222465945,0.0,0.002924333333546909,0.0,0.030412205556012855
Vector3.normalize,0.0,0.0036632380963814853,0.0,0.0006074028604220535,0.004270640956803539
X509CertInfo.<init>,0.02066390670420814,0.0,0.0027689095905614873,0.0,0.023432816294769628
