method,package1,package2,dram1,dram2,energy
javassist.bytecode,0.055843200001011915,0.0,0.008595999999670312,0.0,0.06443920000068223
javassist.bytecode.stackmap,0.06805433333162605,0.0,0.010835000000345945,0.0,0.078889333331972
javax.imageio,0.1379189743600317,0.0,0.02019269230764528,0.0,0.15811166666767698
javax.imageio.spi,0.0170086666670007,0.0,0.0027200000004086178,0.0,0.019728666667409318
org.dacapo.harness,0.15777061545117527,0.0,0.016266467549634067,0.0,0.17403708300080933
org.sunflow.core,0.4483157621853254,0.4029042199738899,0.05526368146178287,0.05963830204507343,0.9661219656660716
org.sunflow.core.accel,2.5130356014952513,0.7995053311021425,0.380209444088365,0.11636263745876348,3.8091130141445224
org.sunflow.core.gi,0.1066072467966464,0.0595585663750149,0.013629029435064367,0.008133714655208285,0.18792855726193394
org.sunflow.core.light,0.18616951394981135,0.1767350621694608,0.02283956369602786,0.026071337141092436,0.4118154769563925
org.sunflow.core.primitive,0.25994139472343075,0.18360207811763857,0.03200898660851614,0.026880265054504797,0.5024327245040903
org.sunflow.core.renderer,0.02716083612934465,0.051033872281491664,0.0034553721701257112,0.0065235448156174,0.08817362539657943
org.sunflow.image,0.010892078876895998,0.029294501291785357,0.0012185045730637779,0.004755576550420672,0.046160661292165804
org.sunflow.math,0.09543941705902959,0.1321085908707442,0.011743937796527071,0.018343779957259214,0.2576357256835601
sun.awt,0.1894249487186943,0.0,0.028611923076450458,0.0,0.21803687179514478
sun.awt.image,0.14935883150384066,0.0,0.01891554945019719,0.0,0.16827438095403785
sun.java2d.Disposer$$Lambda$9,0.06805433333162605,0.0,0.010835000000345945,0.0,0.078889333331972
sun.misc,0.045536687233084336,0.0,0.005474616853671425,0.0,0.05101130408675576
sun.nio.fs,0.06809466666648707,0.0,0.01074500000019422,0.0,0.0788396666666813
sun.security.pkcs,0.04196025000105278,0.0,0.005946136363738995,0.0,0.047906386364791775
sun.security.provider,0.060074933333089574,0.0,0.009739999999874271,0.0,0.06981493333296385
sun.security.util,0.10880328000479417,0.0,0.014504181694943859,0.0,0.12330746169973802
sun.security.x509,0.15479072727215348,0.0,0.02425090909194048,0.0,0.17904163636409395
sun.util.logging,0.02219948718004908,0.0,0.0032884615384085538,0.0,0.025487948718457634
