method,package1,package2,dram1,dram2,energy
AVA,0.02477727049118308,0.0,0.002496142692389154,0.0,0.027273413183572234
AlgorithmDecomposer,0.08049639897361686,0.0,0.005014416852721954,0.0,0.08551081582633882
AppContext$2,0.047440877429574466,0.0,0.0055480966581988615,0.0,0.052988974087773325
Benchmark,0.11982902436075556,0.0,0.014224430712200479,0.0,0.13405345507295605
BoundingIntervalHierarchy,0.8151709769033861,0.8143935713196512,0.10605628949305383,0.10777785103375452,1.843398688749846
BucketRenderer,0.00322844148150007,0.008690450694788014,0.0003749333333366344,0.0012585831691903145,0.013552408678815034
Color,0.022090760231264328,0.023747358974129055,0.002718708604078555,0.0036946153846096974,0.052251443194081634
ConstPool,0.061902417190649386,0.0,0.0059439734471359185,0.0,0.0678463906377853
DacapoClassLoader,0.040033007843322116,0.0,0.005107731309841731,0.0,0.04514073915316385
FileCacheImageInputStream,0.04233941258291762,0.0,0.0065822194314348464,0.0,0.04892163201435246
Geometry,0.025185701390669373,0.030077464675677994,0.0028921116743392252,0.0054682054499319115,0.0636234831906185
ImageIO,0.03999561500652096,0.0,0.006620005941674717,0.0,0.04661562094819568
Instance,0.0,0.08112666306206807,0.0,0.011952952714480856,0.09307961577654893
InstanceList,0.020126465441677985,0.0,0.0027361103122829,0.0,0.022862575753960886
InstantGI,0.21744352353088509,0.06738010502585999,0.022303714584280553,0.011280226723818858,0.3184075698648445
IntArray,0.005381869025902996,0.0,0.0006296049092428343,0.0,0.00601147393514583
IntersectionState,0.025185701390669373,0.001101803839506375,0.0028921116743392252,0.00017377944970733503,0.02935339635422231
KDTree,1.5047778061319728,0.6279081989120596,0.1824760154344306,0.09772970497816637,2.412891725456629
KDTree$BuildTask,0.005381869025902996,0.0,0.0006296049092428343,0.0,0.00601147393514583
Launcher$AppClassLoader,0.07492076660761622,0.0,0.005237529304237143,0.0,0.08015829591185336
LightSample,0.010154037433061662,0.0,0.0012930481283119125,0.0,0.011447085561373575
Matrix4,0.019650932480493634,0.02011009722689296,0.0025925734368356626,0.00334784420002,0.045701447344242266
NullAccelerator,0.02436269970844473,0.0,0.002084752186616009,0.0,0.02644745189506074
Ray,0.6002693303884692,0.634232051216028,0.07035452842822988,0.08874441310937983,1.3936003231421068
Scene,0.010492129032143329,0.0,0.0010470967741463438,0.0,0.011539225806289672
ShadingState,0.05058663252569746,0.0,0.0063634404445289386,0.0,0.0569500729702264
Solvers,0.008460219844204992,0.0,0.001011110830140913,0.0,0.009471330674345906
Sphere,0.02436269970844473,0.0752222370726884,0.002084752186616009,0.010185675156019735,0.11185536412376887
TriangleMesh,0.01181916129045872,0.0,0.0012082258065000194,0.0,0.01302738709695874
TriangleMesh$WaldTriangle,0.22139865343626475,0.33007754044457804,0.02464757358624918,0.05279496740938241,0.6289187348764743
TriangleMeshLight$TriangleLight,0.27655663589554447,0.15913032370350122,0.029927459834583493,0.023964252691246277,0.4895786721248755
URLClassPath$JarLoader,0.061902417190649386,0.0,0.0059439734471359185,0.0,0.0678463906377853
Vector3,0.027487872222465945,0.0036632380963814853,0.002924333333546909,0.0006074028604220535,0.03468284651281639
X509CertInfo,0.02066390670420814,0.0,0.0027689095905614873,0.0,0.023432816294769628
