method,package1,package2,dram1,dram2,energy
chappie,0.0,0.0,0.0,0.0,0.0
javassist,0.0,0.0,0.0,0.0,0.0
javax.imageio,0.0,0.11053466667362953,0.0,0.02064499999990706,0.1311796666735366
javax.imageio.spi,0.0,0.09573799999946328,0.0,0.014074285713702141,0.10981228571316543
org.sunflow,0.0,0.07107200000124672,0.0,0.010536666666464748,0.08160866666771147
org.sunflow.core,0.2677398629298133,0.5804594874830679,0.03232431881250042,0.07952807035972394,0.9600517395851055
org.sunflow.core.accel,1.1182604460726193,1.497939913727745,0.1227962399240971,0.21598227281919663,2.954978872543658
org.sunflow.core.gi,0.056822741529166616,0.13699577628104495,0.00787350091634757,0.016419415370817377,0.2181114340973765
org.sunflow.core.light,0.10067507771807671,0.19534156673529796,0.013135121739797653,0.02498452864774338,0.33413629484091567
org.sunflow.core.primitive,0.37201068482304733,0.37855298105313606,0.04311650023114611,0.054071762414055535,0.847751928521385
org.sunflow.core.renderer,0.0,0.0,0.0,0.0,0.0
org.sunflow.image,0.0191800894911934,0.046063277883376844,0.0028588459939728693,0.006005191018369115,0.07410740438691224
org.sunflow.math,0.07000679800107254,0.03446767682814475,0.008180932573936393,0.004689480305915916,0.1173448877090696
