method,package1,package2,dram1,dram2,energy
Benchmark,0.0,0.024625197630492462,0.0,0.003511081390776828,0.02813627902126929
BoundingBox,0.026328606915065857,0.02017634572202037,0.002648928191434665,0.0022734434590931,0.051427324287613985
BoundingIntervalHierarchy,0.7040149914745333,0.5380391351578012,0.08325918562069154,0.0642891549143422,1.3896024671673681
BucketRenderer,0.03685574871355029,0.0055525140060231045,0.003977298805322695,0.0007815411344176239,0.04716710265931372
ByteArrayAccess,0.0,0.04344099199837273,0.0,0.005468449513804669,0.048909441512177396
CertificateSerialNumber,0.0,0.021617271449781397,0.0,0.002609917728124721,0.024227189177906117
Color,0.044608770355362426,0.0,0.005381199071171681,0.0,0.04998996942653411
ConfigFile,0.0,0.007012935406685335,0.0,0.0022015860475223825,0.009214521454207718
ConfigFileTokenManager,0.0,0.057320608334010266,0.0,0.008283684100827584,0.06560429243483785
ConstPool,0.0,0.050798752857654526,0.0,0.009374858126662076,0.0601736109843166
Geometry,0.022348592755413576,0.002049878048682131,0.0030156677467052203,0.00019756097563225836,0.027611699526433185
ImageIO,0.0,0.010713276613286945,0.0,0.0014139050801467855,0.01212718169343373
ImageWriterSpi,0.0,0.04691549961592719,0.0,0.00727730546056287,0.05419280507649006
InputStreamImageInputStreamSpi,0.0,0.042695679162333286,0.0,0.006367635267790207,0.04906331443012349
Instance,0.011062824908403456,0.027044486853491628,0.0012703846153635156,0.0033987521763273417,0.042776448553585936
InstanceList,0.029835162444477682,0.009001012916776378,0.003225561013130311,0.0009417871815736578,0.04300352355595803
InstantGI,0.1779044582471812,0.07319478011349201,0.023035233270694525,0.009356737146046618,0.28349120877741435
IntersectionState,0.0,0.008136905686427281,0.0,0.001026040802722087,0.009162946489149369
KDTree,2.212344924841903,0.5880910189303873,0.18422423807243243,0.07767193840459456,3.0623321202493172
LightSample,0.05145521076213701,0.054259559165580916,0.006350393251432631,0.008674428225928815,0.12073959140507937
Matrix4,0.0,0.05030896829480018,0.0,0.007211747431643711,0.05752071572644389
NullAccelerator,0.02836755773488179,0.0413018087100787,0.0026763569337928117,0.005560577137244915,0.07790630051599823
PNGImageReader,0.0,0.026187200732478873,0.0,0.0055914114704017776,0.031778612202880654
QMC,0.0,0.0,0.0,0.0,0.0
RAFImageInputStreamSpi,0.0,0.04691549961592719,0.0,0.00727730546056287,0.05419280507649006
Ray,0.36815653178338126,0.293162164591894,0.04571885902168608,0.036300326870613055,0.7433378822675744
Scene,0.006593036240360936,0.015635701357495268,0.000985157140236939,0.0022010212564467294,0.025414915994539874
ShadingState,0.06861708075192849,0.08433944571088131,0.009972498265153763,0.01126812137929109,0.17419714610725465
SignatureFileVerifier,0.0,0.06093016934765985,0.0,0.008880355699149555,0.0698105250468094
Sphere,0.0,0.02228093490927222,0.0,0.003223174136850764,0.025504109046122984
SunToolkit,0.0,0.018720079602324403,0.0,0.003552161029526233,0.022272240631850636
TestHarness,0.0,0.0,0.0,0.0,0.0
TriangleMesh,0.13177723320454215,0.06092016650550719,0.016331797393986085,0.007485015221675214,0.21651421232571064
TriangleMesh$WaldTriangle,0.30048705054116276,0.20927895392132223,0.03327327900705958,0.029489748301130055,0.5725290317706746
TriangleMeshLight$TriangleLight,0.15979115718852183,0.10378906140370533,0.018351038629183962,0.01542257910829147,0.2973538363297026
UnixFileModeAttribute,0.0,0.042695679162333286,0.0,0.006367635267790207,0.04906331443012349
Vector3,0.021183692655620808,0.02676718874072913,0.0020833898304782727,0.0038048158954948346,0.05383908712232305
