method,package1,package2,dram1,dram2,energy
AbstractList$Itr.hasNext|SecureRandom.getPrngAlgorithm|SecureRandom.getDefaultPRNG,0.06256100000124812,0.0,0.009029999999256688,0.0,0.0715910000005048
BigInteger.modInverse|DSA.generateW|DSA.engineVerify,0.0,0.09883811017160007,0.0,0.010591730316124408,0.10942984048772449
BufferedInputStream.read|DataInputStream.readInt|AttributeInfo.<init>,0.0715940000009141,0.0,0.009295000001050841,0.0,0.08088900000196493
BufferedInputStream.read|DataInputStream.readUnsignedShort|NameAndTypeInfo.<init>,0.0091549999997369,0.0,0.0013549999991179598,0.0,0.010509999998854859
ClassLoader.findBootstrapClass|ClassLoader.findBootstrapClassOrNull|ClassLoader.loadClass,0.02021622222188549,0.0,0.0026066666669066767,0.0,0.022822888888792168
ClassLoader.loadLibrary0|ClassLoader.loadLibrary|Runtime.load0,0.13954666666783547,0.0,0.01870000000053551,0.0,0.15824666666837098
ColorSpace.getInstance|ImageTypeSpecifier.<clinit>|PNGImageReader.getImageTypes,0.08815500000006674,0.0,0.010754999999941598,0.0,0.09891000000000834
Inflater.inflateBytes|Inflater.inflate|InflaterInputStream.read,0.12293855555536637,0.0,0.015498333333097334,0.0,0.1384368888884637
JarVerifier.processEntry|JarVerifier.update|JarFile.initializeVerifier,0.0,0.025145040980033083,0.0,0.002414935109479564,0.027559976089512647
LoggingProxyImpl.getLogger|LoggingSupport.getLogger|PlatformLogger$JavaLoggerProxy.<init>,0.06573499999891888,0.0,0.010840000000219636,0.0,0.07657499999913851
Object.<init>|Vector3.<init>|TriangleMeshLight$TriangleLight.getSamples,0.0,0.023516463276363957,0.0,0.0030373607748175628,0.02655382405118152
StrictMath.acos|Math.acos|TriangleMeshLight$TriangleLight.getSamples,0.009024849475928222,0.0,0.0010406542294519039,0.0,0.010065503705380126
