method,package1,package2,dram1,dram2,energy
AbstractList$Itr.hasNext|SecureRandom.getPrngAlgorithm|SecureRandom.getDefaultPRNG,0.06256100000124812,0.0,0.009029999999256688,0.0,0.0715910000005048
AppContext$2.run|AppContext$2.run|AccessController.doPrivileged,0.06903066666563973,0.0,0.009690000000167249,0.0,0.07872066666580697
BigInteger.modInverse|DSA.generateW|DSA.engineVerify,0.0,0.09883811017160007,0.0,0.010591730316124408,0.10942984048772449
BoundingBox.getMaximum|KDTree.intersect|Geometry.intersect,0.0353808418595241,0.0,0.00498116876013866,0.0,0.04036201061966276
BoundingBox.getMinimum|BoundingIntervalHierarchy.intersect|Scene.trace,0.0,0.011329813953759798,0.0,0.0015816279069969276,0.012911441860756726
BoundingIntervalHierarchy.intersect|Scene.trace|Scene.traceShadow,0.7136770627222483,0.9256914817474203,0.09801907045408023,0.12746935952974692,1.8648569744534957
BucketRenderer$ImageSample.processed|BucketRenderer.refineSamples|BucketRenderer.refineSamples,0.0,0.02195820627914472,0.0,0.0031580098528466625,0.02511621613199138
BucketRenderer.computeSubPixel|BucketRenderer.refineSamples|BucketRenderer.renderBucket,0.0,0.03709802325601083,0.0,0.005012790697650797,0.042110813953661626
BucketRenderer.refineSamples|BucketRenderer.renderBucket|BucketRenderer.access$300,0.02401645714292369,0.0,0.0030839999999963245,0.0,0.027100457142920018
BucketRenderer.renderBucket|BucketRenderer.access$300|BucketRenderer$BucketThread.run,0.01695259824476727,0.0,0.001875548850500005,0.0,0.018828147095267277
BufferedInputStream.read|DataInputStream.readInt|AttributeInfo.<init>,0.0715940000009141,0.0,0.009295000001050841,0.0,0.08088900000196493
BufferedInputStream.read|DataInputStream.readUnsignedShort|NameAndTypeInfo.<init>,0.0091549999997369,0.0,0.0013549999991179598,0.0,0.010509999998854859
Chaperone.retire|Chaperone.dismiss|Chaperone.main,0.0,0.0,0.0,0.0,0.0
ClassFile.read|ClassFile.<init>|CtClassType.<init>,0.009440333332653,0.0,0.0012599999990925426,0.0,0.010700333331745542
ClassLoader.findBootstrapClass|ClassLoader.findBootstrapClassOrNull|ClassLoader.loadClass,0.02021622222188549,0.0,0.0026066666669066767,0.0,0.022822888888792168
ClassLoader.loadLibrary0|ClassLoader.loadLibrary|Runtime.load0,0.13954666666783547,0.0,0.01870000000053551,0.0,0.15824666666837098
Color.blend|Color.blend|InstantGI.getIrradiance,0.020228807867880602,0.0014903116809068901,0.0028804026246549742,0.0002111538461620906,0.024810676019604558
Color.blend|LightSample.traceShadow|TriangleMeshLight$TriangleLight.getSamples,0.0017301976587378606,0.026110815384820404,0.000247884688012987,0.0036190726495692813,0.03170797038114054
Color.copy|LightSample.setRadiance|TriangleMeshLight$TriangleLight.getSamples,0.018534921990821598,0.030445186046647924,0.002777471143727701,0.004328023255787462,0.05608560243698468
Color.madd|BucketRenderer$ImageSample.bilerp|BucketRenderer.refineSamples,0.0,0.04180670129860957,0.0,0.006153896103876525,0.047960597402486094
Color.madd|InstantGI.getIrradiance|LightServer.getIrradiance,0.0,0.01863584140420017,0.0,0.002444455205746089,0.02108029660994626
Color.mul|TriangleMeshLight$TriangleLight.getSamples|LightServer.initLightSamples,0.006297645568499025,0.0,0.0008566428402414161,0.0,0.007154288408740441
ColorSpace.getInstance|ImageTypeSpecifier.<clinit>|PNGImageReader.getImageTypes,0.08815500000006674,0.0,0.010754999999941598,0.0,0.09891000000000834
Geometry.intersect|Instance.intersect|InstanceList.intersectPrimitive,0.05031651189586878,0.01651771186429261,0.00736955509726457,0.0021939971751816865,0.07639777603260765
Handler.parseContextSpec|Handler.parseURL|URL.<init>,0.06903066666563973,0.0,0.009690000000167249,0.0,0.07872066666580697
IIORegistry.registerStandardSpis|IIORegistry.<init>|IIORegistry.getDefaultInstance,0.009440333332653,0.0,0.0012599999990925426,0.0,0.010700333331745542
Inflater.inflateBytes|Inflater.inflate|InflaterInputStream.read,0.12293855555536637,0.0,0.015498333333097334,0.0,0.1384368888884637
Instance.intersect|InstanceList.intersectPrimitive|BoundingIntervalHierarchy.intersect,0.02504672569647127,0.0694654653330497,0.00361765165336208,0.009477532524275467,0.10760737520715852
InstanceList.intersectPrimitive|BoundingIntervalHierarchy.intersect|Scene.trace,0.0,0.04180670129860957,0.0,0.006153896103876525,0.047960597402486094
InstantGI.getIrradiance|LightServer.getIrradiance|ShadingState.getIrradiance,0.09021910596662694,0.07446216831516697,0.011243203359503497,0.010395406082203351,0.18631988372350075
IntArray.add|KDTree.buildTree|KDTree.buildTree,0.0,0.04528818181610073,0.0,0.005980909090960101,0.05126909090706083
IntersectionState.getStackTop|BoundingIntervalHierarchy.intersect|Scene.trace,0.03431424863012511,0.02647169328598809,0.004548756483227159,0.003806663442956392,0.06914136184229674
IntersectionState.getStackTop|KDTree.intersect|Geometry.intersect,0.01839017113543124,0.0,0.001981473780931448,0.0,0.02037164491636269
IntersectionState.hit|LightServer.getRadiance|Scene.getRadiance,0.0,0.030445186046647924,0.0,0.004328023255787462,0.03477320930243539
JPEGImageWriterSpi.<init>|IIORegistry.registerStandardSpis|IIORegistry.<init>,0.0715940000009141,0.0,0.009295000001050841,0.0,0.08088900000196493
JarVerifier.processEntry|JarVerifier.update|JarFile.initializeVerifier,0.0,0.025145040980033083,0.0,0.002414935109479564,0.027559976089512647
KDTree$BuildTask.<init>|KDTree.buildTree|KDTree.buildTree,0.0,0.1151827272723577,0.0,0.015346818182010651,0.13052954545436835
KDTree.buildTree|KDTree.buildTree|KDTree.build,0.0,0.0796343636360358,0.0,0.009670909090676685,0.08930527272671247
KDTree.buildTree|KDTree.buildTree|KDTree.buildTree,0.0,0.2148321515176741,0.0,0.026034545454174142,0.24086669697184823
KDTree.buildTree|KDTree.build|Geometry.build,0.0,0.0796343636360358,0.0,0.009670909090676685,0.08930527272671247
KDTree.intersect|Geometry.intersect|Instance.intersect,0.5354154449906617,0.9717851790393666,0.06988919123034458,0.12223367132093449,1.6993234865813072
KDTree.radix12|KDTree.build|Geometry.build,0.0,0.0,0.0,0.0,0.0
LightSample.dot|ShadingState.diffuse|DiffuseShader.getRadiance,0.0,0.003217978723423972,0.0,0.00039159574469599737,0.0036095744681199694
LightSample.setRadiance|TriangleMeshLight$TriangleLight.getSamples|LightServer.initLightSamples,0.0,0.003272030651087648,0.0,0.000435402298835017,0.0037074329499226654
LightSample.setShadowRay|TriangleMeshLight$TriangleLight.getSamples|LightServer.initLightSamples,0.0,0.05902554530883255,0.0,0.00856036888526593,0.06758591419409848
LoggingProxyImpl.getLogger|LoggingSupport.getLogger|PlatformLogger$JavaLoggerProxy.<init>,0.06573499999891888,0.0,0.010840000000219636,0.0,0.07657499999913851
Matrix4.transformPX|Ray.transform|Instance.intersect,0.0,0.047453556924806226,0.0,0.00598601098889308,0.053439567913699304
Matrix4.transformPZ|Ray.transform|Instance.intersect,0.015122376004563863,0.0,0.0022428516096817857,0.0,0.017365227614245648
MemberrefInfo.<init>|FieldrefInfo.<init>|ConstPool.readOne,0.022698333334119525,0.0,0.0030366666667557885,0.0,0.025735000000875315
Object.<init>|Vector3.<init>|TriangleMeshLight$TriangleLight.getSamples,0.0,0.023516463276363957,0.0,0.0030373607748175628,0.02655382405118152
PNGImageReader.<init>|PNGImageReaderSpi.createReaderInstance|ImageReaderSpi.createReaderInstance,0.08815500000006674,0.0,0.010754999999941598,0.0,0.09891000000000834
PNGImageReaderSpi.createReaderInstance|ImageReaderSpi.createReaderInstance|ImageIO$ImageReaderIterator.next,0.05930599999798384,0.0,0.007849999999962165,0.0,0.067155999997946
ParseUtil.encodePath|URLClassPath$JarLoader.checkResource|URLClassPath$JarLoader.getResource,0.06534833333474427,0.0,0.010859999999714392,0.0,0.07620833333445866
Ray.<init>|InstantGI.getIrradiance|LightServer.getIrradiance,0.06347908719982413,0.059781440070111755,0.008422334803838792,0.008294948841332266,0.13997781091510697
Ray.getMax|BoundingIntervalHierarchy.intersect|Scene.trace,0.028480844830366468,0.008308004595173469,0.003863321308431956,0.001091628457703636,0.04174379919167553
Ray.getMin|BoundingIntervalHierarchy.intersect|Scene.trace,0.03948937974890526,0.0,0.005684044999158658,0.0,0.04517342474806392
Ray.isInside|TriangleMesh$WaldTriangle.intersect|TriangleMesh.intersectPrimitive,0.07434971019228644,0.12760281460028344,0.0094666857643946,0.017457698170713305,0.22887690872767777
Ray.transform|Camera.getRay|Scene.getRadiance,0.001733932426411029,0.0,0.000200605442206446,0.0,0.0019345378686174749
Ray.transform|Instance.intersect|InstanceList.intersectPrimitive,0.10663362820897011,0.12726310404078128,0.014659978460324796,0.017998797349819507,0.2665555080598957
Scene.traceShadow|ShadingState.traceShadow|InstantGI.getIrradiance,0.0,0.025032212766397624,0.0,0.003593936170216964,0.02862614893661459
Scene.trace|Scene.traceShadow|ShadingState.traceShadow,0.022087186151232424,0.07299904346033961,0.0033559833392310125,0.009545893569685923,0.10798810652048897
ShadingState.getRandom|TriangleMeshLight$TriangleLight.getSamples|LightServer.initLightSamples,0.0,3.669674844874533e-05,0.0,5.6840523768813475e-06,4.2380800825626676e-05
ShadingState.init|TriangleMesh.prepareShadingState|Geometry.prepareShadingState,0.0,0.0,0.0,0.0,0.0
ShadingState.traceShadow|InstantGI.getIrradiance|LightServer.getIrradiance,0.0,0.0218975384613702,0.0,0.0028953846153737498,0.02479292307674395
SignatureFileVerifier.<clinit>|JarFile.initializeVerifier|JarFile.getInputStream,0.022698333334119525,0.0,0.0030366666667557885,0.0,0.025735000000875315
Solvers.solveQuadric|Sphere.intersectPrimitive|NullAccelerator.intersect,0.0,0.019059350146138354,0.0,0.0025028865127895146,0.02156223665892787
Sphere.intersectPrimitive|NullAccelerator.intersect|Geometry.intersect,0.01839081809218811,0.0,0.0026059138719767543,0.0,0.020996731964164864
StrictMath.acos|Math.acos|TriangleMeshLight$TriangleLight.getSamples,0.009024849475928222,0.0,0.0010406542294519039,0.0,0.010065503705380126
TestHarness.twoDecimalPlaces|TestHarness.<clinit>|Harness.main,0.0,0.0,0.0,0.0,0.0
TriangleMesh$WaldTriangle.intersect|TriangleMesh.intersectPrimitive|KDTree.intersect,0.2494834249111075,0.35792530923511195,0.03270731106902677,0.04726326699910112,0.6873793122143473
TriangleMesh$WaldTriangle.intersect|TriangleMesh.intersectPrimitive|NullAccelerator.intersect,0.0,0.012856512820760077,0.0,0.0014488461538115724,0.01430535897457165
TriangleMesh.intersectPrimitive|KDTree.intersect|Geometry.intersect,0.06029644307137677,0.15067479085254215,0.007061205051159012,0.019422304709926386,0.23745474368500433
TriangleMesh.intersectPrimitive|NullAccelerator.intersect|Geometry.intersect,0.0,0.02195820627914472,0.0,0.0031580098528466625,0.02511621613199138
TriangleMeshLight$TriangleLight.getSamples,0.0,0.027892020987335987,0.0,0.003323185185179704,0.03121520617251569
TriangleMeshLight$TriangleLight.getSamples|LightServer.initLightSamples|ShadingState.initLightSamples,0.08871808495950304,0.16895258434780386,0.012959400393515924,0.022481216004903246,0.2931112857057261
Unsafe.getInt|ByteArrayAccess.b2iBig64|SHA.implCompress,0.0,0.06269406442432854,0.0,0.006567546070542689,0.06926161049487123
Vector3.dot|TriangleMeshLight$TriangleLight.getSamples|LightServer.initLightSamples,0.04842616412311216,0.0,0.007256913121945917,0.0,0.055683077245058075
