method,package1,package2,dram1,dram2,energy
com.sun.imageio.plugins.png,0.06448122365266588,0.0,0.005744537805988157,0.0,0.07022576145865404
java.io,0.25077133108137484,0.0,0.02658713861971829,0.0,0.2773584697010931
java.lang,0.06551941592189733,0.015228602561626597,0.006922554548269716,0.001904275732511562,0.08957484876430521
java.math,0.014458253397230674,0.0,0.0012954013930959554,0.0,0.01575365479032663
java.text,0.0,0.0,0.0,0.0,0.0
java.util.jar,0.08589546023585343,0.0,0.009651033385469814,0.0,0.09554649362132324
java.util.zip,0.08371726835268968,0.0,0.009131940555726057,0.0,0.09284920890841573
javassist.compiler,0.01792843969819521,0.0,0.0015221632044957033,0.0,0.019450602902690912
javax.imageio.spi,0.01792843969819521,0.0,0.0015221632044957033,0.0,0.019450602902690912
javax.imageio.stream,0.044934358186982576,0.0,0.004949091460839428,0.0,0.049883449647822
org.dacapo.harness,0.08371726835268968,0.0,0.009131940555726057,0.0,0.09284920890841573
org.dacapo.parser,0.01799165003020779,0.0,0.0017924281558600872,0.0,0.019784078186067876
org.sunflow,0.045381214008184935,0.0,0.0036493148782121365,0.0,0.04903052888639707
org.sunflow.core,0.35770240058296837,0.614985737896859,0.045669392560827186,0.08277491285972201,1.1011324439003765
org.sunflow.core.accel,1.5010227200371238,1.974775976712896,0.16692589201343494,0.27976300452475356,3.922487593288208
org.sunflow.core.gi,0.16062063286438305,0.17581754694267224,0.020214391543744357,0.021662995569438882,0.37831556692023854
org.sunflow.core.light,0.0942134985184706,0.21968700606542663,0.014501947742748624,0.024975848106953046,0.35337830043359886
org.sunflow.core.primitive,0.30163552733882454,0.5954841729977033,0.04148351018820804,0.07659605556048482,1.0151992660852207
org.sunflow.core.renderer,0.014522038637765619,0.0,0.002310795705713911,0.0,0.01683283434347953
org.sunflow.image,0.005148020008128482,0.0204802127980368,0.0008555635458667346,0.0025522251271428878,0.029036021479174903
org.sunflow.math,0.09510666944848724,0.0960271139879493,0.011751372401492233,0.012142654806667793,0.21502781064459658
sun.awt,0.08832579796145976,0.0,0.009939919758926405,0.0,0.09826571772038616
sun.awt.image,0.021618016807266275,0.0,0.00192554271408978,0.0,0.023543559521356054
sun.misc,0.019459969968229296,0.0,0.0019974885203377928,0.0,0.021457458488567088
sun.nio.cs,0.0,0.0,0.0,0.0,0.0
sun.security.util,0.062401579867161674,0.0,0.0063189224668439865,0.0,0.06872050233400566
