method,package1,package2,dram1,dram2,energy
AppContext$2.run,0.09514711111033748,0.0,0.009086666665906604,0.0,0.10423377777624408
AppContext.<clinit>,0.00900833333381107,0.0,0.001077777777498812,0.0,0.010086111111309881
Benchmark.<init>,0.04409952631593976,0.0,0.00554684210529606,0.0,0.04964636842123582
Benchmark.fileFromInputStream,0.1422323333342016,0.0,0.016625000000203727,0.0,0.15885733333440533
BoundingBox.getMaximum,0.0,0.034436091503288455,0.0,0.005329771241746379,0.03976586274503483
BoundingBox.getMinimum,0.0,0.006735938321935317,0.0,0.0010121455027113759,0.007748083824646693
BoundingIntervalHierarchy.intersect,0.926194813533065,0.7750059955654813,0.1317940717176569,0.09414148199104765,1.9271363628072509
BucketRenderer$ImageSample.sampled,0.0,0.14273515547809362,0.0,0.01544353969543532,0.15817869517352895
BucketRenderer.refineSamples,0.0022818863637274426,0.0,0.00027647727272944234,0.0,0.0025583636364568847
BucketRenderer.renderBucket,0.010672480535385012,0.004910987027042949,0.0016292512802264065,0.0005039027027040091,0.01771662154535838
ByteInterleavedRaster.getDataElements,0.03050159210627163,0.0,0.0036805263158672273,0.0,0.034182118422138856
ClassPool.getCached,0.0713499999983469,0.0,0.007605000000088087,0.0,0.07895499999843499
ClassPool.makeClass,0.060928499999135965,0.0,0.004394999999931315,0.0,0.06532349999906728
Color.blend,0.008709598520447722,0.00012452202999342402,0.0006252405581659291,1.560553633028197e-05,0.009474966644937358
Color.copy,0.012589159821904365,0.0,0.0014193080356855196,0.0,0.014008467857589885
Color.madd,0.0,0.0,0.0,0.0,0.0
DSA.generateV,0.2034648571453068,0.0,0.02009428571337984,0.0,0.22355914285868664
DSA.generateW,0.10352735714141524,0.0,0.01003321428617623,0.0,0.11356057142759148
DerInputBuffer.getBigInteger,0.03841166666825302,0.0,0.0023599999998017056,0.0,0.04077166666805473
ExceptionTable.<init>,0.07865400000203711,0.0,0.004744999999578188,0.0,0.08339900000161529
Geometry.intersect,0.05315068514849661,0.08812315040156127,0.005400372435576023,0.013084148376588013,0.1597583563622219
Harness.main,0.0,0.0,0.0,0.0,0.0
ImageReader.<init>,0.09198000000105823,0.0,0.009528749999844877,0.0,0.1015087500009031
ImageTypeSpecifier.createComponentCM,0.12715149999712594,0.0,0.010117499999978463,0.0,0.1372689999971044
InputStreamImageInputStreamSpi.createInputStreamInstance,0.04739044444350938,0.0,0.005486666667113442,0.0,0.05287711111062282
Instance.intersect,0.05877198988271738,0.055073485712677936,0.008230406279527164,0.00810020720383333,0.1301760890787558
InstanceList.getNumPrimitives,0.0,0.0018836551723231012,0.0,0.00035172413795251116,0.0022353793102756125
InstanceList.intersectPrimitive,0.04154509881184687,0.030079887449502532,0.004866859977255915,0.004104068286203781,0.0805959145248091
InstantGI.getIrradiance,0.22964214785551573,0.1135171282527633,0.03375836286511546,0.01504680343645797,0.39196444240985245
IntersectionState.getStack,0.0,0.0169459225744506,0.0,0.0022331101211688206,0.019179032695619422
IntersectionState.getStackTop,0.0060296172975260465,0.1884222641482429,0.0005055567567752723,0.02186032253605889,0.2168177607386031
KDTree.buildTree,0.0,0.14733888888925623,0.0,0.014526666666723836,0.16186555555598006
KDTree.intersect,0.3601500479937508,0.3224493700353764,0.03935805512059986,0.04291644104427937,0.7648739141940064
KDTree.unpackSplit,0.0,0.07360844444742218,0.0,0.007273333333513517,0.08088177778093569
LightSample.setRadiance,0.0,0.0,0.0,0.0,0.0
LightSample.setShadowRay,0.012488708230858818,0.0,0.001186966952576293,0.0,0.01367567518343511
LoggingSupport.getLogger,0.042566296294723915,0.0,0.005327777778600447,0.0,0.04789407407332436
Matrix4.transformPY,0.05953322667028829,0.0,0.008811045027871656,0.0,0.06834427169815994
Matrix4.transformPZ,0.4002338120360458,0.0,0.059230580025347784,0.0,0.45946439206139356
MetaIndex.mayContain,0.01932133712106213,0.0,0.0020709090910686154,0.0,0.021392246212130747
NullAccelerator.intersect,0.049434473996143286,0.03673807806276622,0.004694207868007367,0.00411861987868821,0.09498537980560508
Point3.<init>,0.0,0.0010627510520684585,0.0,0.0001587286814843672,0.0012214797335528256
Ray.<init>,0.09754066328662202,0.011479358682452775,0.010857944332000956,0.001392031015129419,0.12126999731620516
Ray.getMax,0.12215327826078863,0.019688884988043154,0.01775120358693328,0.0027337972221814907,0.16232716405794653
Ray.getMin,0.016183483660360196,0.01758978699173776,0.002399277218540166,0.00250021951220052,0.03867276738283864
Ray.isInside,0.023724794054546746,0.025595360704990588,0.0021341845829139193,0.0021707331379143256,0.053625072480365576
Ray.setMax,0.016884389319127575,0.0,0.002542841243040335,0.0,0.01942723056216791
Ray.transform,0.14753944878305517,0.17898955924432736,0.019108286885307968,0.02320755071901631,0.3688448456317068
Scene.trace,0.0012305945946954546,0.0,0.00010500000005138006,0.0,0.0013355945947468345
Scene.traceShadow,0.0,0.01987201125589488,0.0,0.002492589118236748,0.022364600374131627
ServiceRegistry.<init>,0.0508355555551437,0.0,0.0054566666666586465,0.0,0.05629222222180234
ShadingState.getPoint,0.00675023192455971,0.01689107512730258,0.0009153153614189344,0.002916017299113312,0.027472639712394532
ShadingState.traceShadow,0.007959837043877515,0.0,0.0006631240400653782,0.0,0.008622961083942893
SignatureFileVerifier.<clinit>,0.07395399999707783,0.0,0.00818999999925533,0.0,0.08214399999633316
SignatureFileVerifier.verifyManifestHash,0.0878499999978683,0.0,0.009033333333112143,0.0,0.09688333333098044
Solvers.solveQuadric,0.00039323684902431487,0.049950599165515835,5.934312417406902e-05,0.005143541879706958,0.055546721018421175
Sphere.intersectPrimitive,0.0024001304874580955,0.0024554935135214745,0.0003718657300712983,0.00025195135135200455,0.0054794410824028725
TriangleMesh$WaldTriangle.intersect,0.12708155254263062,0.46020319040848906,0.012932985708825577,0.06536574652729762,0.6655834751872429
TriangleMesh.intersectPrimitive,0.02066219851926595,0.003809448275895757,0.002682709536227317,0.0005922413793400508,0.027746597710729074
TriangleMeshLight$TriangleLight.getSamples,0.10843938132371146,0.08937177446881345,0.010253625366336599,0.015448077012456858,0.22351285817131833
UI.printInfo,0.0,0.0,0.0,0.0,0.0
URLClassPath$JarLoader$2.getInputStream,0.07395399999707783,0.0,0.00818999999925533,0.0,0.08214399999633316
URLClassPath.findResource,0.03605592592740087,0.0,0.004405555555422325,0.0,0.04046148148282319
UnixFileModeAttribute.toUnixMode,0.04739044444350938,0.0,0.005486666667113442,0.0,0.05287711111062282
UnsafeFieldAccessorFactory.newFieldAccessor,0.03135407407373552,0.0,0.004024999999711764,0.0,0.035379074073447286
Vector3.<init>,0.0,0.0177807281016717,0.0,0.0019704181785462275,0.01975114628021793
Vector3.normalize,0.01223245073428181,0.0,0.0018052870493807465,0.0,0.014037737783662557
