method,package1,package2,dram1,dram2,energy
AppContext$2.run,0.10909810256196531,0.0,0.011986153846336469,0.0,0.12108425640830178
AttributeInfo.<init>,0.0,0.013557001322721224,0.0,0.0015971270001031426,0.015154128322824367
AttributeInfo.read,0.03389447798759167,0.0,0.003929528301290152,0.0,0.03782400628888182
AttributeInfo.remove,0.02066430769329413,0.0,0.0016769230770968045,0.0,0.022341230770390935
Benchmark.fileFromInputStream,0.08137999999841364,0.0,0.00817999999950795,0.0,0.0895599999979216
Benchmark.initialize,0.04015100000106031,0.0,0.003897500000069461,0.0,0.044048500001129774
BoundingBox.getMaximum,0.008397484615069025,0.0,0.0012942692307730725,0.0,0.009691753845842099
BoundingIntervalHierarchy.intersect,0.2533036604585448,0.41834967204248147,0.031679200234251144,0.05591707133878679,0.7592496040740643
BucketRenderer.renderBucket,0.013434531676606989,0.01292761977598378,0.001573687134475787,0.0014745323938627844,0.029410370980929343
Chaperone.retire,0.0,0.0,0.0,0.0,0.0
ClassFile.read,0.0,0.013557001322721224,0.0,0.0015971270001031426,0.015154128322824367
ClassPool.makeClass,0.04015100000106031,0.0,0.003897500000069461,0.0,0.044048500001129774
Color.blend,0.035867696850537645,0.0,0.0046451552665544415,0.0,0.04051285211709209
Color.copy,0.0,0.002464046639457396,0.0,0.00036460702269183824,0.0028286536621492343
Color.madd,0.0012671198159556038,0.0,0.00018663594467980649,0.0,0.0014537557606354103
Color.mul,0.08757719506426195,0.0,0.012353430130912361,0.0,0.09993062519517432
CommandLineArgs.extractBenchmarkSet,0.06941733333223965,0.0,0.006960000000011253,0.0,0.0763773333322509
CommandLineArgs.makeOption,0.0,0.0,0.0,0.0,0.0
ConfigFile.configOption,0.014597666668123566,0.0,0.0012700000000525806,0.0,0.015867666668176145
DSA.generateV,0.0,0.017877207180581552,0.0,0.0025073221852058877,0.02038452936578744
DacapoClassLoader.loadClass,0.034403499999219385,0.0,0.003910000000056849,0.0,0.03831349999927623
DerInputBuffer.getTime,0.0,0.013184207571480087,0.0,0.0014081243271673615,0.014592331898647448
DiffuseShader.getDiffuse,0.0012736642958831592,0.0,0.00017202601097458163,0.0,0.001445690306857741
Geometry.intersect,0.10113514816572977,0.04908752323503656,0.009879682014953433,0.007180563634742114,0.1672829170504619
GlassShader.getRadiance,0.0,0.03631146341489866,0.0,0.0052393902438868795,0.04155085365878554
IIORegistry.getDefaultInstance,0.008144307692045681,0.0,0.0007753846159455582,0.0,0.00891969230799124
IOUtils.readFully,0.01905296855386853,0.0,0.0022826415091306744,0.0,0.021335610062999204
ImageTypeSpecifier.createBufferedImage,0.02652993939365401,0.0,0.00170181818160045,0.0,0.028231757575254462
InputStreamImageInputStreamSpi.createInputStreamInstance,0.03492461538385564,0.0,0.003998076922960955,0.0,0.038922692306816595
Instance.intersect,0.025381072171847683,0.0,0.0028800206372105773,0.0,0.02826109280905826
InstanceList.intersectPrimitive,0.010734734989825957,0.0,0.0012003848014384868,0.0,0.011935119791264444
InstantGI.getIrradiance,0.12804980587421375,0.06797856313008294,0.015696726428752382,0.008875185897341969,0.22060028133039103
IntArray.add,0.0,0.043418079996481534,0.0,0.005277600000263191,0.04869567999674473
IntersectionState.getStack,0.01160813139284724,0.0,0.001246731059319523,0.0,0.012854862452166762
IntersectionState.getStackTop,0.032675924554153676,0.0,0.004206956988498777,0.0,0.03688288154265246
JarURLConnection.<init>,0.044315151515713136,0.0,0.004661818181788972,0.0,0.04897696969750211
KDTree$BuildTask.<init>,0.0,0.03521836841741389,0.0,0.0037221052633021993,0.038940473680716084
KDTree.buildTree,0.0,1.1291768615235214,0.0,0.13138006783594897,1.2605569293594703
KDTree.intersect,0.5484251296600998,0.5444555996412522,0.06673602846547105,0.07036558936624568,1.2299823471330686
KDTree.radix12,0.0,0.12769907407346182,0.0,0.011861111110933792,0.1395601851843956
KDTree.unpackAxis,0.0,0.062074999999216125,0.0,0.006811111111178265,0.06888611111039439
Launcher$AppClassLoader.loadClass,0.06616216666831556,0.0,0.006715000000137176,0.0,0.07287716666845274
LightSample.setRadiance,0.0,0.03631146341489866,0.0,0.0052393902438868795,0.04155085365878554
LightSample.setShadowRay,0.018978494202237343,0.0,0.002344723174902254,0.0,0.021323217377139596
LightServer.getScene,0.005035944463111381,0.0,0.0004654772725939252,0.0,0.005501421735705307
LoggingSupport$1.run,0.008144307692045681,0.0,0.0007753846159455582,0.0,0.00891969230799124
LoggingSupport.getLogger,0.04131610256482441,0.0,0.0038399999996330827,0.0,0.04515610256445749
ManifestDigester.<init>,0.0,0.0,0.0,0.0,0.0
MathUtils.clamp,0.030565749499570662,0.0,0.004709562648732255,0.0,0.035275312148302915
Matrix4.transformPX,0.0,0.01770726922996391,0.0,0.0017514972527461288,0.019458766482710037
Matrix4.transformPZ,0.0,0.005921878048755433,0.0,0.0009501219511748344,0.006871999999930267
Matrix4.transformTransposeV,0.0,0.0017576032520481954,0.0,0.000293512195125137,0.0020511154471733323
Matrix4.transformVZ,0.018707439045607482,0.0,0.002309295302659793,0.0,0.021016734348267275
MemberrefInfo.<init>,0.0,0.014982778694101218,0.0,0.001878207387188184,0.0168609860812894
NativeMethodAccessorImpl.invoke0,0.03492461538385564,0.0,0.003998076922960955,0.0,0.038922692306816595
NotFoundException.<init>,0.01188617948747168,0.0,0.0010446153843450023,0.0,0.012930794871816682
NullAccelerator.intersect,0.05055202377917004,0.02454376161751828,0.005896093943881869,0.003590281817371057,0.08458216115794125
ParallelListResourceBundle.loadLookupTablesIfNecessary,0.03376020512764509,0.0,0.002806153845785257,0.0,0.03656635897343035
ParseUtil.canonizeString,0.02065179487153028,0.0,0.002163076922536278,0.0,0.022814871794066556
QMC.halton,0.038851745454171166,0.0,0.004432909091437151,0.0,0.043284654545608314
Ray.<init>,0.010985897160333508,0.01794314995573533,0.0011636365083743118,0.0022073010110440407,0.03229998463548719
Ray.getMax,0.04074284864865086,0.09958626937692504,0.006327796119087242,0.012858504065043531,0.15951541820970666
Ray.getMin,0.0003010684496088245,0.0,3.744651163936558e-05,0.0,0.0003385149612481901
Ray.isInside,0.07868167226257713,0.05788739469451498,0.008443458551298768,0.008166834078757934,0.15317935958714882
Ray.setMax,0.009516173912941113,0.0,0.0011995652172987795,0.0,0.010715739130239892
Ray.transform,0.08651907564823733,0.05827508383025499,0.009129434538805619,0.008211226588153967,0.1621348206054519
Scene.trace,0.000959257069184766,0.0,8.884384936528025e-05,0.0,0.0010481009185500463
Scene.traceShadow,0.0,0.002754328455406854,0.0,0.00043973170733540716,0.0031940601627422614
ShadingState.getPoint,0.08010999320137867,0.0015762615216402367,0.011763848472366764,0.00020402081067607435,0.09365412400606175
ShadingState.getU,0.0,7.641563795711233e-05,0.0,9.447881033204018e-06,8.586351899031634e-05
ShadingState.traceShadow,0.018707439045607482,0.0,0.002309295302659793,0.0,0.021016734348267275
Solvers.solveQuadric,0.0013073913042730505,0.07961284212551137,0.00017304347831826738,0.009806112561982494,0.09089938947008519
Sphere.prepareShadingState,0.005472384615352189,0.0,0.0006102373159017813,0.0,0.00608262193125397
StreamCloser.addToQueue,0.036688435896977366,0.0,0.003150000000086714,0.0,0.03983843589706408
TestHarness.main,0.010762666667384716,0.0,0.0009699999997489307,0.0,0.011732666667133646
TriangleMesh$WaldTriangle.intersect,0.42135235050983155,0.22444890333421982,0.0486357180007229,0.02749569474318036,0.7219326665879546
TriangleMesh.getPoint,0.014049731182435488,0.0,0.0018362967431103056,0.0,0.015886027925545793
TriangleMesh.getPrimitiveBound,0.0,0.12769907407346182,0.0,0.011861111110933792,0.1395601851843956
TriangleMesh.intersectPrimitive,0.16643126802499936,0.01644389195188157,0.022725688058189586,0.002089785638072514,0.20769063367314303
TriangleMeshLight$TriangleLight.getSamples,0.16920496395810997,0.11241661511895408,0.023189258023375365,0.014241179980949509,0.31905201708138886
UI.printInfo,0.03376020512764509,0.0,0.002806153845785257,0.0,0.03656635897343035
URLUtil.urlNoFragString,0.044315151515713136,0.0,0.004661818181788972,0.0,0.04897696969750211
Utf8Info.<init>,0.04087317948907207,0.009173478976083544,0.0029453846160695553,0.0013739556220844335,0.054365998703309604
Vector3.<init>,0.01691478056333451,0.0,0.0024382134093495905,0.0,0.0193529939726841
Vector3.dot,0.010941360937277123,0.014491740338230794,0.001271475511937718,0.001725753534223436,0.02843033032166907
