method,package1,package2,dram1,dram2,energy
AppContext$2.run,0.0,0.10561451004731268,0.0,0.014747479259661538,0.12036198930697421
Benchmark.<init>,0.0,0.058675120418913214,0.0,0.006076712476027527,0.06475183289494074
Benchmark.fileFromInputStream,0.0,0.1451283078844245,0.0,0.020770235863970643,0.16589854374839513
BoundingBox.getMaximum,0.0006139778239395643,0.04198124815322198,7.68295218286481e-05,0.0064533557490943465,0.04912541124808455
BoundingIntervalHierarchy.intersect,0.9073493409590309,0.7852144108181843,0.13605597657930088,0.10462773873245124,1.9332474670889672
BucketRenderer$ImageSample.processed,0.0,0.01374328758162781,0.0,0.0014725490196082426,0.015215836601236052
BucketRenderer.renderBucket,0.0,0.0,0.0,0.0,0.0
Color.blend,0.036429431361272364,0.0,0.0063507961749182905,0.0,0.04278022753619065
Color.copy,0.017301673221389056,0.006109964749295616,0.0026927427047090664,0.000861984387660138,0.026966365063053874
Color.madd,0.01577772802181074,0.0,0.001506881868208638,0.0,0.017284609890019377
DSA.generateV,0.0,0.05620655363742277,0.0,0.0054004612977308275,0.061607014935153595
DerInputBuffer.getBigInteger,0.0,0.020592412264594358,0.0,0.002241007235740411,0.022833419500334767
DisabledAlgorithmConstraints$Constraints.<init>,0.0,0.07913236642165833,0.0,0.011519630111317226,0.09065199653297555
Disposer.lambda$static$0,0.0,0.06984554739469667,0.0,0.009553592678487013,0.07939914007318369
FileCacheImageInputStream.<init>,0.0,0.07193687719494034,0.0,0.009603909395783755,0.0815407865907241
FileURLConnection.getPermission,0.0,0.062365111918139135,0.0,0.009008032750673134,0.07137314466881227
GlassShader.getRadiance,0.00545137692302561,0.0,0.00050999999996118,0.0,0.00596137692298679
IIORegistry.registerStandardSpis,0.0,0.061957979821857086,0.0,0.00812206012547047,0.07008003994732756
ImageIO.getCacheInfo,0.0,0.07193687719494034,0.0,0.009603909395783755,0.0815407865907241
ImageTypeSpecifier.createBufferedImage,0.0,0.044158400374350364,0.0,0.005221772398325157,0.04938017277267552
ImageTypeSpecifier.createComponentCM,0.0,0.03700345478641832,0.0,0.0045961906351766006,0.041599645421594916
Instance.intersect,0.022547232848394442,0.0,0.003562401247437943,0.0,0.026109634095832383
InstanceList.getNumPrimitives,0.0,0.004209162248150383,0.0,0.0005972004241681897,0.004806362672318572
InstanceList.intersectPrimitive,0.08256979619396188,0.043739005212037205,0.011688722598795727,0.0053964018509772005,0.14339392585577201
InstantGI.getIrradiance,0.1496046816539684,0.1412546765494472,0.02202268380426485,0.015621519708069081,0.3285035617157495
IntersectionState.getStack,0.05535028642335564,0.0,0.009330100754563465,0.0,0.0646803871779191
IntersectionState.getStackTop,0.024350867088335858,0.0,0.0030383736624307487,0.0,0.027389240750766607
IntersectionState.hit,0.0,0.028355064163528305,0.0,0.0027487699635761077,0.031103834127104414
KDTree.buildTree,0.23793708367687358,0.0,0.01897994482829891,0.0,0.2569170285051725
KDTree.intersect,0.6717958013227066,0.7580137393082819,0.09189547136052459,0.10019928975700249,1.6219043017485157
KDTree.radix12,0.025924480000200367,0.0,0.002744800000024649,0.0,0.028669280000225016
Launcher$AppClassLoader.loadClass,0.0,0.07913236642165833,0.0,0.011519630111317226,0.09065199653297555
LightSample.<init>,0.0,0.0012114130434423241,0.0,0.0009358695652221998,0.0021472826086645237
LightSample.setShadowRay,0.008675839999996241,0.0022720013397156532,0.001123424999987037,0.00034786287130982014,0.012419129211008751
LightServer$1.run,0.0,0.0,0.0,0.0,0.0
LoggingSupport.getLogger,0.0,0.05286780770022767,0.0,0.007324667373196988,0.06019247507342466
Matrix4.transformPZ,0.0003962770351409045,0.08011431084054373,5.2379531080297226e-05,0.010846305094362312,0.09140927250112724
Matrix4.transformVZ,0.011823295792548694,0.0,0.0013624608868815689,0.0,0.013185756679430264
PNGImageReader.readImage,0.0,0.02166369157802917,0.0,0.0025865215841998244,0.024250213162228994
Ray.<init>,0.06536190945470355,0.06431482229720649,0.007968324536129312,0.008758349687806708,0.14640340597584603
Ray.getMax,0.012248874999936677,0.0,0.0016274855769109144,0.0,0.013876360576847591
Ray.isInside,0.06020655464348603,0.05352717699791749,0.007225728779963934,0.0063542803700749675,0.12731374079144242
Ray.setMax,0.0005925563017163467,0.0,4.707205774370489e-05,0.0,0.0006396283594600516
Ray.transform,0.07789751927175009,0.09893155896049416,0.012892502002001408,0.013509570566286322,0.20323115080053197
Scene.trace,0.0,0.0007025925925753892,0.0,7.855555555175267e-05,0.0007811481481271418
Scene.traceShadow,0.001696979665439906,0.0,0.0002774402239482896,0.0,0.0019744198893881957
ShadingState$LightSampleIterator.next,0.004895333333339434,0.0,0.000894999999964523,0.0,0.005790333333303957
ShadingState.<init>,0.0035040775193722713,0.0,0.00030854651163810014,0.0,0.0038126240310103715
ShadingState.addSample,0.013187595787932691,0.0,0.0019639493119793295,0.0,0.01515154509991202
ShadingState.getPoint,0.030675363822177074,0.0012030666668174995,0.003941053695051725,0.00018266666666022505,0.03600215085070652
ShadingState.getRandom,0.0,0.003770888718478379,0.0,0.000519260998712091,0.00429014971719047
ShadingState.traceShadow,0.021326859523457718,0.0,0.0032928682244462233,0.0,0.02461972774790394
Solvers.solveQuadric,0.0,0.035443543924106743,0.0,0.00567063198822225,0.04111417591232899
Sphere.intersectPrimitive,0.0,0.00042630631229747997,0.0,5.80477310296244e-05,0.0004843540433271044
SunToolkit.<clinit>,0.0,0.10561451004731268,0.0,0.014747479259661538,0.12036198930697421
SunToolkit.initEQ,0.0,0.015415680528546062,0.0,0.0018126425232482567,0.01722832305179432
SymbolTable.append,0.0,0.02752622226145331,0.0,0.003934670187001027,0.03146089244845433
TriangleFilter.get,0.0,0.007276125252511438,0.0,0.0009679090908945793,0.008244034343406016
TriangleMesh$WaldTriangle.intersect,0.22797163173327548,0.21544927826156066,0.02668770883101243,0.029444977871479573,0.49955359669732813
TriangleMesh.getPoint,0.0,0.0007025925925753892,0.0,7.855555555175267e-05,0.0007811481481271418
TriangleMesh.intersectPrimitive,0.06427718560812272,0.09406514996603163,0.0075551573522419585,0.012507997250094046,0.17840549017649035
TriangleMesh.prepareShadingState,0.005346897876568617,0.0,0.0008878058645055235,0.0,0.006234703741074141
TriangleMeshLight$TriangleLight.getSamples,0.08786824626229577,0.3961336502507592,0.0126176763440826,0.049776074167129584,0.5463956470242671
TriangleMeshLight$TriangleLight.intersectTriangleKensler,0.015679276785665153,0.0,0.001967584821444949,0.0,0.0176468616071101
TriangleMeshLight.access$1000,0.018730035233807098,0.0,0.0034092048240681994,0.0,0.022139240057875296
TriangleMeshLight.init,0.0,0.043636978172759015,0.0,0.004408998111838135,0.04804597628459715
Utf8Info.<init>,0.0,0.02500442009440466,0.0,0.0038960199775922057,0.028900440071996866
Vector3.cross,0.0,0.02406529414961836,0.0,0.0038092166370326595,0.02787451078665102
Vector3.dot,0.06048277157245646,0.0,0.00723301236490982,0.0,0.06771578393736628
