method,package1,package2,dram1,dram2,energy
com.sun.imageio.spi,0.0,0.09280133334201916,0.0,0.013199375000264505,0.10600070834228367
javassist.bytecode,0.0,0.16481157142478634,0.0,0.020310476190056687,0.18512204761484302
javassist.bytecode.stackmap,0.0,0.0415140833301848,0.0,0.00600249999956759,0.04751658332975239
javax.imageio,0.0,0.074198249996698,0.0,0.008417500000102033,0.08261574999680003
javax.imageio.spi,0.0,0.02312555555383571,0.0,0.003386666666604772,0.02651222222044048
javax.imageio.stream,0.0,0.05652666666622584,0.0,0.008765999999983856,0.0652926666662097
org.dacapo.harness,0.0,0.08097333333959493,0.0,0.010999999999815676,0.0919733333394106
org.sunflow,0.0,0.059407592542229014,0.0,0.007147919337115665,0.06655551187934468
org.sunflow.core,0.36365557120163483,0.2516051876491208,0.04537608141008592,0.03373992102823284,0.6943767612890744
org.sunflow.core.accel,2.086065399473804,0.9094464324760708,0.20051311866846463,0.1240642416517513,3.320089192270091
org.sunflow.core.gi,0.0460188750734498,0.07081482096076724,0.00581737976752703,0.008958809435367025,0.1316098852371111
org.sunflow.core.light,0.13462805713838127,0.3032790533332006,0.01526326511915091,0.03719258609981068,0.4903629616905435
org.sunflow.core.primitive,0.4097962665344215,0.2250076367191677,0.04553816269408167,0.03065760432091088,0.7109996702685818
org.sunflow.core.renderer,0.0,0.0,0.0,0.0,0.0
org.sunflow.image,0.017627635922057315,0.017985118348522632,0.002194425423739252,0.002171771427241934,0.03997895112156113
org.sunflow.math,0.14445766946747735,0.0,0.016698465266538818,0.0,0.16115613473401616
sun.awt,0.0,0.006173333336066986,0.0,0.0007771428572596051,0.006950476193326591
sun.awt.image,0.0,0.03046866666797238,0.0,0.00439999999992627,0.03486866666789865
sun.java2d,0.0,0.028515599999809637,0.0,0.004392000000128367,0.032907599999938
sun.misc,0.0,0.13714566666749303,0.0,0.02058000000033644,0.15772566666782947
sun.net.www.protocol.file,0.0,0.026943666668052577,0.0,0.0036466666667062477,0.030590333334758826
sun.security.provider,0.0,0.20596410063032428,0.0,0.025185858792599044,0.23114995942292332
sun.util.resources,0.0,0.0,0.0,0.0,0.0
