method,package1,package2,dram1,dram2,energy
AppContext$2.run|AppContext$2.run|AccessController.doPrivileged,0.0,0.08907570760514671,0.0,0.012625087719355003,0.10170079532450171
AttributeInfo.<init>|AnnotationsAttribute.<init>|AttributeInfo.read,0.0,0.08720836364029146,0.0,0.013442727272955712,0.10065109091324717
AttributeInfo.<init>|ExceptionsAttribute.<init>|AttributeInfo.read,0.0,0.05482675654127197,0.0,0.006987826155371457,0.06181458269664342
Benchmark.<init>|NativeConstructorAccessorImpl.newInstance0|NativeConstructorAccessorImpl.newInstance,0.0,0.1605632478651356,0.0,0.022886153846159756,0.18344940171129534
Benchmark.fileFromInputStream|Benchmark.extractFileResource|Benchmark.prepareJars,0.0,0.01676433333098733,0.0,0.0020400000000032983,0.01880433333099063
BezierMesh.getPatchPoint|BezierMesh.tesselate|Geometry.tesselate,0.0,0.002442947049360473,0.0,0.00029607934860139583,0.002739026397961869
BitArray.<init>|BitArray.clone|X509Key.setKey,0.0,0.058256806108632174,0.0,0.00692135016524798,0.06517815627388016
BoundingBox.getMaximum|BoundingIntervalHierarchy.intersect|Scene.trace,0.013273340540409493,0.0,0.0015623783783961995,0.0,0.014835718918805692
BoundingBox.getMaximum|KDTree.intersect|Geometry.intersect,0.01972092140902716,0.0,0.0019927777778007863,0.0,0.02171369918682795
BoundingIntervalHierarchy.intersect|Scene.trace|LightServer.getRadiance,0.007124463025851353,0.004610313131412811,0.0012595178991245918,0.0005327272727189471,0.013527021329107703
BoundingIntervalHierarchy.intersect|Scene.trace|Scene.traceShadow,0.5204593254912033,0.6988282422523996,0.08127046114399836,0.09305547132255279,1.393613500210154
BucketRenderer.refineSamples|BucketRenderer.refineSamples|BucketRenderer.renderBucket,0.0,0.01728472720498891,0.0,0.0019434317548479973,0.019228158959836907
BucketRenderer.renderBucket|BucketRenderer.access$300|BucketRenderer$BucketThread.run,0.0,0.0,0.0,0.0,0.0
CodeAttribute.<init>|AttributeInfo.read|MethodInfo.read,0.0,0.06703309090913866,0.0,0.008971363636440155,0.07600445454557882
Color.copy|LightSample.setRadiance|TriangleMeshLight$TriangleLight.getSamples,0.0009276395026112897,0.0,0.0001487890326813245,0.0,0.0010764285352926142
Config.parse|TestHarness.<init>|TestHarness.main,0.0,0.13346333332689633,0.0,0.01494500000020101,0.14840833332709735
ConstPool.readOne|ConstPool.read|ConstPool.<init>,0.0,0.0,0.0,0.0,0.0
DisabledAlgorithmConstraints.<init>|SignatureFileVerifier.<clinit>|JarFile.initializeVerifier,0.0,0.0375671666697599,0.0,0.004772500000096139,0.04233966666985604
FileCacheImageInputStream.<init>|InputStreamImageInputStreamSpi.createInputStreamInstance|ImageIO.createImageInputStream,0.0,0.02308410526357444,0.0,0.003467368420962501,0.02655147368453694
FileURLConnection.getPermission|JarFileFactory.getPermission|JarFileFactory.getCachedJarFile,0.0,0.0,0.0,0.0,0.0
Geometry.intersect|Instance.intersect|InstanceList.intersectPrimitive,0.10209491537384172,0.0,0.01485695680377399,0.0,0.11695187217761571
IIORegistry.registerStandardSpis|IIORegistry.<init>|IIORegistry.getDefaultInstance,0.0,0.012952315789573874,0.0,0.00192789473677342,0.014880210526347293
ImageTypeSpecifier$Packed.<init>|ImageTypeSpecifier.createPacked|ImageTypeSpecifier.createSpecifier,0.0,0.07177745454431385,0.0,0.010129090909686056,0.0819065454539999
InputStreamImageInputStreamSpi.createInputStreamInstance|ImageIO.createImageInputStream|ImageIO.read,0.0,0.021041052630416262,0.0,0.0030315789473733226,0.024072631577789584
Instance.intersect|InstanceList.intersectPrimitive|BoundingIntervalHierarchy.intersect,0.05937199895164716,0.012386597340107521,0.00826749042527216,0.0017311803787213443,0.0817572670957482
InstanceList.intersectPrimitive|BoundingIntervalHierarchy.intersect|Scene.trace,0.05034617948732399,0.02343143664990763,0.008536923076929106,0.002971568142117607,0.08528610735627833
InstantGI.getIrradiance|LightServer.getIrradiance|ShadingState.getIrradiance,0.03423951322056626,0.053743721837353986,0.004672487420197979,0.006898146128943893,0.09955386860706211
IntersectionState.getStackTop|BoundingIntervalHierarchy.intersect|Scene.trace,0.07971776137041242,0.0,0.013167020408866022,0.0,0.09288478177927845
IntersectionState.getStackTop|KDTree.intersect|Geometry.intersect,0.0,0.014100195039534209,0.0,0.0016759826590063338,0.015776177698540544
IntersectionState.getStack|BoundingIntervalHierarchy.intersect|Scene.trace,0.03684001891263084,0.0005014327940804879,0.005683073663722566,7.518557841084824e-05,0.04309971094884474
IntersectionState.hit|Scene.traceShadow|ShadingState.traceShadow,0.0017021895603118154,0.0,0.00023992994511290517,0.0,0.0019421195054247205
KDTree$BuildTask.<init>|KDTree.buildTree|KDTree.buildTree,0.0,0.0561617887201056,0.0,0.00656599651205574,0.06272778523216134
KDTree.buildTree|KDTree.buildTree|KDTree.buildTree,0.0,0.6969851163212479,0.0,0.07905795515296857,0.7760430714742165
KDTree.buildTree|KDTree.build|Geometry.build,0.0,0.1575100201361586,0.0,0.016460639608127582,0.1739706597442862
KDTree.intersect|Geometry.intersect|Instance.intersect,0.4925154167072033,0.5963625669790458,0.06503613949471508,0.07768567527613697,1.231599798457101
LightSample.setRadiance|TriangleMeshLight$TriangleLight.getSamples|LightServer.initLightSamples,0.029371581883088436,0.0,0.004630097331936917,0.0,0.03400167921502535
LightSample.setShadowRay|TriangleMeshLight$TriangleLight.getSamples|LightServer.initLightSamples,0.0,0.0010301661160284684,0.0,0.0001262506705240576,0.001156416786552526
LoggingSupport.getLogger|PlatformLogger$JavaLoggerProxy.<init>|PlatformLogger$JavaLoggerProxy.<init>,0.0,0.0996635555444906,0.0,0.014613333332818003,0.11427688887730861
Matrix4.transformPX|Ray.transform|Instance.intersect,0.010903942222788895,0.028046297872354808,0.0016462888888889682,0.003866170212743182,0.04446269919677585
Matrix4.transformPY|Ray.transform|Instance.intersect,0.0006337783785368031,0.0,0.00012382432428854076,0.0,0.0007576027028253439
Matrix4.transformPZ|Ray.transform|Instance.intersect,0.062055209631153595,0.0321523435961589,0.010258474977837332,0.004128707088426886,0.10859473529357672
Matrix4.transformVX|Ray.transform|Camera.getRay,0.0,0.0070882770894056,0.0,0.0009550199515973962,0.008043297041002996
NullAccelerator.intersect|Geometry.intersect|Instance.intersect,0.02769689723539502,0.0067249042506526725,0.0029020465367390127,0.0008042183513540579,0.03812806637414076
QMC.<clinit>|LightServer$1.run|Thread.run,0.0,0.01277608062012053,0.0,0.0017177089764960367,0.014493789596616567
QMC.halton|BucketRenderer.computeSubPixel|BucketRenderer.refineSamples,0.0,0.019706463114611977,0.0,0.002220890048761853,0.02192735316337383
Ray.<init>|InstantGI.getIrradiance|LightServer.getIrradiance,0.012111234175098264,0.03921345781923268,0.001945848423163902,0.005360176067173206,0.05863071648466805
Ray.getMax|BoundingIntervalHierarchy.intersect|Scene.trace,0.054209597527453475,0.04356103517496843,0.009362511539974394,0.005599206252599371,0.11273235049499565
Ray.getMax|Instance.intersect|InstanceList.intersectPrimitive,0.0,0.039508001948503665,0.0,0.004952608036917962,0.044460609985421624
Ray.getMax|KDTree.intersect|Geometry.intersect,0.0,0.03172585398950163,0.0,0.0035001697792637625,0.035226023768765394
Ray.isInside|TriangleMesh$WaldTriangle.intersect|TriangleMesh.intersectPrimitive,0.0362625880332434,0.05140085147273543,0.004723713557312069,0.006837355414307132,0.09922450847759803
Ray.setMax|TriangleMesh$WaldTriangle.intersect|TriangleMesh.intersectPrimitive,0.006937722326433797,0.0,0.0005522842401375492,0.0,0.007490006566571346
Ray.transform|Instance.intersect|InstanceList.intersectPrimitive,0.15835574134717825,0.07417253079640163,0.0246157910872604,0.010437685785918766,0.267581749016759
Resource.getBytes|URLClassLoader.defineClass|URLClassLoader.access$100,0.0,0.0375671666697599,0.0,0.004772500000096139,0.04233966666985604
Scene.traceShadow|ShadingState.traceShadow|InstantGI.getIrradiance,0.0,0.03405702823778184,0.0,0.00427987828628167,0.03833690652406351
ShadingState.getPoint|TriangleMeshLight$TriangleLight.getSamples|LightServer.initLightSamples,0.0,0.0009976046737774293,0.0,0.00013270691333841573,0.001130311587115845
ShadingState.getV|TriangleMesh.prepareShadingState|Geometry.prepareShadingState,0.001602740023023806,0.0,0.00027257425839245986,0.0,0.0018753142814162658
Solvers.solveQuadric|Sphere.intersectPrimitive|NullAccelerator.intersect,0.0,0.011526086372310349,0.0,0.001390900510438804,0.012916986882749153
Sphere.intersectPrimitive|NullAccelerator.intersect|Geometry.intersect,0.012985488735618859,0.011656448069342514,0.001770997701119208,0.0014148253663113439,0.027827759872391923
Sphere.prepareShadingState|Geometry.prepareShadingState|Instance.prepareShadingState,0.0,0.02218124377053421,0.0,0.0025557659998277477,0.024737009770361956
SunflowAPI.reset|SunflowAPI.<init>|Benchmark$BenchmarkScene.<init>,0.0,0.1298313474610226,0.0,0.013971551506344878,0.14380289896736748
TriangleMesh$WaldTriangle.intersect|TriangleMesh.intersectPrimitive|KDTree.intersect,0.13347498270198416,0.25187939646770496,0.017664669698105716,0.03178047979836066,0.4347995286661555
TriangleMesh$WaldTriangle.intersect|TriangleMesh.intersectPrimitive|NullAccelerator.intersect,0.05034617948732399,0.0004873702861630472,0.008536923076929106,6.0858700592047537e-05,0.05943133155100819
TriangleMesh.intersectPrimitive|KDTree.intersect|Geometry.intersect,0.055980941689169034,0.030706777599058863,0.006783268077422381,0.004057921838584771,0.09752890920423506
TriangleMesh.intersectPrimitive|NullAccelerator.intersect|Geometry.intersect,0.01241269701149117,0.0,0.001985006896573542,0.0,0.014397703908064712
TriangleMeshLight$TriangleLight.getSamples,0.0,0.01016282598368734,0.0,0.0014697175255991356,0.011632543509286476
TriangleMeshLight$TriangleLight.getSamples|LightServer.initLightSamples|ShadingState.initLightSamples,0.23635231268903154,0.15069089063181604,0.031284831534044794,0.020734332395133084,0.4390623672500254
Vector3.<init>|TriangleMeshLight$TriangleLight.getSamples|LightServer.initLightSamples,0.009715034259929211,0.0,0.0012628980627502804,0.0,0.010977932322679492
Vector3.cross|TriangleMeshLight$TriangleLight.getSamples|LightServer.initLightSamples,0.0,0.03141852871369901,0.0,0.0037822928510745546,0.03520082156477357
Vector3.dot|TriangleMeshLight$TriangleLight.getSamples|LightServer.initLightSamples,0.01025736934853534,0.025694448387288262,0.0016355540230056232,0.0032839299571897555,0.04087130171601898
X509CertInfo.parse|X509CertInfo.<init>|X509CertImpl.parse,0.0,0.03632156793258952,0.0,0.004411812463104174,0.04073338039569369
