method,hits
AppContext$2.run,2
Benchmark.<init>,2
BoundingBox.getMaximum,2
BoundingIntervalHierarchy.intersect,98
BucketRenderer$ImageSample.processed,2
BucketRenderer.refineSamples,2
BucketRenderer.renderBucket,12
ByteComponentRaster.<clinit>,2
ClassFile.read,2
Color.blend,2
Color.copy,2
ConfigFile.<init>,2
ConfigFileTokenManager.jjFillToken,2
DigraphNode.getOutNodes,2
DisabledAlgorithmConstraints.<init>,2
Geometry.build,2
Geometry.intersect,6
Handler.openConnection,2
IIORegistry.<clinit>,2
ImageTypeSpecifier$Packed.<init>,2
Instance.getShader,2
Instance.intersect,18
InstanceList.intersectPrimitive,2
InstantGI.getIrradiance,10
IntersectionState.hit,2
KDTree.buildTree,16
KDTree.intersect,136
KDTree.radix12,2
LightServer.getPhotonShader,2
LightServer.initLightSamples,2
Matrix4.transformPX,4
Matrix4.transformPZ,6
Matrix4.transformTransposeV,2
NullAccelerator.intersect,4
OrthoNormalBasis.makeFromW,2
PKCS7.<init>,2
QMC.<clinit>,2
Ray.dot,2
Ray.getMax,10
Ray.getMin,4
Ray.isInside,10
Ray.transform,24
Scene.traceShadow,6
TriangleMesh$WaldTriangle.intersect,64
TriangleMesh.intersectPrimitive,20
TriangleMesh.prepareShadingState,2
TriangleMeshLight$TriangleLight.getSamples,32
TriangleMeshLight$TriangleLight.intersectTriangleKensler,2
Vector3.dot,6
