method,hits
AccelerationStructureFactory.create,2
BoundingBox.getMaximum,4
BoundingIntervalHierarchy.intersect,126
BucketRenderer.computeSubPixel,2
BucketRenderer.renderBucket,12
ByteInterleavedRaster.putByteData,2
Cache.newSoftMemoryCache,2
Color.blend,8
Color.copy,8
Color.hasContrast,2
DerInputBuffer.getTime,2
Geometry.intersect,4
GlassShader.getRadiance,2
IIORegistry.registerStandardSpis,2
ISO_8859_1.newEncoder,2
Instance.intersect,14
Instance.transformVectorObjectToWorld,2
InstantGI.getIrradiance,28
IntersectionState.getStackTop,2
KDTree.buildTree,28
KDTree.intersect,154
KDTree.unpackSplit,2
LightSample.<init>,2
LightSample.setShadowRay,12
LightServer.getScene,2
LightServer.shadePhoton,2
NullAccelerator.intersect,2
OrthoNormalBasis.makeFromW,2
QMC.halton,4
Ray.<init>,26
Ray.getMax,12
Ray.isInside,16
Ray.setMax,4
Ray.transform,18
Scene.traceShadow,4
ShadingState.addSample,4
ShadingState.getGeoNormal,2
Solvers.solveQuadric,4
SunflowAPI.reset,2
TriangleMesh$WaldTriangle.intersect,78
TriangleMesh.intersectPrimitive,12
TriangleMeshLight$TriangleLight.getSamples,40
TriangleMeshLight$TriangleLight.intersectTriangleKensler,4
Vector3.dot,26
