method,package1,package2,dram1,dram2,energy
AppContext$2.run,0.0,0.08907570760514671,0.0,0.012625087719355003,0.10170079532450171
AttributeInfo.<init>,0.0,0.08720836364029146,0.0,0.013442727272955712,0.10065109091324717
BezierMesh.getPatchPoint,0.0,0.002442947049360473,0.0,0.00029607934860139583,0.002739026397961869
BitArray.<init>,0.0,0.058256806108632174,0.0,0.00692135016524798,0.06517815627388016
BoundingBox.getMaximum,0.03299426194943665,0.0,0.0035551561561969858,0.0,0.036549418105633634
BoundingIntervalHierarchy.intersect,0.5275837885170547,0.7034385553838124,0.08252997904312295,0.09358819859527176,1.4071405215392618
BucketRenderer.refineSamples,0.0,0.01728472720498891,0.0,0.0019434317548479973,0.019228158959836907
BucketRenderer.renderBucket,0.0,0.0,0.0,0.0,0.0
Color.copy,0.0009276395026112897,0.0,0.0001487890326813245,0.0,0.0010764285352926142
Config.parse,0.0,0.13346333332689633,0.0,0.01494500000020101,0.14840833332709735
DisabledAlgorithmConstraints.<init>,0.0,0.0375671666697599,0.0,0.004772500000096139,0.04233966666985604
FileCacheImageInputStream.<init>,0.0,0.02308410526357444,0.0,0.003467368420962501,0.02655147368453694
Geometry.intersect,0.10209491537384172,0.0,0.01485695680377399,0.0,0.11695187217761571
IIORegistry.registerStandardSpis,0.0,0.012952315789573874,0.0,0.00192789473677342,0.014880210526347293
InputStreamImageInputStreamSpi.createInputStreamInstance,0.0,0.021041052630416262,0.0,0.0030315789473733226,0.024072631577789584
Instance.intersect,0.05937199895164716,0.012386597340107521,0.00826749042527216,0.0017311803787213443,0.0817572670957482
InstanceList.intersectPrimitive,0.05034617948732399,0.02343143664990763,0.008536923076929106,0.002971568142117607,0.08528610735627833
InstantGI.getIrradiance,0.03423951322056626,0.053743721837353986,0.004672487420197979,0.006898146128943893,0.09955386860706211
IntersectionState.getStack,0.03684001891263084,0.0005014327940804879,0.005683073663722566,7.518557841084824e-05,0.04309971094884474
IntersectionState.getStackTop,0.07971776137041242,0.014100195039534209,0.013167020408866022,0.0016759826590063338,0.10866095947781898
IntersectionState.hit,0.0017021895603118154,0.0,0.00023992994511290517,0.0,0.0019421195054247205
KDTree$BuildTask.<init>,0.0,0.0561617887201056,0.0,0.00656599651205574,0.06272778523216134
KDTree.buildTree,0.0,0.8544951364574065,0.0,0.09551859476109614,0.9500137312185026
KDTree.intersect,0.4925154167072033,0.5963625669790458,0.06503613949471508,0.07768567527613697,1.231599798457101
LightSample.setRadiance,0.029371581883088436,0.0,0.004630097331936917,0.0,0.03400167921502535
LightSample.setShadowRay,0.0,0.0010301661160284684,0.0,0.0001262506705240576,0.001156416786552526
Matrix4.transformPX,0.010903942222788895,0.028046297872354808,0.0016462888888889682,0.003866170212743182,0.04446269919677585
Matrix4.transformPY,0.0006337783785368031,0.0,0.00012382432428854076,0.0,0.0007576027028253439
Matrix4.transformPZ,0.062055209631153595,0.0321523435961589,0.010258474977837332,0.004128707088426886,0.10859473529357672
Matrix4.transformVX,0.0,0.0070882770894056,0.0,0.0009550199515973962,0.008043297041002996
NullAccelerator.intersect,0.02769689723539502,0.0067249042506526725,0.0029020465367390127,0.0008042183513540579,0.03812806637414076
QMC.<clinit>,0.0,0.01277608062012053,0.0,0.0017177089764960367,0.014493789596616567
QMC.halton,0.0,0.019706463114611977,0.0,0.002220890048761853,0.02192735316337383
Ray.<init>,0.012111234175098264,0.03921345781923268,0.001945848423163902,0.005360176067173206,0.05863071648466805
Ray.getMax,0.054209597527453475,0.11479489111297371,0.009362511539974394,0.014051984068781095,0.1924189842491827
Ray.isInside,0.0362625880332434,0.05140085147273543,0.004723713557312069,0.006837355414307132,0.09922450847759803
Ray.setMax,0.006937722326433797,0.0,0.0005522842401375492,0.0,0.007490006566571346
Ray.transform,0.15835574134717825,0.07417253079640163,0.0246157910872604,0.010437685785918766,0.267581749016759
Scene.traceShadow,0.0,0.03405702823778184,0.0,0.00427987828628167,0.03833690652406351
ShadingState.getPoint,0.0,0.0009976046737774293,0.0,0.00013270691333841573,0.001130311587115845
ShadingState.getV,0.001602740023023806,0.0,0.00027257425839245986,0.0,0.0018753142814162658
Solvers.solveQuadric,0.0,0.011526086372310349,0.0,0.001390900510438804,0.012916986882749153
Sphere.intersectPrimitive,0.012985488735618859,0.011656448069342514,0.001770997701119208,0.0014148253663113439,0.027827759872391923
SunflowAPI.reset,0.0,0.1298313474610226,0.0,0.013971551506344878,0.14380289896736748
TriangleMesh$WaldTriangle.intersect,0.18382116218930816,0.252366766753868,0.026201592775034824,0.03184133849895271,0.49423086021716367
TriangleMesh.intersectPrimitive,0.0683936387006602,0.030706777599058863,0.008768274973995923,0.004057921838584771,0.11192661311229976
TriangleMeshLight$TriangleLight.getSamples,0.18873771632045155,0.14337193039607135,0.024671129298519758,0.019710583861748784,0.37649135987679144
Vector3.cross,0.0,0.03141852871369901,0.0,0.0037822928510745546,0.03520082156477357
Vector3.dot,0.01025736934853534,0.025694448387288262,0.0016355540230056232,0.0032839299571897555,0.04087130171601898
X509CertInfo.parse,0.0,0.03632156793258952,0.0,0.004411812463104174,0.04073338039569369
