method,package1,package2,dram1,dram2,energy
BigInteger.multiplyToLen,0.0,0.02559643059025101,0.0,0.002474656249443813,0.028071086839694823
BufferedInputStream.read,0.0,0.046257304024008836,0.0,0.004850253680714178,0.051107557704723014
ClassLoader.findBootstrapClass,0.0,0.05065532747823534,0.0,0.007665515787500266,0.058320843265735604
DataInputStream.readUnsignedShort,0.0,0.045002603005784764,0.0,0.0058831855822083405,0.05088578858799311
FileOutputStream.writeBytes,0.0,0.07440016775881844,0.0,0.010444229559210023,0.08484439731802847
Inflater.inflateBytes,0.0,0.20985292713085468,0.0,0.02823875369558517,0.23809168082643986
JarFile.initializeVerifier,0.0,0.05999176303625571,0.0,0.00837054550281874,0.06836230853907445
Logger.<init>,0.0,0.032669665546948036,0.0,0.004832190029075688,0.03750185557602372
Logger.findSystemResourceBundle,0.0,0.030740673556638964,0.0,0.002272336489257725,0.03301301004589669
Math.acos,0.0,0.04811517853617638,0.0,0.008155464451263212,0.0562706429874396
Object.<init>,0.011687827446280623,0.0,0.0012568122514316276,0.0,0.01294463969771225
StrictMath.acos,0.0669019905569689,0.0,0.007498867650655399,0.0,0.07440085820762429
StrictMath.atan2,0.0,0.0,0.0,0.0,0.0
String.length,0.0,0.05022273574082662,0.0,0.0058761800036582715,0.05609891574448489
TempFileHelper.generatePath,0.0,0.02597890121854436,0.0,0.002637715298588937,0.028616616517133295
Thread.start0,0.0,0.007189485242642783,0.0,0.0007830806365245657,0.00797256587916735
