method,package1,package2,dram1,dram2,energy
ArrayList.grow,0.04938133333344012,0.0,0.0028359999996609986,0.0,0.05221733333310112
Arrays.copyOf,0.07780149999841038,0.0,0.006772499999957896,0.0,0.08457399999836827
BufferedOutputStream.write,0.054704000001462805,0.0,0.004876000000513159,0.0,0.05958000000197596
Class.getDeclaredConstructors0,0.0,0.0,0.0,0.0,0.0
ClassLoader.defineClass1,0.0,0.048382712645193934,0.0,0.004877241379499433,0.05325995402469337
ComponentColorModel.extractComponent,0.058016307691174836,0.0,0.006189230769870426,0.0,0.06420553846104526
ComponentColorModel.getRGB,0.058016307691174836,0.0,0.006189230769870426,0.0,0.06420553846104526
DataInputStream.readUnsignedShort,0.15333725555521796,0.0,0.013411666667202045,0.0,0.16674892222242
Inflater.inflateBytes,0.1811802769223831,0.0,0.016643846153676395,0.0,0.19782412307605948
Level$KnownLevel.add,0.05481583333603338,0.0,0.006002499999885913,0.0,0.060818333335919295
LogManager$LoggerContext.addLocalLogger,0.03556116666683616,0.0,0.0016660000003563859,0.0,0.03722716666719254
LoggingProxyImpl.getLogger,0.040146866665842634,0.0,0.002085999999932634,0.0,0.04223286666577527
Math.abs,0.0,0.0015348995456018087,0.0,0.00020768267416558102,0.0017425822197673897
Math.acos,0.04653773195867562,0.0,0.006516185567006782,0.0,0.0530539175256824
StrictMath.acos,0.0030969629636577642,0.052981266978093355,0.0002977777778007158,0.0065808245238500734,0.06295683224340191
Throwable.fillInStackTrace,0.09385200000057617,0.0,0.010609999999966629,0.0,0.1044620000005428
