method,package1,package2,dram1,dram2,energy
java.awt.image,0.0,0.15201848018472816,0.0,0.02025524475562307,0.17227372494035123
java.io,0.0,0.12185984745041062,0.0,0.01595918979181161,0.13781903724222222
java.lang,0.05732963062850918,0.0998279413329716,0.007876600298275315,0.013777528353114826,0.1788117006128709
java.util,0.0,0.08032222222472128,0.0,0.01276000000022274,0.09308222222494403
java.util.logging,0.0,0.0498317777722453,0.0,0.007306666666409002,0.057138444438654304
java.util.zip,0.0,0.054331500000747227,0.0,0.006812500000099437,0.06114400000084666
