method,hits
BigInteger.<clinit>,2
BigInteger.multiplyToLen,2
BufferedInputStream.read,2
ClassLoader.findBootstrapClass,2
DataBuffer.<clinit>,2
EventQueue.<clinit>,2
FileOutputStream.writeBytes,2
HashMap.putVal,2
Inflater.inflateBytes,2
LogManager$LoggerContext.processParentHandlers,2
Logger.<init>,2
Math.abs,2
Raster.createWritableRaster,2
StrictMath.acos,10
TempFileHelper$PosixPermissions.<clinit>,2
Thread.start0,2
