method,package1,package2,dram1,dram2,energy
java.io,0.0,0.19956223808879417,0.0,0.026039809523486862,0.22560204761228103
java.lang,0.039796658928961344,0.14086749125701398,0.004220571428621562,0.018522716399407873,0.20340743801400474
java.math,0.0,0.10148033636317835,0.0,0.012001796332756848,0.1134821326959352
java.util,0.0,0.0,0.0,0.0,0.0
java.util.jar,0.0,0.08068833333284904,0.0,0.012380000000121072,0.09306833333297011
java.util.regex,0.0,0.009819777777819479,0.0,0.0013666666667025613,0.011186444444522041
java.util.zip,0.0,0.13743066667423892,0.0,0.019200000000031046,0.15663066667426997
