method,package1,package2,dram1,dram2,energy
AppContext$2,0.04397046153779882,0.0,0.005061538461655474,0.0,0.0490319999994543
AttributeInfo,0.02066430769329413,0.0,0.0016769230770968045,0.0,0.022341230770390935
Benchmark,0.04015100000106031,0.0,0.003897500000069461,0.0,0.044048500001129774
BigInteger,0.0,0.017877207180581552,0.0,0.0025073221852058877,0.02038452936578744
BoundingBox,0.008397484615069025,0.0,0.0012942692307730725,0.0,0.009691753845842099
BoundingIntervalHierarchy,0.2533036604585448,0.41834967204248147,0.031679200234251144,0.05591707133878679,0.7592496040740643
BucketRenderer,0.013434531676606989,0.01292761977598378,0.001573687134475787,0.0014745323938627844,0.029410370980929343
BufferedInputStream,0.11491865747772405,0.037713258992905986,0.01077241291742917,0.00484929000937576,0.16825361939743497
Chaperone,0.0,0.0,0.0,0.0,0.0
Class,0.008144307692045681,0.0,0.0007753846159455582,0.0,0.00891969230799124
ClassFile,0.0,0.013557001322721224,0.0,0.0015971270001031426,0.015154128322824367
ClassLoader,0.08596799999941139,0.0,0.009355000000141445,0.0,0.09532299999955283
Color,0.1247120117307552,0.002464046639457396,0.017185221342146607,0.00036460702269183824,0.14472588673505105
CommandLineArgs,0.0,0.0,0.0,0.0,0.0
ConcurrentHashMap,0.03376020512764509,0.0,0.002806153845785257,0.0,0.03656635897343035
ConfigFile,0.014597666668123566,0.0,0.0012700000000525806,0.0,0.015867666668176145
DataInputStream,0.0,0.0,0.0,0.0,0.0
DerInputBuffer,0.0,0.013184207571480087,0.0,0.0014081243271673615,0.014592331898647448
DiffuseShader,0.0012736642958831592,0.0,0.00017202601097458163,0.0,0.001445690306857741
FileOutputStream,0.04068999999920682,0.0,0.004089999999753975,0.0,0.0447799999989608
Formatter$FormatSpecifier,0.03376020512764509,0.0,0.002806153845785257,0.0,0.03656635897343035
Geometry,0.10113514816572977,0.04908752323503656,0.009879682014953433,0.007180563634742114,0.1672829170504619
GlassShader,0.0,0.03631146341489866,0.0,0.0052393902438868795,0.04155085365878554
IIORegistry,0.008144307692045681,0.0,0.0007753846159455582,0.0,0.00891969230799124
ImageTypeSpecifier,0.02652993939365401,0.0,0.00170181818160045,0.0,0.028231757575254462
Inflater,0.05974296855307535,0.0,0.00637264150888465,0.0,0.06611561006196
InputStreamImageInputStreamSpi,0.03492461538385564,0.0,0.003998076922960955,0.0,0.038922692306816595
Instance,0.025381072171847683,0.0,0.0028800206372105773,0.0,0.02826109280905826
InstanceList,0.010734734989825957,0.0,0.0012003848014384868,0.0,0.011935119791264444
InstantGI,0.12804980587421375,0.06797856313008294,0.015696726428752382,0.008875185897341969,0.22060028133039103
IntArray,0.0,0.043418079996481534,0.0,0.005277600000263191,0.04869567999674473
IntersectionState,0.04428405594700092,0.0,0.0054536880478183005,0.0,0.04973774399481922
KDTree,0.5484251296600998,1.8634065352374516,0.06673602846547105,0.2204178794243067,2.698985572787329
KDTree$BuildTask,0.0,0.03521836841741389,0.0,0.0037221052633021993,0.038940473680716084
LightSample,0.018978494202237343,0.03631146341489866,0.002344723174902254,0.0052393902438868795,0.06287407103592513
LightServer,0.005035944463111381,0.0,0.0004654772725939252,0.0,0.005501421735705307
LogManager,0.02066430769329413,0.0,0.0016769230770968045,0.0,0.022341230770390935
LoggingProxyImpl,0.02065179487153028,0.0,0.002163076922536278,0.0,0.022814871794066556
MathUtils,0.030565749499570662,0.0,0.004709562648732255,0.0,0.035275312148302915
Matrix4,0.018707439045607482,0.025386750530767537,0.002309295302659793,0.0029951313990461003,0.04939861627808092
NullAccelerator,0.05055202377917004,0.02454376161751828,0.005896093943881869,0.003590281817371057,0.08458216115794125
ParseUtil,0.02065179487153028,0.0,0.002163076922536278,0.0,0.022814871794066556
QMC,0.038851745454171166,0.0,0.004432909091437151,0.0,0.043284654545608314
Ray,0.2267467360823488,0.2336918978574304,0.026301337446504085,0.03144386574299947,0.5181838371292827
Scene,0.000959257069184766,0.002754328455406854,8.884384936528025e-05,0.00043973170733540716,0.0042421610812923075
ShadingState,0.09881743224698615,0.001652677159597349,0.014073143775026557,0.00021346869170927837,0.11475672187331934
Solvers,0.0013073913042730505,0.07961284212551137,0.00017304347831826738,0.009806112561982494,0.09089938947008519
StandardOpenOption,0.03492461538385564,0.0,0.003998076922960955,0.0,0.038922692306816595
StreamCloser,0.036688435896977366,0.0,0.003150000000086714,0.0,0.03983843589706408
StrictMath,0.08346738361428285,0.0,0.010941069841533677,0.0,0.09440845345581653
String,0.06941733333223965,0.0,0.006960000000011253,0.0,0.0763773333322509
StringBuffer,0.014597666668123566,0.0,0.0012700000000525806,0.0,0.015867666668176145
TestHarness,0.010762666667384716,0.0,0.0009699999997489307,0.0,0.011732666667133646
Throwable,0.01188617948747168,0.0,0.0010446153843450023,0.0,0.012930794871816682
Toolkit,0.06512764102416649,0.0,0.006924615384680996,0.0,0.07205225640884748
TriangleMesh,0.18048099920743488,0.14414296602534338,0.02456198480129989,0.013950896749006306,0.36313684678308444
TriangleMesh$WaldTriangle,0.42135235050983155,0.22444890333421982,0.0486357180007229,0.02749569474318036,0.7219326665879546
TriangleMeshLight$TriangleLight,0.09120996495917928,0.11241661511895408,0.012858425497743471,0.014241179980949509,0.23072618555682634
URL,0.044315151515713136,0.0,0.004661818181788972,0.0,0.04897696969750211
URLUtil,0.044315151515713136,0.0,0.004661818181788972,0.0,0.04897696969750211
Vector3,0.02785614150061163,0.014491740338230794,0.0037096889212873086,0.001725753534223436,0.04778332429435316
