method,package1,package2,dram1,dram2,energy
AppContext$2,0.0,0.10209428571085613,0.0,0.014023928571467491,0.11611821428232362
Benchmark,0.045327054811447526,0.0,0.005393832577291258,0.0,0.05072088738873878
BigInteger,0.05304847118591812,0.0,0.004812230613404133,0.0,0.057860701799322255
BoundingBox,0.0,0.0006649893174038956,0.0,7.574916760699706e-05,0.0007407384850108927
BoundingIntervalHierarchy,0.3396883235660491,0.2072792597066619,0.04920073572260722,0.023119416805763755,0.619287735801082
BucketRenderer,0.012299441535152604,0.008547153934339705,0.000996503211554251,0.0009915282489804474,0.022834626930027007
BucketRenderer$ImageSample,0.03638686486472678,0.0,0.0053821621621790595,0.0,0.04176902702690584
BufferedInputStream,0.0,0.0,0.0,0.0,0.0
ByteComponentRaster,0.05157409767470137,0.0,0.00418853109064624,0.0,0.05576262876534761
Class,0.07459349284986448,0.03923550000035903,0.007369684787670716,0.004800000000007761,0.125998677637902
ClassFile,0.02971964965806421,0.0,0.002771890014662921,0.0,0.03249153967272713
ClassLoader$NativeLibrary,0.0,0.006748714287823532,0.0,0.0008807142856832277,0.007629428573506759
Color,0.0,0.015101163444770116,0.0,0.0016113713713246337,0.01671253481609475
ComponentColorModel,0.05512628179596301,0.0,0.005509077753636411,0.0,0.06063535954959942
ConfigFile,0.0,0.009935277780136352,0.0,0.0011333333335035909,0.011068611113639944
ConfigFileTokenManager,0.0,0.07051249999979821,0.0,0.009100000000014714,0.07961249999981293
DigraphNode,0.0,0.042284357143216766,0.0,0.006177857143094504,0.04846221428631127
DisabledAlgorithmConstraints,0.0,0.0672741666615669,0.0,0.009099999999509438,0.07637416666107633
ExpiringCache,0.0,0.07800638889117786,0.0,0.010250000000269209,0.08825638889144707
Geometry,0.010760683510792735,0.012233633720444592,0.0012681210693017378,0.0014834302325737571,0.025745868533112823
Handler,0.061827745649051524,0.0,0.003981915599688375,0.0,0.0658096612487399
IIORegistry,0.0,0.044016499998785236,0.0,0.00476750000022245,0.048783999999007684
ImageTypeSpecifier$Packed,0.04630202457201222,0.0,0.0042106677338978,0.0,0.05051269230591002
Instance,0.07053019060555535,0.12978961473067763,0.011458917627065116,0.014292472136491676,0.22607119509978976
InstanceList,0.0,0.03543270689561754,0.0,0.0039829802955658475,0.039415687191183386
InstantGI,0.004830674266674915,0.05366422686516143,0.0008078736495501101,0.006464813694493537,0.06576758847587999
IntersectionState,0.0,0.01538404521034581,0.0,0.0015981839080331127,0.016982229118378923
KDTree,0.9925212916754014,0.5002834051431032,0.11798206199382591,0.05657829403076646,1.667365052843097
LightServer,0.0013604413331875795,0.03502851006732245,0.0001845206188096449,0.0043911789399323576,0.04096465095925203
LogManager,0.0,0.03923550000035903,0.0,0.004800000000007761,0.044035500000366795
Logger,0.0,0.03617349999937384,0.0,0.004794999999830907,0.040968499999204745
LoggingProxyImpl,0.0,0.03617349999937384,0.0,0.004794999999830907,0.040968499999204745
Manifest,0.0,0.0,0.0,0.0,0.0
Matrix4,0.01374634860517739,0.11243628967869619,0.0022983592227790134,0.012711287585732704,0.1411922850923853
NullAccelerator,0.023859043846609446,0.01011996085118958,0.0038746092179928796,0.0013064489361730668,0.03916006285196497
OrthoNormalBasis,0.023250253717271487,0.0,0.003118818272214868,0.0,0.026369071989486355
PKCS7,0.011216103152815678,0.0,0.0010574075811050699,0.0,0.012273510733920748
QMC,0.0,0.0,0.0,0.0,0.0
Ray,0.10626363991759849,0.26081309912129214,0.013050379028319839,0.03154605902807313,0.41167317709528356
Scene,0.022777899613810264,0.008414309124377847,0.0038700000000396174,0.0008025380124596964,0.035864746750687425
StrictMath,0.0,0.0,0.0,0.0,0.0
StringBuilder,0.0,0.052930500002860634,0.0,0.006145714285984079,0.059076214288844714
System,0.0,0.0,0.0,0.0,0.0
TempFileHelper$PosixPermissions,0.0,0.042284357143216766,0.0,0.006177857143094504,0.04846221428631127
TriangleMesh,0.11061308076190757,0.07451851008339377,0.015226256978034957,0.008475661204064731,0.20883350902740103
TriangleMesh$WaldTriangle,0.28629962503738204,0.1165496958419013,0.03749651320497066,0.013177234453925381,0.45352306853817936
TriangleMeshLight$TriangleLight,0.22785617951731962,0.24611155719597472,0.03229381530925285,0.027007818678574987,0.5332693707011221
URL,0.0,0.0851846666628262,0.0,0.01022000000011758,0.09540466666294378
Vector3,0.017051038919751186,0.030721324137076525,0.00176524731699141,0.0037360585949065433,0.05327366896872566
WeakHashMap,0.0,0.0,0.0,0.0,0.0
