method,package1,package2,dram1,dram2,energy
AppContext$2.run,0.1393598181849952,0.0,0.00821545454549998,0.0,0.1475752727304952
Benchmark.<init>,0.041554666668768434,0.0,0.0049599999996038,0.0,0.046514666668372236
BoundingIntervalHierarchy.intersect,0.2994729273959676,0.3898602465460142,0.04370809219940386,0.04912051480537104,0.7821617809467567
BucketRenderer.renderBucket,0.031043841409048818,0.0,0.004578360641162395,0.0,0.035622202050211216
BufferedInputStream.<init>,0.03522845454581053,0.0,0.0042636363631931035,0.0,0.03949209090900363
BufferedInputStream.read,0.01171875,0.0,0.0007449999999759407,0.0,0.01246374999997594
ByteInterleavedRaster.putByteData,0.035715666665055316,0.0,0.0014800000002045026,0.0,0.03719566666525982
CertificateX509Key.<init>,0.05232966666544262,0.0,0.002765000000417112,0.0,0.055094666665859736
ClassLoader.defineClass1,0.0,0.0,0.0,0.0,0.0
CodeIterator.insertGap2,0.0290786363640853,0.0,0.002847727272940877,0.0,0.03192636363702618
Color.copy,0.0,0.014310903691422069,0.0,0.0018695468960457727,0.01618045058746784
Color.mul,0.0,0.009391121995521027,0.0,0.0013192517006971852,0.010710373696218212
ComponentColorModel.extractComponent,0.041554666668768434,0.0,0.0049599999996038,0.0,0.046514666668372236
DataBuffer.<clinit>,0.03891600000012355,0.0,0.0033120000007329513,0.0,0.042228000000856504
DataInputStream.readUTF,0.023746666667284443,0.0,0.0032479999994393443,0.0,0.026994666666723788
DerInputBuffer.getBigInteger,0.01759341666729597,0.0,0.0014212500003244106,0.0,0.01901466666762038
DisabledAlgorithmConstraints$Constraints.<init>,0.06783033333340427,0.0,0.006060000000919293,0.0,0.07389033333432356
FileCacheImageInputStream.<init>,0.03276848484639424,0.0,0.0007381818180543963,0.0,0.03350666666444864
FileInputStream.open0,0.009891733333157996,0.0,0.0005879999999403178,0.0,0.010479733333098314
Formatter.access$000,0.0,0.0356053527810027,0.0,0.004462282239235312,0.04006763502023801
Geometry.intersect,0.06596158784910522,0.04911091643253221,0.008650752827312636,0.006313284962356081,0.13003654207130613
IIORegistry.registerStandardSpis,0.0290786363640853,0.0,0.002847727272940877,0.0,0.03192636363702618
Inflater.inflateBytes,0.019714333335286938,0.0,0.0019449999999778807,0.0,0.02165933333526482
InputStreamImageInputStreamSpi.createInputStreamInstance,0.03276848484639424,0.0,0.0007381818180543963,0.0,0.03350666666444864
Instance.intersect,0.039883671940398886,0.014285601777410551,0.0054239030585233805,0.001665234163599442,0.06125841093993226
InstantGI.getIrradiance,0.017426148531496786,0.08037502853643944,0.002785933641163072,0.010171810015989942,0.11075892072508925
IntersectionState.getStack,0.0,0.03478784981150834,0.0,0.0037222774463210786,0.03851012725782942
IntersectionState.setIntersection,0.0,0.01019506566596958,0.0,0.0011296579097614412,0.01132472357573102
JarFile.initializeVerifier,0.06783033333340427,0.0,0.006060000000919293,0.0,0.07389033333432356
JarVerifier.beginEntry,0.026434902299585915,0.0,0.0027493103450393678,0.0,0.02918421264462528
KDTree$BuildTask.<init>,0.0,0.04913959504561416,0.0,0.006072961894931636,0.0552125569405458
KDTree.buildTree,0.0,0.7364583916812583,0.0,0.08847973828396928,0.8249381299652275
KDTree.intersect,0.7970812621490415,0.8939371638558081,0.1075937141797254,0.11473046155811142,1.9133426017426867
KDTree.unpackAxis,0.0,0.012928460268349951,0.0,0.0016121561027020645,0.014540616371052015
LightSample.setRadiance,0.011014415730820444,0.0,0.0011279621321146135,0.0,0.012142377862935058
LogManager.<init>,0.012784866666576515,0.0,0.0008350000001276687,0.0,0.013619866666704184
LoggingProxyImpl.getLogger,0.012784866666576515,0.0,0.0008350000001276687,0.0,0.013619866666704184
Matrix4.transformPZ,0.02582623724138852,0.0,0.00391338812360593,0.0,0.02973962536499445
NullAccelerator.intersect,0.00906647586970211,0.049108565743855526,0.0011860606060431296,0.008010894532360074,0.06737199675196083
Object.<init>,0.01989138805951352,0.0,0.0024651492537274104,0.0,0.02235653731324093
PNGImageReader.readImage,0.023746666667284443,0.0,0.0032479999994393443,0.0,0.026994666666723788
QMC.<clinit>,0.004708358262077025,0.0,0.0005546794871308283,0.0,0.005263037749207854
QMC.halton,0.01212067190769491,0.017653146099353412,0.001725103810538233,0.0015597446808359552,0.033058666498422505
Raster.createWritableRaster,0.04098320000145274,0.0,0.002367999999357077,0.0,0.04335120000080982
Ray.<init>,0.08740923958990378,0.0,0.012379129749326446,0.0,0.09978836933923023
Ray.getMax,0.03427068064025553,0.001889589826090047,0.0050800403052468305,0.00022470323938753286,0.041465014010979934
Ray.isInside,0.025055816247454576,0.08915590919652061,0.0031801933744351847,0.012621128687276346,0.13001304750568674
Ray.setMax,0.000757982546414792,0.0,0.00011599239202541472,0.0,0.0008739749384402067
Ray.transform,0.06901428226351339,0.1822801227095272,0.01109076428304554,0.024064593890733933,0.2864497631468201
Scene.trace,0.0,0.029007769598543568,0.0,0.0036406179243214896,0.03264838752286506
Scene.traceShadow,0.0,0.07666939315426906,0.0,0.0076587696577309645,0.08432816281200002
ShadingState.init,0.0,0.0,0.0,0.0,0.0
ShadingState.setShader,0.0,0.07666939315426906,0.0,0.0076587696577309645,0.08432816281200002
ShadingState.traceShadow,0.0,0.0,0.0,0.0,0.0
Signature.getInstance,0.035366333333378734,0.0,0.0009333333333348424,0.0,0.036299666666713575
Solvers.solveQuadric,0.033269886647749464,0.025549156915144408,0.004633630506050965,0.003747346519189132,0.06720002058813397
StrictMath.acos,0.024786575679942347,0.029580221932848497,0.003256252519384196,0.003720909542412911,0.061343959674587945
TestHarness.twoDecimalPlaces,0.0,0.0,0.0,0.0,0.0
Toolkit.<clinit>,0.03522845454581053,0.0,0.0042636363631931035,0.0,0.03949209090900363
TriangleMesh$WaldTriangle.intersect,0.11135686304712744,0.1843330766108785,0.014522276130478238,0.024875144907870083,0.33508736069635425
TriangleMesh.intersectPrimitive,0.16077288797895867,0.01938092480124272,0.02167336586782992,0.0029655913868594217,0.20479277003489071
TriangleMeshLight$TriangleLight.getSamples,0.08838864491596653,0.02170136660833024,0.010686792950877676,0.0024661597281322193,0.12324296420330666
UI.printInfo,0.002152533333476943,0.0,0.0002719999999195958,0.0,0.0024245333333965387
URLClassLoader$1.run,0.0,0.0,0.0,0.0,0.0
Vector3.<init>,0.009452462068694677,0.009391121995521027,0.0011535517242385865,0.0013192517006971852,0.021316387489151475
Vector3.dot,0.054669069446443855,0.042355331489141175,0.00680972325139737,0.006577195182489594,0.11041131936947199
Vector3.negate,0.002682035471074036,0.0,0.00032811827572497683,0.0,0.0030101537467990126
Vector3.normalize,0.0,0.012064549064019159,0.0,0.0019072594527791008,0.01397180851679826
ZipFile.getEntry,0.0,0.0,0.0,0.0,0.0
