method,package1,package2,dram1,dram2,energy
com.sun.imageio.spi,0.0,0.06945865233344949,0.0,0.01032650645696743,0.07978515879041692
java.io,0.0,0.19136494329309628,0.0,0.021338219210091616,0.21270316250318788
java.lang,0.08166244020639032,0.2191264666431783,0.010940832200592185,0.028565684772924704,0.3402954238230855
java.math,0.0,0.17189984801052902,0.0,0.017545149178745546,0.18944499718927457
java.util,0.0,0.03883344385551385,0.0,0.005942775053084007,0.044776218908597856
java.util.concurrent,0.0,0.04324305648715486,0.0,0.005537500333473753,0.04878055682062861
java.util.jar,0.0,0.034598827508512585,0.0,0.004813566078030664,0.03941239358654325
java.util.regex,0.0,0.22876899227702538,0.0,0.025469527220531054,0.25423851949755644
java.util.zip,0.0,0.0330919511304685,0.0,0.005151240591167624,0.03824319172163612
javassist.compiler,0.0,0.04324305648715486,0.0,0.005537500333473753,0.04878055682062861
javax.imageio,0.0,0.004089427625456047,0.0,0.0006136809621497179,0.0047031085876057645
javax.imageio.spi,0.0,0.06945865233344949,0.0,0.01032650645696743,0.07978515879041692
org.dacapo.harness,0.0,0.0,0.0,0.0,0.0
org.dacapo.parser,0.0,0.0063493675142324655,0.0,0.000856839390873903,0.007206206905106368
org.sunflow.core,0.697939818662488,0.4422588622180593,0.09993631838129005,0.055403404488811134,1.2955384037506485
org.sunflow.core.accel,2.3715669464109275,2.8167320599886057,0.33326712693657845,0.37055688007018717,5.892123013406299
org.sunflow.core.gi,0.019209303889388612,0.01604336104246222,0.002229452867484469,0.002183021091811089,0.03966513889114639
org.sunflow.core.light,0.046727005232328714,0.04013459623788673,0.006678489298794707,0.005575632938100169,0.09911572370711032
org.sunflow.core.primitive,0.20533217057004177,0.2163928631357182,0.026192002496689022,0.02921834708041148,0.4771353832828605
org.sunflow.core.renderer,0.0,0.0022499373413849572,0.0,0.0003657649651874837,0.0026157023065724407
org.sunflow.core.shader,0.012550511851564009,0.0,0.0016354788126602146,0.0,0.014185990664224223
org.sunflow.image,0.029567532584386373,0.0242849033480402,0.003379579483113966,0.0033670946370648,0.060599110052605334
org.sunflow.math,0.07929048940447199,0.08277089223321336,0.008716833981719251,0.01152327727156951,0.1823014928909741
sun.awt,0.0,0.043828304058317835,0.0,0.0040682304133371925,0.047896534471655025
sun.misc,0.0,0.09931586173764237,0.0,0.01080255205150072,0.11011841378914308
sun.security.util,0.0,0.028425240957052025,0.0,0.002520654690114221,0.030945895647166245
