method,hits
AbstractStringBuilder.<init>,2
AppContext$2.run,2
Arrays.copyOf,2
BigInteger.modInverse,2
BigInteger.multiplyToLen,4
BoundingBox.getMaximum,2
BoundingIntervalHierarchy.intersect,146
BucketRenderer.refineSamples,2
BufferedInputStream.<init>,2
BufferedInputStream.read,4
ClassLoader$NativeLibrary.load,2
ClassLoader.defineClass1,2
Color.blend,4
Color.copy,6
Color.madd,2
CommandLineArgs.makeOption,2
Config.parse,2
CopyOnWriteArrayList.<clinit>,2
Float.floatToRawIntBits,2
Float.intBitsToFloat,2
Formatter$FormatSpecifier.<init>,2
Geometry.intersect,12
GlassShader.getRadiance,4
IIORegistry.registerInstalledProviders,2
ImageTypeSpecifier.<clinit>,2
Inflater.inflateBytes,2
InputStreamImageInputStreamSpi.createInputStreamInstance,2
Instance.intersect,14
InstanceList.intersectPrimitive,10
InstantGI.getIrradiance,4
IntersectionState.getStackTop,4
IntersectionState.hit,2
JarFile.match,2
KDTree$BuildTask.<init>,2
KDTree.buildTree,44
KDTree.intersect,160
KDTree.radix12,2
Lex.readLine,2
LightSample.setShadowRay,10
ManifestDigester.findSection,2
Math.atan2,2
Matrix4.transformPX,2
Matrix4.transformPZ,4
NullAccelerator.intersect,12
Pattern$BranchConn.match,2
Pattern$BranchConn.study,2
Pattern.group0,2
Point3.sub,2
Ray.<init>,10
Ray.getMax,6
Ray.isInside,18
Ray.transform,24
Scene.trace,4
ShadingState.getV,2
Solvers.solveQuadric,2
Sphere.intersectPrimitive,4
Sphere.prepareShadingState,2
StrictMath.acos,12
ThreadGroup.threadTerminated,2
Throwable.getStackTraceElement,2
TriangleMesh$WaldTriangle.intersect,64
TriangleMesh.getPoint,2
TriangleMesh.intersectPrimitive,14
TriangleMeshLight$TriangleLight.getSamples,20
URLClassPath$JarLoader.checkResource,2
Vector.<init>,2
Vector3.div,2
Vector3.dot,4
Vector3.length,2
Vector3.normalize,2
