method,hits
$Proxy1.<clinit>,2
AnnotationParser.<clinit>,2
AnnotationReader.<init>,2
ArgParser.<init>,2
ArgParser.getList,2
Arithmetic$py.test$11,8
Arithmetic$py.test$14,28
Arithmetic$py.test$2,32
Arithmetic$py.test$5,20
Arithmetic$py.test$8,30
AttributeInfo.<init>,4
BaseParser.setupParser,18
Benchmark.deleteTree,12
Benchmark.fileFromInputStream,164
Benchmark.unpackZipStream,4
Break$PyExposer.<init>,2
BuiltinFunctions.__call__,2
BytecodeLoader.makeCode,4
CachedJarsPackageManager.addZipEntry,10
CachedJarsPackageManager.filterByName,2
CachedJarsPackageManager.getZipPackages,316
Calls$py.call_function,2
Calls$py.f$18,2
Calls$py.f1$4,2
Calls$py.g$5,2
Calls$py.test$13,2
Calls$py.test$16,4
Calls$py.test$2,6
Calls$py.test$27,2
ClassFile.read,4
ClassPool.makeClass,2
CodeAttribute.<init>,4
CodeCompiler.visitUnaryOp,2
CommonTokenStream.getTokens,2
ConstPool.readOne,2
Constructs$py.test$2,26
Constructs$py.test$5,12
Constructs$py.test$8,6
DFA.unpackEncodedString,4
DacapoClassLoader.loadClass,46
Dict$py.test$11,10
Dict$py.test$14,10
Dict$py.test$2,2
Dict$py.test$5,8
Dict$py.test$8,4
DisabledAlgorithmConstraints$Constraint.<init>,2
Exceptions$py.test$2,4
Exceptions$py.test$5,10
FloatingDecimal.readJavaFormatString,20
Frame.a,2
Generic.list,2
GrammarActions.makeFor,2
GrammarActions.makeFuncdef,2
Gregorian.newCalendarDate,2
If$PyExposer.<init>,2
ImportFunction.__call__,10
Imports$py.test$5,4
Imports$py.test$8,2
JavaImportHelper.buildLoadedPackages,4
Jython.<init>,4
Launcher$AppClassLoader.loadClass,2
Lexer.emit,2
LineBufferedWriter.write,2
ListComp$PyExposer.<init>,2
Lists$py.test$2,30
Lists$py.test$8,2
LocaleData$1.run,2
LongVector.elementAt,2
Lookups$py.test$12,16
Lookups$py.test$17,12
Lookups$py.test$2,8
Lookups$py.test$22,10
Lookups$py.test$7,16
MethodInfo.read,2
Module.PyCode,2
Module.compile,2
Module.traverse,2
Native.initIDs,2
NativeLibrary.getFunction,2
Numbers$py.test$11,8
Numbers$py.test$2,8
Numbers$py.test$5,4
Numbers$py.test$8,6
PackageManager.checkAccess,384
ParserFacade.matchEncoding,2
Py.<clinit>,2
Py.getThreadState,6
Py.initClassExceptions,2
Py.newBoolean,2
Py.newInteger,2
Py.unpackSequence,6
PyArray$PyExposer.<init>,2
PyBaseCode.call,2
PyBaseException$exposed___new__.createOfSubtype,2
PyBaseString.<init>,2
PyClass.__setattr__,2
PyComplex.complex___radd__,2
PyDictionary$PyExposer.<init>,2
PyDictionary.__finditem__,6
PyDictionary.dict___delitem__,6
PyDictionary.dict___setitem__,14
PyException.fillInStackTrace,188
PyFastSequenceIter.__iternext__,2
PyFile.<init>,2
PyFloat.<clinit>,2
PyFloat.float___hash__,2
PyFrame.<init>,10
PyFrame.getLocals,2
PyFrame.getlocal,28
PyFrame.setline,16
PyFrame.setlocal,8
PyFrame.setupEnv,2
PyInstance.__findattr_ex__,2
PyInteger.divide,4
PyInteger.int___add__,2
PyInteger.int_toString,2
PyJavaType.getDescrMethod,2
PyJavaType.init,8
PyJavaType.normalize,2
PyList.<init>,2
PyList.getslice,4
PyList.list___len__,4
PyList.pyadd,4
PyList.pyget,12
PyLong.__str__,2
PyLong.divide,2
PyLong.long___mul__,6
PyMethod$PyExposer.<init>,2
PyMethod.__call__,2
PyObject$1$1.next,2
PyObject$object___setattr___exposer.bind,2
PyObject.<init>,4
PyObject.__call__,10
PyObject.__getattr__,4
PyObject._cmpeq_unsafe,2
PyObject._div,4
PyObject._eq,2
PyObject._ge,2
PyObject._le,2
PyObject._lt,6
PyObject.asName,2
PyObject.getType,6
PyObject.isDataDescr,2
PySequence$1.getItem,2
PySequence.<init>,2
PySequence.seq___finditem__,2
PySequence.sliceLength,2
PySet$PyExposer.<init>,2
PySlice$PyExposer.<init>,2
PySlice.calculateSliceIndex,2
PyString$str_rstrip_exposer.__call__,2
PyString.__add__,2
PyString.atoi,42
PyString.fromInterned,2
PyString.splitfields,2
PyString.str___add__,4
PyString.str___ge__,2
PyString.str_isalpha,2
PyString.str_islower,2
PyString.str_istitle,2
PyString.str_lower,8
PyString.str_title,14
PyString.str_upper,12
PyStringMap.__finditem__,44
PyStringMap.__setitem__,28
PySystemState.<init>,2
PySystemState.initEnviron,2
PyTableCode.call,2
PyTuple.<init>,4
PyTuple.getslice,2
PyType$MROMergeState.noteMerged,2
PyType.fromClass,22
PyType.invoke_new_,2
PyType.isSubType,2
PyUnicode.<init>,2
PyUnicode.fromSubstring,2
PyUnicode.unicode___add__,12
PythonLexer$DFA44.specialStateTransition,4
PythonLexer.mCOMMENT,2
PythonLexer.mNAME,2
PythonLexer.mSTRING,2
PythonLexer.nextToken,2
PythonParser.<clinit>,4
PythonParser.<init>,6
PythonParser.power,2
PythonParser.stmt,2
PythonParser.synpred4_Python,2
PythonParser.try_stmt,2
PythonTree.addChild,4
Raise.getInternalType,2
Resource.getBytes,20
RewriteRuleElementStream.<init>,4
ScopesCompiler.visitFunctionDef,2
SequenceIndexDelegate.checkIdxAndFindItem,2
SequenceIndexDelegate.fixindex,2
SignatureFileVerifier.<clinit>,2
StreamEncoder.implWrite,2
StringFormatter.format,2
StringIO$py.readline$11,6
Strings$py.test$14,6
Strings$py.test$17,4
Strings$py.test$2,14
Strings$py.test$20,18
Strings$py.test$5,46
Strings$py.test$8,104
Subscript$PyExposer.<init>,2
SyspathJavaLoader.loadClass,4
ThreadCoreMapInjector.isRunnable,2
ThreadStateMapping.getThreadState,24
Time._timefields,2
Tuples$py.test$2,6
Tuples$py.test$5,6
TypeChecker.setReturnType,2
URLClassPath$FileLoader.getResource,2
URLClassPath$JarLoader$2.getInputStream,2
URLClassPath$JarLoader.checkResource,4
UTF_8$Decoder.decode,4
Unicode$py.test$17,4
Unicode$py.test$2,4
Unicode$py.test$20,6
Unicode$py.test$5,26
Version.getVersion,2
Yield$PyExposer.<init>,2
__builtin__.__import__,2
__builtin__.fillWithBuiltins,4
__builtin__.ord,2
__builtin__.range,2
__builtin__.reload,4
arguments$PyExposer.<init>,2
bisect$py.bisect_left$4,4
exceptions.classDictInit,2
imp.compileSource,2
imp.importName,2
imp.import_logic,2
imp.import_name,4
imp.import_next,20
os$py.<init>,2
unicodedata$py.call_function,2
unicodedata$py.init_east_asian_width$5,2
