method,package1,package2,dram1,dram2,energy
ANTLRStringStream.LA|PythonLexer.mNAME|PythonLexer.mTokens,0.03727506473884072,0.0,0.002843811320662437,0.0,0.04011887605950316
AnnotationReader.<init>|imp.readCode|imp.createFromPyClass,0.059015622144842385,0.0,0.005532196237485166,0.0,0.06454781838232755
Arithmetic$py.test$11|Arithmetic$py.call_function|PyTableCode.call,0.0,0.42018469160577,0.0,0.062212764083824305,0.4823974556895943
Arithmetic$py.test$14|Arithmetic$py.call_function|PyTableCode.call,0.0,0.6727294166691232,0.0,0.07673374999861456,0.7494631666677378
Arithmetic$py.test$2|Arithmetic$py.call_function|PyTableCode.call,0.0,0.5790063202335388,0.0,0.008473173580888135,0.587479493814427
Arithmetic$py.test$5|Arithmetic$py.call_function|PyTableCode.call,0.0,1.2958734166810852,0.0,0.24912250000185548,1.5449959166829408
Arithmetic$py.test$8|Arithmetic$py.call_function|PyTableCode.call,0.0,1.0372801333374808,0.0,0.138992999999391,1.176273133336872
AttributeInfo.<init>|ConstantAttribute.<init>|AttributeInfo.read,0.07605602671620666,0.0,0.006849173342640439,0.0,0.0829052000588471
BaseNativePOSIX.<clinit>|POSIXFactory.loadLinuxPOSIX|POSIXFactory.getPOSIX,0.03552612570912101,0.0,0.0,0.0,0.03552612570912101
BaseParser.setupParser|BaseParser.parseModule|CompileMode$3.dispatch,0.35903094559932297,0.0,0.03468211512082722,0.0,0.3937130607201502
BaseTypeBuilder.getDict|PyType.init|PyType.createType,0.06106315384581997,0.0,0.003489230769562896,0.0,0.06455238461538287
Benchmark.fileFromInputStream|Benchmark.unpackZipStream|Benchmark.unpackZipFileResource,0.0,0.0541279685000235,0.0,0.008376607822244806,0.0625045763222683
CachedJarsPackageManager.addZipEntry|CachedJarsPackageManager.getZipPackages|CachedJarsPackageManager.addJarToPackages,0.1480802688158149,0.0,0.009621680501288563,0.0,0.15770194931710346
Call.<init>|PythonParser.trailer|PythonParser.power,0.043706514325213344,0.0,0.0036707772263749787,0.0,0.047377291551588326
Calls$py.f1$4|Calls$py.call_function|PyTableCode.call,0.0,0.058247999996334926,0.0,0.002664999999979045,0.06091299999631397
Calls$py.test$13|Calls$py.call_function|PyTableCode.call,0.0,0.49306233333967003,0.0,0.070015000001149,0.563077333340819
Calls$py.test$16|Calls$py.call_function|PyTableCode.call,0.0,0.16899972221936982,0.0,0.02249166666691356,0.19149138888628336
Calls$py.test$2|Calls$py.call_function|PyTableCode.call,0.0,0.15924100000120234,0.0,0.0168850000003052,0.17612600000150755
ClassFile.read|ClassFile.<init>|CtClassType.<init>,0.03552612570912101,0.0,0.0,0.0,0.03552612570912101
ClassPool.compress|ClassPool.makeClass|ClassPool.makeClass,0.04392328571339021,0.0,0.003458928571879889,0.0,0.0473822142852701
ClassReader.accept|ClassReader.accept|AnnotationReader.<init>,0.05187751324368837,0.0,0.0050986827491560005,0.0,0.05697619599284437
ClassWriter.a|ClassWriter.b|ClassWriter.a,0.04337555044597485,0.0,0.004363082525452221,0.0,0.047738632971427074
ClassicPyObjectAdapter$9.adapt|ExtensiblePyObjectAdapter.adapt|ClassicPyObjectAdapter.adapt,0.03831864906007347,0.0,0.002501737111580612,0.0,0.04082038617165408
ClassicPyObjectAdapter.<init>|PySystemState.initialize|PySystemState.initialize,0.049856999999974505,0.0,0.003027857143154376,0.0,0.052884857143128884
CodeAttribute.<init>|AttributeInfo.read|MethodInfo.read,0.07246572035013184,0.0,0.004614380510011526,0.0,0.07708010086014336
CodeCompiler.visitListComp|ListComp.accept|Visitor.visit,0.05882387183641285,0.0,0.005335340215189892,0.0,0.06415921205160274
CommonTokenStream.LA|DFA.predict|PythonParser.test,0.05956147750868052,0.0,0.004182244711242205,0.0,0.06374372221992272
Constructs$py.test$2|Constructs$py.call_function|PyTableCode.call,0.0,0.9979653333284657,0.0,0.16055499999856693,1.1585203333270326
Constructs$py.test$5|Constructs$py.call_function|PyTableCode.call,0.0,0.07804366666823626,0.0,0.01337999999911214,0.0914236666673484
Constructs$py.test$8|Constructs$py.call_function|PyTableCode.call,0.0,0.30631566666609916,0.0,0.05641000000105123,0.3627256666671504
DFA.unpackEncodedString|PythonLexer.<clinit>|BaseParser.setupParser,0.044976564907867535,0.0,0.004999007117583974,0.0,0.04997557202545151
Dict$py.test$11|Dict$py.call_function|PyTableCode.call,0.0,0.14778633333723212,0.0,0.02891000000151204,0.17669633333874415
Dict$py.test$14|Dict$py.call_function|PyTableCode.call,0.0,0.19152850000803784,0.0,0.0195349999996021,0.21106350000763993
Dict$py.test$2|Dict$py.call_function|PyTableCode.call,0.0,0.2072258571466331,0.0,0.03782571428607861,0.24505157143271172
Dict$py.test$5|Dict$py.call_function|PyTableCode.call,0.0,0.15124500000092667,0.0,0.02964499999931528,0.18089000000024194
Dict$py.test$8|Dict$py.call_function|PyTableCode.call,0.0,0.21273380952022436,0.0,0.033329285713902895,0.24606309523412725
Exceptions$py.test$2|Exceptions$py.call_function|PyTableCode.call,0.0,0.17104100000384884,0.0,0.026339999999133095,0.19738100000298192
Exceptions$py.test$5|Exceptions$py.call_function|PyTableCode.call,0.0,0.2410893333290005,0.0,0.042190000000118744,0.28327933332911925
FileURLConnection.getPermission|JarFileFactory.getPermission|JarFileFactory.getCachedJarFile,0.036155993899062884,0.0,0.002533136193537084,0.0,0.03868913009259997
FunctionDef$PyExposer.<init>|FunctionDef.<clinit>|GrammarActions.makeFuncdef,0.04524108627626335,0.0,0.004360166371760959,0.0,0.04960125264802431
Imports$py.test$2|Imports$py.call_function|PyTableCode.call,0.0,0.13891600000109364,0.0,0.016845000000103028,0.15576100000119666
Imports$py.test$8|Imports$py.call_function|PyTableCode.call,0.0,0.03749309524123202,0.0,0.00713571428561755,0.04462880952684957
Instances$py.__init__$7|Instances$py.call_function|PyTableCode.call,0.0,0.09381100000367344,0.0,0.014064999999997477,0.10787600000367092
JarFileFactory.get|JarURLConnection.connect|JarURLConnection.getInputStream,0.0,0.007229421809378953,0.0,0.0008614246367121729,0.008090846446091126
JavaImportHelper.buildLoadedPackages|JavaImportHelper.tryAddPackage|imp.import_next,0.046883558412208384,0.0,0.005847581084202188,0.0,0.052731139496410576
Lists$py.test$2|Lists$py.call_function|PyTableCode.call,0.0,0.5583686687954643,0.0,0.010633599094692903,0.5690022678901572
Lists$py.test$8|Lists$py.call_function|PyTableCode.call,0.0,0.07314247845474366,0.0,0.00928583964560972,0.08242831810035338
LocaleResources.getDecimalFormatSymbolsData|DecimalFormatSymbols.initialize|DecimalFormatSymbols.<init>,0.03968102664571298,0.0,0.0011564468116197107,0.0,0.040837473457332685
Lookups$py.test$12|Lookups$py.call_function|PyTableCode.call,0.0,0.22615416673996275,0.0,0.0008990854250293128,0.22705325216499206
Lookups$py.test$17|Lookups$py.call_function|PyTableCode.call,0.0,0.31553133333121275,0.0,0.002610000000762132,0.31814133333197486
Lookups$py.test$22|Lookups$py.call_function|PyTableCode.call,0.0,0.14025866666634101,0.0,0.02327000000029026,0.16352866666663127
Lookups$py.test$2|Lookups$py.call_function|PyTableCode.call,0.0,0.19340974110984266,0.0,0.007621439889448339,0.201031180999291
Lookups$py.test$7|Lookups$py.call_function|PyTableCode.call,0.0,0.27599703030313266,0.0,0.024354545454391908,0.3003515757575246
MethodWriter.visitJumpInsn|Code.ifnull|ProxyMaker.addMethod,0.03409551036577469,0.0,0.003108150132216147,0.0,0.037203660497990836
MethodWriter.visitVarInsn|Code.aload|CodeCompiler.loadFrame,0.05882387183641285,0.0,0.005335340215189892,0.0,0.06415921205160274
Module.PyCode|Module.compile|imp.compileSource,0.046293283940745535,0.0,0.0045431682769519685,0.0,0.0508364522176975
Module.compile|imp.compileSource|imp.createFromSource,0.05309320293030916,0.0,0.004673680226908292,0.0,0.05776688315721745
Native.initIDs|Native.<clinit>|POSIXFactory.loadLibC,0.03654320980320448,0.0,0.0005753879726531048,0.0,0.03711859777585759
NewInstances$py.test$3|NewInstances$py.call_function|PyTableCode.call,0.0,0.09165433333449376,0.0,0.014514999999543456,0.10616933333403722
Numbers$py.test$11|Numbers$py.call_function|PyTableCode.call,0.0,0.21040866666589864,0.0,0.009390000000469929,0.21979866666636858
Numbers$py.test$2|Numbers$py.call_function|PyTableCode.call,0.0,0.3163588888952896,0.0,0.055061666666612524,0.3714205555619021
Numbers$py.test$5|Numbers$py.call_function|PyTableCode.call,0.0,0.17820200001491077,0.0,0.02891500000138573,0.2071170000162965
Numbers$py.test$8|Numbers$py.call_function|PyTableCode.call,0.0,0.12771277777695406,0.0,0.0192533333328255,0.14696611110977956
PackageManager.checkAccess|CachedJarsPackageManager.addZipEntry|CachedJarsPackageManager.getZipPackages,0.14554525271665536,0.0,0.010294815758975572,0.0,0.15584006847563092
Py.getThreadState|Py.getThreadState|PyObject._gt,0.0,0.27023622221895494,0.0,0.035553333333155024,0.30578955555210996
Py.getThreadState|Py.getThreadState|PyObject._lt,0.0,0.07631433333153836,0.0,0.014025000000401631,0.09033933333194
Py.newInteger|PyXRange.pyget|PySequence$1.getItem,0.0,0.09338366667119163,0.0,0.015880000000227785,0.10926366667141942
Py.newString|PyString$str_title_exposer.__call__|PyObject.__call__,0.0,0.06884426024691173,0.0,0.009284071472786436,0.07812833171969817
PyBaseCode.call|PyFunction.__call__|Calls$py.test$2,0.0,0.08125800000076802,0.0,0.011300000000119326,0.09255800000088735
PyClass.__setattr__|Lookups$py.test$7|Lookups$py.call_function,0.0,0.026522545453520827,0.0,0.0,0.026522545453520827
PyComplex._div|PyComplex.complex___div__|PyComplex.__div__,0.0,0.0754803333353872,0.0,0.011599999999816646,0.08708033333520385
PyComplex._mul|PyComplex.complex___mul__|PyComplex.__mul__,0.0,0.04937766666504709,0.0,0.006399999999606128,0.05577766666465322
PyDictionary$PyExposer.<init>|PyDictionary.<clinit>|PySystemState.<init>,0.04704767813775515,0.0,0.004411729552025384,0.0,0.05145940768978054
PyDictionary.__finditem__|PyObject.__getitem__|Dict$py.test$11,0.0,0.06445299999904819,0.0,0.01239999999961583,0.07685299999866402
PyDictionary.__finditem__|PyObject.__getitem__|Dict$py.test$5,0.0,0.04103599999992487,0.0,0.007574999999633293,0.04861099999955816
PyFastSequenceIter.__iternext__|Constructs$py.test$8|Constructs$py.call_function,0.0,0.07472733333027766,0.0,0.01238499999999476,0.08711233333027242
PyFile$PyExposer.<init>|PyFile.<clinit>|PySystemState.<init>,0.04925429761935297,0.0,0.00505656418873244,0.0,0.054310861808085406
PyFile.file_write|PyFile.write|StdoutWrapper.print,0.0,0.11633299999812152,0.0,0.020490000000184708,0.13682299999830622
PyFloat$PyExposer.<init>|PyFloat.<clinit>|__builtin__.fillWithBuiltins,0.03797501674840945,0.0,0.004433131688267432,0.0,0.04240814843667688
PyFloat.float___cmp__|PyFloat.__cmp__|PyObject._try__cmp__,0.0,0.07631433333153836,0.0,0.014025000000401631,0.09033933333194
PyFloat.float___div__|PyFloat.__div__|PyObject._basic_div,0.0,0.04809566666275107,0.0,0.00960000000001552,0.05769566666276659
PyFrame.<init>|PyFrame.<init>|PyBaseCode.call,0.0,0.4183475720422685,0.0,0.06692256410298064,0.48527013614524916
PyFrame.doGetglobal|PyFrame.getglobal|Tuples$py.test$5,0.0,0.058661387123820075,0.0,0.009074666476940831,0.0677360536007609
PyFrame.getLocals|imp.importOne|Imports$py.test$2,0.0,0.08624266666690042,0.0,0.011395000000144742,0.09763766666704517
PyFrame.getlocal|Arithmetic$py.test$5|Arithmetic$py.call_function,0.0,0.04614266666855352,0.0,0.008239999999811213,0.05438266666836473
PyFrame.getlocal|Constructs$py.test$5|Constructs$py.call_function,0.0,0.07804366666823626,0.0,0.01337999999911214,0.0914236666673484
PyFrame.getlocal|Instances$py.__init__$7|Instances$py.call_function,0.0,0.0922243333334336,0.0,0.015269999999873109,0.10749433333330671
PyFrame.getlocal|Strings$py.test$5|Strings$py.call_function,0.0,0.14457199999984977,0.0,0.0011599999997997654,0.14573199999964953
PyFrame.getlocal|Strings$py.test$8|Strings$py.call_function,0.0,0.3158928690552004,0.0,0.02331910714311951,0.33921197619831994
PyFrame.getlocal|Unicode$py.test$5|Unicode$py.call_function,0.0,0.132340600003954,0.0,0.006090000000161429,0.13843060000411544
PyFrame.setline|Arithmetic$py.test$14|Arithmetic$py.call_function,0.0,0.05133033333307442,0.0,0.004640000000411722,0.055970333333486146
PyFrame.setline|Exceptions$py.test$5|Exceptions$py.call_function,0.0,0.07743300000341452,0.0,0.016380000000329648,0.09381300000374417
PyFrame.setline|Strings$py.test$5|Strings$py.call_function,0.0,0.09047433333277391,0.0,0.0005799999998998827,0.09105433333267379
PyFrame.setline|Unicode$py.test$5|Unicode$py.call_function,0.0,0.054748666671609186,0.0,0.000870000000456154,0.05561866667206534
PyFrame.setlocal|Constructs$py.test$5|Constructs$py.call_function,0.0,0.08105466666650803,0.0,0.010940000000118744,0.09199466666662677
PyFrame.setlocal|Dict$py.test$2|Dict$py.call_function,0.0,0.0680946666689124,0.0,0.010800000000017462,0.07889466666892986
PyFrame.setlocal|Lookups$py.test$17|Lookups$py.call_function,0.0,0.05430099999648519,0.0,0.0,0.05430099999648519
PyFrame.setlocal|Tuples$py.test$5|Tuples$py.call_function,0.0,0.058661387123820075,0.0,0.009074666476940831,0.0677360536007609
PyInstance.__findattr_ex__|PyObject.__getattr__|Lookups$py.test$17,0.0,0.03045666666973072,0.0,0.0,0.03045666666973072
PyInteger._sub|PyInteger.int___sub__|PyInteger.__sub__,0.0,0.04621722222509561,0.0,0.004287499999817455,0.05050472222491306
PyInteger.canCoerce|PyInteger.int___mul__|PyInteger.__mul__,0.0,0.05379915081887522,0.0,0.0,0.05379915081887522
PyInteger.int___cmp__|PyInteger.__cmp__|PyObject._try__cmp__,0.0,0.047342666662492164,0.0,0.00825500000003861,0.05559766666253077
PyList$list_append_exposer.__call__|PyObject.__call__|Lists$py.test$8,0.0,0.03903707630631687,0.0,0.0067281341053315,0.04576521041164837
PyList.list___len__|PyList.__len__|Constructs$py.test$8,0.0,0.08420833333123785,0.0,0.013770000000173845,0.0979783333314117
PyList.list___len__|PyList.__len__|PySequence$1.len,0.0,0.0799966666624338,0.0,0.010979999999714588,0.09097666666214839
PyList.pyget|PySequence$1.getItem|SequenceIndexDelegate.checkIdxAndFindItem,0.0,0.12782458975039518,0.0,0.019632692307286793,0.14745728205768197
PyList.pyset|PySequence$1.setItem|SequenceIndexDelegate.checkIdxAndSetItem,0.0,0.0357636356353906,0.0,0.0001949562211069213,0.035958591856497524
PyList.size|PyList.list___len__|PyList.__len__,0.0,0.1390790000053433,0.0,0.02058000000033644,0.15965900000567973
PyLong$PyExposer.<init>|PyLong.<clinit>|__builtin__.fillWithBuiltins,0.07163988133026448,0.0,0.00698073649939851,0.0,0.078620617829663
PyObject$1.iterator|imp.find_module|imp.import_next,0.036884459280254335,0.0,0.003310272385302109,0.0,0.04019473166555644
PyObject.<init>|PyIterator.<init>|PyFastSequenceIter.<init>,0.0,0.08013933333859312,0.0,0.010985000000194606,0.09112433333878772
PyObject.__call__|PyObject.__call__|Tuples$py.test$5,0.0,0.046019031099626635,0.0,0.00495730405114829,0.050976335150774925
PyObject.__eq__|PyObject._eq|Numbers$py.test$8,0.0,0.0810750000042996,0.0,0.011000000000422006,0.0920750000047216
PyObject._add|Arithmetic$py.test$14|Arithmetic$py.call_function,0.0,0.0754803333353872,0.0,0.011599999999816646,0.08708033333520385
PyObject._cmp_unsafe|PyObject._cmp|__builtin__.cmp,0.0,0.1164143333347359,0.0,0.016204999999293552,0.13261933333402945
PyObject._cmp_unsafe|PyObject._lt|Numbers$py.test$8,0.0,0.07312033333194752,0.0,0.010999999999815676,0.08412033333176319
PyObject._div|Arithmetic$py.test$5|Arithmetic$py.call_function,0.0,0.1616009999949407,0.0,0.0195850000000064,0.1811859999949471
PyObject._eq|Constructs$py.test$2|Constructs$py.call_function,0.0,0.06634533333514506,0.0,0.011000000000422006,0.07734533333556706
PyObject._eq|unicodedata$py.get_codepoint$9|unicodedata$py.call_function,0.0,0.06244369230877895,0.0,0.009179999999804959,0.07162369230858391
PyObject._lt|Numbers$py.test$5|Numbers$py.call_function,0.0,0.22859699999874764,0.0,0.034704999999424516,0.26330199999817216
PyObject.getType|PyObject._eq|Strings$py.test$8,0.0,0.04103599999992487,0.0,0.0,0.04103599999992487
PyObject.getType|PyObject._gt|Numbers$py.test$2,0.0,0.07607033333624713,0.0,0.009640000000217695,0.08571033333646483
PyObject.isDataDescr|PyObject.object___findattr__|PyObject.__findattr_ex__,0.0,0.08831799999946573,0.0,0.01224000000062612,0.10055800000009185
PyObject.object___setattr__|PyObject$object___setattr___exposer.__call__|PyObjectDerived.__setattr__,0.0,0.09157299999787938,0.0,0.014639999999417341,0.10621299999729672
PySequence$1.getItem|SequenceIndexDelegate.checkIdxAndFindItem|PySequence.seq___finditem__,0.0,0.061685999996067636,0.0,0.009950000000268723,0.07163599999633635
PySequence$1.getSlice|SequenceIndexDelegate.getSlice|PySequence.seq___getslice__,0.0,0.07468666666924642,0.0,0.012299999999716722,0.08698666666896314
PySequence.<init>|PyBaseString.<init>|PyString.<init>,0.0,0.3436686666633856,0.0,0.06983999999950659,0.41350866666289215
PySet$PyExposer.<init>|PySet.<clinit>|__builtin__.fillWithBuiltins,0.04262844554218965,0.0,0.002909254322969393,0.0,0.04553769986515904
PyString$str_lower_exposer.bind|PyMethodDescr.method_descriptor___get__|PyMethodDescr.__get__,0.0,0.06884426024691173,0.0,0.009284071472786436,0.07812833171969817
PyString$str_title_exposer.__call__|PyObject.__call__|Strings$py.test$17,0.0,0.0424782378201924,0.0,0.0,0.0424782378201924
PyString.str___add__|PyString.__add__|PyObject._basic_add,0.0,0.07185866666744307,0.0,0.01433999999972002,0.0861986666671631
PyString.str_title|PyString$str_title_exposer.__call__|PyObject.__call__,0.0,0.07668939760848323,0.0,0.01087051487494921,0.08755991248343244
PyString.str_title|PyUnicode.unicode_title|PyUnicode$unicode_title_exposer.__call__,0.0,0.09855166666481333,0.0,0.011650000000372527,0.11020166666518585
PyStringMap.__finditem__|PyClass.lookup|PyClass.__findattr_ex__,0.0,0.0276545454531019,0.0,0.002247272727055877,0.029901818180157774
PyStringMap.__finditem__|PyFrame.doGetglobal|PyFrame.getglobal,0.0,0.25184838094269035,0.0,0.035391428571615716,0.28723980951430605
PyStringMap.__finditem__|PyType.lookup|PyObject.object___findattr__,0.0,0.08819566666594861,0.0,0.011244999999689751,0.09944066666563836
PyStringMap.__finditem__|imp.import_next|imp.import_name,0.0,0.10345433333228962,0.0,0.012710000000273187,0.1161643333325628
PySystemState.<init>|PySystemState.doInitialize|PySystemState.initialize,0.04326481399847462,0.0,0.005139331806022619,0.0,0.04840414580449724
PyTuple.<init>|PyTuple.fromArrayNoCopy|PyTuple.getslice,0.0,0.060058666664796576,0.0,0.013765000000300157,0.07382366666509674
PyTuple.getslice|PySequence$1.getSlice|SequenceIndexDelegate.getSlice,0.0,0.05814495780283412,0.0,0.007931884314575088,0.06607684211740922
PyType.fromClass|PyObject.<init>|PyDictionary.<init>,0.0,0.05102514285577593,0.0,0.009115714285664059,0.06014085714143999
PyType.fromClass|PyObject.<init>|PyFrame.<init>,0.0,0.22345242856785522,0.0,0.038365714285256605,0.26181814285311183
PyType.fromClass|PyObject.<init>|PyIterator.<init>,0.0,0.061685999996067636,0.0,0.009950000000268723,0.07163599999633635
PyType.fromClass|PyObject.<init>|PyMethod.<init>,0.0,0.2303466666586852,0.0,0.035930000000613894,0.2662766666592991
PyType.fromClass|PyObject.<init>|PyTraceback.<init>,0.0,0.08752433333332495,0.0,0.012279999999615637,0.09980433333294059
PyType.lookup|PyObject.object___findattr__|PyObject.__findattr_ex__,0.0,0.29029035714172224,0.0,0.04047035714267535,0.3307607142843976
PyType.lookup|PyObject.object___setattr__|PyObject.object___setattr__,0.0,0.10233566667011472,0.0,0.013824999999997091,0.11616066667011181
PyUnicode$PyExposer.<init>|PyUnicode.<clinit>|__builtin__.fillWithBuiltins,0.04363900365108492,0.0,0.003028512549535924,0.0,0.04666751620062084
PyXRange.<clinit>|__builtin__.fillWithBuiltins|PySystemState$DefaultBuiltinsHolder.fillin,0.04363900365108492,0.0,0.003028512549535924,0.0,0.04666751620062084
PyXRange.pyget|PySequence$1.getItem|SequenceIndexDelegate.checkIdxAndFindItem,0.0,0.20662433332957636,0.0,0.03450000000096527,0.24112433333054162
PythonParser$DFA137.<init>|PythonParser.<init>|PythonParser.<init>,0.06507663472042552,0.0,0.004770264582402108,0.0,0.06984689930282763
PythonParser.<clinit>|BaseParser.setupParser|BaseParser.parseModule,0.1710089890993002,0.0,0.012737479349639202,0.0,0.1837464684489394
PythonParser.<init>|PythonParser.<init>|PythonParser.<init>,0.0571736830202293,0.0,0.0046269555824574,0.0,0.0618006386026867
PythonParser.atom|PythonParser.power|PythonParser.factor,0.04222961512579955,0.0,0.0048259696026332856,0.0,0.04705558472843283
PythonParser.comp_op|PythonParser.comparison|PythonParser.not_test,0.05344202253588887,0.0,0.00520501346006949,0.0,0.05864703599595836
PythonParser.compound_stmt|PythonParser.stmt|PythonParser.suite,0.05472117211210832,0.0,0.005217122998172403,0.0,0.059938295110280725
PythonParser.file_input|BaseParser.parseModule|CompileMode$3.dispatch,0.11160925249556777,0.0,0.010580463622628263,0.0,0.12218971611819604
PythonParser.fpdef|PythonParser.defparameter|PythonParser.varargslist,0.04901415968363306,0.0,0.004310699199468465,0.0,0.053324858883101525
PythonParser.parameters|PythonParser.funcdef|PythonParser.compound_stmt,0.0534841857596034,0.0,0.005091732960622776,0.0,0.058575918720226175
PythonParser.power|PythonParser.factor|PythonParser.term,0.05250822273950891,0.0,0.005147572204219572,0.0,0.05765579494372849
PythonParser.synpred2_Python|PythonParser$DFA34.specialStateTransition|DFA.predict,0.04901415968363306,0.0,0.004310699199468465,0.0,0.053324858883101525
PythonParser.term|PythonParser.arith_expr|PythonParser.shift_expr,0.09156467374735773,0.0,0.008487408826044042,0.0,0.10005208257340177
RewriteRuleElementStream.<init>|RewriteRuleSubtreeStream.<init>|PythonParser.atom,0.05160526049372841,0.0,0.003982623315566679,0.0,0.055587883809295094
Str$PyExposer.<init>|Str.<clinit>|PythonParser.atom,0.05761228961584448,0.0,0.006383696385506747,0.0,0.06399598600135123
StringFormatter.format|PyString.str___mod__|PyString.__mod__,0.0,0.08854166666666666,0.0,0.01373999999971905,0.1022816666663857
Strings$py.test$11|Strings$py.call_function|PyTableCode.call,0.0,0.42525200000090985,0.0,0.07689000000088222,0.5021420000017921
Strings$py.test$14|Strings$py.call_function|PyTableCode.call,0.0,0.12988299999657707,0.0,0.028444999999919673,0.15832799999649674
Strings$py.test$17|Strings$py.call_function|PyTableCode.call,0.0,0.07668939760848323,0.0,0.01087051487494921,0.08755991248343244
Strings$py.test$20|Strings$py.call_function|PyTableCode.call,0.0,0.373831843138403,0.0,0.05231058823554513,0.42614243137394814
Strings$py.test$2|Strings$py.call_function|PyTableCode.call,0.0,0.24351033333126298,0.0,0.056869999999738255,0.3003803333310012
Strings$py.test$5|Strings$py.call_function|PyTableCode.call,0.0,1.1526279999816322,0.0,0.013109999999263284,1.1657379999808954
Strings$py.test$8|Strings$py.call_function|PyTableCode.call,0.0,2.4131163055317306,0.0,0.20287541666493775,2.6159917221966684
Subscript$PyExposer.<init>|Subscript.<clinit>|PythonParser.trailer,0.05333840280225917,0.0,0.0040725305706941686,0.0,0.05741093337295334
Suite$PyExposer.<init>|Suite.<clinit>|CodeCompiler.visitFunctionDef,0.04337555044597485,0.0,0.004363082525452221,0.0,0.047738632971427074
Tuple$PyExposer.<init>|Tuple.<clinit>|PythonParser.testlist_gexp,0.05472117211210832,0.0,0.005217122998172403,0.0,0.059938295110280725
Tuples$py.test$2|Tuples$py.call_function|PyTableCode.call,0.0,0.08750400000038401,0.0,0.02062499999980597,0.10812900000018998
Tuples$py.test$5|Tuples$py.call_function|PyTableCode.call,0.0,0.2632415529388915,0.0,0.032848785052354196,0.29609033799124573
URLClassPath.getLoader|URLClassPath.getNextLoader|URLClassPath.getResource,0.03858433333334688,0.0,0.003722499999942859,0.0,0.042306833333289745
Unicode$py.test$11|Unicode$py.call_function|PyTableCode.call,0.0,0.09338366667119163,0.0,0.015880000000227785,0.10926366667141942
Unicode$py.test$5|Unicode$py.call_function|PyTableCode.call,0.0,0.6687661999943277,0.0,0.007888000000457395,0.6766541999947852
Unicode$py.test$8|Unicode$py.call_function|PyTableCode.call,0.0,0.2529703333372405,0.0,0.051209999999628046,0.30418033333686856
Yield$PyExposer.<init>|Yield.<clinit>|PythonParser.yield_expr,0.043706514325213344,0.0,0.0036707772263749787,0.0,0.047377291551588326
aliases$py.<init>|NativeConstructorAccessorImpl.newInstance0|NativeConstructorAccessorImpl.newInstance,0.06682786900419549,0.0,0.006412355604437625,0.0,0.07324022460863311
unicodedata$py.init_east_asian_width$5|unicodedata$py.call_function|PyTableCode.call,0.0,0.08896866666327696,0.0,0.013585000000603031,0.10255366666388
unicodedata$py.init_unicodedata$4|unicodedata$py.call_function|PyTableCode.call,0.05735408585205975,0.09769699999984974,0.0036868772478145365,0.013625000000198877,0.17236296309992288
zipimporter$PyExposer.<init>|zipimporter.<clinit>|PySystemState.<init>,0.06447248889451693,0.0,0.007253932496555288,0.0,0.07172642139107221
