method,package1,dram1,energy
,13.620568728623184,0.9501102944316775,14.570679023054861
chappie,0.0,0.0,0.0
com.kenai.constantine.platform,0.05837264822726634,0.0040156212456004,0.062388269472866735
com.sun.jna,0.06535277978817076,0.0045535615931146115,0.06990634138128538
javassist,0.08775449064736145,0.00812658527412313,0.09588107592148458
javassist.bytecode,0.15394148196121468,0.015681960588867977,0.16962344255008266
org.antlr.runtime,0.25663650059027343,0.02574894777587873,0.28238544836615215
org.antlr.runtime.tree,0.27547616174968703,0.024017614566645168,0.2994937763163322
org.dacapo.harness,0.019309412635200137,0.0014939742729850694,0.020803386908185208
org.objectweb.asm,0.058412206538954715,0.003807667865991557,0.06221987440494627
org.python.antlr,1.9939244476562719,0.17238275739110645,2.1663072050473784
org.python.antlr.ast,0.20267782522188427,0.018084962176837967,0.22076278739872224
org.python.antlr.base,0.07049159204161999,0.005053672728496279,0.07554526477011628
org.python.compiler,0.19904442197009875,0.01508674859915067,0.2141311705692494
org.python.core,9.42251714769978,0.6826602415695764,10.105177389269357
org.python.core.packagecache,0.13618726613772658,0.016384184639654156,0.15257145077738074
org.python.modules,0.09622498940468503,0.008814428634477636,0.10503941803916267
org.python.util,0.031226524473840257,0.003985606613135931,0.03521213108697619
sun.misc,0.04471588641252105,0.0034323598130936873,0.048148246225614734
sun.net.www,0.024381982784086768,0.0019350349812543813,0.02631701776534115
sun.reflect,0.04798154168655877,0.003583554555311725,0.051565096241870494
