method,package1,dram1,energy
ASCIICaseInsensitiveComparator.compare|ASCIICaseInsensitiveComparator.compare|Attributes$Name.equals,0.04471588641252105,0.0034323598130936873,0.048148246225614734
ArgParser.getRequiredArg|ArgParser.getArg|ArgParser.getArg,0.07833836548150501,0.004804579828181596,0.0831429453096866
Arithmetic$py.test$11|Arithmetic$py.call_function|PyTableCode.call,0.37545430131972585,0.021466462710030415,0.3969207640297563
Arithmetic$py.test$14|Arithmetic$py.call_function|PyTableCode.call,0.3014539954237022,0.012548689099594754,0.314002684523297
Arithmetic$py.test$2|Arithmetic$py.call_function|PyTableCode.call,0.5022951954190613,0.03382145267533725,0.5361166480943985
Arithmetic$py.test$5|Arithmetic$py.call_function|PyTableCode.call,0.588829552006727,0.046241499290264436,0.6350710512969915
Arithmetic$py.test$8|Arithmetic$py.call_function|PyTableCode.call,0.47830850617499937,0.0337261403430086,0.512034646518008
BaseParser.setupParser|BaseParser.parseModule|CompileMode$3.dispatch,0.5317976729642084,0.04072311296392513,0.5725207859281336
BuiltinFunctions.__call__|PyBuiltinFunctionNarrow.__call__|__builtin__.map,0.03318839333994563,0.00045226772400642617,0.033640661063952054
CachedJarsPackageManager.filterByName|CachedJarsPackageManager.addZipEntry|CachedJarsPackageManager.getZipPackages,0.03380645085439578,0.003913207883990983,0.03771965873838676
Calls$py.test$13|Calls$py.call_function|PyTableCode.call,0.20894789599968508,0.014209399892809973,0.22315729589249506
Calls$py.test$16|Calls$py.call_function|PyTableCode.call,0.1547970973388322,0.006334620768156992,0.1611317181069892
Calls$py.test$2|Calls$py.call_function|PyTableCode.call,0.36025130491230156,0.020230611854052193,0.38048191676635373
Chaperone.retire|Chaperone.dismiss|Chaperone.main,0.0,0.0,0.0
ClassFile.getInterfaces|CtClassType.getInterfaces|CtClassType.getField2,0.047611321041533435,0.003844719208855501,0.05145604025038893
ClassReader.accept|ClassReader.accept|AnnotationReader.<init>,0.058412206538954715,0.003807667865991557,0.06221987440494627
CommandLineArgs.makeOption|CommandLineArgs.<clinit>|TestHarness.main,0.0,0.0,0.0
CommonTokenStream.LT|CommonTokenStream.LA|PythonParser.not_test,0.0857175050509933,0.008755151514975811,0.09447265656596912
CommonTokenStream.skipOffTokenChannels|CommonTokenStream.consume|BaseRecognizer.match,0.09824115789409628,0.01159578947312854,0.10983694736722482
CommonTree.setChildIndex|PythonTree.setChildIndex|PythonTreeAdaptor.rulePostProcessing,0.07350446282381776,0.0045621306951765545,0.07806659351899431
CompilerFlags.isFlagSet|PyFrame.<init>|PyFrame.<init>,0.04583726804286328,0.0,0.04583726804286328
CompilerFlags.isFlagSet|PyFrame.getLocals|imp.importOne,0.04322914939826964,0.003075931260346248,0.04630508065861589
ConstPool.readOne|ConstPool.read|ConstPool.<init>,0.10633016091968124,0.011837241380012476,0.11816740229969372
Constructs$py.test$2|Constructs$py.call_function|PyTableCode.call,0.5537012610054759,0.0453558531909814,0.5990571141964574
Constructs$py.test$5|Constructs$py.call_function|PyTableCode.call,0.11402344919884957,0.01016677538383038,0.12419022458267995
Constructs$py.test$8|Constructs$py.call_function|PyTableCode.call,0.30337939924779483,0.020932121786670803,0.32431152103446564
CtClassType.compress|ClassPool.compress|ClassPool.makeClass,0.06839308900201163,0.005928323230256111,0.07432141223226774
CtClassType.getClassFile3|CtClassType.getClassFile2|CtClassType.getInterfaces,0.01936140164534982,0.0021982620438670193,0.02155966368921684
DFA.unpackEncodedString|PythonLexer.<clinit>|BaseParser.setupParser,0.07267783764518386,0.005398006787774378,0.07807584443295824
Dict$py.test$11|Dict$py.call_function|PyTableCode.call,0.2073218122768836,0.010282650467540528,0.21760446274442413
Dict$py.test$14|Dict$py.call_function|PyTableCode.call,0.2547301604898812,0.007406171284690916,0.2621363317745721
Dict$py.test$2|Dict$py.call_function|PyTableCode.call,0.1711602573531875,0.015840613971673113,0.1870008713248606
Dict$py.test$5|Dict$py.call_function|PyTableCode.call,0.159224145415705,0.0005840403819224513,0.15980818579762746
Dict$py.test$8|Dict$py.call_function|PyTableCode.call,0.20335753087535494,0.019795914050507644,0.2231534449258626
Errno.<clinit>|Class.forName0|Class.forName,0.05837264822726634,0.0040156212456004,0.062388269472866735
Exceptions$py.test$2|Exceptions$py.call_function|PyTableCode.call,0.07042764991000186,0.001430493930554907,0.07185814384055676
Exceptions$py.test$5|Exceptions$py.call_function|PyTableCode.call,0.13983009767252924,0.021012760625628537,0.16084285829815778
For$PyExposer.<init>|For.<clinit>|GrammarActions.makeFor,0.06839308900201163,0.005928323230256111,0.07432141223226774
Generic.list|CachedJarsPackageManager.addZipEntry|CachedJarsPackageManager.getZipPackages,0.031226524473840257,0.003985606613135931,0.03521213108697619
GrammarActions.castStmts|GrammarActions.makeTryExcept|PythonParser.try_stmt,0.050412735583562185,0.0048572262305759464,0.05526996181413813
Imports$py.test$2|Imports$py.call_function|PyTableCode.call,0.06964356105340311,0.003686137826808185,0.07332969888021129
Index.<init>|PythonParser.subscript|PythonParser.subscriptlist,0.0667870173211503,0.007627180048416262,0.07441419736956657
Instances$py.__init__$7|Instances$py.call_function|PyTableCode.call,0.07487906610492764,0.007081540161015803,0.08196060626594345
Lists$py.test$2|Lists$py.call_function|PyTableCode.call,0.2064818755461612,0.006767635247476951,0.21324951079363816
Lists$py.test$8|Lists$py.call_function|PyTableCode.call,0.27326441182920214,0.01757864156011267,0.2908430533893148
Lookups$py.test$12|Lookups$py.call_function|PyTableCode.call,0.1499095404680368,0.0017190557043916558,0.15162859617242846
Lookups$py.test$17|Lookups$py.call_function|PyTableCode.call,0.32707303196976495,0.02727400377384843,0.35434703574361337
Lookups$py.test$22|Lookups$py.call_function|PyTableCode.call,0.11621152552885389,0.00883238554932453,0.12504391107817842
Lookups$py.test$2|Lookups$py.call_function|PyTableCode.call,0.2883990615687396,0.011153926067493353,0.29955298763623295
Lookups$py.test$7|Lookups$py.call_function|PyTableCode.call,0.3543341653916211,0.02572939007523616,0.3800635554668573
Module.PyCode|CodeCompiler.visitClassDef|ClassDef.accept,0.025470708092574863,0.0019134006858941316,0.027384108778468995
Module.PyCode|Module.compile|imp.compileSource,0.05947562189078257,0.00404771212393746,0.06352333401472003
Module.compile|imp.compileSource|imp.createFromSource,0.11409809198674131,0.009125635789319079,0.12322372777606039
Numbers$py.test$11|Numbers$py.call_function|PyTableCode.call,0.12690797197935672,0.008786995236569183,0.1356949672159259
Numbers$py.test$2|Numbers$py.call_function|PyTableCode.call,0.4064994452430899,0.029248183584249673,0.4357476288273396
Numbers$py.test$5|Numbers$py.call_function|PyTableCode.call,0.1765440405327161,0.0128628697738585,0.1894069103065746
Numbers$py.test$8|Numbers$py.call_function|PyTableCode.call,0.23049842571349943,0.016576601283009043,0.24707502699650846
PackageManager.checkAccess|CachedJarsPackageManager.addZipEntry|CachedJarsPackageManager.getZipPackages,0.10238081528333082,0.012470976755663174,0.114851792038994
ParseUtil.encodePath|URLClassPath$FileLoader.getResource|URLClassPath.getResource,0.024381982784086768,0.0019350349812543813,0.02631701776534115
Py.getThreadState|Py.getThreadState|PyObject._gt,0.0513888852358389,0.003482768260995096,0.054871653496834
Py.getThreadState|Py.getThreadState|PyObject._lt,0.04611991580794604,0.00356354171102205,0.04968345751896809
Py.initClassExceptions|PySystemState.doInitialize|PySystemState.initialize,0.05222548647703654,0.004098117186482832,0.05632360366351937
Py.newLong|PyLong.long___sub__|PyLong.__sub__,0.05272990268538556,0.004083550385780098,0.056813453071165664
PyBaseCode.call|PyFunction.__call__|unicodedata$py.bidirectional$17,0.101631663973121,0.009865405238021312,0.1114970692111423
PyClass.__findattr_ex__|PyObject.__getattr__|Lookups$py.test$7,0.06756070336043951,0.005235042934830557,0.07279574629527007
PyClass.lookup|PyClass.__findattr_ex__|PyObject.__getattr__,0.10061816911275398,0.007516320983814503,0.10813449009656849
PyDescriptor.<init>|PyDataDescr.<init>|If$test_descriptor.<init>,0.07876735923759039,0.005199305989335734,0.08396666522692613
PyDictionary.<init>|Dict$py.test$2|Dict$py.call_function,0.05632661820691005,0.005797502998165355,0.0621241212050754
PyDictionary.__finditem__|PyObject.__getitem__|Dict$py.test$11,0.03552942888698536,0.0,0.03552942888698536
PyDictionary.__finditem__|PyObject.__getitem__|Dict$py.test$5,0.035646703475432924,0.0005859892623292205,0.03623269273776215
PyFloat$PyExposer.<init>|PyFloat.<clinit>|__builtin__.fillWithBuiltins,0.07222171156815299,0.007466423103550555,0.07968813467170355
PyFloat.float___cmp__|PyFloat.__cmp__|PyObject._try__cmp__,0.04617415065941887,0.0037254225865577997,0.04989957324597667
PyFrame.<init>|PyFrame.<init>|PyBaseCode.call,0.3329246309690418,0.02590055318809304,0.3588251841571348
PyFrame.doGetglobal|PyFrame.getglobal|bisect$py.bisect_left$4,0.07122734728884181,0.007469821212676095,0.07869716850151791
PyFrame.doGetglobal|PyFrame.getglobal|unicodedata$py.get_codepoint$9,0.06530988392627281,0.003399850911293908,0.06870973483756672
PyFrame.getglobal|unicodedata$py.get$11|unicodedata$py.call_function,0.08381929549862607,0.004258494427654186,0.08807778992628026
PyFrame.getglobal|unicodedata$py.init_east_asian_width$5|unicodedata$py.call_function,0.06306222325756329,0.004125926330966904,0.0671881495885302
PyFrame.getlocal|Arithmetic$py.test$2|Arithmetic$py.call_function,0.05591107035395948,0.004096743185850133,0.060007813539809614
PyFrame.getlocal|Arithmetic$py.test$5|Arithmetic$py.call_function,0.05941307415880497,0.005205004036430799,0.06461807819523577
PyFrame.getlocal|NewInstances$py.test$3|NewInstances$py.call_function,0.07217005733987515,0.004449954241550686,0.07662001158142584
PyFrame.getlocal|Strings$py.test$5|Strings$py.call_function,0.044602511082923575,0.0034534370148490627,0.04805594809777264
PyFrame.getlocal|Strings$py.test$8|Strings$py.call_function,0.3147427029047031,0.024628006407351053,0.33937070931205415
PyFrame.setline|Arithmetic$py.test$2|Arithmetic$py.call_function,0.05633295828038789,0.004092266220946942,0.060425224501334834
PyFrame.setline|Constructs$py.test$5|Constructs$py.call_function,0.1287941964506711,0.009951090552953405,0.1387452870036245
PyFrame.setline|Constructs$py.test$8|Constructs$py.call_function,0.04186460092123919,0.0034523082196329263,0.045316909140872115
PyFrame.setline|Strings$py.test$5|Strings$py.call_function,0.16134266733902788,0.01187297581578474,0.17321564315481264
PyFrame.setline|Strings$py.test$8|Strings$py.call_function,0.10471660081908313,0.008698536262049087,0.11341513708113221
PyFrame.setline|Unicode$py.test$5|Unicode$py.call_function,0.04373180628685031,0.0026355458521684647,0.046367352139018776
PyFrame.setlocal|Arithmetic$py.test$14|Arithmetic$py.call_function,0.04102469191898697,0.0,0.04102469191898697
PyFrame.setlocal|Arithmetic$py.test$2|Arithmetic$py.call_function,0.0558442089570835,0.0031897443870883,0.0590339533441718
PyFrame.setlocal|Arithmetic$py.test$8|Arithmetic$py.call_function,0.07608388498518104,0.0051766587419613255,0.08126054372714236
PyFrame.setlocal|Constructs$py.test$2|Constructs$py.call_function,0.11460512841815035,0.010329546018963137,0.12493467443711348
PyFrame.setlocal|Constructs$py.test$8|Constructs$py.call_function,0.16646122771271574,0.013699391741083736,0.18016061945379946
PyFrame.setlocal|bisect$py.bisect_left$4|bisect$py.call_function,0.09059489263154102,0.01008757532492296,0.10068246795646399
PyFrame.setupEnv|PyTableCode.call|PyBaseCode.call,0.04048170052695877,0.0,0.04048170052695877
PyFunction$PyExposer.<init>|PyFunction.<clinit>|Class.forName0,0.06342404386199736,0.005942594426651749,0.06936663828864911
PyInstance.__findattr_ex__|PyObject.__getattr__|Lookups$py.test$17,0.04045112035880883,0.00318685683953373,0.04363797719834256
PyInstance.instance___setattr__|PyInstance.__setattr__|Calls$py.j$19,0.04048170052695877,0.0,0.04048170052695877
PyInteger.divide|PyInteger.int___div__|PyInteger.__div__,0.02953555237580069,0.0021298414460798566,0.03166539382188054
PyInteger.getValue|PyInteger.coerce|PyInteger.int___cmp__,0.054085618374589264,0.003472145593920651,0.057557763968509916
PyJavaType.wrapJavaObject|ClassicPyObjectAdapter.adapt|Py.java2py,0.05837264822726634,0.0040156212456004,0.062388269472866735
PyList$list_append_exposer.__call__|PyObject.__call__|Lists$py.test$2,0.030594800966177657,0.0005802467809722955,0.031175047747149954
PyList$list_append_exposer.__call__|PyObject.__call__|Lists$py.test$8,0.0802338919259324,0.0046292898399119785,0.08486318176584438
PyList$list_insert_exposer.bind|PyMethodDescr.method_descriptor___get__|PyMethodDescr.__get__,0.05551804721650688,0.004005271056295619,0.0595233182728025
PyList.list___len__|PyList.__len__|PySequence$1.len,0.07773415045996186,0.0046209075320957395,0.0823550579920576
PyList.list_append|PyList$list_append_exposer.__call__|PyObject.__call__,0.05090257693082857,0.0017142049252811015,0.05261678185610967
PyList.pyget|PySequence$1.getItem|SequenceIndexDelegate.checkIdxAndFindItem,0.16953765037298063,0.009837027695887632,0.17937467806886825
PyLong$PyExposer.<init>|PyLong.<clinit>|__builtin__.fillWithBuiltins,0.0608974360436006,0.009273349792645007,0.07017078583624561
PyLong.long___cmp__|PyLong.__cmp__|PyObject._try__cmp__,0.07452577828264399,0.005050334577943414,0.07957611286058741
PyLong.long___mul__|PyLong.__mul__|PyObject._basic_mul,0.060809756066349877,0.0028593778788859148,0.0636691339452358
PyObject.<init>|PyBuiltinCallable.<init>|PyBuiltinMethod.<init>,0.059911958383478486,0.003741680824260495,0.06365363920773898
PyObject.<init>|PySequence.<init>|PyBaseString.<init>,0.03415379527066522,0.0015237567403709135,0.03567755201103613
PyObject.<init>|PySequence.<init>|PySequenceList.<init>,0.07138101048157977,0.004609027438866589,0.07599003792044635
PyObject.__getattr__|unicodedata$py.get$11|unicodedata$py.call_function,0.04685347784498987,0.0034202891515569896,0.050273766996546856
PyObject._add|Arithmetic$py.test$14|Arithmetic$py.call_function,0.07369642300115667,0.00667040541450209,0.08036682841565876
PyObject._basic_mul|PyObject._mul|Arithmetic$py.test$2,0.056836205768355436,0.0038507610961175187,0.06068696686447295
PyObject._basic_sub|PyObject._sub|Calls$py.f$28,0.0357503187415534,0.0,0.0357503187415534
PyObject._div|Arithmetic$py.test$5|Arithmetic$py.call_function,0.058008045555591185,0.00454577528988903,0.06255382084548021
PyObject._eq|unicodedata$py.get_codepoint$9|unicodedata$py.call_function,0.11137726465959438,0.009032230242142806,0.12040949490173719
PyObject._gt|Numbers$py.test$5|Numbers$py.call_function,0.04168114152921768,0.003118093388758044,0.044799234917975723
PyObject._gt|Numbers$py.test$8|Numbers$py.call_function,0.05523892372350394,0.003976236207761864,0.059215159931265804
PyObject._lt|Numbers$py.test$2|Numbers$py.call_function,0.06552085799538228,0.003731523377482636,0.06925238137286491
PyObject._lt|Numbers$py.test$5|Numbers$py.call_function,0.033698730165607635,0.00409296317740901,0.037791693343016644
PyObject.getType|PyObject._gt|Strings$py.test$5,0.10561267024061177,0.006068150909303318,0.1116808211499151
PyObject.getType|PyObject._lt|Strings$py.test$5,0.11110419385448006,0.00862305413467123,0.1197272479891513
PyObject.object___findattr__|PyObject.__findattr_ex__|PyObject.__getattr__,0.10128714811122481,0.00817635157677514,0.10946349968799995
PyObjectDerived.__setattr__|NewInstances$py.__init__$8|NewInstances$py.call_function,0.09313125185133846,0.007933409560374374,0.10106466141171283
PyObjectDerived.__tojava__|ReflectedArgs.matches|PyReflectedFunction.__call__,0.047611321041533435,0.003844719208855501,0.05145604025038893
PySequence$1.getSlice|SequenceIndexDelegate.getSlice|PySequence.seq___getslice__,0.036881314940313145,0.0035060720510741274,0.040387386991387275
PySequence.<init>|PySequenceList.<init>|PyList.<init>,0.05231366393720014,0.003692332417950056,0.056005996355150196
PySlice.indicesEx|SequenceIndexDelegate.checkIdxAndSetSlice|PySequence.seq___setslice__,0.05890271842790028,0.002913765681190977,0.061816484109091255
PySlice.indicesEx|SequenceIndexDelegate.getSlice|PySequence.seq___getslice__,0.08072900000115624,0.007254999999834884,0.08798400000099112
PySlot$PyExposer.<init>|PySlot.<clinit>|PyType.createAllSlots,0.0460356724216129,0.0035731170118543025,0.0496087894334672
PyString.<init>|PyString.<init>|PyString.createInstance,0.09029025242236373,0.01782031593662839,0.10811056835899212
PyString.__add__|PyObject._basic_add|PyObject._add,0.043604870039171635,0.005360581570244139,0.048965451609415775
PyString.atoi|PyString.__int__|PyInteger.asPyInteger,0.06367547656475771,0.00519841647071624,0.06887389303547395
PyString.splitfields|PyString.str_split|PyString$str_split_exposer.__call__,0.06883624999886706,0.004420312499746615,0.07325656249861368
PyString.str___gt__|PyString.__gt__|PyObject._gt,0.044760424645052664,0.003590176524076697,0.04835060116912936
PyString.str___lt__|PyString.__lt__|PyObject._lt,0.0898128516041741,0.005520451904508538,0.09533330350868263
PyString.str_isdecimal|PyUnicode.unicode_isdecimal|PyUnicode$unicode_isdecimal_exposer.__call__,0.0562850741792001,0.003585900892390271,0.059870975071590365
PyString.str_title|PyString$str_title_exposer.__call__|PyObject.__call__,0.03730427292448226,0.0005216448595933103,0.03782591778407557
PyString.str_title|PyUnicode.unicode_title|PyUnicode$unicode_title_exposer.__call__,0.06693572055696435,0.0033762947259499748,0.07031201528291432
PyStringMap.__finditem__|PyClass.lookup|PyClass.__findattr_ex__,0.0478158709505692,0.0017351433220249369,0.04955101427259414
PyStringMap.__finditem__|PyFrame.doGetglobal|PyFrame.getglobal,0.2601934528296762,0.019566750394042882,0.2797602032237191
PyStringMap.__finditem__|PyType.lookup|PyObject.object___findattr__,0.06091615241729791,0.004585469769219522,0.06550162218651744
PyStringMap.__finditem__|imp.import_next|imp.import_name,0.07563836256885996,0.0046533105636136106,0.08029167313247357
PyStringMap.__setitem__|PyInstance.instance___setattr__|PyInstance.__setattr__,0.0397303302783659,0.002321547713919123,0.042051877992285026
PySystemState.<init>|PySystemState.doInitialize|PySystemState.initialize,0.04491518746725481,0.006481146530970816,0.05139633399822562
PyTableCode.call|PyBaseCode.call|PyFunction.__call__,0.17652071382405984,0.010545407608322236,0.18706612143238208
PyTuple.<init>|PyTuple.<init>|ArgParser.getList,0.07003532852977648,0.00461855268993249,0.07465388121970896
PyTuple.<init>|PyTuple.<init>|Tuples$py.test$5,0.08158976497885226,0.0048477661291335536,0.08643753110798581
PyTuple.<init>|PyTuple.fromArrayNoCopy|PyTuple.getslice,0.03201923722387433,0.0009128544718611637,0.032932091695735494
PyTuple.getslice|PySequence$1.getSlice|SequenceIndexDelegate.getSlice,0.058769224698582014,0.0036602240170643006,0.06242944871564631
PyType$MROMergeState.noteMerged|PyType.computeMro|PyType.computeMro,0.055945129613200924,0.004026537831803304,0.05997166744500423
PyType.fromClass|PyObject.<init>|PyDescriptor.<init>,0.04070478545807287,0.0045998969582164454,0.045304682416289314
PyType.fromClass|PyObject.<init>|PyFrame.<init>,0.7184646369034354,0.051693213589930065,0.7701578504933655
PyType.fromClass|PyObject.<init>|PyIterator.<init>,0.06488255209568232,0.00461169335166289,0.06949424544734521
PyType.fromClass|PyObject.<init>|PyMethod.<init>,0.0397303302783659,0.002321547713919123,0.042051877992285026
PyType.fromClass|PyObject.<init>|PyTraceback.<init>,0.13760552793237754,0.009091579394920751,0.1466971073272983
PyType.init|PyType.createType|PyType.addFromClass,0.07324255957775434,0.0105551394272001,0.08379769900495444
PyType.invoke_new_|PyType.type___call__|PyType.__call__,0.07017449748999834,0.0045153148474021965,0.07468981233740053
PyType.isSubType|PyDescriptor.checkGetterType|PyMethodDescr.method_descriptor___get__,0.04970158741328511,0.002458720119332043,0.052160307532617155
PyType.isSubType|PyObject._lt|Numbers$py.test$8,0.05283141098026764,0.004027807699119495,0.05685921867938713
PyType.lookup|PyObject.object___findattr__|PyObject.__findattr_ex__,0.1239108015224836,0.009426669368257866,0.13333747089074147
PyType.lookup|PyObjectDerived.__setattr__|NewInstances$py.__init__$8,0.09164611357172228,0.005316981815525062,0.09696309538724734
PyUnicode.<init>|PyUnicode.<init>|PyUnicode.unicode___add__,0.02657311760565449,0.0038364850816056673,0.030409602687260156
PyXRange.pyget|PySequence$1.getItem|SequenceIndexDelegate.checkIdxAndFindItem,0.09303211241964009,0.004681805452898666,0.09771391787253875
PythonLexer.<init>|PythonLexer.<init>|BaseParser$PyLexer.<init>,0.07267783764518386,0.005398006787774378,0.07807584443295824
PythonLexer.mASSIGN|PythonLexer.mTokens|PythonLexer.nextToken,0.03727787125258145,0.003274109911517539,0.04055198116409899
PythonLexer.mCOMMENT|PythonLexer.mTokens|PythonLexer.nextToken,0.07032145323033144,0.004484290602668046,0.07480574383299948
PythonLexer.mSTRING|PythonLexer.mTokens|PythonLexer.nextToken,0.04976239797946674,0.004600417598506717,0.054362815577973456
PythonParser$DFA51.<init>|PythonParser.<init>|PythonParser.<init>,0.05626380860718886,0.007436794677535444,0.06370060328472431
PythonParser.<clinit>|BaseParser.setupParser|BaseParser.parseModule,0.07912999910507568,0.0056032134294684245,0.0847332125345441
PythonParser.argument|PythonParser.arglist|PythonParser.trailer,0.10318035756857453,0.00813747848315071,0.11131783605172524
PythonParser.atom|PythonParser.power|PythonParser.factor,0.0866644757270227,0.0043707008430427475,0.09103517657006545
PythonParser.expr|PythonParser.comparison|PythonParser.not_test,0.037704133632767686,0.004092180773848619,0.041796314406616304
PythonParser.factor|PythonParser.term|PythonParser.arith_expr,0.05499478537713952,0.0040956128359579186,0.05909039821309744
PythonParser.import_name|PythonParser.import_stmt|PythonParser.small_stmt,0.04781048288575339,0.0029956478266800197,0.05080613071243341
PythonParser.list_for|PythonParser.listmaker|PythonParser.atom,0.07323811724132427,0.0074123433573722065,0.08065046059869647
PythonParser.shift_expr|PythonParser.and_expr|PythonParser.xor_expr,0.20566413871762967,0.016153175156702695,0.22181731387433237
PythonParser.trailer|PythonParser.power|PythonParser.factor,0.14438084680312285,0.015103445911037076,0.15948429271415993
PythonTokenSource.insertImaginaryIndentDedentTokens|PythonTokenSource.nextToken|CommonTokenStream.fillBuffer,0.0906780000004801,0.010780000000522705,0.1014580000010028
PythonTree.setParent|PythonTree.addChild|PythonTreeAdaptor.addChild,0.07350666666873924,0.008130000000164728,0.08163666666890397
PythonTreeAdaptor.addChild|PythonParser.term|PythonParser.arith_expr,0.12845866666611985,0.014735000000655418,0.14319366666677527
Reflection.getCallerClass|Class.getMethod|PyJavaType.getDescrMethod,0.04798154168655877,0.003583554555311725,0.051565096241870494
RewriteRuleElementStream.<init>|RewriteRuleSubtreeStream.<init>|PythonParser.atom,0.12262603225826753,0.013405483871509359,0.13603151612977687
RewriteRuleElementStream.<init>|RewriteRuleTokenStream.<init>|PythonParser.atom,0.0793456666676017,0.006049999999959255,0.08539566666756096
SequenceIndexDelegate.checkIdxAndFindItem|SequenceIndexDelegate.checkIdxAndGetItem|PySequence.seq___getitem__,0.07155757604132296,0.0049769868877478024,0.07653456292907077
SequenceIndexDelegate.fixindex|SequenceIndexDelegate.checkIdxAndFindItem|PySequence.seq___finditem__,0.06026823640399541,0.005725619014631294,0.0659938554186267
Strings$py.test$14|Strings$py.call_function|PyTableCode.call,0.09792932802264424,0.014012241829355045,0.1119415698519993
Strings$py.test$17|Strings$py.call_function|PyTableCode.call,0.03730427292448226,0.0005216448595933103,0.03782591778407557
Strings$py.test$20|Strings$py.call_function|PyTableCode.call,0.1453873158802021,0.009085984938094843,0.15447330081829694
Strings$py.test$2|Strings$py.call_function|PyTableCode.call,0.2561945561698839,0.03356000662916709,0.289754562799051
Strings$py.test$5|Strings$py.call_function|PyTableCode.call,1.3029610205214328,0.08974634706142727,1.39270736758286
Strings$py.test$8|Strings$py.call_function|PyTableCode.call,1.679058447869226,0.13061770483398014,1.8096761527032061
Structure.<clinit>|Native.initIDs|Native.<clinit>,0.06535277978817076,0.0045535615931146115,0.06990634138128538
TestHarness.findClass|TestHarness.runBenchmark|TestHarness.main,0.019309412635200137,0.0014939742729850694,0.020803386908185208
ThreadStateMapping.getThreadState|Py.getThreadState|Py.getThreadState,0.052382193696712716,0.0037366606586257687,0.056118854355338484
TryExcept.<clinit>|GrammarActions.makeTryExcept|PythonParser.try_stmt,0.06749771889872233,0.004529458898165595,0.07202717779688793
Tuples$py.test$2|Tuples$py.call_function|PyTableCode.call,0.06368999855679956,0.0009128544718611637,0.06460285302866073
Tuples$py.test$5|Tuples$py.call_function|PyTableCode.call,0.058769224698582014,0.0036602240170643006,0.06242944871564631
Unicode$py.test$17|Unicode$py.call_function|PyTableCode.call,0.1682280537921233,0.008408642230618433,0.17663669602274173
Unicode$py.test$20|Unicode$py.call_function|PyTableCode.call,0.2478462494901298,0.022488261672473073,0.2703345111626029
Unicode$py.test$2|Unicode$py.call_function|PyTableCode.call,0.09384564190341069,0.017124303359128405,0.11096994526253909
Unicode$py.test$5|Unicode$py.call_function|PyTableCode.call,0.9027904511639492,0.057415974610941556,0.9602064257748908
__builtin__.range|BuiltinFunctions.__call__|PyObject.__call__,0.1325129677519356,0.00907788024185764,0.14159084799379323
bisect$py.bisect_left$4|bisect$py.call_function|PyTableCode.call,0.05629526526727745,0.003962513688335699,0.06025777895561315
exceptions.classDictInit|NativeMethodAccessorImpl.invoke0|NativeMethodAccessorImpl.invoke,0.03500624197455585,0.00279601855926793,0.03780226053382378
imp.import_logic|imp.import_name|imp.importName,0.06090038225110385,0.0040669952876938005,0.06496737753879765
imp.import_name|imp.importName|ImportFunction.__call__,0.08424988532212488,0.005363285904516139,0.08961317122664102
imp.import_next|imp.import_name|imp.importName,0.07012856577734762,0.004089749689085757,0.07421831546643337
mod$PyExposer.<init>|mod.<clinit>|PythonParser.file_input,0.07049159204161999,0.005053672728496279,0.07554526477011628
operator$PyItemGetter.__call__|PyObject.__call__|PyObject.__call__,0.09622498940468503,0.008814428634477636,0.10503941803916267
unicodedata$py.call_function|PyTableCode.call|PyBaseCode.call,0.06335467136329749,0.004593319017008263,0.06794799038030576
unicodedata$py.get$11|unicodedata$py.call_function|PyTableCode.call,0.16405265152290305,0.012149900903644921,0.17620255242654798
unicodedata$py.init_east_asian_width$5|unicodedata$py.call_function|PyTableCode.call,0.19825184775591942,0.014295867357577915,0.21254771511349735
unicodedata$py.init_unicodedata$4|unicodedata$py.call_function|PyTableCode.call,0.13646999675085242,0.008870865400756675,0.1453408621516091
