method,package1,package2,dram1,dram2,energy
AbstractCollection,0.16571208313253102,0.0,0.013306585571545293,0.0,0.17901866870407632
AbstractStringBuilder,0.06051441176489735,0.0,0.0036882352934994467,0.0,0.0642026470583968
Arithmetic$py,2.221519877733922,0.6707767777762557,0.1245199909578962,0.10415000000122947,3.120966646469303
ArrayList,0.27021586566831207,0.11580400000093505,0.018914999999776458,0.013564999999895614,0.4184998656689192
Arrays,0.4267744177713217,0.8271686666606305,0.03756514372873806,0.17079499999939188,1.462303228160082
Attribute$PyExposer,0.05892199584962522,0.0,0.006571255913280118,0.0,0.06549325176290534
AttributeInfo,0.02832904010117648,0.0,0.0026527694020361124,0.0,0.030981809503212592
BaseParser,0.43658094656640734,0.0,0.04914609687074102,0.0,0.48572704343714834
BaseRecognizer,0.027995612985294474,0.0,0.0,0.0,0.027995612985294474
Benchmark,0.06712783838401593,0.0,0.005495353535237888,0.0,0.07262319191925382
BigInteger,0.15069600000060746,0.05129999999917345,0.011624999998578762,0.00827625000010812,0.2218972499984678
BufferedInputStream,2.108144788852424,0.0,0.21858870999183494,0.0,2.326733498844259
BufferedOutputStream,0.13639733333378296,0.0,0.019176999999641942,0.0,0.1555743333334249
CRC32,0.06667792047857983,0.0,0.006540996731696485,0.0,0.07321891721027632
Calls$py,0.1309652915161342,0.05222746154042677,0.0099478756776516,0.006407307692055697,0.19954793642626825
Character,0.10584060591822603,0.060485666671108135,0.008042374169157946,0.009660000000318785,0.1840286467588109
CharacterData,0.0,0.05844358333160926,0.0,0.007183749999967405,0.06562733333157666
CharacterData00,0.12836749793878924,0.0,0.010306774776293232,0.0,0.13867427271508248
CharacterDataLatin1,0.0,0.06675199999881443,0.0,0.010895000000042879,0.07764699999885731
Class,0.5264074900665554,0.0,0.05502677822714046,0.0,0.5814342682936958
Class$MethodArray,0.036782647058905285,0.0,0.004137352940982536,0.0,0.040919999999887824
ClassDef$PyExposer,0.03947274155919461,0.0,0.0,0.0,0.03947274155919461
ClassFile,0.04193383739372835,0.0,0.0040831643515025365,0.0,0.046017001745230886
ClassLoader,0.8734746388248071,0.0,0.07598666416688946,0.0,0.9494613029916966
ClassReader,0.0931234049029785,0.0,0.014275673401651989,0.0,0.1073990783046305
CodeCompiler,0.036934179930116336,0.0,0.0005778439463892393,0.0,0.037512023876505575
Collections,0.04335824108284315,0.0,0.00405767665527582,0.0,0.04741591773811897
CommonTokenStream,0.045349145610428535,0.0,0.005040491091865583,0.0,0.05038963670229412
ConcurrentHashMap,0.8889626153387615,0.8605760000064038,0.06773297388020245,0.13084499999907467,1.9481165892244423
ConcurrentHashMap$EntrySetView,0.044211636363549835,0.0,0.0034618181812358225,0.0,0.04767345454478566
ConcurrentHashMap$Node,0.0,0.06789133333465239,0.0,0.01104000000001785,0.07893133333467024
ConstPool,0.053364999999757856,0.0,0.005285000000488556,0.0,0.058650000000246415
Constructs$py,0.677919034233206,0.0,0.054777702945612614,0.0,0.7326967371788186
DFA,0.06654108378902475,0.0,0.010235424634054677,0.0,0.07677650842307943
DacapoClassLoader,0.06019964444373424,0.0,0.00625866666669026,0.0,0.0664583111104245
DataInputStream,0.14410084967219552,0.0,0.01589862745222371,0.0,0.15999947712441923
Delete,0.035430463627180234,0.0,0.002889440585622216,0.0,0.03831990421280245
Descriptor,0.05583261904705848,0.0,0.005339285714095846,0.0,0.061171904761154326
Dict$py,1.1950359489545275,0.0,0.08079961708042359,0.0,1.275835566034951
DirectLongBufferU,0.033230222222401705,0.0,0.004169999999754105,0.0,0.03740022222215581
Double,0.0,0.06732166666188277,0.0,0.009659999999712454,0.07698166666159523
EnumSet,0.02929916293875175,0.0,0.0005226950966605209,0.0,0.02982185803541227
Exceptions$py,0.0,0.25929111110842007,0.0,0.0483566666676375,0.30764777777605756
FileDescriptor,0.05069305555480241,0.0,0.004883333333257018,0.0,0.05557638888805943
FileInputStream,1.176395247134622,0.0,0.10306452296710505,0.0,1.279459770101727
FileOutputStream,1.3392235505514951,0.0,0.14621683549876902,0.0,1.485440386050264
FilterInputStream,0.11185034670245042,0.0,0.01369509358211025,0.0,0.12554544028456066
Formatter,0.10142000000026503,0.0,0.006445000000288322,0.0,0.10786500000055335
GrammarActions,0.04080929359542447,0.0,0.0,0.0,0.04080929359542447
HashMap,0.011020185185299378,0.0,0.0012486111114008562,0.0,0.012268796296700234
Imports$py,0.0870909815420115,0.0,0.008553355251141585,0.0,0.0956443367931531
Inflater,14.920004257892773,0.0,1.3549310614895973,0.0,16.27493531938237
InflaterInputStream,0.04138180000009015,0.0,0.0046650000000227005,0.0,0.04604680000011285
Integer,0.03994474243966082,0.0,0.0,0.0,0.03994474243966082
Item,0.10780833333289287,0.0,0.016359999999622232,0.0,0.1241683333325151
Lists$py,0.0,0.754597833334022,0.0,0.115592499999669,0.870190333333691
LocaleProviderAdapter,0.0,0.09643126441595937,0.0,0.012322704982209444,0.10875396939816881
LongVector,0.03500417735990328,0.0,0.0038147449332807033,0.0,0.03881892229318398
Lookups$py,0.584365466638699,0.9574583333257274,0.04535794617496813,0.14372999999977765,1.730911746139172
Math,0.04670933183308827,0.0,0.0037827439576573843,0.0,0.050492075790745654
MethodWriter,0.10020252981020035,0.0,0.012918225762181762,0.0,0.11312075557238212
Module,0.14149876387072294,0.0,0.014734887531438923,0.0,0.15623365140216186
NativeString,0.008666898384152267,0.0,0.0009523350415968939,0.0,0.009619233425749161
NewInstances$py,0.0,0.048384000000431006,0.0,0.006487272726989238,0.05487127272742025
Num,0.07548812332472556,0.0,0.011627051205692155,0.0,0.08711517453041771
Numbers$py,0.0,1.2363076666709576,0.0,0.1821050000010776,1.4184126666720351
PackageManager,0.07249199019572508,0.0,0.006803529411841093,0.0,0.07929551960756617
ParseUtil,0.04791261904756538,0.0,0.0063214285715470645,0.0,0.05423404761911244
PushbackInputStream,0.10101969019684187,0.0,0.010197529411715209,0.0,0.11121721960855709
Py,0.04262151111033745,0.14258329166659678,0.004703999999845917,0.020428124998867737,0.21033692777564789
PyBaseCode,0.12610947888467222,0.09558100000140256,0.011515707237534561,0.013815000000249709,0.24702118612385907
PyClass,0.06972114659469048,0.13596599999679407,0.006600024514784671,0.018524999999499414,0.23081217110576863
PyComplex,0.05545405634646704,0.0,0.004499257948169285,0.0,0.05995331429463632
PyComplex$complex___getnewargs___exposer,0.035500181819467486,0.0,0.0036240909089842303,0.0,0.03912427272845172
PyComplex$complex___rmul___exposer,0.035500181819467486,0.0,0.0036240909089842303,0.0,0.03912427272845172
PyDictionary,0.12714719437775093,0.0,0.00820928839968301,0.0,0.13535648277743395
PyFile$PyExposer,0.027204285713759463,0.0,0.0035142857142913962,0.0,0.03071857142805086
PyFloat,0.20606874015950444,0.0,0.013160070614404534,0.0,0.21922881077390896
PyFrame,1.706516073246141,0.45171388887360486,0.12634037625432729,0.07787999999891328,2.3624503383729865
PyFunction,0.05337672776163273,0.0,0.0034358405298344904,0.0,0.05681256829146722
PyInstance,0.04446844408332284,0.07869466666791898,0.0034616911285254405,0.010980000000320915,0.13760480188008817
PyInstance$PyExposer,0.06677008084752549,0.0,0.0050947755812142965,0.0,0.07186485642873978
PyInteger,0.23328499618460938,0.0,0.01637744928403834,0.0,0.24966244546864771
PyJavaType,0.06800606948618643,0.0,0.006031079810202573,0.0,0.074037149296389
PyList,0.16519814869549862,0.052815666664779805,0.014478594653489111,0.008139999999912106,0.24063241001367963
PyLong$PyExposer,0.0303475454531894,0.0,0.003754545454615833,0.0,0.034102090907805235
PyModule$PyExposer,0.04295393939493365,0.0,0.0026181818181860517,0.0,0.0455721212131197
PyObject,0.6090360151979123,0.9261999572749133,0.046022776698701875,0.13857653846213758,1.7198352876336649
PyObject$PyExposer,0.014594133333432385,0.0,0.0015786666665614274,0.0,0.01617279999999381
PyOverridableNew,0.0,0.05076777777544015,0.0,0.007293333333412494,0.05806111110885264
PySequence,0.0,0.1953855333393828,0.0,0.034786000000167405,0.2301715333395502
PySequence$1,0.10799196996237305,0.0,0.009514736211856077,0.0,0.11750670617422912
PySet$PyExposer,0.04499027272642265,0.0,0.0056540909094055115,0.0,0.05064436363582816
PySlice,0.0,0.046875,0.0,0.01015000000006694,0.05702500000006694
PyString,0.14683033333252143,0.325270569449559,0.009409999998752028,0.04905833333269684,0.5305692361135294
PyString$PyExposer,0.03927604999977727,0.0,0.004306499999923593,0.0,0.04358254999970086
PyString$str_find_exposer,0.05417866666418073,0.06926134207424772,0.003540000000308888,0.008936257281695378,0.13591626602043272
PyStringMap,0.3123742593761516,0.13375748717972338,0.024547440672073022,0.01502230769214153,0.4857014949200895
PyTableCode,0.07350666666873924,0.0,0.004754999999325567,0.0,0.0782616666680648
PyTuple,0.17808173040920833,0.058349599999686086,0.014519551899076895,0.009896000000298954,0.26084688230827024
PyType,0.573822676853935,0.18990100000034238,0.047843808224100316,0.026675000000371558,0.8382424850787492
PyUnicode$PyExposer,0.0691292121191509,0.0,0.005178181818778146,0.0,0.07430739393792905
PythonLexer,0.14526072838235696,0.0,0.010797706229287034,0.0,0.15605843461164398
PythonLexer$DFA44,0.06408823706898839,0.0,0.009731856577120022,0.0,0.07382009364610842
PythonParser,0.8780867051274573,0.0,0.07815622604013238,0.0,0.9562429311675897
PythonTokenSource,0.016561999787328915,0.0,0.002415534208649594,0.0,0.01897753399597851
PythonTree,0.06638293123425344,0.0,0.01002818075823607,0.0,0.07641111199248951
RewriteRuleElementStream,0.04294550693984853,0.0,0.0005102806968827406,0.0,0.04345578763673127
Runtime,0.04830500000025495,0.0,0.005192857143334723,0.0,0.05349785714358967
SequenceIndexDelegate,0.0,0.06823733333537044,0.0,0.010999999999815676,0.07923733333518611
String,0.6710270496753462,1.0691330492571234,0.06699797162288947,0.18262909091080556,1.9897871614661646
Strings$py,0.3559063473518553,3.2142455555691005,0.029342057234042703,0.5373674999997193,4.136861460154718
Thread,0.050452151656613216,0.0,0.004028641720141982,0.0,0.054480793376755196
ThreadLocal,0.12112270967805006,0.0,0.008952580644750355,0.0,0.1300752903228004
ThreadLocal$ThreadLocalMap,0.10683942136053759,0.32702633333004394,0.009187726170950802,0.049490000000635824,0.49254348086216815
ThreadStateMapping,0.04990902727599741,0.06030300000080994,0.003837819571488207,0.009654999999838765,0.12370484684813432
Throwable,2.6735267546711583,3.4867025182960654,0.1790137683039371,0.48672874998406024,6.8259717912552205
TreeMap,0.03503774415400979,0.0,0.0,0.0,0.03503774415400979
Tuples$py,0.0,0.2918251999983719,0.0,0.03925499999883565,0.33108019999720756
URLClassLoader,0.03774000000097051,0.0,0.002799999999860163,0.0,0.040540000000830675
Unicode$py,0.31196835682386936,0.4605509999964852,0.026084543113276355,0.07577999999921303,0.8743838999328439
UnixFileSystem,0.32428243646548566,0.0,0.024541640380644197,0.0,0.34882407684612987
UnsafeFieldAccessorFactory,0.0718292150575941,0.0,0.011001704189034432,0.0,0.08283091924662853
Vector,0.010060945696233878,0.0,0.0008277328048302503,0.0,0.010888678501064128
While$PyExposer,0.03500417735990328,0.0,0.0038147449332807033,0.0,0.03881892229318398
ZStreamRef,0.030537999999675467,0.0,0.002360000000104871,0.0,0.03289799999978034
ZipCoder,0.046398476190959284,0.0,0.0032742857143776265,0.0,0.04967276190533691
ZipFile,0.04393042424238625,0.0,0.003436363636424313,0.0,0.047366787878810566
ZipInputStream,0.6178600331831209,0.0,0.0663259286984332,0.0,0.6841859618815541
ZoneInfoFile,0.0431509589357326,0.0,0.0,0.0,0.0431509589357326
__builtin__,0.05818506353537972,0.0,0.0044662691026614255,0.0,0.06265133263804115
arguments$PyExposer,0.04480975166137279,0.0,0.0,0.0,0.04480975166137279
excepthandler,0.03865425170010533,0.0,0.0,0.0,0.03865425170010533
imp,0.08352900291181233,0.0,0.00796363947255535,0.0,0.09149264238436768
unicodedata$py,0.5667980162187678,0.0,0.042795054316195215,0.0,0.609593070534963
