method,package1,package2,dram1,dram2,energy
BitsetScheduler,0.18385700936467606,0.1421458006824664,0.02521878707836895,0.021386926357384494,0.3726085234828959
Chaperone,0.0,0.0,0.0,0.0,0.0
ChiLogger$SingleLineFormatter,0.07017617190839989,0.0,0.0072313435670690734,0.0,0.07740751547546897
ChiPointer,0.011554166627732013,0.0017979999999321683,0.0009629656522818026,0.0002575000000130482,0.014572632279959032
ChiVertex,3.0691010873456017,0.26038518378796077,0.4605361407648602,0.04327913240355345,3.833301544301976
ChiVertex$Edge,0.0,0.08747145403100738,0.0,0.016027388564073698,0.10349884259508108
ConnectedComponents,1.3648906504515879,0.42599516978845986,0.19927011188205734,0.06304445217619034,2.0532003842982953
DataBlockManager,0.10494075132336114,0.32486417397011536,0.015566673908326181,0.057152357307293705,0.5025239565090963
DecimalFormatSymbolsProviderImpl,0.06901262460951822,0.0,0.007373956840300917,0.0,0.07638658144981914
DegreeData,1.9590416383539284,0.07762219549085804,0.27788900966891406,0.014448643346563556,2.329001486860264
ExponentiallyDecayingSample,0.04240913784872828,0.0,0.005138189384520044,0.0,0.047547327233248324
GraphChiContext,0.0,0.05405343534926923,0.0,0.006718999453545752,0.06077243480281498
GraphChiEngine,3.1362990266985857,0.02090382146685215,0.44786711936883905,0.002860643382197903,3.607930610916475
GraphChiEngine$2,0.0,0.012315453303203912,0.0,0.001983011514741348,0.01429846481794526
GraphChiEngine$3,0.11459098477045587,0.13498152703557878,0.019129019703559534,0.022231076879595957,0.29093260838919016
ImmutableDescriptor,0.0762026228177813,0.0,0.010384845501842993,0.0,0.08658746831962429
IntConverter,0.13694670935969672,0.47560556054865616,0.022555521265214065,0.08317903211656286,0.7182868232901298
JmxMBeanServer,0.012139568378431269,0.0,0.0016096251620464352,0.0,0.013749193540477704
JmxReporter,0.056672335157832356,0.0,0.006703240976960212,0.0,0.06337557613479257
LabelAnalysis$1,0.013974958591760414,0.0,0.002419299393606296,0.0,0.01639425798536671
Launcher$AppClassLoader,0.06786258502657366,0.0,0.009845596871406145,0.0,0.0777081818979798
LocaleResources,0.09605457992542597,0.0,0.011585887879677308,0.0,0.10764046780510328
MBeanInfo,0.03354593552404468,0.0,0.005178118306356159,0.0,0.03872405383040084
MXBeanIntrospector,0.03782904359985598,0.0,0.005026500170764871,0.0,0.04285554377062085
MetricName,0.056672335157832356,0.0,0.006703240976960212,0.0,0.06337557613479257
MetricsRegistry,0.06786258502657366,0.0,0.009845596871406145,0.0,0.0777081818979798
NotificationBroadcasterSupport,0.04841668807498761,0.0,0.005542809178261503,0.0,0.05395949725324912
ObjectName,0.02765471720762627,0.0,0.0030266606777730747,0.0,0.030681377885399343
RandomAccessFile,0.2166783710936012,0.007910081159738477,0.04299683829086676,0.00218863052965286,0.2697739210738593
Repository,0.028805467658575126,0.0,0.004118835142943745,0.0,0.03292430280151887
Resource,0.04240913784872828,0.0,0.005138189384520044,0.0,0.047547327233248324
VertexAggregator,0.00737405983331747,0.0,0.0009694301726355976,0.0,0.008343490005953068
VertexData,0.2971359227348085,0.0,0.040915362541254885,0.0,0.3380512852760634
VertexData$1,0.0027137217153801853,0.0,0.0008211637020780626,0.0,0.003534885417458248
ZoneInfoFile,0.0,0.0,0.0,0.0,0.0
