method,package1,package2,dram1,dram2,energy
AnnotationParser.parseSig,0.0,0.02994214285821986,0.0,0.005228571428493263,0.035170714286713124
ChiPointer.<init>,0.0,0.0,0.0,0.0,0.0
ChiVertex.<init>,0.2870969982648177,2.5185404728722083,0.0471895882224314,0.5233325378126691,3.3761595971721268
ChiVertex.edge,0.0,0.008970918367576443,0.0,0.0027756122448297487,0.011746530612406192
ChiVertex.getValue,0.0395884903780004,0.0020058815685607603,0.006403561669359276,0.00042115294114303064,0.04841908655706347
ChiVertex.inEdge,0.0,0.0004290699999546632,0.0,8.339999996678671e-05,0.0005124699999214499
ChiVertex.numEdges,0.0008708922624506049,0.003775431985238409,0.0001177609358962281,0.0007586856617749886,0.00552277084536023
ChiVertex.outEdge,0.02461259021237313,0.0,0.004425639847575544,0.0,0.029038230059948673
ChiVertex.setDataPtr,0.015380427483252614,0.026793391117222735,0.002623962131934109,0.003788375574968595,0.04858615630737806
ChiVertex.setValue,0.0050453974739375655,0.05988065930947279,0.0009836697051127906,0.011893783552277486,0.07780351004080063
ConnectedComponents.update,0.08167889600352975,0.14043426029720527,0.014024056056327349,0.027109474248101742,0.2632466866051641
CtClassType.getField2,0.0,0.052592000002429515,0.0,0.008989999999660842,0.061582000002090354
DataBlockManager.allocateBlock,0.0,0.011700403158089314,0.0,0.0017402614845118513,0.013440664642601165
DataBlockManager.dereference,0.0032257000000148156,13.215182705823922,0.0004349999999249121,1.859623240796994,15.078466646620855
DataBlockManager.getRawBlock,0.0010204051339059805,0.0009566326530612245,0.00015083330504508244,0.00028806122452583715,0.0024159323165381247
DataBlockManager.writeValue,0.0428587302544385,0.008553518237116208,0.006744036582770593,0.0019189969604894248,0.06007528203481472
DefaultMXBeanMappingFactory.<clinit>,0.0,0.05261228571388138,0.0,0.009231428571053715,0.0618437142849351
DegreeData.getDegree,0.05969395272385671,1.7222670440536922,0.009648745148698588,0.3400889632192045,2.131698705145452
DiagnosticCommandImpl.getMBeanInfo,0.0,0.030212375000701286,0.0,0.004571250000481086,0.03478362500118237
GraphChiContext.getIteration,2.6317898915842843e-05,0.0,3.901960994228354e-06,0.0,3.02198599100712e-05
GraphChiEngine$2.run,0.005644020512819481,0.002298274769624289,0.0011772307694161263,0.0003567972350479507,0.009476323286907846
GraphChiEngine$3.run,0.04709132126967055,0.3107014151515592,0.008639433481601837,0.047502122238017905,0.4139342921408495
GraphChiEngine.determineNextWindow,0.0005649615384708084,0.27906426789554317,9.076923080824483e-05,0.050676939804264215,0.33039693846908647
GraphChiEngine.initVertices,0.16499928879189457,1.7324413263873213,0.028792376549659698,0.34810937166170713,2.2743423633905824
IntConverter.getValue,0.010225226809450422,0.0,0.001677487579827065,0.0,0.011902714389277487
IntConverter.setValue,0.05836134188581376,0.046895963792890495,0.009565422552771137,0.007980958684947453,0.12280368691642285
Introspector.getMXBeanInterface,0.0,0.056838133333076246,0.0,0.007672000000578312,0.06451013333365456
JmxMBeanServer.<init>,0.0,0.041713466669898475,0.0,0.006275499999780247,0.04798896666967872
MBeanInfo.<init>,0.0,0.04055783333266542,0.0,0.006044999999479236,0.046602833332144655
MBeanServerBuilder.newMBeanServerDelegate,0.0,0.03984583333415988,0.0,0.006024999999984478,0.04587083333414436
MXBeanSupport.register,0.0,0.01341914285772613,0.0,0.002232857143098954,0.015652000000825082
MemoryShard.loadAdjChunk,0.0,0.007723941176664084,0.0,0.0011764705882609738,0.008900411764925058
NumberFormatProviderImpl.getInstance,0.0,0.08024099999844717,0.0,0.013210000000981381,0.09345099999942855
OpenMBeanAttributeInfoSupport.<init>,0.0,0.030418375001318054,0.0,0.004944375000377477,0.03536275000169553
SubstituteLoggerFactory.<init>,0.0,0.03273516666619495,0.0,0.005722499999440818,0.03845766666563577
URLClassPath.getLoader,0.0,0.0,0.0,0.0,0.0
Unsafe.compareAndSwapInt,1.3257568411764786,0.0,0.2267550000000269,0.0,1.5525118411765055
Unsafe.park,0.0,0.0,0.0,0.0,0.0
VertexAggregator.foreach,0.016977239682680032,0.0,0.002336258928423217,0.0,0.01931349861110325
VertexData$1.hasNext,0.0033528666666825303,0.0,0.0005430000004707835,0.0,0.003895866667153314
VertexData.getVertexValuePtr,0.02394145146983391,0.30535137617601293,0.00437096482756849,0.06275472367962946,0.3964185161530448
