method,package1,package2,dram1,dram2,energy
ArrayList,0.0,0.05933867987766974,0.0,0.008430342845699398,0.06776902272336914
BitSet,0.6519748280027674,0.2630037600778845,0.1101803883116885,0.03883380213197007,1.0639927785243104
BufferedInputStream,0.11746414443283826,0.0,0.01549772736680613,0.0,0.1329618717996444
Collections,0.033121202827344765,0.0,0.004144296359319448,0.0,0.03726549918666421
ConcurrentSkipListMap,0.03246558105071852,0.0,0.005006752584207326,0.0,0.037472333634925845
DataInputStream,0.006646016034391178,0.0,0.0008669262828831999,0.0,0.007512942317274378
DecimalFormat,0.042547622505256406,0.0,0.005741644953292453,0.0,0.04828926745854886
HashMap,0.053328541353580984,0.0,0.0066583810053591885,0.0,0.059986922358940174
Inflater,0.03132817779788117,0.0,0.004052677681112414,0.0,0.035380855478993584
Integer,0.09158964174411302,0.0023570277072369607,0.012837952384734659,0.0003174876400315011,0.10710210947611615
Object,0.0025974045481589594,0.037497864550519185,0.00041403615563750414,0.004728986015580248,0.0452382912698959
PlatformComponent,0.03784655493881779,0.0,0.005189110133977343,0.0,0.04303566507279513
RandomAccessFile,0.1431702840382117,0.08964768439464915,0.021810488226721103,0.01511801961094339,0.26974647627052534
ResourceBundle$CacheKey,0.03504761948448253,0.0,0.0051244051299274805,0.0,0.04017202461441001
SimpleDateFormat,0.035575036598224384,0.0,0.005002503311726638,0.0,0.04057753990995102
String,0.08212215302220564,0.0,0.010834545621357557,0.0,0.09295669864356321
StringCoding,0.035575036598224384,0.0,0.005002503311726638,0.0,0.04057753990995102
System,0.05462048803424337,0.0,0.007390775374628314,0.0,0.062011263408871684
TreeMap$EntrySet,0.02964960848031458,0.0,0.004069648060181594,0.0,0.03371925654049617
ZipFile,0.03856204767165024,0.0,0.004980080408681163,0.0,0.0435421280803314
