method,package1,package2,dram1,dram2,energy
AbstractStringBuilder,0.05153020435953137,0.0,0.0066556505895060385,0.0,0.05818585494903741
ArrayList,0.683372001492489,0.5395444683559998,0.08378374393507412,0.07484973422690046,1.3815499480104634
Arrays,0.03579665321236345,0.0,0.005116959595723679,0.0,0.04091361280808713
BitSet,0.6589461432651386,0.017580720960799854,0.08890039098125903,0.0024376398283168822,0.7678648950355144
BufferedInputStream,0.17899681712975818,0.0,0.02497392386960058,0.0,0.20397074099935875
Character,0.03486559574988162,0.0,0.005702879583781554,0.0,0.04056847533366317
Class,0.07024225640004675,0.0,0.011636376588783234,0.0,0.08187863298882998
Class$Atomic,0.04399697916842488,0.0,0.0064205978470038595,0.0,0.05041757701542873
ConcurrentHashMap,0.042481090399844684,0.0,0.004551562332864141,0.0,0.047032652732708825
DataInputStream,0.042481090399844684,0.0,0.004551562332864141,0.0,0.047032652732708825
HashMap$HashIterator,0.0,0.0,0.0,0.0,0.0
Integer,0.1890741573186841,0.06519735548510933,0.034342941612435875,0.009435826939489392,0.29805028135571876
ManagementFactory$2,0.03511042681868266,0.0,0.005891694526325018,0.0,0.04100212134500768
Object,0.00040500395175277243,0.0,5.263008088966989e-05,0.0,0.0004576340326424423
RandomAccessFile,0.17916843644060304,0.059451688661304146,0.02798803424728128,0.008216902139198554,0.27482506148838703
SimpleDateFormat,0.0010405507512719918,0.0,0.00017784356909049273,0.0,0.0012183943203624846
System,0.0,0.0027280584490191303,0.0,0.0003716990335308602,0.0030997574825499903
TreeMap$EntrySet,0.03293321614216653,0.0,0.004128634673745963,0.0,0.03706185081591249
URLClassLoader$1,0.02985957750245543,0.0,0.004148460599665066,0.0,0.0340080381021205
