method,package1,package2,dram1,dram2,energy
ArrayList.elementData,0.05956991612778377,0.1230250247755763,0.011134346032414765,0.01921411486466449,0.2129434018004393
ArrayList.rangeCheck,0.005140381231661639,0.0,0.000780439882729881,0.0,0.00592082111439152
Arrays.copyOfRange,0.014365366804420465,0.0,0.001749674106546941,0.0,0.016115040910967406
BitSet.checkInvariants,0.05793698970299853,0.062408568960301405,0.00845736464260647,0.010608173129555637,0.13941109643546204
BitSet.clear,0.0068880498724936895,0.0,0.000817439938774625,0.0,0.007705489811268314
BitSet.expandTo,0.006266876988384428,0.0,0.0009553393425422025,0.0,0.007222216330926631
BitSet.get,0.2941405302213167,0.04805954801705263,0.04128420049331231,0.009999643926167602,0.39348392265784926
BitSet.recalculateWordsInUse,0.03201764064537742,0.0,0.003230410222577208,0.0,0.03524805086795463
BitSet.set,0.03246122099037111,0.020539266717101625,0.0054108626777246175,0.0033588003902206404,0.06177015077541799
Buffer.checkIndex,0.07455206620069982,0.0,0.008866028702492972,0.0,0.0834180949031928
BufferedInputStream.read,0.0,0.0,0.0,0.0,0.0
Class.getAnnotation,0.06374378520208895,0.0,0.009041710807111775,0.0,0.07278549600920073
ConcurrentSkipListMap.put,0.0008582300791802718,0.0,8.494471164446241e-05,0.0,0.0009431747908247342
CopyOnWriteArrayList.iterator,0.04913825849025914,0.0,0.006741728920355958,0.0,0.0558799874106151
DataInputStream.<init>,0.014365366804420465,0.0,0.001749674106546941,0.0,0.016115040910967406
Formatter$FormatSpecifier.print,0.01684489073219409,0.0,0.002397526842234778,0.0,0.01924241757442887
HashMap.get,0.010960201927007099,0.0,0.001364304884848414,0.0,0.012324506811855512
Integer.<init>,0.03907091446946328,0.0,0.006436225607471462,0.0,0.04550714007693474
Integer.intValue,0.015506720075558677,0.007073023521768924,0.002675409928974095,0.0007103955875217716,0.02596554911382347
Integer.valueOf,1.259475635419844,0.0841590377111464,0.19132328551040467,0.01226154673843409,1.5472195053798292
ManagementFactory$2.run,0.06374378520208895,0.0,0.009041710807111775,0.0,0.07278549600920073
Pattern$Ctype.isSatisfiedBy,0.0,0.0,0.0,0.0,0.0
PlatformComponent.<clinit>,0.04913825849025914,0.0,0.006741728920355958,0.0,0.0558799874106151
RandomAccessFile.readBytes,0.17731781100516886,0.004812183582278528,0.034598159487542295,0.0010187193693092281,0.2177468734442989
RandomAccessFile.writeBytes,0.0,0.08167516699104709,0.0,0.022862098815940004,0.10453726580698709
ScheduledThreadPoolExecutor.scheduleAtFixedRate,0.04038235424286057,0.0,0.005427286809953861,0.0,0.04580964105281443
String.equals,0.055223626639997817,0.0,0.009231012427731137,0.0,0.06445463906772896
System.arraycopy,0.0,0.0,0.0,0.0,0.0
TimeZone.getTimeZone,0.0,0.0,0.0,0.0,0.0
TreeMap.navigableKeySet,0.06283806581776111,0.0,0.01046666753549463,0.0,0.07330473335325574
URL.isValidProtocol,0.014765092717633281,0.0,0.0022890155288637177,0.0,0.017054108246497
