method,hits
AbstractStringBuilder.ensureCapacityInternal,2
ArrayList.elementData,22
ArrayList.rangeCheck,6
Arrays.copyOf,2
BitSet.checkInvariants,2
BitSet.clear,10
BitSet.get,42
BitSet.recalculateWordsInUse,8
BitSet.set,2
BitSet.wordIndex,2
BitsetScheduler.isScheduled,6
BitsetScheduler.removeTasks,4
BufferedInputStream.<init>,4
BufferedInputStream.read,6
Chaperone.retire,2
Character.isWhitespace,2
ChiVertex.<init>,234
ChiVertex.getValue,10
ChiVertex.inEdge,4
ChiVertex.numEdges,2
ChiVertex.outEdge,10
ChiVertex.setDataPtr,4
ChiVertex.setValue,12
Class$Atomic.casReflectionData,2
Class.createAnnotationData,2
Class.getDeclaredConstructors0,2
ConcurrentHashMap.transfer,2
ConnectedComponents.update,68
DataBlockManager.dereference,2
DataBlockManager.getRawBlock,22
DataBlockManager.writeValue,28
DataInputStream.readUnsignedShort,2
DefaultMXBeanMappingFactory.<clinit>,2
DegreeData.getDegree,178
ExponentiallyDecayingSample.<init>,2
GraphChiContext.getIteration,2
GraphChiContext.getScheduler,2
GraphChiEngine$2.run,6
GraphChiEngine$3.run,56
GraphChiEngine.determineNextWindow,62
GraphChiEngine.initVertices,136
HashMap$HashIterator.nextNode,2
ImmutableDescriptor.makeMap,2
IntConverter.getValue,6
IntConverter.setValue,10
Integer.<init>,12
Integer.intValue,2
Integer.valueOf,54
JmxMBeanServer.<init>,4
MBeanNotificationInfo.<init>,2
MBeanServerBuilder.newMBeanServerDelegate,2
MXBeanIntrospector.<clinit>,2
ManagementFactory$2.run,2
ManagementFactory.createMemoryPool,2
ManagementFactoryHelper.createBufferPoolMXBean,2
NOPLoggerFactory.getLogger,2
NotificationBroadcasterSupport.<clinit>,2
NumberFormatProviderImpl.getInstance,2
Object.<init>,2
ParseUtil.encodePath,2
RandomAccessFile.readBytes,16
RandomAccessFile.writeBytes,14
SignatureParser.current,2
SimpleDateFormat.format,2
System.arraycopy,2
ThreadLocalRandom.current,2
TreeMap$EntrySet.iterator,2
URLClassLoader$1.run,2
VertexAggregator.foreach,6
VertexData.getVertexValuePtr,52
