method,hits
AbstractQueuedSynchronizer.releaseShared,2
ArrayList.elementData,44
ArrayList.get,2
ArrayList.rangeCheck,2
Arrays.copyOf,2
BaseCalendar.isLeapYear,2
BitSet.checkInvariants,26
BitSet.clear,2
BitSet.get,52
BitSet.recalculateWordsInUse,8
BitSet.set,12
BitSet.wordIndex,4
BitsetScheduler.addTask,8
BitsetScheduler.isScheduled,4
BitsetScheduler.removeTasks,12
BufferedInputStream.<init>,4
BufferedInputStream.read,4
CalendarDataUtility.retrieveFirstDayOfWeek,2
ChiVertex$Edge.<init>,2
ChiVertex.<init>,296
ChiVertex.getValue,10
ChiVertex.inEdge,86
ChiVertex.numEdges,8
ChiVertex.outEdge,2
ChiVertex.setDataPtr,2
ChiVertex.setValue,14
Class.createAnnotationData,2
ClassLoader.defineClass1,2
ConnectedComponents.update,230
ConstPool.addUtf8Info,2
DataBlockManager.dereference,12
DataBlockManager.getRawBlock,26
DataBlockManager.writeValue,4
DataInputStream.readInt,2
DataOutputStream.writeUTF,2
DefaultMXBeanMappingFactory.<clinit>,2
DegreeData.getDegree,144
GraphChiContext.getScheduler,2
GraphChiEngine$2.run,8
GraphChiEngine$3.run,66
GraphChiEngine.determineNextWindow,52
GraphChiEngine.initVertices,136
Inflater.inflateBytes,2
IntConverter.getValue,2
IntConverter.setValue,14
Integer.<init>,10
Integer.intValue,18
Integer.valueOf,38
JRELocaleProviderAdapter.getCalendarProvider,2
JarURLConnection.parseSpecs,2
JmxMBeanServer.<init>,2
MBeanServerBuilder.newMBeanServerDelegate,2
MBeanServerDelegate.<init>,2
ManagementFactory$2.run,2
NOPLoggerFactory.getLogger,2
NumberFormatProviderImpl.getInstance,2
Object.<init>,2
RandomAccessFile.readBytes,12
RandomAccessFile.writeBytes,18
String.indexOf,2
System.arraycopy,6
TreeMap$EntrySet.iterator,2
TypeData$TypeVar.dfs,2
URLClassLoader$1.run,2
URLClassLoader$2.<init>,2
VertexAggregator.foreach,8
VertexData.getVertexValuePtr,26
