method,package1,package2,dram1,dram2,energy
Chaperone,0.0,0.0,0.0,0.0,0.0
ChiPointer,0.0,0.12674609572891202,0.0,0.02612044419134156,0.15286653992025356
ChiVertex,1.007918628305538,8.865286274952181,0.21406735598252183,1.7257142863334896,11.81298654557373
ClassClassPath,0.0,0.054234047628207396,0.0,0.00684642857127723,0.061080476199484625
CodeAttribute,0.0,0.05806466667369629,0.0,0.008615000000039194,0.06667966667373548
DataBlockManager,0.7578022375018957,0.11396473754356246,0.12472571105406348,0.026459398035013328,1.022952084134535
DateFormatProviderImpl,0.0,0.07798266666941345,0.0,0.012370000000373693,0.09035266666978714
DecimalFormatSymbolsProviderImpl,0.0,0.06437166664788188,0.0,0.009600000000015521,0.07397166664789741
DefaultMXBeanMappingFactory,0.0,0.06212500000228396,0.0,0.008835714285115023,0.07096071428739897
DegreeData,0.5091812245140156,2.9941263646341,0.08608551631266756,0.5686302196388396,4.158023325099623
DiagnosticCommandImpl,0.0,0.06964663635748862,0.0,0.00986318181854916,0.07950981817603778
ExponentiallyDecayingSample,0.0,0.0,0.0,0.0,0.0
FloatConverter,0.10090746251772227,0.004209845248410188,0.01529249341935279,0.0013202513145895418,0.12173005250007479
GraphChiContext,0.014530566311861259,0.0,0.002573336701071301,0.0,0.01710390301293256
GraphChiEngine,9.973814491324305,50.552803901056244,1.3069734677511193,7.386607514533042,69.22019937466472
GraphChiEngine$2,0.4071750767484717,0.3693431614351137,0.07246288265957306,0.08401945355512122,0.9330005743982795
GraphChiEngine$3,0.2321174713422476,0.8471754645694687,0.03704843750999238,0.1800926253338685,1.2964339987555773
Gregorian,0.0,0.036885666670665763,0.0,0.0058549999994284,0.042740666670094164
ImmutableDescriptor,0.0,0.13600006348745425,0.0,0.0194657142860778,0.15546577777353204
IntegerInfo,0.0,0.0,0.0,0.0,0.0
JMX,0.0,0.0539822222199291,0.0,0.007556666666156767,0.061538888886085864
JmxMBeanServer,0.0,0.1509737777930226,0.0,0.022195714283461995,0.17316949207648458
JmxReporter,0.0,0.09746622221751346,0.0,0.012793333334330883,0.11025955555184434
LocaleData$1,0.0,0.07798266666941345,0.0,0.012370000000373693,0.09035266666978714
LoggerFactory,0.0,0.04307342857854174,0.0,0.00737571428492499,0.05044914286346673
MBeanAnalyzer,0.0,0.0517783333322898,0.0,0.007639285714893568,0.05941761904718337
MBeanServerBuilder,0.0,0.05843685713729688,0.0,0.009415714286400801,0.06785257142369767
MBeanServerDelegate,0.0,0.07324228571295471,0.0,0.01034571428525461,0.08358799999820932
MXBeanIntrospector,0.0,0.0539822222199291,0.0,0.007556666666156767,0.061538888886085864
MemoryShard,0.0,0.0,0.0,0.0,0.0
NOPLoggerFactory,0.0,0.05843685713729688,0.0,0.009415714286400801,0.06785257142369767
NameAndTypeInfo,0.0,0.08715833333553746,0.0,0.01384000000083082,0.10099833333636829
NumberFormatProviderImpl,0.0,0.08715833333553746,0.0,0.01384000000083082,0.10099833333636829
OpenMBeanAttributeInfoSupport,0.0,0.0517783333322898,0.0,0.007639285714893568,0.05941761904718337
Pagerank,0.021763023219803602,0.11629955993131412,0.003435951058848281,0.02057454469269292,0.16207307890265893
ProxyGenerator$ConstantPool$IndirectEntry,0.0,0.06613595237944363,0.0,0.008353571428458616,0.07448952380790225
RandomAccessFile,0.0876373258276463,0.27384842699100287,0.014178220423653218,0.05737057142904675,0.43303454467134916
SPILocaleProviderAdapter$1,0.0,0.0,0.0,0.0,0.0
StandardMBean,0.0,0.05289711110526696,0.0,0.006413333334623733,0.05931044443989069
Toplist$1,0.09469263828232496,0.0,0.01263317574127052,0.0,0.10732581402359548
VertexAggregator,0.08708359865882252,0.0,0.013934054929145075,0.0,0.1010176535879676
VertexData,0.18907916382596174,0.6180142079256117,0.03337073029691272,0.11640997420996463,0.9568740762584507
VertexData$1,0.0409983227489332,0.0,0.006211524694659128,0.0,0.04720984744359233
