method,package1,package2,dram1,dram2,energy
AnnotationParser$1,0.042968761907624345,0.0,0.006254285713934915,0.0,0.04922304762155926
ChiLogger,0.0,0.0,0.0,0.0,0.0
ChiPointer,0.0478278460434571,0.025817074675999096,0.00895481481450059,0.0036272403976588164,0.08622697593161559
ChiVertex,16.743759297496798,0.6367629435579685,2.198206426292804,0.09117565084674097,19.66990431819431
CodeAttribute,0.04541000000317581,0.0,0.0057720000004337635,0.0,0.051182000003609576
DataBlockManager,0.400945280173807,0.06552000840863113,0.07084632834337713,0.01134330070202699,0.5486549176278422
DefaultMXBeanMappingFactory,0.11008029629441875,0.0,0.018328888888289735,0.0,0.1284091851827085
DegreeData,2.0436216288637916,0.23732270144773548,0.31246275975803467,0.0365819675948788,2.629989057664441
FloatConverter,0.03034877619075632,0.020027923154707288,0.005457045854467502,0.004673326592522798,0.06050707179245392
GraphChiEngine,1.487788590738226,0.1943785950522544,0.2689749639036238,0.026068215583890116,1.9772103652779944
GraphChiEngine$2,0.09127932371638223,0.24899027305706023,0.016658143227015622,0.05830974629308834,0.41523748629354645
GraphChiEngine$3,0.23839581618316769,0.26460655877749656,0.037703238549980166,0.06253367757293003,0.6032392910835744
ImmutableDescriptor,0.02277682352852186,0.0,0.0038699999996050097,0.0,0.02664682352812687
JmxMBeanServer,0.02380376470425878,0.0,0.003877058823812096,0.0,0.02768082352807088
Launcher$AppClassLoader,0.09197554248156865,0.0,0.012547450980753258,0.0,0.10452299346232191
Library$Handler,0.0,0.0010965981567000206,0.0,0.0002556912442532471,0.0013522894009532678
LocaleData$1,0.04664444444804555,0.0,0.007300000000719187,0.0,0.05394444444876474
LocaleUtils,0.06620288888613382,0.0,0.009120000000014743,0.0,0.07532288888614856
MBeanInfo,0.02277682352852186,0.0,0.0038699999996050097,0.0,0.02664682352812687
MBeanServerBuilder,0.023839647059931475,0.0,0.0033670588232138574,0.0,0.027206705883145332
ManagementFactory,0.033737904758059545,0.0,0.0054999999999944555,0.0,0.039237904758054
MemoryShard,0.0,0.0054690856350968625,0.0,0.0007203262344578032,0.006189411869554666
Pagerank,0.018922878214525964,0.045358207877125904,0.0027404422223908697,0.009409132855906267,0.076430661169949
ParallelListResourceBundle,0.027492888886222817,0.0,0.004559999999603152,0.0,0.03205288888582597
RandomAccessFile,0.30312759520062554,0.03732725882706402,0.044909034315317925,0.00456561123199,0.3899294995749975
Repository,0.1258681481445415,0.0,0.01575111111203484,0.0,0.14161925925657634
StandardMBean,0.05557362962928082,0.0,0.009777777777613933,0.0,0.06535140740689475
Toplist$1,0.04127158110404239,0.0,0.007573558968029517,0.0,0.048845140072071906
Util,0.02380376470425878,0.0,0.003877058823812096,0.0,0.02768082352807088
VertexAggregator,0.07061518112730636,0.0,0.011048509001228403,0.0,0.08166369012853476
VertexData,0.533540522542378,0.05709775324373921,0.0944950078193272,0.007577441290847017,0.6927107248962915
VertexData$1,0.006397305085063296,0.0,0.000922881355925988,0.0,0.0073201864409892835
VertexDegree,0.030045600000206226,0.0,0.0064057500001581495,0.0,0.036451350000364376
