method,package1,package2,dram1,dram2,energy
ChiLogger$SingleLineFormatter.format,0.0,0.0,0.0,0.0,0.0
ChiPointer.<init>,0.09345057711824771,0.0,0.014726445341730808,0.0,0.10817702245997851
ChiVertex.<init>,3.670417952039424,0.4286456637209921,0.6006622696468854,0.09011700808500757,4.789842893492309
ChiVertex.getValue,0.007450534883605013,0.003434256604240773,0.0009310465116699519,0.0006935245140565928,0.012509362513572332
ChiVertex.numInEdges,4.615671409526496,0.0,0.5450265527183047,0.0,5.160697962244801
ChiVertex.numOutEdges,0.027500020574242074,2.1840821977015676,0.0033333833079811,0.3032766716585315,2.518192273242322
ChiVertex.setDataPtr,0.0054178105379955235,0.0,0.0005764882018839159,0.0,0.005994298739879439
ChiVertex.setValue,0.028322165361846056,0.0,0.007582860738753076,0.0,0.03590502610059913
ClassPool.createCtClass,0.04701866666494192,0.0,0.005708235294863983,0.0,0.05272690195980591
CodeAttribute.<init>,0.10129703030253948,0.0,0.011055053475466394,0.0,0.11235208377800587
CompressedIO.readCompressed,0.002298999999766238,0.0,0.0002783333333758896,0.0,0.002577333333142128
DataBlockManager.dereference,0.01131806663138642,0.0617816900133296,0.0013572267617781805,0.014332619778787515,0.08878960318528172
DataBlockManager.getRawBlock,0.13220908051717578,0.48984795457698604,0.021762409963150348,0.1009870886905786,0.7448065337478909
DataBlockManager.writeValue,0.0,0.0236287367365241,0.0,0.004606246666109022,0.02823498340263312
DateFormatProviderImpl.getInstance,0.047499111109775394,0.0,0.0052300000000589835,0.0,0.05272911110983438
DecimalFormatSymbolsProviderImpl.getInstance,0.047499111109775394,0.0,0.0052300000000589835,0.0,0.05272911110983438
DefaultMBeanServerInterceptor.registerMBean,0.06991303030482607,0.0,0.007906818181557656,0.0,0.07781984848638372
DefaultMXBeanMappingFactory.<clinit>,0.04203839394860111,0.0,0.005351818182437757,0.0,0.04739021213103886
DefaultMXBeanMappingFactory.makeArrayOrCollectionMapping,0.04216657142803472,0.0,0.004596428571468485,0.0,0.0467629999995032
DegreeData.getDegree,2.003417189346761,0.24698439898300506,0.3230872972956441,0.04424661853091803,2.6177355041563284
DegreeData.load,0.03881736513715613,0.06852320858903724,0.013071830884500894,0.014140422936185781,0.13455282754688005
FloatConverter.getValue,0.0,0.06711200514760757,0.0,0.012829944792472047,0.07994194994007961
FloatConverter.setValue,0.0009319024393334985,0.011689976831587262,0.00014780487795289406,0.002689858607435016,0.015459542756308672
GraphChiEngine$2.run,1.2956417986344193,0.0,0.25420559944069226,0.0,1.5498473980751115
GraphChiEngine$3.run,0.578899239221933,0.5825403906061442,0.07965042364997292,0.10437049992841473,1.3454605534064648
GraphChiEngine.determineNextWindow,0.5614615693043057,0.0,0.08317903176732493,0.0,0.6446406010716306
GraphChiEngine.initVertices,2.691282216373489,0.24821235704543604,0.44574135390666025,0.056572297716748966,3.4418082250423345
ImmutableDescriptor.<init>,0.029765960783241133,0.0,0.0037058823531968335,0.0,0.033471843136437966
ImmutableDescriptor.makeMap,0.0313839999977134,0.0,0.0031482352939087386,0.0,0.03453223529162214
JRELocaleProviderAdapter.getDateFormatSymbolsProvider,0.031602666668024734,0.0,0.004326666666505237,0.0,0.035929333334529974
JmxMBeanServer$3.<init>,0.02463787879131621,0.0,0.003499999999555505,0.0,0.028137878790871713
JmxMBeanServer.<init>,0.029765960783241133,0.0,0.0037058823531968335,0.0,0.033471843136437966
JmxMBeanServer.newMBeanServerDelegate,0.03149898039341412,0.0,0.003884705882085779,0.0,0.0353836862754999
JmxReporter.<init>,0.02463787879131621,0.0,0.003499999999555505,0.0,0.028137878790871713
Launcher$AppClassLoader.loadClass,0.04909933333854294,0.0,0.007046666665701196,0.0,0.056146000004244134
MXBeanIntrospector.<clinit>,0.04203839394860111,0.0,0.005351818182437757,0.0,0.04739021213103886
ManagementFactory.createGarbageCollector,0.03578280000171313,0.0,0.0041479999995014324,0.0,0.039930800001214566
ManagementFactoryHelper.getOperatingSystemMXBean,0.03705239999884119,0.0,0.004139999999703528,0.0,0.04119239999854472
MemberrefInfo.<init>,0.05738952083811455,0.0,0.007232500000706446,0.0,0.064622020838821
MemoryShard.loadAdjChunk,0.0,0.0,0.0,0.0,0.0
MemoryShard.loadVertices,0.026673726143384344,0.0,0.0040755715919807735,0.0,0.030749297735365118
NumberFormatProviderImpl.getInstance,0.04800066666211932,0.0,0.006526666666710904,0.0,0.054527333328830224
OpenListResourceBundle.loadLookup,0.06665022222376946,0.0,0.00913333333381969,0.0,0.07578355555758914
Pagerank.update,9.24178676394589,2.2142478100149545,1.0914712953678547,0.30867958321078787,12.856185452539489
RandomAccessFile.read_,0.18258954487213117,0.024313771574805805,0.03396460972768938,0.006098413224930139,0.24696633939955648
RandomAccessFile.writeBytes,0.02298983333296039,0.08073224965679518,0.002323333333454987,0.011930827896243518,0.11797624421945407
StandardMBean.<clinit>,0.05284915150630034,0.0,0.0053836363642238375,0.0,0.058232787870524175
Toplist$1.callback,0.0,0.05688587648533569,0.0,0.01258682665414488,0.06947270313948056
Unsafe.park,0.0,0.002006748387082947,0.0,0.0005282626729399559,0.0025350110600229027
Util.newObjectName,0.03149898039341412,0.0,0.003884705882085779,0.0,0.0353836862754999
VertexAggregator.foreach,0.0,0.07604321705332079,0.0,0.017661306424268993,0.09370452347758979
VertexData$1.hasNext,0.0,0.045619312860284186,0.0,0.012006680780355824,0.057625993640640014
VertexData$1.next,0.0,0.06032383698015892,0.0,0.012860692736165285,0.0731845297163242
VertexData.getVertexValuePtr,0.515230110464025,0.036829384811906465,0.08498463265737151,0.007549531831283476,0.6445936597645865
