method,hits
AnnotationParser.parseSig,2
AttributeInfo.read,2
CalendarDataUtility.retrieveFirstDayOfWeek,2
ChiPointer.<init>,8
ChiVertex.<init>,420
ChiVertex.getValue,10
ChiVertex.inEdge,40
ChiVertex.numInEdges,6
ChiVertex.numOutEdges,6
ChiVertex.setDataPtr,4
ChiVertex.setValue,12
ClassPool.getCached,1
DataBlockManager.dereference,4
DataBlockManager.getRawBlock,8
DataBlockManager.writeValue,10
DegreeData.getDegree,254
DegreeData.load,2
ExceptionTable.<init>,2
FloatConverter.getValue,2
FloatingDecimal.getBinaryToASCIIConverter,2
GraphChiContext.getIteration,6
GraphChiEngine$2.run,60
GraphChiEngine$3.run,118
GraphChiEngine.determineNextWindow,40
GraphChiEngine.initVertices,264
ImmutableDescriptor.makeMap,2
MBeanAnalyzer.eliminateCovariantMethods,2
MemoryShard.loadAdjChunk,2
Metrics.<clinit>,2
MetricsRegistry.createName,2
NumberFormatProviderImpl.getInstance,2
ObjectName.<clinit>,2
Pagerank.update,18
VertexAggregator.foreach,8
VertexData$1.hasNext,2
VertexData$1.next,4
VertexData.getVertexValuePtr,102
