method,package1,package2,dram1,dram2,energy
ArrayList.<init>,0.018774399999529123,0.0,0.0032999999999447026,0.0,0.022074399999473825
ArrayList.elementData,0.009392326366493349,0.0,0.0015356756757138827,0.0,0.010928002042207232
ArrayList.rangeCheck,0.05857631668434753,0.0310632890989515,0.010027672056874397,0.008509746860015384,0.1081770247001888
BufferedInputStream.read,0.07634443333544941,0.0,0.012304111111289887,0.0,0.0886485444467393
ClassLoader.defineClass1,0.046748275279690256,0.0,0.006895851224616242,0.0,0.0536441265043065
ClassLoader.findBootstrapClass,0.0,0.0,0.0,0.0,0.0
Collections.singletonList,0.005533851851295265,0.0,0.0009200000002035971,0.0,0.006453851851498863
ConcurrentSkipListMap.doPut,0.03454600000016701,0.0,0.005770000000363021,0.0,0.04031600000053003
DataInputStream.readInt,0.04611819999990984,0.0,0.006155999999464257,0.0,0.0522741999993741
DecimalFormatSymbols.initialize,0.039489799999864766,0.0,0.0065849999999045405,0.0,0.04607479999976931
Float.<init>,0.008287507435828474,0.006453571428714551,0.001267308831190697,0.00136638655461132,0.017374774250345042
Float.floatValue,0.004921651515001995,0.007545256039019729,0.0007161363635973291,0.0015734782608567315,0.014756522178475784
Float.valueOf,0.03015333419820377,0.0,0.004552520773236793,0.0,0.03470585497144056
Format.format,0.04499499999801628,0.0,0.0065640000007988406,0.0,0.05155899999881512
HashMap.putVal,0.002018923436972497,0.0,0.0004399339646314303,0.0,0.0024588574016039273
Integer.valueOf,0.006155174603148624,0.0,0.000916190476143836,0.0,0.00707136507929246
ManagementFactory.getPlatformMBeanServer,0.04420775555384655,0.0,0.006399111110914856,0.0,0.05060686666476141
RandomAccessFile.length,0.0,0.0,0.0,0.0,0.0
RandomAccessFile.readBytes,0.1188246891797746,0.007612589818694109,0.024263028856905868,0.002518605166873159,0.15321891302224774
RandomAccessFile.writeBytes,0.020444506810753757,0.11152695400263211,0.0029453944565695366,0.023341130109775593,0.15825798537973101
SimpleDateFormat.initializeCalendar,0.0,0.0,0.0,0.0,0.0
System.arraycopy,0.03962643100715136,0.10607978531729254,0.00976843930668518,0.025298374598592625,0.1807730302297217
TreeMap.deleteEntry,0.005086257575771235,0.0,0.0007495454545719301,0.0,0.005835803030343165
TreeMap.navigableKeySet,0.021356199998990633,0.0,0.0032819999996718248,0.0,0.024638199998662458
