method,package1,package2,dram1,dram2,energy
com.sun.jmx.interceptor,0.0,0.052186909090695816,0.0,0.007999999999865946,0.06018690909056176
edu.cmu.graphchi,1.2819749906170415,3.3889705311274136,0.24673537053219224,0.5404687686272157,5.458149660903864
edu.cmu.graphchi.apps,0.02883909264733555,0.02622826546916427,0.00550820623943269,0.0039007206408138476,0.06447628499674636
edu.cmu.graphchi.datablocks,0.7968742247503651,0.05386484179820104,0.09078282378634675,0.00856591495893449,0.9500878052938473
edu.cmu.graphchi.engine,1.1809158885154363,2.4872784703404345,0.25057382342909235,0.4077733399111174,4.326541522196081
edu.cmu.graphchi.engine.auxdata,0.33363798446428694,3.9853003771990165,0.08789871380390715,0.6155805376249328,5.022417613092143
edu.cmu.graphchi.shards,0.003447458233119674,0.0,0.000363141986928612,0.0,0.0038106002200482864
edu.cmu.graphchi.vertexdata,-0.1944838296274947,0.0,-0.04157944444571812,0.0,-0.23606327407321281
java.io,0.20785258889911887,0.6153818978580055,0.041647777777985465,0.09873461893542868,0.9636168834705384
java.lang,1.2062886339485124,0.16597105131813109,0.17201745504898613,0.021848368792522794,1.5661255091081525
java.lang.management,0.0,0.09058876515137218,0.0,0.012221988636238992,0.10281075378761118
java.text,0.037984333330920585,0.03400066666654311,0.013349999999870002,0.004371999999663482,0.08970699999699717
java.util,0.054925354080324396,0.10267602056105676,0.012180010089149745,0.015261609662345889,0.18504299439287678
java.util.logging,0.0,0.0,0.0,0.0,0.0
javax.management,0.0,0.058334374999958534,0.0,0.008216250000259606,0.06655062500021813
sun.management,0.0,0.052186909090695816,0.0,0.007999999999865946,0.06018690909056176
sun.reflect.annotation,0.0,0.05220533333340426,0.0,0.007303333333564093,0.05950866666696836
sun.reflect.generics.factory,0.0,0.041978518518388026,0.0,0.006108333333637953,0.04808685185202598
sun.util.calendar,0.0,0.0,0.0,0.0,0.0
sun.util.locale.provider,0.0,0.03426920000007764,0.0,0.004376000000047496,0.038645200000125134
