method,package1,package2,dram1,dram2,energy
AttributeInfo.remove,0.03202755555523455,0.0,0.004844444444946323,0.0,0.03687200000018087
CalendarProviderImpl.getInstance,0.12927474074038198,0.0,0.015243888888141585,0.0,0.14451862962852358
Chaperone.main,0.14746133333149675,0.0,0.020070000003518846,0.0,0.1675313333350156
ChiLogger.getLogger,0.0,0.0,0.0,0.0,0.0
ChiPointer.<init>,0.036498999999821535,0.0007380740738611806,0.006202499998228934,0.0001144444445176136,0.04355401851642927
ChiVertex.<init>,0.8580407258781462,3.1041818873960887,0.15709391917874208,0.614405543777111,4.733722076230087
ChiVertex.getValue,0.0,0.07929180597465275,0.0,0.023659773971150776,0.10295157994580353
ChiVertex.inEdge,0.16666051779523489,0.17145903254153977,0.027537934609950198,0.054755298900285555,0.4204127838470104
ChiVertex.numOutEdges,0.0440515400553562,0.00045968509975697686,0.006058532841992752,0.00010182857550023865,0.05067158657260616
ChiVertex.setDataPtr,0.03434685123927034,0.013740541666872257,0.0055790547528976435,0.0024649999998776666,0.056131447658917914
ChiVertex.setValue,0.020878737755290738,0.032279891345305824,0.003330570745548736,0.006575956996842185,0.06306515684298748
ClassFile.read,0.0302463703706895,0.0,0.004871111110939333,0.0,0.03511748148162883
ClassInfo.<init>,0.0302463703706895,0.0,0.004871111110939333,0.0,0.03511748148162883
ConstPool.readOne,0.036295691403647995,0.0,0.004076286300351763,0.0,0.04037197770399976
DataBlockManager.dereference,0.05631496296242672,0.00891113333313519,0.009733333334292249,0.0014256666666672875,0.07638509629652143
DataBlockManager.getRawBlock,0.42052288651638486,0.3399746688266868,0.06454547478062643,0.1018179086175976,0.9268609387412958
DataBlockManager.writeValue,0.0,0.007284052853909636,0.0,0.0027453439538440583,0.010029396807753693
DateFormatProviderImpl.getInstance,0.0,0.0,0.0,0.0,0.0
DefaultMBeanServerInterceptor.registerMBean,0.03677396883972037,0.0,0.005001913272780758,0.0,0.04177588211250113
DegreeData.getDegree,1.5833741380390984,1.486092411146781,0.22509787156405364,0.26436524951966156,3.5589296702695945
DegreeData.load,0.01960536347538583,0.0,0.002301095973275368,0.0,0.021906459448661195
ExponentiallyDecayingSample.<init>,0.01738920927453776,0.0,0.0023533607168269247,0.0,0.019742569991364686
ExponentiallyDecayingSample.update,0.06469572610989766,0.0,0.009411708775223107,0.0,0.07410743488512077
FloatConverter.getValue,0.13306035839122302,0.010436470930112275,0.020684174546495994,0.00336427325581014,0.16754527712364142
FloatConverter.setValue,0.026082138273670438,0.0019559647176625667,0.0034823910287146024,0.0006211600984274008,0.032141654118475006
GraphChiEngine$2.run,0.21022429724859915,0.11760727430203927,0.03166682936186725,0.017924755847430814,0.3774231567599365
GraphChiEngine$3.run,0.3255399986776832,0.339849231984641,0.045686600237162034,0.08792714765536232,0.7990029785548486
GraphChiEngine.determineNextWindow,0.40044529347338353,0.028808646101762633,0.05341177491056617,0.00458058438057274,0.4872462988662851
GraphChiEngine.execUpdates,0.0,0.008878746250357812,0.0,0.0012500362189025536,0.010128782469260366
GraphChiEngine.initVertices,2.2207016253957876,2.169459198397912,0.3541615240659343,0.40616750803219426,5.150489855891828
ImmutableDescriptor.<init>,0.01710443262564061,0.0,0.003074713177046111,0.0,0.02017914580268672
ImmutableDescriptor.makeMap,0.01710443262564061,0.0,0.003074713177046111,0.0,0.02017914580268672
JMX.isMXBeanInterface,0.04247494247438388,0.0,0.006630408050623034,0.0,0.04910535052500692
JarURLConnection.getInputStream,0.025698074073362578,0.0,0.003028888888096574,0.0,0.02872696296145915
JmxMBeanServer.<init>,0.04389340667122233,0.0,0.006522959726498937,0.0,0.05041636639772127
JmxReporter.<init>,0.09557123065687068,0.0,0.013217457323892443,0.0,0.10878868798076312
Launcher$AppClassLoader.loadClass,0.030537227420869367,0.0,0.004655063256656425,0.0,0.035192290677525793
LocaleData$1.run,0.03041807407431338,0.0,0.003617777778008194,0.0,0.03403585185232157
MBeanNotificationInfo.<init>,0.019598083202777037,0.0,0.0030525332129527787,0.0,0.022650616415729817
MBeanServerBuilder.newMBeanServerDelegate,0.02128442742149307,0.0,0.0029990632562899495,0.0,0.024283490677783022
MXBeanMappingFactory.<clinit>,0.049068477012898355,0.0,0.00681624674847349,0.0,0.055884723761371845
MXBeanSupport.getMBeanIntrospector,0.04247494247438388,0.0,0.006630408050623034,0.0,0.04910535052500692
MemoryShard.loadAdjChunk,0.0,0.0,0.0,0.0,0.0
NotificationBroadcasterSupport.<clinit>,0.019598083202777037,0.0,0.0030525332129527787,0.0,0.022650616415729817
ObjectName.construct,0.024493377091961203,0.0,0.003139795812631393,0.0,0.027633172904592596
Pagerank.update,0.09032770105957998,0.07955872567282324,0.01350801814270353,0.0244975056998759,0.20789195057498266
ProxyGenerator$ConstantPool.getValue,0.026780987069630155,0.0,0.003498061955702304,0.0,0.03027904902533246
RandomAccessFile.readBytes,0.03483748760340064,0.0,0.010696730162021134,0.0,0.045534217765421776
RandomAccessFile.read_,0.22003590798120332,0.01682851944396909,0.037117102115394304,0.002723081091450911,0.2767046106320176
RandomAccessFile.writeBytes,0.06531684776450002,0.03300462885806892,0.011207259220517575,0.005522897893689864,0.11505163373677638
SPILocaleProviderAdapter$1.run,0.01049799999964307,0.0,0.0013799999990927365,0.0,0.011877999998735808
StreamEncoder.implClose,0.07127866666814953,0.0,0.012039999997189929,0.0,0.08331866666533945
Toplist$1.callback,0.09604916666709565,0.0,0.01642999999846021,0.0,0.11247916666555585
URLClassPath$JarLoader.getJarFile,0.03202755555523455,0.0,0.004844444444946323,0.0,0.03687200000018087
VertexAggregator.foreach,0.6137169351875991,0.0,0.0999565972254762,0.0,0.7136735324130753
VertexData$1.hasNext,0.23505118518328846,0.0,0.038301666662273755,0.0,0.27335285184556224
VertexData$1.next,0.1380971666676487,0.0,0.0235206250029781,0.0,0.16161779167062681
VertexData.getVertexValuePtr,0.1336897978360877,0.9153294049573589,0.023815634401370057,0.17435147359076802,1.2471863107855847
