method,package1,package2,dram1,dram2,energy
Chaperone,0.0,0.029378333332715556,0.0,0.006219999998090012,0.035598333330805566
ChiLogger,0.0,0.0,0.0,0.0,0.0
ChiLogger$SingleLineFormatter,0.0,0.0009410603579638461,0.0,0.00013170136854295087,0.001072761726506797
ChiPointer,0.0,0.0008604705882117187,0.0,0.00012235294129555658,0.0009828235295072753
ChiVertex,47.570938876995626,1.173467114516384,5.721835051834011,0.1991009671395654,54.66534201048559
ChiVertex$Edge,0.0,0.0,0.0,0.0,0.0
ClassFile,0.09254966666655187,0.0,0.01516000000022662,0.0,0.10770966666677849
CodeAttribute,0.04554749999988417,0.0,0.007668750000448199,0.0,0.053216250000332366
CoreReflectionFactory,0.04426066666686286,0.0,0.005419999998897159,0.0,0.04968066666576002
DataBlockManager,0.10288831936869204,0.2746964530564904,0.019348355860607045,0.06707599203215064,0.4640091203179401
DegreeData,2.227084656035796,1.0494581160972867,0.3202675400300431,0.17238623585294036,3.7691965480160663
ExponentiallyDecayingSample,0.05074066666646911,0.0,0.0072666666658026055,0.0,0.05800733333227172
FileURLConnection,0.04771739999996498,0.0,0.006972000001405829,0.0,0.054689400001370805
FloatConverter,0.37902430074718513,0.014165431034629802,0.05626071527461912,0.0041597844827202645,0.4536102315391543
GraphChiContext,0.019703351297827902,0.0,0.002441688820697076,0.0,0.02214504011852498
GraphChiEngine,3.4747986533867543,0.45210352538738574,0.4984647997781496,0.08061564330637526,4.5059826218586645
GraphChiEngine$2,0.031072311111084775,0.011265245126262402,0.004228083333550278,0.0018508469493074176,0.048416486520204874
GraphChiEngine$3,0.5917846763082227,0.22070634580220172,0.08991436321151787,0.03849760917161938,0.9409029944935617
Gregorian,0.05054919999965932,0.0,0.007386000000406057,0.0,0.05793520000006537
ImmutableDescriptor,0.08563233333309957,0.0,0.01089000000016919,0.0,0.09652233333326876
JmxMBeanServer,0.04263299999911396,0.0,0.006135000001449953,0.0,0.048768000000563916
JmxReporter,0.1618093333336219,0.0,0.026913749998736115,0.0,0.18872308333235802
LocaleData$1,0.08610839999964809,0.0,0.01231499999994412,0.0,0.09842339999959221
MXBeanMappingFactory,0.05775450000055571,0.0,0.008197499999369029,0.0,0.06595199999992474
MXBeanSupport,0.05775450000055571,0.0,0.008197499999369029,0.0,0.06595199999992474
MemberrefInfo,0.05074066666646911,0.0,0.0072666666658026055,0.0,0.05800733333227172
MemoryShard,0.005076777777705703,0.0,0.0008693333333616869,0.0,0.00594611111106739
NotificationBroadcasterSupport,0.08563233333309957,0.0,0.01089000000016919,0.0,0.09652233333326876
NumberFormatProviderImpl,0.04771739999996498,0.0,0.006972000001405829,0.0,0.054689400001370805
Pagerank,0.3828757043641102,0.11617958178519662,0.05744687831990759,0.018509573841762945,0.5750117383109774
RandomAccessFile,0.3012392158177143,0.029682695284612225,0.04574794075765016,0.004042110680472279,0.3807119625404489
Repository,0.04263299999911396,0.0,0.006135000001449953,0.0,0.048768000000563916
SimpleType,0.0313313333329764,0.0,0.005490000000766789,0.0,0.03682133333374319
Toplist$1,0.0,0.0,0.0,0.0,0.0
URLClassPath$FileLoader,0.06465666666675435,0.0,0.011020000000523092,0.0,0.07567666666727745
Unsafe,0.0,0.0,0.0,0.0,0.0
Utf8Info,0.05172120000061113,0.0,0.007401000001118518,0.0,0.05912220000172965
Util,0.06593833333317889,0.0,0.010994999999335656,0.0,0.07693333333251455
VertexAggregator,0.0,0.06072355556211227,0.0,0.012381666666139303,0.07310522222825158
VertexData,0.445187722221413,0.13394000148644306,0.07049388888588981,0.0252862870344679,0.6749078996282137
VertexData$1,0.0,0.009460333332147759,0.0,0.0020999999990939005,0.011560333331241658
