method,package1,package2,dram1,dram2,energy
AttributeInfo.<init>|StackMapTable.<init>|AttributeInfo.read,0.04151600000041071,0.0,0.005748000001767648,0.0,0.047264000002178355
Chaperone.<init>,0.0,0.0,0.0,0.0,0.0
ChiPointer.<init>|VertexData.getVertexValuePtr|GraphChiEngine.initVertices,0.024681012933850357,0.02790655555307037,0.004683896935827558,0.004464999999779846,0.061736465422528135
ChiVertex.<init>|GraphChiEngine.initVertices|GraphChiEngine.run,1.4227990271823157,4.292838082041759,0.2881561882697875,0.551109197076398,6.55490249457026
ChiVertex.getValue|Pagerank.update|GraphChiEngine$3.run,0.0,0.0007762285713771626,0.0,0.0001431085714305352,0.0009193371428076978
ChiVertex.numInEdges|Pagerank.update|GraphChiEngine$3.run,0.0,0.013401016188824388,0.0,0.0023254787901992374,0.015726494979023627
ChiVertex.numOutEdges|Pagerank.update|GraphChiEngine$3.run,0.0,0.0009393506592485242,0.0,0.00014473707379414268,0.0010840877330426668
ChiVertex.setDataPtr|GraphChiEngine.initVertices|GraphChiEngine.run,0.0029162729776577865,0.0,0.0006077082675183185,0.0,0.003523981245176105
ChiVertex.setValue|Pagerank.update|GraphChiEngine$3.run,0.012974774275153396,0.022520363469611577,0.00186488097744816,0.005056461238536555,0.04241647996074969
ClassLoadingImpl.getObjectName|ManagementFactory.getPlatformMBeanServer|JmxReporter.<init>,0.03525379999991855,0.0,0.00493199999909848,0.0,0.04018579999901703
ConstPool.readOne|ConstPool.read|ConstPool.<init>,0.0,0.0,0.0,0.0,0.0
DataBlockManager.dereference|ChiVertex.getValue|Pagerank.update,0.02680564421832097,0.011278632970888927,0.0055338193543423625,0.0015336594202350338,0.045151755963787295
DataBlockManager.dereference|VertexAggregator.foreach|Toplist.topListFloat,0.061719410004837744,0.0,0.008684949035896762,0.0,0.0704043590407345
DataBlockManager.getRawBlock|DataBlockManager.dereference|ChiVertex.getValue,0.004078885714365502,0.020072621685273833,0.0010894285714519874,0.004059712706120613,0.029300648677211934
DataBlockManager.getRawBlock|DataBlockManager.dereference|VertexAggregator.foreach,0.23665011119155308,0.0,0.05320935484093372,0.0,0.2898594660324868
DataBlockManager.getRawBlock|DataBlockManager.writeValue|ChiVertex.setValue,0.07982612330767326,0.17990628325257235,0.019817372127791957,0.03233994230172717,0.3118897209897647
DataBlockManager.writeValue|ChiVertex.setValue|Pagerank.update,0.04013517831684717,0.0,0.011189528476069474,0.0,0.05132470679291664
DecimalFormatSymbolsProviderImpl.getInstance|DecimalFormatSymbols.getInstance|NumberFormatProviderImpl.getInstance,0.07322166666563135,0.0,0.010969999998148218,0.0,0.08419166666377956
DegreeData.getDegree|GraphChiEngine.determineNextWindow|GraphChiEngine.run,1.638723474137706,0.0,0.22117243673504017,0.0,1.859895910872746
DegreeData.getDegree|GraphChiEngine.initVertices|GraphChiEngine.run,0.3427399452864661,0.21922097481612957,0.06433716588299639,0.029377438327769692,0.6556755243133618
DegreeData.load|GraphChiEngine.determineNextWindow|GraphChiEngine.run,0.07821342790835537,0.0,0.01720097457028383,0.0,0.0954144024786392
FloatConverter.getValue|FloatConverter.getValue|DataBlockManager.dereference,0.06149401856778779,0.038467401689156286,0.014083551360379039,0.007003004075096571,0.12104797569241968
FloatConverter.setValue|FloatConverter.setValue|DataBlockManager.writeValue,0.008597691898111503,0.0,0.0012229138064092531,0.0,0.009820605704520756
GraphChiContext.getIteration|Pagerank.update|GraphChiEngine$3.run,0.004276968558303363,0.0,0.0010614506049586776,0.0,0.00533841916326204
GraphChiEngine$2.run|Executors$RunnableAdapter.call|FutureTask.run,0.45348256636060497,0.14473732167341707,0.10179632262680319,0.03187160058886136,0.7318878112496866
GraphChiEngine$3.run|Executors$RunnableAdapter.call|FutureTask.run,0.21880030922313146,0.18975743819408772,0.04921710147987287,0.03630137802328541,0.49407622692037745
GraphChiEngine.determineNextWindow|GraphChiEngine.run|Pagerank.main,0.49391773937123473,0.0,0.06670009784923991,0.0,0.5606178372204746
GraphChiEngine.initVertices|GraphChiEngine.run|Pagerank.main,1.9122191200047516,0.41393728449455475,0.38545467487739193,0.05875936813104963,2.7703704475077475
ImmutableDescriptor.<init>|DiagnosticCommandImpl.commandDescriptor|DiagnosticCommandImpl.getMBeanInfo,0.045419873015773535,0.0,0.005725238096067823,0.0,0.051145111111841356
ImmutableDescriptor.makeMap|ImmutableDescriptor.makeMap|ImmutableDescriptor.<init>,0.06909166666688785,0.0,0.010229999999864958,0.0,0.0793216666667528
Introspector.getMXBeanInterface|StandardMBean.construct|StandardMBean.<init>,0.03525379999991855,0.0,0.00493199999909848,0.0,0.04018579999901703
JmxReporter.<init>|JmxReporter.startDefault|Metrics.<clinit>,0.13438006666712515,0.0,0.01798245454653321,0.0,0.15236252121365837
Launcher$AppClassLoader.loadClass|ClassLoader.loadClass|MetricsRegistry.<init>,0.07743333333322273,0.0,0.01089999999870391,0.0,0.08833333333192664
MethodInfo.read|MethodInfo.<init>|ClassFile.read,0.1035156666681966,0.0,0.012234999999539769,0.0,0.11575066666773637
MetricName.<init>|MetricsRegistry.createName|MetricsRegistry.newTimer,0.00927510000184197,0.0,0.001522614364685075,0.0,0.010797714366527045
Pagerank.update|GraphChiEngine$3.run|Executors$RunnableAdapter.call,0.023209356126508866,0.02581639915000994,0.003091368342555429,0.004296501462252211,0.05641362508132645
ParallelListResourceBundle.handleKeySet|ParallelListResourceBundle.keySet|ParallelListResourceBundle.containsKey,0.04947933333338976,0.0,0.006880000000819563,0.0,0.056359333334209324
RandomAccessFile.<clinit>|DegreeData.<init>|GraphChiEngine.<init>,0.0633442333330701,0.0,0.006984249999732128,0.0,0.07032848333280223
RandomAccessFile.read_|RandomAccessFile.readBytes|RandomAccessFile.read,0.3540070253986272,0.0,0.08483536393137832,0.0,0.4388423893300055
RandomAccessFile.writeBytes|RandomAccessFile.write|VertexData.releaseAndCommit,0.003629907579124096,0.014188672593155883,0.00041404138766028937,0.0019014421573865267,0.020134063717326796
Repository.<init>|Repository.<init>|JmxMBeanServer.<init>,0.06933599999926324,0.0,0.009000000000620881,0.0,0.07833599999988412
ThreadPools.newScheduledThreadPool|MetricsRegistry.newMeterTickThreadPool|MetricsRegistry.newTimer,0.050290079365368,0.0,0.005701666665868649,0.0,0.05599174603123665
Toplist$1.callback|Toplist$1.callback|VertexAggregator.foreach,0.11876258583632962,0.0,0.0307697703670674,0.0,0.14953235620339703
Util.newObjectName|MBeanServerDelegate.<clinit>|JmxMBeanServer.newMBeanServerDelegate,0.07116700000187848,0.0,0.010620000000926666,0.0,0.08178700000280514
VertexAggregator.foreach|Toplist.topListFloat|Pagerank.main,0.38160658027132266,0.0,0.08432122250015832,0.0,0.465927802771481
VertexData$1.hasNext|VertexAggregator.foreach|Toplist.topListFloat,0.05586145132283561,0.0,0.012705112668093408,0.0,0.06856656399092902
VertexData$1.next|VertexData$1.next|VertexAggregator.foreach,0.049957298724230645,0.0,0.009634477564104042,0.0,0.05959177628833469
VertexData.getVertexValuePtr|GraphChiEngine.initVertices|GraphChiEngine.run,0.3913731598093511,0.10381698941899074,0.08351349872367658,0.016048373016481432,0.5947520209684999
VertexData.getVertexValuePtr|VertexAggregator.foreach|Toplist.topListFloat,0.10334235759461631,0.0,0.016833706263678264,0.0,0.12017606385829457
