method,hits
Chaperone.main,1
ChiLogger$SingleLineFormatter.format,2
ChiPointer.<init>,12
ChiVertex.<init>,398
ChiVertex.getValue,12
ChiVertex.numInEdges,6
ChiVertex.numOutEdges,2
ChiVertex.setDataPtr,6
ChiVertex.setValue,4
ClassLoadingImpl.getObjectName,2
ClassPool.makeClass,2
CompressedIO.writeCompressed,2
DataBlockManager.dereference,6
DataBlockManager.getRawBlock,16
DataBlockManager.writeValue,6
DegreeData.getDegree,248
DegreeData.load,8
ExponentiallyDecayingSample.<init>,2
FloatConverter.getValue,10
FloatConverter.setValue,4
GLIBC.getThreadId,2
GraphChiEngine$2.run,46
GraphChiEngine$3.run,80
GraphChiEngine.determineNextWindow,82
GraphChiEngine.execUpdates,2
GraphChiEngine.initVertices,212
ImmutableDescriptor.<init>,2
ImmutableDescriptor.makeMap,2
JmxMBeanServer.<init>,4
Launcher$AppClassLoader.loadClass,2
LocaleData$1.run,2
MBeanAnalyzer.eliminateCovariantMethods,2
MBeanNotificationInfo.<init>,2
MBeanServerBuilder.newMBeanServerDelegate,2
MXBeanIntrospector.getMBeanAttributeInfo,2
MemberrefInfo.<init>,2
MemoryPoolImpl.<init>,2
MemoryShard.loadAdjChunk,8
NOPLoggerFactory.getLogger,2
NotificationBroadcasterSupport.<clinit>,2
Pagerank.update,54
ParallelListResourceBundle.handleKeySet,2
RandomAccessFile.read_,12
RandomAccessFile.writeBytes,20
Repository.addMoiToTb,2
SymbolTable.<init>,2
Toplist$1.callback,2
URLUtil.urlNoFragString,2
Utf8Info.<init>,4
VertexAggregator.foreach,4
VertexData$1.hasNext,2
VertexData.getVertexValuePtr,70
