method,package1,package2,dram1,dram2,energy
chappie,0.0,0.06709800000923374,0.0,0.0109599999996135,0.07805800000884724
chappie.util,0.0017331592869761078,0.0,0.00024074308655851185,0.0,0.0019739023735346195
com.sun.jmx.mbeanserver,0.12313130666854372,0.0,0.014936151462228424,0.0,0.13806745813077215
com.yammer.metrics.stats,0.020659074461151807,0.0,0.0026662202217373077,0.0,0.023325294682889117
edu.cmu.graphchi,1.8739657141790829,2.3067857563717484,0.29281266365469505,0.41458049542708186,4.888144629632608
edu.cmu.graphchi.apps,0.060756553423674364,0.09769592681067173,0.013695950118517439,0.02218413900216181,0.19433256935502535
edu.cmu.graphchi.datablocks,0.08085024444677308,0.3194227162238862,0.01837391795201675,0.08433639021359382,0.5029832688362699
edu.cmu.graphchi.engine,1.2160664790085876,1.6388852514043073,0.1858456457033167,0.31379414790140586,3.3545915240176174
edu.cmu.graphchi.engine.auxdata,2.421854581291476,1.3572408789109327,0.3556702348110714,0.2442490351653631,4.3790147301788425
edu.cmu.graphchi.io,0.0,0.0,0.0,0.0,0.0
edu.cmu.graphchi.shards,0.0,0.01295299999926808,0.0,0.0020550000004328057,0.015007999999700886
edu.cmu.graphchi.util,0.0,0.07808433333411813,0.0,0.019775000000663567,0.0978593333347817
edu.cmu.graphchi.vertexdata,0.0,0.05720333332849097,0.0,0.013599999999011441,0.07080333332750241
javassist,0.0,0.04427325000142446,0.0,0.006002500000098127,0.05027575000152258
javassist.bytecode,0.04181123458108705,0.06615204167489233,0.00493381440070937,0.009607499999219726,0.12250459065590846
javassist.compiler,0.0,0.06741583332586741,0.0,0.009568124999683883,0.0769839583255513
javax.management,0.18329969781166272,0.0,0.0251124756250167,0.0,0.20841217343667942
org.slf4j.helpers,0.015568061548891447,0.0,0.0024059318941881424,0.0,0.01797399344307959
sun.management,0.05156516912943526,0.0,0.0064119274806103375,0.0,0.0579770966100456
sun.misc,0.0,0.0,0.0,0.0,0.0
sun.net.util,0.02122717309160129,0.0,0.00295649229693925,0.0,0.02418366538854054
sun.util.resources,0.0,0.1702755833315071,0.0,0.02277624999972734,0.19305183333123443
ucar.unidata.io,0.11218257119058983,0.07051183333242081,0.019141220690933124,0.01706600000127057,0.21890162521521433
