method,hits
CalendarDataUtility.retrieveFirstDayOfWeek,2
ChiPointer.<init>,14
ChiVertex.<init>,572
ChiVertex.inEdge,16
ChiVertex.numOutEdges,2
ChiVertex.setDataPtr,8
ChiVertex.setValue,10
Clock$UserTimeClock.tick,2
CoreReflectionFactory.makeTypeVariable,2
DataBlockManager.dereference,12
DataBlockManager.getRawBlock,8
DataBlockManager.writeValue,10
DefaultMBeanServerInterceptor.registerMBean,2
DefaultMXBeanMappingFactory.<clinit>,4
DegreeData.getDegree,330
DiagnosticCommandImpl.getMBeanInfo,4
GraphChiContext.getIteration,4
GraphChiEngine$2.run,32
GraphChiEngine$3.run,134
GraphChiEngine.determineNextWindow,102
GraphChiEngine.initVertices,300
Gregorian.newCalendarDate,2
ImmutableDescriptor.makeMap,2
Introspector.makeDynamicMBean,2
JRELocaleProviderAdapter.getNumberFormatProvider,2
JmxMBeanServer.<init>,2
JmxMBeanServer.newMBeanServerDelegate,2
MemoryShard.loadAdjChunk,2
NumberFormatProviderImpl.getInstance,2
Pagerank.main,2
Pagerank.update,34
TimerContext.<init>,2
Toplist$1.callback,2
Util.newObjectName,2
VertexAggregator.foreach,6
VertexData.getVertexValuePtr,86
