method,package1,package2,dram1,dram2,energy
ChiPointer.<init>|VertexData.getVertexValuePtr|GraphChiEngine.initVertices,0.1406486580128218,0.0006321559507470649,0.02538061513219559,0.00011896459650158132,0.16678039369226602
ChiVertex.<init>|GraphChiEngine.initVertices|GraphChiEngine.run,4.366099604867341,1.6011449556072117,0.7747977304762684,0.23755682463025857,6.97959911558108
ChiVertex.getValue|Pagerank.update|GraphChiEngine$3.run,0.02539333410089741,0.0,0.00411519742872988,0.0,0.029508531529627288
ChiVertex.numOutEdges|Pagerank.update|GraphChiEngine$3.run,0.0,0.020788316280916853,0.0,0.002145008575795989,0.02293332485671284
ChiVertex.setDataPtr|GraphChiEngine.initVertices|GraphChiEngine.run,0.001046974358942885,0.009536434386792672,0.00012730769249640452,0.0018780507656743094,0.012588767203906271
ChiVertex.setValue|Pagerank.update|GraphChiEngine$3.run,0.016146374248244087,0.05879690468548654,0.0030376870142807214,0.008107891479264686,0.08608885742727604
CodeAttribute.<init>|AttributeInfo.read|MethodInfo.read,0.0,0.009724833333166316,0.0,0.0013574999999642992,0.011082333333130615
DataBlockManager.dereference|ChiVertex.getValue|Pagerank.update,0.030747663074865008,0.03679305969242193,0.005120259792058923,0.005060437226597653,0.07772141978594352
DataBlockManager.dereference|VertexAggregator.foreach|Toplist.topListFloat,0.0,0.04325366666307672,0.0,0.005499999998088848,0.04875366666116557
DataBlockManager.getRawBlock|DataBlockManager.dereference|VertexAggregator.foreach,0.0,0.03283699999641006,0.0,0.004114999999728752,0.03695199999613881
DataBlockManager.getRawBlock|DataBlockManager.writeValue|ChiVertex.setValue,0.0020836929197593926,0.04001765833400853,0.0008471538558039225,0.0073742321428523746,0.05032273725242422
DataBlockManager.writeValue|ChiVertex.setValue|Pagerank.update,0.015668644922490222,0.014865215467118656,0.0032226142106979365,0.0021576160079942526,0.035914090608301065
DefaultMBeanServerInterceptor.registerDynamicMBean|DefaultMBeanServerInterceptor.registerObject|DefaultMBeanServerInterceptor.registerMBean,0.0,0.02473581818048842,0.0,0.00298909090832405,0.02772490908881247
DefaultMBeanServerInterceptor.registerMBean|JmxMBeanServer$2.run|AccessController.doPrivileged,0.0,0.06110181818472813,0.0,0.008391818182479421,0.06949363636720755
DegreeData.getDegree|GraphChiEngine.determineNextWindow|GraphChiEngine.run,0.38197354487850305,1.5997538498554198,0.06340757067877963,0.23436213120302993,2.2794970966157324
DegreeData.getDegree|GraphChiEngine.initVertices|GraphChiEngine.run,0.9237684438896855,0.36867917487577917,0.15518451115421156,0.07000763305471053,1.517639762974387
DiagnosticCommandImpl.getMBeanInfo|DefaultMBeanServerInterceptor.getNewMBeanClassName|DefaultMBeanServerInterceptor.registerMBean,0.0,0.09916199999861419,0.0,0.010979999999108259,0.11014199999772245
FloatConverter.setValue|FloatConverter.setValue|DataBlockManager.writeValue,14.281585832846652,0.010052147103445949,1.7031294431717454,0.0009943330792782767,15.995761756201121
GetPropertyAction.<init>|MBeanServerFactory.checkMBeanServerBuilder|MBeanServerFactory.getNewMBeanServerBuilder,0.0,0.027231025639757253,0.0,0.004215384614769555,0.03144641025452681
GraphChiContext.getIteration|Pagerank.update|GraphChiEngine$3.run,0.00021093052761066465,0.011888253810921902,3.8551328330766964e-05,0.001176025152442601,0.013313760819305935
GraphChiEngine$2.run|Executors$RunnableAdapter.call|FutureTask.run,0.0,10.849094090774217,0.0,1.1526758783673303,12.001769969141549
GraphChiEngine$3.run|Executors$RunnableAdapter.call|FutureTask.run,14.661410132628054,10.429761912298702,1.8002786535340392,1.0848959942543202,27.97634669271512
GraphChiEngine.determineNextWindow|GraphChiEngine.run|Pagerank.main,0.13702156244978864,0.7254511336711857,0.022727820154038233,0.09671645235662682,0.9819169686316394
GraphChiEngine.initVertices|GraphChiEngine.run|Pagerank.main,20.336666927686213,1.3669233556083085,2.496878668582498,0.2033614495356311,24.403830401412648
ImmutableDescriptor.makeMap|ImmutableDescriptor.makeMap|ImmutableDescriptor.<init>,0.0,0.027231025641622886,0.0,0.004759615384477327,0.03199064102610021
JmxMBeanServer.<init>|JmxMBeanServer.newMBeanServer|MBeanServerBuilder.newMBeanServer,0.0,0.06110181818472813,0.0,0.008391818182479421,0.06949363636720755
MBeanInfo.<init>|MBeanInfo.<init>|MBeanServerDelegateImpl.<init>,0.0,0.02642512820341672,0.0,0.004215384615702368,0.030640512819119087
NOPLoggerFactory.getLogger|LoggerFactory.getLogger|LoggerFactory.getLogger,0.0,0.023248076925087027,0.0,0.003171153846499062,0.02641923077158609
NumberFormatProviderImpl.getInstance|NumberFormatProviderImpl.getIntegerInstance|NumberFormat.getInstance,0.0,0.05499955555488768,0.0,0.0072866666677226825,0.06228622222261036
Pagerank.update|GraphChiEngine$3.run|Executors$RunnableAdapter.call,0.023552422032598934,0.010439795143510854,0.0036410144271458674,0.0016653334356348604,0.03929856503889051
RandomAccessFile.readBuffer|RandomAccessFile.seek|VertexData.load,0.0,0.003612758677317045,0.0,0.0006181699080826253,0.004230928585399671
Toplist$1.callback|Toplist$1.callback|VertexAggregator.foreach,0.0,0.010752333332978498,0.0,0.0013700000005580173,0.012122333333536515
Unsafe.getLongVolatile|Unsafe.getAndAddLong|AtomicLong.incrementAndGet,0.0,0.0,0.0,0.0,0.0
Util.newObjectName|MBeanServerDelegate.<clinit>|JmxMBeanServer.newMBeanServerDelegate,0.0,0.02642512820341672,0.0,0.004215384615702368,0.030640512819119087
VertexAggregator.foreach|Toplist.topListFloat|Pagerank.main,0.0,0.06293716667520735,0.0,0.009592499998082834,0.07252966667329018
VertexData$1.hasNext|VertexAggregator.foreach|Toplist.topListFloat,0.0,0.0,0.0,0.0,0.0
VertexData.getVertexValuePtr|GraphChiEngine.initVertices|GraphChiEngine.run,1.7513216719074012,0.06994215869477365,0.3595272982928546,0.01408212081566615,2.1948732497106955
