method,package1,package2,dram1,dram2,energy
ChiPointer.<init>|VertexData.getVertexValuePtr|GraphChiEngine.initVertices,0.09844933333079098,0.11633300000782279,0.024994999999762513,0.02364000000064455,0.26341733333902084
ChiVertex.<init>|GraphChiEngine.initVertices|GraphChiEngine.run,3.9011663284775726,1.1325434951231967,0.6285257382140931,0.22850485786700747,5.890740419681871
ChiVertex.getValue|Pagerank.update|GraphChiEngine$3.run,0.014184941357867771,0.0016664631575440585,0.0018343981482084255,0.0003085538247249917,0.01799435648834525
ChiVertex.setDataPtr|GraphChiEngine.initVertices|GraphChiEngine.run,0.020866620470311535,0.0,0.0039883376679247596,0.0,0.024854958138236294
ChiVertex.setValue|Pagerank.update|GraphChiEngine$3.run,0.04094034017640673,0.0,0.0062750666549371585,0.0,0.047215406831343884
ClassPool.makeClass|ClassPool.makeClass|ThreadCoreMapInjector.transform,0.05827616424392515,0.0,0.006843598594719802,0.0,0.06511976283864496
DataBlockManager.dereference|ChiVertex.getValue|Pagerank.update,0.1192955010276651,0.011864702614803593,0.018122398029412713,0.0020442460475148245,0.15132684771939622
DataBlockManager.dereference|VertexAggregator.foreach|Toplist.topListFloat,0.0,0.0,0.0,0.0,0.0
DataBlockManager.getRawBlock|DataBlockManager.dereference|ChiVertex.getValue,0.0,0.0008145265745459044,0.0,0.0001410004037034047,0.0009555269782493092
DataBlockManager.getRawBlock|DataBlockManager.dereference|VertexAggregator.foreach,0.0,0.0,0.0,0.0,0.0
DataBlockManager.getRawBlock|DataBlockManager.writeValue|ChiVertex.setValue,0.0009787410322543374,0.03651539603235622,0.00022253516496858943,0.010328543286228184,0.04804521551580733
DataBlockManager.writeValue|ChiVertex.setValue|Pagerank.update,0.0,0.0359977836311642,0.0,0.009715676810184025,0.045713460441348226
DegreeData.getDegree|GraphChiEngine.determineNextWindow|GraphChiEngine.run,0.9348583041151125,0.4106976439775497,0.12824021552519818,0.07339874847075051,1.547194912088611
DegreeData.getDegree|GraphChiEngine.initVertices|GraphChiEngine.run,1.1086621757393815,0.28191412892946877,0.18602912464172955,0.053669453685397626,1.6302748829959777
ExponentiallyDecayingSample.<init>|ExponentiallyDecayingSample.<init>|Histogram$SampleType$2.newSample,0.04016902143264908,0.0,0.006327705749721874,0.0,0.04649672718237095
FloatConverter.setValue|FloatConverter.setValue|DataBlockManager.writeValue,0.0036496931156205243,0.005727571623145905,0.0008936540185173377,0.0016888764026255685,0.011959795159909336
GraphChiContext.getIteration|Pagerank.update|GraphChiEngine$3.run,0.005115728632455669,0.007851684722523974,0.0006224519230218148,0.0013729278477216133,0.014962793125723071
GraphChiEngine$2.run|Executors$RunnableAdapter.call|FutureTask.run,0.032268642983963064,0.4319501917926132,0.003850206366637442,0.07868156457233366,0.5467506057155473
GraphChiEngine$3.run|Executors$RunnableAdapter.call|FutureTask.run,0.5383544540862942,0.7798056700916615,0.06876498465804011,0.1322720606512537,1.5191971694872495
GraphChiEngine.determineNextWindow|GraphChiEngine.run|Pagerank.main,0.5514675594119862,0.14474844445713742,0.07182488748941268,0.030793333332338885,0.7988342246908753
GraphChiEngine.initVertices|GraphChiEngine.run|Pagerank.main,51.07484510768498,0.3098223172288974,5.665461353556525,0.06337086301319154,57.11349964148359
Histogram.<init>|Histogram.<init>|Timer.<init>,0.030862992642345082,0.0,0.004286817392541865,0.0,0.035149810034886944
ImmutableDescriptor.makeMap|ImmutableDescriptor.makeMap|ImmutableDescriptor.<init>,0.047699227697165,0.0,0.006832862938916582,0.0,0.05453209063608158
JmxMBeanServer.<init>|JmxMBeanServer.newMBeanServer|MBeanServerBuilder.newMBeanServer,0.04084303129288623,0.0,0.006772743238231968,0.0,0.0476157745311182
MBeanNotificationInfo.<init>|MBeanNotificationInfo.<init>|MBeanServerDelegate.<clinit>,0.04814815260390387,0.0,0.006913611188424094,0.0,0.05506176379232797
MBeanServerBuilder.newMBeanServerDelegate|MBeanServerFactory.newMBeanServer|MBeanServerFactory.createMBeanServer,0.04523634794917513,0.0,0.005943397842400279,0.0,0.05117974579157541
MXBeanIntrospector.mFrom|MXBeanIntrospector.mFrom|MBeanAnalyzer.initMaps,0.06308518153616566,0.0,0.009043208655675995,0.0,0.07212839019184165
MXBeanSupport.getMBeanIntrospector|MBeanSupport.<init>|MXBeanSupport.<init>,0.06385275563144989,0.0,0.008894808380394272,0.0,0.07274756401184417
NotificationBroadcasterSupport.<clinit>|MBeanServerDelegate.<init>|MBeanServerDelegateImpl.<init>,0.04814815260390387,0.0,0.006913611188424094,0.0,0.05506176379232797
Pagerank.update|GraphChiEngine$3.run|Executors$RunnableAdapter.call,0.012409077614255023,0.06175581954706044,0.0016643547493349854,0.009504745751565543,0.085333997662216
VertexAggregator.foreach|Toplist.topListFloat|Pagerank.main,0.0,0.0,0.0,0.0,0.0
VertexData.getVertexValuePtr|GraphChiEngine.initVertices|GraphChiEngine.run,0.5958578757439927,0.346301742506441,0.10563993697306687,0.06680608491636272,1.1146056401398634
