method,package1,package2,dram1,dram2,energy
Chaperone.retire|Chaperone.dismiss|Chaperone.main,0.0,0.06498199999138403,0.0,0.00893999999728597,0.07392199998867
ChiLogger.getLogger|Pagerank.<clinit>|NativeMethodAccessorImpl.invoke0,0.0,0.0,0.0,0.0,0.0
ChiPointer.<init>|VertexData.getVertexValuePtr|GraphChiEngine.initVertices,0.0,0.07966502314886584,0.0,0.013466173611220288,0.09313119676008613
ChiVertex.<init>|GraphChiEngine.initVertices|GraphChiEngine.run,0.9196828206943599,31.086193416383708,0.1614567897630695,5.336468931680806,37.50380195852195
ChiVertex.getValue|Pagerank.update|GraphChiEngine$3.run,0.013459890220794624,0.020389622727618024,0.001913282893734642,0.007168500000030195,0.04293129584217749
ChiVertex.numInEdges|Pagerank.update|GraphChiEngine$3.run,0.004567284782625274,0.004968678431380113,0.000632249999983722,0.0006697058823545403,0.01083791909634365
ChiVertex.numOutEdges|Pagerank.update|GraphChiEngine$3.run,0.0,0.0120727540499171,0.0,0.003381501748164688,0.015454255798081788
ChiVertex.setDataPtr|GraphChiEngine.initVertices|GraphChiEngine.run,0.0,0.0644896134667288,0.0,0.01311752948726476,0.07760714295399355
ChiVertex.setValue|Pagerank.update|GraphChiEngine$3.run,0.009011771635736522,0.0,0.0012827742470220135,0.0,0.010294545882758535
ClassLoaderRepositorySupport.<clinit>|JmxMBeanServer.<init>|JmxMBeanServer.newMBeanServer,0.0,0.046061333333556026,0.0,0.007573333333615056,0.05363466666717108
ConstPool.readOne|ConstPool.read|ConstPool.<init>,0.0,0.0583259999996069,0.0,0.008383846153614845,0.06670984615322174
DataBlockManager.dereference|ChiVertex.getValue|Pagerank.update,0.03492280299658447,0.02670462765949212,0.004209585805075444,0.004355312390388987,0.07019232885154102
DataBlockManager.dereference|VertexAggregator.foreach|Toplist.topListFloat,0.0,0.013020666665397584,0.0,0.0024000000000038804,0.015420666665401464
DataBlockManager.getRawBlock|DataBlockManager.dereference|VertexAggregator.foreach,0.0,0.0,0.0,0.0,0.0
DataBlockManager.getRawBlock|DataBlockManager.writeValue|ChiVertex.setValue,0.012138929885672577,0.02881745820409646,0.002733320721708955,0.009657027863756098,0.05334673667523409
DataBlockManager.writeValue|ChiVertex.setValue|Pagerank.update,0.003885910281981029,0.5110749350284846,0.00046872834883219524,0.07221960222274569,0.5876491758820435
DefaultMBeanServerInterceptor.sendNotification|DefaultMBeanServerInterceptor.registerWithRepository|DefaultMBeanServerInterceptor.registerDynamicMBean,0.0,0.04421348484880362,0.0,0.006084090908905526,0.05029757575770915
DefaultMXBeanMappingFactory.makeTabularMapping|DefaultMXBeanMappingFactory.makeParameterizedTypeMapping|DefaultMXBeanMappingFactory.makeMapping,0.0,0.051483055554449986,0.0,0.00639333333381526,0.05787638888826525
DegreeData.getDegree|GraphChiEngine.determineNextWindow|GraphChiEngine.run,0.0643394338235562,1.291668364463994,0.009380477937673845,0.22366290575633777,1.5890511819815616
DegreeData.getDegree|GraphChiEngine.initVertices|GraphChiEngine.run,0.13016039822335645,35.35265644545679,0.019778681383977134,4.86598554625966,40.368581071323774
FloatConverter.getValue|FloatConverter.getValue|DataBlockManager.dereference,0.005584044444468518,0.0,0.0007989999999052898,0.0,0.006383044444373808
FloatConverter.setValue|FloatConverter.setValue|DataBlockManager.writeValue,0.0,0.0,0.0,0.0,0.0
GraphChiEngine$2.run|Executors$RunnableAdapter.call|FutureTask.run,0.14454946727468465,0.21174811003703659,0.023168333259517584,0.06020180708081224,0.43966771765205104
GraphChiEngine$3.run|Executors$RunnableAdapter.call|FutureTask.run,0.9992067501851303,0.8147113749376984,0.16506713469971857,0.12992223518724616,2.1089074950097935
GraphChiEngine.determineNextWindow|GraphChiEngine.run|Pagerank.main,0.1849670000004456,0.422373281821321,0.02681500000107917,0.07389239729047488,0.7080476791133207
GraphChiEngine.initVertices|GraphChiEngine.run|Pagerank.main,0.7009231485917435,1.2056526836736563,0.11764623326966445,0.20054491973832336,2.224766985273388
JmxMBeanServer.<init>|JmxMBeanServer.newMBeanServer|MBeanServerBuilder.newMBeanServer,0.0,0.04421348484880362,0.0,0.006084090908905526,0.05029757575770915
JmxMBeanServer.newMBeanServerDelegate|MBeanServerBuilder.newMBeanServerDelegate|MBeanServerFactory.newMBeanServer,0.0,0.047526000002916485,0.0,0.00733333333321045,0.054859333336126935
LocaleProviderAdapter.<clinit>|DateFormat.get|DateFormat.getTimeInstance,0.0,0.0,0.0,0.0,0.0
MBeanInfo.<init>|MBeanInfo.<init>|MBeanServerDelegateImpl.<init>,0.0,0.05190688888736379,0.0,0.007293333333412496,0.05920022222077629
MXBeanMappingFactory.<clinit>|ConvertingMethod.<init>|ConvertingMethod.from,0.0,0.03552060606263253,0.0,0.0049977272735277165,0.04051833333616024
MemoryShard.loadAdjChunk|MemoryShard.access$000|MemoryShard$1.run,0.0,0.0027592578416320798,0.0,0.0003615898525115758,0.0031208476941436557
Metrics.<clinit>|GraphChiEngine.<init>|Pagerank.main,0.0,0.07773155555736996,0.0,0.010939999999310304,0.08867155555668027
NumberFormatProviderImpl.getInstance|NumberFormatProviderImpl.getIntegerInstance|NumberFormat.getInstance,0.0,0.06329760000420113,0.0,0.009343999999691733,0.07264160000389287
ObjectName.<clinit>|Util.newObjectName|MBeanServerDelegate.<clinit>,0.0,0.047526000002916485,0.0,0.00733333333321045,0.054859333336126935
Pagerank.update|GraphChiEngine$3.run|Executors$RunnableAdapter.call,0.016062930742126977,0.0,0.002621437251119986,0.0,0.018684367993246964
VertexAggregator.foreach|Toplist.topListFloat|Pagerank.main,0.0,0.1226501666654561,0.0,0.02403749999878831,0.1466876666642444
VertexData.getVertexValuePtr|GraphChiEngine.initVertices|GraphChiEngine.run,0.1070584612042295,0.6599721769342105,0.019744038859520394,0.10916940728269282,0.8959440842806532
VertexData.getVertexValuePtr|VertexAggregator.foreach|Toplist.topListFloat,0.0,0.04665166666381992,0.0,0.00999500000034459,0.056646666664164506
