method,package1,package2,dram1,dram2,energy
ArrayList.elementData|ArrayList.get|DataBlockManager.getRawBlock,0.0,0.08656865913278158,0.0,0.020615860738666857,0.10718451987144845
ArrayList.rangeCheck|ArrayList.get|DataBlockManager.getRawBlock,0.022243409619904047,0.05304993928675685,0.005116796448466687,0.017343749999807707,0.09775389535493528
BufferedInputStream.<init>|BufferedInputStream.<init>|ClassPool.makeClass,0.0,0.04427325000142446,0.0,0.006002500000098127,0.05027575000152258
BufferedInputStream.read|DataInputStream.readUnsignedShort|DataInputStream.readUTF,0.0,0.06615204167489233,0.0,0.009607499999219726,0.07575954167411206
BufferedInputStream.read|DataInputStream.readUnsignedShort|MemberrefInfo.<init>,0.019986158461724062,0.0,0.002501307969541656,0.0,0.02248746643126572
ByteArrayInputStream.read|DataInputStream.readUnsignedByte|MemoryShard.loadAdjChunk,0.0,0.0,0.0,0.0,0.0
Character.toLowerCase|Character.toLowerCase|String.toLowerCase,0.02122717309160129,0.0,0.00295649229693925,0.0,0.02418366538854054
Class.getDeclaredFields0|Class.privateGetDeclaredFields|Class.getDeclaredField,0.020659074461151807,0.0,0.0026662202217373077,0.0,0.023325294682889117
ClassLoader.findBootstrapClass|ClassLoader.findBootstrapClassOrNull|ClassLoader.loadClass,0.0,0.0,0.0,0.0,0.0
ConcurrentHashMap.keySet|ConcurrentHashMap.keySet|ParallelListResourceBundle.handleKeySet,0.0,0.06616983332848272,0.0,0.009611875000700819,0.07578170832918354
DataInputStream.readUTF|DataInputStream.readUTF|Utf8Info.<init>,0.021825076119362987,0.0,0.0024325064311677136,0.0,0.0242575825505307
DataInputStream.readUnsignedByte|MemoryShard.loadAdjChunk|MemoryShard.access$000,0.0,0.0,0.0,0.0,0.0
FileOutputStream.close0|FileOutputStream.access$000|FileOutputStream$1.close,0.0,0.0,0.0,0.0,0.0
Float.<init>|Float.valueOf|Pagerank.update,0.0,0.015665663855425397,0.0,0.0045136553728811445,0.02017931922830654
Float.floatValue|Pagerank.update|GraphChiEngine$3.run,0.01933991391162846,0.0333872300647093,0.004767441369260291,0.007241353744441622,0.06473593909003968
Float.valueOf|FloatConverter.getValue|FloatConverter.getValue,0.022090322007312736,0.000571095375116459,0.004962877529830882,0.00017204717976937342,0.02779634209202945
Float.valueOf|Pagerank.update|GraphChiEngine$3.run,0.021674030518964497,0.006922303623682619,0.005009294642069898,0.001984038155410769,0.03558966694012778
Formatter$FormatSpecifier.<init>|Formatter.parse|Formatter.format,0.0,0.06709800000923374,0.0,0.0109599999996135,0.07805800000884724
HashMap.<init>|SymbolTable.<init>|SymbolTable.<init>,0.0,0.06741583332586741,0.0,0.009568124999683883,0.0769839583255513
MessageFormat.subformat|MessageFormat.format|ChiLogger$SingleLineFormatter.format,0.0,0.06615204167489233,0.0,0.009607499999219726,0.07575954167411206
Object.hashCode|ConcurrentHashMap.get|ConcurrentHashMap.containsKey,0.0017331592869761078,0.0,0.00024074308655851185,0.0,0.0019739023735346195
RandomAccessFile.readBytes|RandomAccessFile.read|RandomAccessFile.read_,0.07971303307308808,0.07051183333242081,0.014743034513721897,0.01706600000127057,0.18203390092050134
RandomAccessFile.writeBytes|RandomAccessFile.write|RandomAccessFile.writeBytes,0.03246953811750175,0.0,0.004398186177211227,0.0,0.03686772429471298
System.arraycopy|DegreeData.load|GraphChiEngine.determineNextWindow,0.0,0.005737333328094488,0.0,0.001834999999118736,0.007572333327213224
Thread.run,0.0,0.0,0.0,0.0,0.0
ThreadPoolExecutor.addWorker|ThreadPoolExecutor.execute|AbstractExecutorService.submit,0.0,0.0,0.0,0.0,0.0
TreeMap.entrySet|ImmutableDescriptor.<init>|ImmutableDescriptor.<init>,0.04564330612397692,0.0,0.0052178055895969735,0.0,0.050861111713573895
TreeMap.size|TreeSet.size|Toplist$1.callback,0.0,0.07808433333411813,0.0,0.019775000000663567,0.0978593333347817
