method,hits
AccessController.doPrivileged,2
ArrayList.<init>,2
ArrayList.elementData,6
ArrayList.rangeCheck,10
Arrays.sort,2
BufferedInputStream.read,4
ChiPointer.<init>,14
ChiVertex.<init>,430
ChiVertex.getValue,8
ChiVertex.numOutEdges,2
ChiVertex.setDataPtr,2
ChiVertex.setValue,4
Class.getDeclaredConstructors0,2
Class.privateGetPublicMethods,2
ClassLoader.findBootstrapClass,2
ClassLoadingImpl.getObjectName,2
Collections.singleton,2
DataBlockManager.dereference,10
DataBlockManager.getRawBlock,4
DataBlockManager.writeValue,6
DataInputStream.readUnsignedShort,2
DegreeData.getDegree,200
DiagnosticCommandImpl.getMBeanInfo,2
Float.<init>,14
Float.floatValue,8
Float.valueOf,10
FloatConverter.setValue,6
GraphChiContext.getIteration,2
GraphChiEngine$2.run,92
GraphChiEngine$3.run,110
GraphChiEngine.determineNextWindow,42
GraphChiEngine.initVertices,266
HashMap.resize,2
ImmutableDescriptor.makeMap,2
Integer.valueOf,2
Introspector.getMXBeanInterface,2
JmxMBeanServer.<init>,4
JmxMBeanServer.newMBeanServerDelegate,2
MBeanInfo.<init>,2
MessageHeader.grow,2
NumberFormatProviderImpl.getInstance,2
Pagerank.update,26
ParseUtil.decode,2
RandomAccessFile.readBytes,16
RandomAccessFile.writeBytes,36
SimpleDateFormat.initialize,2
StringBuffer.append,2
System.arraycopy,18
TreeMap.size,2
TreeSet.size,2
Unsafe.park,2
Util.newObjectName,2
VertexAggregator.foreach,4
VertexData.getVertexValuePtr,64
