method,package1,package2,dram1,dram2,energy
ArrayList.elementData|ArrayList.get|DataBlockManager.getRawBlock,0.0,0.08656865913278158,0.0,0.020615860738666857,0.10718451987144845
ArrayList.rangeCheck|ArrayList.get|DataBlockManager.getRawBlock,0.022243409619904047,0.05304993928675685,0.005116796448466687,0.017343749999807707,0.09775389535493528
BufferedInputStream.<init>|BufferedInputStream.<init>|ClassPool.makeClass,0.0,0.04427325000142446,0.0,0.006002500000098127,0.05027575000152258
BufferedInputStream.read|DataInputStream.readUnsignedShort|DataInputStream.readUTF,0.0,0.06615204167489233,0.0,0.009607499999219726,0.07575954167411206
BufferedInputStream.read|DataInputStream.readUnsignedShort|MemberrefInfo.<init>,0.019986158461724062,0.0,0.002501307969541656,0.0,0.02248746643126572
ByteArrayInputStream.read|DataInputStream.readUnsignedByte|MemoryShard.loadAdjChunk,0.0,0.0,0.0,0.0,0.0
Character.toLowerCase|Character.toLowerCase|String.toLowerCase,0.02122717309160129,0.0,0.00295649229693925,0.0,0.02418366538854054
ChiPointer.<init>|VertexData.getVertexValuePtr|GraphChiEngine.initVertices,0.012664783997064246,0.029909637250324625,0.0024730302646328297,0.005522500000890931,0.05056995151291264
ChiVertex.<init>|GraphChiEngine.initVertices|GraphChiEngine.run,1.8511950001681794,2.143950541038031,0.28709327786491784,0.3858378120404564,4.668076631111585
ChiVertex.getValue|Pagerank.update|GraphChiEngine$3.run,0.012109900671655321,0.020233408215293944,0.0031000689289423923,0.0036021737824958357,0.03904555159838749
ChiVertex.numInEdges|Pagerank.update|GraphChiEngine$3.run,0.010660813339248109,0.0,0.0026193168608348496,0.0,0.013280130200082958
ChiVertex.numOutEdges|Pagerank.update|GraphChiEngine$3.run,0.0,0.0003275076217439009,0.0,6.962652436436101e-05,0.0003971341461082619
ChiVertex.setDataPtr|GraphChiEngine.initVertices|GraphChiEngine.run,0.0,0.05625267500217887,0.0,0.010279874998923333,0.0665325500011022
ChiVertex.setValue|Pagerank.update|GraphChiEngine$3.run,0.0,0.019869582819608825,0.0,0.005183508081622154,0.02505309090123098
Class.getDeclaredFields0|Class.privateGetDeclaredFields|Class.getDeclaredField,0.020659074461151807,0.0,0.0026662202217373077,0.0,0.023325294682889117
ClassLoader.findBootstrapClass|ClassLoader.findBootstrapClassOrNull|ClassLoader.loadClass,0.0,0.0,0.0,0.0,0.0
ClassLoadingImpl.getObjectName|ManagementFactory.getPlatformMBeanServer|JmxReporter.<init>,0.018062396455912778,0.0,0.0025369619824002747,0.0,0.02059935843831305
ConcurrentHashMap.keySet|ConcurrentHashMap.keySet|ParallelListResourceBundle.handleKeySet,0.0,0.06616983332848272,0.0,0.009611875000700819,0.07578170832918354
DataBlockManager.dereference|ChiVertex.getValue|Pagerank.update,0.0010481021794981572,0.0,0.00015917414955646106,0.0,0.0012072763290546184
DataBlockManager.dereference|VertexAggregator.foreach|Toplist.topListFloat,0.0,0.07747400000516791,0.0,0.01705999999952231,0.09453400000469023
DataBlockManager.getRawBlock|DataBlockManager.writeValue|ChiVertex.setValue,0.018855963674034765,0.0,0.004627877529805077,0.0,0.023483841203839843
DataBlockManager.writeValue|ChiVertex.setValue|Pagerank.update,0.003947662968959119,0.05304993928675685,0.0010341620297248115,0.017343749999807707,0.0753755142852485
DataInputStream.readUTF|DataInputStream.readUTF|Utf8Info.<init>,0.021825076119362987,0.0,0.0024325064311677136,0.0,0.0242575825505307
DataInputStream.readUnsignedByte|MemoryShard.loadAdjChunk|MemoryShard.access$000,0.0,0.0,0.0,0.0,0.0
DegreeData.getDegree|GraphChiEngine.determineNextWindow|GraphChiEngine.run,0.5985625282806329,0.23217865256893666,0.09507730499503286,0.03300817750453972,0.9588266633491422
DegreeData.getDegree|GraphChiEngine.initVertices|GraphChiEngine.run,0.655187129219401,0.7278902263607765,0.09350787457998289,0.12611435765995055,1.602699587820111
FileOutputStream.close0|FileOutputStream.access$000|FileOutputStream$1.close,0.0,0.0,0.0,0.0,0.0
Float.<init>|Float.valueOf|Pagerank.update,0.0,0.015665663855425397,0.0,0.0045136553728811445,0.02017931922830654
Float.floatValue|Pagerank.update|GraphChiEngine$3.run,0.01933991391162846,0.0333872300647093,0.004767441369260291,0.007241353744441622,0.06473593909003968
Float.valueOf|FloatConverter.getValue|FloatConverter.getValue,0.022090322007312736,0.000571095375116459,0.004962877529830882,0.00017204717976937342,0.02779634209202945
Float.valueOf|Pagerank.update|GraphChiEngine$3.run,0.021674030518964497,0.006922303623682619,0.005009294642069898,0.001984038155410769,0.03558966694012778
FloatConverter.getValue|DataBlockManager.dereference|ChiVertex.getValue,0.0,0.0,0.0,0.0,0.0
FloatConverter.setValue|FloatConverter.setValue|DataBlockManager.writeValue,0.0,0.01879944588698189,0.0,0.006278482295128931,0.02507792818211082
Formatter$FormatSpecifier.<init>|Formatter.parse|Formatter.format,0.0,0.06709800000923374,0.0,0.0109599999996135,0.07805800000884724
GraphChiEngine$2.run|Executors$RunnableAdapter.call|FutureTask.run,0.07015490639347646,0.09187405196125448,0.012144304138740906,0.027681303419582824,0.20185456591305467
GraphChiEngine$3.run|Executors$RunnableAdapter.call|FutureTask.run,0.01868489860406504,0.19674052280969567,0.0021531075503074216,0.04589538128099321,0.26347391024506134
GraphChiEngine.determineNextWindow|GraphChiEngine.run|Pagerank.main,0.2757003829446219,0.2280065573286076,0.03906044619191406,0.033918775378791184,0.5766861618439347
GraphChiEngine.initVertices|GraphChiEngine.run|Pagerank.main,0.8515262910664241,1.1222641193047496,0.1324877878223543,0.20629868782203864,2.3125768860155667
HashMap.<init>|SymbolTable.<init>|SymbolTable.<init>,0.0,0.06741583332586741,0.0,0.009568124999683883,0.0769839583255513
ImmutableDescriptor.makeMap|ImmutableDescriptor.makeMap|ImmutableDescriptor.<init>,0.03205589332668679,0.0,0.00424609772501155,0.0,0.03630199105169834
JmxMBeanServer.<init>|JmxMBeanServer.newMBeanServer|MBeanServerBuilder.newMBeanServer,0.0674683822433399,0.0,0.007650312020764686,0.0,0.07511869426410459
LocaleData$1.run|LocaleData$1.run|AccessController.doPrivileged,0.0,0.10410575000302438,0.0,0.013164374999026524,0.1172701250020509
MBeanAnalyzer.eliminateCovariantMethods|MBeanAnalyzer.initMaps|MBeanAnalyzer.<init>,0.019986158461724062,0.0,0.002501307969541656,0.0,0.02248746643126572
MBeanNotificationInfo.<init>|MBeanNotificationInfo.<init>|MBeanServerDelegate.<clinit>,0.0367723025171561,0.0,0.005701237292698314,0.0,0.04247353980985442
MBeanServerBuilder.newMBeanServerDelegate|MBeanServerFactory.newMBeanServer|MBeanServerFactory.createMBeanServer,0.0367723025171561,0.0,0.005701237292698314,0.0,0.04247353980985442
MXBeanIntrospector.getMBeanAttributeInfo|MXBeanIntrospector.getMBeanAttributeInfo|MBeanIntrospector$MBeanInfoMaker.visitAttribute,0.021279450048373956,0.0,0.003034473878713039,0.0,0.024313923927086995
MemoryPoolImpl.<init>|ManagementFactory.createMemoryPool|MemoryImpl.getMemoryPools0,0.03350277267352249,0.0,0.0038749654982100632,0.0,0.03737773817173255
MemoryShard.loadAdjChunk|MemoryShard.access$000|MemoryShard$1.run,0.0,0.01295299999926808,0.0,0.0020550000004328057,0.015007999999700886
MessageFormat.subformat|MessageFormat.format|ChiLogger$SingleLineFormatter.format,0.0,0.06615204167489233,0.0,0.009607499999219726,0.07575954167411206
NOPLoggerFactory.getLogger|LoggerFactory.getLogger|LoggerFactory.getLogger,0.015568061548891447,0.0,0.0024059318941881424,0.0,0.01797399344307959
NotificationBroadcasterSupport.<clinit>|MBeanServerDelegate.<init>|MBeanServerDelegateImpl.<init>,0.03205589332668679,0.0,0.00424609772501155,0.0,0.03630199105169834
Object.hashCode|ConcurrentHashMap.get|ConcurrentHashMap.containsKey,0.0017331592869761078,0.0,0.00024074308655851185,0.0,0.0019739023735346195
Pagerank.update|GraphChiEngine$3.run|Executors$RunnableAdapter.call,0.019742608993081414,0.04172072926685441,0.00391921410718725,0.008445091729428278,0.07382764409655136
RandomAccessFile.readBytes|RandomAccessFile.read|RandomAccessFile.read_,0.07971303307308808,0.07051183333242081,0.014743034513721897,0.01706600000127057,0.18203390092050134
RandomAccessFile.writeBytes|RandomAccessFile.write|RandomAccessFile.writeBytes,0.03246953811750175,0.0,0.004398186177211227,0.0,0.03686772429471298
Repository.addMoiToTb|Repository.addNewDomMoi|Repository.addMBean,0.014397315915105796,0.0,0.0017500575932090424,0.0,0.016147373508314838
System.arraycopy|DegreeData.load|GraphChiEngine.determineNextWindow,0.0,0.005737333328094488,0.0,0.001834999999118736,0.007572333327213224
Thread.run,0.0,0.0,0.0,0.0,0.0
ThreadPoolExecutor.addWorker|ThreadPoolExecutor.execute|AbstractExecutorService.submit,0.0,0.0,0.0,0.0,0.0
TreeMap.entrySet|ImmutableDescriptor.<init>|ImmutableDescriptor.<init>,0.04564330612397692,0.0,0.0052178055895969735,0.0,0.050861111713573895
TreeMap.size|TreeSet.size|Toplist$1.callback,0.0,0.07808433333411813,0.0,0.019775000000663567,0.0978593333347817
VertexAggregator.foreach|Toplist.topListFloat|Pagerank.main,0.0,0.05720333332849097,0.0,0.013599999999011441,0.07080333332750241
VertexData$1.hasNext|VertexAggregator.foreach|Toplist.topListFloat,0.0,0.05948900000172823,0.0,0.015740000000126503,0.07522900000185473
VertexData.getVertexValuePtr|GraphChiEngine.initVertices|GraphChiEngine.run,1.1681049237914418,0.2024899999873014,0.16708505523605563,0.03700650000140134,1.5746864790162
VertexData.getVertexValuePtr|VertexAggregator.foreach|Toplist.topListFloat,0.0,0.12945566666409528,0.0,0.03054500000022623,0.1600006666643215
