method,hits
AbstractQueuedSynchronizer$Node.<init>,2
ArrayList.elementData,6
ArrayList.rangeCheck,24
Arrays.copyOfRange,2
BufferedInputStream.read,10
ByteArrayInputStream.read,2
Calendar$Builder.build,2
ChiPointer.<init>,12
ChiVertex.<init>,446
ChiVertex.getValue,8
ChiVertex.setDataPtr,4
ChiVertex.setValue,4
ClassPool.makeClass,2
DataBlockManager.dereference,12
DataBlockManager.getRawBlock,16
DataBlockManager.writeValue,6
DataInputStream.readUnsignedShort,2
DegreeData.getDegree,242
ExponentiallyDecayingSample.<init>,2
Float.<init>,8
Float.floatValue,2
Float.valueOf,22
FloatConverter.setValue,6
Format.format,2
GraphChiContext.getIteration,10
GraphChiEngine$2.run,30
GraphChiEngine$3.run,150
GraphChiEngine.determineNextWindow,54
GraphChiEngine.initVertices,260
Histogram.<init>,2
ImmutableDescriptor.makeMap,2
Integer.valueOf,2
JmxMBeanServer.<init>,2
MBeanNotificationInfo.<init>,2
MBeanServerBuilder.newMBeanServerDelegate,2
MXBeanIntrospector.mFrom,2
MXBeanSupport.getMBeanIntrospector,2
NotificationBroadcasterSupport.<clinit>,2
Pagerank.update,16
PlatformComponent.<clinit>,2
RandomAccessFile.readBytes,16
RandomAccessFile.writeBytes,26
ReentrantReadWriteLock.<init>,2
ScheduledThreadPoolExecutor.scheduleAtFixedRate,2
SimpleDateFormat.<init>,2
System.arraycopy,8
VertexAggregator.foreach,4
VertexData.getVertexValuePtr,74
