method,package1,package2,dram1,dram2,energy
AnnotationParser$1.run|AnnotationParser$1.run|AccessController.doPrivileged,0.06014000000141096,0.0,0.009429999998246784,0.0,0.06956999999965774
AttributeInfo.<init>|LineNumberAttribute.<init>|AttributeInfo.read,0.05440266667089114,0.0,0.009640000001430357,0.0,0.06404266667232149
BitsetScheduler.addTask|ConnectedComponents.update|GraphChiEngine$3.run,0.05544509138184266,0.02559840040840771,0.007544282931927878,0.003355511057620883,0.09194328577979913
BitsetScheduler.isScheduled|GraphChiEngine.determineNextWindow|GraphChiEngine.run,0.08834462646552041,0.0,0.015386570889086485,0.0,0.1037311973546069
BitsetScheduler.isScheduled|GraphChiEngine.initVertices|GraphChiEngine.run,0.3112743013751345,0.0,0.04696558637873217,0.0,0.35823988775386667
BitsetScheduler.removeTasks|GraphChiEngine.run|ConnectedComponents.main,0.05105368372614933,0.0,0.00680793609570331,0.0,0.057861619821852645
Chaperone.main,0.0,0.0,0.0,0.0,0.0
ChiFilenames.getFilenameShardEdataBlock|MemoryShard.loadEdata|MemoryShard.loadVertices,0.00907030272814817,0.0,0.0015160933090318095,0.0,0.010586396037179981
ChiLogger$SingleLineFormatter.format|StreamHandler.publish|ConsoleHandler.publish,0.07137066666715933,0.0,0.0090099999991556,0.0,0.08038066666631492
ChiPointer.<init>|VertexData.getVertexValuePtr|GraphChiEngine.initVertices,0.0,0.0,0.0,0.0,0.0
ChiVertex$Edge.<init>|ChiVertex.inEdge|ChiVertex.edge,0.01079840493253039,0.0,0.0014718876208633903,0.0,0.01227029255339378
ChiVertex$Edge.<init>|ChiVertex.outEdge|ChiVertex.edge,0.017555472747680285,0.0007939142719633901,0.002030882416438716,7.922784728580591e-05,0.020459497283368194
ChiVertex.<init>|GraphChiEngine.initVertices|GraphChiEngine.run,3.0503622381474975,0.0,0.4958023856499568,0.0,3.5461646237974542
ChiVertex.getValue|ConnectedComponents.update|GraphChiEngine$3.run,0.0,0.0013335265145790554,0.0,0.00010818181824630082,0.0014417083328253561
ChiVertex.inEdge|ChiVertex.edge|ConnectedComponents.update,0.18631278935057038,0.15335802518040811,0.026612660773820226,0.01749143637461331,0.383774911679412
ChiVertex.numEdges|ConnectedComponents.update|GraphChiEngine$3.run,0.0,0.01191859753144169,0.0,0.0016976296295013774,0.013616227160943068
ChiVertex.setValue|ConnectedComponents.update|GraphChiEngine$3.run,0.026553886475131655,0.02140227758621905,0.005551515843585779,0.0029997733293510628,0.05650745323428755
ClassPool.compress|ClassPool.makeClass|ClassPool.makeClass,0.1338345833319181,0.0,0.01667499999894062,0.0,0.15050958333085873
ConnectedComponents.update|GraphChiEngine$3.run|Executors$RunnableAdapter.call,0.39651387905309954,0.5024804310016634,0.05703720167681647,0.06920437886431163,1.0252358905958912
DataBlockManager.dereference|ChiVertex.getValue|ConnectedComponents.update,0.042630090638701525,0.055421234588750805,0.004819516994527628,0.007792252623724795,0.11066309484570475
DataBlockManager.dereference|VertexAggregator.foreach|LabelAnalysis.computeLabels,0.0,0.0,0.0,0.0,0.0
DataBlockManager.getRawBlock|DataBlockManager.dereference|ChiVertex.getValue,0.08970766060011383,0.06592866015798664,0.012465242502352845,0.007553304777730271,0.1756548680381836
DataBlockManager.getRawBlock|DataBlockManager.dereference|VertexAggregator.foreach,0.014193760790924641,0.0,0.002017170808454884,0.0,0.016210931599379527
DataBlockManager.getRawBlock|DataBlockManager.writeValue|ChiVertex.setValue,0.03544088847550453,0.048436497146022384,0.0047187876513037,0.005205086419631657,0.09380125969246227
DataBlockManager.writeValue|ChiVertex.setValue|ConnectedComponents.update,0.04175505763368495,0.04956262365743399,0.005607952477158654,0.007684638939615681,0.10461027270789329
DefaultMBeanServerInterceptor.sendNotification|DefaultMBeanServerInterceptor.registerWithRepository|DefaultMBeanServerInterceptor.registerDynamicMBean,0.1596069999989898,0.0,0.01802999999927124,0.0,0.17763699999826105
DegreeData.getDegree|GraphChiEngine.determineNextWindow|GraphChiEngine.run,0.6070549575018576,0.0,0.0996561023701844,0.0,0.706711059872042
DegreeData.getDegree|GraphChiEngine.initVertices|GraphChiEngine.run,0.6984446941997338,0.0,0.1162447687266671,0.0,0.8146894629264009
ExponentiallyDecayingSample.update|ExponentiallyDecayingSample.update|Histogram.update,0.04615729888141817,0.0,0.008507717829590124,0.0,0.05466501671100829
GraphChiContext.getScheduler|ConnectedComponents.update|GraphChiEngine$3.run,0.0041694474368190225,0.0,0.00036974771885191785,0.0,0.004539195155670941
GraphChiEngine$3.run|Executors$RunnableAdapter.call|FutureTask.run,0.21312205876251072,0.26090240153266503,0.03246744941732182,0.03719133192114125,0.5436832416336388
GraphChiEngine.determineNextWindow|GraphChiEngine.run|ConnectedComponents.main,0.23401839115745865,0.0,0.038160923460214186,0.0,0.27217931461767286
GraphChiEngine.execUpdates|GraphChiEngine.run|ConnectedComponents.main,0.0130272005462472,0.0,0.0020586791472640307,0.0,0.015085879693511231
GraphChiEngine.initVertices|GraphChiEngine.run|ConnectedComponents.main,2.054941427043895,0.0,0.3251715778721727,0.0,2.3801130049160677
Gregorian.newCalendarDate|GregorianCalendar.<init>|Calendar$Builder.build,0.13482666666580673,0.0,0.01764999999916957,0.0,0.1524766666649763
ImmutableDescriptor.<init>|ImmutableDescriptor.<init>|ImmutableDescriptor.<clinit>,0.046325749997777166,0.0,0.005913750001127482,0.0,0.05223949999890465
ImmutableDescriptor.makeMap|ImmutableDescriptor.makeMap|ImmutableDescriptor.<init>,0.046325749997777166,0.0,0.005913750001127482,0.0,0.05223949999890465
IntConverter.getValue|IntConverter.getValue|DataBlockManager.dereference,0.019228885963939495,0.008591899737335883,0.0027966192375714206,0.001413629136077288,0.03203103407492409
IntConverter.setValue|IntConverter.setValue|DataBlockManager.writeValue,0.02882658846803805,0.035394411199641124,0.0038898032730339356,0.005682559141084549,0.07379336208179767
LabelAnalysis$1.callback|VertexAggregator.foreach|LabelAnalysis.computeLabels,0.0,0.0,0.0,0.0,0.0
MBeanServerBuilder.newMBeanServerDelegate|MBeanServerFactory.newMBeanServer|MBeanServerFactory.createMBeanServer,0.03039549999812152,0.0,0.003014999998413259,0.0,0.03341049999653478
MBeanServerDelegate.<clinit>|JmxMBeanServer.newMBeanServerDelegate|MBeanServerBuilder.newMBeanServerDelegate,0.03039549999812152,0.0,0.003014999998413259,0.0,0.03341049999653478
MBeanServerDelegate.<init>|MBeanServerDelegateImpl.<init>|JmxMBeanServer.newMBeanServerDelegate,0.030960000003688037,0.0,0.0042900000007648495,0.0,0.035250000004452886
MemoryShard.loadAdjChunk|MemoryShard.access$000|MemoryShard$1.run,0.06468674450385978,0.0,0.006400331243063088,0.0,0.07108707574692287
NumberFormatProviderImpl.getInstance|NumberFormatProviderImpl.getIntegerInstance|NumberFormat.getInstance,0.05440266667089114,0.0,0.009640000001430357,0.0,0.06404266667232149
RandomAccessFile.read_|RandomAccessFile.readBytes|RandomAccessFile.read,0.11558494480628496,0.0,0.017115171634712073,0.0,0.13270011644099705
RandomAccessFile.writeBytes|RandomAccessFile.write|VertexData.releaseAndCommit,0.042047394770243225,0.0,0.00699825437890488,0.0,0.04904564914914811
TypeData$TypeVar.getTypeData|MapMaker.fillStackMap|MapMaker.toStackMapBody,0.011985835666697418,0.0,0.0016502896993093367,0.0,0.013636125366006755
URLClassPath$JarLoader.getResource|URLClassPath.getResource|URLClassPath.getResource,0.017476666665364366,0.0,0.0019799999984873766,0.0,0.019456666663851742
VertexAggregator.foreach|LabelAnalysis.computeLabels|ConnectedComponents.main,0.0094477782762789,0.0,0.001635236350655527,0.0,0.011083014626934427
VertexData$1.hasNext|VertexAggregator.foreach|LabelAnalysis.computeLabels,0.0,0.0,0.0,0.0,0.0
VertexData.getVertexValuePtr|GraphChiEngine.initVertices|GraphChiEngine.run,0.5072779450463828,0.0,0.08420806529847535,0.0,0.5914860103448581
VertexData.getVertexValuePtr|VertexAggregator.foreach|LabelAnalysis.computeLabels,0.0,0.0,0.0,0.0,0.0
