method,hits
AttributeInfo.<init>,2
BitsetScheduler.addTask,52
BitsetScheduler.isScheduled,50
BitsetScheduler.removeTasks,22
Chaperone.retire,2
ChiPointer.<init>,6
ChiVertex$Edge.<init>,2
ChiVertex.<init>,224
ChiVertex.getId,2
ChiVertex.getValue,6
ChiVertex.inEdge,54
ChiVertex.numEdges,6
ChiVertex.outEdge,6
ChiVertex.setDataPtr,2
ChiVertex.setValue,22
CodeAttribute.<init>,4
ConnectedComponents.update,318
DataBlockManager.dereference,32
DataBlockManager.getRawBlock,114
DataBlockManager.writeValue,10
DefaultMXBeanMappingFactory.makeCompositeMapping,2
DegreeData.getDegree,146
DegreeData.load,4
ExponentiallyDecayingSample.update,2
GraphChiContext.getIteration,4
GraphChiEngine$2.run,46
GraphChiEngine$3.run,112
GraphChiEngine.determineNextWindow,30
GraphChiEngine.initVertices,122
IntConverter.getValue,12
IntConverter.setValue,26
IntConverter.sizeOf,2
Introspector.getMXBeanInterface,2
JmxReporter.<clinit>,2
JmxReporter.<init>,2
LabelAnalysis$1.callback,2
LocaleData$1.run,2
MXBeanIntrospector.mFrom,2
MemberrefInfo.<init>,2
NOPLoggerFactory.getLogger,2
RandomAccessFile.read_,8
RandomAccessFile.writeBytes,24
VertexAggregator.foreach,10
VertexData.getVertexValuePtr,50
ZoneInfoFile.getZoneInfo,2
