method,hits
BitsetScheduler.addTask,34
BitsetScheduler.isScheduled,18
BitsetScheduler.removeTasks,18
ChiLogger$SingleLineFormatter.format,2
ChiVertex.<init>,222
ChiVertex.addOutEdge,2
ChiVertex.edge,2
ChiVertex.getValue,4
ChiVertex.inEdge,82
ChiVertex.numEdges,8
ChiVertex.numOutEdges,2
ChiVertex.setValue,16
ClassInfo.<init>,2
ConnectedComponents.update,232
DataBlockManager.dereference,12
DataBlockManager.getRawBlock,146
DataBlockManager.writeValue,2
DefaultMBeanServerInterceptor.registerDynamicMBean,2
DefaultMXBeanMappingFactory.makeCompositeMapping,2
DegreeData.getDegree,84
DegreeData.load,2
GLIBC.getCallSite,2
GraphChiContext.getScheduler,2
GraphChiEngine$2.run,6
GraphChiEngine$3.run,96
GraphChiEngine.determineNextWindow,8
GraphChiEngine.initVertices,136
ImmutableDescriptor.<init>,2
IntConverter.getValue,8
IntConverter.setValue,18
JmxMBeanServer.newMBeanServerDelegate,2
LabelAnalysis.computeLabels,2
Launcher$AppClassLoader.loadClass,2
LocaleData$1.run,2
MethodInfo.read,4
NameAndTypeInfo.<init>,2
RandomAccessFile.read_,14
RandomAccessFile.writeBytes,16
Repository.<init>,2
URLClassPath$JarLoader.getResource,2
URLClassPath.findResources,2
URLClassPath.getNextLoader,2
Unsafe.park,2
VertexAggregator.foreach,4
VertexData.getVertexValuePtr,34
