method,package1,package2,dram1,dram2,energy
AttributeInfo.<init>,0.0,0.04163339217257707,0.0,0.005030280240319026,0.046663672412896096
BitsetScheduler.addTask,0.08159653660340621,0.03421296941678727,0.01327419488274499,0.004580709920628866,0.13366441082356734
BitsetScheduler.isScheduled,45.333687938448385,0.006815333326812834,5.2941362792045705,0.0012950000006336873,50.6359345509804
BitsetScheduler.removeTasks,0.2059943322296024,0.0,0.031796730435425705,0.0,0.23779106266502809
CalendarProviderImpl.getInstance,0.0,0.0,0.0,0.0,0.0
ChiPointer.<init>,0.012420666666002944,0.05694566667079925,0.00217749999986457,0.010245000001305016,0.08178883333797178
ChiVertex$Edge.<init>,0.008275463414753265,0.0,0.0008824390244582191,0.0,0.009157902439211484
ChiVertex.<init>,4.604730219549217,0.026082333332548537,0.7759707597125087,0.004144999998970889,5.410928312593246
ChiVertex.getValue,0.014707262671409716,0.06792026868668079,0.0024976149374183023,0.00892739656384342,0.09405254285935223
ChiVertex.inEdge,0.09577821889428285,0.18207457738077001,0.011193235228415635,0.027228265040876734,0.31627429654434525
ChiVertex.outEdge,0.04571075295853101,0.01090328039198202,0.0064785817670374325,0.0012899382184257927,0.06438255333597626
ChiVertex.setDataPtr,0.06041026384982506,0.0,0.011246404441599684,0.0,0.07165666829142475
ChiVertex.setValue,0.03345823757009321,0.014908068764639753,0.00571329902995498,0.002190646853192354,0.0562702522178803
ClassFile.read,0.0,0.0872083045728783,0.0,0.010487030290996695,0.097695334863875
ConnectedComponents.update,23.31720118901189,21.258656943487097,3.0794584548169937,2.257023081869542,49.91233966918552
ConstPool.getUtf8Info,0.0,0.043841812316056585,0.0,0.0063614689985114475,0.050203281314568034
DataBlockManager.dereference,10.33192088899743,0.05548017111024827,1.3219754405723467,0.007897431173166176,11.717273931853192
DataBlockManager.getRawBlock,0.31413212521498446,0.2705524190963005,0.039025537605972084,0.036863629074723125,0.66057371099198
DataBlockManager.writeValue,8.230823809688967,0.06490660970129346,0.9591767913680664,0.00962786161200707,9.264535072370332
DefaultMXBeanMappingFactory.<init>,0.0,0.020943224366317688,0.0,0.002614047166775613,0.0235572715330933
DegreeData.<init>,0.0,0.07271902254076737,0.0,0.008554904961732387,0.08127392750249976
DegreeData.getDegree,3.609993818339168,0.15797900000082638,0.6270567121257575,0.0183200000016465,4.413349530467399
ExponentiallyDecayingSample.update,0.07110600000305567,0.0,0.011529999998553343,0.0,0.082636000001609
GraphChiEngine$2.run,0.0,0.01212110711253235,0.0,0.001803377387909473,0.013924484500441824
GraphChiEngine$3.run,0.449635432003382,10.147993454424084,0.07848359712737611,1.0833190365600347,11.759431520114875
GraphChiEngine.determineNextWindow,0.7087151033529335,0.08231633334071374,0.10626588905690577,0.008540000000114862,0.905837325750668
GraphChiEngine.initVertices,2.1514629492979167,0.06308999999115864,0.3589263978555405,0.00743999999879937,2.580919347143415
ImmutableDescriptor.makeMap,0.0,0.026730536953774132,0.0,0.0033710319377280736,0.030101568891502204
IntConverter.getValue,0.02446022594366325,0.011087208380501931,0.0068275696098759825,0.0012452463471794293,0.043620250281220595
IntConverter.setValue,0.011211673159763898,0.010271787962981897,0.0019431889508403281,0.0013654027778068636,0.024792052851392986
IntConverter.sizeOf,0.017331253429857054,0.03951639064965953,0.0024013199465504416,0.005638829658389751,0.06488779368445678
LabelAnalysis$1.callback,0.057657666659603514,0.0,0.006600000000617001,0.0,0.06425766666022051
LabelAnalysis.computeLabels,0.0,0.0,0.0,0.0,0.0
Launcher$AppClassLoader.loadClass,0.06861070588667073,0.0,0.006752941175649289,0.0,0.07536364706232002
MBeanOperationInfo.<init>,0.0,0.0808766181841013,0.0,0.010443696441076726,0.09132031462517803
MBeanServerBuilder.newMBeanServerDelegate,0.0,0.07138576113500973,0.0,0.010490986861130593,0.08187674799614032
ManagementFactoryHelper.getClassLoadingMXBean,0.0,0.05675682175145345,0.0,0.008507725659129821,0.06526454741058327
MemoryShard.loadAdjChunk,0.0,0.0,0.0,0.0,0.0
NOPLoggerFactory.getLogger,0.0,0.07138576113500973,0.0,0.010490986861130593,0.08187674799614032
NotificationBroadcasterSupport.<init>,0.0,0.06518900801896539,0.0,0.009515725252741618,0.07470473327170701
NotificationBroadcasterSupport.sendNotification,0.0,0.04819626365328709,0.0,0.00751982249335613,0.055716086146643216
NumberFormatProviderImpl.getInstance,0.0,0.03295254602236023,0.0,0.0052494497707088065,0.03820199579306904
RandomAccessFile.read_,0.25989195237482254,0.0,0.05794821428883422,0.0,0.3178401666636568
RandomAccessFile.writeBytes,0.08567266667281122,0.04616300000149446,0.019444999998086132,0.007464999999986806,0.15874566667237863
SimpleType.<clinit>,0.0,0.10173718249298712,0.0,0.01321496989876773,0.11495215239175485
SubstituteLoggerFactory.<init>,0.0,0.07610292272694487,0.0,0.009210283896969741,0.08531320662391462
SymbolTable.append,0.0,0.07122748844446111,0.0,0.010470466571875446,0.08169795501633656
VertexAggregator.foreach,0.036580083330287984,0.0,0.005912500000704313,0.0,0.042492583330992297
VertexData$1.hasNext,0.0,0.0,0.0,0.0,0.0
VertexData$1.next,0.01710016667251087,0.0,0.0021150000005339584,0.0,0.019215166673044827
VertexData.getVertexValuePtr,0.27189264211552183,0.0,0.04551245303887815,0.0,0.31740509515439996
ZoneInfoFile.getZoneInfo,0.0,0.0,0.0,0.0,0.0
