method,package1,package2,dram1,dram2,energy
BitsetScheduler.addTask|ConnectedComponents.update|GraphChiEngine$3.run,0.07330805578059513,0.11440762498633798,0.008848396866786718,0.019640798160001926,0.21620487579372175
BitsetScheduler.isScheduled|GraphChiEngine.determineNextWindow|GraphChiEngine.run,0.0,0.0,0.0,0.0,0.0
BitsetScheduler.isScheduled|GraphChiEngine.initVertices|GraphChiEngine.run,0.23714385851492964,0.0,0.03479380513903428,0.0,0.27193766365396393
BitsetScheduler.removeTasks|GraphChiEngine.run|ConnectedComponents.main,0.0966516567348712,0.0,0.014701913012924272,0.0,0.11135356974779546
ChiLogger$SingleLineFormatter.format|StreamHandler.publish|ConsoleHandler.publish,0.0,0.0,0.0,0.0,0.0
ChiVertex.<init>|GraphChiEngine.initVertices|GraphChiEngine.run,4.335513002735554,0.08278400000805655,0.6831301414214944,0.02262500000021343,5.124052144165319
ChiVertex.addOutEdge|MemoryShard.loadAdjChunk|MemoryShard.access$000,0.05174566320433944,0.0,0.009030715469524062,0.0,0.0607763786738635
ChiVertex.edge|ConnectedComponents.update|GraphChiEngine$3.run,0.0,0.08056392235711934,0.0,0.011560253362229348,0.0921241757193487
ChiVertex.getValue|ConnectedComponents.update|GraphChiEngine$3.run,0.0,1.3003247338952502,0.0,0.2307734208759783,1.5310981547712283
ChiVertex.inEdge|ChiVertex.edge|ConnectedComponents.update,0.24048341537056103,0.26341205375563276,0.027078941920163708,0.04338596822153943,0.5743603792678968
ChiVertex.numEdges|ConnectedComponents.update|GraphChiEngine$3.run,0.015916052339153473,0.02024330769274503,0.0019550877192085073,0.0037488461539629866,0.041863293905069994
ChiVertex.numOutEdges|ConnectedComponents.update|GraphChiEngine$3.run,0.0,0.0037810512816903595,0.0,0.0007038461538822723,0.004484897435572632
ChiVertex.setValue|ConnectedComponents.update|GraphChiEngine$3.run,0.019822543487855334,0.05124304916498436,0.0026220065948162497,0.009260848991440139,0.08294844823909608
ClassInfo.<init>|ConstPool.readOne|ConstPool.read,0.037039714283309884,0.0,0.004710000000029271,0.0,0.04174971428333915
ConnectedComponents.update|GraphChiEngine$2.run|Executors$RunnableAdapter.call,0.0,0.15767366666113958,0.0,0.034874999999980595,0.19254866666112017
ConnectedComponents.update|GraphChiEngine$3.run|Executors$RunnableAdapter.call,0.468607683254139,0.6510121297748166,0.05783768479125428,0.10942873474243331,1.2868862325626433
DataBlockManager.dereference|ChiVertex.getValue|ConnectedComponents.update,0.031455927532931194,0.010928887708392612,0.003890159805275574,0.0017946578072570805,0.04806963285385646
DataBlockManager.getRawBlock|DataBlockManager.dereference|ChiVertex.getValue,0.1342874638512635,0.18630745358003484,0.01548855013193649,0.02877109104857917,0.364854558611814
DataBlockManager.getRawBlock|DataBlockManager.dereference|VertexAggregator.foreach,0.004250372947675232,0.0,0.0008235077204903107,0.0,0.005073880668165543
DataBlockManager.getRawBlock|DataBlockManager.writeValue|ChiVertex.setValue,0.11390225143558413,0.12939276397053293,0.012343730496883091,0.020646706286561765,0.27628545218956196
DataBlockManager.writeValue|ChiVertex.setValue|ConnectedComponents.update,0.0,0.016235890243647525,0.0,0.0020817439025361127,0.018317634146183637
DefaultMBeanServerInterceptor.registerDynamicMBean|DefaultMBeanServerInterceptor.registerObject|DefaultMBeanServerInterceptor.registerMBean,0.05229493333802869,0.0,0.006336000000980372,0.0,0.05863093333900906
DefaultMXBeanMappingFactory.makeCompositeMapping|DefaultMXBeanMappingFactory.makeMapping|DefaultMXBeanMappingFactory.mappingForType,0.09359314285601222,0.0,0.010435714286618998,0.0,0.10402885714263121
DegreeData.getDegree|GraphChiEngine.determineNextWindow|GraphChiEngine.run,0.4462675315150192,0.10186783334453745,0.05438680242462229,0.020692500000222935,0.6232146672844018
DegreeData.getDegree|GraphChiEngine.initVertices|GraphChiEngine.run,1.1096034168997506,0.0,0.17171030149576652,0.0,1.2813137183955172
DegreeData.load|GraphChiEngine.determineNextWindow|GraphChiEngine.run,0.02772756306967276,0.0,0.005897277954551345,0.0,0.033624841024224104
GLIBC.getCallSite|Thread.start|ThreadPoolExecutor.addWorker,0.0077919999991233144,0.0,0.0013400000025285408,0.0,0.009132000001651855
GraphChiContext.getScheduler|ConnectedComponents.update|GraphChiEngine$3.run,0.004402187314744684,0.0,0.0006663960942665227,0.0,0.0050685834090112075
GraphChiEngine$2.run|Executors$RunnableAdapter.call|FutureTask.run,0.017591141228080216,0.08056392235711934,0.002382421052660429,0.011560253362229348,0.11209773800008933
GraphChiEngine$3.run|Executors$RunnableAdapter.call|FutureTask.run,0.26376666810176963,0.3930097885318238,0.031205727541227586,0.06129296184005082,0.7492751460148719
GraphChiEngine.determineNextWindow|GraphChiEngine.run|ConnectedComponents.main,0.15293383183014125,0.0,0.018825179489682813,0.0,0.17175901131982407
GraphChiEngine.initVertices|GraphChiEngine.run|ConnectedComponents.main,2.484204461962418,0.0,0.38644115934646917,0.0,2.8706456213088876
ImmutableDescriptor.<init>|ImmutableDescriptor.<init>|ImmutableDescriptor.<clinit>,0.08123386666799584,0.0,0.004215999997298544,0.0,0.08544986666529439
IntConverter.getValue|DataBlockManager.dereference|ChiVertex.getValue,0.0,0.017053772727112202,0.0,0.0043670454544388285,0.021420818181551032
IntConverter.getValue|IntConverter.getValue|DataBlockManager.dereference,0.008327798895620752,0.0,0.0016397577102028036,0.0,0.009967556605823555
IntConverter.setValue|IntConverter.setValue|DataBlockManager.writeValue,0.011593582736419864,0.13214168066696547,0.0014319269123271678,0.020004562465512753,0.16517175278122523
JmxMBeanServer.newMBeanServerDelegate|MBeanServerBuilder.newMBeanServerDelegate|MBeanServerFactory.newMBeanServer,0.053324333333875984,0.0,0.00157000000278155,0.0,0.05489433333665753
LabelAnalysis.computeLabels|ConnectedComponents.main|NativeMethodAccessorImpl.invoke0,0.009510445209709423,0.0,0.002623806815426892,0.0,0.012134252025136315
Launcher$AppClassLoader.loadClass|ClassLoader.loadClass|GraphChiEngine.initializeScheduler,0.0633605000024545,0.0,0.007357000000047264,0.0,0.07071750000250177
LocaleData$1.run|LocaleData$1.run|AccessController.doPrivileged,0.008829666665405966,0.0,0.0013599999995979788,0.0,0.010189666665003944
MethodInfo.read|MethodInfo.<init>|ClassFile.read,0.10561926667190467,0.0,0.007906000003761921,0.0,0.11352526667566659
NameAndTypeInfo.<init>|ConstPool.readOne|ConstPool.read,0.06644700000470039,0.0,0.00788499999907799,0.0,0.07433200000377838
RandomAccessFile.read_|RandomAccessFile.readBuffer|RandomAccessFile.seek,0.047078333339110635,0.0,0.004934999999629023,0.0,0.052013333338739656
RandomAccessFile.read_|RandomAccessFile.readBytes|RandomAccessFile.read,0.3005138254608075,0.0,0.03375483711374295,0.0,0.33426866257455046
RandomAccessFile.writeBytes|RandomAccessFile.write|VertexData.releaseAndCommit,0.04184050862729388,0.06050633333506994,0.008835864230459182,0.008174999999027932,0.11935770619185093
Repository.<init>|Repository.<init>|JmxMBeanServer.<init>,0.04912106666791563,0.0,0.007075999999263634,0.0,0.05619706666717927
URLClassPath$JarLoader.getResource|URLClassPath.getResource|URLClassPath.getResource,0.06420899999890631,0.0,0.006524999999480011,0.0,0.07073399999838632
URLClassPath.findResources|URLClassLoader.findResources|ClassLoader.getResources,0.06510399999873091,0.0,0.008220000000922784,0.0,0.0733239999996537
URLClassPath.getNextLoader|URLClassPath.getResource|URLClassPath.getResource,0.07830800000131906,0.0,0.007839999998395797,0.0,0.08614799999971486
Unsafe.park|LockSupport.parkNanos|AbstractQueuedSynchronizer$ConditionObject.awaitNanos,0.0,0.0,0.0,0.0,0.0
VertexAggregator.foreach|LabelAnalysis.computeLabels|ConnectedComponents.main,0.0043878733993983465,0.0,0.0008148128826140152,0.0,0.005202686282012362
VertexData.getVertexValuePtr|GraphChiEngine.initVertices|GraphChiEngine.run,0.627427435048795,0.0,0.09692048844874851,0.0,0.7243479234975434
VertexData.getVertexValuePtr|VertexAggregator.foreach|LabelAnalysis.computeLabels,0.013280579659734316,0.0,0.0024591805732732037,0.0,0.01573976023300752
