method,package1,package2,dram1,dram2,energy
AttributeInfo,0.0,0.05816649999906076,0.0,0.008249999999861757,0.06641649999892252
BitsetScheduler,0.08702462702831473,0.2120074000073752,0.012298206159680896,0.03459600000084416,0.345926233196215
CalendarProviderImpl,0.0,0.0,0.0,0.0,0.0
Chaperone,0.0,0.0,0.0,0.0,0.0
ChiVertex,0.8370897548677011,4.712718788663427,0.1331195135329203,0.7525512482195825,6.43547930528363
ChiVertex$Edge,0.0,0.000914321473009916,0.0,0.00015138905582637313,0.001065710528836289
ConnectedComponents,0.2642301684502952,0.18848790983333474,0.041301246937415284,0.03303407156988796,0.5270533967909331
DataBlockManager,0.10098626326292744,0.19571053570331268,0.01318018698154115,0.03400602891704035,0.34388301486482165
DegreeData,0.37141408902733447,2.387930914907655,0.04875260439066621,0.35209316898147985,3.1601907773071356
GraphChiContext,0.015140902438606892,0.0,0.002506868819968863,0.0,0.017647771258575754
GraphChiEngine,0.4663603940993898,86.670894100983,0.06506216131265859,9.117938134138692,96.32025479053375
GraphChiEngine$2,0.15057488714950532,0.0,0.022835426299464397,0.0,0.1734103134489697
GraphChiEngine$3,8.516313490893166,0.26332895743668666,1.005171493261594,0.04896576208344948,9.833779703674896
GraphChiEngine$GraphChiContextInternal,0.0,0.0,0.0,0.0,0.0
IntConverter,0.3318637319957345,0.18392377606517393,0.04198860456665206,0.030608128936446575,0.5883842415640071
JmxMBeanServer,0.0,0.07798775000264868,0.0,0.012134999999034337,0.09012275000168302
LabelAnalysis$1,0.0,0.0,0.0,0.0,0.0
LocaleData$1,0.0,0.0,0.0,0.0,0.0
LongVector,0.0,0.026260499995260037,0.0,0.0041400000009161895,0.030400499996176226
MBeanServerBuilder,0.0,0.02482600000075763,0.0,0.003090000001066073,0.027916000001823704
ParallelListResourceBundle,0.0,0.11039233332849108,0.0,0.015064999999594875,0.12545733332808595
SimpleType,0.0,0.058441111104912125,0.0,0.009154166667334113,0.06759527777224623
ThreadCoreMapInjector,0.0,0.026260499995260037,0.0,0.0041400000009161895,0.030400499996176226
VertexAggregator,0.0,0.019897333326904718,0.0,0.005389999999655022,0.02528733332655974
VertexData,0.08588890959549157,0.5128724563380348,0.01350135596039794,0.080080866586164,0.6923435884800883
ZoneInfoFile,0.0,0.0,0.0,0.0,0.0
