method,package1,package2,dram1,dram2,energy
chappie,0.0,0.0,0.0,0.0,0.0
com.sun.jmx.interceptor,0.0,0.038709999999911,0.0,0.006429999998848264,0.04513999999875927
com.sun.jmx.mbeanserver,0.0,0.2227376666592641,0.0,0.030861666667786062,0.25359933332705015
com.yammer.metrics,0.0,0.03793333333548314,0.0,0.005489999999554129,0.04342333333503727
edu.cmu.graphchi,3.2753327123293743,0.2300087239758165,0.5811215607950946,0.028991671602362316,4.115454668702648
edu.cmu.graphchi.apps,0.32822610274034025,3.4310504981051055,0.045962846051557926,0.3556386315284663,4.16087807842547
edu.cmu.graphchi.datablocks,0.24359171878885272,0.15644039375747146,0.03896863711144821,0.024182921307235757,0.4631836709650082
edu.cmu.graphchi.engine,2.2079777776490594,3.2844393487394186,0.3862672676499427,0.3315434456257664,6.210227839664187
edu.cmu.graphchi.engine.auxdata,2.310440568069817,0.0,0.38656898175728027,0.0,2.697009549827097
edu.cmu.graphchi.vertexdata,0.013851316734959925,0.0,0.003484967024691551,0.0,0.017336283759651475
javax.management,0.0,0.10012488888524887,0.0,0.014693333334030787,0.11481822221927966
sun.reflect,0.0,0.041992166666508034,0.0,0.006199999999807915,0.04819216666631595
sun.util.locale.provider,0.04444458027943446,0.03348800000094343,0.006936331835530151,0.004830000000462556,0.0896989121163706
