method,package1,package2,dram1,dram2,energy
chappie,0.0,0.0,0.0,0.0,0.0
com.sun.jmx.mbeanserver,0.0,0.1382739523708421,0.0,0.01925071428559022,0.15752466665643233
com.yammer.metrics,0.0,0.07484933333277391,0.0,0.010999999999815676,0.08584933333258958
com.yammer.metrics.core,0.0,0.07484933333277391,0.0,0.010999999999815676,0.08584933333258958
com.yammer.metrics.stats,0.0,0.06833900000007513,0.0,0.009659999997287134,0.07799899999736226
edu.cmu.graphchi,0.8676352332242926,3.295390825146879,0.11174864882407964,0.6115283590194563,4.886303066214707
edu.cmu.graphchi.apps,0.4423703217490253,1.6437635715602286,0.047725911615176864,0.18844654789097956,2.3223063528154104
edu.cmu.graphchi.datablocks,0.1275548425869833,0.24740738949949256,0.013870479948397045,0.041666106118423175,0.43049881815329605
edu.cmu.graphchi.engine,0.5612629793875681,20.97609961439946,0.08447960932988427,2.3925094895419345,24.014351692658842
edu.cmu.graphchi.engine.auxdata,0.2056412386783556,3.04950766128243,0.030189311250315293,0.46205860476749194,3.747396815978593
edu.cmu.graphchi.vertexdata,0.0,0.02943933333153836,0.0,0.005150000000867293,0.03458933333240565
javassist,0.0,0.0,0.0,0.0,0.0
javassist.compiler,0.0,0.0,0.0,0.0,0.0
javax.management,0.0,0.3110119999868662,0.0,0.0444642857155053,0.3554762857023715
sun.util.locale.provider,0.0,0.030843000005309783,0.0,0.004119999998996112,0.0349630000043059
