method,package1,package2,dram1,dram2,energy
BitsetScheduler,0.019914101649429444,0.04467247833689387,0.0031522318685436443,0.005962324933105046,0.073701136787972
ChiPointer,0.05657313094404762,0.009335476191370705,0.00708192972774876,0.0012278571427616822,0.07421839400592876
ChiVertex,43.37542137992655,0.21959100449618096,5.302717152077537,0.03213115631751933,48.92986069281778
ChiVertex$Edge,0.036126511560392996,0.0,0.004295171937100889,0.0,0.040421683497493886
ClassPool,0.0,0.08991144234721447,0.0,0.01168454250073864,0.10159598484795311
ConnectedComponents,0.3000010439911806,0.2799586608363606,0.03946875021983629,0.04139115336926538,0.6608196084166429
DataBlockManager,0.062209001540322884,0.06243880311535787,0.009270651827546625,0.009045786743387893,0.14296424322661527
DegreeData,1.2948155795544598,0.15085866666049694,0.21232690069451718,0.02519500000137971,1.6831961469108536
DiagnosticCommandImpl,0.0,0.09381389871387877,0.0,0.011136975484424187,0.10495087419830296
GraphChiContext,0.0,0.013580378362229835,0.0,0.002348198874227901,0.015928577236457735
GraphChiEngine,1.1347993622085881,0.0704549999985223,0.20157139544768554,0.01058000000072449,1.4174057576555203
GraphChiEngine$2,0.008336281427006379,0.010607310661379753,0.0012956854786910054,0.001546412462638017,0.021785690029715157
GraphChiEngine$3,0.2229671615121296,0.22882991374973052,0.027389571813713726,0.03580661318795389,0.5149932602635278
Gregorian,0.0,0.0871402839165193,0.0,0.012207300974874812,0.09934758489139411
IntConverter,0.18456424008138822,0.11264676429872095,0.023339045751512,0.015518048346468456,0.33606809847808966
JmxMBeanServer,0.0,0.06346173465435888,0.0,0.00890875285783496,0.07237048751219384
MBeanInfo,0.0,0.06403454325602345,0.0,0.009310876612640346,0.0733454198686638
NumberFormatProviderImpl,0.0,0.0734311737425584,0.0,0.010553005992433726,0.08398417973499213
ThreadCoreMapInjector,0.0,0.06346173465435888,0.0,0.00890875285783496,0.07237048751219384
TypeData$TypeVar,0.0,0.0,0.0,0.0,0.0
URLClassPath,0.0,0.06903382594190315,0.0,0.010429189720242631,0.07946301566214578
Util,0.0,0.10061354312489078,0.0,0.014315484708112143,0.11492902783300292
VertexAggregator,0.019307666666766938,0.0,0.0027399999986907155,0.0,0.022047666665457655
VertexData,0.23753105711018263,0.0,0.03886960657323458,0.0,0.2764006636834172
