method,package1,package2,dram1,dram2,energy
BitsetScheduler,0.0012240045363373364,0.003050568627704884,0.00020842364972212965,0.00047676470585785997,0.004959761519622211
ChiPointer,0.0,0.04412592593063082,0.0,0.006013333332871466,0.05013925926350228
ChiVertex,0.21457269595998452,5.153637843792091,0.032631755698361097,0.661011773924253,6.061854069374689
ChiVertex$Edge,0.008600424242710384,0.0,0.0012468181821256596,0.0,0.009847242424836044
ClassLoadingImpl,0.13045233333832584,0.0,0.018074999999953437,0.0,0.14852733333827928
ConnectedComponents,0.4894188433607393,1.084885586224198,0.07483042624512452,0.13332692285437397,1.7824617786844357
DataBlockManager,3.437234980174204,0.10305603506074197,0.5302832289394123,0.018379399892136838,4.088953644066495
DefaultMBeanServerInterceptor,0.03657466666274038,0.0,0.004714285715072903,0.0,0.041288952377813284
DegreeData,0.6523430248551654,0.5747308333278245,0.11132043859419559,0.09556916666709489,1.4339634634442802
FieldInfo,0.0,0.0,0.0,0.0,0.0
GraphChiContext,0.0,0.0,0.0,0.0,0.0
GraphChiEngine,0.4770197950154088,1.4113739026507741,0.08480595492218182,0.21270069840895073,2.1859003509973154
GraphChiEngine$2,0.0,0.009100195121945723,0.0,0.001372317073063885,0.010472512195009607
GraphChiEngine$3,8.548530842631612,0.25906603350120266,1.08699768372348,0.046715616673694296,9.941310176529988
ImmutableDescriptor,0.022832952378805543,0.0,0.0028171428587354178,0.0,0.02565009523754096
IntConverter,0.04019511869991727,0.023329103018498776,0.007708403580699607,0.006173081429487257,0.0774057067286029
IntegerInfo,0.0,0.0,0.0,0.0,0.0
LoggerFactory,0.04395888889363656,0.0,0.006279999999808043,0.0,0.050238888893444605
MBeanInstantiator,0.037086095242384105,0.0,0.004505714283801526,0.0,0.04159180952618563
MXBeanIntrospector,0.008300666668219492,0.0,0.0013599999995979788,0.0,0.00966066666781747
ManagementFactoryHelper,0.0674843333302609,0.0,0.007864999999583233,0.0,0.07534933332984413
MemoryShard,0.0,0.0,0.0,0.0,0.0
NOPLoggerFactory,0.04395888889363656,0.0,0.006279999999808043,0.0,0.050238888893444605
NotificationBroadcasterSupport,0.023402666667520642,0.0,0.0036657142849262094,0.0,0.02706838095244685
TypeData$TypeVar,0.0,0.0,0.0,0.0,0.0
VertexAggregator,0.0,0.0,0.0,0.0,0.0
VertexData,0.04679468954470092,0.16668688888441666,0.00730425521460419,0.02351916666662469,0.24430500031034644
ZoneInfo,0.0,0.0,0.0,0.0,0.0
