method,package1,package2,dram1,dram2,energy
BitsetScheduler.addTask|ConnectedComponents.update|GraphChiEngine$3.run,2.4928075625344475,0.0018803749997798234,0.20063196378746026,0.0002875290697586532,2.6956074303914463
BitsetScheduler.isScheduled|GraphChiEngine.determineNextWindow|GraphChiEngine.run,0.0,0.07381166666164063,0.0,0.012400000000828488,0.08621166666246911
Chaperone.retire|Chaperone.dismiss|Chaperone.main,0.0,0.0,0.0,0.0,0.0
ChiPointer.<init>|VertexData.getVertexValuePtr|GraphChiEngine.initVertices,0.0,0.20757286666193978,0.0,0.034953999998591216,0.242526866660531
ChiVertex$Edge.<init>|ChiVertex.inEdge|ChiVertex.edge,0.016521463683977847,0.0,0.002433108641017935,0.0,0.018954572324995783
ChiVertex$Edge.<init>|ChiVertex.outEdge|ChiVertex.edge,0.0,0.0011183225799487123,0.0,0.00013161290306954704,0.0012499354830182593
ChiVertex.<init>|GraphChiEngine.initVertices|GraphChiEngine.run,0.0,2.550965730932339,0.0,0.3625950357263892,2.913560766658728
ChiVertex.getId|ConnectedComponents.update|GraphChiEngine$3.run,0.0030169609760328986,0.0,0.0005124896879537087,0.0,0.0035294506639866074
ChiVertex.getValue|ConnectedComponents.update|GraphChiEngine$3.run,0.025482821976105574,0.012245731707236435,0.003936997086805786,0.0018940243902672992,0.04355957516041509
ChiVertex.inEdge|ChiVertex.edge|ConnectedComponents.update,0.29688237458996924,0.2292037393878405,0.03877092359095751,0.026199645131369537,0.5910566827001367
ChiVertex.numEdges|ConnectedComponents.update|GraphChiEngine$3.run,0.009750082738379792,0.0,0.0016736955670074564,0.0,0.011423778305387247
ChiVertex.numOutEdges|ConnectedComponents.update|GraphChiEngine$3.run,2.457045728417559,0.0,0.19540832543500616,0.0,2.652454053852565
ChiVertex.setDataPtr|GraphChiEngine.initVertices|GraphChiEngine.run,0.0,0.07759599999796288,0.0,0.013330000001587905,0.09092599999955078
ChiVertex.setValue|ConnectedComponents.update|GraphChiEngine$3.run,0.013306845336453581,0.021287069767632328,0.0022701714784799975,0.0031269767442122535,0.03999106332677816
ConnectedComponents.update|GraphChiEngine$3.run|Executors$RunnableAdapter.call,0.5378592199086388,0.45763173088108705,0.07134751865109744,0.053060279090132924,1.1198987485309562
ConstPool.getItem|ConstPool.getClassInfo|ClassFile.getInterfaces,0.0,0.05339142857424338,0.0,0.007885714285727036,0.061277142859970414
DataBlockManager.dereference|ChiVertex.getValue|ConnectedComponents.update,0.0,1.9453348682657616,0.0,0.3262368710093914,2.271571739275153
DataBlockManager.dereference|VertexAggregator.foreach|LabelAnalysis.computeLabels,0.006238447583870517,0.0,0.0012216833850132302,0.0,0.007460130968883747
DataBlockManager.getRawBlock|DataBlockManager.dereference|ChiVertex.getValue,0.08733359670721504,0.12968210467061259,0.01080155606318078,0.01978510740184238,0.24760236484285078
DataBlockManager.getRawBlock|DataBlockManager.dereference|VertexAggregator.foreach,0.02643365953599079,0.0,0.00438916907815046,0.0,0.030822828614141252
DataBlockManager.getRawBlock|DataBlockManager.writeValue|ChiVertex.setValue,0.0013495555559293953,0.012810947368914064,0.00018777777801949047,0.0015071052629010455,0.015855385965763996
DataBlockManager.writeValue|ChiVertex.setValue|ConnectedComponents.update,0.0,0.020069359205751224,0.0,0.0029363078074626727,0.023005667013213896
DegreeData.getDegree|GraphChiEngine.determineNextWindow|GraphChiEngine.run,0.0,1.858692000002419,0.0,0.30026208333411986,2.158954083336539
DegreeData.getDegree|GraphChiEngine.initVertices|GraphChiEngine.run,0.0,31.68130491129054,0.0,4.167094346457101,35.84839925774764
ExponentiallyDecayingSample.update|ExponentiallyDecayingSample.update|Histogram.update,0.0,0.0,0.0,0.0,0.0
GraphChiContext.getIteration|ConnectedComponents.update|GraphChiEngine$3.run,0.0,0.0033228837202714627,0.0,0.000515930232595988,0.0038388139528674507
GraphChiContext.getScheduler|ConnectedComponents.update|GraphChiEngine$3.run,0.010576074976620229,0.012078918293228505,0.0016344352199844374,0.0018495274390616255,0.026138955928894793
GraphChiEngine$3.run|Executors$RunnableAdapter.call|FutureTask.run,2.6938574536736626,0.2919691176638143,0.23042065601050998,0.04221518538560737,3.258462412733594
GraphChiEngine.determineNextWindow|GraphChiEngine.run|ConnectedComponents.main,0.0,0.5271029018349813,0.0,0.09030582192211652,0.6174087237570979
GraphChiEngine.initVertices|GraphChiEngine.run|ConnectedComponents.main,0.0,32.32227340001505,0.0,4.224192999999589,36.54646640001464
ImmutableDescriptor.makeMap|ImmutableDescriptor.makeMap|ImmutableDescriptor.<init>,0.0,0.0420269047650176,0.0,0.006882142856955484,0.04890904762197309
IntConverter.getValue|IntConverter.getValue|DataBlockManager.dereference,0.0,0.020133342941648532,0.0,0.002067583148589886,0.022200926090238417
IntConverter.sizeOf|DataBlockManager.writeValue|ChiVertex.setValue,0.00943247455103059,0.0,0.003292703533126993,0.0,0.012725178084157584
JmxMBeanServer.<init>|JmxMBeanServer.newMBeanServer|MBeanServerBuilder.newMBeanServer,0.0,0.05339142857424338,0.0,0.007885714285727036,0.061277142859970414
LabelAnalysis$1.callback|VertexAggregator.foreach|LabelAnalysis.computeLabels,0.0,0.0,0.0,0.0,0.0
LoggerFactory.<clinit>|JmxReporter.<clinit>|Metrics.<clinit>,0.0,0.06359866666025482,0.0,0.011030000000270471,0.0746286666605253
MXBeanIntrospector.mFrom|MXBeanIntrospector.mFrom|MBeanAnalyzer.initMaps,0.0,0.025125999993178997,0.0,0.004119999998996112,0.029245999992175108
MapMaker.mergeMap|MapMaker.traceException|MapMaker.make,0.0,0.0,0.0,0.0,0.0
MemoryShard.loadAdjChunk|MemoryShard.access$000|MemoryShard$1.run,0.0,0.0,0.0,0.0,0.0
NOPLoggerFactory.getLogger|LoggerFactory.getLogger|LoggerFactory.getLogger,0.0,0.06359866666025482,0.0,0.011030000000270471,0.0746286666605253
VertexAggregator.foreach|LabelAnalysis.computeLabels|ConnectedComponents.main,0.0,0.0,0.0,0.0,0.0
VertexData.getVertexValuePtr|GraphChiEngine.initVertices|GraphChiEngine.run,0.0,0.32401566666764364,0.0,0.052339999998973014,0.3763556666666167
VertexData.getVertexValuePtr|VertexAggregator.foreach|LabelAnalysis.computeLabels,0.010186925573650163,0.0,0.0012110913971690176,0.0,0.01139801697081918
