dram,epoch,package,socket
0.0,0,0.0,1
0.0,1,0.0,1
0.17410500000187312,2,1.663514000014402,1
0.0,3,0.0,1
0.004019999996671686,4,0.040892999997595325,1
0.0,5,0.0,1
0.004080000002431916,6,0.035644999996293336,1
0.0,7,0.0,1
0.004080000002431916,8,0.03460699999413919,1
0.0,9,0.0,1
0.03035999999701744,10,0.2738640000025043,1
0.0,11,0.0,1
0.004079999998793937,12,0.03326500000548549,1
0.0,13,0.0,1
0.004080000002431916,14,0.034544999987701885,1
0.0,15,0.0,1
0.0,16,0.0,1
0.0,17,0.0,1
0.002909999999246793,18,0.03595000000495929,1
0.0,19,0.0,1
0.023939999999129213,20,0.25036599999293685,1
0.0,21,0.0,1
0.002970000001369044,22,0.029419000013149343,1
0.0,23,0.0,1
0.008774999998422572,24,0.06976299999223556,1
0.0,25,0.0,1
0.01653000000078464,26,0.1819460000115214,1
0.0,27,0.0,1
0.01238999999986845,28,0.20837399999436457,1
0.0,29,0.0,1
0.033090000000811415,30,0.3736579999967944,1
0.0,31,0.0,1
0.004079999998793937,32,0.03631499999028165,1
0.0,33,0.0,1
0.025724999999511056,34,0.23492500001157168,1
0.0,35,0.0,1
0.00893999999971129,36,0.17205799999646842,1
0.0,37,0.0,1
0.007140000001527369,38,0.15240500000072643,1
0.0,39,0.0,1
0.04486499999984517,40,0.39825399999972433,1
0.0,41,0.0,1
0.01224000000001979,42,0.08837900000798982,1
0.0,43,0.0,1
0.01171500000054948,44,0.15563999999722,1
0.0,45,0.0,1
0.010739999997895211,46,0.18090799999481533,1
0.0,47,0.0,1
0.012344999999186257,48,0.159667999992962,1
0.0,49,0.0,1
0.019920000002457527,50,0.2860720000026049,1
0.0,51,0.0,1
0.011070000000472646,52,0.09466499999689404,1
0.0,53,0.0,1
0.01983000000109314,54,0.21313500001269858,1
0.0,55,0.0,1
0.014100000000325963,56,0.1880490000039572,1
0.0,57,0.0,1
0.014219999997294508,58,0.19018599999253638,1
0.0,59,0.0,1
0.022349999999278225,60,0.2942500000062864,1
0.0,61,0.0,1
0.012810000000172295,62,0.12243699999817181,1
0.0,63,0.0,1
0.02682000000277185,64,0.251403999995091,1
0.0,65,0.0,1
0.023279999997612322,66,0.2533560000010766,1
0.0,67,0.0,1
0.03381000000081258,68,0.276612000001478,1
0.0,69,0.0,1
0.22186499999952503,70,2.2260740000056103,1
0.0,71,0.0,1
0.0029100000028847717,72,0.030883999992511235,1
0.0,73,0.0,1
0.0,74,0.0,1
0.0,75,0.0,1
0.0017399999960616697,76,0.02954100001079496,1
0.0,77,0.0,1
0.0,78,0.0,1
0.0,79,0.0,1
0.016200000001845183,80,0.13128599998890422,1
0.0,81,0.0,1
0.004079999998793937,82,0.03143400000408292,1
0.0,83,0.0,1
0.0,84,0.0,1
0.0,85,0.0,1
0.015255000002071029,86,0.1529539999901317,1
0.0,87,0.0,1
0.01652999999714666,88,0.2180170000065118,1
0.0,89,0.0,1
0.021225000000413274,90,0.298278999995091,1
0.0,91,0.0,1
0.011655000002065208,92,0.11120600001595449,1
0.0,93,0.0,1
0.016425000001618173,94,0.231750999999349,1
0.0,95,0.0,1
0.019859999996697297,96,0.2391959999804385,1
0.0,97,0.0,1
0.030360000000655418,98,0.25293000001693144,1
0.0,99,0.0,1
0.03678000000218162,100,0.4157719999930123,1
0.0,101,0.0,1
0.01112999999531894,102,0.09313900000415742,1
0.0,103,0.0,1
0.031440000002476154,104,0.27624499998637475,1
0.0,105,0.0,1
0.032309999998688,106,0.28424100001575425,1
0.0,107,0.0,1
0.032265000001643784,108,0.2799679999880027,1
0.0,109,0.0,1
0.03901499999847147,110,0.3544919999985723,1
0.0,111,0.0,1
0.019125000002532033,112,0.167847000004258,1
0.0,113,0.0,1
0.02448000000003958,114,0.22467100000358187,1
0.0,115,0.0,1
0.023339999996096594,116,0.22723299999779556,1
0.0,117,0.0,1
0.021090000002004672,118,0.2276010000059614,1
0.0,119,0.0,1
0.03342000000338885,120,0.3041380000067875,1
0.0,121,0.0,1
0.023939999995491235,122,0.19518999998399522,1
0.0,123,0.0,1
0.04009500000393018,124,0.34594700000889134,1
0.0,125,0.0,1
0.02216999999654945,126,0.19738800000050105,1
0.0,127,0.0,1
0.03246000000217464,128,0.2567750000016531,1
0.0,129,0.0,1
0.04786500000045635,130,0.39508099999511614,1
0.0,131,0.0,1
0.00698999999804073,132,0.05932600000232924,1
0.0,133,0.0,1
0.017609999998967396,134,0.21099799999501556,1
0.0,135,0.0,1
0.014220000004570466,136,0.19830399999045767,1
0.0,137,0.0,1
0.014159999998810235,138,0.19372500000463333,1
0.0,139,0.0,1
0.031575000000884756,140,0.3818969999992987,1
0.0,141,0.0,1
0.005849999997735722,142,0.05828900000778958,1
0.0,143,0.0,1
0.015390000000479631,144,0.19421399998827837,1
0.0,145,0.0,1
0.012344999999186257,146,0.17468200001167133,1
0.0,147,0.0,1
0.01757999999972526,148,0.20159900000726338,1
0.0,149,0.0,1
0.06319499999881373,150,0.518432999990182,1
0.0,151,0.0,1
0.004080000002431916,152,0.029418999998597428,1
0.0,153,0.0,1
0.01643999999942025,154,0.17144800000824034,1
0.0,155,0.0,1
0.021075000000564614,156,0.21624700000393204,1
0.0,157,0.0,1
0.016424999997980194,158,0.219543999992311,1
0.0,159,0.0,1
0.04492500000196742,160,0.48937899999145884,1
0.0,161,0.0,1
0.01013999999850057,162,0.06414800000493415,1
0.0,163,0.0,1
0.01885500000207685,164,0.16705400000500958,1
0.0,165,0.0,1
0.04018499999801861,166,0.3525389999995241,1
0.0,167,0.0,1
0.024015000002691522,168,0.22778299999481533,1
0.0,169,0.0,1
0.18797999999515014,170,1.288025000001653,1
0.0,171,0.0,1
0.006060000003344612,172,0.03790300000400748,1
0.0,173,0.0,1
0.006059999999706633,174,0.04144299999461509,1
0.0,175,0.0,1
0.006030000000464497,176,0.043762000001152046,1
0.0,177,0.0,1
0.06091499999820371,178,0.3871460000082152,1
0.0,179,0.0,1
0.11445000000094296,180,0.7513429999962682,1
0.0,181,0.0,1
0.3163649999987683,182,1.996642999991309,1
0.0,183,0.0,1
0.08947500000067521,184,0.4660030000086408,1
0.0,185,0.0,1
0.006930000003194436,186,0.08679200000187848,1
0.0,187,0.0,1
0.00803999999698135,188,0.04217499999504071,1
0.0,189,0.0,1
0.39416999999957625,190,2.3594969999976456,1
0.0,191,0.0,1
0.008894999999029096,192,0.05218500000773929,1
0.0,193,0.0,1
0.009060000000317814,194,0.045471999983419664,1
0.0,195,0.0,1
0.20025000000168802,196,1.2208250000112457,1
0.0,197,0.0,1
0.00698999999804073,198,0.04718000000866596,1
0.0,199,0.0,1
0.09315000000060536,200,0.5688479999953415,1
0.0,201,0.0,1
0.014009999998961575,202,0.08355699999083299,1
0.0,203,0.0,1
0.2743200000040815,204,1.593445000005886,1
0.0,205,0.0,1
0.07441499999913503,206,0.48181100000510924,1
0.0,207,0.0,1
0.007994999999937136,208,0.044250999999349006,1
0.0,209,0.0,1
0.48986999999760883,210,3.443602999992436,1
0.0,211,0.0,1
0.12096000000383356,212,1.1258549999911338,1
0.0,213,0.0,1
0.008804999997664709,214,0.09930400001758244,1
0.0,215,0.0,1
0.0038099999983387534,216,0.04730199999175966,1
0.0,217,0.0,1
0.019814999999653082,218,0.1977539999934379,1
0.0,219,0.0,1
0.06717000000207918,220,0.4994510000105947,1
0.0,221,0.0,1
0.11793000000034226,222,0.7346189999952912,1
0.0,223,0.0,1
0.008024999999179272,224,0.04925500000535976,1
0.0,225,0.0,1
0.008024999999179272,226,0.052429000003030524,1
0.0,227,0.0,1
0.00811500000054366,228,0.04772999999113381,1
0.0,229,0.0,1
0.20075999999971827,230,1.1828000000095926,1
0.0,231,0.0,1
0.008099999999103602,232,0.044005999981891364,1
0.0,233,0.0,1
0.008085000001301523,234,0.044861000002129,1
0.0,235,0.0,1
0.7212450000006356,236,4.582886000003782,1
0.0,237,0.0,1
0.013995000001159497,238,0.08612100000027567,1
0.0,239,0.0,1
0.7496549999996205,240,5.156128000002354,1
0.0,241,0.0,1
0.050519999997050036,242,0.2969359999988228,1
0.0,243,0.0,1
0.007020000004558824,244,0.045349000007263385,1
0.0,245,0.0,1
0.007019999997282866,246,0.046080999993137084,1
0.0,247,0.0,1
0.0070500000001629815,248,0.04248100001132116,1
0.0,249,0.0,1
0.21943499999906635,250,1.468261000001803,1
0.0,251,0.0,1
0.07554000000163796,252,0.5336309999838704,1
0.0,253,0.0,1
0.0070500000001629815,254,0.044372000003932044,1
0.0,255,0.0,1
0.19258499999705236,256,1.2241830000129994,1
0.0,257,0.0,1
0.0,258,0.0,1
0.0,259,0.0,1
0.05274000000281376,260,0.415709999986575,1
0.0,261,0.0,1
0.01179000000047381,262,0.10089100000914186,1
0.0,263,0.0,1
0.0,264,0.0,1
0.0,265,0.0,1
0.007034999998722924,266,0.04028299999481533,1
0.0,267,0.0,1
0.0049800000015238766,268,0.04040600000007544,1
0.0,269,0.0,1
0.042119999998249114,270,0.34948699999949895,1
0.0,271,0.0,1
0.004005000002507586,272,0.04315199999837205,1
0.0,273,0.0,1
0.0039599999981874134,274,0.04388399999879766,1
0.0,275,0.0,1
0.004004999998869607,276,0.04077099999994971,1
0.0,277,0.0,1
0.004005000002507586,278,0.041320999996969476,1
0.0,279,0.0,1
0.0485099999968952,280,0.377013999997871,1
0.0,281,0.0,1
0.1420350000007602,282,0.9144900000101188,1
0.0,283,0.0,1
0.0070500000001629815,284,0.04779100000450853,1
0.0,285,0.0,1
0.007020000000920845,286,0.0517579999868758,1
0.0,287,0.0,1
0.0,288,0.0,1
0.0,289,0.0,1
0.057509999998728745,290,0.4584350000077393,1
0.0,291,0.0,1
0.010995000000548316,292,0.10089099999458995,1
0.0,293,0.0,1
0.006120000001828885,294,0.05401600000914186,1
0.0,295,0.0,1
0.006119999998190906,296,0.05090299999574199,1
0.0,297,0.0,1
0.006059999999706633,298,0.0522460000065621,1
0.0,299,0.0,1
0.04377000000022235,300,0.41326899999694433,1
0.0,301,0.0,1
0.006105000000388827,302,0.051269999996293336,1
0.0,303,0.0,1
0.0,304,0.0,1
0.0,305,0.0,1
0.006059999999706633,306,0.0536500000016531,1
0.0,307,0.0,1
0.006000000001222361,308,0.05676200000743847,1
0.0,309,0.0,1
0.05377500000031432,310,0.4724129999958677,1
0.0,311,0.0,1
0.17250000000058208,312,1.459166999993613,1
0.0,313,0.0,1
0.006000000001222361,314,0.04986600000120234,1
0.0,315,0.0,1
0.006014999995386461,316,0.05175800000142772,1
0.0,317,0.0,1
0.006075000001146691,318,0.050353999991784804,1
0.0,319,0.0,1
0.3846450000019104,320,3.2318110000051092,1
0.0,321,0.0,1
0.009869999998045387,322,0.10070799999812152,1
0.0,323,0.0,1
0.0037950000005366746,324,0.04901100001006853,1
0.0,325,0.0,1
0.0,326,0.0,1
0.0,327,0.0,1
0.004935000000841683,328,0.04949999999371357,1
0.0,329,0.0,1
0.18391500000143424,330,1.659667999992962,1
0.0,331,0.0,1
0.005969999998342246,332,0.048645000002579764,1
0.0,333,0.0,1
0.006059999999706633,334,0.050476000003982335,1
0.0,335,0.0,1
0.004934999997203704,336,0.05126899998867884,1
0.0,337,0.0,1
0.004935000004479662,338,0.0502320000086911,1
0.0,339,0.0,1
0.24352499999804422,340,2.081237999998848,1
0.0,341,0.0,1
0.04072500000256696,342,0.41943400001036935,1
0.0,343,0.0,1
0.004019999996671686,344,0.04785099999571685,1
0.0,345,0.0,1
0.01194000000032247,346,0.13098199998785276,1
0.0,347,0.0,1
0.007799999999406282,348,0.09655700001167133,1
0.0,349,0.0,1
0.12787500000194996,350,1.2377319999941392,1
0.0,351,0.0,1
0.007559999998193234,352,0.10607900000468362,1
0.0,353,0.0,1
0.003810000001976732,354,0.05249099999491591,1
0.0,355,0.0,1
0.0,356,0.0557249999983469,1
0.0,357,0.0,1
0.003824999999778811,358,0.04992600000696257,1
0.0,359,0.0,1
0.5626049999991665,360,5.29699800000526,1
0.0,361,0.0,1
0.007679999998799758,362,0.10516300000017509,1
0.0,363,0.0,1
0.20239500000025146,364,2.1083989999897312,1
0.0,365,0.0,1
0.004965000003721798,366,0.05603000000701286,1
0.0,367,0.0,1
0.00496499999644584,368,0.0,1
0.0,369,0.0,1
0.04739999999947031,370,0.4775389999849722,1
0.0,371,0.0,1
0.006045000001904555,372,0.05932600000232924,1
0.0,373,0.0,1
0.006150000001071021,374,0.04663100000470877,1
0.0,375,0.0,1
0.0061649999988731,376,0.048278999995091,1
0.0,377,0.0,1
0.004935000000841683,378,0.05505300000368152,1
0.0,379,0.0,1
0.04307999999582535,380,0.41339200000220444,1
0.0,381,0.0,1
0.0038400000012188684,382,0.05267300001287367,1
0.0,383,0.0,1
0.006120000001828885,384,0.05432099998870399,1
0.0,385,0.0,1
0.006044999998266576,386,0.052429000003030524,1
0.0,387,0.0,1
0.006045000001904555,388,0.056945999996969476,1
0.0,389,0.0,1
0.13263000000006286,390,1.1654050000070129,1
0.0,391,0.0,1
0.00601499999902444,392,0.04608199998619966,1
0.0,393,0.0,1
0.01210499999797321,394,0.09875500001362525,1
0.0,395,0.0,1
0.005955000004178146,396,0.05480899999383837,1
0.0,397,0.0,1
0.006044999998266576,398,0.04925599999842234,1
0.0,399,0.0,1
0.04846499999985099,400,0.38946500000020023,1
0.0,401,0.0,1
0.011984999997366685,402,0.10504199999559205,1
0.0,403,0.0,1
0.006015000002662418,404,0.04638600000180304,1
0.0,405,0.0,1
0.00608999999894877,406,0.04461700000683777,1
0.0,407,0.0,1
0.006150000001071021,408,0.04272500000661239,1
0.0,409,0.0,1
0.05611499999940861,410,0.4390259999927366,1
0.0,411,0.0,1
0.005970000001980225,412,0.04589799999666866,1
0.0,413,0.0,1
0.0120150000002468,414,0.09857200000260491,1
0.0,415,0.0,1
0.005955000000540167,416,0.051635999989230186,1
0.0,417,0.0,1
0.005984999999782303,418,0.05010900000343099,1
0.0,419,0.0,1
0.05431500000122469,420,0.4525760000105947,1
0.0,421,0.0,1
0.012059999997291015,422,0.09905999999318738,1
0.0,423,0.0,1
0.006119999998190906,424,0.051453000007313676,1
0.0,425,0.0,1
0.0037650000012945384,426,0.0549310000060359,1
0.0,427,0.0,1
0.0049499999986437615,428,0.046020999987376854,1
0.0,429,0.0,1
0.05319000000235974,430,0.46173100000305567,1
0.0,431,0.0,1
0.005954999996902188,432,0.05639599999994971,1
0.0,433,0.0,1
0.0060900000025867485,434,0.046875,1
0.0,435,0.0,1
0.006045000001904555,436,0.050965000002179295,1
0.0,437,0.0,1
0.006089999995310791,438,0.051207999989856035,1
0.0,439,0.0,1
0.05414999999993597,440,0.45898500000475906,1
0.0,441,0.0,1
0.1630200000035984,442,1.3345330000011018,1
0.0,443,0.0,1
0.005954999996902188,444,0.048034999999799766,1
0.0,445,0.0,1
0.005895000002055895,446,0.054321000003255904,1
0.0,447,0.0,1
0.005760000000009313,448,0.05065900000045076,1
0.0,449,0.0,1
0.04719000000113738,450,0.4213259999960428,1
0.0,451,0.0,1
0.011759999997593695,452,0.10070800001267344,1
0.0,453,0.0,1
0.005925000001298031,454,0.05157499999040738,1
0.0,455,0.0,1
0.13661999999749241,456,1.09301699999196,1
0.0,457,0.0,1
0.008160000004863832,458,0.053345000007539056,1
0.0,459,0.0,1
0.571154999997816,460,4.756896999999299,1
0.0,461,0.0,1
0.006120000001828885,462,0.048095999998622574,1
0.0,463,0.0,1
0.0,464,0.0,1
0.0,465,0.0,1
0.0049499999986437615,466,0.053771999999298714,1
0.0,467,0.0,1
0.0,468,0.0,1
0.0,469,0.0,1
0.06221999999979744,470,0.5708620000077644,1
0.0,471,0.0,1
0.012119999999413267,472,0.10699399998702575,1
0.0,473,0.0,1
0.0,474,0.0,1
0.0,475,0.0,1
0.006120000001828885,476,0.048828000013600104,1
0.0,477,0.0,1
0.006059999999706633,478,0.05206299999554176,1
0.0,479,0.0,1
0.11557499999980791,480,1.0029300000023795,1
0.0,481,0.0,1
0.012059999997291015,482,0.10369899999932386,1
0.0,483,0.0,1
0.0049050000015995465,484,0.05206299999554176,1
0.0,485,0.0,1
0.0,486,0.0,1
0.0,487,0.0,1
0.00495000000228174,488,0.05310000000463333,1
0.0,489,0.0,1
0.04018499999801861,490,0.3649909999949159,1
0.0,491,0.0,1
0.006030000000464497,492,0.05474799999501556,1
0.0,493,0.0,1
0.006029999996826518,494,0.0516360000037821,1
0.0,495,0.0,1
0.005880000004253816,496,0.05310000000463333,1
0.0,497,0.0,1
0.0058649999991757795,498,0.04986600000120234,1
0.0,499,0.0,1
0.042029999996884726,500,0.31976299999223556,1
0.0,501,0.0,1
0.01179000000047381,502,0.1066290000162553,1
0.0,503,0.0,1
0.0,504,0.0,1
0.0,505,0.0,1
0.005880000004253816,506,0.051146999991033226,1
0.0,507,0.0,1
0.005939999995462131,508,0.050292999992961995,1
0.0,509,0.0,1
0.04242000000158441,510,0.37060599999676924,1
0.0,511,0.0,1
0.005909999999857973,512,0.04901100001006853,1
0.0,513,0.0,1
0.005925000001298031,514,0.05255100000067614,1
0.0,515,0.0,1
0.011774999999033753,516,0.10284399999363814,1
0.0,517,0.0,1
0.005909999999857973,518,0.051453000007313676,1
0.0,519,0.0,1
0.03562500000043656,520,0.3117070000007516,1
0.0,521,0.0,1
0.0059399999991001096,522,0.05010899998887908,1
0.0,523,0.0,1
0.005909999999857973,524,0.05487100000027567,1
0.0,525,0.0,1
0.0,526,0.0,1
0.0,527,0.0,1
0.005925000001298031,528,0.05267300001287367,1
0.0,529,0.0,1
0.057209999999031425,530,0.4729010000010021,1
0.0,531,0.0,1
0.0069149999981164,532,0.054137999992235564,1
0.0,533,0.0,1
0.006960000002436573,534,0.051025000007939525,1
0.0,535,0.0,1
0.005834999999933643,536,0.053893999982392415,1
0.0,537,0.0,1
0.0,538,0.0,1
0.0,539,0.0,1
0.26560500000050524,540,1.9963990000105696,1
0.0,541,0.0,1
0.07498499999928754,542,0.5175170000002254,1
0.0,543,0.0,1
0.008085000001301523,544,0.052184999993187375,1
0.0,545,0.0,1
0.006975000000238651,546,0.05175800000142772,1
0.0,547,0.0,1
0.008069999999861466,548,0.053345000007539056,1
0.0,549,0.0,1
0.13079999999899883,550,0.9505619999981718,1
0.0,551,0.0,1
0.007980000002135057,552,0.052429000003030524,1
0.0,553,0.0,1
0.008054999998421408,554,0.05261199999949895,1
0.0,555,0.0,1
0.008084999997663544,556,0.050841999996919185,1
0.0,557,0.0,1
0.09126000000105705,558,0.6300659999978961,1
0.0,559,0.0,1
0.03487500000119326,560,0.313293999992311,1
0.0,561,0.0,1
0.005925000001298031,562,0.056396000014501624,1
0.0,563,0.0,1
0.005999999997584382,564,0.05139199999393895,1
0.0,565,0.0,1
0.0059399999991001096,566,0.053283000001101755,1
0.0,567,0.0,1
0.0,568,0.0,1
0.0,569,0.0,1
0.035579999999754364,570,0.3160400000051595,1
0.0,571,0.0,1
0.08482500000172877,572,0.7309580000001006,1
0.0,573,0.0,1
0.0,574,0.0,1
0.0,575,0.0,1
0.00601499999902444,576,0.049254999990807846,1
0.0,577,0.0,1
0.0060900000025867485,578,0.04809600001317449,1
0.0,579,0.0,1
0.029804999998304993,580,0.2581169999903068,1
0.0,581,0.0,1
0.005924999997660052,582,0.049927000000025146,1
0.0,583,0.0,1
0.005880000004253816,584,0.05456499999854714,1
0.0,585,0.0,1
0.0,586,0.0,1
0.0,587,0.0,1
0.0059099999962199945,588,0.0510260000010021,1
0.0,589,0.0,1
0.10689000000274973,590,0.9681390000041574,1
0.0,591,0.0,1
0.011879999998200219,592,0.1013189999939641,1
0.0,593,0.0,1
0.005910000003495952,594,0.05004899999767076,1
0.0,595,0.0,1
0.0,596,0.0,1
0.0,597,0.0,1
0.017789999994420214,598,0.15185500000370666,1
0.0,599,0.0,1
0.08536500000263914,600,0.7254640000028303,1
0.0,601,0.0,1
0.04797000000326079,602,0.4028319999924861,1
0.0,603,0.0,1
0.011999999998806743,604,0.10003699999651872,1
0.0,605,0.0,1
0.029954999998153653,606,0.3442990000039572,1
0.0,607,0.0,1
0.03493499999967753,608,0.41735800000606105,1
0.0,609,0.0,1
0.06372000000192202,610,0.49908499998855405,1
0.0,611,0.0,1
0.011609999997745035,612,0.17291200000909157,1
0.0,613,0.0,1
0.03570000000036089,614,0.38415600000007544,1
0.0,615,0.0,1
0.03175499999997555,616,0.34667899999476504,1
0.0,617,0.0,1
0.029535000001487788,618,0.3001100000110455,1
0.0,619,0.0,1
0.04801500000030501,620,0.5035399999906076,1
0.0,621,0.0,1
0.015899999998509884,622,0.16229300000122748,1
0.0,623,0.0,1
0.03612000000066473,624,0.36767600000894163,1
0.0,625,0.0,1
0.031575000000884756,626,0.3341059999947902,1
0.0,627,0.0,1
0.03170999999929336,628,0.35156299998925533,1
0.0,629,0.0,1
0.04978499999924679,630,0.5084220000135247,1
0.0,631,0.0,1
0.011699999999109423,632,0.1298220000026049,1
0.0,633,0.0,1
0.035640000001876615,634,0.37475599999015685,1
0.0,635,0.0,1
0.028139999998529674,636,0.28350800000771414,1
0.0,637,0.0,1
0.0321750000002794,638,0.30200199999671895,1
0.0,639,0.0,1
0.042390000002342276,640,0.39294499999959953,1
0.0,641,0.0,1
0.019109999997453997,642,0.16876200000115205,1
0.0,643,0.0,1
0.018645000000105938,644,0.24035599999479018,1
0.0,645,0.0,1
0.024510000002919696,646,0.2302250000066124,1
0.0,647,0.0,1
0.023414999996020924,648,0.20288100000470877,1
0.0,649,0.0,1
0.025260000002162997,650,0.26391599999624304,1
0.0,651,0.0,1
0.012285000000701984,652,0.11035099999571685,1
0.0,653,0.0,1
0.014159999998810235,654,0.16540600000007544,1
0.0,0,0.0,2
0.0,1,0.0,2
0.2298899999987043,2,1.799377999996068,2
0.0,3,0.0,2
0.005130000001372537,4,0.0405880000180332,2
0.0,5,0.0,2
0.004020000000309665,6,0.04229800000030082,2
0.0,7,0.0,2
0.004080000000612927,8,0.03961099998559803,2
0.0,9,0.0,2
0.03266999999868858,10,0.2683109999925364,2
0.0,11,0.0,2
0.004080000000612927,12,0.034302000000025146,2
0.0,13,0.0,2
0.004080000000612927,14,0.03356900000653695,2
0.0,15,0.0,2
0.0,16,0.0,2
0.0,17,0.0,2
0.004079999998793937,18,0.0325320000119973,2
0.0,19,0.0,2
0.03244500000073458,20,0.285277999995742,2
0.0,21,0.0,2
0.004079999998793937,22,0.033997000005911104,2
0.0,23,0.0,2
0.012300000000323053,24,0.10632299997087102,2
0.0,25,0.0,2
0.03288000000065949,26,0.2761840000166558,2
0.0,27,0.0,2
0.03694499999983236,28,0.26959199998236727,2
0.0,29,0.0,2
0.058469999999942956,30,0.42639200000849087,2
0.0,31,0.0,2
0.004080000000612927,32,0.032837000020663254,2
0.0,33,0.0,2
0.03272999999899184,34,0.255431999990833,2
0.0,35,0.0,2
0.03298500000164495,36,0.24652099999366328,2
0.0,37,0.0,2
0.032939999999143765,38,0.23822000001382548,2
0.0,39,0.0,2
0.06336000000010245,40,0.48675599999842234,2
0.0,41,0.0,2
0.012329999999565189,42,0.10223299998324364,2
0.0,43,0.0,2
0.024600000000646105,44,0.1860970000125235,2
0.0,45,0.0,2
0.03290999999990163,46,0.2438959999999497,2
0.0,47,0.0,2
0.0328799999988405,48,0.2730710000032559,2
0.0,49,0.0,2
0.05334000000038941,50,0.390625,2
0.0,51,0.0,2
0.01224000000001979,52,0.10620199999539182,2
0.0,53,0.0,2
0.03280500000073516,54,0.25024400000984315,2
0.0,55,0.0,2
0.03299999999944703,56,0.25787299998046365,2
0.0,57,0.0,2
0.03288000000065949,58,0.2656860000133747,2
0.0,59,0.0,2
0.04934999999932188,60,0.4016119999869261,2
0.0,61,0.0,2
0.01645499999904132,62,0.1317739999940386,2
0.0,63,0.0,2
0.03276000000187196,64,0.29449500000919215,2
0.0,65,0.0,2
0.032939999999143765,66,0.29315199999837205,2
0.0,67,0.0,2
0.05184000000008382,68,0.35302699999010656,2
0.0,69,0.0,2
0.32805000000007567,70,2.3602910000190604,2
0.0,71,0.0,2
0.004080000000612927,72,0.0361329999868758,2
0.0,73,0.0,2
0.0,74,0.0,2
0.0,75,0.0,2
0.004020000000309665,76,0.040710000015678816,2
0.0,77,0.0,2
0.0,78,0.0,2
0.0,79,0.0,2
0.01946999999927357,80,0.17767299999832176,2
0.0,81,0.0,2
0.005144999999174615,82,0.04388499999186024,2
0.0,83,0.0,2
0.0,84,0.0,2
0.0,85,0.0,2
0.024600000000646105,86,0.2465210000082152,2
0.0,87,0.0,2
0.032864999999219435,88,0.27874700000393204,2
0.0,89,0.0,2
0.049080000000685686,90,0.42492700000002515,2
0.0,91,0.0,2
0.01637999999911699,92,0.15209999999206048,2
0.0,93,0.0,2
0.03277499999967404,94,0.2882079999981215,2
0.0,95,0.0,2
0.03282000000035623,96,0.3018799999845214,2
0.0,97,0.0,2
0.03367500000058499,98,0.3218990000023041,2
0.0,99,0.0,2
0.051195000000006985,100,0.5224610000150278,2
0.0,101,0.0,2
0.008219999999710126,102,0.1297000000049593,2
0.0,103,0.0,2
0.03252000000065891,104,0.36236499997903593,2
0.0,105,0.0,2
0.04004999999961001,106,0.39373800001339987,2
0.0,107,0.0,2
0.04642500000045402,108,0.39703399999416433,2
0.0,109,0.0,2
0.05340000000069267,110,0.4902340000116965,2
0.0,111,0.0,2
0.023564999999507563,112,0.20690900000045076,2
0.0,113,0.0,2
0.03265499999906751,114,0.3350829999835696,2
0.0,115,0.0,2
0.032640000001265435,116,0.32379200001014397,2
0.0,117,0.0,2
0.03269999999974971,118,0.33129899999767076,2
0.0,119,0.0,2
0.04723499999818159,120,0.4198000000033062,2
0.0,121,0.0,2
0.028485000002547167,122,0.27526800001214724,2
0.0,123,0.0,2
0.05266499999743246,124,0.4281009999976959,2
0.0,125,0.0,2
0.02959500000179105,126,0.30255100000067614,2
0.0,127,0.0,2
0.03464999999960128,128,0.3341059999947902,2
0.0,129,0.0,2
0.05730000000039581,130,0.5368660000094678,2
0.0,131,0.0,2
0.008219999999710126,132,0.07690399998682551,2
0.0,133,0.0,2
0.028874999999970896,134,0.29925500000535976,2
0.0,135,0.0,2
0.03299999999944703,136,0.3085940000019036,2
0.0,137,0.0,2
0.03297000000020489,138,0.31109599997580517,2
0.0,139,0.0,2
0.05768999999963853,140,0.53125,2
0.0,141,0.0,2
0.008280000001832377,142,0.07312000000092667,2
0.0,143,0.0,2
0.0330599999979313,144,0.31066900001314934,2
0.0,145,0.0,2
0.02884500000072876,146,0.26812799999606796,2
0.0,147,0.0,2
0.03295500000058382,148,0.2946769999980461,2
0.0,149,0.0,2
0.06995999999890046,150,0.6621710000035819,2
0.0,151,0.0,2
0.004080000000612927,152,0.03991700000187848,2
0.0,153,0.0,2
0.0247799999997369,154,0.22253400000045076,2
0.0,155,0.0,2
0.03297000000020489,156,0.29467799999110866,2
0.0,157,0.0,2
0.032939999999143765,158,0.2948610000166809,2
0.0,159,0.0,2
0.07021500000155356,160,0.6226800000004005,2
0.0,161,0.0,2
0.010319999999410356,162,0.0762329999852227,2
0.0,163,0.0,2
0.024525000000721775,164,0.2010500000033062,2
0.0,165,0.0,2
0.054569999998420826,166,0.4382319999858737,2
0.0,167,0.0,2
0.0340200000009645,168,0.2639770000241697,2
0.0,169,0.0,2
0.23074500000075204,170,1.4821780000056606,2
0.0,171,0.0,2
0.00811500000054366,172,0.04693599998427089,2
0.0,173,0.0,2
0.00923999999758962,174,0.04943900000944268,2
0.0,175,0.0,2
0.00916500000130327,176,0.0536500000016531,2
0.0,177,0.0,2
0.07408500000019558,178,0.45031699998071417,2
0.0,179,0.0,2
0.11455499999829044,180,0.846374000000651,2
0.0,181,0.0,2
0.2518050000016956,182,2.1111460000101943,2
0.0,183,0.0,2
0.06668999999965308,184,0.5141600000060862,2
0.0,185,0.0,2
0.012254999999640859,186,0.08740200000465848,2
0.0,187,0.0,2
0.006134999999630963,188,0.04473899998993147,2
0.0,189,0.0,2
0.31965000000127475,190,2.4120479999983218,2
0.0,191,0.0,2
0.0061649999988731,192,0.04205299999739509,2
0.0,193,0.0,2
0.006194999999934225,194,0.044128999987151474,2
0.0,195,0.0,2
0.15766500000063388,196,1.2257080000272254,2
0.0,197,0.0,2
0.0051599999987956835,198,0.043822999999974854,2
0.0,199,0.0,2
0.07261500000095111,200,0.5828250000049593,2
0.0,201,0.0,2
0.010259999999107094,202,0.09228499997698236,2
0.0,203,0.0,2
0.21049500000117405,204,1.5836790000030305,2
0.0,205,0.0,2
0.06367499999942083,206,0.49536100000841543,2
0.0,207,0.0,2
0.006105000000388827,208,0.046203999998397194,2
0.0,209,0.0,2
0.47620499999902677,210,3.545775999999023,2
0.0,211,0.0,2
0.20821500000056403,212,1.2725829999981215,2
0.0,213,0.0,2
0.018224999999802094,214,0.11376999999629334,2
0.0,215,0.0,2
0.009149999999863212,216,0.054321000003255904,2
0.0,217,0.0,2
0.036465000001044245,218,0.2222899999906076,2
0.0,219,0.0,2
0.17868000000089523,220,1.2366949999995995,2
0.0,221,0.0,2
0.008189999998649,222,0.051208000018959865,2
0.0,223,0.0,2
0.008280000000013388,224,0.04870600000140257,2
0.0,225,0.0,2
0.008280000000013388,226,0.050353999991784804,2
0.0,227,0.0,2
0.008250000000771252,228,0.050171000009868294,2
0.0,229,0.0,2
0.15683999999964726,230,1.1687009999877773,2
0.0,231,0.0,2
0.0062099999995552935,232,0.04797400000097696,2
0.0,233,0.0,2
0.005160000000614673,234,0.04284700000425801,2
0.0,235,0.0,2
0.5141399999993155,236,4.4814449999830686,2
0.0,237,0.0,2
0.011295000000245636,238,0.09252900001592934,2
0.0,239,0.0,2
0.6018899999999121,240,5.165650000009919,2
0.0,241,0.0,2
0.039179999999760184,242,0.3146359999809647,2
0.0,243,0.0,2
0.005144999999174615,244,0.044800000003306195,2
0.0,245,0.0,2
0.006255000000237487,246,0.04309000000648666,2
0.0,247,0.0,2
0.005145000000993605,248,0.044800000003306195,2
0.0,249,0.0,2
0.18593999999939115,250,1.5022589999862248,2
0.0,251,0.0,2
0.05978999999933876,252,0.4909660000121221,2
0.0,253,0.0,2
0.005175000000235741,254,0.03955100000894163,2
0.0,255,0.0,2
0.15663000000131433,256,1.2387699999671895,2
0.0,257,0.0,2
0.0,258,0.0,2
0.0,259,0.0,2
0.0562499999996362,260,0.4353020000271499,2
0.0,261,0.0,2
0.014235000000553555,262,0.10913099999015685,2
0.0,263,0.0,2
0.0,264,0.0,2
0.0,265,0.0,2
0.00819000000046799,266,0.05554199998732656,2
0.0,267,0.0,2
0.008309999999255524,268,0.04571600000781473,2
0.0,269,0.0,2
0.058020000000396976,270,0.37994300000718795,2
0.0,271,0.0,2
0.00706499999796506,272,0.048218000010820106,2
0.0,273,0.0,2
0.007065000001603039,274,0.052795999974478036,2
0.0,275,0.0,2
0.007079999999405118,276,0.045898000011220574,2
0.0,277,0.0,2
0.007095000000845175,278,0.044127999994088896,2
0.0,279,0.0,2
0.06964499999958207,280,0.4808960000082152,2
0.0,281,0.0,2
0.14686499999879743,282,0.828918999992311,2
0.0,283,0.0,2
0.007110000002285233,284,0.04919400000653695,2
0.0,285,0.0,2
0.006029999998645508,286,0.046813999986625277,2
0.0,287,0.0,2
0.0,288,0.0,2
0.0,289,0.0,2
0.05643000000054599,290,0.4685670000180835,2
0.0,291,0.0,2
0.01622999999926833,292,0.11517299999832176,2
0.0,293,0.0,2
0.009195000000545406,294,0.05273499999020714,2
0.0,295,0.0,2
0.007949999999254942,296,0.06695500001660548,2
0.0,297,0.0,2
0.00811500000054366,298,0.05755699999281205,2
0.0,299,0.0,2
0.0641250000007858,300,0.44927899999311194,2
0.0,301,0.0,2
0.008054999998421408,302,0.059936999998171814,2
0.0,303,0.0,2
0.0,304,0.0,2
0.0,305,0.0,2
0.008205000000089058,306,0.06073000001197215,2
0.0,307,0.0,2
0.008250000000771252,308,0.05725100000563543,2
0.0,309,0.0,2
0.06507000000055996,310,0.4573359999922104,2
0.0,311,0.0,2
0.23606999999901745,312,1.6575319999828935,2
0.0,313,0.0,2
0.00908999999955995,314,0.060303000020212494,2
0.0,315,0.0,2
0.007994999999937136,316,0.05645699999877252,2
0.0,317,0.0,2
0.00909000000137894,318,0.05810599999676924,2
0.0,319,0.0,2
0.5453399999987596,320,3.6682130000117468,2
0.0,321,0.0,2
0.018285000001924345,322,0.10467499999504071,2
0.0,323,0.0,2
0.008009999997739214,324,0.05517599999438971,2
0.0,325,0.0,2
0.0,326,0.0,2
0.0,327,0.0,2
0.009150000001682201,328,0.05621299998892937,2
0.0,329,0.0,2
0.2602950000000419,330,1.7967530000023544,2
0.0,331,0.0,2
0.008159999999406864,332,0.053894000011496246,2
0.0,333,0.0,2
0.008249999998952262,334,0.051635999989230186,2
0.0,335,0.0,2
0.008235000001150183,336,0.05444300000090152,2
0.0,337,0.0,2
0.008250000000771252,338,0.05444300000090152,2
0.0,339,0.0,2
0.3285149999992427,340,2.200500999999349,2
0.0,341,0.0,2
0.0595050000010815,342,0.43237300000328105,2
0.0,343,0.0,2
0.006179999998494168,344,0.05035400000633672,2
0.0,345,0.0,2
0.014339999999720021,346,0.12933299998985603,2
0.0,347,0.0,2
0.013245000000097207,348,0.10107499999867287,2
0.0,349,0.0,2
0.1873200000009092,350,1.3894040000159293,2
0.0,351,0.0,2
0.014339999999720021,352,0.11718699999619275,2
0.0,353,0.0,2
0.006120000000009895,354,0.05670199998712633,2
0.0,355,0.0,2
0.006120000000009895,356,0.0549930000124732,2
0.0,357,0.0,2
0.006059999999706633,358,0.06011900000157766,2
0.0,359,0.0,2
0.7332150000002002,360,5.779785999999149,2
0.0,361,0.0,2
0.012135000000853324,362,0.11535599999479018,2
0.0,363,0.0,2
0.32005500000013853,364,2.2802729999966687,2
0.0,365,0.0,2
0.0061649999988731,366,0.05871599999954924,2
0.0,367,0.0,2
0.006120000000009895,368,0.05664099998830352,2
0.0,369,0.0,2
0.05196000000069034,370,0.45269800000824034,2
0.0,371,0.0,2
0.006044999998266576,372,0.059021000008215196,2
0.0,373,0.0,2
0.006150000001071021,374,0.05474799999501556,2
0.0,375,0.0,2
0.0061499999992520316,376,0.05670200000167824,2
0.0,377,0.0,2
0.006135000001449953,378,0.06011999999464024,2
0.0,379,0.0,2
0.05512499999895226,380,0.36956700001610443,2
0.0,381,0.0,2
0.008295000001453445,382,0.0400999999983469,2
0.0,383,0.0,2
0.008144999997966806,384,0.04467799999110866,2
0.0,385,0.0,2
0.008085000001301523,386,0.045654999994440004,2
0.0,387,0.0,2
0.008009999999558204,388,0.052733999997144565,2
0.0,389,0.0,2
0.20308500000101048,390,1.213623000003281,2
0.0,391,0.0,2
0.008234999999331194,392,0.050476000003982335,2
0.0,393,0.0,2
0.015374999999039574,394,0.10553000001527835,2
0.0,395,0.0,2
0.00826500000039232,396,0.0517579999868758,2
0.0,397,0.0,2
0.008294999999634456,398,0.05108599999221042,2
0.0,399,0.0,2
0.06468000000131724,400,0.42266800001380034,2
0.0,401,0.0,2
0.016334999998434796,402,0.10882599999604281,2
0.0,403,0.0,2
0.008084999999482534,404,0.05230699999083299,2
0.0,405,0.0,2
0.007980000002135057,406,0.058349999992060475,2
0.0,407,0.0,2
0.008024999999179272,408,0.05267300001287367,2
0.0,409,0.0,2
0.07916999999906693,410,0.5001219999976456,2
0.0,411,0.0,2
0.008025000000998261,412,0.05725100000563543,2
0.0,413,0.0,2
0.008084999999482534,414,0.056152999997721054,2
0.0,415,0.0,2
0.018314999999347492,416,0.11065600001893472,2
0.0,417,0.0,2
0.009105000001000008,418,0.058349999992060475,2
0.0,419,0.0,2
0.0852149999991525,420,0.5111689999903319,2
0.0,421,0.0,2
0.01591500000176893,422,0.11749299999792129,2
0.0,423,0.0,2
0.00803999999880034,424,0.05664100001740735,2
0.0,425,0.0,2
0.008055000000240398,426,0.05627399998775218,2
0.0,427,0.0,2
0.008055000000240398,428,0.057006999995792285,2
0.0,429,0.0,2
0.07265999999981432,430,0.5202030000073137,2
0.0,431,0.0,2
0.007994999999937136,432,0.05444300000090152,2
0.0,433,0.0,2
0.007980000000316068,434,0.06091299999388866,2
0.0,435,0.0,2
0.008024999999179272,436,0.05743400000210386,2
0.0,437,0.0,2
0.008010000001377193,438,0.055053999996744096,2
0.0,439,0.0,2
0.07217999999920721,440,0.517028999995091,2
0.0,441,0.0,2
0.19972500000039872,442,1.4915770000079647,2
0.0,443,0.0,2
0.00826499999857333,444,0.054321000003255904,2
0.0,445,0.0,2
0.007110000002285233,446,0.059021000008215196,2
0.0,447,0.0,2
0.008234999999331194,448,0.05487100000027567,2
0.0,449,0.0,2
0.062399999998888234,450,0.4661859999905573,2
0.0,451,0.0,2
0.016349999999874854,452,0.11242700000002515,2
0.0,453,0.0,2
0.008235000001150183,454,0.05395499999576714,2
0.0,455,0.0,2
0.13825499999984459,456,1.2107539999851724,2
0.0,457,0.0,2
0.006120000000009895,458,0.05566500000713859,2
0.0,459,0.0,2
0.6624599999995553,460,5.2252190000144765,2
0.0,461,0.0,2
0.008205000000089058,462,0.054137999992235564,2
0.0,463,0.0,2
0.0,464,0.0,2
0.0,465,0.0,2
0.008250000000771252,466,0.056091999998898245,2
0.0,467,0.0,2
0.0,468,0.0,2
0.0,469,0.0,2
0.08941500000037195,470,0.6082150000147521,2
0.0,471,0.0,2
0.016169999998965068,472,0.10974099997838493,2
0.0,473,0.0,2
0.008130000000164728,474,0.05450499999278691,2
0.0,475,0.0,2
0.0,476,0.0,2
0.0,477,0.0,2
0.008100000000922591,478,0.055847000010544434,2
0.0,479,0.0,2
0.1401449999993929,480,1.0788570000149775,2
0.0,481,0.0,2
0.017325000000710133,482,0.11560099999769591,2
0.0,483,0.0,2
0.0102149999984249,484,0.05859399998735171,2
0.0,485,0.0,2
0.0,486,0.0,2
0.0,487,0.0,2
0.010260000000926084,488,0.05657900001097005,2
0.0,489,0.0,2
0.06278999999994994,490,0.40325899999879766,2
0.0,491,0.0,2
0.008024999999179272,492,0.05401700000220444,2
0.0,493,0.0,2
0.008160000001225853,494,0.055846999981440604,2
0.0,495,0.0,2
0.008144999997966806,496,0.062011000016354956,2
0.0,497,0.0,2
0.00819000000046799,498,0.055908999987877905,2
0.0,499,0.0,2
0.049155000000610016,500,0.3417970000009518,2
0.0,501,0.0,2
0.016395000000557047,502,0.11303700001735706,2
0.0,503,0.0,2
0.0,504,0.0,2
0.0,505,0.0,2
0.008054999998421408,506,0.05725099999108352,2
0.0,507,0.0,2
0.008055000000240398,508,0.05920400000468362,2
0.0,509,0.0,2
0.0603449999998702,510,0.4030149999889545,2
0.0,511,0.0,2
0.010170000001380686,512,0.05413800000678748,2
0.0,513,0.0,2
0.010184999999182764,514,0.05737300000328105,2
0.0,515,0.0,2
0.020415000000866712,516,0.11370899998291861,2
0.0,517,0.0,2
0.008009999999558204,518,0.05340499999874737,2
0.0,519,0.0,2
0.04836000000068452,520,0.3415530000202125,2
0.0,521,0.0,2
0.008099999999103602,522,0.0591429999913089,2
0.0,523,0.0,2
0.00811500000054366,524,0.059875999999349006,2
0.0,525,0.0,2
0.008174999999027932,526,0.0549310000060359,2
0.0,527,0.0,2
0.0,528,0.0,2
0.0,529,0.0,2
0.07321500000034575,530,0.509277999997721,2
0.0,531,0.0,2
0.008100000000922591,532,0.059020999979111366,2
0.0,533,0.0,2
0.008174999999027932,534,0.0548090000229422,2
0.0,535,0.0,2
0.008144999999785796,536,0.05621399998199195,2
0.0,537,0.0,2
0.0,538,0.0,2
0.0,539,0.0,2
0.2998950000019249,540,2.154785000020638,2
0.0,541,0.0,2
0.07828499999777705,542,0.5606689999985974,2
0.0,543,0.0,2
0.008159999999406864,544,0.05798299999150913,2
0.0,545,0.0,2
0.008190000002286979,546,0.05737300000328105,2
0.0,547,0.0,2
0.008219999999710126,548,0.055603000000701286,2
0.0,549,0.0,2
0.13502999999946041,550,1.0161129999905825,2
0.0,551,0.0,2
0.008144999999785796,552,0.05450500002189074,2
0.0,553,0.0,2
0.008175000000846921,554,0.060363999975379556,2
0.0,555,0.0,2
0.008219999999710126,556,0.05194100001244806,2
0.0,557,0.0,2
0.09773999999924854,558,0.6754760000039823,2
0.0,559,0.0,2
0.04786500000045635,560,0.3408809999964433,2
0.0,561,0.0,2
0.008309999999255524,562,0.053771999999298714,2
0.0,563,0.0,2
0.005985000001601293,564,0.058716000014101155,2
0.0,565,0.0,2
0.008174999999027932,566,0.05847099996753968,2
0.0,567,0.0,2
0.0,568,0.0,2
0.0,569,0.0,2
0.04891499999939697,570,0.3370370000193361,2
0.0,571,0.0,2
0.1152750000001106,572,0.7914420000015525,2
0.0,573,0.0,2
0.0,574,0.0,2
0.0,575,0.0,2
0.009104999999181018,576,0.055114999995566905,2
0.0,577,0.0,2
0.008055000002059387,578,0.05792300000030082,2
0.0,579,0.0,2
0.04222499999923457,580,0.28417899999476504,2
0.0,581,0.0,2
0.009105000001000008,582,0.0516360000037821,2
0.0,583,0.0,2
0.009059999998498824,584,0.05975300000864081,2
0.0,585,0.0,2
0.007994999999937136,586,0.054749000002630055,2
0.0,587,0.0,2
0.0,588,0.0,2
0.0,589,0.0,2
0.14622000000053959,590,1.0556639999849722,2
0.0,591,0.0,2
0.016200000000026193,592,0.11212199999135919,2
0.0,593,0.0,2
0.008130000000164728,594,0.05249000001640525,2
0.0,595,0.0,2
0.0,596,0.0,2
0.0,597,0.0,2
0.024450000000797445,598,0.16821299998264294,2
0.0,599,0.0,2
0.10569000000032247,600,0.7788690000161296,2
0.0,601,0.0,2
0.06554999999934807,602,0.4482419999985723,2
0.0,603,0.0,2
0.016319999998813728,604,0.11273199999413919,2
0.0,605,0.0,2
0.05760000000009313,606,0.39422600000398234,2
0.0,607,0.0,2
0.056969999999637366,608,0.5039680000045337,2
0.0,609,0.0,2
0.07066500000109954,610,0.588988999981666,2
0.0,611,0.0,2
0.024525000000721775,612,0.20788600001833402,2
0.0,613,0.0,2
0.05519999999887659,614,0.46490500000072643,2
0.0,615,0.0,2
0.048945000000458094,616,0.40521200001239777,2
0.0,617,0.0,2
0.0428250000004482,618,0.3521119999786606,2
0.0,619,0.0,2
0.07477499999913562,620,0.5952760000072885,2
0.0,621,0.0,2
0.024690000000191503,622,0.1976309999881778,2
0.0,623,0.0,2
0.05560499999955937,624,0.43853800001670606,2
0.0,625,0.0,2
0.04417499999908614,626,0.34271199998329394,2
0.0,627,0.0,2
0.039930000002641464,628,0.3346560000209138,2
0.0,629,0.0,2
0.053909999998722924,630,0.500488999983645,2
0.0,631,0.0,2
0.01420499999949243,632,0.12615899999218527,2
0.0,633,0.0,2
0.03651000000172644,634,0.3577880000084406,2
0.0,635,0.0,2
0.02854499999739346,636,0.27887000000919215,2
0.0,637,0.0,2
0.03252000000065891,638,0.3164059999980964,2
0.0,639,0.0,2
0.044879999999466236,640,0.4293210000032559,2
0.0,641,0.0,2
0.021510000002308516,642,0.1856079999852227,2
0.0,643,0.0,2
0.03283499999815831,644,0.27002000001084525,2
0.0,645,0.0,2
0.032640000001265435,646,0.2725829999835696,2
0.0,647,0.0,2
0.028500000000349246,648,0.2946170000213897,2
0.0,649,0.0,2
0.04501499999787484,650,0.39984100000583567,2
0.0,651,0.0,2
0.020400000001245644,652,0.18463099999644328,2
0.0,653,0.0,2
0.032639999999446445,654,0.2970579999819165,2
