method,package1,package2,dram1,dram2,energy
AppContext$2.run,0.0,0.1349402683520789,0.0,0.018535735586061138,0.15347600393814004
AttributeInfo.<init>,0.0,0.0,0.0,0.0,0.0
Benchmark.fileFromInputStream,0.0,0.02639213663325506,0.0,0.003453790458659815,0.029845927091914873
BoundingBox.getMaximum,0.0,0.002016843971631206,0.0,0.00022653191490656143,0.0022433758865377674
BoundingIntervalHierarchy.intersect,0.457160506987996,0.24993755061306638,0.06596100167250371,0.03227716404421338,0.8053362233177794
BucketRenderer$ImageSample.sampled,0.0,0.01960813858752021,0.0,0.002576983695707005,0.022185122283227214
BucketRenderer.refineSamples,0.029710836363503607,0.0,0.0026736969696510714,0.0,0.03238453333315468
BucketRenderer.renderBucket,0.0026208841282804227,0.0,0.0003600747656896477,0.0,0.0029809588939700704
ClassFile.addAttribute,0.0,0.05341260683966345,0.0,0.006726200403420778,0.06013880724308423
ClassFile.read,0.0,0.0640285722090044,0.0,0.008658643277830053,0.07268721548683446
Color.blend,0.0,0.0258416136504497,0.0,0.003492329272399599,0.0293339429228493
Color.isNan,0.0,0.009805442684146471,0.0,0.0009285181733514992,0.010733960857497971
DSA.generateV,0.0,0.06019870370369905,0.0,0.006183333333090694,0.06638203703678974
FileCacheImageInputStream.<init>,0.0,0.03599554449742943,0.0,0.00525904487420341,0.04125458937163284
FileURLConnection.getPermission,0.0,0.04133788369800348,0.0,0.004477374633259485,0.045815258331262966
Geometry.intersect,0.01943723363074198,0.07506326677543647,0.0026382599420897157,0.009985989885252242,0.10712475023352042
Handler.parseURL,0.0,0.03455389529334805,0.0,0.00458031232611246,0.03913420761946051
IIORegistry.getDefaultInstance,0.0,0.04133788369800348,0.0,0.004477374633259485,0.045815258331262966
IIORegistry.registerStandardSpis,0.0,0.08532540446806763,0.0,0.010202378198345262,0.0955277826664129
ImageIO.read,0.0,0.06911372390829712,0.0,0.009950832408364791,0.07906455631666191
Instance.intersect,0.16977082617061467,0.26352152075396756,0.022656726651568176,0.03312353305173159,0.48907260662788204
Instance.prepareShadingState,0.01812318604653376,0.0,0.002930930232545253,0.0,0.02105411627907901
InstanceList.intersectPrimitive,0.0,0.16337640022560848,0.0,0.019015551373012765,0.18239195159862126
InstantGI.getIrradiance,0.025635110910965927,0.10730656570771335,0.00382232238564313,0.012712912648949588,0.14947691165327198
IntersectionState.getStackTop,0.01657762817053481,0.029302714907262245,0.0023895277667540724,0.0031543548416316423,0.05142422568618277
IntersectionState.hit,0.0,0.0005452609635429154,0.0,5.724946525522515e-05,0.0006025104287981406
IntersectionState.setIntersection,0.009381389582710191,0.0,0.0014825179919176787,0.0,0.01086390757462787
KDTree.buildTree,0.532418365598237,0.0,0.04953478047574419,0.0,0.5819531460739812
KDTree.intersect,0.746788790339063,0.7729569717940958,0.1111536568239701,0.10022260169307223,1.7311220206502012
KDTree.radix12,0.0,0.0,0.0,0.0,0.0
Launcher$AppClassLoader.loadClass,0.0,0.013180475274668773,0.0,0.0017326724477369658,0.014913147722405738
LightSample.setRadiance,0.0,0.017325069052525264,0.0,0.002213056265964391,0.019538125318489655
LightSample.setShadowRay,0.002599768910415317,0.0,0.00042781582049339535,0.0,0.0030275847309087123
LightSample.traceShadow,0.024519120123715935,0.0,0.0041157151479852975,0.0,0.028634835271701232
LightServer$1.run,0.0,0.0,0.0,0.0,0.0
LocaleData$1.run,0.0,0.0,0.0,0.0,0.0
LoggingSupport.getLogger,0.0,0.07186797615558213,0.0,0.009145249389164396,0.08101322554474652
Matrix4.multiply,0.0,0.053818737375702835,0.0,0.005625454545151289,0.05944419192085412
Matrix4.transformPX,0.0,0.009663911111096643,0.0,0.0010806666666919936,0.010744577777788637
Matrix4.transformPZ,0.0,0.01427272448199899,0.0,0.0017659126903351524,0.01603863717233414
MemberrefInfo.<init>,0.0,0.08976233333911901,0.0,0.00945500000004055,0.09921733333915957
MethodInfo.read,0.0,0.0,0.0,0.0,0.0
NullAccelerator.intersect,0.01005584404803179,0.016283536250842057,0.0011557419501720368,0.0017922252479701342,0.029287347497016017
Option.clone,0.0,0.0,0.0,0.0,0.0
PNGImageReaderSpi.createReaderInstance,0.0,0.06911372390829712,0.0,0.009950832408364791,0.07906455631666191
PartiallyOrderedSet.iterator,0.0,0.04183096730665172,0.0,0.0051522769559745295,0.04698324426262625
Ray.<init>,0.15192831668920978,0.07802153999562197,0.019764827761498217,0.011799853350646317,0.2615145377969763
Ray.getMax,0.03414594785821717,0.0,0.005782517714510051,0.0,0.039928465572727216
Ray.getMin,0.0,0.0011250042713334355,0.0,0.00010843125423973618,0.0012334355255731717
Ray.isInside,0.025338805635107937,0.15586189552731627,0.0021932710177397867,0.01967013268883229,0.2030641048689963
Ray.setMax,0.0,0.035969186521178295,0.0,0.004095613577772057,0.04006480009895035
Ray.transform,0.02026065317234267,0.1373881549706679,0.0019311016120048593,0.017568426395276403,0.17714833615029182
Resource.getBytes,0.0,0.05182436363644558,0.0,0.0064936363633023575,0.05831799999974794
Scene.trace,0.010118816843029987,0.0,0.0012133160124250812,0.0,0.011332132855455068
Scene.traceShadow,0.0,0.012134636828918969,0.0,0.0012921291559845035,0.013426765984903472
ShadingState.addSample,0.0,0.0033672317244907326,0.0,0.0003873517241048956,0.0037545834485956282
ShadingState.getPoint,0.0,0.017630786339433602,0.0,0.001921328800263418,0.01955211513969702
SignerInfo.verify,0.0,0.07987685185475532,0.0,0.008294444444092934,0.08817129629884826
SimpleCharStream.<init>,0.0,0.003630447866693241,0.0,0.0004205928102496735,0.004051040676942915
Solvers.solveQuadric,0.0,0.1508195964327624,0.0,0.017647983913271725,0.16846758034603412
Sphere.intersectPrimitive,0.0,0.009163770425492686,0.0,0.0010722280089040886,0.010235998434396775
Sphere.prepareShadingState,0.0,0.02324123711378276,0.0,0.003992487425972195,0.027233724539754953
SunToolkit.initEQ,0.0,0.0045158663420703715,0.0,0.0005893252892441068,0.005105191631314478
TeePrintStream.<init>,0.0,0.013180475274668773,0.0,0.0017326724477369658,0.014913147722405738
TestHarness.<init>,0.0,0.008912131503777416,0.0,0.0009712253241772203,0.009883356827954637
TriangleMesh$WaldTriangle.intersect,0.23508344991269728,0.43017775895302934,0.03182398590457684,0.05789532516643271,0.7549805199367361
TriangleMesh.getPoint,0.009090039882875132,0.0,0.001460634294050717,0.0,0.010550674176925848
TriangleMesh.intersectPrimitive,0.020426993515825886,0.03779948415462766,0.00216653734496445,0.005051718451395519,0.06544473346681351
TriangleMesh.prepareShadingState,0.0,0.03404136194989455,0.0,0.00340063769991376,0.03744199964980831
TriangleMeshLight$TriangleLight.getSamples,0.25141690650820203,0.09960860211007808,0.03507026749611136,0.011467997205086252,0.3975637733194777
TriangleMeshLight$TriangleLight.intersectTriangleKensler,0.03485933604267196,0.0,0.0032760975609809066,0.0,0.03813543360365287
TriangleMeshLight.access$2800,0.0,0.010071363023394715,0.0,0.0017476782581711456,0.01181904128156586
URLClassPath$JarLoader.getJarFile,0.0,0.0123624413227154,0.0,0.001672234999157779,0.014034676321873179
Utf8Info.<init>,0.0,0.0123624413227154,0.0,0.001672234999157779,0.014034676321873179
Vector3.dot,0.03301789908368519,0.018922941176173817,0.004245979639616844,0.0024723529411766463,0.058659172840652495
