method,package1,package2,dram1,dram2,energy
AbstractAlgorithmConstraints.getAlgorithms|DisabledAlgorithmConstraints.<init>|DisabledAlgorithmConstraints.<init>,0.021661219448093582,0.0,0.001287984628438712,0.0,0.022949204076532295
AppContext$2.run|AppContext$2.run|AccessController.doPrivileged,0.0435687383662909,0.0,0.00490820292275344,0.0,0.04847694128904434
Benchmark.<init>|NativeConstructorAccessorImpl.newInstance0|NativeConstructorAccessorImpl.newInstance,0.03902745748655689,0.0,0.0036920171890695874,0.0,0.04271947467562647
Benchmark.fileFromInputStream|Benchmark.extractFileResource|Benchmark.prepareJars,0.021661219448093582,0.0,0.001287984628438712,0.0,0.022949204076532295
BoundingBox.getMaximum|KDTree.intersect|Geometry.intersect,0.0008255773810690567,0.019925146009102293,0.00012489285714071318,0.0028901831697049555,0.02376579941701702
BoundingIntervalHierarchy.intersect|Scene.trace|Scene.traceShadow,0.7142715809698558,0.9887245969675216,0.10167903618081339,0.1207393561376985,1.9254145702558894
BucketRenderer$ImageSample.<init>|BucketRenderer.renderBucket|BucketRenderer.access$300,0.0,0.0,0.0,0.0,0.0
BucketRenderer$ImageSample.sampled|BucketRenderer.refineSamples|BucketRenderer.renderBucket,0.03144333179773056,0.0,0.005413136179064807,0.0,0.03685646797679537
BucketRenderer.renderBucket|BucketRenderer.access$300|BucketRenderer$BucketThread.run,0.014147564102014981,0.011161589744285895,0.0015750000000899981,0.0014423076922983641,0.02832646153868924
ByteInterleavedRaster.getDataElements|BufferedImage.getRGB|Benchmark.<init>,0.033851470704240924,0.0,0.0031104936844225262,0.0,0.03696196438866345
Chaperone.retire|Chaperone.dismiss|Chaperone.main,0.0,0.0,0.0,0.0,0.0
ClassFile.read|ClassFile.<init>|CtClassType.<init>,0.05136040585424645,0.0,0.004548319130791446,0.0,0.05590872498503789
Color.blend|Color.blend|InstantGI.getIrradiance,0.003924500467586925,0.0,0.0004597600559400043,0.0,0.004384260523526929
Color.blend|InstantGI.getIrradiance|LightServer.getIrradiance,0.041240445927699654,0.0,0.005982526962241942,0.0,0.047222972889941595
Color.copy|LightSample.setRadiance|TriangleMeshLight$TriangleLight.getSamples,0.0,0.009392622222528896,0.0,0.0014373333333626054,0.010829955555891502
Color.madd|InstantGI.getIrradiance|LightServer.getIrradiance,0.0,0.007946708630286653,0.0,0.0011424374749582518,0.009089146105244904
ConfigFile.<init>|ConfigFile.<init>|Config.parse,0.007393768012984483,0.0,0.0009300103824304676,0.0,0.00832377839541495
FileCacheImageInputStream.<init>|InputStreamImageInputStreamSpi.createInputStreamInstance|ImageIO.createImageInputStream,0.02193221091628544,0.0,0.0016957257794650848,0.0,0.023627936695750525
FileURLConnection.getPermission|JarFileFactory.getPermission|JarFileFactory.getCachedJarFile,0.01865373927592922,0.0,0.0016947133227783026,0.0,0.02034845259870752
Geometry.intersect|Instance.intersect|InstanceList.intersectPrimitive,0.028447012314475877,0.0,0.0033020540990043616,0.0,0.031749066413480236
GlassShader.getRadiance|LightServer.getRadiance|Scene.getRadiance,0.0,0.011086487179571308,0.0,0.0015257692307969616,0.01261225641036827
IIORegistry.registerStandardSpis|IIORegistry.<init>|IIORegistry.getDefaultInstance,0.0243666027987622,0.0,0.0014465767904952766,0.0,0.025813179589257475
ImageIO.<clinit>|Benchmark.<init>|NativeConstructorAccessorImpl.newInstance0,0.02193221091628544,0.0,0.0016957257794650848,0.0,0.023627936695750525
ImageReader.getDestination|PNGImageReader.readImage|PNGImageReader.read,0.01996975480209207,0.0,0.0014931168079820034,0.0,0.021462871610074073
Instance.intersect|InstanceList.intersectPrimitive|BoundingIntervalHierarchy.intersect,0.03677941621721697,0.004641364336303858,0.00365059459440385,0.0006402172027683091,0.04571159235069299
InstanceList.intersectPrimitive|BoundingIntervalHierarchy.intersect|Scene.trace,0.015457600000358762,0.0,0.0017839999996968323,0.0,0.017241600000055594
InstantGI.getIrradiance|LightServer.getIrradiance|ShadingState.getIrradiance,0.08425335703633308,0.001930282161544556,0.009140904830609475,0.0003005057134604273,0.09562504974194753
IntersectionState.getStackTop|KDTree.intersect|Geometry.intersect,0.0,0.011057986694993143,0.0,0.0014966760153608935,0.012554662710354037
IntersectionState.hit|Scene.traceShadow|ShadingState.traceShadow,0.009502169430073523,0.0,0.001467596086687942,0.0,0.010969765516761465
KDTree$BuildTask.<init>|KDTree.buildTree|KDTree.buildTree,0.0,0.028727967949425177,0.0,0.0031430769236999944,0.03187104487312517
KDTree.buildTree|KDTree.buildTree|KDTree.build,0.0,0.08134333333476784,0.0,0.008681818181878152,0.090025151516646
KDTree.buildTree|KDTree.buildTree|KDTree.buildTree,0.0,1.6475558680826992,0.0,0.17903987210181638,1.8265957401845156
KDTree.buildTree|KDTree.build|Geometry.build,0.0,0.0,0.0,0.0,0.0
KDTree.intersect|Geometry.intersect|Instance.intersect,0.49952821574765033,0.517180007732559,0.05571577625994095,0.06982950257845337,1.1422535023186038
KDTree.radix12|KDTree.build|Geometry.build,0.0,0.0,0.0,0.0,0.0
Launcher$AppClassLoader.loadClass|ClassLoader.loadClass|TestHarness.main,0.0,0.0,0.0,0.0,0.0
LightSample.setShadowRay|TriangleMeshLight$TriangleLight.getSamples|LightServer.initLightSamples,0.0003411518458437341,0.0,2.4870865303582087e-05,0.0,0.0003660227111473162
LoggingSupport$1.run|LoggingSupport$1.run|AccessController.doPrivileged,0.04123920875824466,0.0,0.004515818432407894,0.0,0.04575502719065255
LoggingSupport.getLogger|PlatformLogger$JavaLoggerProxy.<init>|PlatformLogger$JavaLoggerProxy.<init>,0.08732795184942237,0.0,0.004403003951280156,0.0,0.09173095580070252
Matrix4.transformPX|Ray.transform|Instance.intersect,0.05622763089022515,0.003364713204982081,0.006697448904102937,0.0005239073204597699,0.06681370031976994
Matrix4.transformPY|Ray.transform|Instance.intersect,0.000527309341320498,0.0,8.378100730339002e-05,0.0,0.000611090348623888
Matrix4.transformPZ|Ray.transform|Instance.intersect,0.0008587660357942218,0.007946708630286653,0.0001425178444687215,0.0011424374749582518,0.010090429985507849
MemberrefInfo.<init>|MethodrefInfo.<init>|ConstPool.readOne,0.015932969869184344,0.0,0.0019660444520512503,0.0,0.017899014321235595
QMC.<clinit>|LightServer$1.run|Thread.run,0.0,0.0,0.0,0.0,0.0
Ray.<init>|InstantGI.getIrradiance|LightServer.getIrradiance,0.026536239391976975,0.001085242524934914,0.0037999874838034187,0.0001644518272578987,0.031585921227973206
Ray.<init>|PinholeLens.getRay|Camera.getRay,0.032169285504672955,0.009407930232583574,0.004549647046464711,0.0015743023255892286,0.04770116510931047
Ray.getMax|BoundingIntervalHierarchy.intersect|Scene.trace,0.0008479028986966233,0.0,0.0001441594809273458,0.0,0.0009920623796239691
Ray.getMax|InstantGI.getIrradiance|LightServer.getIrradiance,0.0,0.020080443689268413,0.0,0.0026611053450448377,0.02274154903431325
Ray.getMax|KDTree.intersect|Geometry.intersect,0.0201283451457084,0.0,0.0024603572022089985,0.0,0.0225887023479174
Ray.getMin|BoundingIntervalHierarchy.intersect|Scene.trace,0.05180247655624254,0.0,0.008152565262109779,0.0,0.05995504181835232
Ray.isInside|TriangleMesh$WaldTriangle.intersect|TriangleMesh.intersectPrimitive,0.026925876056474424,0.05334683839835912,0.0031142243629261185,0.007470425879349164,0.09085736469710883
Ray.transform|Instance.intersect|InstanceList.intersectPrimitive,0.08125480570243018,0.20603993801703396,0.009397141295538154,0.024453052699359344,0.32114493771436164
Resource.getBytes|URLClassLoader.defineClass|URLClassLoader.access$100,0.0580928346911984,0.0,0.006440052219478976,0.0,0.06453288691067738
ShadingState.traceShadow|InstantGI.getIrradiance|LightServer.getIrradiance,0.0,0.0076519178863088564,0.0,0.0009835975609666632,0.00863551544727552
Solvers.solveQuadric|Sphere.intersectPrimitive|NullAccelerator.intersect,0.000527309341320498,0.0,8.378100730339002e-05,0.0,0.000611090348623888
Sphere.intersectPrimitive|NullAccelerator.intersect|Geometry.intersect,0.03376116369016104,0.02717285390530136,0.003475848214297695,0.003241017190491535,0.06765088300025164
SunToolkit.<clinit>|AppContext$2.run|AppContext$2.run,0.021129616483035088,0.0,0.0015904231374632982,0.0,0.022720039620498386
TriangleMesh$WaldTriangle.intersect|TriangleMesh.intersectPrimitive|KDTree.intersect,0.34301242869194565,0.13882272579481253,0.03705822882797497,0.0186834011781381,0.5375767844928712
TriangleMesh$WaldTriangle.intersect|TriangleMesh.intersectPrimitive|NullAccelerator.intersect,0.07333242730128393,0.02470956088662623,0.007615299921929466,0.0032951291477130514,0.10895241725755268
TriangleMesh.getPoint|TriangleMeshLight.access$3000|TriangleMeshLight$TriangleLight.getSamples,0.011608971878376648,0.0,0.0013660221381410985,0.0,0.012974994016517747
TriangleMesh.init|TriangleMesh.update|BezierMesh.tesselate,0.0,0.0,0.0,0.0,0.0
TriangleMesh.intersectPrimitive|KDTree.intersect|Geometry.intersect,0.07865462437123413,0.028037996535391883,0.008543395071465999,0.004083786367938597,0.11931980234603061
TriangleMesh.intersectPrimitive|NullAccelerator.intersect|Geometry.intersect,0.0,0.002850667189252206,0.0,0.00040362188376629637,0.0032542890730185023
TriangleMeshLight$TriangleLight.getSamples,0.03144333179773056,0.01623942929292404,0.005413136179064807,0.002346303030314786,0.05544220030003419
TriangleMeshLight$TriangleLight.getSamples|LightServer.initLightSamples|ShadingState.initLightSamples,0.05795016215049555,0.2704239431783683,0.00620332360019755,0.03944255031957565,0.37401997924863706
TriangleMeshLight$TriangleLight.intersectTriangleKensler|TriangleMeshLight$TriangleLight.getSamples|LightServer.initLightSamples,0.0,0.011077550135690594,0.0,0.0016042886178765515,0.012681838753567145
TypeData$TypeVar.setType|Tracer.doOpcode148_201|Tracer.doOpcode,0.026316817153873448,0.0,0.0012329127949736313,0.0,0.02754972994884708
URLClassPath$JarLoader$2.getManifest|URLClassLoader.defineClass|URLClassLoader.access$100,0.0,0.0,0.0,0.0,0.0
Vector3.<init>|TriangleMeshLight$TriangleLight.getSamples|LightServer.initLightSamples,0.0,0.011161589744285895,0.0,0.0014423076922983641,0.01260389743658426
Vector3.div|TriangleMeshLight$TriangleLight.getSamples|LightServer.initLightSamples,0.017187524443919147,0.0006859707316701733,0.0015502666666321195,0.0001041951219454726,0.019527956964166912
Vector3.dot|TriangleMeshLight$TriangleLight.getSamples|LightServer.initLightSamples,0.0029720555551951593,0.008629782176945298,0.0003366666666503685,0.0012319338504124912,0.013170438249203316
