method,package1,package2,dram1,dram2,energy
AppContext$2.run,0.0,0.11726508546963871,0.0,0.015490892251909156,0.13275597772154787
BoundingBox.getMaximum,0.008957920053212703,0.0,0.0011454084356469065,0.0,0.010103328488859609
BoundingIntervalHierarchy.intersect,0.6476886816018835,0.5590889285796459,0.09287995242860851,0.06029852924629914,1.3599560918564373
BucketRenderer$ImageSample.sampled,0.0,0.023677185714586813,0.0,0.002740473214300567,0.02641765892888738
BucketRenderer.refineSamples,0.0077007371141095985,0.02533193321346365,0.0010732021937829722,0.0024674486102755256,0.036573321131631746
BucketRenderer.renderBucket,0.0,0.0,0.0,0.0,0.0
ByteInterleavedRaster.getDataElements,0.0,0.10952565898294567,0.0,0.011072178334745945,0.12059783731769161
Chaperone.retire,0.0,0.013105095238036784,0.0,0.0013564285713766275,0.014461523809413412
Color.<init>,0.0,0.006189009661947665,0.0,0.0008833333332944859,0.0070723429952421505
Color.add,0.015832983741608256,0.0,0.0026226425798056108,0.0,0.018455626321413867
Color.copy,0.0014964363115649616,0.006419141728766287,0.00024350676553515948,0.0008948135147085918,0.009053898320574998
FileCacheImageInputStream.<init>,0.0,0.0748633821638318,0.0,0.010277609397481515,0.08514099156131331
Geometry.intersect,0.01650521457896137,0.0027732751784317862,0.002026533527557325,0.0003862190423925189,0.021691242327343
IIORegistry.registerStandardSpis,0.0,0.06507278505853484,0.0,0.010503732957353828,0.07557651801588866
ImageIO.getImageReaders,0.0,0.08391408324001415,0.0,0.010527812739695408,0.09444189597970956
ImageReader.getDestination,0.0,0.06249994666470835,0.0,0.007510400000028313,0.07001034666473667
ImageTypeSpecifier.createBufferedImage,0.0,0.023854186666818957,0.0,0.002611200000004222,0.02646538666682318
Instance.intersect,0.01793722939707078,0.04673126047170085,0.0022054202612397287,0.005347543614302023,0.07222145374431338
InstanceList.intersectPrimitive,0.016922965110949158,0.00679477763278455,0.0020833620591439663,0.0007585905859938527,0.026559695388871526
InstantGI.getIrradiance,0.05855589537319726,0.007564297288338238,0.007417790232867639,0.0006918286858912097,0.07422981158029435
IntersectionState.hit,0.019284191039695527,0.0,0.0030358072695988773,0.0,0.022319998309294403
KDTree.buildTree,1.497107136196418,0.0,0.12194424731079752,0.0,1.6190513835072156
KDTree.intersect,0.6428710576749742,0.4009326888938278,0.08552927062751083,0.04900198033549714,1.1783349975318098
KDTree.radix12,0.0,0.0,0.0,0.0,0.0
Matrix4.transformPX,0.0,0.011611688181596256,0.0,0.0017676038903726952,0.01337929207196895
Matrix4.transformPZ,0.0,0.009687791453250563,0.0,0.0010679487179284198,0.010755740171178984
NormalizerBase.<clinit>,0.0,0.077689128169413,0.0,0.008720311432732865,0.08640943960214587
NullAccelerator.intersect,0.047005217870455536,0.04411207504490785,0.005186476712840792,0.005915997468010608,0.10221976709621479
PKCS7.parseSignedData,0.0,0.06662120265888903,0.0,0.007582001024364287,0.07420320368325332
PNGImageReader.<init>,0.0,0.07847467287884873,0.0,0.009277970158191871,0.0877526430370406
QMC.<clinit>,0.0,0.0,0.0,0.0,0.0
Ray.<init>,0.03558765516019394,0.017159825568827385,0.00520013832147596,0.00201028535391195,0.05995790440440923
Ray.getMax,0.0467805238714514,5.455102042150364e-05,0.006916957096180383,5.688933959531272e-06,0.05375772092201282
Ray.getMin,0.0,0.010417988261180436,0.0,0.0010043286867134188,0.011422316947893855
Ray.isInside,0.09774572211346458,0.02995209651719405,0.012947429645992055,0.0032988642879016256,0.1439441125645523
Ray.transform,0.03423015275192831,0.05598361281990662,0.004160858723753653,0.0064691684769831205,0.1008437927725717
Scene.trace,0.0,0.005536134642298068,0.0,0.0007556802244170544,0.006291814866715122
ShadingState.<init>,0.009797909892952858,0.0,0.0011433810097603973,0.0,0.010941290902713256
ShadingState.diffuse,0.011063318955293932,0.0,0.0016924280021943367,0.0,0.012755746957488268
ShadingState.getPoint,0.01386972175924698,0.010879376503772676,0.0016216200925252204,0.001510573543005408,0.027881291898550285
ShadingState.traceShadow,0.02221852379069033,0.0,0.003531291545124342,0.0,0.02574981533581467
SignatureFileVerifier.<clinit>,0.0,0.03172561197476177,0.0,0.004458866842447477,0.03618447881720925
Solvers.solveQuadric,0.0,0.011150162700734805,0.0,0.00109033176762841,0.012240494468363216
Sphere.intersectPrimitive,0.03108380873524583,0.023064040671754393,0.004149356253617441,0.003570008841753405,0.061867214502371065
SubRegistry.registerServiceProvider,0.0,0.06507278505853484,0.0,0.010503732957353828,0.07557651801588866
TriangleMesh$WaldTriangle.<init>,0.0,0.0,0.0,0.0,0.0
TriangleMesh$WaldTriangle.intersect,0.3912241033602019,0.19048342871914667,0.04912032499815919,0.024444058526846422,0.6552719156043542
TriangleMesh.intersectPrimitive,0.02327305093590969,0.03341275774312145,0.003542496589417868,0.004830249360576166,0.06505855462902517
TriangleMeshLight$TriangleLight.getSamples,0.05328322423512874,0.07612462530614214,0.007569066498460295,0.010093669797790769,0.14707058583752194
UnsafeFieldAccessorFactory.newFieldAccessor,0.0,0.0751899913243689,0.0,0.010393069914662463,0.08558306123903137
Vector3.<init>,0.0012651944686491651,0.0,0.00020780722225556504,0.0,0.0014730016909047302
Vector3.dot,0.0,0.04780059829958599,0.0,0.0066888916666654925,0.054489489966251484
Vector3.normalize,0.012792222807498357,0.011026188713989705,0.0015512103640806395,0.0014889269194867359,0.026858548805055435
X509CertInfo.parse,0.0,0.08542173056470795,0.0,0.011033300810509659,0.0964550313752176
