method,hits
AbstractAlgorithmConstraints.getAlgorithms,2
AppContext$2.run,2
BoundingBox.getMaximum,8
BoundingIntervalHierarchy.intersect,178
BucketRenderer$ImageSample.<init>,2
BucketRenderer$ImageSample.sampled,2
BucketRenderer.renderBucket,16
ByteInterleavedRaster.getDataElements,2
Chaperone.retire,1
Color.blend,6
Color.copy,2
Color.madd,2
ConfigFile.<init>,2
Geometry.intersect,6
GlassShader.getRadiance,2
IIORegistry.registerStandardSpis,2
ImageReader.getDestination,2
Instance.intersect,8
InstanceList.intersectPrimitive,2
InstantGI.getIrradiance,10
IntersectionState.getStackTop,2
IntersectionState.hit,2
KDTree$BuildTask.<init>,4
KDTree.buildTree,52
KDTree.intersect,180
KDTree.radix12,4
LightSample.setShadowRay,2
Matrix4.transformPX,6
Matrix4.transformPY,2
Matrix4.transformPZ,4
QMC.<clinit>,2
Ray.<init>,14
Ray.getMax,8
Ray.getMin,2
Ray.isInside,14
Ray.transform,38
Resource.getBytes,2
ShadingState.traceShadow,2
Solvers.solveQuadric,2
Sphere.intersectPrimitive,6
SunToolkit.<clinit>,2
TriangleMesh$WaldTriangle.intersect,96
TriangleMesh.getPoint,2
TriangleMesh.init,2
TriangleMesh.intersectPrimitive,18
TriangleMeshLight$TriangleLight.getSamples,32
TriangleMeshLight$TriangleLight.intersectTriangleKensler,2
Vector3.<init>,2
Vector3.div,4
Vector3.dot,6
