method,package1,package2,dram1,dram2,energy
BufferedImage,0.0,0.03748375555862569,0.0,0.005135666666521703,0.04261942222514739
BufferedInputStream,0.0,0.06929460000179599,0.0,0.01102223076917513,0.08031683077097113
Class,0.0,0.07386933483775468,0.0,0.009497511312094685,0.08336684614984936
ClassLoader,0.0,0.015112200001021843,0.0,0.0016319999998813727,0.016744200000903216
ClassLoader$NativeLibrary,0.0,0.06247184615215073,0.0,0.009126923076949494,0.07159876922910022
ComponentColorModel,0.0,0.05372547619030922,0.0,0.0068571428571539425,0.06058261904746316
Float,0.02129770965552509,0.0,0.0025570156243665855,0.0,0.023854725279891676
Inflater,0.0,0.09509279999765566,0.0,0.013170000000172875,0.10826279999782853
LogManager,0.0,0.03836448718226538,0.0,0.004434230769197128,0.042798717951462506
Logger,0.0,0.04461979487267597,0.0,0.005166538461614832,0.049786333334290805
Math,0.001326246414168807,0.0,0.00016336982269414942,0.0,0.0014896162368629564
StrictMath,0.028374036972492137,0.046194018755707084,0.00301855524854319,0.007248875553054398,0.0848354865297968
String,0.0,0.07526112820218818,0.0,0.009581923076788929,0.08484305127897711
System,0.0,0.0,0.0,0.0,0.0
Thread,0.0,0.005587263888729568,0.0,0.0006874999999884798,0.006274763888718047
