method,package1,package2,dram1,dram2,energy
BufferedImage.<init>,0.0,0.03748375555862569,0.0,0.005135666666521703,0.04261942222514739
BufferedInputStream.<init>,0.0,0.02715599999870532,0.0,0.004449230769331246,0.03160523076803656
BufferedInputStream.read,0.0,0.04213860000309068,0.0,0.006572999999843886,0.04871160000293456
Class.forName0,0.0,0.03761441176346339,0.0,0.004420588235256682,0.04203499999872007
Class.privateGetMethodRecursive,0.0,0.0362549230742913,0.0,0.0050769230768380035,0.0413318461511293
ClassLoader$NativeLibrary.load,0.0,0.06247184615215073,0.0,0.009126923076949494,0.07159876922910022
ClassLoader.defineClass1,0.0,0.015112200001021843,0.0,0.0016319999998813727,0.016744200000903216
ClassLoader.findBootstrapClass,0.0,0.0,0.0,0.0,0.0
ComponentColorModel.getBlue,0.0,0.05372547619030922,0.0,0.0068571428571539425,0.06058261904746316
Float.floatToRawIntBits,0.014836408811698391,0.0,0.0017759479956402726,0.0,0.016612356807338663
Float.intBitsToFloat,0.0064613008438267,0.0,0.0007810676287263131,0.0,0.007242368472553013
Inflater.inflateBytes,0.0,0.09509279999765566,0.0,0.013170000000172875,0.10826279999782853
LogManager.<init>,0.0,0.03836448718226538,0.0,0.004434230769197128,0.042798717951462506
Logger.<clinit>,0.0,0.04461979487267597,0.0,0.005166538461614832,0.049786333334290805
Math.min,0.001326246414168807,0.0,0.00016336982269414942,0.0,0.0014896162368629564
StrictMath.acos,0.028374036972492137,0.046194018755707084,0.00301855524854319,0.007248875553054398,0.0848354865297968
String.format,0.0,0.07526112820218818,0.0,0.009581923076788929,0.08484305127897711
System.nanoTime,0.0,0.0,0.0,0.0,0.0
Thread.init,0.0,0.0,0.0,0.0,0.0
Thread.start0,0.0,0.005587263888729568,0.0,0.0006874999999884798,0.006274763888718047
