method,package1,package2,dram1,dram2,energy
BigInteger.implMulAdd|BigInteger.mulAdd|BigInteger.montReduce,0.034543703702554385,0.0,0.004386666666202169,0.0,0.03893037036875655
BufferedInputStream.read|DataInputStream.readUnsignedShort|ClassFile.read,0.02950338461400511,0.0,0.0019084615386628476,0.0,0.03141184615266796
BufferedInputStream.read|DataInputStream.readUnsignedShort|DataInputStream.readUTF,0.03290799999983088,0.0,0.0025499999998525404,0.0,0.035457999999683416
BufferedInputStream.read|FilterInputStream.read|PNGImageReader.decodePass,0.06180844444477567,0.0,0.004286666666707282,0.0,0.06609511111148296
Class.forName0|Class.forName|SunToolkit.initEQ,0.02158616666686915,0.0,0.0024775000001682197,0.0,0.02406366666703737
ClassLoader$NativeLibrary.load|ClassLoader.loadLibrary0|ClassLoader.loadLibrary,0.052225666665132536,0.0,0.004077500000372917,0.0,0.05630316666550545
ColorSpace.getInstance|ImageTypeSpecifier.<clinit>|PNGImageReader.getImageTypes,0.022491499998068317,0.0,0.002340000000913278,0.0,0.024831499998981595
ExpiringCache.clear|UnixFileSystem.delete|File.delete,0.019002222223207355,0.0,0.002459999999296593,0.0,0.02146222222250395
FilterInputStream.available|BufferedInputStream.read|DataInputStream.readFully,0.025944769232480142,0.0,0.0013753846147805096,0.0,0.02732015384726065
Float.floatToRawIntBits|BoundingIntervalHierarchy.intersect|Scene.trace,0.0,0.0022724677218175643,0.0,0.00019945619935068853,0.002471923921168253
Float.intBitsToFloat|BoundingIntervalHierarchy.intersect|Scene.trace,0.3198751558480353,0.014345643965303804,0.04682187285017777,0.0012068126470998475,0.38224948531061664
Float.intBitsToFloat|KDTree.unpackSplit|KDTree.buildTree,0.0,0.0,0.0,0.0,0.0
Integer.getChars|Integer.toString|Integer.toString,0.0,0.0,0.0,0.0,0.0
JarVerifier.doneWithMeta|JarFile.initializeVerifier|JarFile.getInputStream,0.07423899999897306,0.0,0.005700000000312381,0.0,0.07993899999928544
Logger.findSystemResourceBundle|Logger.findResourceBundle|Logger.setupResourceInfo,0.025944769232480142,0.0,0.0013753846147805096,0.0,0.02732015384726065
Pattern.newSlice|Pattern.atom|Pattern.sequence,0.07423899999897306,0.0,0.005700000000312381,0.0,0.07993899999928544
StrictMath.acos|Math.acos|TriangleMeshLight$TriangleLight.getSamples,0.1341014253940062,0.026172770879195374,0.01588724305552918,0.0028976233897501187,0.17905906271848088
String.format|Benchmark.<init>|NativeConstructorAccessorImpl.newInstance0,0.05311000000130242,0.0,0.004488461538410495,0.0,0.05759846153971292
StringBuilder.append|ClassClassPath.openClassfile|ClassPoolTail.openClassfile,0.07298274999811838,0.0,0.006869999999253196,0.0,0.07985274999737157
Thread.init|Thread.init|Thread.<init>,0.0,0.0006545566544965295,0.0,9.613701715060821e-05,0.0007506936716471377
Thread.start0|Thread.start|LightServer.calculatePhotons,0.00530210276651509,0.0,0.0005762845850027379,0.0,0.0058783873515178275
Throwable.getStackTraceElement|Throwable.getOurStackTrace|Throwable.getStackTrace,0.0,0.0,0.0,0.0,0.0
ZipFile.read|ZipFile.access$1400|ZipFile$ZipFileInputStream.read,0.08182766666626169,0.0,0.0062349999995300704,0.0,0.08806266666579177
