method,package1,package2,dram1,dram2,energy
ArrayList,0.0,0.2066751544819682,0.0,0.028396676377667737,0.23507183085963593
Attributes,0.0,0.0,0.0,0.0,0.0
BigInteger,0.0,0.024335688598369,0.0,0.002257349375705269,0.02659303797407427
BufferedInputStream,0.0,0.15074421240180066,0.0,0.017438654283431904,0.16818286668523258
Class,0.0,0.07702676841270946,0.0,0.01108482409711372,0.08811159250982317
ClassLoader,0.0,0.06907068556238105,0.0,0.008408408674040172,0.07747909423642123
ComponentColorModel,0.0,0.03675775999824206,0.0,0.004052799999869118,0.04081055999811118
DataInputStream,0.0,0.0751899913243689,0.0,0.010393069914662463,0.08558306123903137
FileOutputStream,0.0,0.03172561197476177,0.0,0.004458866842447477,0.03618447881720925
Inflater,0.0,0.03797792778068356,0.0,0.004489249339014777,0.042467177119698336
InnerClassLambdaMetafactory,0.0,0.0598293763997932,0.0,0.009041177156915051,0.06887055355670825
LoggingProxyImpl,0.0,0.0749664175104835,0.0,0.010615085736333274,0.08558150324681676
Math,0.0,0.012646539512400995,0.0,0.0012885201734276627,0.013935059685828657
StrictMath,0.03325826019135537,0.03694077929343019,0.0044039237206757315,0.0037776193465871052,0.0783805825520484
String,0.0,0.0,0.0,0.0,0.0
Toolkit,0.0,0.07920273541988856,0.0,0.010364775803336545,0.08956751122322511
