method,package1,package2,dram1,dram2,energy
AppContext$2.run,0.09697385580154275,0.0,0.00897471867856814,0.0,0.10594857448011089
ArrayList.add,0.011995252069703964,0.0,0.0011695651143740632,0.0,0.013164817184078028
BoundingIntervalHierarchy.intersect,0.29705154444400345,0.4595302703564231,0.04514346582341623,0.06378303181942016,0.8655083124432629
BucketRenderer$ImageSample.sampled,0.0014340252453705546,0.0,0.000271388499269838,0.0,0.0017054137446403926
BucketRenderer.refineSamples,0.026141298799969303,0.0,0.003886603636594153,0.0,0.030027902436563454
BucketRenderer.renderBucket,0.0,0.0014914358971276295,0.0,0.0002053846153732873,0.0016968205125009168
BufferedImage.getRGB,0.06986838889052807,0.0,0.006934166666218921,0.0,0.07680255555674699
BufferedInputStream.<init>,0.038685090908653685,0.0,0.004224545453987295,0.0,0.04290963636264098
Chaperone.retire,0.0,0.0,0.0,0.0,0.0
ClassLoader.defineClass1,0.07867474768864391,0.0,0.009203800328063151,0.0,0.08787854801670705
Color.blend,0.0,0.006217542222088755,0.0,0.0009205777777619744,0.007138119999850729
Color.copy,0.027424814631435167,0.0,0.0035455517163306915,0.0,0.030970366347765857
Color.madd,0.015591726968107709,0.0,0.0018033505861642595,0.0,0.017395077554271967
DataInputStream.readUTF,0.022435897435897436,0.0,0.0016826923076270106,0.0,0.024118589743524446
DisabledAlgorithmConstraints.<init>,0.07837503671198519,0.0,0.009967226103112823,0.0,0.08834226281509801
Disposer$1.<init>,0.0419256363635544,0.0,0.005075454545889938,0.0,0.047001090909444335
FileOutputStream.writeBytes,0.06918531353729533,0.0,0.008315550132914157,0.0,0.07750086367020949
Geometry.intersect,0.015740288266259072,0.01347631890888865,0.002409177485086541,0.001695197345900358,0.03332098200613462
Hashtable.get,0.026245333331947524,0.0,0.0029299999999542093,0.0,0.029175333331901733
IIORegistry.registerStandardSpis,0.03687636363743381,0.0,0.0031800000003634273,0.0,0.040056363637797236
ImageTypeSpecifier$Packed.<init>,0.07027200000205387,0.0,0.007200000000011642,0.0,0.07747200000206551
Instance.intersect,0.028994144241312768,0.017170083412859687,0.003729724325124104,0.002497950585995688,0.05239190256529225
InstanceList.intersectPrimitive,0.033650864445449694,0.0567707594741471,0.004680970685051786,0.008303124516637467,0.10340571912128604
InstantGI.getIrradiance,0.030343728361135316,0.07865176845561586,0.004110608071084579,0.011469796395393377,0.12457590128322914
KDTree.buildTree,0.27100818192956827,0.0,0.02858400337891454,0.0,0.2995921853084828
KDTree.intersect,0.2401096838953098,0.4483129386594039,0.03324856613616825,0.06268806669787275,0.7843592553887546
KDTree.radix12,0.0,0.0,0.0,0.0,0.0
KDTree.unpackObject,0.020566291667516147,0.0,0.003388750000037059,0.0,0.023955041667553207
LightSample.setRadiance,0.009750864099399558,0.0,0.0012452325968300188,0.0,0.010996096696229576
LightSample.setShadowRay,0.018602684560441902,0.010686316456105191,0.0023190142047237964,0.0014478481012760215,0.03305586332254691
LightServer$1.run,0.0,0.0,0.0,0.0,0.0
Logger.<init>,0.02679831412386133,0.0,0.0023919464657996482,0.0,0.02919026058966098
Manifest.<init>,0.0,0.0,0.0,0.0,0.0
Math.acos,0.006516636996931753,0.0,0.0006809375083212576,0.0,0.007197574505253011
Matrix4.transformPZ,0.026106553304038736,0.015681211480683507,0.004326272661990926,0.0021428526782670413,0.04825689012498021
MemberResolver.getInvalidNames,0.0419256363635544,0.0,0.005075454545889938,0.0,0.047001090909444335
NullAccelerator.intersect,0.020225343747430943,0.006138798701176239,0.002984409051575368,0.0009569805194717317,0.030305532019654285
Object.<init>,0.0,0.002625305194811375,0.0,0.00035668831168987267,0.0029819935065012477
PKCS7.parseSignedData,0.017977256410514918,0.0,0.0017809615383623913,0.0,0.019758217948877308
PNGImageReader.<init>,0.11828600000202034,0.0,0.01148999999956383,0.0,0.12977600000158418
PNGImageReader.decodePass,0.08258733333140197,0.0,0.0051033333333584275,0.0,0.0876906666647604
Pattern$CharProperty.match,0.0,0.0010219103928219592,0.0,0.00014275196019006032,0.0011646623530120195
Pattern$SliceI.match,0.07612599999993107,0.0,0.004747499999211868,0.0,0.08087349999914294
Point3.normal,0.0,0.0072420251851737566,0.0,0.000929133333338541,0.008171158518512297
Provider$Service.getImplClass,0.038685090908653685,0.0,0.004224545453987295,0.0,0.04290963636264098
QMC.halton,0.0025530539878971643,0.0027706396203067106,0.00030436234599361947,0.00029301369859019937,0.005921069652787695
QMC.mod1,0.0,0.014854673257266712,0.0,0.001831982310047638,0.01668665556731435
Ray.<init>,0.004149138469354743,0.09077341982713452,0.0007466118900403826,0.013112226116562556,0.1087813963030922
Ray.dot,0.014006709193721451,0.0,0.0019499909072682234,0.0,0.015956700100989676
Ray.getMax,0.027069787716664927,0.0035459274075347585,0.0036600740578198953,0.00039624444442408816,0.034672033626443666
Ray.isInside,0.08893358123749068,0.060208222931266334,0.012052941962936293,0.008590944495478491,0.16978569062717178
Ray.transform,0.08753266548968067,0.0754097546447492,0.011969674363140012,0.010747800468189496,0.18565989496575935
SHA.implCompress,0.06295775000035064,0.0,0.0038100000001577428,0.0,0.06676775000050839
Scene.getRadiance,0.0,0.008739369277446616,0.0,0.0013415886782684365,0.010080957955715054
Scene.trace,0.0,0.013706742856967527,0.0,0.0020455714285552468,0.015752314285522775
Scene.traceShadow,0.0,0.009493453997171705,0.0,0.001413496061404278,0.010906950058575983
ServiceRegistry.<init>,0.015247636363545262,0.0,0.0015981818181568415,0.0,0.016845818181702103
ShadingState$LightSampleIterator.next,0.013442092048573532,0.0,0.002210546415961053,0.0,0.015652638464534584
ShadingState.<init>,0.0,0.007404823528509889,0.0,0.0009382897364058707,0.00834311326491576
ShadingState.addSample,0.011963012398711838,0.01791172469673897,0.0015488908793479645,0.002373886639667064,0.03379751461446583
ShadingState.getRandom,0.01005066210086833,0.01304059999986618,0.001452310814487392,0.001757999999972526,0.026301572915194426
Sphere.intersectPrimitive,0.0,0.015864450424428078,0.0,0.0024714830544602835,0.01833593347888836
StrictMath.acos,0.0017460112767464287,0.018490888914594404,0.00024087563056374815,0.002293309441148298,0.02277108526305288
SunToolkit.initEQ,0.015247636363545262,0.0,0.0015981818181568415,0.0,0.016845818181702103
System.nanoTime,0.0,0.0,0.0,0.0,0.0
Thread.start0,0.0040387809523270415,0.0,0.0005721428571546094,0.0,0.004610923809481651
TriangleMesh$WaldTriangle.intersect,0.17052686522964444,0.22501907211441352,0.022106219938496534,0.032222668957676635,0.4498748262402311
TriangleMesh.getPoint,0.0,0.006810897435897436,0.0,0.0010446153845782063,0.007855512820475643
TriangleMesh.intersectPrimitive,0.020535150843056547,0.023841997417384762,0.0023511041732407834,0.003467602706493215,0.05019585514017531
TriangleMeshLight$TriangleLight.getSamples,0.15889881906751616,0.1681676903816924,0.02086513828187799,0.02483436989466874,0.3727660176257553
TriangleMeshLight$TriangleLight.intersectTriangleKensler,0.0,0.025764460939449632,0.0,0.002766283717589112,0.028530744657038743
URL.<init>,0.026920780258127167,0.0,0.00212018997176813,0.0,0.029040970229895297
Vector3.div,0.0,0.01940605128243661,0.0,0.002904230769276276,0.022310282051712885
Vector3.dot,0.034776922988118616,0.0448895052084084,0.00442376657433355,0.005990076664753373,0.09008027143561394
