method,package1,package2,dram1,dram2,energy
792791759.run|AccessController.doPrivileged|Disposer.<clinit>,0.0,0.014994333330832887,0.0,0.002050000000053842,0.01704433333088673
ASCIICaseInsensitiveComparator.lowerCaseHashCode|Attributes$Name.hashCode|HashMap.hash,0.0,0.002639658121505561,0.0,0.0005371794871350105,0.003176837608640571
AppContext$2.run|AppContext$2.run|AccessController.doPrivileged,0.0,0.04509112821408332,0.0,0.005858461538035696,0.050949589752119016
BigInteger.multiplyToLen|BigInteger.implMontgomeryMultiply|BigInteger.montgomeryMultiply,0.0,0.06237781818543391,0.0,0.007260000000149541,0.06963781818558346
BoundingBox.getMaximum|KDTree.intersect|Geometry.intersect,0.0024172717507273352,0.005333259999752045,0.0002613799140646954,0.0006026999999812687,0.008614611664525346
BoundingBox.getMinimum|KDTree.intersect|Geometry.intersect,0.01274871801971347,0.0,0.0014640895492758189,0.0,0.014212807568989289
BoundingIntervalHierarchy.intersect|Scene.trace|Scene.traceShadow,0.6270177540961327,0.4876083269477658,0.0810000709514931,0.07477463989583817,1.27040079189123
BucketRenderer.renderBucket|BucketRenderer.access$300|BucketRenderer$BucketThread.run,0.0,0.0028736251851767987,0.0,0.0004698888888890872,0.003343514074065886
BufferedInputStream.read|DataInputStream.readInt|AttributeInfo.<init>,0.0,0.07401207692171924,0.0,0.010806923076858928,0.08481899999857817
BufferedInputStream.read|DataInputStream.readUnsignedShort|MethodInfo.read,0.0,0.0,0.0,0.0,0.0
Chaperone.retire|Chaperone.dismiss|Chaperone.main,0.0,0.0,0.0,0.0,0.0
Class.forName0|Class.forName|SunToolkit.initEQ,0.0,0.03577915384346105,0.0,0.005190769230886453,0.040969923074347506
CodeAttribute.setAttribute|MethodInfo.rebuildStackMap|MethodInfo.rebuildStackMapIf6,0.0,0.022105818182215884,0.0,0.0022090909090669198,0.024314909091282803
Color.<init>|Color.copy|LightSample.setRadiance,0.0,0.020133847848184783,0.0,0.0030913609864785625,0.023225208834663346
Color.blend|Color.blend|InstantGI.getIrradiance,0.0,0.011457366276046476,0.0,0.0013577635720092155,0.012815129848055691
Color.blend|InstantGI.getIrradiance|LightServer.getIrradiance,0.0,0.04752568396057772,0.0,0.008370944945194216,0.05589662890577193
Color.copy|LightSample.setRadiance|TriangleMeshLight$TriangleLight.getSamples,0.007956291269229128,0.009283647311460828,0.000976980924406568,0.0015344516129135305,0.019751371118010057
File.getCanonicalPath|FilePermission$1.run|FilePermission$1.run,0.0,0.040842666666624915,0.0,0.005509999999958382,0.046352666666583296
FileOutputStream.writeBytes|FileOutputStream.write|BufferedOutputStream.write,0.0,0.07415766665750803,0.0,0.010200000000016493,0.08435766665752452
Formatter.parse|Formatter.format|Formatter.format,0.0,0.02648557575638265,0.0,0.003425454545349842,0.02991103030173249
Geometry.intersect|Instance.intersect|InstanceList.intersectPrimitive,0.01698289535760435,0.005968964468420651,0.001931749931570657,0.000902969140695258,0.025786578898290915
IIORegistry.registerStandardSpis|IIORegistry.<init>|IIORegistry.getDefaultInstance,0.0,0.03157233333256907,0.0,0.002950769230991659,0.03452310256356073
Inflater.inflateBytes|Inflater.inflate|InflaterInputStream.read,0.0,0.1432899999927031,0.0,0.0196000000002338,0.16288999999293688
InputStreamImageInputStreamSpi.createInputStreamInstance|ImageIO.createImageInputStream|ImageIO.read,0.0,0.03519851282367315,0.0,0.003171538461407553,0.038370051285080704
Instance.intersect|InstanceList.intersectPrimitive|BoundingIntervalHierarchy.intersect,0.015497890991226887,0.16227775645189793,0.0015579039658063073,0.02514649123728189,0.204480042646213
InstanceList.intersectPrimitive|BoundingIntervalHierarchy.intersect|Scene.trace,0.21030274483937975,0.0,0.02569531752101131,0.0,0.23599806236039106
InstantGI.getIrradiance|LightServer.getIrradiance|ShadingState.getIrradiance,0.04976086234457286,0.12586693744742758,0.005884745541157081,0.017140030607374266,0.1986525759405318
IntersectionState.getStackTop|BoundingIntervalHierarchy.intersect|Scene.trace,0.003610815154923175,0.0,0.00041517795638414373,0.0,0.004025993111307319
IntersectionState.setIntersection|Sphere.intersectPrimitive|NullAccelerator.intersect,0.0,0.0005465400953637322,0.0,9.128875497094257e-05,0.0006378288503346747
KDTree$BuildTask.<init>|KDTree.buildTree|KDTree.buildTree,0.011081171746219724,0.0,0.0012160291302996873,0.0,0.01229720087651941
KDTree.buildTree|KDTree.buildTree|KDTree.build,0.03081692675227596,0.0,0.003372933662261839,0.0,0.0341898604145378
KDTree.buildTree|KDTree.buildTree|KDTree.buildTree,0.04879120736460415,0.0,0.005070971839988999,0.0,0.053862179204593144
KDTree.intersect|Geometry.intersect|Instance.intersect,0.8785009732778465,0.6399174046697184,0.10197207491566081,0.09495118197133497,1.7153416348345605
KDTree.radix12|KDTree.build|Geometry.build,0.0,0.0,0.0,0.0,0.0
Level.<init>|Level.<init>|Level.<clinit>,0.0,0.019590424243219648,0.0,0.0026109090910970485,0.022201333334316696
LightSample.setRadiance|TriangleMeshLight$TriangleLight.getSamples|LightServer.initLightSamples,0.0006909163225805615,0.03181834194964445,7.942964353552351e-05,0.004948191006309288,0.037536878922069826
LightSample.setShadowRay|TriangleMeshLight$TriangleLight.getSamples|LightServer.initLightSamples,0.0032874735559324103,0.0,0.0004574999999431245,0.0,0.003744973555875535
Logger.<init>|Logger.<clinit>|LoggingProxyImpl.getLogger,0.0,0.022105818182215884,0.0,0.0022090909090669198,0.024314909091282803
ManifestDigester.<init>|JarVerifier.processEntry|JarVerifier.update,0.0,0.03095771428387688,0.0,0.003552653061362224,0.03451036734523911
Matrix4.transformPX|Ray.transform|Instance.intersect,0.09960842462186295,0.0103477610387029,0.011524184282734825,0.0013577142857353795,0.12283808422903605
Matrix4.transformPY|Ray.transform|Instance.intersect,0.0006055120840070384,0.0,9.858207476261457e-05,0.0,0.000704094158769653
Matrix4.transformPZ|Ray.transform|Instance.intersect,0.0654933026940833,0.011269791195384115,0.00918714092063232,0.002070895659476851,0.08802113046957658
MirrorShader.getRadiance|LightServer.getRadiance|Scene.getRadiance,0.0,0.03506235768602186,0.0,0.0062082562659529356,0.041270613951974795
NullAccelerator.intersect|Geometry.intersect|Instance.intersect,0.057860901660186745,0.01522412926724216,0.00700143358690471,0.0014297427450066056,0.08151620725934022
PKCS7.<init>|SignatureFileVerifier.<init>|JarVerifier.processEntry,0.0,0.01539918367250436,0.0,0.0017763265304831266,0.017175510202987486
PNGImageReaderSpi.createReaderInstance|ImageReaderSpi.createReaderInstance|ImageIO$ImageReaderIterator.next,0.0,0.014994333330832887,0.0,0.002050000000053842,0.01704433333088673
Pattern.createGroup|Pattern.group0|Pattern.sequence,0.0,0.008707636362294468,0.0,0.0009963636363285,0.009703999998622969
PlatformLogger$JavaLoggerProxy.<clinit>|PlatformLogger.<init>|PlatformLogger.getLogger,0.0,0.019590424243219648,0.0,0.0026109090910970485,0.022201333334316696
Ray.<init>|InstantGI.getIrradiance|LightServer.getIrradiance,0.04035428912464503,0.025994034585881485,0.004516171773545149,0.004194036702450849,0.0750585321865225
Ray.<init>|TriangleMeshLight$TriangleLight.getSamples|LightServer.initLightSamples,0.0,0.008692547180476105,0.0,0.0013232732118419856,0.01001582039231809
Ray.getMax|BoundingIntervalHierarchy.intersect|Scene.trace,0.008420568260468145,0.011430274249005883,0.0009212058211940748,0.002044957898718656,0.022817006229386757
Ray.getMax|Instance.intersect|InstanceList.intersectPrimitive,0.013197624020372715,0.0005463528685199449,0.0013259947225190498,9.12574824358958e-05,0.015161229093847607
Ray.getMax|KDTree.intersect|Geometry.intersect,0.06472741643388001,0.0,0.007127577890328669,0.0,0.07185499432420868
Ray.getMin|BoundingIntervalHierarchy.intersect|Scene.trace,0.005212841071425785,0.0,0.0007201071428642622,0.0,0.005932948214290047
Ray.isInside|TriangleMesh$WaldTriangle.intersect|TriangleMesh.intersectPrimitive,0.022583255574141342,0.05091776784033845,0.002977036480555555,0.007023307058246081,0.08350136695328142
Ray.transform|Instance.intersect|InstanceList.intersectPrimitive,0.33635841030518654,0.22081458009029098,0.0405381608754818,0.030178589782960574,0.6278897410539199
Scene.getThreadPriority|BucketRenderer.render|Scene.render,0.0,0.012722870967287058,0.0,0.0023032258064162193,0.015026096773703278
Scene.traceShadow|ShadingState.traceShadow|InstantGI.getIrradiance,0.007328117388275059,0.0,0.000790807043239546,0.0,0.008118924431514605
Scene.trace|Scene.traceShadow|ShadingState.traceShadow,0.006211910447854645,0.0,0.0007144029850814379,0.0,0.006926313432936083
ShadingState.getRandom|TriangleMeshLight$TriangleLight.getSamples|LightServer.initLightSamples,0.015286296369734203,0.0,0.0015494883969446082,0.0,0.01683578476667881
SignatureFileVerifier.<clinit>|JarFile.initializeVerifier|JarFile.getInputStream,0.0,0.06913233333519504,0.0,0.009400000000217307,0.07853233333541235
Solvers.solveQuadric|Sphere.intersectPrimitive|NullAccelerator.intersect,0.02266175189834676,0.0,0.0026011528582685762,0.0,0.025262904756615336
Sphere.intersectPrimitive|NullAccelerator.intersect|Geometry.intersect,0.0,0.04825560159231673,0.0,0.0066238462594186785,0.05487944785173541
StrictMath.acos|Math.acos|TriangleMeshLight$TriangleLight.getSamples,0.19042695718929337,0.04679221733077785,0.022097986293088224,0.0066116378597486924,0.2659287986729081
String.startsWith|MetaIndex.mayContain|URLClassPath$JarLoader.getResource,0.0,0.03519851282367315,0.0,0.003171538461407553,0.038370051285080704
SubRegistry.<init>|ServiceRegistry.<init>|IIORegistry.<init>,0.0,0.03157233333256907,0.0,0.002950769230991659,0.03452310256356073
System.nanoTime|ClassLoader.loadClass|Launcher$AppClassLoader.loadClass,0.0,0.0,0.0,0.0,0.0
Throwable.getStackTraceElement|Throwable.getOurStackTrace|Throwable.getStackTrace,0.0,0.02811099999858665,0.0,0.003047142857342676,0.031158142855929324
TriangleMesh$WaldTriangle.<init>|TriangleMesh$WaldTriangle.<init>|TriangleMesh.init,0.0,0.06517177777843446,0.0,0.00728000000001177,0.07245177777844622
TriangleMesh$WaldTriangle.intersect|TriangleMesh.intersectPrimitive|KDTree.intersect,0.36899454306819185,0.13777594710929836,0.04250487513231679,0.0180466326029955,0.5673219979128026
TriangleMesh$WaldTriangle.intersect|TriangleMesh.intersectPrimitive|NullAccelerator.intersect,0.0,0.031814946819621444,0.0,0.0044300007829866875,0.03624494760260813
TriangleMesh.intersectPrimitive|KDTree.intersect|Geometry.intersect,0.03171761202547777,0.027909178618811748,0.003579120577844183,0.004384074352698924,0.06758998557483263
TriangleMesh.intersectPrimitive|NullAccelerator.intersect|Geometry.intersect,0.009616558305457002,0.0,0.001007947445294621,0.0,0.010624505750751623
TriangleMeshLight$TriangleLight.getSamples,0.023520491800231677,0.0011726595746833794,0.003278489768029447,0.00017617021276624228,0.028147811355710747
TriangleMeshLight$TriangleLight.getSamples|LightServer.initLightSamples|ShadingState.initLightSamples,0.01944588525340164,0.008396820317628602,0.0024056190992300013,0.001148190476200802,0.031396515146461045
UnixFileSystem.getBooleanAttributes0|UnixFileSystem.getBooleanAttributes|File.exists,0.0,0.02648557575638265,0.0,0.003425454545349842,0.02991103030173249
Vector3.dot|TriangleMeshLight$TriangleLight.getSamples|LightServer.initLightSamples,0.01011147619006113,0.0,0.000960714285611175,0.0,0.011072190475672304
