method,package1,dram1,energy
AWTFontFamily.deriveFont|AWTFontFamily.deriveFont|StrokingTextPainter.createModifiedACIForFontMatching,0.05813156364052548,0.00740585241043603,0.0655374160509615
AWTGVTGlyphVector.getOutline|AWTGVTGlyphVector.getBounds2D|GlyphLayout.getBounds2D,0.08527664000517689,0.01126080000057603,0.09653744000575291
AWTPathProducer.startPath|SVGAnimatedPathDataSupport.handlePathSegList|SVGPathElementBridge.buildShape,0.05201958333297322,0.006543749999915841,0.05856333333288906
AbstractElement.invalidateElementsByTagName|AbstractElement.nodeAdded|AbstractParentNode.appendChild,0.061286296297718465,0.0073927777777700815,0.06867907407548855
AbstractGraphicsNode.invalidateGeometryCache|CompositeGraphicsNode.invalidateGeometryCache|AbstractGraphicsNode.invalidateGeometryCache,0.07629621428142334,0.0078974999998666,0.08419371428128994
AbstractParentNode.getFirstChild|AbstractParentNode$ElementsByTagNameNS.initialize|AbstractParentNode$ElementsByTagNameNS.initialize,0.03370822892248301,0.004084289121120793,0.037792518043603805
AbstractRed.copyBand|FilterAlphaRed.copyData|PadRed.copyData,0.08624357919853945,0.013415035779406847,0.0996586149779463
Any2sRGBRed.copyData|FormatRed.copyData|AbstractRed.getData,0.448266382965725,0.06205036874169566,0.5103167517074206
AttributeInfo.read|CodeAttribute.<init>|AttributeInfo.read,0.06352973133770311,0.007382991054775487,0.07091272239247859
Benchmark.deleteTree|Benchmark.deleteTree|Benchmark.deleteTree,0.029784114584393825,0.004187726414396698,0.033971840998790526
Benchmark.fileFromInputStream|Benchmark.extractFileResource|Benchmark.prepareJars,0.353183444434156,0.03439833333343106,0.38758177776758707
Benchmark.fileFromInputStream|Benchmark.unpackZipStream|Benchmark.unpackZipFileResource,0.07844383333576842,0.01269583333335807,0.09113966666912648
BidiAttributedCharacterIterator.<init>|StrokingTextPainter.computeTextRuns|StrokingTextPainter.getTextRuns,0.06784681839392634,0.008499947135668194,0.07634676552959453
CSSClassCondition.match|CSSConditionalSelector.match|CSSEngine.addMatchingRules,0.08133782143080939,0.010472142857452129,0.09180996428826152
CSSUtilities.convertOpacity|AbstractGraphicsNodeBridge.buildGraphicsNode|SVGShapeElementBridge.buildGraphicsNode,0.03570560606242383,0.00406590909099605,0.03977151515341988
Chaperone.retire|Chaperone.dismiss|Chaperone.main,0.04508646421771225,0.007465242352056663,0.052551706569768916
ClassPool.getCached|ClassPool.checkNotFrozen|ClassPool.makeClass,0.046844547430596,0.0066180460269866645,0.05346259345758266
CodeAttribute.<init>|AttributeInfo.read|MethodInfo.read,0.07337221290714344,0.009101656916910408,0.08247386982405384
ComponentTransferRed.copyData|PadRed.copyData|CompositeRed.genRect,0.21931240558878048,0.03091279842137373,0.2502252040101542
CtClassType.<init>|ClassPool.makeClass|ClassPool.makeClass,0.0,0.0,0.0
CursorManager.<clinit>|BridgeContext.<init>|BridgeContext.<init>,0.09572277273797558,0.012962727271687154,0.10868550000966273
DacapoClassLoader.loadClass|ClassLoader.loadClass|AbstractParser.<init>,0.031362000003961533,0.004549999999956829,0.035912000003918365
DacapoClassLoader.loadClass|ClassLoader.loadClass|ClassLoader.defineClass1,0.08602916665161804,0.010969999999967207,0.09699916665158526
DacapoClassLoader.loadClass|ClassLoader.loadClass|PNGRed.readChunk,0.038156983620978406,0.005028148621684216,0.04318513224266262
DacapoClassLoader.loadClass|ClassLoader.loadClass|SVGAbstractTranscoder.<init>,0.035481833338659875,0.005875000000135818,0.041356833338795695
DacapoClassLoader.loadClass|ClassLoader.loadClass|SVGDOMImplementation$FilterElementFactory.create,0.03653624231590243,0.0046678277013330145,0.041204070017235445
DacapoClassLoader.loadClass|ClassLoader.loadClass|SVGDOMImplementation.<clinit>,0.030680333332081013,0.00496249999984381,0.03564283333192482
DestinationType.<clinit>|Main.<clinit>|Class.forName0,0.029001833332586106,0.005430000000160362,0.034431833332746464
DrawImage.copyImage|ValidatePipe.copyImage|SunGraphics2D.drawImage,0.058720480240906925,0.00691290281031002,0.06563338305121695
DuctusRenderingEngine$FillAdapter.appendLine|PathStroker.endPath|DuctusRenderingEngine.feedConsumer,0.04774830667884089,0.006255999999824174,0.054004306678665064
DuctusRenderingEngine.dropRasterizer|Rasterizer.dispose|AAShapePipe.renderTiles,0.03369122654494445,0.004610239166215871,0.03830146571116032
DuctusRenderingEngine.getAATileGenerator|AAShapePipe.renderPath|AAShapePipe.fill,0.05110079930693856,0.0057209421716296754,0.056821741478568236
ExtendedGeneralPath.closePath|AWTPathProducer.closePath|SVGAnimatedPathDataSupport.handlePathSegList,0.03894227272901458,0.004936363636233815,0.04387863636524839
ExtendedGeneralPath.lineTo|AWTPathProducer.linetoRel|SVGAnimatedPathDataSupport.handlePathSegList,0.04512454545792106,0.006467045454056377,0.05159159091197743
ExtensibleDOMImplementation.createCSSEngine|BridgeContext.initializeDocument|GVTBuilder.build,0.06290364101490316,0.007082307692960453,0.06998594870786361
FileChannelImpl.read|TrueTypeFont.getTableBuffer|TrueTypeFont.initNames,0.053438005979121926,0.005781032728279371,0.0592190387074013
FloatingDecimal$BinaryToASCIIBuffer.getChars|FloatingDecimal$BinaryToASCIIBuffer.toJavaFormatString|FloatingDecimal.toJavaFormatString,0.06628440000058618,0.009760499999538295,0.07604490000012447
FontManagerFactory$1.run|AccessController.doPrivileged|FontManagerFactory.getInstance,0.06352973133770311,0.007382991054775487,0.07091272239247859
GaussianBlurRed8Bit.boxFilterH|GaussianBlurRed8Bit.copyData|PadRed.copyData,0.0528204728261927,0.006990523614688936,0.059810996440881635
GaussianBlurRed8Bit.boxFilterV|GaussianBlurRed8Bit.copyData|PadRed.copyData,0.22836315774526317,0.033419053602564086,0.26178221134782725
GraphicsNodeRed8Bit.<init>|GraphicsNodeRable8Bit.createRendering|StaticRenderer.renderGNR,0.057065820532235564,0.00791061366987454,0.0649764342021101
GraphicsPrimitiveMgr.initIDs|GraphicsPrimitiveMgr.<clinit>|DrawLine.locate,0.10364357276412287,0.013054418804504368,0.11669799156862723
GraphicsPrimitiveMgr.locate|GraphicsPrimitiveMgr.locatePrim|GraphicsPrimitiveMgr.locate,0.031171528450381174,0.00466636739305136,0.035837895843432534
GraphicsUtil.copyData_INT_PACK|AbstractTiledRed.copyToRasterByBlocks|AbstractTiledRed.copyData,0.03871279148986537,0.00549170404692324,0.04420449553678861
GraphicsUtil.copyData|GraphicsUtil.copyData|FormatRed.copyData,0.24744265934615595,0.034302497660783776,0.2817451570069397
GraphicsUtil.copyData|GraphicsUtil.copyData|MorphologyOp.filter,0.07139455247970528,0.010170994290320493,0.08156554677002577
GraphicsUtil.divide_INT_PACK_Data|GraphicsUtil.divideAlpha|GraphicsUtil.coerceData,0.08491536400690644,0.012985071216294313,0.09790043522320076
GraphicsUtil.mult_INT_PACK_Data|GraphicsUtil.multiplyAlpha|GraphicsUtil.coerceData,0.04540372592303855,0.00590000926293938,0.05130373518597793
ImagingLib.transformBI|ImagingLib.filter|AffineTransformOp.filter,0.045479192769595764,0.005372589323224692,0.05085178209282046
Launcher$AppClassLoader.loadClass|ClassLoader.loadClass|Config.parse,0.06616200000280514,0.0027549999995244434,0.06891700000232959
Launcher$AppClassLoader.loadClass|ClassLoader.loadClass|TestHarness.main,0.0,0.0,0.0
MaskFill.MaskFill|AlphaColorPipe.renderPathTile|AAShapePipe.renderTiles,0.05399089425694047,0.006895110964490598,0.060886005221431075
MethodAccessorGenerator.emitInvoke|MethodAccessorGenerator.generate|MethodAccessorGenerator.generateConstructor,0.050323769260717056,0.006058812781508442,0.0563825820422255
MorphologyOp.filter|MorphologyOp.filter|MorphologyRable8Bit.createRendering,0.4505400641889266,0.059011839182393055,0.5095519033713196
MorphologyOp.isBetter|MorphologyOp.filter|MorphologyOp.filter,0.07931643577297659,0.01203761563028526,0.09135405140326185
NullSurfaceData.<clinit>|SurfaceData.initIDs|SurfaceData.<clinit>,0.031930245473038445,0.004250807534989454,0.0361810530080279
PNGEncodeParam.filterRow|PNGImageEncoder.encodePass|PNGImageEncoder.writeIDAT,0.7992326862482285,0.10894812872981449,0.908180814978043
PNGImageEncoder.clamp|PNGImageEncoder.encodePass|PNGImageEncoder.writeIDAT,0.13613406672035952,0.019977042327023957,0.15611110904738348
PNGImageEncoder.encodePass|PNGImageEncoder.writeIDAT|PNGImageEncoder.encode,6.408234711898003,0.8713887145073459,7.279623426405349
PNGRed.<clinit>,0.061898511905873116,0.008101557395519227,0.07000006930139234
PNGRed.decodePass|PNGRed.decodeImage|PNGRed.parse_IEND_chunk,0.05687325277290986,0.008050734095876472,0.06492398686878634
PNGRed.processPixels|PNGRed.decodePass|PNGRed.decodeImage,0.12743433547839544,0.017939820500036598,0.14537415597843203
PNGRegistryEntry$1.run,0.0,0.0,0.0
PaintServer.convertFillAndStroke|SVGShapeElementBridge.createShapePainter|SVGDecoratedShapeElementBridge.createFillStrokePainter,0.051549375002650784,0.0063187499995365215,0.057868125002187305
ParsedURL.getHandlersMap|ParsedURL.getHandler|ParsedURL.parseURL,0.0792846666687789,0.010824999999992237,0.09010966666877113
Parser2.init|Parser2.parse|XMLReaderImpl.parse,0.07782000001558723,0.008755000000140473,0.0865750000157277
PathFiller.writeAlpha8|PathFiller.writeAlpha|Rasterizer.getAlpha,0.15340629976531103,0.01845056634048154,0.17185686610579257
PathStroker.endPath|DuctusRenderingEngine.feedConsumer|DuctusRenderingEngine.createStrokedShape,0.2292137066593083,0.027452799999300618,0.2566665066586089
Rasterizer.<init>|DuctusRenderingEngine.getRasterizer|DuctusRenderingEngine.getAATileGenerator,0.051404227755326486,0.00688014895053111,0.05828437670585759
SAXDocumentFactory.startElement|Parser2.maybeElement|Parser2.content,0.06136632346771913,0.008492001483566337,0.06985832495128547
SAXParserFactoryImpl.newSAXParser|SAXDocumentFactory.createDocument|SAXDocumentFactory.createDocument,0.06949866666885403,0.010874999999941792,0.08037366666879582
SVGAnimatedPathDataSupport.handlePathSegList|SVGPathElementBridge.buildShape|SVGShapeElementBridge.createGraphicsNode,0.09560297403623297,0.013057938311331698,0.10866091234756467
SVGCSSEngine.<clinit>|SVGDOMImplementation.createCSSEngine|ExtensibleDOMImplementation.createCSSEngine,0.02851022222441517,0.003720000000342864,0.032230222224758034
SVGComposite$OverCompositeContext_INT_PACK_UNPRE.precompose_INT_PACK|SVGComposite$AlphaPreCompositeContext_INT_PACK.precompose|SVGComposite$OverCompositeContext_INT_PACK_UNPRE.compose,0.150486377317622,0.02194066754996731,0.1724270448675893
SVGDOMImplementation$FeOffsetElementFactory.create|SVGDOMImplementation.createElementNS|SVGOMDocument.createElementNS,0.03653624231590243,0.0046678277013330145,0.041204070017235445
SVGDOMImplementation.<clinit>|SVGAbstractTranscoder.<init>|ImageTranscoder.<init>,0.06615200000427042,0.010335000000547248,0.07648700000481767
SVGOMAnimatedLengthList.getBaseVal|SVGOMAnimatedLengthList$AnimSVGLengthList.getNumberOfItems|SVGTextElementBridge.getLocation,0.059371304457061735,0.0069297937992906684,0.0663010982563524
SVGOMElement.createLiveAnimatedNumberList|SVGOMTextPositioningElement.initializeLiveAttributes|SVGOMTextPositioningElement.<init>,0.04811160871379441,0.006172173913237993,0.05428378262703241
SVGOMElement.createLiveAnimatedString|SVGStylableElement.initializeLiveAttributes|SVGStylableElement.<init>,0.023166111112072098,0.0031577777772326954,0.026323888889304793
ShapeSpanIterator.nextSpan|Region.appendSpans|SunGraphics2D.validateCompClip,0.06477204171876061,0.00829687291307668,0.07306891463183729
StaticRenderer.updateWorkingBuffers|StaticRenderer.repaint|StaticRenderer.repaint,0.18602765180475694,0.02513574102414453,0.21116339282890148
StreamDecoder.readBytes|StreamDecoder.implRead|StreamDecoder.read,0.030670166665610545,0.004460000000411431,0.03513016666602198
StrikeCache.<clinit>|PhysicalStrike.<clinit>|SunFontManager.initIDs,0.041137989327170464,0.0052412241968307184,0.046379213524001185
StringNormalizingReader.read|NumberParser.parseFloat|PathParser._parsel,0.050722708335039585,0.0067718750005951725,0.05749458333563476
StrokeShapePainter.getPaintedBounds2D|CompositeShapePainter.getPaintedBounds2D|ShapeNode.getPrimitiveBounds,0.08201983999150493,0.010957199999878259,0.0929770399913832
StrokingTextPainter.paintTextRuns|StrokingTextPainter.paint|TextNode.primitivePaint,0.04936087428634596,0.00673594849362801,0.05609682277997397
SunGraphics2D.getRenderingHints|AbstractGraphicsNode.paint|ShapeNode.paint,0.06544435025757878,0.008283282165903407,0.07372763242348218
SunGraphicsEnvironment$1.run|AccessController.doPrivileged|SunGraphicsEnvironment.<init>,0.06237883916719445,0.008458187122602418,0.07083702628979686
SurfaceType.<clinit>|NullSurfaceData.<init>|NullSurfaceData.<clinit>,0.031930245473038445,0.004250807534989454,0.0361810530080279
T2KFontScaler.getGlyphImageNative|T2KFontScaler.getGlyphImage|FileFont.getGlyphImage,0.04936087428634596,0.00673594849362801,0.05609682277997397
T2KFontScaler.getGlyphMetricsNative|T2KFontScaler.getGlyphMetrics|FileFont.getGlyphMetrics,0.23918054458714605,0.03176023910278042,0.27094078368992647
TransformHelper.Transform|DrawImage.renderImageXform|DrawImage.transformImage,0.04591457280612485,0.007280152480752372,0.05319472528687722
TrueTypeFont$1.run|AccessController.doPrivileged|TrueTypeFont.open,0.04986326536043012,0.005834113139813307,0.05569737850024343
TrueTypeFont.open|TrueTypeFont.open|TrueTypeFont.getTableBuffer,0.04986326536043012,0.005834113139813307,0.05569737850024343
Type1Font.nextTokenType|Type1Font.initNames|Type1Font.verify,0.059953260414110005,0.006609655703177846,0.06656291611728785
UnicodeDecoder.decodeLoop|CharsetDecoder.decode|StringCoding$StringDecoder.decode,0.054416274192441084,0.006566627386864438,0.060982901579305526
Utf8Info.<init>|ConstPool.readOne|ConstPool.read,0.13379916668054648,0.0194399999994251,0.1532391666799716
Util.getTemporaryDirectBuffer|IOUtil.read|FileChannelImpl.read,0.060053686986807416,0.0073323579178037595,0.06738604490461117
X11FontManager.registerFontDir|X11FontManager.registerFontDirs|SunFontManager$10.run,0.05890675096969725,0.007825796711810929,0.06673254768150817
XMLAbstractTranscoder.transcode|SVGAbstractTranscoder.transcode|SVGConverter.transcode,0.09627266667666844,0.014009999999567905,0.11028266667623635
XMLReaderImpl.parse|SAXDocumentFactory.createDocument|SAXDocumentFactory.createDocument,0.07782000001558723,0.008755000000140473,0.0865750000157277
XmlReader$Iso8859_1Reader.read|XmlReader.read|InputEntity.fillbuf,0.1091685076552442,0.014714276519912188,0.12388278417515639
