method,package1,package2,dram1,dram2,energy
AAShapePipe.renderTiles|AAShapePipe.renderPath|AAShapePipe.fill,0.05645054408650385,0.0,0.006604598537719766,0.0,0.06305514262422361
AWTFontFamily.deriveFont|AWTFontFamily.deriveFont|StrokingTextPainter.createModifiedACIForFontMatching,0.08133453643253744,0.0,0.007736069730518618,0.0,0.08907060616305605
AbstractGraphicsNode.getTransformedPrimitiveBounds|AbstractGraphicsNode.getTransformedBounds|CompositeGraphicsNode.getPrimitiveBounds,0.03291235487243438,0.0,0.0034779091060412703,0.0,0.03639026397847565
AbstractRed.copyBand|FilterAlphaRed.copyData|PadRed.copyData,0.09861359968225983,0.0,0.009089864429115028,0.0,0.10770346411137485
AbstractSVGList.getItemImpl|AbstractSVGPathSegList.getItem|SVGOMAnimatedPathData$AnimSVGPathSegList.getItem,0.028718989163753532,0.0,0.00321423699588581,0.0,0.03193322615963934
AbstractSVGPathSegList.doParse|SVGOMAnimatedPathData$BaseSVGPathSegList.revalidate|AbstractSVGList.getNumberOfItems,0.019198221583828657,0.0,0.002180383555692235,0.0,0.021378605139520893
AlignmentBaselineManager.<clinit>|SVGCSSEngine.<clinit>|SVGDOMImplementation.createCSSEngine,0.03973866526309384,0.0,0.004293052812377545,0.0,0.044031718075471384
Any2sRGBRed.applyLut_INT|Any2LsRGBRed.copyData|PadRed.copyData,0.02587575436742705,0.0,0.0025885489677542404,0.0,0.028464303335181292
Any2sRGBRed.copyData|FormatRed.copyData|AbstractRed.getData,0.1610607196855344,0.0,0.010289562715013283,0.0,0.17135028240054767
AttributeInfo.read|CodeAttribute.<init>|AttributeInfo.read,0.03977780095922282,0.0,0.004493568356896273,0.0,0.044271369316119094
Benchmark.deleteFile|Benchmark.postIterationCleanup|Benchmark.postIteration,0.01903577527584635,0.0,0.00148716210356332,0.0,0.020522937379409672
Benchmark.fileFromInputStream|Benchmark.extractFileResource|Benchmark.prepareJars,0.37619395044630183,0.0,0.04537742685774039,0.0,0.4215713773040422
Benchmark.fileFromInputStream|Benchmark.unpackZipStream|Benchmark.unpackZipFileResource,0.07947309909451586,0.0,0.009738355682198396,0.0,0.08921145477671426
BidiAttributedCharacterIterator.<init>|StrokingTextPainter.computeTextRuns|StrokingTextPainter.getTextRuns,0.0885663468758845,0.0,0.00696650648147437,0.0,0.09553285335735887
BidiAttributedCharacterIterator.getAttribute|AttributedString.<init>|AttributedString.<init>,0.044182961504319454,0.0,0.005340492087461126,0.0,0.04952345359178058
ByteInterleavedRaster.getPixels|GraphicsUtil.copyData_FALLBACK|GraphicsUtil.copyData,0.025656404410236283,0.0,0.0018903217295275984,0.0,0.02754672613976388
ByteInterleavedRaster.setPixels|GraphicsUtil.copyData_FALLBACK|GraphicsUtil.copyData,0.04239421864664844,0.0,0.0026906795364255148,0.0,0.04508489818307396
CSSEngine.getCascadedStyleMap|CSSEngine.getComputedStyle|CSSUtilities.getComputedStyle,0.03614443392494413,0.0,0.0042336187376146965,0.0,0.040378052662558825
CSSEngine.getComputedStyle|CSSUtilities.getComputedStyle|PaintServer.convertStroke,0.06045781809707632,0.0,0.007008662083051543,0.0,0.06746648018012787
CSSEngine.getPropertyIndex|CSSEngine$StyleSheetDocumentHandler.property|Parser.parseStyleDeclaration,0.022553190637009068,0.0,0.0027974954489327518,0.0,0.02535068608594182
CSSEngine.sortRules|CSSEngine.addRules|CSSEngine.getCascadedStyleMap,0.0544666984533039,0.0,0.0057613285693719814,0.0,0.060228027022675885
CSSSelectorList.item|CSSEngine.addMatchingRules|CSSEngine.getCascadedStyleMap,0.10174830287576034,0.0,0.01305144215167698,0.0,0.11479974502743731
CSSUtilities.getCSSEngine|CSSUtilities.getComputedStyle|PaintServer.convertStroke,0.0544666984533039,0.0,0.0057613285693719814,0.0,0.060228027022675885
Chaperone.main,0.021493721293609568,0.0,0.0016502473248115952,0.0,0.023143968618421162
Chaperone.retire|Chaperone.dismiss|Chaperone.main,0.044775372259955634,0.0,0.006305996093599686,0.0,0.05108136835355532
CharTrie.unserialize|Trie.<init>|CharTrie.<init>,0.028937229332430564,0.0,0.003982000777157402,0.0,0.032919230109587964
ClassPool.get|CtClassType.getInterfaces|ThreadCoreMapInjector.isRunnable,0.06289519898858653,0.0,0.007590068204678219,0.0,0.07048526719326476
CodeAttribute.<init>|AttributeInfo.read|FieldInfo.read,0.06389839212983592,0.0,0.008565978004638656,0.0,0.07246437013447457
ColorManager.<clinit>|SVGCSSEngine.<clinit>|SVGDOMImplementation.createCSSEngine,0.03977780095922282,0.0,0.004493568356896273,0.0,0.044271369316119094
ComponentTransferRed.copyData|PadRed.copyData|CompositeRed.genRect,0.20224379671946677,0.0,0.014923394859361451,0.0,0.21716719157882822
CompositeGraphicsNode.getTransformedPrimitiveBounds|AbstractGraphicsNode.getTransformedBounds|CompositeGraphicsNode.getPrimitiveBounds,0.034049711124598175,0.0,0.0031688406315233475,0.0,0.03721855175612152
ConstPool.getClassInfo|ClassFile.getSuperclass|CtClassType.getSuperclass,0.01260497741228119,0.0,0.001351822065592447,0.0,0.013956799477873637
DacapoClassLoader.loadClass|ClassLoader.loadClass|ClassLoader.defineClass1,0.1763321895685693,0.0,0.020960266218245562,0.0,0.19729245578681487
DacapoClassLoader.loadClass|ClassLoader.loadClass|ParsedURL.getHandlersMap,0.0640941071465353,0.0,0.007235268108095256,0.0,0.07132937525463055
DacapoClassLoader.loadClass|ClassLoader.loadClass|SVGAbstractTranscoder.<init>,0.06389839212983592,0.0,0.008565978004638656,0.0,0.07246437013447457
DacapoClassLoader.loadClass|ClassLoader.loadClass|SVGDOMImplementation.<clinit>,0.03788928460754875,0.0,0.0047309147648985405,0.0,0.04262019937244729
DacapoClassLoader.loadClass|ClassLoader.loadClass|SVGOMElement.createLiveAnimatedString,0.031002705010450743,0.0,0.004041084475917097,0.0,0.03504378948636784
DacapoClassLoader.loadClass|ClassLoader.loadClass|XMLReaderImpl.parse,0.06511691327633763,0.0,0.006506723032741355,0.0,0.07162363630907899
DisabledAlgorithmConstraints$KeySizeConstraint.<init>|DisabledAlgorithmConstraints$Constraints.<init>|DisabledAlgorithmConstraints.<init>,0.028340957670730332,0.0,0.0036533764151156414,0.0,0.031994334085845975
ExtendedGeneralPath.getPathIterator|DuctusRenderingEngine.createStrokedShape|BasicStroke.createStrokedShape,0.060583881182107814,0.0,0.006553339585415272,0.0,0.06713722076752308
ExtendedGeneralPath.makeRoom|ExtendedGeneralPath.lineTo|AWTPathProducer.linetoRel,0.03734817162804966,0.0,0.0043969406758427075,0.0,0.04174511230389237
FcFontConfiguration.readFcInfo|FcFontConfiguration.init|FcFontConfiguration.<init>,0.03909880943364236,0.0,0.003350831794829608,0.0,0.042449641228471974
FcFontManager.getFontPathNative|X11FontManager.getFontPath|SunFontManager.getPlatformFontPath,0.046520124627324036,0.0,0.006914233876366529,0.0,0.05343435850369056
FieldInfo.read|FieldInfo.<init>|ClassFile.read,0.028381454204294027,0.0,0.003694599946626158,0.0,0.032076054150920186
FileChannelImpl.position0|FileChannelImpl.position|TrueTypeFont.readBlock,0.04153643509016167,0.0,0.005812571437403421,0.0,0.047349006527565095
FileChannelImpl.read|TrueTypeFont.getTableBuffer|TrueTypeFont.init,0.022023934001941654,0.0,0.0030486361871291034,0.0,0.025072570189070758
FileDispatcherImpl.read0|FileDispatcherImpl.read|IOUtil.readIntoNativeBuffer,0.10240154647832322,0.0,0.01296513114710588,0.0,0.1153666776254291
FontRunIterator.next|GlyphLayout.layout|ExtendedTextSourceLabel.createGV,0.04869668112137912,0.0,0.00581084185146569,0.0,0.05450752297284481
GaussianBlurRed8Bit.boxFilterH|GaussianBlurRed8Bit.copyData|PadRed.copyData,0.09514868033634438,0.0,0.008323364051545433,0.0,0.10347204438788982
GaussianBlurRed8Bit.boxFilterV|GaussianBlurRed8Bit.copyData|PadRed.copyData,0.07374666660468664,0.0,0.004754038731852554,0.0,0.07850070533653919
GlyphLayout$SDCache.<init>|GlyphLayout$SDCache.get|GlyphLayout.layout,0.03633071746472445,0.0,0.0024874726581665496,0.0,0.038818190122891
GraphicsPrimitiveMgr.locatePrim|GraphicsPrimitiveMgr.locate|FillSpans.locate,0.020390888877665374,0.0,0.0026689104665960912,0.0,0.023059799344261465
GraphicsUtil.copyData|GraphicsUtil.copyData|FormatRed.copyData,0.07600972448787931,0.0,0.005051368952349722,0.0,0.08106109344022903
GraphicsUtil.copyData|GraphicsUtil.copyData|MorphologyOp.filter,0.09638837473127378,0.0,0.0063465794155207166,0.0,0.1027349541467945
GraphicsUtil.divide_INT_PACK_Data|GraphicsUtil.divideAlpha|GraphicsUtil.coerceData,0.026555743131882012,0.0,0.003514710156933175,0.0,0.030070453288815188
GraphicsUtil.mult_INT_PACK_Data|GraphicsUtil.multiplyAlpha|GraphicsUtil.coerceData,0.026603000886376817,0.0,0.002046358003579561,0.0,0.02864935888995638
Handler.parseURL|URL.<init>|URL.<init>,0.053541792853820006,0.0,0.006941446968602439,0.0,0.060483239822422444
HashTable.put|SVGDOMImplementation.<clinit>|SVGAbstractTranscoder.<init>,0.0665788276090505,0.0,0.008474578426228377,0.0,0.07505340603527888
IDATOutputStream.flush|IDATOutputStream.write|DeflaterOutputStream.deflate,0.02971931278459746,0.0,0.0042751762003413185,0.0,0.03399448898493878
IOUtils.readFully|JarFile.getBytes|JarFile.getManifestFromReference,0.0640941071465353,0.0,0.007235268108095256,0.0,0.07132937525463055
InputEntity.getLineNumber|Parser2.maybeElement|Parser2.content,0.02974181941556717,0.0,0.0034687827605137662,0.0,0.03321060217608093
JPEGImageDecoderImpl.readJPEGStream|JPEGImageDecoderImpl.decodeAsBufferedImage|JPEGRegistryEntry$1.run,0.0,0.0,0.0,0.0,0.0
Launcher$AppClassLoader.loadClass|ClassLoader.loadClass|Class.forName0,0.04673495916588579,0.0,0.0056440063198738176,0.0,0.052378965485759606
Launcher$AppClassLoader.loadClass|ClassLoader.loadClass|Harness.main,0.0,0.0,0.0,0.0,0.0
Launcher$AppClassLoader.loadClass|ClassLoader.loadClass|TestHarness.main,0.07423900000000573,0.0,0.008184999999987971,0.0,0.0824239999999937
LoggingSupport.getLogger|PlatformLogger$JavaLoggerProxy.<init>|PlatformLogger$JavaLoggerProxy.<init>,0.06289519898858653,0.0,0.007590068204678219,0.0,0.07048526719326476
MorphologyOp.filter|MorphologyOp.filter|MorphologyRable8Bit.createRendering,0.4195566076743518,0.0,0.03291201563877391,0.0,0.45246862331312576
MorphologyOp.isBetter|MorphologyOp.filter|MorphologyOp.filter,0.08293495768813805,0.0,0.006959303036640422,0.0,0.08989426072477848
NameAndTypeInfo.<init>|ConstPool.readOne|ConstPool.read,0.10353271015208348,0.0,0.011574911520232,0.0,0.11510762167231549
NameAndTypeInfo.write|ConstPool.write|ClassFile.write,0.0436660544463052,0.0,0.005065727258869105,0.0,0.0487317817051743
PNGEncodeParam.filterRow|PNGImageEncoder.encodePass|PNGImageEncoder.writeIDAT,0.4616471364075233,0.0,0.050835909112867124,0.0,0.5124830455203905
PNGImageEncoder.encodePass|PNGImageEncoder.writeIDAT|PNGImageEncoder.encode,4.65242270982806,0.0,0.403139724437113,0.0,5.055562434265173
PNGImageEncoder.writeIDAT|PNGImageEncoder.encode|PNGTranscoderInternalCodecWriteAdapter.writeImage,0.04820244537245029,0.0,0.006648680093811161,0.0,0.05485112546626145
PNGRed.<clinit>,0.0,0.0,0.0,0.0,0.0
PNGRed.decodePaethFilter|PNGRed.decodePass|PNGRed.decodeImage,0.059484428167305856,0.0,0.00784457726980829,0.0,0.06732900543711415
PNGRed.decodePass|PNGRed.decodeImage|PNGRed.parse_IEND_chunk,0.06041131707099989,0.0,0.007128271863356281,0.0,0.06753958893435617
PNGRed.paethPredictor|PNGRed.decodePaethFilter|PNGRed.decodePass,0.04180871642447992,0.0,0.004586114827691532,0.0,0.04639483125217145
PNGRed.processPixels|PNGRed.decodePass|PNGRed.decodeImage,0.04719257595133332,0.0,0.005897053723780451,0.0,0.05308962967511377
Parser.createScanner|Parser.parseStyleSheet|CSSEngine.parseStyleSheet,0.018494342927154114,0.0,0.002037627915450865,0.0,0.02053197084260498
Parser2.content|Parser2.maybeElement|Parser2.content,0.04619029262528671,0.0,0.005540796183321734,0.0,0.051731088808608446
Parser2.init|Parser2.parse|XMLReaderImpl.parse,0.06511691327633763,0.0,0.006506723032741355,0.0,0.07162363630907899
Parser2.parseLiteral|Parser2.maybeElement|Parser2.content,0.12667088054912584,0.0,0.01606659594369772,0.0,0.14273747649282356
PathFiller.reset|Rasterizer.reset|DuctusRenderingEngine.dropRasterizer,0.031302047794385,0.0,0.0041506650193698985,0.0,0.0354527128137549
PathFiller.writeAlpha8|PathFiller.writeAlpha|Rasterizer.getAlpha,0.07517529355069172,0.0,0.009257158834386579,0.0,0.0844324523850783
PathParser._parsel|PathParser.parsel|PathParser.doParse,0.03734817162804966,0.0,0.0043969406758427075,0.0,0.04174511230389237
PathStroker.appendLine|DuctusRenderingEngine.feedConsumer|DuctusRenderingEngine.createStrokedShape,0.05229499364896701,0.0,0.005255701880856915,0.0,0.05755069552982393
PathStroker.beginPath|DuctusRenderingEngine.feedConsumer|DuctusRenderingEngine.createStrokedShape,0.05087201630366703,0.0,0.003373397674294948,0.0,0.054245413977961975
PathStroker.endPath|DuctusRenderingEngine.feedConsumer|DuctusRenderingEngine.createStrokedShape,0.11489870562018142,0.0,0.012829798205864837,0.0,0.12772850382604625
SAXDocumentFactory.startElement|Parser2.maybeElement|Parser2.content,0.06344119183299042,0.0,0.007543234020257237,0.0,0.07098442585324766
SAXParserImpl.<init>|SAXParserFactoryImpl.newSAXParser|SAXDocumentFactory.createDocument,0.04594168125042729,0.0,0.005392533925403249,0.0,0.05133421517583054
SVGAnimateTransformElementBridge.<init>|SVGBridgeExtension.registerTags|BridgeContext.registerSVGBridges,0.04630691241264727,0.0,0.004991663725298435,0.0,0.0512985761379457
SVGBridgeExtension.registerTags|BridgeContext.registerSVGBridges|BridgeContext.setDocument,0.04287736010272771,0.0,0.0056994303518926644,0.0,0.04857679045462038
SVGComposite$OverCompositeContext_INT_PACK_UNPRE.precompose_INT_PACK|SVGComposite$AlphaPreCompositeContext_INT_PACK.precompose|SVGComposite$OverCompositeContext_INT_PACK_UNPRE.compose,0.08009628368510455,0.0,0.007202881444402715,0.0,0.08729916512950726
SVGDOMImplementation.<clinit>|SVGAbstractTranscoder.<init>|ImageTranscoder.<init>,0.10446811221659924,0.0,0.013205493191126919,0.0,0.11767360540772616
SVGFeComponentTransferElementBridge.createFilter|SVGFilterElementBridge.buildLocalFilterPrimitives|SVGFilterElementBridge.buildFilterPrimitives,0.014592032700982291,0.0,0.0016330461447358648,0.0,0.016225078845718156
SVGOMDocument.createComment|SAXDocumentFactory$CommentInfo.createNode|SAXDocumentFactory.startElement,0.038301913221860405,0.0,0.0036417564391241267,0.0,0.041943669660984534
SVGStylableElement.getOverrideStyle|SVGStylableElement.getOverrideStyleDeclarationProvider|CSSEngine.getCascadedStyleMap,0.03614443392494413,0.0,0.0042336187376146965,0.0,0.040378052662558825
StandardGlyphVector.getGlyphsOutline|StandardGlyphVector.getGlyphOutline|AWTGVTFont.getGlyphGeometry,0.0331169637402131,0.0,0.004094606048538539,0.0,0.03721156978875164
StandardGlyphVector.initFontData|StandardGlyphVector.init|StandardGlyphVector.<init>,0.03312460366423392,0.0,0.0034870511819523665,0.0,0.03661165484618629
StandardGlyphVector.initPositions|StandardGlyphVector.getGlyphPosition|StandardGlyphVector.getGlyphMetrics,0.03814293337677396,0.0,0.004404174402904824,0.0,0.04254710777967879
StreamEncoder.writeBytes|StreamEncoder.implFlushBuffer|StreamEncoder.flushBuffer,0.049637301908631255,0.0,0.00657081118207681,0.0,0.05620811309070806
StrokingTextPainter.createModifiedACIForFontMatching|StrokingTextPainter.computeTextRuns|StrokingTextPainter.getTextRuns,0.049362605253033584,0.0,0.0050587016919222344,0.0,0.05442130694495582
SunFontManager.addDirFonts|SunFontManager.registerFontsInDir|SunFontManager.registerFontsOnPath,0.06908825528072933,0.0,0.007764018652244381,0.0,0.07685227393297371
SunFontManager.initIDs|SunFontManager.access$200|SunFontManager$1.run,0.05485769951731349,0.0,0.005411082433842829,0.0,0.060268781951156314
SunGraphics2D.getRenderingHints|AbstractGraphicsNode.paint|ShapeNode.paint,0.031302047794385,0.0,0.0041506650193698985,0.0,0.0354527128137549
SunGraphicsEnvironment.createGraphics|HeadlessGraphicsEnvironment.createGraphics|BufferedImage.createGraphics,0.040309776396089896,0.0,0.005205341629611974,0.0,0.04551511802570187
SunLayoutEngine.nativeLayout|SunLayoutEngine.layout|GlyphLayout$EngineRecord.layout,0.04257206360242338,0.0,0.0033840441919886434,0.0,0.045956107794412025
SurfaceData.<clinit>|SunGraphicsEnvironment.createGraphics|HeadlessGraphicsEnvironment.createGraphics,0.03777196420217336,0.0,0.005919498975260675,0.0,0.04369146317743403
T2KFontScaler.getGlyphImageNative|T2KFontScaler.getGlyphImage|FileFont.getGlyphImage,0.11776960718856538,0.0,0.012339615472455875,0.0,0.13010922266102126
T2KFontScaler.getGlyphMetricsNative|T2KFontScaler.getGlyphMetrics|FileFont.getGlyphMetrics,0.4198479967685349,0.0,0.04518546698155071,0.0,0.4650334637500856
TransformHelper.Transform|DrawImage.renderImageXform|DrawImage.transformImage,0.05813549299498913,0.0,0.005179634137166824,0.0,0.06331512713215595
TrueTypeFont$1.run|AccessController.doPrivileged|TrueTypeFont.open,0.0593663227666008,0.0,0.006421884659411119,0.0,0.06578820742601192
TrueTypeFont.initNames|TrueTypeFont.init|TrueTypeFont.<init>,0.09197833362921123,0.0,0.010027829133679968,0.0,0.1020061627628912
TrueTypeFont.init|TrueTypeFont.<init>|TrueTypeFont.<init>,0.08407319975690992,0.0,0.01135787053796166,0.0,0.09543107029487158
TrueTypeFont.open|TrueTypeFont.verify|TrueTypeFont.<init>,0.03242300373747425,0.0,0.004078216003601538,0.0,0.036501219741075785
Type1Font.nextTokenType|Type1Font.initNames|Type1Font.verify,0.15081861432383054,0.0,0.01967214309496725,0.0,0.1704907574187978
URLClassPath$JarLoader.getResource|URLClassPath.getResource|URLClassPath.getResource,0.06650085978136393,0.0,0.006804257853062275,0.0,0.07330511763442621
US_ASCII.newDecoder|StringCoding$StringDecoder.<init>|StringCoding$StringDecoder.<init>,0.04253676466674825,0.0,0.005545299100558241,0.0,0.04808206376730649
Utf8Info.<init>|ConstPool.readOne|ConstPool.read,0.0,0.0,0.0,0.0,0.0
X11FontManager.createFontConfiguration|SunFontManager$2.run|AccessController.doPrivileged,0.030477947733845562,0.0,0.004356724941542193,0.0,0.03483467267538776
X11FontManager.specificFontIDForName|X11FontManager.registerFontDir|X11FontManager.registerFontDirs,0.03642891354638717,0.0,0.00491786308018509,0.0,0.04134677662657226
XmlChars.isLetter|Parser2.maybeGetNameCacheEntry|Parser2.maybeElement,0.030727974944893093,0.0,0.0031958306591861173,0.0,0.03392380560407921
