method,hits
AAShapePipe.renderTiles,4
AWTFontFamily.deriveFont,4
AbstractGraphicsNode.getTransformedPrimitiveBounds,2
AbstractRed.copyBand,10
AbstractSVGList.getItemImpl,2
AbstractSVGPathSegList.doParse,2
AlignmentBaselineManager.<clinit>,2
Any2sRGBRed.applyLut_INT,2
Any2sRGBRed.copyData,8
AttributeInfo.read,2
Benchmark.deleteFile,2
Benchmark.fileFromInputStream,20
BidiAttributedCharacterIterator.<init>,4
BidiAttributedCharacterIterator.getAttribute,2
ByteInterleavedRaster.getPixels,2
ByteInterleavedRaster.setPixels,2
CSSEngine.getCascadedStyleMap,2
CSSEngine.getComputedStyle,2
CSSEngine.getPropertyIndex,2
CSSEngine.sortRules,2
CSSSelectorList.item,4
CSSUtilities.getCSSEngine,2
Chaperone.main,2
Chaperone.retire,1
CharTrie.unserialize,2
ClassPool.get,2
CodeAttribute.<init>,2
ColorManager.<clinit>,2
ComponentTransferRed.copyData,10
CompositeGraphicsNode.getTransformedPrimitiveBounds,2
ConstPool.getClassInfo,2
DacapoClassLoader.loadClass,18
DisabledAlgorithmConstraints$KeySizeConstraint.<init>,2
ExtendedGeneralPath.getPathIterator,2
ExtendedGeneralPath.makeRoom,2
FcFontConfiguration.readFcInfo,4
FcFontManager.getFontPathNative,4
FieldInfo.read,2
FileChannelImpl.position0,2
FileChannelImpl.read,2
FileDispatcherImpl.read0,4
FontRunIterator.next,2
GaussianBlurRed8Bit.boxFilterH,8
GaussianBlurRed8Bit.boxFilterV,6
GlyphLayout$SDCache.<init>,2
GraphicsPrimitiveMgr.locatePrim,2
GraphicsUtil.copyData,10
GraphicsUtil.divide_INT_PACK_Data,2
GraphicsUtil.mult_INT_PACK_Data,2
Handler.parseURL,2
HashTable.put,2
IDATOutputStream.flush,2
IOUtils.readFully,2
InputEntity.getLineNumber,2
JPEGImageDecoderImpl.readJPEGStream,4
Launcher$AppClassLoader.loadClass,6
LoggingSupport.getLogger,2
MorphologyOp.filter,22
MorphologyOp.isBetter,4
NameAndTypeInfo.<init>,4
NameAndTypeInfo.write,2
PNGEncodeParam.filterRow,24
PNGImageEncoder.encodePass,312
PNGImageEncoder.writeIDAT,2
PNGRed.<clinit>,4
PNGRed.decodePaethFilter,4
PNGRed.decodePass,4
PNGRed.paethPredictor,2
PNGRed.processPixels,4
Parser.createScanner,2
Parser2.content,2
Parser2.init,2
Parser2.parseLiteral,6
PathFiller.reset,2
PathFiller.writeAlpha8,6
PathParser._parsel,2
PathStroker.appendLine,2
PathStroker.beginPath,2
PathStroker.endPath,6
SAXDocumentFactory.startElement,2
SAXParserImpl.<init>,2
SVGAnimateTransformElementBridge.<init>,2
SVGBridgeExtension.registerTags,2
SVGComposite$OverCompositeContext_INT_PACK_UNPRE.precompose_INT_PACK,4
SVGDOMImplementation.<clinit>,4
SVGFeComponentTransferElementBridge.createFilter,2
SVGOMDocument.createComment,2
SVGStylableElement.getOverrideStyle,2
StandardGlyphVector.getGlyphsOutline,2
StandardGlyphVector.initFontData,2
StandardGlyphVector.initPositions,2
StreamEncoder.writeBytes,2
StrokingTextPainter.createModifiedACIForFontMatching,2
SunFontManager.addDirFonts,4
SunFontManager.initIDs,2
SunGraphics2D.getRenderingHints,2
SunGraphicsEnvironment.createGraphics,2
SunLayoutEngine.nativeLayout,2
SurfaceData.<clinit>,2
T2KFontScaler.getGlyphImageNative,8
T2KFontScaler.getGlyphMetricsNative,22
TransformHelper.Transform,4
TrueTypeFont$1.run,2
TrueTypeFont.init,4
TrueTypeFont.initNames,4
TrueTypeFont.open,2
Type1Font.nextTokenType,8
URLClassPath$JarLoader.getResource,2
US_ASCII.newDecoder,2
Utf8Info.<init>,2
X11FontManager.createFontConfiguration,2
X11FontManager.specificFontIDForName,2
XmlChars.isLetter,2
