method,hits
AWTGVTGlyphVector.getOutline,4
AbstractGraphicsNode.getTransformedPrimitiveBounds,2
AbstractRed.copyBand,8
Any2sRGBRed.copyData,8
AttributeInfo.<init>,4
Batik.<init>,2
BatikDomExtension.registerTags,2
Benchmark.deleteTree,2
Benchmark.fileFromInputStream,34
Benchmark.initialize,2
ByteInterleavedRaster.setPixels,4
CSSEngine$StyleDeclarationDocumentHandler.property,2
Chaperone.retire,2
ComponentTransferRed.copyData,10
ConfigFile.configOption,2
DacapoClassLoader.loadClass,10
DecimalFormatSymbolsProviderImpl.getInstance,2
DuctusRenderingEngine$FillAdapter.appendLine,2
DuctusRenderingEngine.getAATileGenerator,2
FcFontConfiguration.readFcInfo,2
FileChannelImpl.implCloseChannel,2
FontConfiguration.setEncoding,2
FontWeightManager.<clinit>,2
GaussianBlurRed8Bit.boxFilterH,4
GaussianBlurRed8Bit.boxFilterV,8
GraphicsPrimitiveMgr.initIDs,2
GraphicsUtil.copyData,10
GraphicsUtil.copyData_INT_PACK,2
GraphicsUtil.divide_INT_PACK_Data,4
GraphicsUtil.mult_INT_PACK_Data,2
Handler.parseURL,2
LocalizableSupport.getString,2
LocalizableSupport.lookupResourceBundle,2
LoggingSupport.getLogger,2
MethodInfo.read,2
MorphologyOp.filter,12
PNGEncodeParam.filterRow,16
PNGImageEncoder.clamp,2
PNGImageEncoder.encodePass,300
PNGRed.<clinit>,2
PNGRed.decodePass,2
PNGRed.processPixels,4
PaintServer.convertMarkers,2
PaintServer.convertStroke,2
ParallelListResourceBundle.keySet,2
ParseUtil.canonizeString,2
ParseUtil.encodePath,2
ParsedURL.<clinit>,2
Parser.createScanner,2
Parser2.<init>,2
Parser2.parseInternal,2
Parser2.parseLiteral,2
PathFiller.appendLine,2
PathLength.initialise,2
PathParser._parsel,2
PathStroker.endPath,2
PathStroker.reset,2
Resource.getBytes,6
SAXSVGDocumentFactory.resolveEntity,2
SVGCSSEngine.<clinit>,2
SVGComposite$OverCompositeContext_INT_PACK_UNPRE.precompose_INT_PACK,8
SVGDOMImplementation.<clinit>,2
SVGFeCompositeElementBridge.convertOperator,2
SignatureFileVerifier.<clinit>,2
StaticRenderer.updateWorkingBuffers,2
SunFontManager.addDirFonts,2
SunFontManager.initIDs,2
T2KFontScaler.getGlyphMetricsNative,2
TeeOutputStream.newLog,2
TeeOutputStream.write,4
TestHarness.<init>,2
TextNode.<init>,2
TrueTypeFont$1.run,2
TrueTypeFont.getTableBuffer,2
Type1Font.initNames,2
Type1Font.nextTokenType,4
URLClassPath$JarLoader.getResource,4
URLJarFile.<init>,2
XmlReader$Iso8859_1Reader.read,2
