method,package1,package2,dram1,dram2,energy
javassist,0.09149637241706988,0.0,0.011783647072326974,0.0,0.10328001948939686
javassist.bytecode,0.37468515610866737,0.0,0.0510118050255559,0.0,0.4256969611342233
javassist.compiler,0.082245166661677,0.0,0.01246666666687209,0.0,0.09471183332854909
org.apache.batik.bridge,0.26363913014360835,0.0,0.040281301528806907,0.0,0.3039204316724152
org.apache.batik.css.engine,0.03314647233843601,0.0,0.003124381847384289,0.0,0.0362708541858203
org.apache.batik.dom,0.08569333332707174,0.0,0.010920000000017657,0.0,0.09661333332708939
org.apache.batik.dom.svg,0.5711508249637857,0.0,0.0789095747050538,0.0,0.6500603996688394
org.apache.batik.ext.awt.geom,0.012225454547936377,0.0,0.001859090909254684,0.0,0.014084545457191061
org.apache.batik.ext.awt.image,0.521153449819354,0.4403696726235624,0.06709269904023392,0.050341438730908974,1.0789572602140591
org.apache.batik.ext.awt.image.codec.png,7.555835588317354,0.5713329781659124,0.9318582362894411,0.07227791459281031,9.131304717365518
org.apache.batik.ext.awt.image.rendered,1.1676990831063931,0.3811079086709133,0.16387828038296987,0.04616674709634756,1.758852019256624
org.apache.batik.gvt,0.18828316178170823,0.0,0.025147762244314774,0.0,0.213430924026023
org.apache.batik.gvt.font,0.17460972454874832,0.0,0.025550527086647016,0.0,0.20016025163539533
org.apache.batik.gvt.text,0.07411349395162495,0.0,0.00961888808037921,0.0,0.08373238203200416
org.apache.batik.i18n,0.05202903703751938,0.0,0.006995555555611779,0.0,0.059024592593131156
org.apache.batik.parser,0.04337706078536184,0.0,0.006258058412430525,0.0,0.049635119197792364
org.apache.batik.transcoder,0.03735157576209696,0.0,0.004944545454264064,0.0,0.042296121216361025
org.apache.crimson.parser,0.30433942317218476,0.0,0.04251655801761397,0.0,0.3468559811897987
org.dacapo.harness,0.7268690940898905,0.0,0.11726831744926057,0.0,0.8441374115391511
sun.awt,0.07591538473991312,0.0,0.009713537920028723,0.0,0.08562892265994185
sun.awt.image,0.0,0.035248613745632894,0.0,0.005110231355993958,0.04035884510162685
sun.dc,0.07657222293026307,0.0,0.010613984373543836,0.0,0.08718620730380691
sun.dc.pr,0.3384727020631386,0.0,0.046186121525637294,0.0,0.3846588235887759
sun.font,0.3190989816229789,0.0,0.039516977594536866,0.0,0.35861595921751577
sun.java2d,0.03871408431255552,0.0,0.005379109293268028,0.0,0.04409319360582355
sun.java2d.loops,0.04426831468586934,0.0,0.0059101096491954675,0.0,0.0501784243350648
sun.misc,0.2728552559533932,0.0,0.03958417047919843,0.0,0.31243942643259165
sun.net.www.protocol.jar,0.1248998233766529,0.0,0.018382652748384257,0.0,0.14328247612503714
sun.nio.cs,0.0042928888837599904,0.0,0.000659999999900012,0.0,0.004952888883660003
sun.security.util,0.019874666662265856,0.0,0.003400000000342347,0.0,0.023274666662608204
sun.text.normalizer,0.020206403493831696,0.0,0.002666174114170737,0.0,0.02287257760800243
sun.util.logging,0.044060053487617726,0.0,0.006593217544683732,0.0,0.05065327103230146
