method,package1,package2,dram1,dram2,energy
chappie,0.0662690935535652,0.0,0.007956243418411281,0.0,0.07422533697197647
javassist,0.06289519898858653,0.0,0.007590068204678219,0.0,0.07048526719326476
javassist.bytecode,0.2918613893040226,0.0,0.03474660715285464,0.0,0.32660799645687727
org.apache.batik.bridge,0.15824300366966115,0.0,0.018085468791298947,0.0,0.1763284724609601
org.apache.batik.css.engine,0.17362214111233343,0.0,0.019801104838970976,0.0,0.1934232459513044
org.apache.batik.css.engine.value.svg,0.07951646622231666,0.0,0.008786621169273819,0.0,0.08830308739159048
org.apache.batik.css.parser,0.12024264580291445,0.0,0.015089070067127845,0.0,0.1353317158700423
org.apache.batik.dom.svg,0.22683167011098598,0.0,0.026475488919443783,0.0,0.2533071590304298
org.apache.batik.dom.util,0.13002001944204092,0.0,0.016017812446485615,0.0,0.14603783188852654
org.apache.batik.ext.awt.geom,0.09793205281015747,0.0,0.01095028026125798,0.0,0.10888233307141545
org.apache.batik.ext.awt.image,0.30565312692251645,0.0,0.024161897972785888,0.0,0.32981502489530234
org.apache.batik.ext.awt.image.codec.png,5.40088864200675,0.0,0.4903555075287692,0.0,5.8912441495355194
org.apache.batik.ext.awt.image.rendered,1.1591807827582088,0.0,0.08984009243005633,0.0,1.2490208751882652
org.apache.batik.gvt,0.06696206599703255,0.0,0.006646749737564617,0.0,0.07360881573459717
org.apache.batik.gvt.font,0.08133453643253744,0.0,0.007736069730518618,0.0,0.08907060616305605
org.apache.batik.gvt.renderer,0.049362605253033584,0.0,0.0050587016919222344,0.0,0.05442130694495582
org.apache.batik.gvt.text,0.13274930838020393,0.0,0.012306998568935495,0.0,0.14505630694913943
org.apache.batik.parser,0.03734817162804966,0.0,0.0043969406758427075,0.0,0.04174511230389237
org.apache.crimson.jaxp,0.04594168125042729,0.0,0.005392533925403249,0.0,0.05133421517583054
org.apache.crimson.parser,0.26771990586631733,0.0,0.03158289792027458,0.0,0.2993028037865919
org.apache.crimson.util,0.030727974944893093,0.0,0.0031958306591861173,0.0,0.03392380560407921
org.dacapo.harness,0.9130364165559416,0.0,0.10864317924803858,0.0,1.0216795958039802
sun.awt,0.11342698590755677,0.0,0.016188821898093814,0.0,0.12961580780565057
sun.awt.image,0.06805062305688472,0.0,0.004581001265953113,0.0,0.07263162432283783
sun.awt.image.codec,0.0,0.0,0.0,0.0,0.0
sun.dc.pr,0.3245430569178922,0.0,0.03486672161477318,0.0,0.35940977853266537
sun.font,1.3513058053725602,0.0,0.14927714909956155,0.0,1.5005829544721216
sun.java2d,0.10938378839264826,0.0,0.015275505624242547,0.0,0.1246592940168908
sun.java2d.loops,0.07852638187265451,0.0,0.007848544603762915,0.0,0.08637492647641742
sun.java2d.pipe,0.05645054408650385,0.0,0.006604598537719766,0.0,0.06305514262422361
sun.misc,0.2515689260937907,0.0,0.02786853228101932,0.0,0.27943745837481004
sun.net.www.protocol.file,0.053541792853820006,0.0,0.006941446968602439,0.0,0.060483239822422444
sun.nio.ch,0.16596191557042655,0.0,0.021826338771638407,0.0,0.18778825434206498
sun.nio.cs,0.0921740665753795,0.0,0.01211611028263505,0.0,0.10429017685801456
sun.security.util,0.028340957670730332,0.0,0.0036533764151156414,0.0,0.031994334085845975
sun.text.normalizer,0.028937229332430564,0.0,0.003982000777157402,0.0,0.032919230109587964
sun.util.logging,0.06289519898858653,0.0,0.007590068204678219,0.0,0.07048526719326476
