method,package1,package2,dram1,dram2,energy
AWTGVTGlyphVector.<init>,0.05123900000277596,0.0,0.006727499999518234,0.0,0.0579665000022942
AbstractElement$NamedNodeHashMap.<init>,0.02318655555589228,0.0,0.003171666666579161,0.0,0.02635822222247144
Any2sRGBRed.applyLut_INT,0.07601991111102203,0.0,0.010877333333741666,0.0,0.0868972444447637
Benchmark.unpackZipStream,0.04149036110983514,0.0,0.0061366666672660755,0.0,0.04762702777710121
ByteInterleavedRaster.setPixels,0.0,0.04509172844864931,0.0,0.00468234889183167,0.04977407734048098
CSSEngine.disposeStyleMaps,0.029432555557125137,0.0,0.004066666666605871,0.0,0.03349922222373101
Chaperone.retire,0.053326666664496,0.0,0.006761111111093972,0.0,0.060087777775589976
ClassFile.read,0.10811366667621768,0.0,0.013120000000223323,0.0,0.121233666676441
ClassPool.compress,0.06181773332904816,0.0,0.010143000000526727,0.0,0.0719607333295749
CtClassType.getClassFile3,0.04831933332995201,0.0,0.006820000000516302,0.0,0.05513933333046831
FileDispatcherImpl.read0,0.01553677777863211,0.0,0.002266666666602961,0.0,0.017803444445235073
FileFontStrike.getFontMetrics,0.04156750000523364,0.0,0.005621874999709083,0.0,0.047189375004942725
FileURLConnection.connect,0.07413766667013988,0.0,0.010569999999764452,0.0,0.08470766666990433
FilterChainRable8Bit.paintRable,0.03950770833398565,0.0,0.006375000000010307,0.0,0.04588270833399596
GaussianBlurRed8Bit.boxFilterH,0.11115568627799659,0.0,0.016817647058761556,0.0,0.12797333333675814
GaussianBlurRed8Bit.boxFilterV,0.09205568627472603,0.0,0.014464705882168276,0.0,0.10652039215689431
GraphicsPrimitiveMgr.initIDs,0.030212444440823875,0.0,0.003943333333356551,0.0,0.034155777774180426
GraphicsUtil.copyData,0.0,0.04816062802887157,0.0,0.005484766379465794,0.05364539440833736
GraphicsUtil.copyData_INT_PACK,0.028395745102042225,0.0,0.0025494117642522853,0.0,0.03094515686629451
GraphicsUtil.divide_INT_PACK_Data,0.1537172600565494,0.0,0.018945046439678356,0.0,0.17266230649622777
GraphicsUtil.mult_INT_PACK_Data,0.04439022222844263,0.0,0.006538666666407758,0.0,0.050928888894850394
ImagingLib.transformBI,0.029307733331289557,0.0,0.005109333332964322,0.0,0.03441706666425388
InputEntity.getc,0.027343777777989287,0.0,0.003600000000005821,0.0,0.030943777777995108
InputEntity.ignorableWhitespace,0.017042948718134984,0.0,0.0020923076926220134,0.0,0.019135256410756998
JPEGImageDecoderImpl.readJPEGStream,0.0,0.0,0.0,0.0,0.0
LongVector.addElement,0.0350951999949757,0.0,0.005760000000009313,0.0,0.04085519999498501
MethodAccessorGenerator.generate,0.05044096970055817,0.0,0.006894545454115634,0.0,0.057335515154673805
MorphologyOp.filter,0.21137079999316483,0.0,0.028039499999431425,0.0,0.23941029999259625
MorphologyOp.isBetter,0.0874755999946501,0.0,0.01020900000039546,0.0,0.09768459999504556
MorphologyRable8Bit.createRendering,0.03950770833398565,0.0,0.006375000000010307,0.0,0.04588270833399596
NullSurfaceData.<clinit>,0.01658122222094486,0.0,0.0022166666666534078,0.0,0.018797888887598268
PNGEncodeParam.filterRow,0.47181879852962366,0.0,0.0642631282070252,0.0,0.5360819267366489
PNGImageEncoder.encodePass,0.05248913131424959,0.0,0.005867575757127435,0.0,0.05835670707137703
PNGRed.processPixels,0.0,0.028650697299612525,0.0,0.003739257942998019,0.03238995524261054
ParsedURL.<clinit>,0.07413766667013988,0.0,0.010569999999764452,0.0,0.08470766666990433
Parser.parseSimpleSelector,0.02834312499908265,0.0,0.004080000000158179,0.0,0.03242312499924083
Parser2.getc,0.02318655555589228,0.0,0.003171666666579161,0.0,0.02635822222247144
Parser2.parseInternal,0.07710766667150892,0.0,0.009440000000419484,0.0,0.08654766667192841
PathFiller.writeAlpha8,0.0761793030251283,0.0,0.009602727272453412,0.0,0.08578203029758172
PathStroker.endPath,0.05787298214497805,0.0,0.00849191964237304,0.0,0.06636490178735109
PhysicalStrike.<clinit>,0.03511181818215515,0.0,0.0059263636368004045,0.0,0.04103818181895555
Region.appendSpan,0.049314575757527936,0.0,0.006885454545529986,0.0,0.056200030303057924
SVGAnimatedPathDataSupport.handlePathSegList,0.04417720000492409,0.0,0.006539999999949941,0.0,0.05071720000487403
SVGComposite$OverCompositeContext_INT_PACK_UNPRE.precompose_INT_PACK,0.07169999999582374,0.0,0.01029315789549544,0.0,0.08199315789131918
SVGDOMImplementation.<clinit>,0.039388000001458236,0.0,0.006306666666205274,0.0,0.04569466666766351
SVGDOMImplementation.createElementNS,0.023437629630616692,0.0,0.00362666666694201,0.0,0.0270642962975587
SVGOMDocument.createTextNode,0.03968225641008944,0.0,0.005007692307677085,0.0,0.04468994871776653
SignatureFileVerifier.<clinit>,0.07260740000056103,0.0,0.01072199999980512,0.0,0.08332940000036615
StateTrackableDelegate.markDirty,0.046728400001302364,0.0,0.00737699999990582,0.0,0.054105400001208184
StrokingTextPainter.computeTextRuns,0.056719264368815664,0.0,0.006788965517349926,0.0,0.06350822988616558
SunFontManager.initIDs,0.03511181818215515,0.0,0.0059263636368004045,0.0,0.04103818181895555
SunGraphics2D.<clinit>,0.0438749230816029,0.0,0.005298461538143619,0.0,0.04917338461974652
SunGraphicsEnvironment.createGraphics,0.028408444441285808,0.0,0.0039133333335080855,0.0,0.03232177777479389
SunLayoutEngine.nativeLayout,0.05123900000277596,0.0,0.006727499999518234,0.0,0.0579665000022942
T2KFontScaler.getGlyphImageNative,0.030110666664162032,0.0,0.003349999999954889,0.0,0.03346066666411692
T2KFontScaler.getGlyphMetricsNative,0.15652885714163337,0.0,0.022015714286421174,0.0,0.17854457142805455
TestHarness.main,0.009969000006094577,0.0,0.0013799999990927365,0.0,0.011349000005187314
TextNode.<init>,0.059884000006099475,0.0,0.009973333333719994,0.0,0.06985733333981947
TransformHelper.Transform,0.03469373684492893,0.0,0.005163157894697321,0.0,0.03985689473962625
Type1Font.initNames,0.07372352525014478,0.0,0.0115636363641144,0.0,0.08528716161425917
Type1Font.nextTokenType,0.15860298268073159,0.0,0.021834870130121652,0.0,0.18043785281085323
Type1Font.skip,0.08180945454108897,0.0,0.01066545454501245,0.0,0.09247490908610143
Unsafe.copyMemory,0.01553677777863211,0.0,0.002266666666602961,0.0,0.017803444445235073
Utf8Info.<init>,0.04657276190950402,0.0,0.007005714285436885,0.0,0.053578476194940904
XmlReader$Iso8859_1Reader.read,0.049257592585894995,0.0,0.0060416666666343296,0.0,0.05529925925252933
