method,hits
ASCIICaseInsensitiveComparator.compare,2
AbstractNode.getOwnerDocument,2
Any2sRGBRed.applyLut_INT,2
AttributeInfo.read,2
Blit.makePrimitive,2
ByteInterleavedRaster.setPixels,2
CRC.updateCRC,2
CSSEngine.<init>,2
CSSEngine.addMatchingRules,2
CSSEngine.getComputedStyle,2
ConfigFileTokenManager.getNextToken,2
ConstPool.readOne,2
CustomComponent.register,2
FileChannelImpl.position0,2
FontConfiguration.setEncoding,4
GVTBuilder.buildGraphicsNode,2
GaussianBlurRed8Bit.boxFilterH,6
GaussianBlurRed8Bit.boxFilterV,10
GlyphLayout.layout,2
GraphicsPrimitiveMgr.initIDs,4
GraphicsUtil.copyData,4
GraphicsUtil.divide_INT_PACK_Data,4
GraphicsUtil.mult_INT_PACK_Data,6
ImagingLib.transformBI,2
InputEntity.parsedContent,2
MaskFill.MaskFill,2
MorphologyOp.filter,26
MorphologyOp.isBetter,4
MorphologyRable8Bit.createRendering,2
PNGEncodeParam.filterRow,20
PNGImageEncoder.encodePass,4
PNGRed.decodePaethFilter,2
PNGRed.processPixels,2
PNGRegistryEntry$1.run,2
PathStroker.cInitialize,2
PathStroker.endPath,6
PerfCounter.addElapsedTimeFrom,2
RootGraphicsNode.getTreeGraphicsNodeChangeListeners,2
SAXParserFactory.newInstance,2
SVGAbstractTranscoder.<init>,2
SVGBridgeExtension.registerTags,2
SVGComposite$OverCompositeContext_INT_PACK_UNPRE.precompose_INT_PACK,4
SVGDOMImplementation.<clinit>,4
SVGOMAnimatedPathData.getAnimatedPathSegList,2
SVGTextElementBridge.getAttributeMap,2
SVGTextElementBridge.getFontList,2
ShapeSpanIterator.nextSpan,2
StrokingTextPainter.computeTextRuns,2
SunFontManager.addCompositeToFontList,2
SunFontManager.addToPool,2
SunGraphics2D.validateColor,2
SunGraphicsEnvironment.getFontManagerForSGE,2
SurfaceData.<clinit>,2
T2KFontScaler.getGlyphImageNative,2
T2KFontScaler.getGlyphMetricsNative,8
T2KFontScaler.getGlyphOutlineNative,2
TransformHelper.Transform,2
Type1Font.getSimpleToken,2
Type1Font.nextTokenType,4
URLClassPath$JarLoader$2.getCodeSigners,2
Unsafe.copyMemory,2
