method,package1,package2,dram1,dram2,energy
AAShapePipe.getAlphaTile,0.06945412500135717,0.0,0.008488124999757929,0.0,0.0779422500011151
AWTGVTFont.createGlyphVector,0.056216631570765584,0.0,0.00622631578944652,0.0,0.0624429473602121
AWTGVTGlyphVector.computeGlyphLogicalBounds,0.02538033333257772,0.0,0.002637499999764259,0.0,0.02801783333234198
AWTGVTGlyphVector.draw,0.0,0.08631169140863387,0.0,0.011902788967759773,0.09821448037639365
AWTGVTGlyphVector.getGlyphPositions,0.05197488889744918,0.0,0.007256666666863667,0.0,0.05923155556431285
AbstractGraphicsNode.fireGraphicsNodeChangeStarted,0.0,0.07252575276444631,0.0,0.012431122420121213,0.08495687518456753
AbstractGraphicsNode.invalidateGeometryCache,0.0,0.04995742799542243,0.0,0.007829838666983077,0.05778726666240551
AbstractGraphicsNodeBridge.buildGraphicsNode,0.0,0.03694454622056728,0.0,0.006701828513402066,0.043646374733969345
AbstractNode.getPrefix,0.0,0.04995742799542243,0.0,0.007829838666983077,0.05778726666240551
AccessorGenerator.emitBoxingContantPoolEntries,0.0,0.039885169328792255,0.0,0.006937981612198903,0.04682315094099116
Any2sRGBRed.applyLut_INT,0.0,0.029312890888649457,0.0,0.007503361275013613,0.03681625216366307
BidiAttributedCharacterIterator.<init>,0.07670828571211867,0.0,0.010070714285813577,0.0,0.08677899999793225
ByteInterleavedRaster.setPixels,0.02004491666836353,0.0,0.002733750000061264,0.0,0.022778666668424794
CRC.updateCRC,0.0,0.0726677181902321,0.0,0.012016027238983313,0.08468374542921542
ClassClassPath.find,0.08007800000874946,0.0,0.010979999999714588,0.0,0.09105800000846405
ClassFile.read,0.06622300001132922,0.0,0.0081850000005943,0.0,0.07440800001192352
ConcreteTextLayoutFactory.createTextLayout,0.056216631570765584,0.0,0.00622631578944652,0.0,0.0624429473602121
ConfigFile.<init>,0.0191246666557466,0.0,0.0027199999998022877,0.0,0.021844666655548888
Curve.insertLine,0.041673210524063434,0.0,0.006324999999937095,0.0,0.04799821052400053
DisabledAlgorithmConstraints.<init>,0.03948466667255465,0.0,0.005950000000009621,0.0,0.045434666672564274
EAttribute.forAttribute,0.04958083334107262,0.0,0.005915000000034827,0.0,0.05549583334110745
ExtendedTextSourceLabel.createGV,0.0,0.04629103147352659,0.0,0.006514522524931793,0.052805553998458384
FactoryFinder.newInstance,0.08805366665668164,0.0,0.010924999999891345,0.0,0.09897866665657298
FcFontManager.getFontPathNative,0.0,0.032982923278265096,0.0,0.00558270390926722,0.038565627187532314
FileChannelImpl.position0,0.0,0.06752463598738645,0.0,0.01049415831923284,0.07801879430661929
FontConfiguration.setEncoding,0.0,0.03531659168920833,0.0,0.006234814604340122,0.041551406293548455
GaussianBlurRed8Bit.boxFilterV,0.0,0.13865866980582459,0.0,0.0277106543164505,0.1663693241222751
GlyphLayout$GVData.createGlyphVector,0.050280140359526534,0.0,0.0070589473688047735,0.0,0.05733908772833131
GlyphLayout.<init>,0.06693522806642903,0.0,0.00904842105279513,0.0,0.07598364911922416
GlyphLayout.adjustTextSpacing,0.03695666666802329,0.0,0.005490000000160458,0.0,0.042446666668183745
GlyphLayout.getStrikethroughShape,0.0,0.05271072032201897,0.0,0.008455861411450459,0.06116658173346943
GraphicsPrimitiveMgr.initIDs,0.1816825438551237,0.0,0.02619789473666108,0.0,0.2078804385917848
GraphicsUtil.divide_INT_PACK_Data,0.0,0.07093796503924127,0.0,0.012945364022222615,0.08388332906146388
GraphicsUtil.mult_INT_PACK_Data,0.0,0.06734391460672702,0.0,0.012159051286717269,0.07950296589344429
ImagingLib.transformBI,0.0,0.05755848372400246,0.0,0.010835452936092659,0.06839393666009512
InputEntity.maybeWhitespace,0.0,0.08604694857423319,0.0,0.012202707216147362,0.09824965579038054
Main.<clinit>,0.04476577777192384,0.0,0.006174583333682272,0.0,0.05094036110560611
MaskFill.DrawAAPgram,0.05123465079287555,0.0,0.00623380952360065,0.0,0.0574684603164762
MorphologyOp.filter,0.0,0.6922950680619805,0.0,0.10807857019769174,0.8003736382596722
NativeLibLoader.loadLibraries,0.05114750000211643,0.0,0.00630749999982072,0.0,0.05745500000193715
NumberParser.parseFloat,0.0,0.06984653971381392,0.0,0.011305126321400369,0.08115166603521429
PNGEncodeParam.filterRow,0.11044590908568352,0.2847521629584653,0.014829545454466075,0.04382538773078419,0.4538530052293991
PNGImageEncoder.encodePass,0.0,0.2589915282044558,0.0,0.03333683819327651,0.2923283663977323
PNGRed.<clinit>,0.036808692298319116,0.0,0.005476153846407564,0.0,0.04228484614472668
PNGRed.processPixels,0.03813674999886037,0.0,0.004419999999754509,0.0,0.042556749998614876
PNGTranscoderInternalCodecWriteAdapter.writeImage,0.03602454546622043,0.0,0.0048340909089264715,0.0,0.0408586363751469
ParsedURLData.openStreamInternal,0.08929433333105408,0.0,0.010940000000118744,0.0,0.10023433333117282
Parser2.maybeElement,0.09651957778486477,0.0,0.009208333333663176,0.0,0.10572791111852795
PathFiller.writeAlpha8,0.1939999087306436,0.0,0.024504032737823648,0.0,0.21850394146846724
PathStroker.endPath,0.09953323015996295,0.03440022552069045,0.013788809523883547,0.006950169488673848,0.15467243469321082
SVGComposite$OverCompositeContext_INT_PACK_UNPRE.precompose_INT_PACK,0.0,0.0744725279116651,0.0,0.010984306438482631,0.08545683435014773
SVGConverter.transcode,0.12099199999162615,0.0,0.015274999999746797,0.0,0.13626699999137293
SVGDOMImplementation.createElementNS,0.03677814285453808,0.0,0.004176428571164641,0.0,0.04095457142570272
SVGOMElement.getNodeName,0.0,0.07035289139669855,0.0,0.01182729089254973,0.08218018228924828
StrokingTextPainter.adjustChunkOffsets,0.049814833332978495,0.0,0.0054100000000592745,0.0,0.05522483333303777
SunFontManager.getInstalledFontFamilyNames,0.0,0.04902582922026879,0.0,0.007308355744907984,0.056334184965176774
SunGraphics2D.intersectByArea,0.02197896492087462,0.0,0.0031494736846836625,0.0,0.025128438605558284
SurfaceData.<clinit>,0.06033071929644058,0.0,0.008415789473905247,0.0,0.06874650877034583
SurfaceData.getSurfaceType,0.04376977193526711,0.0,0.006322105263168117,0.0,0.05009187719843523
SurfaceData.initIDs,0.03297712281295262,0.0,0.0046663157889972285,0.0,0.037643438601949845
SurfaceType.<clinit>,0.03297712281295262,0.0,0.0046663157889972285,0.0,0.037643438601949845
T2KFontScaler.getGlyphImageNative,0.041320833333884366,0.1544167937577826,0.005479999999503585,0.022424190588997365,0.22364181768016791
T2KFontScaler.getGlyphMetricsNative,0.2673172777625344,0.05594768867355085,0.03367916666537793,0.006841771868959656,0.3637859049704229
TileMap$TileMapLRUMember.setRaster,0.08096886362843426,0.0,0.010135227273002038,0.0,0.0911040909014363
TransformHelper.Transform,0.0,0.15005600391585666,0.0,0.020540599073316332,0.170596602989173
TrueTypeFont$1.run,0.0,0.0530026232784549,0.0,0.007184717293504004,0.0601873405719589
Type1Font.nextTokenType,0.0,0.3415967430131586,0.0,0.05152941019113041,0.393126153204289
ValueConstants.<clinit>,0.05306540909673045,0.0,0.0061159090908294075,0.0,0.05918131818755986
X11FontManager.createFontConfiguration,0.0,0.03531659168920833,0.0,0.006234814604340122,0.041551406293548455
XMLAbstractTranscoder.<clinit>,0.03243033332789006,0.0,0.003715000000132325,0.0,0.03614533332802239
XmlReader$Iso8859_1Reader.read,0.09081286665491967,0.0,0.007706666666450069,0.0,0.09851953332136973
