method,package1,package2,dram1,dram2,energy
AbstractGraphicsNode.getTransformedPrimitiveBounds,0.0,0.18303755555502396,0.0,0.03978999999991275,0.22282755555493672
BatikDomExtension.registerTags,0.0216336111083769,0.0,0.0033833333332545915,0.0,0.025016944441631495
Benchmark.initialize,0.05445874999713851,0.0,0.005429999999705615,0.0,0.059888749996844126
ByteInterleavedRaster.setPixels,0.09956128951272017,0.0,0.011259953219093876,0.0,0.11082124273181404
CSSEngine$StyleDeclarationDocumentHandler.property,0.04007577223022498,0.0,0.005948548430378538,0.0,0.04602432066060352
Chaperone.retire,0.06275398783913155,0.0,0.008629073575382678,0.0,0.07138306141451423
ConfigFile.configOption,0.05445874999713851,0.0,0.005429999999705615,0.0,0.059888749996844126
FontConfiguration.setEncoding,0.02477480469781182,0.0,0.004220213453949513,0.0,0.028995018151761334
FontWeightManager.<clinit>,0.04017947245766187,0.0,0.006315269679719035,0.0,0.046494742137380904
GaussianBlurRed8Bit.boxFilterH,0.0,0.14235368131693452,0.0,0.01692667582426274,0.15928035714119726
GaussianBlurRed8Bit.boxFilterV,0.0,0.24799761904831114,0.0,0.03353821428551046,0.2815358333338216
GraphicsPrimitiveMgr.initIDs,0.04454730865183528,0.0,0.006069609305611452,0.0,0.05061691795744673
GraphicsUtil.copyData_INT_PACK,0.0,0.0443970000007539,0.0,0.00662399999982881,0.05102100000058271
GraphicsUtil.divide_INT_PACK_Data,0.0,0.11815357142938106,0.0,0.016335428571273083,0.13448900000065414
GraphicsUtil.mult_INT_PACK_Data,0.0,0.061573538460577726,0.0,0.0077784615384119266,0.06935199999898965
MorphologyOp.filter,0.0,0.23419196666606393,0.0,0.029231999999804727,0.26342396666586865
PNGEncodeParam.filterRow,0.21222316370528777,0.20991311309487737,0.02865040665660065,0.029737410714401016,0.48052409417116676
PNGImageEncoder.clamp,0.0,0.030344666665769182,0.0,0.0048300000001593926,0.035174666665928576
PNGImageEncoder.encodePass,0.165928277948117,0.058720615385167416,0.02204637523374503,0.007130769230920681,0.25382603779795015
PNGRed.processPixels,0.0,0.0,0.0,0.0,0.0
PaintServer.convertMarkers,0.06720858241877556,0.0,0.009574803485854324,0.0,0.07678338590462988
ParallelListResourceBundle.keySet,0.0,0.0,0.0,0.0,0.0
ParseUtil.encodePath,0.0,0.03640733333304525,0.0,0.006554999999934807,0.04296233333298006
ParsedURL.<clinit>,0.030720972224824238,0.0,0.004543749999912607,0.0,0.035264722224736846
Parser.createScanner,0.04653367679192518,0.0,0.007161419721727255,0.0,0.05369509651365244
Parser2.<init>,0.03866752940709429,0.0,0.004745294117610148,0.0,0.043412823524704436
Parser2.parseInternal,0.012573294119005473,0.0,0.0014400000000023285,0.0,0.014013294119007801
PathFiller.appendLine,0.062441238776815004,0.0,0.008259927680280334,0.0,0.07070116645709534
PathParser._parsel,0.04629647149168289,0.0,0.006530532733306764,0.0,0.05282700422498965
PathStroker.endPath,0.0,0.05522806249988813,0.0,0.009587500000179716,0.06481556250006784
PathStroker.reset,0.0,0.05522806249988813,0.0,0.009587500000179716,0.06481556250006784
SVGCSSEngine.<clinit>,0.04017947245766187,0.0,0.006315269679719035,0.0,0.046494742137380904
SVGComposite$OverCompositeContext_INT_PACK_UNPRE.precompose_INT_PACK,0.0,0.19907200000016018,0.0,0.026682000000073456,0.22575400000023363
SVGDOMImplementation.<clinit>,0.03275555555673135,0.0,0.005502083333542234,0.0,0.03825763889027358
SVGFeCompositeElementBridge.convertOperator,0.0,0.0440696296303671,0.0,0.006066666666676475,0.050136296297043574
SignatureFileVerifier.<clinit>,0.031616083336606,0.0,0.0,0.0,0.031616083336606
StaticRenderer.updateWorkingBuffers,0.06612094824709641,0.0,0.00720438899085263,0.0,0.07332533723794904
SunFontManager.initIDs,0.038677820139619006,0.0,0.007030994393829274,0.0,0.04570881453344828
T2KFontScaler.getGlyphMetricsNative,0.07982414583427908,0.0,0.00982825663730749,0.0,0.08965240247158657
TextNode.<init>,0.05297667280766512,0.0,0.008483670321496396,0.0,0.061460343129161515
TrueTypeFont$1.run,0.04645102532994453,0.0,0.006869279330018688,0.0,0.05332030465996322
TrueTypeFont.getTableBuffer,0.056521234993860026,0.0,0.010263593493131284,0.0,0.06678482848699131
Type1Font.initNames,0.059688488787557614,0.0,0.008497126249550714,0.0,0.06818561503710832
Type1Font.nextTokenType,0.11968236596638818,0.0,0.01644096002831658,0.0,0.13612332599470475
XmlReader$Iso8859_1Reader.read,0.0498487900168915,0.0,0.006967092196663508,0.0,0.056815882213555005
