method,package1,dram1,energy
java.awt,0.09253300450413764,0.01031109874865638,0.10284410325279401
java.awt.font,0.056979425670814265,0.008574784326613342,0.06555420999742761
java.awt.geom,0.163603589531496,0.01721233023782878,0.1808159197693248
java.awt.image,1.2347096175637828,0.12477688281679314,1.359486500380576
java.io,0.5540777022919969,0.06806345914320057,0.6221411614351975
java.lang,1.3659449328006699,0.15199831115263934,1.5179432439533092
java.net,0.0702339305976064,0.01039149542994845,0.08062542602755485
java.nio,0.17654205713969473,0.017942837832636387,0.19448489497233112
java.util,0.21822483365570172,0.02438787764285528,0.242612711298557
java.util.jar,0.02578888318736804,0.003287651360393422,0.029076534547761462
java.util.regex,0.06726066667276122,0.008880000000014356,0.07614066667277558
java.util.zip,10.562455605088344,1.1588322805770774,11.721287885665422
