method,package1,package2,dram1,dram2,energy
AffineTransform.createTransformedShape|AbstractGraphicsNode.getTransformedPrimitiveBounds|AbstractGraphicsNode.getTransformedBounds,0.023002604166322268,0.0,0.003400000000131816,0.0,0.026402604166454083
BandCombineOp.filter|Any2sRGBRed.copyData|FormatRed.copyData,0.0,0.21950245963712353,0.0,0.02835181084334995,0.24785427048047348
Bits.getIntB|Bits.getInt|HeapByteBuffer.getInt,0.03274877777504217,0.0,0.004993333333307722,0.0,0.03774211110834989
BufferedInputStream.read|DataInputStream.readInt|AttributeInfo.<init>,0.07947447620164086,0.0,0.011381428571367572,0.0,0.09085590477300844
BufferedInputStream.read|DataInputStream.readInt|UCharacterPropertyReader.read,0.02575833333096289,0.0,0.0038928571428273463,0.0,0.029651190473790237
BufferedInputStream.read|DataInputStream.readUnsignedShort|NameAndTypeInfo.<init>,0.07710766667150892,0.0,0.009440000000419484,0.0,0.08654766667192841
Class.forName0|Class.forName|FontManagerFactory$1.run,0.04014999999939887,0.0,0.006684545454018833,0.0,0.0468345454534177
ClassLoader.checkCerts|ClassLoader.preDefineClass|ClassLoader.defineClass,0.0354466666679152,0.0,0.0055545454545085,0.0,0.0410012121224237
ClassLoader.defineClass1|ClassLoader.defineClass|SecureClassLoader.defineClass,0.25015276039593504,0.0,0.03607769551315653,0.0,0.2862304559090916
ClassLoader.findLoadedClass0|ClassLoader.findLoadedClass|DacapoClassLoader.loadClass,0.029319749995920574,0.0,0.004087499999968713,0.0,0.03340724999588929
ClassLoader.getPackage|ClassLoader.getPackage|URLClassLoader.getAndVerifyPackage,0.0,0.0,0.0,0.0,0.0
ClassLoader.loadClass|DestinationType.getTranscoder|SVGConverter.execute,0.005734511624025397,0.0,0.0007590697675558932,0.0,0.00649358139158129
ColorModel.getLinearRGB16TosRGB8LUT|ColorModel.getGray16TosRGB8LUT|ComponentColorModel.setupLUTs,0.0,0.04796822488655954,0.0,0.006130296893535127,0.054098521780094666
DataBufferInt.setElem|SinglePixelPackedSampleModel.setSamples|WritableRaster.setSamples,0.04207578947228428,0.0,0.004507105263607962,0.0,0.04658289473589224
DataInputStream.readInt|AttributeInfo.<init>|LineNumberAttribute.<init>,0.027343777777989287,0.0,0.003600000000005821,0.0,0.030943777777995108
DataInputStream.readInt|CodeAttribute.<init>|AttributeInfo.read,0.023010222218646147,0.0,0.0031083333332288824,0.0,0.02611855555187503
Deflater.deflateBytes|Deflater.deflate|Deflater.deflate,5.096746090882688,0.0,0.6509743229815531,0.0,5.747720413864241
DirectByteBuffer.get|Type1Font.nextTokenType|Type1Font.initNames,0.05044096970055817,0.0,0.006894545454115634,0.0,0.057335515154673805
File.getPrefixLength|UnixFileSystem.isAbsolute|UnixFileSystem.resolve,0.020826555552452598,0.0,0.003640000000005885,0.0,0.024466555552458483
FileOutputStream.writeBytes|FileOutputStream.write|BufferedOutputStream.write,0.09011499999663405,0.0,0.011843749999570719,0.0,0.10195874999620477
FilePermission.init|FilePermission.<init>|FileURLConnection.getPermission,0.03181955555919558,0.0,0.004648888888671839,0.0,0.03646844444786742
HashMap.newNode|HashMap.putVal|HashMap.putMapEntries,0.0551795151506226,0.0,0.007894090909151903,0.0,0.06307360605977451
Inflater.finished|InflaterInputStream.read|FilterInputStream.read,0.040956222228285495,0.0,0.006378749999435563,0.0,0.04733497222772106
Inflater.inflateBytes|Inflater.inflate|InflaterInputStream.read,0.5693982388761166,0.04479125582806386,0.08281408333406134,0.0063117519774667855,0.7033153300157087
InnerClassLambdaMetafactory$1.run|InnerClassLambdaMetafactory$1.run|AccessController.doPrivileged,0.08961411905364088,0.0,0.010638571428985631,0.0,0.1002526904826265
JarFile.getManifestFromReference|JarFile.getManifest|URLClassPath$JarLoader$2.getManifest,0.04831933332995201,0.0,0.006820000000516302,0.0,0.05513933333046831
JarFile.initializeVerifier|JarFile.getInputStream|URLClassPath$JarLoader$2.getInputStream,0.0120972000004258,0.0,0.0016319999998813727,0.0,0.013729200000307173
LookupOp.byteFilter|LookupOp.filter|ComponentTransferRed.copyData,0.05923942105666931,0.0,0.00901657894705989,0.0,0.0682560000037292
Path2D$Float.getBounds2D|StrokeShapePainter.getPaintedBounds2D|CompositeShapePainter.getPaintedBounds2D,0.02963385416478559,0.0,0.0038187499999745946,0.0,0.03345260416476018
Path2D$Float.quadTo|Path2D$Float.append|Path2D.append,0.0327148571419197,0.0,0.004662857143037919,0.0,0.03737771428495762
Path2D.<init>|Path2D$Float.<init>|Path2D$Float.<init>,0.03856542856997943,0.0,0.005828571428667471,0.0,0.044393999998646905
Raster.createInterleavedRaster|PNGRed.createRaster|PNGRed.parse_IEND_chunk,0.0,0.0729889705626363,0.0,0.009792723994315043,0.08278169455695134
Raster.getPixel|BandCombineOp.filter|Any2sRGBRed.copyData,0.0,0.08047173966628147,0.0,0.010675937124773823,0.0911476767910553
SinglePixelPackedSampleModel.getPixels|Raster.getPixels|GraphicsUtil.copyData,0.0,0.10308190305075263,0.0,0.014574998142524173,0.1176569011932768
SinglePixelPackedSampleModel.getSamples|Raster.getSamples|AbstractRed.copyBand,0.022778299998026337,0.0,0.002928000000065367,0.0,0.025706299998091705
SinglePixelPackedSampleModel.setPixels|WritableRaster.setPixels|GraphicsUtil.copyData,0.0,0.0,0.0,0.0,0.0
SinglePixelPackedSampleModel.setPixel|WritableRaster.setPixel|BandCombineOp.filter,0.0,0.08047173966628147,0.0,0.010675937124773823,0.0911476767910553
SinglePixelPackedSampleModel.setSamples|WritableRaster.setSamples|AbstractRed.copyBand,0.021154800002113915,0.0,0.0033525000000736325,0.0,0.024507300002187548
SinglePixelPackedSampleModel.setSamples|WritableRaster.setSamples|LookupOp.byteFilter,0.05923942105666931,0.0,0.00901657894705989,0.0,0.0682560000037292
String.toCharArray|ZipCoder.getBytes|ZipFile.getEntry,0.017747666673838258,0.0,0.002701666666729983,0.0,0.02044933334056824
System.nanoTime|ClassLoader.loadClass|Launcher$AppClassLoader.loadClass,0.0,0.0,0.0,0.0,0.0
UnixFileSystem.getBooleanAttributes0|UnixFileSystem.getBooleanAttributes|File.isDirectory,0.0,0.0,0.0,0.0,0.0
ZipFile.access$1300|ZipFile$ZipFileInputStream.read|ZipFile$ZipFileInflaterInputStream.fill,0.05942783333496966,0.0,0.00889999999981228,0.0,0.06832783333478194
ZipFile.getEntry|ZipFile.getEntry|JarFile.getEntry,0.03181955555919558,0.0,0.004648888888671839,0.0,0.03646844444786742
ZipFile.getEntry|ZipFile.getInputStream|JarFile.getInputStream,0.22306493023237167,0.0,0.02833395348868582,0.0,0.2513988837210575
ZipFile.read|ZipFile.access$1400|ZipFile$ZipFileInputStream.read,0.0641581111170429,0.0,0.009038750000500941,0.0,0.07319686111754385
