method,package1,package2,dram1,dram2,energy
AccessController.doPrivileged,0.0,0.03465440740789442,0.0,0.003744999999947106,0.03839940740784152
Area.pathToCurves,0.0,0.04842099999950733,0.0,0.006799999999808884,0.05522099999931621
Arrays.copyOf,0.0,0.09745295833181444,0.0,0.01496750000008736,0.1124204583319018
Arrays.copyOfRange,0.0,0.0,0.0,0.0,0.0
AttributedString$AttributedStringIterator.getRunLimit,0.0,0.023577777779051016,0.0,0.0030555555555043545,0.02663333333455537
AttributedString.<init>,0.0,0.05458111111187868,0.0,0.007788888888845342,0.06237000000072403
BufferedInputStream.<init>,0.0,0.05511475000093924,0.0,0.008392500000127256,0.0635072500010665
BufferedInputStream.read,0.0,0.15655109362288827,0.0,0.021469001833170024,0.1780200954560583
Class.forName0,0.0,0.09057316796626672,0.0,0.012278832071972463,0.10285200003823917
ClassLoader.defineClass1,0.0,0.3070031703780943,0.0,0.04705485505781149,0.3540580254359058
ClassLoader.findBootstrapClass,0.0,0.02737247404766964,0.0,0.003978658729632854,0.03135113277730249
ColorModel.getLinearRGB16TosRGB8LUT,0.0,0.0,0.0,0.0,0.0
ColorSpace.getInstance,0.0,0.04080657142912969,0.0,0.005828571428667471,0.04663514285779716
ComponentSampleModel.getPixel,0.0,0.07109214674872857,0.0,0.00831890476160091,0.07941105151032948
Cursor.<clinit>,0.0,0.05133733333301885,0.0,0.00918666666681626,0.060523999999835106
DataBufferInt.setElem,0.0,0.07712833333547071,0.0,0.01235999999971682,0.08948833333518753
DataInputStream.readUTF,0.0,0.0690103333351241,0.0,0.010980000000017752,0.07999033333514186
Deflater.deflateBytes,0.0,7.324518879191217,0.0,0.9827348987058635,8.307253777897081
DirectByteBuffer.ix,0.0,0.047764102564169415,0.0,0.007618461538349481,0.0553825641025189
FileOutputStream.close0,0.0,0.039856000000630346,0.0,0.006040000000211876,0.04589600000084222
FileOutputStream.write,0.0,0.07548444444546476,0.0,0.010897777777885222,0.08638222222334999
FileOutputStream.writeBytes,0.0,0.3266634027748767,0.0,0.04420763888883053,0.3708710416637072
Font.defaultLineMetrics,0.0,0.07731099999849296,0.0,0.010909999999967113,0.08822099999846007
HashMap$KeyIterator.next,0.0,0.07676866666588468,0.0,0.010880000000017593,0.08764866666590228
Hashtable.put,0.0,0.06471422222057299,0.0,0.010014583333233731,0.07472880555380672
Inflater.inflateBytes,0.0,0.4982579999959853,0.0,0.07368874999997387,0.5719467499959592
JarFile.getManifestFromReference,0.0,0.02640800000032565,0.0,0.00412999999995615,0.030538000000281798
JarFile.initializeVerifier,0.0,0.009067074074496136,0.0,0.0009022222223022793,0.009969296296798415
LookupOp.byteFilter,0.0,0.057983333332231275,0.0,0.009640000000217695,0.06762333333244896
Path2D$Float.expandCoords,0.0,0.07281499999953668,0.0,0.012400000000222159,0.08521499999975884
Path2D$Float.lineTo,0.0,0.06490066666447092,0.0,0.010984999999891444,0.07588566666436236
Properties$LineReader.readLine,0.0,0.06501424982415788,0.0,0.008733672457949003,0.07374792228210689
RectIterator.<init>,0.0,0.04920958333362553,0.0,0.006659375000026557,0.05586895833365209
SinglePixelPackedSampleModel.createDataBuffer,0.0,0.037718982058674334,0.0,0.005774605785076267,0.043493587843750604
SinglePixelPackedSampleModel.getPixels,0.0,0.21069979836131852,0.0,0.030617129795150563,0.2413169281564691
SinglePixelPackedSampleModel.getSamples,0.0,0.09519490537319503,0.0,0.01634436890374223,0.11153927427693726
SinglePixelPackedSampleModel.setPixels,0.0,0.34907340402581377,0.0,0.04866685504730396,0.3977402590731177
SinglePixelPackedSampleModel.setSamples,0.0,0.0747530119608764,0.0,0.01213015471970835,0.08688316668058475
SoftReference.get,0.0,0.03616242424168652,0.0,0.004945454545536036,0.04110787878722255
String.endsWith,0.0,0.06644666666882887,0.0,0.010920000000017657,0.07736666666884652
String.indexOf,0.0,0.0,0.0,0.0,0.0
String.replace,0.0,0.048065000000860884,0.0,0.008486249999805295,0.05655125000066618
StringBuffer.append,0.0,0.051802424243016336,0.0,0.007956363636229511,0.05975878787924585
StringCoding$StringEncoder.encode,0.0,0.05015066666480076,0.0,0.008155000000139506,0.05830566666494026
TextLayout.buildCache,0.0,0.0591023333351283,0.0,0.0096249999999903,0.0687273333351186
Timer.<init>,0.0,0.0,0.0,0.0,0.0
URL.<init>,0.0,0.0,0.0,0.0,0.0
URL.isValidProtocol,0.0,0.037109250000867185,0.0,0.0064724999999725705,0.043581750000839754
URLStreamHandler.sameFile,0.0,0.0690103333351241,0.0,0.010980000000017752,0.07999033333514186
ZipFile.releaseInflater,0.0,0.037109250000867185,0.0,0.0064724999999725705,0.043581750000839754
