method,hits
AAShapePipe.renderPath,2
AWTGVTFont.createGlyphVector,2
AWTGVTGlyphVector.performDefaultLayout,2
AWTGlyphGeometryCache.get,2
AWTPathProducer.startPath,2
AbstractElement.invalidateElementsByTagName,2
AbstractNode.getXblParentNode,2
AbstractParentNode$ElementsByTagNameNS.initialize,2
AccessController.doPrivileged,2
Any2sRGBRed.applyLut_INT,2
Area.pathToCurves,2
Arrays.copyOf,4
Arrays.copyOfRange,2
AttributeValues.merge,2
AttributedString$AttributedStringIterator.getRunLimit,2
AttributedString.<init>,2
BufferedInputStream.<init>,2
BufferedInputStream.read,4
ByteInterleavedRaster.setPixels,4
CRC.updateCRC,4
CSSElementSelector.match,2
CSSEngine.disposeStyleMaps,2
CSSEngine.getCSSParentNode,2
Class.forName0,4
ClassLoader.defineClass1,12
ClassLoader.findBootstrapClass,2
ColorModel.getLinearRGB16TosRGB8LUT,2
ColorSpace.getInstance,2
ComponentSampleModel.getPixel,4
CompositeRable8Bit.createRendering,2
CtClassType.<init>,2
Cursor.<clinit>,2
DataBufferInt.setElem,2
DataInputStream.readUTF,2
Deflater.deflateBytes,252
DirectByteBuffer.ix,2
DuctusRenderingEngine$FillAdapter.<init>,2
DuctusRenderingEngine.getAATileGenerator,2
FileOutputStream.close0,2
FileOutputStream.write,2
FileOutputStream.writeBytes,10
Font.defaultLineMetrics,2
FontConfigManager.getFontConfigVersion,2
GaussianBlurRed8Bit.boxFilterH,8
GaussianBlurRed8Bit.boxFilterV,8
GraphicsUtil.copyData,4
GraphicsUtil.mult_INT_PACK_Data,4
HashMap$KeyIterator.next,2
Hashtable.put,2
IOUtil.read,2
Inflater.inflateBytes,20
JarFile.getManifestFromReference,2
JarFile.initializeVerifier,2
LookupOp.byteFilter,2
Main.<clinit>,2
MorphologyOp.filter,18
MorphologyOp.isBetter,2
PNGEncodeParam.filterRow,40
PNGImageEncoder.encodePass,6
PNGRed.decodePaethFilter,2
ParsedURL.<clinit>,2
Parser2.maybeGetNameCacheEntry,2
Parser2.parseLiteral,4
Path2D$Float.expandCoords,2
Path2D$Float.lineTo,2
PathFiller.getTileState,2
PathFiller.setOutputArea,2
PathParser.parsec,2
PathStroker.<init>,2
PathStroker.cInitialize,6
PathStroker.endPath,4
PixelToParallelogramConverter.draw,2
Properties$LineReader.readLine,4
Rasterizer.endPath,2
RectIterator.<init>,2
Resource.cachedInputStream,2
SVGDOMImplementation.createDocument,2
SVGDOMImplementation.createElementNS,2
SVGOMAnimatedPathData.getAnimatedPathSegList,2
SVGOMElement.createLiveAnimatedLength,2
SVGTextElementBridge.addContextToChild,2
Service.providers,2
SignatureFileVerifier.<clinit>,2
SinglePixelPackedSampleModel.createDataBuffer,2
SinglePixelPackedSampleModel.getPixels,6
SinglePixelPackedSampleModel.getSamples,4
SinglePixelPackedSampleModel.setPixels,14
SinglePixelPackedSampleModel.setSamples,2
SoftReference.get,2
SpanClipRenderer.initIDs,2
String.endsWith,2
String.indexOf,2
String.replace,2
StringBuffer.append,2
StringCoding$StringEncoder.encode,2
SunFontManager.addToPool,2
SunFontManager.initialiseDeferredFont,2
SunGraphics2D.checkFontInfo,2
SunGraphics2D.getSurfaceData,2
SunGraphics2D.setRenderingHint,4
SunGraphicsEnvironment$1.run,2
SunHints.<clinit>,2
SunLayoutEngine.nativeLayout,2
SurfaceType.<clinit>,2
T2KFontScaler.getGlyphImageNative,2
T2KFontScaler.getGlyphMetricsNative,14
TestHarness.main,2
TextLayout.buildCache,2
Timer.<init>,2
TrueTypeFont.lookupName,2
Type1Font.nextTokenType,4
URL.<init>,2
URL.isValidProtocol,2
URLStreamHandler.sameFile,2
X11FontManager.createFontConfiguration,2
XMLReaderImpl.parse,2
XmlReader$Iso8859_1Reader.read,2
ZipFile.releaseInflater,2
awt.<init>,2
