method,package1,package2,dram1,dram2,energy
ASCIICaseInsensitiveComparator.compare,0.014517247315085625,0.0,0.0018538709680073497,0.0,0.016371118283092973
AbstractNode.getOwnerDocument,0.04203730683058563,0.0,0.004502671428076421,0.0,0.04653997825866205
AbstractStringBuilder.ensureCapacityInternal,0.0666530588733992,0.0,0.007913409168532604,0.0,0.0745664680419318
AffineTransform.transform,0.04991579305839836,0.0,0.00782585918788527,0.0,0.05774165224628364
Any2sRGBRed.applyLut_INT,0.03714811480701608,0.0,0.005014948876057634,0.0,0.042163063683073716
ArrayList.<init>,0.08443547260698439,0.0,0.00848834131876862,0.0,0.09292381392575301
AttributeInfo.read,0.022776333328996163,0.0,0.0028350000005351217,0.0,0.025611333329531284
AttributedString$AttributedStringIterator.updateRunInfo,0.044453805847182566,0.0,0.006164878574648846,0.0,0.050618684421831414
BandCombineOp.filter,0.12764971808371234,0.0,0.012686549249016212,0.0,0.14033626733272855
Blit.makePrimitive,0.03535258308983025,0.0,0.0035987293015116726,0.0,0.03895131239134192
Buffer.nextGetIndex,0.02539744638466931,0.0,0.0028645127331262104,0.0,0.02826195911779552
BufferedInputStream.<init>,0.04779504587354881,0.0,0.005797344790901357,0.0,0.053592390664450165
BufferedInputStream.read,0.26318189443924883,0.0,0.030810836437364313,0.0,0.29399273087661315
ByteInterleavedRaster.setPixels,0.043126489799253064,0.0,0.004214850445641657,0.0,0.04734134024489472
CRC.updateCRC,0.04481126168323038,0.0,0.004973022575721784,0.0,0.04978428425895216
CSSEngine.<init>,0.06269838878953338,0.0,0.00688194549693652,0.0,0.0695803342864699
CSSEngine.addMatchingRules,0.08443547260698439,0.0,0.00848834131876862,0.0,0.09292381392575301
CSSEngine.getComputedStyle,0.04430204042795748,0.0,0.004998118963545992,0.0,0.04930015939150348
ClassLoader$2.hasMoreElements,0.03578683333277392,0.0,0.0034349999999297625,0.0,0.03922183333270368
ClassLoader.compareCerts,0.05720016665873118,0.0,0.006767500000629903,0.0,0.06396766665936109
ClassLoader.defineClass1,0.13343789746966472,0.0,0.016404842398987318,0.0,0.14984273986865204
ColorModel.getLinearRGB16TosRGB8LUT,0.1308922982162003,0.0,0.016997018193072998,0.0,0.1478893164092733
ComponentSampleModel.getPixel,0.03681597054065882,0.0,0.005115632138569649,0.0,0.04193160267922847
ConcurrentHashMap$ValuesView.iterator,0.04600064708768152,0.0,0.0047366011236972365,0.0,0.05073724821137876
ConfigFileTokenManager.getNextToken,0.056375999993178987,0.0,0.008239999999811213,0.0,0.0646159999929902
ConstPool.readOne,0.029744476190812524,0.0,0.003685714285633626,0.0,0.03343019047644615
CustomComponent.register,0.04500856670136196,0.0,0.005266591476726791,0.0,0.05027515817808875
DataBufferByte.setElem,0.05306727751690832,0.0,0.005775069484906476,0.0,0.058842347001814795
DataBufferInt.getElem,0.06729891392576542,0.0,0.007667473806933511,0.0,0.07496638773269894
DataInputStream.readInt,0.05375568631917167,0.0,0.005707068099933032,0.0,0.0594627544191047
Deflater.deflateBytes,6.144240896951918,0.0,0.694613524209116,0.0,6.8388544211610345
DeflaterOutputStream.deflate,0.05143650379356561,0.0,0.004573138169001096,0.0,0.056009641962566706
FileChannelImpl.position0,0.06889366311697799,0.0,0.007402022362075771,0.0,0.07629568547905376
FileOutputStream.write,0.033441421133869706,0.0,0.004241255236534743,0.0,0.03768267637040445
FileOutputStream.writeBytes,0.27362070001448346,0.0,0.03474999999998545,0.0,0.3083707000144689
FontConfiguration.setEncoding,0.08646912178615482,0.0,0.0110581177513727,0.0,0.09752723953752751
GVTBuilder.buildGraphicsNode,0.04530266624812259,0.0,0.0037656501735069243,0.0,0.04906831642162952
GaussianBlurRed8Bit.boxFilterH,0.15944644529372579,0.0,0.019800648096142643,0.0,0.17924709338986844
GaussianBlurRed8Bit.boxFilterV,0.23677203897902424,0.0,0.02882351094894955,0.0,0.2655955499279738
GlyphLayout.layout,0.03063043908500509,0.0,0.003779118527648561,0.0,0.03440955761265365
GraphicsPrimitiveMgr.initIDs,0.052045280524279126,0.0,0.00691218395138121,0.0,0.05895746447566034
GraphicsUtil.copyData,0.06695979053829273,0.0,0.0075407625153322095,0.0,0.07450055305362495
GraphicsUtil.divide_INT_PACK_Data,0.1022876088795954,0.0,0.014032358399339069,0.0,0.11631996727893447
GraphicsUtil.mult_INT_PACK_Data,0.1321167054614944,0.0,0.01582509730077778,0.0,0.14794180276227217
Hashtable$Enumerator.nextElement,0.03525799999867255,0.0,0.0039350000003347905,0.0,0.03919299999900734
ImagingLib.transformBI,0.04417477433224351,0.0,0.005953127845111967,0.0,0.05012790217735548
Inflater.inflateBytes,0.7000682720503156,0.0,0.08222167696838331,0.0,0.782289949018699
InputEntity.parsedContent,0.0387182189935893,0.0,0.0042891666159156705,0.0,0.04300738560950497
JarFile.getManifestFromReference,0.09816466665749128,0.0,0.012280000000221964,0.0,0.11044466665771324
LinkedList.toArray,0.04101272874405009,0.0,0.005389522627574804,0.0,0.046402251371624896
LogManager.ensureLogManagerInitialized,0.06720873562688671,0.0,0.007520689655445924,0.0,0.07472942528233265
LoggingProxyImpl.getLogger,0.042401839083799256,0.0,0.00443103448246959,0.0,0.04683287356626885
LookupOp.byteFilter,0.07432128238026953,0.0,0.00880667453198718,0.0,0.0831279569122567
MaskFill.MaskFill,0.08762921266957158,0.0,0.010964419463571812,0.0,0.09859363213314339
Math.min,0.05382976710331168,0.0,0.005844166577321479,0.0,0.05967393368063316
MorphologyOp.filter,0.6158301919911687,0.0,0.07252581300853193,0.0,0.6883560049997006
MorphologyOp.isBetter,0.0881358601834277,0.0,0.012065090824258808,0.0,0.1002009510076865
MorphologyRable8Bit.createRendering,0.025515217945823312,0.0,0.003592725574742378,0.0,0.02910794352056569
Objects.requireNonNull,0.036037166227686136,0.0,0.004224264352244589,0.0,0.04026143057993072
PNGEncodeParam.filterRow,0.4903137273872559,0.0,0.05060574225794127,0.0,0.5409194696451972
PNGImageEncoder.encodePass,0.0723517120299844,0.0,0.008856427393952393,0.0,0.0812081394239368
PNGRed.decodePaethFilter,0.0387763115597739,0.0,0.004946381586345799,0.0,0.0437226931461197
PNGRed.processPixels,0.045591000744902035,0.0,0.0038305360222767038,0.0,0.04942153676717874
PNGRegistryEntry$1.run,0.0,0.0,0.0,0.0,0.0
PathStroker.cInitialize,0.06614592643154604,0.0,0.008409102353100013,0.0,0.07455502878464605
PathStroker.endPath,0.1438278769335478,0.0,0.0172936957526477,0.0,0.16112157268619548
Pattern.newSlice,0.029642833328883476,0.0,0.003825000000081976,0.0,0.033467833328965454
PerfCounter.addElapsedTimeFrom,0.03442383332973501,0.0,0.003932500000094781,0.0,0.038356333329829795
Raster.createInterleavedRaster,0.03681597054065882,0.0,0.005115632138569649,0.0,0.04193160267922847
Raster.getPixel,0.02080843594451916,0.0,0.002528187930139252,0.0,0.023336623874658412
RootGraphicsNode.getTreeGraphicsNodeChangeListeners,0.021944815565585217,0.0,0.003094954349494741,0.0,0.02503976991507996
SAXParserFactory.newInstance,0.044179333339949764,0.0,0.0046049999997800715,0.0,0.048784333339729834
SVGAbstractTranscoder.<init>,0.036430709677377854,0.0,0.004245161290146893,0.0,0.040675870967524744
SVGBridgeExtension.registerTags,0.03790283333607173,0.0,0.004399999999805004,0.0,0.042302833335876734
SVGComposite$OverCompositeContext_INT_PACK_UNPRE.precompose_INT_PACK,0.06250386094573729,0.0,0.007120648203309178,0.0,0.06962450914904647
SVGDOMImplementation.<clinit>,0.0675966666663386,0.0,0.007519354838790291,0.0,0.07511602150512889
SVGOMAnimatedPathData.getAnimatedPathSegList,0.022670285715278057,0.0,0.002344285714311159,0.0,0.025014571429589218
SVGTextElementBridge.getAttributeMap,0.04980935970332753,0.0,0.006240289222560721,0.0,0.056049648925888255
SVGTextElementBridge.getFontList,0.06054122371945327,0.0,0.006545178348836644,0.0,0.06708640206828992
ShapeSpanIterator.nextSpan,0.04816782440071878,0.0,0.004341791929393496,0.0,0.05250961633011228
SinglePixelPackedSampleModel.getPixels,0.0923163425122753,0.0,0.010823050532139798,0.0,0.1031393930444151
SinglePixelPackedSampleModel.getSamples,0.11658656867029973,0.0,0.01482465970633598,0.0,0.1314112283766357
SinglePixelPackedSampleModel.setPixel,0.07489731246296277,0.0,0.007659122620199526,0.0,0.0825564350831623
SinglePixelPackedSampleModel.setPixels,0.038964465353973785,0.0,0.0032506390985684364,0.0,0.04221510445254222
SinglePixelPackedSampleModel.setSamples,0.11000199017147666,0.0,0.014067456098042535,0.0,0.1240694462695192
String.intern,0.0666530588733992,0.0,0.007913409168532604,0.0,0.0745664680419318
StrokingTextPainter.computeTextRuns,0.0755942618361134,0.0,0.008514742443354434,0.0,0.08410900427946782
SunFontManager.addCompositeToFontList,0.05527847760640993,0.0,0.00680879151962322,0.0,0.06208726912603315
SunFontManager.addToPool,0.027811364964837312,0.0,0.003164044470176935,0.0,0.03097540943501425
SunGraphics2D.validateColor,0.018819747388569792,0.0,0.0017714262912018137,0.0,0.020591173679771604
SunGraphicsEnvironment.getFontManagerForSGE,0.040758521036404656,0.0,0.0057231975520694155,0.0,0.04648171858847407
SurfaceData.<clinit>,0.055724387834573334,0.0,0.005827897426470388,0.0,0.06155228526104372
T2KFontScaler.getGlyphImageNative,0.025515217945823312,0.0,0.003592725574742378,0.0,0.02910794352056569
T2KFontScaler.getGlyphMetricsNative,0.1998155312749619,0.0,0.021041232046780003,0.0,0.22085676332174192
T2KFontScaler.getGlyphOutlineNative,0.049202632775509465,0.0,0.005761336222770684,0.0,0.05496396899828015
TextLayout.<init>,0.11510994659985722,0.0,0.016733687514317502,0.0,0.1318436341141747
Throwable.fillInStackTrace,0.038991316678099484,0.0,0.004485999999663666,0.0,0.04347731667776315
TimSort.mergeHi,0.04500856670136196,0.0,0.005266591476726791,0.0,0.05027515817808875
TransformHelper.Transform,0.033949871251062816,0.0,0.0042008847604331784,0.0,0.03815075601149599
TreeMap$Entry.<init>,0.04600064708768152,0.0,0.0047366011236972365,0.0,0.05073724821137876
Type1Font.getSimpleToken,0.05186571933066693,0.0,0.005621057395372034,0.0,0.05748677672603896
Type1Font.nextTokenType,0.1293021383566959,0.0,0.01281441069568259,0.0,0.1421165490523785
URLClassPath$JarLoader$2.getCodeSigners,0.0336811666735836,0.0,0.003909999999753684,0.0,0.037591166673337284
Unsafe.copyMemory,0.06889366311697799,0.0,0.007402022362075771,0.0,0.07629568547905376
ZipFile.getEntry,0.06542966666165739,0.0,0.007260000000011738,0.0,0.07268966666166914
ZipFile.read,0.11731759998947382,0.0,0.014351999999780672,0.0,0.13166959998925448
