method,hits
AbstractDOMParser.startDocument,2
AttributeInfo.read,2
BenchmarkState.getState,1048
BundleHandler.getBundle,2
BundleHandler.getString,4
CharacterType.compare,2
ClassFile.read,2
CodeAttribute.<init>,2
ConnectionImpl.closeAllOpenStatements,2
ConstPool.readOne,4
DBWorkload.main,2
DatabaseInformation.newDatabaseInformation,2
DeferredDocumentImpl.<clinit>,2
DeferredDocumentImpl.getNodeObject,2
Expression.getCheckSelect,2
Field.getFullName,2
GeneratedConstructorAccessor1.newInstance,2
Gregorian.newCalendarDate,2
Handler.hostsEqual,2
HsqlNameManager$HsqlName.<init>,2
ISO_8859_1.newDecoder,2
InstrumentationImpl.transform,2
JDBCConnection.getMetaData,2
JDBCStatement.fetchResult,2
JDBCStatementBase.performPostExecute,4
Launcher$AppClassLoader.loadClass,6
Library$Handler.invoke,2
LineGroupReader.getSection,2
LogFactory.getResourceAsStream,2
Logger.newStore,2
MemberrefInfo.<init>,2
MysqlIO.buildResultSetWithRows,2
MysqlIO.checkTransactionState,2
MysqlIO.nextRowFast,2
MysqlIO.readSingleRowSet,2
MysqlIO.reuseAndReadPacket,2
MysqlIO.send,8
NameAndTypeInfo.<init>,6
NonRegisteringDriver.connect,4
ParserDQL.XreadBooleanTermOrNull,2
Phase.chooseTransaction,4
Phase.totalWeight,2
PropertySetter.introspect,2
RandomDistribution$FlatHistogram.<init>,4
RandomDistribution$Zipf.<init>,168
ReadAheadInputStream.fill,10
ReadAheadInputStream.read,4
Resource.getBytes,2
ResultSetImpl.buildIndexMapping,2
ResultSetImpl.checkClosed,2
SecuritySupport.doesFileExist,2
Session.<init>,4
SingleByteCharsetConverter.<clinit>,40
StringInfo.<init>,2
StringUtil.<clinit>,2
StringUtils.toString,4
ThreadBench.runRateLimitedMultiPhase,680
ThreadLocalCoders$Cache.forName,2
Tokens.<clinit>,6
TypeData$TypeVar.fixTypes,4
URLClassPath$FileLoader.getResource,4
UserTypeModifier.<init>,2
Utf8Info.<init>,4
Util.resultSetToMap,2
Worker.doWork,2
Worker.toString,2
WorkloadState.addToQueue,1028
WorkloadState.getCurrentPhase,1040
XMLDocumentFragmentScannerImpl.<init>,2
XMLDocumentFragmentScannerImpl.scanStartElement,2
XMLEntityManager.<init>,2
XMLEntityManager.setupCurrentEntity,2
ZoneInfo.clone,2
