method,package1,package2,dram1,dram2,energy
com.mysql.jdbc,5.442764935755215,0.6556098399424694,0.7347316963583185,0.11056454867052518,6.943671020726528
com.mysql.jdbc.authentication,0.09467848484884156,0.0,0.012468181818500549,0.0,0.10714666666734211
com.mysql.jdbc.util,3.014889807003627,0.3829176510898582,0.40912523647546617,0.06565111040165647,3.872583804970608
com.oltpbenchmark,419.40769804649943,309.24346176012784,67.69114511666567,38.180471255512316,834.5227761788052
com.oltpbenchmark.benchmarks.wikipedia,0.0,0.00011740140466840349,0.0,3.248830932827218e-05,0.00014988971399667567
com.oltpbenchmark.benchmarks.wikipedia.data,0.07496340000070631,0.0,0.009850499999993191,0.0,0.0848139000006995
com.oltpbenchmark.benchmarks.wikipedia.procedures,0.022875570713493096,0.00796270000048579,0.003296502577802213,0.001429293478223253,0.03556406677000435
com.oltpbenchmark.catalog,0.05335102564108988,0.0,0.008415384615475956,0.0,0.06176641025656583
com.oltpbenchmark.util,0.5749117163043157,0.41258838816795945,0.07134844081658842,0.06676536789985646,1.1256139131887202
com.sun.org.apache.xerces.internal.impl.dtd,0.1062619999963014,0.0,0.015099999999923359,0.0,0.12136199999622475
com.sun.org.apache.xerces.internal.parsers,0.08237699999881443,0.0,0.010920000000017657,0.0,0.09329699999883208
javassist,0.04416231111099478,0.0,0.006218666666528507,0.0,0.05038097777752329
javassist.bytecode,0.7554902787981325,0.011066406884166342,0.11022322727276333,0.0016837090686313814,0.8784636220236935
javassist.bytecode.stackmap,0.10730255555584638,0.0,0.013970000000133747,0.0,0.12127255555598013
javassist.compiler,0.053412577777150236,0.0,0.007901666666697971,0.0,0.061314244443848205
org.apache.commons.configuration.tree,0.06522633333224802,0.0,0.011645000000498841,0.0,0.07687133333274686
org.apache.commons.jxpath.ri.compiler,0.07696700000006887,0.0,0.010087916666937721,0.0,0.08705491666700658
org.apache.commons.jxpath.ri.parser,0.08117804444369134,0.0,0.01166733333338925,0.0,0.09284537777708059
org.apache.commons.lang.text,0.07808433333654344,0.0,0.009554999999939657,0.0,0.08763933333648309
org.apache.log4j,0.0,0.058912019421603526,0.0,0.010432051194761113,0.06934407061636463
org.apache.log4j.helpers,0.0,0.04134166615482097,0.0,0.006619885740854855,0.04796155189567582
org.apache.log4j.spi,0.08117804444369134,0.0,0.01166733333338925,0.0,0.09284537777708059
org.hsqldb,0.29067658741720925,0.0,0.038655139859573945,0.0,0.32933172727678317
org.hsqldb.dbinfo,0.13429766666862025,0.0,0.017640000000028522,0.0,0.15193766666864877
org.hsqldb.index,0.11637333333298253,0.0,0.016419999999925494,0.0,0.13279333333290802
org.hsqldb.jdbc,0.2551955128217695,0.0,0.03808269230807454,0.0,0.29327820512984404
org.hsqldb.resources,0.06974299999759144,0.0,0.009884999999485444,0.0,0.07962799999707688
org.hsqldb.rights,0.10855264705777004,0.0,0.014514705882153494,0.0,0.12306735293992353
org.hsqldb.store,0.14021864102342543,0.0,0.020661576923665936,0.0,0.16088021794709137
sun.misc,1.2219602576429796,0.0,0.1676391708155661,0.0,1.3895994284585456
sun.reflect,0.16616669444455406,0.04760145367727292,0.02478666666729623,0.0066559548262689556,0.24521076961539218
sun.util.calendar,0.0,0.063683413603496,0.0,0.010478319168973326,0.07416173277246932
sun.util.locale.provider,0.08575433333317051,0.063683413603496,0.010980000000320915,0.010478319168973326,0.17089606610596075
