method,package1,package2,dram1,dram2,energy
AbsoluteTimeDateFormat,0.015514045630838488,0.0,0.0025714664123767856,0.0,0.018085512043215273
AbstractDOMParser,0.04254503044399453,0.0,0.007070261021964495,0.0,0.04961529146595903
BenchmarkState,2.795927049268384,0.17262529253257292,0.2935264576213119,0.029197344155860363,3.291276143578129
BundleHandler,0.2096905846372772,0.0,0.027518663030319895,0.0,0.23720924766759707
Catalog,0.13216929139013778,0.0,0.020891624441090627,0.0,0.1530609158312284
CharacterType,0.05704388559798645,0.0,0.00888472737330684,0.0,0.0659286129712933
ClassFile,0.03737784328689349,0.0,0.007456579641370082,0.0,0.04483442292826357
ClassPool,0.037274912457564494,0.0,0.0038016541341037453,0.0,0.04107656659166824
CodeAttribute,0.03547583061124072,0.0,0.006647554465414631,0.0,0.04212338507665535
ConnectionImpl,0.031923113779970064,0.0,0.00400790012217745,0.0,0.035931013902147514
ConstPool,0.06326011392421592,0.0,0.010315739835883374,0.0,0.07357585376009929
CtClassType,0.06553141621988404,0.0,0.011913928083144608,0.0,0.07744534430302864
DatabaseInformation,0.05665766363004494,0.0,0.01075761950910736,0.0,0.0674152831391523
DatabaseInformationMain,0.06316727152975649,0.0,0.007065657646173084,0.0,0.07023292917592958
DecimalFormatSymbolsProviderImpl,0.046368520761535435,0.0,0.007894078414594578,0.0,0.054262599176130015
DocumentBuilderImpl,0.06273381416317005,0.0,0.0106702779178528,0.0,0.07340409208102285
Expression,0.037274912457564494,0.0,0.0038016541341037453,0.0,0.04107656659166824
ExpressionLogical,0.0680680433567481,0.0,0.008086094701747922,0.0,0.07615413805849602
Handler,0.07567537649553899,0.0,0.013117398305628586,0.0,0.08879277480116757
Histogram,0.13114685733406214,0.0037121000000514045,0.0168461559601863,0.0005865000000041965,0.15229161329430405
HsqlNameManager$HsqlName,0.048163875815548665,0.0,0.009386803007500069,0.0,0.057550678823048734
IndexAVL,0.041527640694233335,0.0,0.0061469429380351616,0.0,0.047674583632268494
JDBCConnection,0.06316727152975649,0.0,0.007065657646173084,0.0,0.07023292917592958
JDBCStatementBase,0.12429203965292157,0.0,0.01999414933567137,0.0,0.14428618898859294
Launcher$AppClassLoader,0.6361459363510321,0.0,0.09872143580330157,0.0,0.7348673721543337
LocaleData$1,0.07221096152247225,0.0,0.010473617037122818,0.0,0.08268457855959507
LocationInfo,0.12624369497404753,0.0,0.02076262034702995,0.0,0.14700631532107747
LongVector,0.059968043454253536,0.0,0.01047856495559202,0.0,0.07044660840984555
MethodInfo,0.06589654422624032,0.0,0.010619495536506077,0.0,0.0765160397627464
MysqlIO,0.05643372888572498,0.0,0.007709442521904126,0.0,0.06414317140762911
NonRegisteringDriver,0.15613395630112004,0.0,0.026716393081325732,0.0,0.18285034938244576
ParallelListResourceBundle,0.05490411489949026,0.0,0.0104825680660546,0.0,0.06538668296554485
PatternParser$DatePatternConverter,0.058903270379095915,0.0,0.010646452633959072,0.0,0.06954972301305498
Procedure,0.0008043499452326657,0.0,0.0001333577857263627,0.0,0.0009377077309590284
PropertySetter,0.031609351640971554,0.0,0.00501179520956905,0.0,0.036621146850540603
RandomDistribution$Zipf,0.7498376720445775,0.42630961523205024,0.11659571629987488,0.049515054142510576,1.3422580577190133
RangeVariable$RangeIteratorMain,0.06828265628604496,0.0,0.011198566602381702,0.0,0.07948122288842667
ReadAheadInputStream,0.004906665682730606,0.0,0.0005943590811582967,0.0,0.005501024763888902
Resource,0.06970385781448835,0.0,0.008320453617559183,0.0,0.07802431143204752
ResultSetImpl,0.06831801929644214,0.0,0.012150403308952392,0.0,0.08046842260539454
Results,0.0617059926105957,0.0,0.010269578570017885,0.0,0.07197557118061358
SQLStmt,0.06346963335694115,0.0,0.008964205603035572,0.0,0.07243383895997672
Scanner,0.06828265628604496,0.0,0.011198566602381702,0.0,0.07948122288842667
SingleByteCharsetConverter,0.9968946338517438,0.0,0.15018320844910968,0.0,1.1470778423008534
StatementImpl,0.0015986394506041206,0.10819500000798143,0.00017968516704608038,0.014909999999872525,0.12488332462550417
StatementSchema,0.044108252127104,0.0,0.005902634958672014,0.0,0.050010887085776015
StringUtil,0.05490411489949026,0.0,0.0104825680660546,0.0,0.06538668296554485
StringUtils,0.08062830446825069,0.0,0.012270997157500279,0.0,0.09289930162575097
TextGenerator,0.0008247926337773322,0.0,0.00011897064143708679,0.0,0.000943763275214419
ThreadBench,1.794875095086324,0.03636253030315037,0.18405656361317763,0.006075016233772695,2.0213692052364243
ThreadLocalCoders$Cache,0.0,0.0,0.0,0.0,0.0
Tokens,0.13828900102143446,0.0,0.016505532696112313,0.0,0.15479453371754678
TypeData$TypeVar,0.06553141621988404,0.0,0.011913928083144608,0.0,0.07744534430302864
URLClassPath$JarLoader,0.057434466870499475,0.0,0.007083975039688229,0.0,0.0645184419101877
US_ASCII$Encoder,0.06405200000153853,0.0,0.008232857143281891,0.0,0.07228485714482043
UTF_8$Decoder,0.002202833123640929,0.0,0.0003663740143149883,0.0,0.0025692071379559175
ValuePool,0.057058741228290334,0.0,0.008801805592195499,0.0,0.06586054682048584
Worker,0.0,0.0,0.0,0.0,0.0
WorkloadState,5.788259295187528,0.20789671234429924,0.6080403764426794,0.0393092792211131,6.6435056631956195
XMLConfiguration,0.05654931033253473,0.0,0.01078203958735582,0.0,0.06733134991989055
