method,package1,package2,dram1,dram2,energy
AttributeInfo.read|MethodInfo.read|MethodInfo.<init>,0.09895833333333333,0.0,0.015149999999872913,0.0,0.11410833333320625
BenchmarkState.getState|ThreadBench.runRateLimitedMultiPhase|ThreadBench.runRateLimitedBenchmark,23.197395387570587,14.314418326733753,3.6930013900551026,1.5142079680512468,42.719023072410685
Buffer.readFieldLength|Buffer.fastSkipLenString|MysqlIO.unpackField,0.026704778840999845,0.0,0.003468735484328112,0.0,0.030173514325327958
ClassFile.addField2|ClassFile.read|ClassFile.<init>,0.068013333332298,0.0,0.0096249999999903,0.0,0.0776383333322883
ClassInfo.equals|HashMap.getNode|HashMap.get,0.07540609090805943,0.0,0.013479545454339877,0.0,0.08888563636239931
ConfigurationUtils.fileFromURL|AbstractFileConfiguration.load|AbstractFileConfiguration.load,0.05529799999688596,0.0,0.011040000000624179,0.0,0.06633799999751014
ConnectionImpl.coreConnect|ConnectionImpl.connectOneTryOnly|ConnectionImpl.createNewIO,0.04677518181613943,0.0,0.007887272726954754,0.0,0.05466245454309419
ConnectionImpl.getCatalog|PreparedStatement.executeUpdate|PreparedStatement.executeBatchSerially,0.0,0.0,0.0,0.0,0.0
ConnectionImpl.getServerCharacterEncoding|PreparedStatement.setInternal|PreparedStatement.setInt,0.0,0.0,0.0,0.0,0.0
ConnectionImpl.loadServerVariables|ConnectionImpl.initializePropsFromServer|ConnectionImpl.connectOneTryOnly,0.0,0.02171940741094726,0.0,0.003533333333271676,0.025252740744218936
ConnectionImpl.setAutoCommit|ConnectionImpl.initializePropsFromServer|ConnectionImpl.connectOneTryOnly,0.11107960714096927,0.0,0.015795000000317874,0.0,0.12687460714128715
ConnectionPropertiesImpl.getTinyInt1isBit|Field.<init>|MysqlIO.unpackField,0.04148049799494768,0.0,0.006301920261044449,0.0,0.04778241825599212
DBWorkload.main|NativeMethodAccessorImpl.invoke0|NativeMethodAccessorImpl.invoke,0.05501299999984136,0.0,0.011034999999537831,0.0,0.06604799999937919
DocumentBuilderFactoryImpl.newDocumentBuilder|XMLConfiguration.createDocumentBuilder|XMLConfiguration.load,0.05529799999688596,0.0,0.011040000000624179,0.0,0.06633799999751014
ExpressionLogical.isIndexable|RangeVariableResolver.assignToRangeVariable|RangeVariableResolver.assignToRangeVariables,0.05258399999897498,0.0,0.008861538461552791,0.0,0.06144553846052777
Field.<init>|MysqlIO.unpackField|MysqlIO.getResultSet,0.0,0.0,0.0,0.0,0.0
Field.isNativeNumericType|Field.<init>|MysqlIO.unpackField,0.0,0.010080916666386958,0.0,0.0013524999999390275,0.011433416666325986
FloatingDecimal$BinaryToASCIIBuffer.dtoa|FloatingDecimal$BinaryToASCIIBuffer.access$100|FloatingDecimal.getBinaryToASCIIConverter,0.041520563407226437,0.0,0.008932081994893634,0.0,0.05045264540212007
HsqlNameManager$HsqlName.<init>|HsqlNameManager.newColumnHsqlName|ParserDDL.compileCreateTable,0.032165333332765535,0.0,0.005520000000615255,0.0,0.03768533333338079
HsqlNameManager.newInfoSchemaObjectName|SqlInvariants.<clinit>|GranteeManager.<clinit>,0.068013333332298,0.0,0.0096249999999903,0.0,0.0776383333322883
JDBCConnection.createStatement|ScriptRunner.runScript|ScriptRunner.runScript,0.05632153846314535,0.0,0.010172307692230858,0.0,0.06649384615537621
JDBCConnection.getMetaData|Catalog.init|Catalog.<init>,0.15128599999782938,0.0,0.02478999999948428,0.0,0.17607599999731366
JDBCStatementBase.performPostExecute|JDBCStatement.fetchResult|JDBCStatement.executeQuery,0.11741133333028604,0.0,0.019719999999627664,0.0,0.1371313333299137
JRELocaleProviderAdapter.getNumberFormatProvider|JRELocaleProviderAdapter.getLocaleServiceProvider|LocaleProviderAdapter.findAdapter,0.04607895651892961,0.0,0.007548260869162217,0.0,0.05362721738809183
MysqlIO.readPacket|MysqlIO.getResultSet|MysqlIO.readResultsForQueryOrUpdate,0.049332968465896236,0.014322952378452531,0.007073587758933984,0.0017985714286970465,0.0725280800319798
MysqlIO.unpackField|MysqlIO.getResultSet|MysqlIO.readResultsForQueryOrUpdate,0.03924243276991315,0.021660777777368717,0.005571211851006325,0.0027333333334051226,0.06920775573169331
NodeAVL.replace|IndexAVL.balance|IndexAVL.insert,0.059509333337094475,0.0,0.011019999999916765,0.0,0.07052933333701124
ParserDQL.readColumnOrFunctionExpression|ParserDQL.XreadSimpleValueExpressionPrimary|ParserDQL.XreadAllTypesValueExpressionPrimary,0.05139133333432255,0.0,0.00960000000001552,0.0,0.06099133333433807
ParserRoutine.compileCreateProcedureOrFunction|ParserDDL.compileCreate|StatementSchemaDefinition.getResult,0.05139133333432255,0.0,0.00960000000001552,0.0,0.06099133333433807
PatternConverter.format|PatternLayout.format|WriterAppender.subAppend,0.02687599999868932,0.0,0.005499999999907836,0.0,0.03237599999859716
PatternParser.finalizeConverter|PatternParser.parse|PatternLayout.setConversionPattern,0.0,0.026587624474825426,0.0,0.004151432077394501,0.030739056552219927
PreparedStatement.executeBatchSerially|PreparedStatement.executeBatch|UpdatePage.executeBatch,0.0,0.0,0.0,0.0,0.0
PreparedStatement.executeQuery|UpdatePage.run|WikipediaWorker.updatePage,0.02674314400207312,0.0,0.003939081200472933,0.0,0.030682225202546053
RandomDistribution$Zipf.<init>|RandomDistribution$Zipf.<init>|WikipediaWorker.executeWork,0.3607027451258157,0.563386241512,0.05360965433227343,0.06943864632740598,1.0471372872974951
ReadAheadInputStream.read|MysqlIO.readFully|MysqlIO.readPacket,0.0,0.006182333333223747,0.0,0.0006856250000358461,0.006867958333259593
ResultSetImpl.<init>|JDBC4ResultSet.<init>|GeneratedConstructorAccessor1.newInstance,0.01755374216312866,0.0,0.002473596215661985,0.0,0.020027338378790647
ResultSetImpl.<init>|JDBC4ResultSet.<init>|GeneratedConstructorAccessor2.newInstance,0.07686366666651641,0.0,0.0123950000009548,0.0,0.0892586666674712
ResultSetImpl.checkClosed|ResultSetImpl.checkColumnBounds|ResultSetImpl.getStringInternal,0.03741466666785224,0.0,0.0054799999998067506,0.0,0.04289466666765899
ResultSetRow.getString|ByteArrayRow.getString|ResultSetImpl.getStringInternal,0.08439133333255691,0.0,0.012325000000297829,0.0,0.09671633333285475
RevisionHistograms.<clinit>|WikipediaBenchmark.<init>|NativeConstructorAccessorImpl.newInstance0,0.041879487182133086,0.0,0.007415384615085667,0.0,0.04929487179721875
SingleByteCharsetConverter.<clinit>|ConnectionImpl.getCharsetConverter|StringUtils.getBytes,0.8137584047591581,0.0,0.11986428571375048,0.0,0.9336226904729086
StatementImpl.resetCancelledState|PreparedStatement.executeInternal|PreparedStatement.executeUpdate,0.018702327706160256,0.0,0.002453475679663778,0.0,0.021155803385824033
StringUtil.<clinit>|DBWorkload.<clinit>|NativeMethodAccessorImpl.invoke0,0.0,0.025899107483999415,0.0,0.004220883024474289,0.030119990508473703
ThreadBench.getInterval|ThreadBench.runRateLimitedMultiPhase|ThreadBench.runRateLimitedBenchmark,0.0,0.0,0.0,0.0,0.0
ThreadBench.runRateLimitedMultiPhase|ThreadBench.runRateLimitedBenchmark|DBWorkload.runWorkload,5.977129424286251,3.685561698900779,0.9440341477534213,0.4019389387970395,11.008664209737491
Tokens.<clinit>|Scanner.scanToken|Scanner.scanNext,0.07593685184892146,0.0,0.013924444444758894,0.0,0.08986129629368035
Unsafe.park|LockSupport.park|AbstractQueuedSynchronizer.parkAndCheckInterrupt,0.0,0.0,0.0,0.0,0.0
Worker.cancelStatement|ThreadBench.interruptWorkers|ThreadBench.runRateLimitedMultiPhase,0.0,0.0006867496598492929,0.0,0.00012418367347031038,0.0008109333333196033
WorkloadState.addToQueue|ThreadBench.runRateLimitedMultiPhase|ThreadBench.runRateLimitedBenchmark,23.048449550347076,14.177089618867388,3.6313609240367226,1.5282300629153525,42.38513015616654
WorkloadState.getCurrentPhase|ThreadBench.runRateLimitedMultiPhase|ThreadBench.runRateLimitedBenchmark,21.34789784546073,12.54297180537656,3.4007062191612354,1.3698069150785965,38.66138278507712
XML11Configuration.<init>|XIncludeAwareParserConfiguration.<init>|XIncludeAwareParserConfiguration.<init>,0.12609866666753078,0.0,0.02068500000071557,0.0,0.14678366666824635
XMLConfiguration.createDelegate|AbstractHierarchicalFileConfiguration.initialize|AbstractHierarchicalFileConfiguration.<init>,0.053955333331638634,0.0,0.010985000000800936,0.0,0.06494033333243956
XMLEntityManager.setScannerVersion|XMLEntityManager.<init>|XML11Configuration.<init>,0.03800466667113748,0.0,0.006900000000314321,0.0,0.0449046666714518
XPathParser.NodeTest|XPathParser.LocationStep|XPathParser.RelativeLocationPath,0.05430066666788965,0.0,0.011025000000396782,0.0,0.06532566666828643
