method,package1,package2,dram1,dram2,energy
AbstractConfiguration.getBoolean|DBWorkload.main|NativeMethodAccessorImpl.invoke0,0.049479333332177085,0.0,0.005439999999604575,0.0,0.05491933333178166
AttributeInfo.read|MethodInfo.read|MethodInfo.<init>,0.09726966666736794,0.0,0.012200000000423943,0.0,0.10946966666779188
BenchmarkState.getState|ThreadBench.runRateLimitedMultiPhase|ThreadBench.runRateLimitedBenchmark,18.708992321242093,132.69937140323518,1.7105924918416548,18.28473981043077,171.4036960267497
Buffer.newReadLength|MysqlIO.buildResultSetWithUpdates|MysqlIO.readResultsForQueryOrUpdate,0.033366357403071034,0.0,0.0045358747588708686,0.0,0.037902232161941905
CalendarDataUtility.retrieveFirstDayOfWeek|Calendar.setWeekCountData|Calendar.<init>,0.05682383333381344,0.0,0.0072499999999611955,0.0,0.06407383333377463
Catalog.getOriginalTableNames|Catalog.<init>|BenchmarkModule.<init>,0.08095300000180335,0.0,0.010920000000017657,0.0,0.091873000001821
ClassFileAssembler.emitByte|ClassFileAssembler.emitConstantPoolUTF8|AccessorGenerator.emitBoxingContantPoolEntries,0.0810366896098718,0.0,0.009725288481075772,0.0,0.09076197809094758
ConfigurationUtils.fileFromURL|AbstractFileConfiguration.load|AbstractFileConfiguration.load,0.07820633333418905,0.0,0.009649999999965077,0.0,0.08785633333415413
ConnectionImpl.execSQL|PreparedStatement.executeInternal|PreparedStatement.executeQuery,0.02316847461364377,0.0,0.002853302185074263,0.0,0.026021776798718033
ConnectionImpl.execSQL|PreparedStatement.executeInternal|PreparedStatement.executeUpdate,0.0,0.0,0.0,0.0,0.0
ConnectionImpl.getMetaData|ConnectionImpl.<init>|JDBC4Connection.<init>,0.17181399999875185,0.0,0.02196000000064183,0.0,0.19377399999939368
ConnectionImpl.isReadInfoMsgEnabled|MysqlIO.buildResultSetWithUpdates|MysqlIO.readResultsForQueryOrUpdate,0.0801764297880609,0.0,0.010560473467276772,0.0,0.09073690325533768
ConnectionPropertiesImpl.getTinyInt1isBit|Field.<init>|MysqlIO.unpackField,0.015231834149640147,0.0,0.0019609162637760453,0.0,0.017192750413416193
ConstPool.read|ConstPool.<init>|ClassFile.read,0.07515466666761009,0.0,0.011035000000750491,0.0,0.08618966666836057
DBWorkload.main|NativeMethodAccessorImpl.invoke0|NativeMethodAccessorImpl.invoke,0.11734021296211318,0.0,0.016782499999812392,0.0,0.13412271296192557
Database.reopen|Database.open|DatabaseManager.getDatabase,0.072550333335433,0.0,0.009579999999308106,0.0,0.0821303333347411
ExpressionColumn.resolveTypes|ExpressionLogical.resolveTypes|ExpressionLogical.resolveTypes,0.06335433333151741,0.0,0.00960000000001552,0.0,0.07295433333153292
Field.<init>|MysqlIO.unpackField|MysqlIO.getResultSet,0.0008708974077113991,0.0,6.877029845838112e-05,0.0,0.0009396677061697801
JDBCConnection.getMetaData|Catalog.init|Catalog.<init>,0.05220533333340427,0.0,0.0068399999994047285,0.0,0.059045333332808994
JDBCDriver.getConnection|JDBCDriver.connect|DriverManager.getConnection,0.09863266666798154,0.0,0.010884999999689171,0.0,0.10951766666767071
JDBCStatementBase.performPostExecute|JDBCStatement.fetchResult|JDBCStatement.executeQuery,0.0898439999994783,0.0,0.01231999999981781,0.0,0.10216399999929611
JRELocaleProviderAdapter.getLocaleResources|CalendarDataProviderImpl.getFirstDayOfWeek|CalendarDataUtility$CalendarWeekParameterGetter.getObject,0.010660833333531627,0.0,0.0013800000000022312,0.0,0.01204083333353386
ListOrderedMap.values|TransactionTypes.toString|String.valueOf,0.09356699999868093,0.0,0.015140000000731863,0.0,0.10870699999941279
LocationInfo.<clinit>|LoggingEvent.getLocationInformation|PatternParser$LocationPatternConverter.convert,0.05895996296344998,0.0,0.008539999999306422,0.0,0.0674999629627564
Logger.newStore|Table.createDefaultStore|Table.<init>,0.06766099999994266,0.0,0.008749583334065392,0.0,0.07641058333400805
LongVector.elementAt|ConstPool.getItem|ConstPool.getClassInfo,0.04829424999843468,0.0,0.007436249999500433,0.0,0.05573049999793511
MysqlIO.adjustStartForFieldLength|MysqlIO.unpackField|MysqlIO.getResultSet,0.021071064233162448,0.0,0.0016777504118508642,0.0,0.022748814645013313
MysqlIO.buildResultSetWithRows|MysqlIO.getResultSet|MysqlIO.readResultsForQueryOrUpdate,0.12991648071642492,0.0,0.01992051693634353,0.0,0.14983699765276845
MysqlIO.getResultSet|MysqlIO.readResultsForQueryOrUpdate|MysqlIO.readAllResults,0.0,0.0,0.0,0.0,0.0
MysqlIO.readPacket|MysqlIO.getResultSet|MysqlIO.readResultsForQueryOrUpdate,0.029759319494486486,0.0,0.0037220823401612944,0.0,0.03348140183464778
MysqlIO.readResultsForQueryOrUpdate|MysqlIO.readAllResults|MysqlIO.sqlQueryDirect,0.043420787099557656,0.0,0.006965135404017892,0.0,0.05038592250357555
MysqlIO.readServerStatusForResultSets|MysqlIO.nextRow|MysqlIO.readSingleRowSet,0.0018628047866038632,0.0,0.0002724785263062253,0.0,0.0021352833129100884
MysqlIO.readSingleRowSet|MysqlIO.getResultSet|MysqlIO.readResultsForQueryOrUpdate,0.02398593008860034,0.0,0.0010961377618709275,0.0,0.02508206785047127
MysqlIO.reuseAndReadPacket|MysqlIO.reuseAndReadPacket|MysqlIO.checkErrorPacket,0.0545508912149595,0.029269916667302213,0.0070665678720782076,0.0042425000000093855,0.09512987575434931
MysqlIO.sqlQueryDirect|ConnectionImpl.execSQL|ConnectionImpl.commit,0.0,0.00013239033816040354,0.0,6.565217390655909e-06,0.00013895555555105946
MysqlIO.sqlQueryDirect|ConnectionImpl.execSQL|PreparedStatement.executeInternal,0.060468382798825604,0.0,0.00737070380739567,0.0,0.06783908660622127
MysqlIO.unpackField|MysqlIO.getResultSet|MysqlIO.readResultsForQueryOrUpdate,0.16298663599996083,0.0,0.020224498118644275,0.0,0.1832111341186051
NonRegisteringDriver.connect|DriverManager.getConnection|DriverManager.getConnection,0.17434593939546947,0.0,0.025941818182190848,0.0,0.20028775757766032
Parser.getOptions|Parser.processOption|Parser.parse,0.09726966666736794,0.0,0.012200000000423943,0.0,0.10946966666779188
Parser.hasMore|Javac.compileStmnt|CtBehavior.insertAfterAdvice,0.06707733333314536,0.0,0.010989999999461968,0.0,0.07806733333260733
PatternParser$DatePatternConverter.<init>|PatternParser.finalizeConverter|PatternParser.parse,0.031016166667541256,0.0,0.005294999999629605,0.0,0.03631116666717086
Phase.chooseTransaction|Phase.chooseTransaction|WorkloadState.addToQueue,0.0015634188981509215,0.0,0.00022946266928974493,0.0,0.0017928815674406664
PreparedStatement$BatchParams.<init>|PreparedStatement.addBatch|UpdatePage.run,0.00725763636364718,0.0,0.0009252272727115436,0.0,0.008182863636358723
PreparedStatement.<init>|JDBC4PreparedStatement.<init>|GeneratedConstructorAccessor14.newInstance,0.001577254102038974,0.0,0.0001860722830160788,0.0,0.001763326385055053
PreparedStatement.executeQuery|UpdatePage.run|WikipediaWorker.updatePage,0.022794825286491932,0.0,0.003511237533648864,0.0,0.026306062820140797
PreparedStatement.executeUpdate|PreparedStatement.executeBatchSerially|PreparedStatement.executeBatch,0.0,0.0,0.0,0.0,0.0
PreparedStatement.setInternal|PreparedStatement.setInternal|PreparedStatement.setInt,0.0,0.020242258160541076,0.0,0.0035788846528882257,0.023821142813429303
RandomDistribution$Zipf.<init>|RandomDistribution$Zipf.<init>|WikipediaWorker.executeWork,0.3896798004152929,0.4897900412427502,0.05577216448908673,0.06320057875270481,0.9984425848998346
RandomDistribution$Zipf.<init>|ResultSetImpl.next|end.end,0.00047688463469863166,0.0,6.214932138152005e-05,0.0,0.0005390339560801517
ReadAheadInputStream.checkClosed|ReadAheadInputStream.read|MysqlIO.readFully,0.009403391959735618,0.0,0.0010490245285759816,0.0,0.010452416488311599
ReadAheadInputStream.fill|ReadAheadInputStream.readFromUnderlyingStreamIfNecessary|ReadAheadInputStream.read,0.06290301173829815,0.0,0.008977125470132793,0.0,0.07188013720843095
ReadAheadInputStream.readFromUnderlyingStreamIfNecessary|ReadAheadInputStream.read|MysqlIO.readFully,0.024492285405735184,0.0,0.003122873990913881,0.0,0.027615159396649065
ReadAheadInputStream.read|MysqlIO.readFully|MysqlIO.reuseAndReadPacket,0.06753057603814885,0.0,0.00894750311720222,0.0,0.07647807915535107
Reflection.getCallerClass|Field.get|ConnectionPropertiesImpl.exposeAsProperties,0.1659570496755584,0.0,0.017063975676884006,0.0,0.1830210253524424
ResultSetImpl.<init>|JDBC4ResultSet.<init>|GeneratedConstructorAccessor1.newInstance,0.027710608805514646,0.0,0.0035319196248412006,0.0,0.031242528430355847
ResultSetImpl.checkClosed|ResultSetImpl.realClose|StatementImpl.executeQuery,0.07903918675883773,0.0,0.012049298405068198,0.0,0.09108848516390593
ResultSetImpl.getObject|Util.resultSetToMap|ConnectionImpl.buildCollationMapping,0.05107424078322501,0.0,0.005285049675144129,0.0,0.05635929045836914
ResultSetImpl.initializeWithMetadata|ResultSetImpl.<init>|JDBC4ResultSet.<init>,0.0241967125617109,0.0,0.002979918652720655,0.0,0.027176631214431556
ResultSetImpl.next|GetPageAnonymous.run|WikipediaWorker.getPageAnonymous,0.00032835588512792566,0.0,5.240131468692522e-05,0.0,0.0003807571998148509
ResultSetImpl.setDefaultTimeZone|ResultSetImpl.<init>|JDBC4ResultSet.<init>,0.0,0.011173533332960991,0.0,0.0022069999999075663,0.013380533332868557
RowDataStatic.next|ResultSetImpl.next|UpdatePage.run,0.0,0.004902492920986196,0.0,0.0008469683749919737,0.00574946129597817
RowDataStatic.next|ResultSetImpl.next|Util.resultSetToMap,0.07625722976911345,0.0,0.011255545258645078,0.0,0.08751277502775853
RowDataStatic.size|ResultSetImpl.setRowPositionValidity|ResultSetImpl.next,0.029754185790514313,0.0,0.003851586368525744,0.0,0.03360577215904006
RowStoreAVLMemory.getNewCachedObject|Table.insertSys|DatabaseInformationMain.SYSTEM_COLUMNS,0.0736490666672277,0.0,0.01178400000014032,0.0,0.08543306666736802
SHA.implCompress|SHA.implDigest|DigestBase.engineDigest,0.1800614828498519,0.0,0.018822608141214725,0.0,0.19888409099106663
SQLError.createSQLException|PreparedStatement.executeUpdate|PreparedStatement.executeBatchSerially,0.0,0.007652440723498427,0.0,0.0013311620990698627,0.00898360282256829
SessionManager.<init>|Database.reopen|Database.open,0.07043466666800667,0.0,0.010979999999714588,0.0,0.08141466666772126
SingleByteCharsetConverter.<clinit>|ConnectionImpl.getCharsetConverter|StringUtils.getBytes,1.1215764002092201,0.0,0.14676523291523372,0.0,1.268341633124454
StatementImpl.executeQuery|ConnectionImpl.buildCollationMapping|ConnectionImpl.initializePropsFromServer,0.030324872860138838,0.0,0.0043682762063789226,0.0,0.03469314906651776
StatementImpl.resetCancelledState|PreparedStatement.executeInternal|PreparedStatement.executeUpdate,0.017107425009449208,0.0,0.002070484268580375,0.0,0.019177909278029582
StringUtil.<clinit>|DBWorkload.<clinit>|NativeMethodAccessorImpl.invoke0,0.03280633333270089,0.0,0.005512499999895226,0.0,0.038318833332596114
StringUtils.firstNonWsCharUc|StatementImpl.executeQuery|ConnectionImpl.buildCollationMapping,0.05848229620365804,0.0,0.005588888510147761,0.0,0.0640711847138058
ThreadBench.runRateLimitedMultiPhase|ThreadBench.runRateLimitedBenchmark|DBWorkload.runWorkload,8.12206471381762,56.46107658944708,0.7250158853681221,7.777276694591471,73.08543388322428
Tokens.<clinit>|Scanner.scanToken|Scanner.scanNext,0.19108066666619075,0.0,0.02187000000049011,0.0,0.21295066666668086
UTF_8$Encoder.encode|StringCoding$StringEncoder.encode|StringCoding.encode,0.01898716772752099,0.0,0.0021580057069789387,0.0,0.02114517343449993
UpdatePage.run|WikipediaWorker.updatePage|WikipediaWorker.executeWork,0.0,0.05686433333903551,0.0,0.01104000000001785,0.06790433333905337
WikipediaBenchmark.makeWorkersImpl|BenchmarkModule.makeWorkers|DBWorkload.runWorkload,0.07541933333171376,0.0,0.009560000000419677,0.0,0.08497933333213344
Worker.<init>|WikipediaWorker.<init>|WikipediaBenchmark.makeWorkersImpl,0.059280346026770826,0.0,0.006623900252667448,0.0,0.06590424627943828
WorkloadState.addToQueue|ThreadBench.runRateLimitedMultiPhase|ThreadBench.runRateLimitedBenchmark,16.939193328079355,115.977464265019,1.5106400468077665,15.96836135466109,150.3956589945672
WorkloadState.getCurrentPhase|ThreadBench.runRateLimitedMultiPhase|ThreadBench.runRateLimitedBenchmark,20.428760363973538,136.07981936404616,1.839207207856068,18.719383994412492,177.06717093028826
XMLEntityManager.setScannerVersion|XMLEntityManager.<init>|XML11Configuration.<init>,0.10909000000053007,0.0,0.016524999999698288,0.0,0.12561500000022835
