method,package1,package2,dram1,dram2,energy
com.mysql.jdbc,1.26966625032157,1.245895643000349,0.17831054455508102,0.16481855206823853,2.858690989945239
com.mysql.jdbc.util,0.42620292338568444,7.252610360941576e-05,0.06313896295234349,4.644224955020408e-06,0.48941905666659236
com.oltpbenchmark,409.8552964343907,0.013979999996427937,68.15256916168431,0.002928571428648346,478.0247741675001
com.oltpbenchmark.benchmarks.wikipedia.procedures,0.016493773747396582,0.0034066269070639216,0.002511948823902472,0.0007040221914019702,0.023116371669764945
com.oltpbenchmark.util,0.5369966561959477,0.49903472653567027,0.07902615667304656,0.07320004544712355,1.188257584851788
com.sun.org.apache.xerces.internal.parsers,0.0,0.3313189999947402,0.0,0.06687000000056288,0.39818899999530305
com.sun.org.apache.xerces.internal.utils,0.0,0.040669999997286745,0.0,0.00375000000046081,0.04441999999774755
com.sun.xml.internal.stream.util,0.0,0.06374100000054264,0.0,0.013999999999820526,0.07774100000036317
javassist.bytecode,0.0,0.0,0.0,0.0,0.0
javassist.bytecode.stackmap,0.03117655681886041,0.0,0.004882306969914355,0.0,0.036058863788774764
org.hsqldb,0.0,0.3785693809560533,0.0,0.07363000000060266,0.45219938095665596
org.hsqldb.index,0.0,0.054552000003039,0.0,0.00804666666671336,0.06259866666975236
org.hsqldb.jdbc,0.0,0.2589579999928699,0.0,0.047864999999850014,0.3068229999927199
org.hsqldb.lib,0.0,0.06780999999803801,0.0,0.013990000000073149,0.08179999999811116
org.hsqldb.persist,0.0,0.10812096969510258,0.0,0.019539545454211875,0.12766051514931445
sun.nio.cs,0.0,0.1390526190488821,0.0,0.021678571428440457,0.16073119047732257
sun.reflect,0.0715453703579585,0.0,0.00904179804040049,0.0,0.08058716839835899
