method,dram1,package1,dram2,package2,energy
ADC$ControlRegister$ConversionEvent.fire|DeltaQueue$Link.fire|DeltaQueue.skipAhead,0.0,0.0,0.0,0.0,0.0
ADC$ControlRegister.<init>|ADC.<init>|ATMega128.installDevices,0.0,0.0,0.0,0.0,0.0
ADC$ControlRegister.access$100|ADC$ControlRegister$ConversionEvent.fire|DeltaQueue$Link.fire,0.0,0.0,0.0,0.0,0.0
ADC$ControlRegister.convertVoltage|ADC$ControlRegister.access$100|ADC$ControlRegister$ConversionEvent.fire,0.0,0.0,0.0,0.0,0.0
ADC$ControlRegister.stopConversion|ADC$ControlRegister.access$300|ADC$ControlRegister$ConversionEvent.fire,0.0,0.0,0.0,0.0,0.0
ADC$ControlRegister.write|AtmelInterpreter$IORegBehavior.write|AtmelInterpreter.writeVolatile,0.0,0.0,0.025067277642812344,0.15064653479930354,0.17571381244211587
ATMega128.<clinit>|Mica2$Factory.newPlatform|Simulation$Node.instantiate,0.003524222294066254,0.02987409832192088,0.0,0.0,0.03339832061598713
ATMega128.<init>|Mica2$Factory.newPlatform|Simulation$Node.instantiate,0.010438765987165843,0.09903803172568752,0.0,0.0,0.10947679771285336
ATMega128.installDevices|ATMega128.<init>|Mica2$Factory.newPlatform,0.011202574343276223,0.07726210491027842,0.0,0.0,0.08846467925355464
ATMegaFamily$PortRegister.write|AtmelInterpreter$IORegBehavior.write|AtmelInterpreter.writeVolatile,0.0,0.0,0.002262450592673343,0.012789881422958364,0.01505233201563171
AbstractStringBuilder.<init>|StringBuffer.<init>|StringUtil.toFixedFloat,0.0,0.0,0.0,0.0,0.0
AbstractStringBuilder.<init>|StringBuilder.<init>|URLStreamHandler.parseURL,0.0,0.0,0.00797951281382575,0.05554262581636524,0.06352213863019099
AbstractStringBuilder.<init>|StringBuilder.<init>|UnixFileSystem.resolve,0.0,0.0,0.0,0.0,0.0
AbstractStringBuilder.ensureCapacityInternal|AbstractStringBuilder.append|StringBuffer.append,0.0,0.0,0.0,0.0,0.0
AccessController.doPrivileged|URLClassLoader.findClass|DacapoClassLoader.loadClass,0.005455722586722455,0.03604809808095464,0.0,0.0,0.041503820667677084
Arithmetic.getBitField|ATMega128.getSleepMode|AtmelMicrocontroller.sleep,0.0,0.0,0.0,0.0,0.0
Arithmetic.getBit|ATMegaFamily$DirectionRegister.write|AtmelInterpreter$IORegBehavior.write,0.005535495276255008,0.03941182765366495,0.0,0.0,0.044947322929919965
Arithmetic.getBit|ATMegaFamily$PortRegister.write|AtmelInterpreter$IORegBehavior.write,0.0,0.0,0.012584762137658669,0.07397993093048366,0.08656469306814232
Arithmetic.getBit|Arithmetic.getBitField|ATMega128.getSleepMode,0.0,0.0,0.0,0.0,0.0
Arithmetic.getBit|LegacyInterpreter.visit|LegacyInstr$SBRS.accept,0.0010575893434333695,0.01020375878256288,0.0,0.0,0.011261348125996249
Arithmetic.getBit|SPI$SPCRReg.decode|SPI$SPCRReg.write,0.0,0.0,0.011928705677526671,0.06705854813284384,0.07898725381037051
Arithmetic.lowestBit|LegacyInterpreter.invokeInterrupt|LegacyInterpreter.runLoop,0.0,0.0,0.0,0.0,0.0
Arithmetic.low|AtmelInterpreter.writeRegisterWord|LegacyInterpreter.visit,0.0,0.0,0.0,0.0,0.0
Arithmetic.setBit|InterruptTable.post|AtmelInterpreter.setPosted,0.0,0.0,0.0,0.0,0.0
Arithmetic.uword|AtmelInterpreter.getRegisterWord|LegacyInterpreter.visit,0.0,0.0,0.0,0.0,0.0
Arithmetic.uword|AtmelInterpreter.getSP|AtmelInterpreter.popByte,0.0,0.0,0.0,0.0,0.0
Arithmetic.uword|AtmelInterpreter.getSP|AtmelInterpreter.pushByte,0.0,0.0,0.0,0.0,0.0
ArrayDeque.addLast|ArrayDeque.add|ZipFile.releaseInflater,0.0,0.0,0.0,0.0,0.0
ArrayList.<init>|ClassFile.read|ClassFile.<init>,0.0,0.0,0.015640000000227396,0.11234533333360257,0.12798533333382994
ArrayList.ensureCapacityInternal|ArrayList.add|CodeAttribute.<init>,0.0,0.0,0.0011650000006840045,0.006544333332890851,0.007709333333574855
Arrays.copyOfRange|String.<init>|DataInputStream.readUTF,0.0,0.0,0.0,0.0,0.0
Arrays.copyOfRange|String.<init>|String.substring,0.0,0.0,0.0025393098986672296,0.019126356008890986,0.021665665907558213
Arrays.copyOf|AbstractStringBuilder.ensureCapacityInternal|AbstractStringBuilder.append,0.0,0.0,0.0,0.0,0.0
Arrays.copyOf|ArrayList.grow|ArrayList.ensureExplicitCapacity,0.0,0.0,0.0,0.0,0.0
Arrays.copyOf|Resource.getBytes|URLClassLoader.defineClass,0.01011482216706545,0.05885249606505338,0.0,0.0,0.06896731823211882
Arrays.copyOf|ZipCoder.getBytes|ZipFile.getInputStream,0.0,0.0,0.0,0.0,0.0
Arrays.fill|CodeSegment.load|ReprogrammableCodeSegment$Factory.newCodeSegment,0.006880000003244882,0.03645833333333333,0.0,0.0,0.04333833333657821
Arrays.fill|Program.<init>|ELFParser.createProgram,0.005189985902947433,0.030613312444794726,0.0,0.0,0.035803298347742166
Arrays.sort|ArrayList.sort|Collections.sort,0.0,0.0,0.0006206278823733438,0.003261310859614924,0.003881938741988267
AtmelInterpreter$IORegBehavior.<init>|AtmelInterpreter.<init>|LegacyInterpreter.<init>,0.006941078740809853,0.038097830193878,0.0,0.0,0.04503890893468785
AtmelInterpreter$IORegBehavior.read|AtmelInterpreter.readVolatile|AtmelInterpreter.readSRAM,0.0,0.0,0.016469999998662388,0.09906000000228232,0.11553000000094472
AtmelInterpreter$IORegBehavior.write|AtmelInterpreter.writeVolatile|AtmelInterpreter.writeSRAM,0.0,0.0,0.0,0.0,0.0
AtmelInterpreter$SREGBehavior.read|AtmelInterpreter.readVolatile|AtmelInterpreter.readSRAM,0.0,0.0,0.0,0.0,0.0
AtmelInterpreter$SREGBehavior.write|AtmelInterpreter.writeVolatile|AtmelInterpreter.writeSRAM,0.0,0.0,0.0,0.0,0.0
AtmelInterpreter.advanceClock|LegacyInterpreter.invokeInterrupt|LegacyInterpreter.runLoop,0.0,0.0,0.0,0.0,0.0
AtmelInterpreter.advanceClock|LegacyInterpreter.leaveSleepMode|LegacyInterpreter.invokeInterrupt,0.0,0.0,0.0,0.0,0.0
AtmelInterpreter.commit|LegacyInterpreter.fastLoop|LegacyInterpreter.runLoop,0.07756718186906718,0.5584851657768829,0.03592146872169312,0.18945222545511456,0.8614260418227577
AtmelInterpreter.disableInterrupts|AtmelInterpreter$SREGBehavior.write|AtmelInterpreter.writeVolatile,0.005924484223831432,0.03946980854367712,0.0,0.0,0.04539429276750855
AtmelInterpreter.enableInterrupts|AtmelInterpreter$SREGBehavior.write|AtmelInterpreter.writeVolatile,0.0,0.0,0.0,0.0,0.0
AtmelInterpreter.enableInterrupts|LegacyInterpreter.visit|LegacyInstr$RETI.accept,0.0,0.0,0.0,0.0,0.0
AtmelInterpreter.fireAfterRead|AtmelInterpreter.readSRAM|AtmelInterpreter.getIORegisterByte,0.0,0.0,0.0,0.0,0.0
AtmelInterpreter.fireAfterRead|AtmelInterpreter.readSRAM|AtmelInterpreter.setIORegBit,0.005884615385074649,0.037841758240464624,0.0,0.0,0.04372637362553927
AtmelInterpreter.fireAfterWrite|AtmelInterpreter.writeSRAM|AtmelInterpreter.writeDataByte,0.0,0.0,0.0,0.0,0.0
AtmelInterpreter.fireAfterWrite|AtmelInterpreter.writeSRAM|AtmelInterpreter.writeIORegisterByte,0.0,0.0,0.0,0.0,0.0
AtmelInterpreter.fireBeforeRead|AtmelInterpreter.readSRAM|AtmelInterpreter.getDataByte,0.0,0.0,0.0,0.0,0.0
AtmelInterpreter.fireBeforeRead|AtmelInterpreter.readSRAM|AtmelInterpreter.setIORegBit,0.005587231982875471,0.043640006599416005,0.0,0.0,0.04922723858229148
AtmelInterpreter.fireBeforeWrite|AtmelInterpreter.writeSRAM|AtmelInterpreter.writeDataByte,0.01882097083895855,0.16405398660874598,0.0,0.0,0.18287495744770452
AtmelInterpreter.fireBeforeWrite|AtmelInterpreter.writeSRAM|AtmelInterpreter.writeIORegisterByte,0.0,0.0,0.0,0.0,0.0
AtmelInterpreter.getDataByte|AtmelInterpreter.popByte|LegacyInterpreter.visit,0.0,0.0,0.0,0.0,0.0
AtmelInterpreter.getIORegisterByte|LegacyInterpreter.visit|LegacyInstr$IN.accept,0.0,0.0,0.0,0.0,0.0
AtmelInterpreter.getInstrSize|LegacyInterpreter.visit|LegacyInstr$SBRC.accept,0.0,0.0,0.0,0.0,0.0
AtmelInterpreter.getInstr|AtmelInterpreter.getInstrSize|LegacyInterpreter.visit,0.0,0.0,0.0,0.0,0.0
AtmelInterpreter.getRegisterByte|AtmelInterpreter.getRegisterWord|LegacyInterpreter.visit,0.0108994334536642,0.06792421833968815,0.00370166666754004,0.016418444444247546,0.09894376290513994
AtmelInterpreter.getRegisterByte|LegacyInterpreter.visit|LegacyInstr$AND.accept,0.0,0.0,0.0,0.0,0.0
AtmelInterpreter.getRegisterByte|LegacyInterpreter.visit|LegacyInstr$CP.accept,0.0,0.0,0.0,0.0,0.0
AtmelInterpreter.getRegisterByte|LegacyInterpreter.visit|LegacyInstr$CPC.accept,0.0,0.0,0.0,0.0,0.0
AtmelInterpreter.getRegisterByte|LegacyInterpreter.visit|LegacyInstr$CPI.accept,0.0,0.0,0.0,0.0,0.0
AtmelInterpreter.getRegisterByte|LegacyInterpreter.visit|LegacyInstr$CPSE.accept,0.0,0.0,0.0,0.0,0.0
AtmelInterpreter.getRegisterByte|LegacyInterpreter.visit|LegacyInstr$EOR.accept,0.0,0.0,0.017525000000508346,0.10892733333215196,0.12645233333266032
AtmelInterpreter.getRegisterByte|LegacyInterpreter.visit|LegacyInstr$LSR.accept,0.0,0.0,0.0,0.0,0.0
AtmelInterpreter.getRegisterByte|LegacyInterpreter.visit|LegacyInstr$MOV.accept,0.0,0.0,0.0,0.0,0.0
AtmelInterpreter.getRegisterByte|LegacyInterpreter.visit|LegacyInstr$OUT.accept,0.004698818361352049,0.04194911477567753,0.0,0.0,0.04664793313702959
AtmelInterpreter.getRegisterByte|LegacyInterpreter.visit|LegacyInstr$PUSH.accept,0.007865553398838359,0.04872668081020184,0.05348373483326284,0.3664907310427667,0.47656670008506974
AtmelInterpreter.getRegisterByte|LegacyInterpreter.visit|LegacyInstr$SBC.accept,0.0,0.0,0.0,0.0,0.0
AtmelInterpreter.getRegisterByte|LegacyInterpreter.visit|LegacyInstr$STS.accept,0.0,0.0,0.014495000000655027,0.08011866666614273,0.09461366666679777
AtmelInterpreter.getRegisterByte|LegacyInterpreter.visit|LegacyInstr$SUBI.accept,0.0013631868133306053,0.009255934065939593,0.0,0.0,0.010619120879270198
AtmelInterpreter.getRegisterUnsigned|LegacyInterpreter.visit|LegacyInstr$ADD.accept,0.0,0.0,0.0,0.0,0.0
AtmelInterpreter.getSP|AtmelInterpreter.popByte|LegacyInterpreter.visit,0.0,0.0,0.0,0.0,0.0
AtmelInterpreter.getSP|AtmelInterpreter.pushByte|LegacyInterpreter.visit,0.007599852202408273,0.06380982501771829,0.0,0.0,0.07140967722012656
AtmelInterpreter.popByte|LegacyInterpreter.visit|LegacyInstr$POP.accept,0.0,0.0,0.0,0.0,0.0
AtmelInterpreter.popByte|LegacyInterpreter.visit|LegacyInstr$RET.accept,0.0,0.0,0.0,0.0,0.0
AtmelInterpreter.pushByte|LegacyInterpreter.visit|LegacyInstr$CALL.accept,0.0,0.0,0.013681590092965065,0.09061711350892564,0.1042987036018907
AtmelInterpreter.pushByte|LegacyInterpreter.visit|LegacyInstr$PUSH.accept,0.0,0.0,0.0,0.0,0.0
AtmelInterpreter.readSRAM|AtmelInterpreter.getDataByte|AtmelInterpreter.popByte,0.008564976993009892,0.05155589514027389,0.0,0.0,0.06012087213328377
AtmelInterpreter.readSRAM|AtmelInterpreter.getDataByte|LegacyInterpreter.visit,0.0,0.0,0.0,0.0,0.0
AtmelInterpreter.readSRAM|AtmelInterpreter.getIORegisterByte|LegacyInterpreter.visit,0.0,0.0,0.0,0.0,0.0
AtmelInterpreter.readSRAM|AtmelInterpreter.setIORegBit|LegacyInterpreter.visit,0.017406530683150317,0.12412536232628378,0.008389999997840883,0.04842099999950733,0.1983428930067823
AtmelInterpreter.readVolatile|AtmelInterpreter.readSRAM|AtmelInterpreter.getDataByte,0.006074959246637817,0.04575682577940519,0.0,0.0,0.051831785026043006
AtmelInterpreter.readVolatile|AtmelInterpreter.readSRAM|AtmelInterpreter.getIORegisterByte,0.0,0.0,0.004095000000233996,0.02717574999951466,0.03127074999974866
AtmelInterpreter.setIORegBit|LegacyInterpreter.visit|LegacyInstr$SBI.accept,0.0,0.0,0.0,0.0,0.0
AtmelInterpreter.setSP|AtmelInterpreter.popByte|LegacyInterpreter.visit,0.006716898798189935,0.06363996886034741,0.007481999999436085,0.03627940000005765,0.1141182676580311
AtmelInterpreter.setSP|AtmelInterpreter.pushByte|LegacyInterpreter.pushPC,0.0,0.0,0.0,0.0,0.0
AtmelInterpreter.setSP|AtmelInterpreter.pushByte|LegacyInterpreter.visit,0.005419999998897159,0.03808599999562527,0.0,0.0,0.04350599999452243
AtmelInterpreter.toSRAM|AtmelInterpreter.getIORegisterByte|LegacyInterpreter.visit,0.0,0.0,0.0,0.0,0.0
AtmelInterpreter.writeRegisterByte|AtmelInterpreter.writeRegisterWord|LegacyInterpreter.visit,0.003265014417443585,0.021893742893234373,0.0,0.0,0.02515875731067796
AtmelInterpreter.writeRegisterByte|LegacyInterpreter.visit|LegacyInstr$ADD.accept,0.0,0.0,0.0,0.0,0.0
AtmelInterpreter.writeRegisterByte|LegacyInterpreter.visit|LegacyInstr$AND.accept,0.0,0.0,0.0,0.0,0.0
AtmelInterpreter.writeRegisterByte|LegacyInterpreter.visit|LegacyInstr$IN.accept,0.0,0.0,0.0,0.0,0.0
AtmelInterpreter.writeRegisterByte|LegacyInterpreter.visit|LegacyInstr$INC.accept,0.0,0.0,0.0,0.0,0.0
AtmelInterpreter.writeRegisterByte|LegacyInterpreter.visit|LegacyInstr$LDI.accept,0.0,0.0,0.01813528583275907,0.10073915903945749,0.11887444487221654
AtmelInterpreter.writeRegisterByte|LegacyInterpreter.visit|LegacyInstr$LDS.accept,0.0,0.0,0.0,0.0,0.0
AtmelInterpreter.writeRegisterByte|LegacyInterpreter.visit|LegacyInstr$LSR.accept,0.0,0.0,0.0207525000005262,0.132965000000695,0.1537175000012212
AtmelInterpreter.writeRegisterByte|LegacyInterpreter.visit|LegacyInstr$MOV.accept,0.0,0.0,0.0,0.0,0.0
AtmelInterpreter.writeRegisterByte|LegacyInterpreter.visit|LegacyInstr$POP.accept,0.01050418551800153,0.09352220712579072,0.016658999998253418,0.10868220000247676,0.22936759264452244
AtmelInterpreter.writeSRAM|AtmelInterpreter.setIORegBit|LegacyInterpreter.visit,0.0,0.0,0.0,0.0,0.0
AtmelInterpreter.writeSRAM|AtmelInterpreter.writeDataByte|AtmelInterpreter.pushByte,0.0,0.0,0.0,0.0,0.0
AtmelInterpreter.writeSRAM|AtmelInterpreter.writeDataByte|LegacyInterpreter.visit,0.01372499999949165,0.0955403333355207,0.0,0.0,0.10926533333501234
AtmelInterpreter.writeSRAM|AtmelInterpreter.writeIORegisterByte|LegacyInterpreter.visit,0.009512220810978895,0.05946521602193055,0.0,0.0,0.06897743683290944
AtmelInterpreter.writeVolatile|AtmelInterpreter.writeSRAM|AtmelInterpreter.writeDataByte,0.0,0.0,0.019169566870930712,0.1279900550340421,0.1471596219049728
AtmelInterpreter.writeVolatile|AtmelInterpreter.writeSRAM|AtmelInterpreter.writeIORegisterByte,0.0,0.0,0.014422500004002359,0.0935669999980746,0.10798950000207697
AtmelMicrocontroller.wakeup|LegacyInterpreter.leaveSleepMode|LegacyInterpreter.invokeInterrupt,0.0,0.0,0.0,0.0,0.0
AttributeInfo.<init>|CodeAttribute.<init>|AttributeInfo.read,0.0,0.0,0.0,0.0,0.0
AttributeInfo.read|MethodInfo.read|MethodInfo.<init>,0.010364440397663507,0.05647900263552327,0.0,0.0,0.06684344303318678
Attributes.getValue|URLClassLoader.isSealed|URLClassLoader.getAndVerifyPackage,0.0,0.0,0.0,0.0,0.0
Benchmark.fileFromInputStream|Benchmark.unpackZipStream|Benchmark.unpackZipFileResource,0.0,0.0,0.0,0.0,0.0
Benchmark.initialize|Benchmark.<init>|Benchmark.<init>,0.0,0.0,0.0,0.0,0.0
Benchmark.prepareJars|Benchmark.initialize|Benchmark.<init>,0.010345922932717069,0.05977842920145957,0.0039004367096713947,0.0317226052138284,0.10574739405767644
Benchmark.unpackZipStream|Benchmark.unpackZipFileResource|Benchmark.prepare,0.0,0.0,0.005208173490794836,0.03368675548168856,0.0388949289724834
Buffer.flip|StreamEncoder.writeBytes|StreamEncoder.implFlushBuffer,0.0,0.0,0.0,0.0,0.0
Buffer.hasRemaining|StreamEncoder.implWrite|StreamEncoder.write,0.0,0.0,0.0,0.0,0.0
Buffer.limit|Buffer.<init>|CharBuffer.<init>,0.0,0.0,0.0,0.0,0.0
Buffer.position|StreamEncoder.implFlushBuffer|StreamEncoder.flushBuffer,0.0,0.0,0.0,0.0,0.0
BufferedInputStream.<init>|BufferedInputStream.<init>|ClassPool.makeClass,0.006366986305093136,0.036211452582599835,0.02022014744499457,0.1344255919342742,0.19722417826696173
BufferedInputStream.read|Benchmark.fileFromInputStream|Benchmark.extractFileResource,0.0,0.0,0.0039175000007768785,0.028584833333297862,0.032502333334074734
BufferedInputStream.read|DataInputStream.readInt|AttributeInfo.<init>,0.0,0.0,0.0,0.0,0.0
BufferedInputStream.read|DataInputStream.readInt|CodeAttribute.<init>,0.005262695133700946,0.029298221191012674,0.0,0.0,0.03456091632471362
BufferedInputStream.read|DataInputStream.readUnsignedByte|ConstPool.readOne,0.003788443070326505,0.04306035883422979,0.0,0.0,0.046848801904556286
BufferedInputStream.read|DataInputStream.readUnsignedShort|AttributeInfo.read,0.0,0.0,0.0,0.0,0.0
BufferedInputStream.read|DataInputStream.readUnsignedShort|ClassFile.read,0.0,0.0,0.010671638359082676,0.07521448317332917,0.08588612153241185
BufferedInputStream.read|DataInputStream.readUnsignedShort|ClassInfo.<init>,0.0,0.0,0.0,0.0,0.0
BufferedInputStream.read|DataInputStream.readUnsignedShort|CodeAttribute.<init>,0.0,0.0,0.009063111995315277,0.06526765099380137,0.07433076298911664
BufferedInputStream.read|DataInputStream.readUnsignedShort|DataInputStream.readUTF,0.0,0.0,0.0,0.0,0.0
BufferedInputStream.read|DataInputStream.readUnsignedShort|FieldInfo.read,0.00692610503217313,0.03861105055914267,0.0,0.0,0.0455371555913158
BufferedInputStream.read|DataInputStream.readUnsignedShort|MemberrefInfo.<init>,0.012134914021461331,0.07168361740507366,0.007890000000770671,0.055785999998382366,0.14749453142568802
BufferedInputStream.read|DataInputStream.readUnsignedShort|NameAndTypeInfo.<init>,0.0,0.0,0.0,0.0,0.0
BufferedInputStream.read|FilterInputStream.read|PushbackInputStream.read,0.0,0.0,0.02646500000021964,0.15474466666758718,0.18120966666780686
BufferedOutputStream.<init>|Benchmark.fileFromInputStream|Benchmark.unpackZipStream,0.0,0.0,0.0,0.0,0.0
BufferedWriter.flushBuffer|PrintStream.write|PrintStream.print,0.0,0.0,0.0,0.0,0.0
BufferedWriter.newLine|PrintStream.newLine|PrintStream.println,0.003136412797546923,0.029881834583183206,0.0,0.0,0.03301824738073013
BufferedWriter.write|PrintWriter.write|PrintWriter.write,0.0,0.0,0.0,0.0,0.0
BufferedWriter.write|Writer.write|BufferedWriter.newLine,0.0,0.0,0.0,0.0,0.0
ByteBuffer.arrayOffset|StreamEncoder.writeBytes|StreamEncoder.implFlushBuffer,0.011373749999620486,0.07472224999946775,0.0,0.0,0.08609599999908824
ByteBuffer.array|StreamEncoder.writeBytes|StreamEncoder.implFlushBuffer,0.0,0.0,0.0,0.0,0.0
ByteBuffer.array|UTF_8$Encoder.encodeArrayLoop|UTF_8$Encoder.encodeLoop,0.0,0.0,0.0,0.0,0.0
CC1000Radio$MainRegister.decode|CC1000Radio$RadioRegister.write|CC1000Radio$SerialConfigurationInterface.clockInBit,0.0,0.0,0.0,0.0,0.0
CC1000Radio$PA_POWRegister.decode|CC1000Radio$RadioRegister.write|CC1000Radio$SerialConfigurationInterface.clockInBit,0.0,0.0,0.0,0.0,0.0
CC1000Radio$Receiver.nextByte|Medium$Receiver$Ticker.deliverByte|Medium$Receiver$Ticker.fireLocked,0.0,0.0,0.0,0.0,0.0
CC1000Radio$SPITicker.<init>|CC1000Radio$SPITicker.<init>|CC1000Radio.<init>,0.0,0.0,0.008116710616896372,0.05934527330816295,0.06746198392505932
CC1000Radio$SPITicker.fire|DeltaQueue$Link.fire|DeltaQueue.skipAhead,0.0043643023542036495,0.040041041508673,0.0,0.0,0.04440534386287665
CC1000Radio$SerialConfigurationInterface$PCLKOutput.write|DefaultMCU$Pin.write|ATMegaFamily$PortRegister.write,0.0,0.0,0.0,0.0,0.0
CC1000Radio$SerialConfigurationInterface.clockInBit|CC1000Radio$SerialConfigurationInterface.access$200|CC1000Radio$SerialConfigurationInterface$PCLKOutput.write,0.004868011561108658,0.036010796987402664,0.0,0.0,0.040878808548511315
CC1000Radio.<init>|Mica2.addDevices|Mica2.<init>,0.008249999998952262,0.055251999998290564,0.0,0.0,0.06350199999724282
Chaperone.retire|Chaperone.dismiss|Chaperone.main,0.008747723909055795,0.05901217959176376,0.0,0.0,0.06775990350081956
CharUtil.<clinit>|StringUtil.to0xHex|StringUtil.addrToString,0.0,0.0,0.0,0.0,0.0
Character.toLowerCase|Character.toLowerCase|String.toLowerCase,0.0,0.0,0.0,0.0,0.0
CharacterData.of|Character.getType|Character.isDigit,0.0071879652874393424,0.0614898043402538,0.010282362840040785,0.06873265456576957,0.14769278703350353
CharacterData00.<clinit>|CharacterData.of|Character.getType,0.005167346076038242,0.034378252864149236,0.0,0.0,0.039545598940187485
CharsetEncoder.encode|StreamEncoder.implWrite|StreamEncoder.write,0.0,0.0,0.0,0.0,0.0
Class.forName0|Class.forName|Avrora.<init>,0.0,0.0,0.0,0.0,0.0
Class.getDeclaredConstructors0|Class.privateGetDeclaredConstructors|Class.getConstructor0,0.01866993913287521,0.12966651927180545,0.014211201632160959,0.08616378754327605,0.24871144758011768
Class.toString|ClassMap.getObjectOfClass|Defaults.getMonitor,0.0,0.0,0.0,0.0,0.0
ClassFile.read|ClassFile.<init>|CtClassType.getClassFile3,0.0,0.0,0.0,0.0,0.0
ClassLoader.addClass|ClassLoader.defineClass1|ClassLoader.defineClass,0.006489999999757856,0.041402333338434495,0.0,0.0,0.04789233333819235
ClassLoader.checkCerts|ClassLoader.preDefineClass|ClassLoader.defineClass,0.00941142857066422,0.056640571432321186,0.0,0.0,0.0660520000029854
ClassLoader.checkName|ClassLoader.preDefineClass|ClassLoader.defineClass,0.0,0.0,0.0,0.0,0.0
ClassLoader.defineClass1|ClassLoader.defineClass|SecureClassLoader.defineClass,0.11680222654682422,0.7728443747196233,0.10214378745883025,0.7217421759928367,1.7135325647181145
ClassLoader.findBootstrapClass|ClassLoader.findBootstrapClassOrNull|ClassLoader.loadClass,0.0059237162185368855,0.03310985346223227,0.008804999997664709,0.056620000000596825,0.1044585696790307
ClassLoader.findLoadedClass0|ClassLoader.findLoadedClass|DacapoClassLoader.loadClass,0.008445207390312128,0.05134313812412804,0.0,0.0,0.059788345514440164
ClassLoader.getResource|ClassLoader.getResource|ClassLoader.getSystemResource,0.0,0.0,0.0,0.0,0.0
ClassLoader.getSystemClassLoader|ClassLoader.getSystemResource|ClassLoader.getSystemResourceAsStream,0.0,0.0,0.0,0.0,0.0
ClassLoader.loadClass|VersionTag.commitNumber|VersionTag.<init>,0.0,0.0,0.0,0.0,0.0
ClassPool.compress|ClassPool.makeClass|ClassPool.makeClass,0.0,0.0,0.0,0.0,0.0
ClockDomain.<init>|Mica2$Factory.newPlatform|Simulation$Node.instantiate,0.0,0.0,0.0,0.0,0.0
CodeSegment.load|ReprogrammableCodeSegment$Factory.newCodeSegment|AtmelInterpreter.<init>,0.002872304282132102,0.019320727749142955,0.0,0.0,0.022193032031275057
CoderResult.isOverflow|CharsetEncoder.encode|StreamEncoder.implWrite,0.010718535476645216,0.07085024865480771,0.0,0.0,0.08156878413145292
ConcurrentHashMap.putVal|ConcurrentHashMap.putIfAbsent|ClassLoader.getClassLoadingLock,0.0,0.0,0.0,0.0,0.0
Config.<init>|ConfigFile.config|ConfigFile.configFile,0.0,0.0,0.0,0.0,0.0
Config.getThreadCount|Config.preprocessArgs|Avrora.prepare,0.0,0.0,0.0010843750002701806,0.006574166666268866,0.007658541666539047
Config.parse|TestHarness.<init>|TestHarness.main,0.0013799999990927365,0.008504333343201626,0.002749999999650754,0.01853433333235444,0.03116866667429956
ConfigFile.<init>|ConfigFile.<init>|Config.parse,0.013917899266809721,0.10884060960026963,0.012882921753329061,0.08076511295288158,0.21640654357329
ConfigFile.sizeSpec|ConfigFile.configFile|Config.parse,0.0,0.0,0.0,0.0,0.0
ConfigFileTokenManager.jjMoveNfa_0|ConfigFileTokenManager.jjMoveStringLiteralDfa0_0|ConfigFileTokenManager.getNextToken,0.0,0.0,0.01053959263944419,0.06370374242523417,0.07424333506467838
ConstPool.getItem|ConstPool.getClassInfo|ClassFile.getSuperclass,0.0,0.0,0.012360000000626314,0.08463533333269879,0.0969953333333251
ConstPool.getUtf8Info|FieldInfo.getName|CtField.getName,0.009255780297376734,0.06816729619698685,0.0,0.0,0.07742307649436359
ConstPool.readOne|ConstPool.read|ConstPool.<init>,0.0,0.0,0.0,0.0,0.0
CtClassType.getSuperclass|ThreadCoreMapInjector.getSuperClass|ThreadCoreMapInjector.isRunnable,0.0,0.0,0.010980000001533577,0.06656899999992068,0.07754900000145426
CtField.getName|CtClassType.getDeclaredField2|CtClassType.getField2,0.0,0.0,0.0,0.0,0.0
DataInputStream.readFully|DataInputStream.readUTF|DataInputStream.readUTF,0.0,0.0,0.009620000001935598,0.0616863333331518,0.0713063333350874
DataInputStream.readUTF|DataInputStream.readUTF|Utf8Info.<init>,0.0032002601375058573,0.047160158530970546,0.0,0.0,0.05036041866847641
DataInputStream.readUnsignedShort|NameAndTypeInfo.<init>|ConstPool.readOne,0.0,0.0,0.0,0.0,0.0
DataOutputStream.writeShort|ClassFile.write|CtClassType.toBytecode,0.0,0.0,0.0,0.0,0.0
DecimalFormat.<clinit>|TestHarness.twoDecimalPlaces|TestHarness.<clinit>,0.0,0.0,0.0,0.0,0.0
DefaultMCU$Pin.printRead|DefaultMCU$Pin.read|ATMegaFamily$PinRegister.read,0.0,0.0,0.0,0.0,0.0
DefaultMCU$Pin.printWrite|DefaultMCU$Pin.write|ATMegaFamily$PortRegister.write,0.0,0.0,0.0,0.0,0.0
DefaultMCU$Pin.write|ATMegaFamily$PortRegister.write|AtmelInterpreter$IORegBehavior.write,0.0019475000003391567,0.016795841665104186,0.010871937366097283,0.06338293871668763,0.09299821774822825
Defaults$AutoProgramReader.read|Main.loadProgram|LoadableProgram.load,0.0,0.0,0.0,0.0,0.0
Defaults.addActions|Defaults.getAction|Main.runAction,0.0,0.0,0.0,0.0,0.0
Defaults.addInputFormats|Defaults.getProgramReader|Main.loadProgram,0.0109599999996135,0.06736266667333743,0.0,0.0,0.07832266667295093
Defaults.addMainCategory|Defaults.addActions|Defaults.getAction,0.0038138658196029776,0.025029747859519773,0.0,0.0,0.02884361367912275
Defaults.addMonitors|Defaults.getMonitor|Simulation.processMonitorList,0.0,0.0,0.00324570963736055,0.023515304451409487,0.02676101408877004
DeltaQueue$EventList.<init>|DeltaQueue.newEventList|DeltaQueue.access$000,0.0,0.0,0.0,0.0,0.0
DeltaQueue$Link.add|DeltaQueue.newLink|DeltaQueue.insertAfter,0.0,0.0,0.0,0.0,0.0
DeltaQueue$Link.fire|DeltaQueue.advanceSlow|DeltaQueue.advance,0.0,0.0,0.015756513773512778,0.1074506503365474,0.12320716411006018
DeltaQueue$Link.fire|DeltaQueue.skipAhead|MainClock.skipAhead,0.0,0.0,0.011163749999468564,0.05986025000129304,0.0710240000007616
DeltaQueue.advanceSlow|DeltaQueue.advance|MainClock.advance,0.0,0.0,0.0,0.0,0.0
DeltaQueue.advance|MainClock.advance|AtmelInterpreter.commit,0.06957128418103803,0.4865703966103975,0.01961333333262397,0.1173977777774174,0.6931527919014768
DeltaQueue.free|DeltaQueue.advanceSlow|DeltaQueue.advance,0.0,0.0,0.0,0.0,0.0
DeltaQueue.free|DeltaQueue.skipAhead|MainClock.skipAhead,0.009281250000640284,0.0592957499975455,0.0,0.0,0.06857699999818577
DeltaQueue.insertEvent|MainClock.insertEvent|ADC$ControlRegister.insertConversion,0.0,0.0,0.0,0.0,0.0
DeltaQueue.insertEvent|MainClock.insertEvent|CC1000Radio$SPITicker.fire,0.0,0.0,0.0,0.0,0.0
DeltaQueue.insertEvent|MainClock.insertEvent|DerivedClock.insertEvent,0.0,0.0,0.0,0.0,0.0
DeltaQueue.insertEvent|MainClock.insertEvent|Medium$Receiver$Ticker.deliverByte,0.0,0.0,0.0,0.0,0.0
DeltaQueue.insertEvent|MainClock.insertEvent|Medium$Receiver$Ticker.fireUnlocked,0.0,0.0,0.00985800000053132,0.0677611999999499,0.07761920000048121
DeltaQueue.insertEvent|MainClock.insertEvent|RippleSynchronizer$NotifyEvent.fire,0.0,0.0,0.0,0.0,0.0
DeltaQueue.newEventList|DeltaQueue.access$000|DeltaQueue$Link.add,0.011409795091333347,0.0788767027665114,0.007034509153705882,0.04898821953434869,0.1463092265458993
DeltaQueue.newLink|DeltaQueue.insertAfter|DeltaQueue.insertEvent,0.0,0.0,0.0,0.0,0.0
DeltaQueue.skipAhead|MainClock.skipAhead|LegacyInterpreter.sleepLoop,0.0,0.0,0.0,0.0,0.0
DerivedClock.insertEvent|Timer8Bit.tickerFinish|Timer8Bit.access$100,0.007156743726392358,0.07493816090966893,0.0,0.0,0.08209490463606127
DisabledAlgorithmConstraints$Constraint$Operator.<clinit>|DisabledAlgorithmConstraints$Constraints.<init>|DisabledAlgorithmConstraints.<init>,0.0,0.0,0.0,0.0,0.0
DisabledAlgorithmConstraints$Constraints.<init>|DisabledAlgorithmConstraints.<init>|DisabledAlgorithmConstraints.<init>,0.0,0.0,0.02392499999890181,0.13464366666691302,0.15856866666581482
EEPROM$EEPROMWriteFinishedEvent.<init>|EEPROM.<init>|ATMega128.installDevices,0.011231851300303491,0.06543002633093635,0.0,0.0,0.07666187763123984
ELFHeader.getArchitecture|ELFParser.getArchitecture|ELFParser.read,0.0,0.0,0.0,0.0,0.0
ELFIdentifier.<clinit>|ELFHeader.getArchitecture|ELFParser.getArchitecture,0.005431527784953558,0.033266598929414457,0.0,0.0,0.038698126714368015
ELFLoader.readELFHeader|ELFParser.read|Defaults$AutoProgramReader.read,0.0,0.0,0.01096999999814822,0.0694986666664287,0.08046866666457693
ELFParser.disassembleSection|ELFParser.loadSections|ELFParser.read,0.0,0.0,0.0,0.0,0.0
ELFParser.findLMA|ELFParser.addSymbols|ELFParser.loadSymbolTables,0.0,0.0,0.0,0.0,0.0
ELFParser.read|Defaults$AutoProgramReader.read|Main.loadProgram,0.012260663247435038,0.07109921463991697,0.0,0.0,0.08335987788735201
ExitStopper.transform|TransformerManager.transform|InstrumentationImpl.transform,0.0,0.0,0.0,0.0,0.0
ExternalFlash$PA3Output.write|DefaultMCU$Pin.write|ATMegaFamily$PortRegister.write,0.0,0.0,0.0,0.0,0.0
ExternalFlash$PD5Output.<init>|ExternalFlash.<init>|Mica2.addDevices,0.0,0.0,0.0,0.0,0.0
File.getCanonicalPath|FilePermission$1.run|FilePermission$1.run,0.011846749727018064,0.06334635417648816,0.0,0.0,0.07519310390350623
FileDescriptor.closeAll|FileOutputStream.close|FilterOutputStream.close,0.0,0.0,0.01680500000171984,0.11319966666754527,0.1300046666692651
FileInputStream.read|BufferedInputStream.fill|BufferedInputStream.read,0.0,0.0,0.0,0.0,0.0
FileOutputStream.close0|FileOutputStream.access$000|FileOutputStream$1.close,0.0020629661137840896,0.016788327882718845,0.0,0.0,0.01885129399650293
FileOutputStream.open0|FileOutputStream.open|FileOutputStream.<init>,0.11436711013848871,0.7733702094116275,0.030877172256064563,0.19703093703576552,1.1156454288419464
FileOutputStream.writeBytes|FileOutputStream.write|BufferedOutputStream.flushBuffer,0.022221543128995665,0.15449401854404193,0.030282871892852933,0.19808235644371597,0.4050807900096064
FileOutputStream.writeBytes|FileOutputStream.write|BufferedOutputStream.write,0.03406764070532365,0.22239792810372339,0.016754999999344967,0.11244733333417874,0.3856679021425708
FileOutputStream.writeBytes|FileOutputStream.write|StreamEncoder.writeBytes,0.0,0.0,0.0,0.0,0.0
FileOutputStream.write|FileOutputStream.write|TeeOutputStream.write,1.046364289605418,7.420143849688264,1.237888392550373,7.633093379796868,17.337489911640922
FilterOutputStream.write|PrintStream.write|StreamEncoder.writeBytes,0.0,0.0,0.0,0.0,0.0
FiniteStateMachine.buildSparseTTM|CC1000Radio.<clinit>|Mica2.addDevices,0.0,0.0,0.0,0.0,0.0
FiniteStateMachine.fireAfter|FiniteStateMachine.transition|AtmelMicrocontroller.wakeup,0.0,0.0,0.0,0.0,0.0
FiniteStateMachine.fireBefore|FiniteStateMachine.transition|AtmelMicrocontroller.wakeup,0.0,0.0,0.0,0.0,0.0
FiniteStateMachine.getTransitionTime|AtmelMicrocontroller.wakeup|LegacyInterpreter.leaveSleepMode,0.0,0.0,0.0,0.0,0.0
FiniteStateMachine.transition|AtmelMicrocontroller.sleep|LegacyInterpreter.enterSleepMode,0.0,0.0,0.0,0.0,0.0
FiniteStateMachine.transition|AtmelMicrocontroller.wakeup|LegacyInterpreter.leaveSleepMode,0.0,0.0,0.0,0.0,0.0
FiniteStateMachine.transition|LED.write|DefaultMCU$Pin.write,0.0036910714295247866,0.03604339285500048,0.0,0.0,0.03973446428452527
FormattedFloatingDecimal.<init>|FormattedFloatingDecimal.valueOf|Formatter$FormatSpecifier.print,0.013555331457048188,0.07816766604224963,0.0,0.0,0.09172299749929784
Formatter$FormatSpecifier.print|Formatter$FormatSpecifier.print|Formatter$FormatSpecifier.printFloat,0.0,0.0,0.017020860407570174,0.0841876457497691,0.10120850615733927
Formatter.parse|Formatter.format|Formatter.format,0.020917908436830102,0.1373688591330326,0.0,0.0,0.1582867675698627
HashMap$Node.<init>|HashMap.newNode|HashMap.putVal,0.003882971129521943,0.021925030763940367,0.0,0.0,0.025808001893462308
HashMap.containsKey|HashSet.contains|LegacyRegister$Set.contains,0.010594923181001002,0.06759173037169622,0.0,0.0,0.07818665355269723
HashMap.getNode|HashMap.containsKey|HashSet.contains,0.010380651130554974,0.07526952569035221,0.0,0.0,0.08565017682090717
HashMap.getNode|HashMap.get|RippleSynchronizer.waitForNeighbors,0.13214983639009337,1.02943200581657,0.07326608658342505,0.4924771593709901,1.7273250881610784
HashMap.hash|HashMap.containsKey|HashSet.contains,0.0,0.0,0.0,0.0,0.0
HashMap.hash|HashMap.get|RippleSynchronizer.waitForNeighbors,0.007123650748927565,0.06435175671463828,0.02064750000135973,0.13421649999872898,0.22633940746365455
HashMap.hash|HashMap.put|ELFStringTable.getString,0.0109599999996135,0.07737200000944236,0.0,0.0,0.08833200000905586
Hashtable.get|ClassPool.getCached|ClassPool.get0,0.010500059437037268,0.07001757035712987,0.0,0.0,0.08051762979416714
Hashtable.put|ClassPool.cacheCtClass|ClassPool.makeClass,0.0,0.0,0.0,0.0,0.0
HelpCategory.<clinit>|Defaults.addActions|Defaults.getAction,0.0006000974377807628,0.003533955620691197,0.0010946341460178856,0.007974731708289743,0.01320341891277959
HelpCategory.addOptionSection|Action.<init>|SimAction.<init>,0.0,0.0,0.0,0.0,0.0
HelpCategory.addOptionValueSection|Defaults.addInputFormats|Defaults.getProgramReader,0.0,0.0,0.0,0.0,0.0
Inflater.finished|InflaterInputStream.read|ZipInputStream.read,0.0,0.0,0.0,0.0,0.0
Inflater.getBytesWritten|ZipFile$ZipFileInflaterInputStream.available|FilterInputStream.available,0.0,0.0,0.0,0.0,0.0
Inflater.inflateBytes|Inflater.inflate|InflaterInputStream.read,0.23168571223881998,1.5460860076235012,0.1381855829190804,0.8862747370247592,2.8022320398061606
Inflater.inflate|InflaterInputStream.read|FilterInputStream.read,0.01238999999865579,0.07328299998577373,0.0,0.0,0.08567299998442952
Inflater.setInput|ZipFile$ZipFileInflaterInputStream.fill|InflaterInputStream.read,0.0,0.0,0.004990025489866798,0.04006361571628314,0.045053641206149936
InflaterInputStream.<init>|ZipFile$ZipFileInflaterInputStream.<init>|ZipFile.getInputStream,0.005239451206509533,0.037270217880795466,0.0,0.0,0.042509669087305
InflaterInputStream.close|ZipFile$ZipFileInflaterInputStream.close|Resource.getBytes,0.005759090909453913,0.047476121208588164,0.0,0.0,0.05323521211804208
InflaterInputStream.read|FilterInputStream.read|BufferedInputStream.fill,0.0,0.0,0.002618333333682837,0.01887333333312805,0.021491666666810884
InterruptTable.beforeInvoke|LegacyInterpreter.invokeInterrupt|LegacyInterpreter.runLoop,0.0,0.0,0.0,0.0,0.0
InterruptTable.disableAll|AtmelInterpreter.disableInterrupts|AtmelInterpreter$SREGBehavior.write,0.0,0.0,0.0061649999997825935,0.034973250000803084,0.04113825000058568
InterruptTable.enable|AtmelInterpreter.setEnabled|ADC$ControlRegister.write,0.0,0.0,0.0,0.0,0.0
InterruptTable.post|AtmelInterpreter.setPosted|ATMegaFamily$InterruptFlag.flag,0.0,0.0,0.0,0.0,0.0
InterruptTable.post|AtmelInterpreter.setPosted|SPI.postSPIInterrupt,0.0,0.0,0.0,0.0,0.0
InterruptTable.unpost|AtmelInterpreter.setPosted|SPI.unpostSPIInterrupt,0.0,0.0,0.0,0.0,0.0
JarFile$JarFileEntry.<init>|JarFile.getEntry|JarFile.getJarEntry,0.0,0.0,0.0,0.0,0.0
JarFile.initializeVerifier|JarFile.getInputStream|URLClassPath$JarLoader$2.getInputStream,0.005989999999453883,0.08297388888442785,0.0,0.0,0.08896388888388174
JarURLConnection.<init>|Handler.openConnection|URL.openConnection,0.0,0.0,0.0,0.0,0.0
LEDMonitor$Mon.fireAfterTransition|MulticastFSMProbe.fireAfterTransition|FiniteStateMachine.fireAfter,0.0,0.0,0.0,0.0,0.0
LegacyArchitecture.getDisassembler|ELFParser.disassembleSection|ELFParser.loadSections,0.017249524771509057,0.1222450008332001,0.025187168149505744,0.16742180064185463,0.33210349439606957
LegacyDisassembler.<clinit>|LegacyArchitecture.getDisassembler|ELFParser.disassembleSection,0.0068899999993542824,0.0599773333427341,0.009317707095042843,0.06734723391483953,0.14353227435197075
LegacyDisassembler.decode_20|LegacyDisassembler.decode_21|LegacyDisassembler.decode_25,0.0058754026507211185,0.03617377937451111,0.0,0.0,0.04204918202523223
LegacyDisassembler.decode_5|LegacyDisassembler.decode_7|LegacyDisassembler.decode_root0,0.004995395352633,0.053833454406420365,0.0,0.0,0.058828849759053364
LegacyDisassembler.decode_AND_0|LegacyDisassembler.decode_9|LegacyDisassembler.decode_root0,0.008270946190258116,0.04150973968808778,0.0,0.0,0.04978068587834589
LegacyDisassembler.decode_BRGE_0|LegacyDisassembler.decode_1|LegacyDisassembler.decode_4,0.0,0.0,0.0,0.0,0.0
LegacyDisassembler.decode_INC_0|LegacyDisassembler.decode_17|LegacyDisassembler.decode_20,0.0,0.0,0.0,0.0,0.0
LegacyDisassembler.decode_JMP_0|LegacyDisassembler.decode_20|LegacyDisassembler.decode_21,0.0,0.0,0.0,0.0,0.0
LegacyDisassembler.decode_LDD_0|LegacyDisassembler.decode_32|LegacyDisassembler.decode_33,0.0,0.0,0.0,0.0,0.0
LegacyDisassembler.decode_MOVW_0|LegacyDisassembler.decode_30|LegacyDisassembler.decode_31,0.00941142857066422,0.060477142862509936,0.0,0.0,0.06988857143317416
LegacyDisassembler.decode_NOP_0|LegacyDisassembler.decode_30|LegacyDisassembler.decode_31,0.005321725070935254,0.042914713505973416,0.0,0.0,0.048236438576908666
LegacyDisassembler.decode_ROR_0|LegacyDisassembler.decode_18|LegacyDisassembler.decode_20,0.0,0.0,0.0,0.0,0.0
LegacyDisassembler.decode_SBRC_0|LegacyDisassembler.decode_2|LegacyDisassembler.decode_4,0.0,0.0,0.0,0.0,0.0
LegacyDisassembler.decode_root0|LegacyDisassembler.decode_root|LegacyDisassembler.disassembleLegacy,0.0,0.0,0.0,0.0,0.0
LegacyDisassembler.decode_root|LegacyDisassembler.disassembleLegacy|LegacyDisassembler.disassemble,0.0,0.0,0.007547174056791076,0.05164029898549625,0.059187473042287324
LegacyInstr$BREQ.<init>|LegacyDisassembler.decode_BREQ_0|LegacyDisassembler.decode_3,0.0,0.0,0.008570256340354684,0.051632463680894115,0.0602027200212488
LegacyInstr$BRLT.accept|LegacyInterpreter.fastLoop|LegacyInterpreter.runLoop,0.0,0.0,0.0,0.0,0.0
LegacyInstr$BRNE.accept|LegacyInterpreter.fastLoop|LegacyInterpreter.runLoop,0.0,0.0,0.0,0.0,0.0
LegacyInstr$BRPL.accept|LegacyInterpreter.fastLoop|LegacyInterpreter.runLoop,0.0,0.0,0.0,0.0,0.0
LegacyInstr$CLI.accept|LegacyInterpreter.fastLoop|LegacyInterpreter.runLoop,0.0,0.0,0.0,0.0,0.0
LegacyInstr$COM.accept|LegacyInterpreter.fastLoop|LegacyInterpreter.runLoop,0.0,0.0,0.0,0.0,0.0
LegacyInstr$CP.accept|LegacyInterpreter.fastLoop|LegacyInterpreter.runLoop,0.0,0.0,0.0,0.0,0.0
LegacyInstr$CPI.accept|LegacyInterpreter.fastLoop|LegacyInterpreter.runLoop,0.0,0.0,0.0,0.0,0.0
LegacyInstr$CPSE.accept|LegacyInterpreter.fastLoop|LegacyInterpreter.runLoop,0.0,0.0,0.0,0.0,0.0
LegacyInstr$EOR.accept|LegacyInterpreter.fastLoop|LegacyInterpreter.runLoop,0.0,0.0,0.008231249998061685,0.05372625000018162,0.0619574999982433
LegacyInstr$ICALL.accept|LegacyInterpreter.fastLoop|LegacyInterpreter.runLoop,0.0,0.0,0.0,0.0,0.0
LegacyInstr$IN.accept|LegacyInterpreter.fastLoop|LegacyInterpreter.runLoop,0.0,0.0,0.01659938910643852,0.10396668259434104,0.12056607170077956
LegacyInstr$INC.accept|LegacyInterpreter.fastLoop|LegacyInterpreter.runLoop,0.0,0.0,0.0,0.0,0.0
LegacyInstr$JMP.accept|LegacyInterpreter.fastLoop|LegacyInterpreter.runLoop,0.0,0.0,0.0,0.0,0.0
LegacyInstr$LD.accept|LegacyInterpreter.fastLoop|LegacyInterpreter.runLoop,0.0,0.0,0.0,0.0,0.0
LegacyInstr$LDD.accept|LegacyInterpreter.fastLoop|LegacyInterpreter.runLoop,0.0,0.0,0.0,0.0,0.0
LegacyInstr$LDS.accept|LegacyInterpreter.fastLoop|LegacyInterpreter.runLoop,0.0,0.0,0.0,0.0,0.0
LegacyInstr$MOV.accept|LegacyInterpreter.fastLoop|LegacyInterpreter.runLoop,0.0,0.0,0.0,0.0,0.0
LegacyInstr$NOP.accept|LegacyInterpreter.fastLoop|LegacyInterpreter.runLoop,0.0,0.0,0.0,0.0,0.0
LegacyInstr$OR.accept|LegacyInterpreter.fastLoop|LegacyInterpreter.runLoop,0.011000000000758854,0.07264562962680228,0.0,0.0,0.08364562962756114
LegacyInstr$OUT.accept|LegacyInterpreter.fastLoop|LegacyInterpreter.runLoop,0.0,0.0,0.0,0.0,0.0
LegacyInstr$POP.accept|LegacyInterpreter.fastLoop|LegacyInterpreter.runLoop,0.0,0.0,0.0,0.0,0.0
LegacyInstr$PUSH.accept|LegacyInterpreter.fastLoop|LegacyInterpreter.runLoop,0.0,0.0,0.0,0.0,0.0
LegacyInstr$SBIW.accept|LegacyInterpreter.fastLoop|LegacyInterpreter.runLoop,0.0,0.0,0.0,0.0,0.0
LegacyInstr$SBRS.accept|LegacyInterpreter.fastLoop|LegacyInterpreter.runLoop,0.0,0.0,0.002281499999662628,0.013098199999876669,0.015379699999539297
LegacyInstr$SEI.accept|LegacyInterpreter.fastLoop|LegacyInterpreter.runLoop,0.0,0.0,0.0,0.0,0.0
LegacyInstr$STD.<init>|LegacyInstr$STD.<clinit>|LegacyDisassembler.decode_STD_0,0.0,0.0,0.0,0.0,0.0
LegacyInstr$STD.accept|LegacyInterpreter.fastLoop|LegacyInterpreter.runLoop,0.01070901292833579,0.08666752415298833,0.0,0.0,0.09737653708132413
LegacyInstr$STS.accept|LegacyInterpreter.fastLoop|LegacyInterpreter.runLoop,0.0,0.0,0.014272858756381747,0.08586998485500556,0.10014284361138732
LegacyInstr$SUB.accept|LegacyInterpreter.fastLoop|LegacyInterpreter.runLoop,0.0,0.0,0.0,0.0,0.0
LegacyInstr.<clinit>|LegacyDisassembler.decode_JMP_0|LegacyDisassembler.decode_20,0.0,0.0,0.0,0.0,0.0
LegacyInstr.<init>|LegacyInstr$REGIMM_class.<init>|LegacyInstr$LDI.<init>,0.009310940369689888,0.05823732088807276,0.0,0.0,0.06754826125776266
LegacyInstr.access$1700|LegacyInstr$BRMI.<init>|LegacyDisassembler.decode_BRMI_0,0.0,0.0,0.016240000002047356,0.09468599999915264,0.1109260000012
LegacyInstr.access$900|LegacyInstr$OUT.<init>|LegacyDisassembler.decode_OUT_0,0.0,0.0,0.0,0.0,0.0
LegacyInterpreter.enterSleepMode|LegacyInterpreter.visit|LegacyInstr$SLEEP.accept,0.0,0.0,0.0,0.0,0.0
LegacyInterpreter.fastLoop|LegacyInterpreter.runLoop|AtmelInterpreter.start,0.12334974730044346,0.8590671711893604,0.10432491781771595,0.5402488380035929,1.6269906743111127
LegacyInterpreter.invokeInterrupt|LegacyInterpreter.runLoop|AtmelInterpreter.start,0.0,0.0,0.0,0.0,0.0
LegacyInterpreter.leaveSleepMode|LegacyInterpreter.invokeInterrupt|LegacyInterpreter.runLoop,0.0,0.0,0.0,0.0,0.0
LegacyInterpreter.runLoop|AtmelInterpreter.start|Simulator.start,0.06257014554067125,0.46038627223499506,0.024294074046743375,0.16652465458826315,0.713775146410673
LegacyInterpreter.sleepLoop|LegacyInterpreter.runLoop|AtmelInterpreter.start,0.0,0.0,0.0,0.0,0.0
LegacyInterpreter.visit|LegacyInstr$ADC.accept|LegacyInterpreter.fastLoop,0.0,0.0,0.0,0.0,0.0
LegacyInterpreter.visit|LegacyInstr$ADD.accept|LegacyInterpreter.fastLoop,0.0,0.0,0.0,0.0,0.0
LegacyInterpreter.visit|LegacyInstr$AND.accept|LegacyInterpreter.fastLoop,0.0,0.0,0.0,0.0,0.0
LegacyInterpreter.visit|LegacyInstr$BREQ.accept|LegacyInterpreter.fastLoop,0.0,0.0,0.0,0.0,0.0
LegacyInterpreter.visit|LegacyInstr$BRLT.accept|LegacyInterpreter.fastLoop,0.0,0.0,0.0,0.0,0.0
LegacyInterpreter.visit|LegacyInstr$BRNE.accept|LegacyInterpreter.fastLoop,0.0,0.0,0.0,0.0,0.0
LegacyInterpreter.visit|LegacyInstr$COM.accept|LegacyInterpreter.fastLoop,0.0,0.0,0.00820124999700056,0.05306999999993423,0.061271249996934785
LegacyInterpreter.visit|LegacyInstr$CP.accept|LegacyInterpreter.fastLoop,0.009173216011542194,0.08187936293067816,0.005476491228263411,0.03123284210566682,0.1277619122761506
LegacyInterpreter.visit|LegacyInstr$CPC.accept|LegacyInterpreter.fastLoop,0.012379999997695752,0.07548000000921698,0.03531661214280565,0.2280699371453233,0.35124654929504173
LegacyInterpreter.visit|LegacyInstr$CPI.accept|LegacyInterpreter.fastLoop,0.0,0.0,0.002023947869737781,0.011604212002539487,0.013628159872277269
LegacyInterpreter.visit|LegacyInstr$CPSE.accept|LegacyInterpreter.fastLoop,0.011865000004036121,0.10305800002242904,0.0,0.0,0.11492300002646515
LegacyInterpreter.visit|LegacyInstr$EOR.accept|LegacyInterpreter.fastLoop,0.003952499999286374,0.0345356666657608,0.0,0.0,0.03848816666504717
LegacyInterpreter.visit|LegacyInstr$IN.accept|LegacyInterpreter.fastLoop,0.0,0.0,0.0,0.0,0.0
LegacyInterpreter.visit|LegacyInstr$LDD.accept|LegacyInterpreter.fastLoop,0.0,0.0,0.0,0.0,0.0
LegacyInterpreter.visit|LegacyInstr$LDI.accept|LegacyInterpreter.fastLoop,0.0,0.0,0.0,0.0,0.0
LegacyInterpreter.visit|LegacyInstr$LDPI.accept|LegacyInterpreter.fastLoop,0.0008347498348354089,0.0071219835240190574,0.0,0.0,0.007956733358854466
LegacyInterpreter.visit|LegacyInstr$LDS.accept|LegacyInterpreter.fastLoop,0.0,0.0,0.0,0.0,0.0
LegacyInterpreter.visit|LegacyInstr$LSR.accept|LegacyInterpreter.fastLoop,0.0,0.0,0.0,0.0,0.0
LegacyInterpreter.visit|LegacyInstr$MOV.accept|LegacyInterpreter.fastLoop,0.0,0.0,0.0,0.0,0.0
LegacyInterpreter.visit|LegacyInstr$NOP.accept|LegacyInterpreter.fastLoop,0.0030326785714091128,0.02605982142683517,0.005073000000265893,0.02853389999982028,0.06269939999833045
LegacyInterpreter.visit|LegacyInstr$OR.accept|LegacyInterpreter.fastLoop,0.0,0.0,0.0,0.0,0.0
LegacyInterpreter.visit|LegacyInstr$ORI.accept|LegacyInterpreter.fastLoop,0.0,0.0,0.0,0.0,0.0
LegacyInterpreter.visit|LegacyInstr$POP.accept|LegacyInterpreter.fastLoop,0.0,0.0,0.0,0.0,0.0
LegacyInterpreter.visit|LegacyInstr$PUSH.accept|LegacyInterpreter.fastLoop,0.0,0.0,0.0,0.0,0.0
LegacyInterpreter.visit|LegacyInstr$RET.accept|LegacyInterpreter.fastLoop,0.0,0.0,0.0,0.0,0.0
LegacyInterpreter.visit|LegacyInstr$RETI.accept|LegacyInterpreter.fastLoop,0.0,0.0,0.015736750000481452,0.10170288333392816,0.11743963333440965
LegacyInterpreter.visit|LegacyInstr$RJMP.accept|LegacyInterpreter.fastLoop,0.010578214287046908,0.06774921428794706,0.0,0.0,0.07832742857499396
LegacyInterpreter.visit|LegacyInstr$ROR.accept|LegacyInterpreter.fastLoop,0.0,0.0,0.0,0.0,0.0
LegacyInterpreter.visit|LegacyInstr$SBCI.accept|LegacyInterpreter.fastLoop,0.0,0.0,0.0,0.0,0.0
LegacyInterpreter.visit|LegacyInstr$SBIW.accept|LegacyInterpreter.fastLoop,0.0032036994442797705,0.022267652762631682,0.0,0.0,0.025471352206911445
LegacyInterpreter.visit|LegacyInstr$SBRC.accept|LegacyInterpreter.fastLoop,0.0,0.0,0.0,0.0,0.0
LegacyInterpreter.visit|LegacyInstr$STS.accept|LegacyInterpreter.fastLoop,0.006437565004980189,0.05383079336003284,0.0,0.0,0.06026835836501303
LegacyInterpreter.visit|LegacyInstr$SUB.accept|LegacyInterpreter.fastLoop,0.0,0.0,0.0,0.0,0.0
LegacyInterpreter.visit|LegacyInstr$SUBI.accept|LegacyInterpreter.fastLoop,0.0,0.0,0.0,0.0,0.0
LegacyRegister.getNumber|AtmelInterpreter.getRegisterByte|AtmelInterpreter.getRegisterWord,0.0,0.0,0.0,0.0,0.0
LegacyRegister.getNumber|AtmelInterpreter.getRegisterByte|LegacyInterpreter.visit,0.0,0.0,0.0,0.0,0.0
LegacyRegister.getNumber|AtmelInterpreter.writeRegisterByte|LegacyInterpreter.visit,0.0,0.0,0.0,0.0,0.0
LegacyRegister.hashCode|HashMap.hash|HashMap.put,0.0,0.0,0.0,0.0,0.0
LegacyRegister.nextRegister|AtmelInterpreter.getRegisterWord|LegacyInterpreter.visit,0.0,0.0,0.0,0.0,0.0
LinkedList$ListItr.<init>|LinkedList.listIterator|AbstractList.listIterator,0.0,0.0,0.0,0.0,0.0
LinkedList$ListItr.checkForComodification|LinkedList$ListItr.next|Medium$Receiver$Ticker.deliverByte,0.0,0.0,0.0,0.0,0.0
LinkedList$ListItr.hasNext|Medium$Receiver.getIntersection|Medium$Receiver.access$200,0.0,0.0,0.0,0.0,0.0
LinkedList$ListItr.next|Medium$BasicArbitrator.mergeTransmissions|Medium$Receiver$Ticker.deliverByte,0.0,0.0,0.0,0.0,0.0
LinkedList$ListItr.next|Medium$Receiver$Ticker.deliverByte|Medium$Receiver$Ticker.fireLocked,0.0,0.0,0.021866561537453887,0.14636627217609574,0.16823283371354963
LinkedList$ListItr.next|Medium$Receiver.getIntersection|Medium$Receiver.access$200,0.011997128173855379,0.07441607119695481,0.0,0.0,0.0864131993708102
LinkedList.isPositionIndex|LinkedList.checkPositionIndex|LinkedList.listIterator,0.0,0.0,0.0,0.0,0.0
LinkedList.linkLast|LinkedList.add|Medium$Receiver.getIntersection,0.0,0.0,0.0,0.0,0.0
LinkedList.listIterator|AbstractList.listIterator|AbstractSequentialList.iterator,0.018956999996832258,0.12008853332954458,0.01592089285687897,0.10351110714288682,0.25847753332614265
LinkedList.node|LinkedList$ListItr.<init>|LinkedList.listIterator,0.0,0.0,0.0,0.0,0.0
Long.getChars|Long.toString|StringUtil.justify,0.0,0.0,0.0,0.0,0.0
Long.stringSize|Long.toString|StringUtil.justify,0.0,0.0,0.0,0.0,0.0
Long.toString|String.valueOf|Option$Long.stringValue,0.0,0.0,0.0,0.0,0.0
Long.toString|StringUtil.justify|SimUtil.toIDTimeString,0.0,0.0,0.0,0.0,0.0
Main.<clinit>|Class.forName0|Class.forName,0.013106842721080696,0.08340959217240478,0.0,0.0,0.09651643489348546
MainClock.advance|AtmelInterpreter.commit|LegacyInterpreter.fastLoop,0.011495047726454911,0.09762603647467236,0.03573016235604347,0.20794610013338,0.3527973466905507
MainClock.getCount|CC1000Radio$Receiver.nextByte|Medium$Receiver$Ticker.deliverByte,0.0,0.0,0.0,0.0,0.0
MainClock.getCount|RippleSynchronizer$NotifyEvent.fire|DeltaQueue$Link.fire,0.0,0.0,0.0,0.0,0.0
MainClock.insertEvent|Medium$Receiver$Ticker.deliverByte|Medium$Receiver$Ticker.fireLocked,0.0,0.0,0.0,0.0,0.0
MainClock.skipAhead|LegacyInterpreter.sleepLoop|LegacyInterpreter.runLoop,0.0,0.0,0.0,0.0,0.0
Manifest$FastInputStream.readLine|Manifest$FastInputStream.readLine|Attributes.read,0.0,0.0,0.0,0.0,0.0
Manifest.read|Manifest.<init>|JarFile.getManifestFromReference,0.0,0.0,0.0,0.0,0.0
ManifestEntryVerifier.<init>|JarFile.initializeVerifier|JarFile.getInputStream,0.0,0.0,0.015358333332389725,0.09516388888793396,0.1105222222203237
Math.min|Arrays.copyOf|StringCoding.safeTrim,0.0,0.0,0.0,0.0,0.0
Medium$BasicArbitrator.mergeTransmissions|Medium$Receiver$Ticker.deliverByte|Medium$Receiver$Ticker.fireUnlocked,0.0,0.0,0.0,0.0,0.0
Medium$Probe$List.fireAfterReceive|Medium$Receiver$Ticker.deliverByte|Medium$Receiver$Ticker.fireLocked,0.0,0.0,0.0,0.0,0.0
Medium$Receiver$Ticker.deliverByte|Medium$Receiver$Ticker.fireLocked|Medium$Receiver$Ticker.fire,0.012356249999356805,0.10310349999781464,0.010152000001107808,0.07348019999953975,0.19909194999781904
Medium$Receiver$Ticker.deliverByte|Medium$Receiver$Ticker.fireUnlocked|Medium$Receiver$Ticker.fire,0.0,0.0,0.0,0.0,0.0
Medium$Receiver$Ticker.fireLocked|Medium$Receiver$Ticker.fire|DeltaQueue$Link.fire,0.0,0.0,0.0,0.0,0.0
Medium$Receiver$Ticker.fireUnlocked|Medium$Receiver$Ticker.fire|DeltaQueue$Link.fire,0.0,0.0,0.024139781493585186,0.1610489603339479,0.18518874182753306
Medium$Receiver$Ticker.fire|DeltaQueue$Link.fire|DeltaQueue.skipAhead,0.0,0.0,0.00961500000024292,0.060140000000198285,0.0697550000004412
Medium$Receiver.access$100|Medium$Receiver$Ticker.fireUnlocked|Medium$Receiver$Ticker.fire,0.0,0.0,0.0,0.0,0.0
Medium$Receiver.access$200|Medium$Receiver$Ticker.deliverByte|Medium$Receiver$Ticker.fireLocked,0.0,0.0,0.0,0.0,0.0
Medium$Receiver.earliestNewTransmission|Medium$Receiver.access$100|Medium$Receiver$Ticker.fireUnlocked,0.08903670373772503,0.6088896736972842,0.07359938905194874,0.4434983639239078,1.2150241304108658
Medium$Receiver.getIntersection|Medium$Receiver.access$200|Medium$Receiver$Ticker.deliverByte,0.0,0.0,0.007039999999202943,0.03770949999974012,0.044749499998943065
Medium$Receiver.isChannelClear|CC1000Radio$RSSIOutput.getVoltage|ADC$ControlRegister.convertVoltage,0.0,0.0,0.0,0.0,0.0
Medium$Receiver.waitForNeighbors|Medium$Receiver.access$000|Medium$Receiver$Ticker.fireLocked,0.0,0.0,0.0,0.0,0.0
Medium$TXRX.getBitNum|Medium$Receiver$Ticker.fireUnlocked|Medium$Receiver$Ticker.fire,0.0,0.0,0.0,0.0,0.0
Medium$Transmission.<init>|Medium.newTransmission|Medium$Transmitter.beginTransmit,0.009361621071913255,0.06641040486734277,0.0,0.0,0.07577202593925603
Medium$Transmission.getByteAtTime|Medium$BasicArbitrator.mergeTransmissions|Medium$Receiver$Ticker.deliverByte,0.0,0.0,0.0,0.0,0.0
Medium$Transmitter$Ticker.fire|DeltaQueue$Link.fire|DeltaQueue.skipAhead,0.0,0.0,0.0,0.0,0.0
Medium.access$300|Medium$Receiver$Ticker.deliverByte|Medium$Receiver$Ticker.fireLocked,0.0,0.0,0.0,0.0,0.0
Medium.access$400|Medium$BasicArbitrator.getNoise|Medium$Receiver$Ticker.deliverByte,0.0,0.0,0.0,0.0,0.0
Medium.newTransmission|Medium$Transmitter.beginTransmit|CC1000Radio$MainRegister.decode,0.0,0.0,0.0,0.0,0.0
MethodInfo.read|MethodInfo.<init>|ClassFile.read,0.0,0.0,0.0,0.0,0.0
Mica2$Factory.newPlatform|Simulation$Node.instantiate|SensorSimulation$SensorNode.createNode,0.0,0.0,0.0,0.0,0.0
Mica2.addDevices|Mica2.<init>|Mica2$Factory.newPlatform,0.0084380954619524,0.05973344089364575,0.0,0.0,0.06817153635559815
MulticastFSMProbe.fireAfterTransition|FiniteStateMachine.fireAfter|FiniteStateMachine.transition,0.0,0.0,0.0,0.0,0.0
MulticastFSMProbe.fireBeforeTransition|FiniteStateMachine.fireBefore|FiniteStateMachine.transition,0.0,0.0,0.0,0.0,0.0
Object.<init>|DeltaQueue$EventList.<init>|DeltaQueue.newEventList,0.0,0.0,0.0,0.0,0.0
Object.hashCode|HashMap.hash|HashMap.get,0.0,0.0,0.0,0.0,0.0
Object.notifyAll|RippleSynchronizer.notifyLink|RippleSynchronizer.advance,0.07972670651708562,0.5247269700388042,0.04729312500385277,0.2953631999954268,0.9471100015551694
Object.wait|Object.wait|RippleSynchronizer.waitForLink,1.0037590177568452,7.2993914112138345,0.9420819189609159,5.948646885621772,15.193879233553371
Object.wait|RippleSynchronizer.waitForLink|RippleSynchronizer.waitFor,0.0,0.0,0.0,0.0,0.0
Option$List.parseString|Option$List.<init>|Options.newOptionList,0.005660282747668738,0.05629613832411662,0.005127330615204017,0.036824009062191417,0.10390776074918079
Options.newOptionList|Main.<clinit>|Class.forName0,0.0,0.0,0.0,0.0,0.0
Options.newOption|HelpCategory.newOption|SensorSimulation.<init>,0.0,0.0,0.0,0.0,0.0
OutputStream.<init>|FilterOutputStream.<init>|BufferedOutputStream.<init>,0.0,0.0,0.0,0.0,0.0
OutputStreamWriter.flushBuffer|PrintStream.newLine|PrintStream.println,0.0,0.0,0.0,0.0,0.0
OutputStreamWriter.write|BufferedWriter.flushBuffer|PrintStream.write,0.0,0.0,0.0,0.0,0.0
PacketMonitor$Mon.append|PacketMonitor$Mon.fireAfterReceive|Medium$Probe$List.fireAfterReceive,0.0,0.0,0.0,0.0,0.0
PacketMonitor$Mon.clear|PacketMonitor$Mon.fireAfterReceiveEnd|Medium$Probe$List.fireAfterReceiveEnd,0.0,0.0,0.0,0.0,0.0
PacketMonitor$Mon.fireAfterReceiveEnd|Medium$Probe$List.fireAfterReceiveEnd|Medium$Receiver$Ticker.deliverByte,0.0,0.0,0.0,0.0,0.0
PacketMonitor$Mon.fireAfterReceive|Medium$Probe$List.fireAfterReceive|Medium$Receiver$Ticker.deliverByte,0.0,0.0,0.0,0.0,0.0
PacketMonitor$Mon.renderPacket|PacketMonitor$Mon.fireAfterReceiveEnd|Medium$Probe$List.fireAfterReceiveEnd,0.0,0.0,0.0,0.0,0.0
ParseUtil.encodePath|URLClassPath$FileLoader.getResource|URLClassPath$FileLoader.findResource,0.0,0.0,0.0,0.0,0.0
ParseUtil.encodePath|URLClassPath$FileLoader.getResource|URLClassPath.getResource,0.010484569644143894,0.06527248261093994,0.012375000000853712,0.08776866666691299,0.17590071892285053
ParseUtil.encodePath|URLClassPath$JarLoader.checkResource|URLClassPath$JarLoader.getResource,0.0,0.0,0.0,0.0,0.0
Pattern$Branch.study|Pattern$Start.<init>|Pattern.compile,0.0,0.0,0.0,0.0,0.0
Pattern.clazz|Pattern.sequence|Pattern.expr,0.011944105520741106,0.07528859613012268,0.0,0.0,0.08723270165086378
Pattern.createGroup|Pattern.group0|Pattern.sequence,0.0,0.0,0.0,0.0,0.0
Pattern.expr|Pattern.compile|Pattern.<init>,0.0,0.0,0.01005304360405338,0.06663162182106011,0.07668466542511349
Pattern.newSlice|Pattern.atom|Pattern.sequence,0.006008181817543861,0.0322930909089998,0.0,0.0,0.03830127272654366
Pattern.rangeFor|Pattern.range|Pattern.clazz,0.0,0.0,0.0,0.0,0.0
PrintStream.ensureOpen|PrintStream.write|StreamEncoder.writeBytes,0.0,0.0,0.0,0.0,0.0
PrintStream.newLine|PrintStream.println|Terminal.println,0.0,0.0,0.0,0.0,0.0
PrintStream.println|Terminal.println|SimPrinter.printBuffer,0.0,0.0,0.0,0.0,0.0
PrintStream.write|StreamEncoder.writeBytes|StreamEncoder.implFlushBuffer,0.0,0.0,0.0,0.0,0.0
Program.writeByteInto|Program.writeProgramBytes|ELFParser.loadSections,0.0,0.0,0.0,0.0,0.0
Program.writeInstr|ELFParser.disassembleSection|ELFParser.loadSections,0.0,0.0,0.0,0.0,0.0
RWRegister.setValue|RegisterUtil$BoolView.setValue|SPI$SPSReg.setSPIF,0.0,0.0,0.0,0.0,0.0
RandomAccessFile.read0|RandomAccessFile.read|ELFDataInputStream.read_1,0.004876671548057003,0.036336866172666835,0.019301523051325868,0.12734326910276283,0.18785832987481255
RegisterUtil$BoolView.getValue|SPI$TransferEvent.enableTransfer|SPI$SPDReg$TransmitRegister.write,0.0,0.0,0.0,0.0,0.0
RegisterUtil$BoolView.setValue|SPI$SPSReg.setSPIF|SPI.postSPIInterrupt,0.0,0.0,0.0,0.0,0.0
Resource.getBytes|URLClassLoader.defineClass|URLClassLoader.access$100,0.0,0.0,0.013093030302446674,0.08598310101003122,0.0990761313124779
RippleSynchronizer$NotifyEvent.currentWaitLink|RippleSynchronizer$NotifyEvent.access$100|RippleSynchronizer.waitForNeighbors,0.017575151134425503,0.11259494214909987,0.02526750000106404,0.17385850000027858,0.32929609328486803
RippleSynchronizer$NotifyEvent.fire|DeltaQueue$Link.fire|DeltaQueue.skipAhead,0.0,0.0,0.0,0.0,0.0
RippleSynchronizer.advance|RippleSynchronizer.access$000|RippleSynchronizer$NotifyEvent.fire,0.0,0.0,0.012407956909912513,0.07456445745758364,0.08697241436749616
RippleSynchronizer.advance|RippleSynchronizer.waitForNeighbors|Medium$Receiver.waitForNeighbors,0.04208379954638078,0.29240953335437125,0.04262781419481976,0.22433050401297472,0.6014516511085465
RippleSynchronizer.notifyLink|RippleSynchronizer.advance|RippleSynchronizer.waitForNeighbors,0.0,0.0,0.013939680459501372,0.0850909147028406,0.09903059516234196
RippleSynchronizer.waitForLink|RippleSynchronizer.waitFor|RippleSynchronizer.waitForNeighbors,0.0,0.0,0.062284375005219765,0.3768901749989406,0.4391745500041604
RippleSynchronizer.waitForNeighbors|Medium$Receiver.waitForNeighbors|Medium$Receiver.access$000,0.05163505258814892,0.36979081154992466,0.05825036782306991,0.3733552550260084,0.8530314869871518
RippleSynchronizer.waitFor|RippleSynchronizer.waitForNeighbors|Medium$Receiver.waitForNeighbors,0.008043460386328527,0.061693795585479626,0.0,0.0,0.06973725597180816
Runtime.addShutdownHook|SimAction.run|Main.runAction,0.0,0.0,0.0,0.0,0.0
Runtime.gc|System.gc|Benchmark.run,0.0,0.0,0.04791900000127498,0.2884643999990658,0.3363834000003408
SPI$SPCRReg.decode|SPI$SPCRReg.write|AtmelInterpreter$IORegBehavior.write,0.0,0.0,0.0,0.0,0.0
SPI$SPCRReg.write|AtmelInterpreter$IORegBehavior.write|AtmelInterpreter.writeVolatile,0.0,0.0,0.0,0.0,0.0
SPI$SPDReg.read|AtmelInterpreter$IORegBehavior.read|AtmelInterpreter.readVolatile,0.0,0.0,0.0,0.0,0.0
SPI$SPDReg.write|AtmelInterpreter$IORegBehavior.write|AtmelInterpreter.writeVolatile,0.0,0.0,0.015809999999570813,0.09080000000055102,0.10661000000012184
SPI$SPSReg.clearSPIF|SPI.unpostSPIInterrupt|SPI.invoke,0.0,0.0,0.0,0.0,0.0
SPI$TransferEvent.enableTransfer|SPI$SPDReg$TransmitRegister.write|SPI$SPDReg.write,0.006850327991233568,0.045112927914884526,0.0,0.0,0.0519632559061181
SPI.<clinit>|ATMega128.installDevices|ATMega128.<init>,0.0,0.0,0.0,0.0,0.0
SPI.invoke|InterruptTable.beforeInvoke|LegacyInterpreter.invokeInterrupt,0.0,0.0,0.0,0.0,0.0
SPI.receive|SPI.exchange|CC1000Radio$SPITicker.fire,0.0,0.0,0.01370518368702648,0.11541757295315963,0.12912275664018613
SPI.unpostSPIInterrupt|SPI.invoke|InterruptTable.beforeInvoke,0.0,0.0,0.0,0.0,0.0
Segment.read|AtmelInterpreter.getFlashByte|LegacyInterpreter.visit,0.0,0.0,0.0,0.0,0.0
SensorSimulation.<init>|NativeConstructorAccessorImpl.newInstance0|NativeConstructorAccessorImpl.newInstance,0.0,0.0,0.0,0.0,0.0
SignatureFileVerifier.<clinit>|JarFile.initializeVerifier|JarFile.getInputStream,0.011250357797989906,0.09291140812181793,0.015027022693287229,0.0941992504268748,0.21338803903996986
SimAction.report|SimAction.exitSimulation|SimAction.run,0.0,0.0,0.0,0.0,0.0
SimPrinter.printBuffer|PacketMonitor$Mon.fireAfterReceiveEnd|Medium$Probe$List.fireAfterReceiveEnd,0.016522499998245618,0.0972289999917848,0.0,0.0,0.11375149999003042
SimUtil.getIDTimeString|SimPrinter.getBuffer|LEDMonitor$Mon.fireAfterTransition,0.0,0.0,0.0,0.0,0.0
SimUtil.toIDTimeString|SimUtil.getIDTimeString|SimPrinter.getBuffer,0.0,0.0,0.0,0.0,0.0
Simulation.<init>|SensorSimulation.<init>|NativeConstructorAccessorImpl.newInstance0,0.0,0.0,0.0,0.0,0.0
Simulator.getClock|CC1000Radio$Transmitter.<init>|CC1000Radio.setMedium,0.012294581709407313,0.09654229073206393,0.0,0.0,0.10883687244147124
Simulator.getClock|RippleSynchronizer.waitForNeighbors|Medium$Receiver.waitForNeighbors,0.0,0.0,0.0,0.0,0.0
Stack.pop|URLClassPath.getLoader|URLClassPath.getNextLoader,0.0,0.0,0.0045000000009167715,0.04034425000008923,0.044844250001005996
String.<init>|StringBuffer.toString|SimPrinter.printBuffer,0.0,0.0,0.0,0.0,0.0
String.charAt|ClassLoader.checkName|ClassLoader.findLoadedClass,0.0,0.0,0.0,0.0,0.0
String.charAt|URL.<init>|URL.<init>,0.0007790486422830117,0.004580156817647993,0.0,0.0,0.0053592054599310044
String.charAt|UnixFileSystem.resolve|File.<init>,0.0,0.0,0.0,0.0,0.0
String.endsWith|ClassPool.createCtClass|ClassPool.get0,0.0,0.0,0.0,0.0,0.0
String.equals|FilePermission.init|FilePermission.<init>,0.0,0.0,0.006859999998899487,0.03664166666688591,0.0435016666657854
String.equals|HashMap.getNode|HashMap.get,0.006615473538847554,0.038842694853818235,0.0,0.0,0.04545816839266579
String.getChars|AbstractStringBuilder.append|StringBuffer.append,0.0,0.0,0.0,0.0,0.0
String.getChars|BufferedWriter.write|Writer.write,0.0,0.0,0.0,0.0,0.0
String.indexOf|String.indexOf|String.indexOf,0.0,0.0,0.0014545647883350695,0.007186935352344011,0.008641500140679081
String.length|ParseUtil.encodePath|URLClassPath$JarLoader.checkResource,0.0,0.0,0.0,0.0,0.0
String.replace|URLClassLoader.isSealed|URLClassLoader.getAndVerifyPackage,0.010985000000800936,0.06416800000200358,0.0,0.0,0.07515300000280452
String.startsWith|String.endsWith|ParseUtil.canonizeString,0.010948245614349749,0.08617380117059395,0.0,0.0,0.0971220467849437
String.startsWith|String.endsWith|ZipEntry.isDirectory,0.0,0.0,0.0023287499989237412,0.0157012500003475,0.01802999999927124
String.substring|URLClassLoader.defineClass|URLClassLoader.access$100,0.00939872282364151,0.05745277173808424,0.0,0.0,0.06685149456172572
StringBuffer.append|ELFStringTable.getString|ELFDumpAction.getName,0.0,0.0,0.0,0.0,0.0
StringBuffer.append|PacketMonitor$Mon.renderPacket|PacketMonitor$Mon.fireAfterReceiveEnd,0.0,0.0,0.0075149999995898845,0.058829142856536364,0.06634414285612625
StringBuffer.append|StringUtil.appendFract|StringUtil.toFixedFloat,0.0,0.0,0.0,0.0,0.0
StringBuffer.append|StringUtil.justify|StringUtil.justify,0.0,0.0,0.0,0.0,0.0
StringBuffer.append|Terminal.append|PacketMonitor$Mon.renderByte,0.0,0.0,0.0,0.0,0.0
StringBuffer.append|URLStreamHandler.toExternalForm|URL.toExternalForm,0.009639999999005036,0.057047666661674164,0.0,0.0,0.0666876666606792
StringBuilder.toString|Handler.parseContextSpec|Handler.parseURL,0.0,0.0,0.0,0.0,0.0
StringBuilder.toString|UnixFileSystem.resolve|File.<init>,0.0,0.0,0.0,0.0,0.0
StringCoding.encode|String.getBytes|UnixFileSystem.getBooleanAttributes0,0.01645999999891501,0.11269133333310795,0.0,0.0,0.12915133333202294
StringUtil.toFixedFloat|PacketMonitor$Mon.appendTime|PacketMonitor$Mon.renderPacket,0.0,0.0,0.0,0.0,0.0
StringUtil.toList|Option$List.parseString|Option$List.<init>,0.0,0.0,0.009932195122861986,0.06338870731810968,0.07332090244097167
TeeOutputStream.write|FilterOutputStream.write|PrintStream.write,0.0,0.0,0.0,0.0,0.0
TeePrintStream.<init>|Benchmark.initialize|Benchmark.<init>,0.009081512100806441,0.04854840710773662,0.0,0.0,0.05762991920854306
Terminal.println|SimPrinter.printBuffer|LEDMonitor$Mon.fireAfterTransition,0.0,0.0,0.0,0.0,0.0
TestHarness.main|Harness.main|NativeMethodAccessorImpl.invoke0,0.011220860322933415,0.0658278132148496,0.0,0.0,0.07704867353778301
TestHarness.rmdir|TestHarness.rmdir|TestHarness.rmdir,0.0,0.0,0.0,0.0,0.0
TestHarness.twoDecimalPlaces|TestHarness.<clinit>|Harness.main,0.0,0.0,0.0,0.0,0.0
Thread.isInterrupted|Thread.interrupted|Resource.getBytes,0.0008537585054682848,0.024395749545118226,0.0,0.0,0.02524950805058651
ThreadCoreMapInjector.transform|TransformerManager.transform|InstrumentationImpl.transform,0.01516624014698512,0.09032721151997944,0.0,0.0,0.10549345166696457
Throwable.fillInStackTrace|Throwable.fillInStackTrace|Throwable.<init>,0.0,0.0,0.0,0.0,0.0
Throwable.getStackTraceElement|Throwable.getOurStackTrace|Throwable.getStackTrace,0.0,0.0,0.0,0.0,0.0
Timer8Bit$BufferedRegister.read|Timer8Bit.tickerStart|Timer8Bit.access$000,0.0,0.0,0.0,0.0,0.0
Timer8Bit$BufferedRegister.write|AtmelInterpreter$IORegBehavior.write|AtmelInterpreter.writeVolatile,0.0,0.0,0.0,0.0,0.0
Timer8Bit$Mode_CTC.fire|DeltaQueue$Link.fire|DeltaQueue.skipAhead,0.0,0.0,0.0,0.0,0.0
Timer8Bit$TCNTnRegister.write|Timer8Bit.tickerFinish|Timer8Bit.access$100,0.0,0.0,0.0,0.0,0.0
Timer8Bit.compareMatch|Timer8Bit.tickerStart|Timer8Bit.access$000,0.0,0.0,0.02412629464160567,0.16979815773734555,0.19392445237895123
Timer8Bit.tickerFinish|Timer8Bit.access$100|Timer8Bit$Mode_CTC.fire,0.0,0.0,0.0,0.0,0.0
Timer8Bit.tickerStart|Timer8Bit.access$000|Timer8Bit$Mode_CTC.fire,0.00826045640589282,0.05378245851456459,0.0,0.0,0.06204291492045741
TransactionalList$Link.<init>|TransactionalList.add|FiniteStateMachine.insertProbe,0.0,0.0,0.008310000002287172,0.05723066666784385,0.06554066667013103
TransactionalList.endTransaction|Medium$Probe$List.fireAfterReceive|Medium$Receiver$Ticker.deliverByte,0.0,0.0,0.0,0.0,0.0
TransactionalList.isEmpty|FiniteStateMachine.fireAfter|FiniteStateMachine.transition,0.0,0.0,0.0,0.0,0.0
TransactionalList.isEmpty|LegacyInterpreter.runLoop|AtmelInterpreter.start,0.0,0.0,0.0,0.0,0.0
TransformerManager.transform|InstrumentationImpl.transform|ClassLoader.defineClass1,0.0,0.0,0.0,0.0,0.0
URL.<init>|URL.<init>|URL.<init>,0.0,0.0,0.0014768181818642073,0.012557272727031207,0.014034090908895416
URL.<init>|URL.<init>|URLClassPath$JarLoader.checkResource,0.007970173751436794,0.04594918394245461,0.0,0.0,0.053919357693891404
URLClassLoader$1.run|URLClassLoader$1.run|AccessController.doPrivileged,0.0,0.0,0.0,0.0,0.0
URLClassLoader.findClass|DacapoClassLoader.loadClass|ClassLoader.loadClass,0.0,0.0,0.0,0.0,0.0
URLClassPath$JarLoader$2.getContentLength|Resource.getBytes|URLClassLoader.defineClass,0.0,0.0,0.008219592501323378,0.05948902293940386,0.06770861544072725
URLClassPath.getLoader|URLClassPath.getNextLoader|URLClassPath.getResource,0.0,0.0,0.0,0.0,0.0
UTF_8$Encoder.encodeArrayLoop|UTF_8$Encoder.encodeLoop|CharsetEncoder.encode,0.0,0.0,0.03191999999883895,0.14982066666561875,0.1817406666644577
UTF_8$Encoder.encode|StringCoding$StringEncoder.encode|StringCoding.encode,0.0,0.0,0.0,0.0,0.0
UTF_8.updatePositions|UTF_8.access$200|UTF_8$Encoder.encodeArrayLoop,0.0,0.0,0.0,0.0,0.0
UnixFileSystem.createDirectory|File.mkdir|Benchmark.prepareJars,0.0,0.0,0.0,0.0,0.0
UnixFileSystem.delete0|UnixFileSystem.delete|File.delete,0.042271668211283864,0.28135969633995234,0.03688618592206526,0.23355105937199194,0.5940686098452934
UnixFileSystem.getBooleanAttributes0|UnixFileSystem.getBooleanAttributes|File.exists,0.013251791881122172,0.08394435144069759,0.0,0.0,0.09719614332181978
UnixFileSystem.getBooleanAttributes0|UnixFileSystem.getBooleanAttributes|File.isDirectory,0.000859325330217496,0.006131960197444817,0.0051865785031094,0.036022099626434496,0.048199963657206205
UnixFileSystem.list|File.list|TestHarness.rmdir,0.0,0.0,0.0,0.0,0.0
UnixFileSystem.parentOrNull|UnixFileSystem.canonicalize|File.getCanonicalPath,0.0,0.0,0.0,0.0,0.0
Verbose.getPrinter|Verbose.getVerbosePrinter|Verbose.<clinit>,0.0118860127401021,0.09492564048822223,0.0,0.0,0.10681165322832434
WeakHashMap.getTable|WeakHashMap.remove|ZipFile$ZipFileInflaterInputStream.close,0.0,0.0,0.0,0.0,0.0
Writer.write|BufferedWriter.newLine|PrintStream.newLine,0.0,0.0,0.0,0.0,0.0
ZipFile$ZipFileInflaterInputStream.<init>|ZipFile.getInputStream|JarFile.getInputStream,0.0,0.0,0.0,0.0,0.0
ZipFile$ZipFileInputStream.read|ZipFile$ZipFileInflaterInputStream.fill|InflaterInputStream.read,0.00655536703170914,0.046367082180431334,0.0,0.0,0.05292244921214047
ZipFile.access$100|ZipFile$ZipFileInflaterInputStream.close|Resource.getBytes,0.0,0.0,0.0,0.0,0.0
ZipFile.getEntryBytes|ZipFile.getZipEntry|ZipFile.getEntry,0.0,0.0,0.01052395711935528,0.06256668945627004,0.07309064657562532
ZipFile.getEntry|ZipFile.getEntry|JarFile.getEntry,0.0,0.0,0.0,0.0,0.0
ZipFile.getInflater|ZipFile.getInputStream|JarFile.getInputStream,0.0,0.0,0.0,0.0,0.0
ZipFile.read|ZipFile.access$1400|ZipFile$ZipFileInputStream.read,0.017293438581090184,0.10455079701391926,0.02973000000201864,0.21897366666598822,0.3705479022630163
ZipFile.releaseInflater|ZipFile.access$100|ZipFile$ZipFileInflaterInputStream.close,0.010590294277000348,0.06211595199963098,0.0,0.0,0.07270624627663133
ZipInputStream.<init>|ZipInputStream.<init>|Benchmark.unpackZipStream,0.010475506744270622,0.05832796499929086,0.008364999999078766,0.056640666666983926,0.13380913840962416
ZipInputStream.readLOC|ZipInputStream.getNextEntry|Benchmark.unpackZipStream,0.010979999999108259,0.062317000003531575,0.0,0.0,0.07329700000263982
ZipUtils.get16|ZipInputStream.readLOC|ZipInputStream.getNextEntry,0.0010341177324533985,0.006884233263478781,0.0,0.0,0.00791835099593218
