method,dram1,package1,dram2,package2,energy
AbstractAlgorithmConstraints.getAlgorithms|DisabledAlgorithmConstraints.<init>|DisabledAlgorithmConstraints.<init>,0.0,0.0,0.006183999999969578,0.053255199997996286,0.05943919999796586
AbstractCodePointMapping.mapChar|Symbol.hasChar|Font.hasChar,0.0036937500021849705,0.04589062500002683,0.008157210096930939,0.05904823117964799,0.11678981627879073
AbstractLayoutManager.<init>|InlineStackingLayoutManager.<init>|InlineLayoutManager.<init>,0.0,0.0,0.012240000001232449,0.10003666666792316,0.1122766666691556
AbstractLayoutManager.addChildLM|AbstractLayoutManager.addChildLMs|BlockLayoutManager.createLineManager,0.0,0.0,0.010295043976886924,0.08765075539406937,0.0979457993709563
AbstractLayoutManager.addMarkersToPage|BlockLayoutManager.addAreas|ListItemContentLayoutManager.addAreas,0.004141855921813741,0.0657171548281686,0.0,0.0,0.06985901074998234
AbstractLayoutManager.createChildLMs|AbstractLayoutManager.createNextChildLMs|LMiter.hasNext,0.0119545454535083,0.14722424242418952,0.0,0.0,0.15917878787769782
AbstractLayoutManager.getChildLM|BlockStackingLayoutManager.getBreakBefore|BlockStackingLayoutManager.addKnuthElementsForBreakBefore,0.006818394460217866,0.0765754938919398,0.0,0.0,0.08339388835215766
AbstractLayoutManager.getChildLM|InlineLayoutManager.getNextKnuthElements|LineLayoutManager.collectInlineKnuthElements,0.012754999998530062,0.15659566666662764,0.0,0.0,0.1693506666651577
AbstractPageNumberCitationLayoutManager.updateTextAreaTraits|PageNumberCitationLayoutManager.getPageNumberCitationInlineArea|PageNumberCitationLayoutManager.get,0.0,0.0,0.010217392339619305,0.08874856005467326,0.09896595239429257
AbstractPathOrientedRenderer.drawBorders|AbstractPathOrientedRenderer.drawBackAndBorders|PSRenderer.drawBackAndBorders,0.0055618518669170785,0.06124805446232846,0.0,0.0,0.06680990632924554
AbstractPathOrientedRenderer.handleRegionTraits|AbstractRenderer.renderRegionViewport|PSRenderer.renderRegionViewport,0.005360000000412886,0.0781046666666801,0.0,0.0,0.08346466666709297
AbstractRenderer.renderMainReference|AbstractRenderer.renderBodyRegion|AbstractRenderer.renderRegionViewport,0.007347629454634624,0.08524298200331949,0.0,0.0,0.09259061145795412
AbstractRenderer.renderText|PSRenderer.renderText|AbstractRenderer.renderInlineArea,0.00841000000218628,0.1279499999999795,0.0,0.0,0.13636000000216578
AbstractResourcesDSCComment.addResources|AbstractResourcesDSCComment.<init>|DSCCommentPageResources.<init>,0.00918452302471702,0.09937804327703513,0.0,0.0,0.10856256630175216
AbstractSAXParser$LocatorProxy.getLineNumber|LocatorImpl.<init>|FONode.setLocator,0.0043219755567052345,0.059426739363799164,0.005460000000311993,0.042765333331772126,0.11197404825258851
AbstractSAXParser.<init>|SAXParser.<init>|SAXParser.<init>,0.005136219362592731,0.06887935415113391,0.0,0.0,0.07401557351372665
AbstractSAXParser.endElement|XIncludeHandler.endElement|XMLDocumentFragmentScannerImpl.scanEndElement,0.002380000002934443,0.02905266666668164,0.0,0.0,0.03143266666961608
AbstractSAXParser.startElement|XIncludeHandler.startElement|XMLNSDocumentScannerImpl.scanStartElement,0.008795220536720428,0.08739695344805548,0.0,0.0,0.0961921739847759
ActiveCell.<init>|TableStepper.activateCells|TableStepper.getCombinedKnuthElementsForRowGroup,0.004849174635945686,0.07533649931372466,0.0,0.0,0.08018567394967034
ActiveCell.gotoNextLegalBreak|ActiveCell.<init>|TableStepper.activateCells,0.006178029415092815,0.05607677613314707,0.0,0.0,0.06225480554823989
AppContext$2.run|AppContext$2.run|AccessController.doPrivileged,0.012443313873049113,0.19129278538055527,0.0,0.0,0.20373609925360442
AppContext.<clinit>|IIORegistry.getDefaultInstance|ImageIO.<clinit>,0.005344616921543388,0.0696702657953772,0.0,0.0,0.0750148827169206
Area.addTrait|TraitSetter.addFontTraits|TextLayoutManager.createTextArea,0.004318000000178774,0.07353123333335057,0.0,0.0,0.07784923333352935
Area.getTrait|Area.getSpaceAfter|Area.getAllocBPD,0.00620160000398755,0.1139062399999966,0.0,0.0,0.12010784000398415
Area.getTrait|Area.hasTrait|PSRenderer.drawBackAndBorders,0.0,0.0,0.00886973684253845,0.059284473683969975,0.06815421052650843
AreaTreeHandler.<init>|RendererFactory.createFOEventHandler|FOTreeBuilder.<init>,0.0,0.0,0.012359999998200994,0.09543866666596536,0.10779866666416636
AttributeInfo.<init>|EnclosingMethodAttribute.<init>|AttributeInfo.read,0.0029599999979836858,0.02311200000000705,0.0,0.0,0.026071999997990737
AttributeInfo.read|CodeAttribute.<init>|AttributeInfo.read,0.022698629570624615,0.26706245239607296,0.0,0.0,0.28976108196669753
AttributesImpl.ensureCapacity|AttributesImpl.addAttribute|AttributesImplSerializer.addAttribute,0.0,0.0,0.011609999998957694,0.12109366666603212,0.1327036666649898
Block.addLineArea|BlockLayoutManager.addChildArea|LineLayoutManager.addInlineArea,0.0069370962203242435,0.09941810161298187,0.0,0.0,0.10635519783330613
Block.bind|FObj.processNode|FOTreeBuilder$MainFOHandler.startElement,0.00832263325748355,0.13570222399280846,0.0,0.0,0.14402485725029202
BlockLayoutManager$ProxyLMiter.hasNext|BlockLayoutManager.createNextChildLMs|LMiter.hasNext,0.004551906281211912,0.08555485411958991,0.0,0.0,0.09010676040080183
BlockLayoutManager.addAreas|AreaAdditionUtil.addAreas|FlowLayoutManager.addAreas,0.0,0.0,0.009504529605310796,0.07351387474936523,0.08301840435467603
BlockLayoutManager.addAreas|ListItemContentLayoutManager.addAreas|ListItemLayoutManager.addAreas,0.0046940166070893186,0.03943834676221293,0.0,0.0,0.04413236336930225
BlockLayoutManager.createLineManager|BlockLayoutManager.createNextChildLMs|LMiter.hasNext,0.004546792007978274,0.06353820730551428,0.0,0.0,0.06808499931349256
BlockLayoutManager.getContentAreaIPD|BlockStackingLayoutManager.getNextKnuthElements|BlockLayoutManager.getNextKnuthElements,0.0,0.0,0.018149999998665102,0.1326293333331705,0.1507793333318356
BlockLayoutManager.initialize|AbstractLayoutManager.getChildLM|FlowLayoutManager.getNextKnuthElements,0.003443076922289597,0.03876215384626938,0.0,0.0,0.042205230768558984
BlockParent.addChildArea|Block.addLineArea|BlockLayoutManager.addChildArea,0.004700876339512522,0.06204322764906385,0.0,0.0,0.06674410398857637
BlockStackingLayoutManager.addKnuthElementsForSpaceAfter|BlockStackingLayoutManager.getNextKnuthElements|BlockLayoutManager.getNextKnuthElements,0.00846672704387739,0.0898887380673347,0.0,0.0,0.0983554651112121
BlockStackingLayoutManager.addKnuthElementsForSpaceBefore|BlockStackingLayoutManager.getNextKnuthElements|BlockLayoutManager.getNextKnuthElements,0.007566956200888424,0.08117916668704685,0.0,0.0,0.08874612288793526
BlockStackingLayoutManager.getBreakBefore|BlockStackingLayoutManager.addKnuthElementsForBreakBefore|BlockStackingLayoutManager.getNextKnuthElements,0.0044560912576407105,0.0913729413229185,0.0,0.0,0.0958290325805592
BlockStackingLayoutManager.getNextKnuthElements|BlockLayoutManager.getNextKnuthElements|BlockStackingLayoutManager.getNextKnuthElements,0.003936315789408246,0.0662261052631086,0.0,0.0,0.07016242105251684
BlockStackingLayoutManager.getNextKnuthElements|ListBlockLayoutManager.getNextKnuthElements|FlowLayoutManager.getNextKnuthElements,0.0040032793232935215,0.07326789428056897,0.0,0.0,0.07727117360386249
BlockStackingLayoutManager.wrapPositionElements|BlockStackingLayoutManager.wrapPositionElements|BlockStackingLayoutManager.getNextKnuthElements,0.007665535249824566,0.08529052694234539,0.0,0.0,0.09295606219216997
BreakingAlgorithm.considerLegalBreak|BreakingAlgorithm.findBreakingPoints|BreakingAlgorithm.findBreakingPoints,0.011823214499494515,0.1697242960203473,0.008831052630915093,0.06183735087714076,0.25221591402789767
BreakingAlgorithm.considerLegalBreak|PageBreakingAlgorithm.considerLegalBreak|BreakingAlgorithm.findBreakingPoints,0.013909358305245452,0.19126063354135128,0.011427499999930051,0.0899176250001498,0.30651511684667654
BreakingAlgorithm.findBreakingPoints|BreakingAlgorithm.findBreakingPoints|AbstractBreaker.doLayout,0.005823494090633459,0.0889351117839501,0.0,0.0,0.09475860587458357
CalendarSystem.<clinit>|Date.<clinit>|PSRenderer.writeHeader,0.0,0.0,0.016400000000430737,0.11226400000062617,0.1286640000010569
CharIterator.clone|RecursiveCharIterator.clone|RecursiveCharIterator.mark,0.00546209745325521,0.07899758081085158,0.0,0.0,0.08445967826410679
CharUtilities.isNonBreakableSpace|CharUtilities.isAnySpace|CharUtilities.classOf,0.0,0.0,0.012340000001131557,0.0881346666671258,0.10047466666825736
CharacterProperty.hashCode|CommonHyphenation.hashCode|PropertyCache.hash,0.004778076784670918,0.07348292047876667,0.0,0.0,0.07826099726343759
ClassClassPath.openClassfile|ClassPoolTail.openClassfile|ClassPool.openClassfile,0.0,0.0,0.0005693957892966747,0.008424636107806584,0.00899403189710326
ClassFile.addAttribute|ClassFile.read|ClassFile.<init>,0.00617230717797865,0.06206258914805274,0.0,0.0,0.06823489632603139
ClassFile.addField2|ClassFile.read|ClassFile.<init>,0.0,0.0,0.009620000001935598,0.07159433333193495,0.08121433333387054
ClassFile.addMethod2|ClassFile.read|ClassFile.<init>,0.0,0.0,0.013699999999516876,0.09128166666818692,0.1049816666677038
ClassPool.compress|ClassPool.makeClass|ClassPool.makeClass,0.004438571426795707,0.06723599999992573,0.00745111110962979,0.051981740742458316,0.13110742327880953
ClassPool.createCtClass|ClassPool.get0|ClassPool.get,0.0,0.0,0.010330395102859132,0.08535212456998628,0.0956825196728454
CodeAttribute.<init>|AttributeInfo.read|MethodInfo.read,0.0008085727178541766,0.008863084582673316,0.0,0.0,0.009671657300527492
CollapsingBorderModel.getBorderModelFor|TableFObj.startOfNode|Table.startOfNode,0.008785054854850788,0.09010154025921216,0.009415714286400804,0.07404428571213169,0.18234659511259543
CollapsingBorderResolver$Resolver.integrateLeadingBorders|CollapsingBorderResolver$ResolverInBody.endRow|CollapsingBorderResolver.endRow,0.004940358980849745,0.0418044312240474,0.0,0.0,0.04674479020489715
ColorProperty$Maker.convertProperty|PropertyMaker.make|PropertyList.convertAttributeToProperty,0.016332633371565892,0.17859718269199387,0.0,0.0,0.19492981606355972
CommandLineArgs.defineCallback|CommandLineArgs.<init>|TestHarness.main,0.0,0.0,0.0,0.0,0.0
CommandLineArgs.getIterations|Callback.init|TestHarness.runBenchmark,0.0,0.0,0.01096999999814822,0.06803366666766426,0.07900366666581249
CommandLineArgs.makeOption|CommandLineArgs.<clinit>|TestHarness.main,0.0,0.0,0.0,0.0,0.0
CommandLineOptions.<init>|Main.startFOP|NativeMethodAccessorImpl.invoke0,0.006557073171664128,0.04100370731709067,0.0,0.0,0.0475607804887548
CommonAccessibility.<init>|PropertyList.getAccessibilityProps|InlineLevel.bind,0.002380000000509123,0.037373999999961896,0.0,0.0,0.03975400000047102
CommonBorderPaddingBackground.<init>|PropertyList.getBorderPaddingBackgroundProps|InlineLevel.bind,0.007941974081175486,0.07312270632085029,0.0,0.0,0.08106468040202577
CommonBorderPaddingBackground.getPaddingBefore|CommonBorderPaddingBackground.hasPadding|TableFObj.bind,0.0,0.0,0.0068399999994047285,0.058634333331913986,0.06547433333131872
CommonFont.getInstance|PropertyList.getFontProps|Block.bind,0.005315000002156012,0.08648666666666334,0.01046027509507843,0.0815725519979951,0.18383449376189287
CommonFont.hashCode|PropertyCache.hash|PropertyCache.get,0.0039500000012695725,0.06493472222220792,0.0,0.0,0.0688847222234775
CommonHyphenation.<clinit>|PropertyList.getHyphenationProps|Block.bind,0.0,0.0,0.009640625000126116,0.06827020833346371,0.07791083333358984
CommonHyphenation.getHyphIPD|TextLayoutManager.initialize|AbstractLayoutManager.getChildLM,0.008835000000544824,0.1178383333333386,0.014548488832218978,0.10379204968284476,0.24501387184894718
CommonHyphenation.getInstance|PropertyList.getHyphenationProps|Block.bind,0.0,0.0,0.009120434784774156,0.06838397101492391,0.07750440579969807
CommonMarginBlock.<init>|PropertyList.getMarginBlockProps|Block.bind,0.0,0.0,0.008166176470267066,0.06615147058790385,0.07431764705817093
CompoundPropertyMaker.convertProperty|SpaceProperty$Maker.convertProperty|LineHeightPropertyMaker.convertProperty,0.003924678123222633,0.06228791239778227,0.0,0.0,0.06621259052100491
CompoundPropertyMaker.makeCompound|CompoundPropertyMaker.convertProperty|SpaceProperty$Maker.convertProperty,0.001959999998992619,0.0187986666666878,0.0,0.0,0.02075866666568042
CompoundPropertyMaker.makeCompound|CompoundPropertyMaker.make|PropertyMaker.get,0.012399999992339872,0.1987100000000434,0.0,0.0,0.21110999999238328
CondLengthProperty$Maker.makeNewProperty|CompoundPropertyMaker.makeCompound|CompoundPropertyMaker.make,0.010010597965895601,0.12945607555487157,0.0,0.0,0.13946667352076716
Config.parse|TestHarness.<init>|TestHarness.main,0.0014338523716962018,0.018247517419809574,0.0,0.0,0.019681369791505775
ConfigFile.<init>|ConfigFile.<init>|Config.parse,0.021352168043450765,0.2170619885219703,0.004209627094514629,0.030712277436411445,0.2733360610963471
ConfigFileTokenManager.<clinit>|ConfigFile.<init>|ConfigFile.<init>,0.0005657677320614358,0.02421089696807497,0.0,0.0,0.024776664700136404
ConfigFileTokenManager.jjMoveNfa_0|ConfigFileTokenManager.jjStartNfa_0|ConfigFileTokenManager.jjMoveStringLiteralDfa2_0,0.008610000001984492,0.08935566666665788,0.0,0.0,0.09796566666864236
ConfigFileTokenManager.jjStopStringLiteralDfa_0|ConfigFileTokenManager.jjStartNfa_0|ConfigFileTokenManager.jjMoveStringLiteralDfa2_0,0.0,0.0,0.002759999998185473,0.01843266666643709,0.021192666664622564
ConstPool.getItem|ConstPool.getUtf8Info|ConstPool.getClassInfo,0.004719999999603411,0.06927499999998568,0.0,0.0,0.0739949999995891
ContentHandlerFactoryRegistry.discover|ContentHandlerFactoryRegistry.<init>|FopFactory.<init>,0.0016345400989604328,0.032514365283733256,0.010405587671680377,0.05737821171263228,0.10193270476700635
CorrespondingPropertyMaker.compute|PropertyMaker.compute|PropertyMaker.findProperty,0.007849999999355834,0.07869466666666843,0.0,0.0,0.08654466666602426
Courier.getWidth|Font.getWidth|Font.getCharWidth,0.002939999998488929,0.050496333333285286,0.0,0.0,0.05343633333177422
CtBehavior.insertAfterAdvice|CtBehavior.insertAfter|CtBehavior.insertAfter,0.0013154926125983658,0.05100324315027725,0.0,0.0,0.05231873576287562
CtClassType.makeFieldCache|CtClassType.getMembers|CtClassType.getDeclaredField2,0.004441094834206353,0.06528896054777718,0.0,0.0,0.06973005538198353
DTDDVFactoryImpl.<clinit>|DTDDVFactory.getInstance|DTDDVFactory.getInstance,0.00442285714130516,0.05219371428574959,0.0,0.0,0.056616571427054736
DimensionPropertyMaker.compute|PropertyMaker.compute|PropertyMaker.findProperty,0.005987970438614867,0.05277823167526127,0.0,0.0,0.05876620211387613
DisabledAlgorithmConstraints$Constraints.<init>|DisabledAlgorithmConstraints.<init>|DisabledAlgorithmConstraints.<init>,0.0,0.04713527716202389,0.0,0.0,0.04713527716202389
DisabledAlgorithmConstraints.<init>|DisabledAlgorithmConstraints.<init>|SignatureFileVerifier.<clinit>,0.0,0.0,0.006956911867419978,0.05364413242476709,0.060601044292187066
DisabledAlgorithmConstraints.<init>|SignatureFileVerifier.<clinit>|JarFile.initializeVerifier,0.0,0.0,0.010980000001533577,0.07607033333382181,0.08705033333535539
EffRow.<init>|TableRowIterator.getNextRowGroup|TableContentLayoutManager.getKnuthElementsForRowIterator,0.0,0.0,0.013570588234870229,0.09988205882323467,0.1134526470581049
EnumNumber.getEnum|Property.isAuto|BlockLayoutManager.mustKeepTogether,0.004760000001018246,0.07710766666673408,0.0,0.0,0.08186766666775233
EnumNumber.getInstance|NumberProperty$Maker.convertProperty|CompoundPropertyMaker.convertProperty,0.00720689407199597,0.08197189033534266,0.0,0.0,0.08917878440733862
ExitStopper.transform|TransformerManager.transform|InstrumentationImpl.transform,0.005197000743622766,0.0723709345637744,0.0,0.0,0.07756793530739718
FOElementMapping$ListItemLabelMaker.make|FOTreeBuilder$MainFOHandler.startElement|FOTreeBuilder.startElement,0.004120000000208771,0.05802400000000792,0.01837575757603227,0.14403814141582133,0.2245578989920703
FOElementMapping$RegionAfterMaker.make|FOTreeBuilder$MainFOHandler.startElement|FOTreeBuilder.startElement,0.003467704145533805,0.04529457844533009,0.0,0.0,0.04876228259086389
FOElementMapping$RegionBodyMaker.make|FOTreeBuilder$MainFOHandler.startElement|FOTreeBuilder.startElement,0.003837585291843085,0.0404482791849031,0.0,0.0,0.04428586447674618
FOElementMapping.initialize|ElementMapping.getTable|ElementMappingRegistry.addElementMapping,0.0209433560164485,0.2828489716896821,0.0,0.0,0.3037923277061306
FONode.getUserAgent|CommonBorderPaddingBackground.initBorderInfo|CommonBorderPaddingBackground.<init>,0.005725927579553056,0.085721180729127,0.0,0.0,0.09144710830868004
FONode.setLocator|FObj.processNode|FOTreeBuilder$MainFOHandler.startElement,0.003615739146384513,0.049875134934752,0.0,0.0,0.05349087408113652
FONode.setLocator|FObjMixed.addCharacters|FOTreeBuilder$MainFOHandler.characters,0.0,0.0,0.009560000001026006,0.0677489999992152,0.07730900000024121
FOPropertyMapping.createCharacterProperties|FOPropertyMapping.getGenericMappings|FObj.<clinit>,0.0,0.0,0.009393198203376205,0.04893696947992735,0.05833016768330356
FOPropertyMapping.createGenerics|FOPropertyMapping.getGenericMappings|FObj.<clinit>,0.0041799999986930425,0.052266333333363946,0.0,0.0,0.05644633333205699
FOPropertyMapping.createShorthandProperties|FOPropertyMapping.getGenericMappings|FObj.<clinit>,0.006358846153792304,0.06441853846156566,0.0,0.0,0.07077738461535796
FOPropertyMapping.createTableProperties|FOPropertyMapping.getGenericMappings|FObj.<clinit>,0.004034034532130693,0.05393607113013508,0.0,0.0,0.05797010566226578
FOPropertyMapping.getEnumProperty|FOPropertyMapping.access$000|FOPropertyMapping$2.calcRelative,0.009997642192177752,0.07530859463414359,0.0,0.0,0.08530623682632134
FOPropertyMapping.getSubPropertyId|PropertyList.isValidPropertyName|PropertyList.convertAttributeToProperty,0.0019472727257049305,0.030528818181789,0.0,0.0,0.032476090907493926
FOText$TextCharIterator.hasNext|RecursiveCharIterator.hasNext|XMLWhiteSpaceHandler.handleWhiteSpace,0.008420731478331918,0.092732608085476,0.0,0.0,0.10115333956380793
FOText$TextCharIterator.remove|RecursiveCharIterator.remove|XMLWhiteSpaceHandler.handleWhiteSpace,0.006558534627902665,0.06315931125395803,0.0,0.0,0.0697178458818607
FOText.bind|FObjMixed.addCharacters|FOTreeBuilder$MainFOHandler.characters,0.004595504194463427,0.07544885187521765,0.0,0.0,0.08004435606968108
FOTreeBuilder$MainFOHandler.endElement|FOTreeBuilder.endElement|ToXMLSAXHandler.endElement,0.00648769434232545,0.07200469238092523,0.0,0.0,0.07849238672325068
FOTreeBuilder$MainFOHandler.startElement|FOTreeBuilder.startElement|ToXMLSAXHandler.closeStartTag,0.012428319989874245,0.1756991902848083,0.0,0.0,0.18812751027468255
FObj.<clinit>|Class.forName0|Class.forName,0.017938708024398807,0.17886840437273765,0.0,0.0,0.19680711239713652
FObj.addChildNode|FOTreeBuilder$MainFOHandler.startElement|FOTreeBuilder.startElement,0.03745835596559936,0.39140121726105853,0.03334642857087255,0.30089452381313697,0.7631005256106674
FObj.createPropertyList|FOTreeBuilder$MainFOHandler.startElement|FOTreeBuilder.startElement,0.0028591705393804364,0.0484749348802208,0.0,0.0,0.05133410541960124
FObj.findNearestAncestorFObj|PropertyList.setWritingMode|FObj.processNode,0.006596552574542701,0.092213421298327,0.004106250000404543,0.03190600000016275,0.13482222387343698
FObj.getChildNodes|FObj.getChildNodes|RecursiveCharIterator.<init>,0.00863542494574408,0.14049063623322633,0.0,0.0,0.1491260611789704
FObj.getChildNodes|FObj.getChildNodes|RecursiveCharIterator.clone,0.0065665672121073045,0.07709188305929075,0.0,0.0,0.08365845027139805
FObj.getPropertyMakerFor|PropertyList.findMaker|PropertyList.get,0.011628472731335946,0.10271558383154447,0.0,0.0,0.11434405656288042
FObj.isInlineItem|FObj.isBlockOrInlineItem|Block.validateChildNode,0.005402403484779209,0.065340766120297,0.0,0.0,0.0707431696050762
FObj.processNode|FOTreeBuilder$MainFOHandler.startElement|FOTreeBuilder.startElement,0.0,0.0,0.012319999999211479,0.0939126666659528,0.10623266666516427
FObjMixed.addChildNode|FObjMixed.flushText|FObjMixed.endOfNode,0.0019472727257049305,0.030528818181789,0.0,0.0,0.032476090907493926
FObjMixed.flushText|FObjMixed.endOfNode|Inline.endOfNode,0.0,0.0,0.017868831560263955,0.13173841611053796,0.1496072476708019
FeatureState.<clinit>|ParserConfigurationSettings.checkFeature|XML11Configuration.checkFeature,0.0,0.0,0.01033034124867864,0.08240239464031514,0.09273273588899378
FixedColRowGroupBuilder.<init>|Table.addChildNode|FOTreeBuilder$MainFOHandler.startElement,0.0,0.0,0.012334999999438878,0.09055566666696298,0.10289066666640186
FixedColRowGroupBuilder.addTableCell|TableCellContainer.addTableCellChild|TableRow.addChildNode,0.0043090909104758985,0.07096727272727492,0.0,0.0,0.07527636363775082
FixedLength.getInstance|FixedLength.getInstance|LineHeightPropertyMaker.convertProperty,0.003321201168298168,0.045428649300966434,0.0,0.0,0.048749850469264604
FixedLength.getNumericValue|NumericOp.subtraction2|NumericOp.subtraction,0.005843200651573604,0.08233763737844768,0.0,0.0,0.08818083803002129
FloatingDecimal$ASCIIToBinaryBuffer.doubleValue|FloatingDecimal.parseDouble|Double.parseDouble,0.005763595835840322,0.0493250677144164,0.0,0.0,0.055088663550256725
FloatingDecimal$BinaryToASCIIBuffer.developLongDigits|FloatingDecimal$BinaryToASCIIBuffer.dtoa|FloatingDecimal$BinaryToASCIIBuffer.access$100,0.0034417513037995427,0.060804550187401725,0.0,0.0,0.06424630149120128
FloatingDecimal$BinaryToASCIIBuffer.dtoa|FloatingDecimal$BinaryToASCIIBuffer.access$100|FloatingDecimal.getBinaryToASCIIConverter,0.012007414552649334,0.12740951350642632,0.04456035221547001,0.37929970846119276,0.5632769887357385
FloatingDecimal$BinaryToASCIIBuffer.getChars|FloatingDecimal$BinaryToASCIIBuffer.toJavaFormatString|FloatingDecimal.toJavaFormatString,0.0,0.0,0.006880000000819564,0.05633533333457307,0.06321533333539264
FloatingDecimal$BinaryToASCIIBuffer.toJavaFormatString|DigitList.set|DecimalFormat.format,0.0,0.0,0.014195599999511616,0.10180413333311056,0.11599973333262215
FloatingDecimal.parseDouble|Double.parseDouble|PropertyParser.parsePrimaryExpr,0.0,0.0,0.008708333333440047,0.07601580555375323,0.08472413888719328
Flow.getNameId|FONode.canHaveMarkers|FObj.addChildNode,0.0,0.0,0.009784999999586336,0.09505233333281164,0.10483733333239798
FlowLayoutManager.getNextKnuthElements|PageBreaker.getNextKnuthElements|AbstractBreaker.getNextBlockList,0.0,0.0,0.021601497481487975,0.15684064197479897,0.1784421394562869
Font.getCharWidth|TextLayoutManager.getNextKnuthElements|LineLayoutManager.collectInlineKnuthElements,0.0,0.0,0.010904999997971268,0.08878566666680854,0.0996906666647798
FontFamilyProperty$Maker.make|PropertyList.convertAttributeToProperty|PropertyList.addAttributesToList,0.004997366099607133,0.08477433075445627,0.0,0.0,0.0897716968540634
FontFamilyProperty.addProperty|FontFamilyProperty$Maker.make|PropertyList.convertAttributeToProperty,0.005774404332632435,0.05247472873314652,0.0,0.0,0.05824913306577895
FontFamilyProperty.equals|PropertyCache.eq|PropertyCache.get,0.005480492547489429,0.061821954736674435,0.0,0.0,0.06730244728416386
FontFamilyProperty.hashCode|PropertyCache.hash|PropertyCache.get,0.004824117331900321,0.08240274727410737,0.0,0.0,0.08722686460600769
FontInfo.fontLookup|CommonFont.getFontState|LineLayoutManager.getNextKnuthElements,0.005890000002788534,0.08941633333332295,0.0,0.0,0.09530633333611148
FontSetup.setup|PrintRenderer.setupFontInfo|RenderPagesModel.<init>,0.035573505984403876,0.5025779077426858,0.043727812417549215,0.3349022021943739,0.9167814283390129
FontTriplet.getKey|FontTriplet.toString|FontTriplet.hashCode,0.0045286578216571435,0.08390232934924491,0.0,0.0,0.08843098717090206
Fop.createDefaultHandler|Fop.<init>|FopFactory.newFop,0.005791304584158284,0.07842203593454591,0.0,0.0,0.0842133405187042
FopFactory.<clinit>|CommandLineOptions.<init>|Main.startFOP,0.005662309377104751,0.0438805900273535,0.0,0.0,0.049542899404458246
FopFactory.<init>|FopFactory.newInstance|CommandLineOptions.<init>,0.00550051057474573,0.0863474928862406,0.008020000001124572,0.05157466666423716,0.15144267012634807
Glyphs.<clinit>|AbstractCodePointMapping.mapChar|Symbol.hasChar,0.009922208760796471,0.13842474579231384,0.03154453145889628,0.2279283269370373,0.4078198129490439
Glyphs.loadGlyphList|Glyphs.<clinit>|AbstractCodePointMapping.mapChar,0.0384504932822287,0.5552585350081404,0.08337816441816093,0.6206964755912987,1.2977836682998285
Glyphs.stringToGlyph|Glyphs.charToGlyphName|PSFontUtils.defineWinAnsiEncoding,0.06240389365425045,1.018981775661624,0.06299374345850683,0.46548092856357376,1.609860341337955
Gregorian.newCalendarDate|GregorianCalendar.<init>|Calendar$Builder.build,0.0013942965341305544,0.02008154948512444,0.010935000000851385,0.07554100000076383,0.10795184602087021
Handler.createFileURLConnection|Handler.openConnection|Handler.openConnection,0.0029457364709040835,0.038278051546494135,0.0,0.0,0.04122378801739822
Helvetica.<init>|FontSetup.setup|PrintRenderer.setupFontInfo,0.004960901237039313,0.06672954337584694,0.0,0.0,0.07169044461288625
IDTracker.signalIDProcessed|AbstractPageSequenceLayoutManager.notifyEndOfLayout|BlockLayoutManager.addAreas,0.0,0.0,0.010980666667779184,0.08772111111158867,0.09870177777936784
IIORegistry.getDefaultInstance|ImageIO.<clinit>|ImageLoaderFactoryImageIO.getSupportedMIMETypes,0.004962348886754786,0.06968808918714603,0.0,0.0,0.07465043807390082
IIORegistry.registerStandardSpis|IIORegistry.<init>|IIORegistry.getDefaultInstance,0.006243190215973843,0.07809993059104489,0.0,0.0,0.08434312080701874
IOUtils.<clinit>|Glyphs.loadGlyphList|Glyphs.<clinit>,0.004695000000841294,0.07503233333333506,0.0,0.0,0.07972733333417635
ImageLoaderFactoryImageIO.getSupportedMIMETypes|ImageLoaderFactoryImageIO.isAvailable|ImageImplRegistry.registerLoaderFactory,0.007072859322621294,0.07171118442917677,0.0,0.0,0.07878404375179808
ImageLoaderFactoryWMF.<clinit>|NativeConstructorAccessorImpl.newInstance0|NativeConstructorAccessorImpl.newInstance,0.0,0.0,0.009081121448263035,0.08010581206423903,0.08918693351250206
IndentPropertyMaker.computeConforming|IndentPropertyMaker.compute|PropertyMaker.compute,0.005763595835840322,0.0493250677144164,0.0,0.0,0.055088663550256725
IndentPropertyMaker.compute|PropertyMaker.compute|PropertyMaker.findProperty,0.005832883027861911,0.08718171077253542,0.0,0.0,0.09301459380039734
InlineBlockParent.<init>|InlineLayoutManager.createArea|InlineLayoutManager.addAreas,0.007059999996272381,0.11838766666672502,0.0,0.0,0.1254476666629974
InlineLayoutManager.addAreas|LineLayoutManager.addInlineArea|LineLayoutManager.addAreas,0.006201937767979697,0.10027804294152416,0.0,0.0,0.10647998070950386
Jdk14Logger.getLogger|Jdk14Logger.<init>|NativeConstructorAccessorImpl.newInstance0,0.013643631755887817,0.13931356288442082,0.0,0.0,0.15295719464030863
Jdk14Logger.trace|AbstractLayoutManager.addChildLM|BlockLayoutManager.createNextChildLMs,0.004239070980843686,0.08678785382517544,0.0,0.0,0.09102692480601912
JdkXmlUtils.<clinit>|XML11Configuration.<init>|XIncludeAwareParserConfiguration.<init>,0.003969679490008312,0.059560324148148165,0.0,0.0,0.06353000363815647
Launcher$AppClassLoader.loadClass|ClassLoader.loadClass|TestHarness.main,0.0,0.0,0.0,0.0,0.0
LayoutContext.isLastArea|TextLayoutManager.addAreas|InlineLayoutManager.addAreas,0.0,0.0,0.008462222221607118,0.06546374074160767,0.07392596296321477
LayoutManagerMapping$BlockLayoutManagerMaker.make|LayoutManagerMapping.makeLayoutManagers|AbstractLayoutManager.createChildLMs,0.0050203554764759895,0.04495619190820885,0.0212146666660879,0.147010577777918,0.21820179182869076
LayoutManagerMapping$FOTextLayoutManagerMaker.make|LayoutManagerMapping.makeLayoutManagers|AbstractLayoutManager.createChildLMs,0.006187092210834086,0.1006624921037441,0.0,0.0,0.1068495843145782
LayoutManagerMapping$ListBlockLayoutManagerMaker.make|LayoutManagerMapping.makeLayoutManagers|AbstractLayoutManager.createChildLMs,0.0066027686855949785,0.06860969841474006,0.0,0.0,0.07521246710033504
LayoutManagerMapping$PageNumberLayoutManagerMaker.make|LayoutManagerMapping.makeLayoutManagers|AbstractLayoutManager.createChildLMs,0.0,0.0,0.00872666666631024,0.06905952777762851,0.07778619444393875
LayoutManagerMapping.initialize|LayoutManagerMapping.<init>|AreaTreeHandler.<init>,0.0,0.0,0.007671999999244387,0.05522453333251179,0.06289653333175617
LeafPosition.<init>|TextLayoutManager.createElementsForASpace|TextLayoutManager.getNextKnuthElements,0.005226490619192142,0.07171436288091106,0.0,0.0,0.0769408535001032
LengthBase.<init>|PropertyMaker.getPercentBase|LineHeightPropertyMaker.convertProperty,0.0,0.0,0.0058099999999588646,0.04504400000344806,0.050854000003406924
LengthProperty.<init>|PercentLength.<init>|LabelEndFunction.eval,0.006250030047383094,0.06811935996313083,0.0,0.0,0.07436939001051393
LengthRangeProperty.checkConsistency|LengthRangeProperty.getOptimum|BlockLayoutManager.initialize,0.0045325547447092615,0.0761750881368709,0.0,0.0,0.08070764288158018
LineBreakStatus.nextChar|TextLayoutManager.getNextKnuthElements|LineLayoutManager.collectInlineKnuthElements,0.036323337777478565,0.4017170717226165,0.09289470134672799,0.6326847026535503,1.1636198135003732
LineBreakUtils.<clinit>|LineBreakStatus.nextChar|TextLayoutManager.getNextKnuthElements,0.011186000000937685,0.12314855555560926,0.0,0.0,0.13433455555654694
LineLayoutManager$Paragraph.endParagraph|LineLayoutManager.collectInlineKnuthElements|LineLayoutManager.getNextKnuthElements,0.00508938760679846,0.09035490330469173,0.0,0.0,0.0954442909114902
LineLayoutManager$Paragraph.endSequence|LineLayoutManager$Paragraph.endParagraph|LineLayoutManager.collectInlineKnuthElements,0.0,0.0,0.013786666667430027,0.10305808333335638,0.1168447500007864
LineLayoutManager.<init>|BlockLayoutManager.createLineManager|BlockLayoutManager.createNextChildLMs,0.004301948277374287,0.09346250895622316,0.0,0.0,0.09776445723359746
LineLayoutManager.collectInlineKnuthElements|LineLayoutManager.getNextKnuthElements|BlockStackingLayoutManager.getNextKnuthElements,0.012260781929575793,0.1520568719987025,0.0,0.0,0.1643176539282783
LineLayoutManager.findOptimalBreakingPoints|LineLayoutManager.createLineBreaks|LineLayoutManager.getNextKnuthElements,0.0,0.0,0.007109999998647255,0.05269366666713419,0.059803666665781435
LineLayoutManager.getNextKnuthElements|BlockStackingLayoutManager.getNextKnuthElements|BlockLayoutManager.getNextKnuthElements,0.003839999999259957,0.05957046153840705,0.0,0.0,0.06341046153766701
LineLayoutPossibilities$Possibility.getBreakPosition|LineLayoutPossibilities$Possibility.access$400|LineLayoutPossibilities.getChosenPosition,0.0,0.0,0.01991999999881955,0.15421533333331655,0.1741353333321361
LineNumberAttribute.<init>|AttributeInfo.read|CodeAttribute.<init>,0.0023650000014943844,0.03243000000001454,0.0,0.0,0.034795000001508924
ListBlockLayoutManager.getParentArea|ListBlockLayoutManager.addAreas|AreaAdditionUtil.addAreas,0.0035795833335012296,0.04742588888885595,0.0,0.0,0.051005472222357184
ListElement.isForcedBreak|BreakingAlgorithm.considerLegalBreak|BreakingAlgorithm.findBreakingPoints,0.004707547434314043,0.04549826944689726,0.0,0.0,0.050205816881211306
ListItemLayoutManager.addAreas|ListBlockLayoutManager.addAreas|AreaAdditionUtil.addAreas,0.0,0.0,0.008519117646381559,0.06306352941036868,0.07158264705675024
LocaleProviderAdapter.findAdapter|LocaleProviderAdapter.getAdapter|DecimalFormatSymbols.getInstance,0.0048752318967582725,0.08681692606707753,0.0,0.0,0.0916921579638358
LocatorImpl.<init>|FONode.setLocator|FObj.processNode,0.003986181658758444,0.06083368016478202,0.0,0.0,0.06481986182354046
LogFactory.getContextClassLoader|LogFactory$1.run|AccessController.doPrivileged,0.006536500000826587,0.1179057666667442,0.0,0.0,0.1244422666675708
Main.startFOP|NativeMethodAccessorImpl.invoke0|NativeMethodAccessorImpl.invoke,0.007607295332700547,0.12217455422896152,0.0,0.0,0.12978184956166208
ManifestEntryVerifier.<init>|JarFile.initializeVerifier|JarFile.getInputStream,0.0,0.0,0.009281250000640284,0.06277449999834063,0.07205574999898091
MapMaker.validateTypeData|MapMaker.recordTypeData|MapMaker.recordStackMap0,0.005583430883758205,0.04113727784669344,0.0,0.0,0.046720708730451636
MemberResolver.compareSignature|MemberResolver.lookupMethod|MemberResolver.lookupMethod,0.0011799999992945231,0.03580733333334744,0.0,0.0,0.03698733333264196
MethodAccessorGenerator.emitInvoke|MethodAccessorGenerator.generate|MethodAccessorGenerator.generateMethod,0.0029799999999037628,0.03702799999996387,0.0,0.0,0.04000799999986763
MethodAccessorGenerator.generate|MethodAccessorGenerator.generateMethod|NativeMethodAccessorImpl.invoke,0.012013929135727065,0.1620759391499991,0.0,0.0,0.17408986828572615
NCnameProperty.<init>|PropertyParser.parsePrimaryExpr|PropertyParser.parseUnaryExpr,0.003979536893778898,0.08893260025167612,0.0,0.0,0.09291213714545504
NCnameProperty.getColor|ColorProperty$Maker.convertProperty|PropertyMaker.make,0.0039113183563273144,0.06138898755573821,0.006860000001324806,0.05071999999684825,0.12288030591023859
NumberProperty.<init>|NumberProperty.getInstance|PropertyParser.parsePrimaryExpr,0.007822733990811081,0.07838919745683301,0.0,0.0,0.0862119314476441
NumericOp.subtraction2|NumericOp.subtraction|LabelEndFunction.eval,0.004829480738407484,0.09810483338080844,0.0,0.0,0.10293431411921593
NumericOp.subtraction|LabelEndFunction.eval|PropertyParser.parsePrimaryExpr,0.011124999999689559,0.1502890000000055,0.0,0.0,0.16141399999969505
PSFontUtils.defineWinAnsiEncoding|PSFontUtils.reencodeFonts|PSFontUtils.writeFontDict,0.004421540442396754,0.0796738809008145,0.0,0.0,0.08409542134321125
PSGenerator.<init>|PSRenderer$1.<init>|PSRenderer.startRenderer,0.008520997792417086,0.12032481476475923,0.0,0.0,0.1288458125571763
PSGenerator.convertStringToDSC|PSGenerator.convertStringToDSC|PSResource.getResourceSpecification,0.0050602872968046044,0.10445340259106453,0.0,0.0,0.10951368988786914
PSGenerator.writeDSCComment|PSRenderer.writeHeader|PSRenderer.renderPage,0.002730000000848945,0.037783571428679434,0.0,0.0,0.040513571429528376
PSRenderer.renderRegionViewport|AbstractRenderer.renderPageAreas|AbstractRenderer.renderPage,0.0,0.0,0.012414999999843229,0.07238766666705487,0.0848026666668981
PSRenderer.writeHeader|PSRenderer.renderPage|RenderPagesModel.checkPreparedPages,0.0,0.0,0.008249999998952262,0.06288633333072842,0.07113633332968068
PSRendererMaker.makeRenderer|RendererFactory.createRenderer|RenderPagesModel.<init>,0.006937080233399349,0.05971393068987382,0.020180006222386915,0.1621346180813522,0.24896563522701232
PSState.<init>|PSGenerator.<init>|PSRenderer$1.<init>,0.0068662045797420425,0.13335506544362763,0.012359999998200994,0.09543866666596536,0.24801993668753605
Page.makeRegionViewport|Page.<init>|PageViewport.<init>,0.0,0.0,0.01425000000175108,0.1338835000013205,0.14813350000307154
PageBreaker.getNextKnuthElements|AbstractBreaker.getNextBlockList|PageBreaker.getNextBlockList,0.005929999999352732,0.06852233333332454,0.0,0.0,0.07445233333267727
PageNumberCitation.endOfNode|FOTreeBuilder$MainFOHandler.endElement|FOTreeBuilder.endElement,0.0,0.0,0.016640563520727094,0.11586024758810652,0.1325008111088336
PageNumberLayoutManager.initialize|AbstractLayoutManager.getChildLM|LineLayoutManager.collectInlineKnuthElements,0.0026491979042227395,0.04331289983932093,0.0,0.0,0.04596209774354367
PageProvider.getPage|PageProvider.getPage|PageProvider.getAvailableBPD,0.0,0.0,0.010597852322521386,0.07375338097391045,0.08435123329643184
PageSequenceLayoutManager.activateLayout|AreaTreeHandler.endPageSequence|PageSequence.endOfNode,0.0,0.0,0.010933000001629504,0.06283558888955869,0.07376858889118819
PageViewport.<init>|Page.<init>|PageProvider.cacheNextPage,0.0,0.0,0.01060588235465248,0.10142588235312894,0.11203176470778142
ParseUtil.canonizeString|Handler.parseURL|URL.<init>,0.0,0.0,0.00988200000138022,0.07073370000071008,0.0806157000020903
ParseUtil.encodePath|URLClassPath$FileLoader.getResource|URLClassPath.getResource,0.003990960807590652,0.05258218777367619,0.0,0.0,0.05657314858126685
ParseUtil.encodePath|URLClassPath$JarLoader.checkResource|URLClassPath$JarLoader.getResource,0.004700000000108654,0.059977333333335985,0.016400000000430737,0.14526366666541435,0.22634099999928972
Parser.nextIsClassType|Parser.parseDeclarationOrExpression|Parser.parseStatement,0.0,0.0,0.006880000000819564,0.04388399999879766,0.050763999999617226
ParserConfigurationSettings.getFeature|XIncludeHandler.copyFeatures1|XIncludeHandler.copyFeatures,0.0,0.0,0.01096500000130618,0.07836900000014188,0.08933400000144806
PartiallyOrderedSet.add|SubRegistry.registerServiceProvider|ServiceRegistry.registerServiceProvider,0.0,0.0,0.00683500000013737,0.05952966666518478,0.06636466666532215
PositionIterator.lookAhead|PositionIterator.<init>|KnuthPossPosIter.<init>,0.0056385797175794025,0.08745754498343114,0.0,0.0,0.09309612470101054
PrintRenderer.setupFontInfo|RenderPagesModel.<init>|AreaTreeHandler.setupModel,0.0,0.0,0.014777999999932944,0.10642080000034183,0.12119880000027478
Property.isAuto|LengthRangeProperty.checkConsistency|LengthRangeProperty.getMinimum,0.004799215365989265,0.06703680122875641,0.0,0.0,0.07183601659474567
PropertyCache.fetch|FixedLength.getInstance|FixedLength.getInstance,0.004463636364424459,0.052231212121183264,0.0,0.0,0.05669484848560773
PropertyCache.fetch|PropertyCache.fetch|EnumProperty.getInstance,0.0041799999986930425,0.052266333333363946,0.0,0.0,0.05644633333205699
PropertyCache.get|PropertyCache.fetch|PropertyCache.fetch,0.00804922511420361,0.07681583051317106,0.0,0.0,0.08486505562737467
PropertyCache.hash|PropertyCache.hash|PropertyCache.get,0.01028322678708304,0.1057761675307856,0.0,0.0,0.11605939431786864
PropertyList.findMaker|PropertyList.makeProperty|PropertyList.getNearestSpecified,0.0,0.0,0.010929999999158705,0.09708633333502804,0.10801633333418677
PropertyList.getBorderPaddingBackgroundProps|ListItem.bind|FObj.processNode,0.00651676535010187,0.0732885943826622,0.0,0.0,0.07980535973276408
PropertyList.getBorderPaddingBackgroundProps|Region.bind|RegionBody.bind,0.001701743835998406,0.023061994021673592,0.0,0.0,0.024763737857672
PropertyList.getFObj|FOTreeBuilder$MainFOHandler.endElement|FOTreeBuilder.endElement,0.004778076784670918,0.07348292047876667,0.0,0.0,0.07826099726343759
PropertyList.getMarginBlockProps|Block.bind|FObj.processNode,0.0,0.0,0.010929999999158705,0.10007733333380504,0.11100733333296377
PropertyList.getRelativePositionProps|Block.bind|FObj.processNode,0.008758421053674905,0.1031750526316213,0.0,0.0,0.1119334736852962
PropertyList.get|Block.bind|FObj.processNode,0.0036399999971763455,0.06431833333342259,0.0,0.0,0.06795833333059892
PropertyList.get|StaticPropertyList.get|PropertyList.get,0.0057833638740059255,0.08625383452932978,0.01373999999971905,0.11480699999810895,0.22058419840116372
PropertyMaker.checkEnumValues|PropertyMaker.make|PropertyMaker.make,0.004777174176805009,0.04669566140819772,0.0,0.0,0.05147283558500273
PropertyMaker.checkValueKeywords|PropertyMaker.make|CompoundPropertyMaker.make,0.0056393141853444744,0.08506992062878843,0.0,0.0,0.0907092348141329
PropertyMaker.findProperty|PropertyMaker.get|PropertyList.get,0.005849911803156029,0.08792694172595063,0.005469999998846712,0.03582766666659154,0.13507452019454488
PropertyMaker.getShorthand|PropertyList.getShorthand|PropertyList.getExplicitOrShorthand,0.004719999997178093,0.07037333333331237,0.0,0.0,0.07509333333049048
PropertyMaker.get|PropertyList.get|StaticPropertyList.get,0.004867924260792821,0.07157499886060198,0.0,0.0,0.0764429231213948
PropertyMaker.isInherited|PropertyMaker.findProperty|PropertyMaker.get,0.003979536893778898,0.08893260025167612,0.0,0.0,0.09291213714545504
PropertyMaker.make|PropertyList.convertAttributeToProperty|PropertyList.addAttributesToList,0.004825420283107379,0.06773974484167268,0.0,0.0,0.07256516512478006
PropertyMaker.setDefault|FOPropertyMapping.createAreaAlignmentProperties|FOPropertyMapping.getGenericMappings,0.0,0.0,0.007671999999244387,0.05522453333251179,0.06289653333175617
PropertyMaker.setSubprop|CompoundPropertyMaker.make|PropertyList.convertAttributeToProperty,0.0,0.0,0.012262500000360887,0.09303300000101444,0.10529550000137533
PropertyParser.<clinit>|PropertyMaker.make|PropertyList.convertAttributeToProperty,0.0034651586263452234,0.05633980117408001,0.0,0.0,0.059804959800425224
PropertyParser.parseArgs|PropertyParser.parsePrimaryExpr|PropertyParser.parseUnaryExpr,0.0,0.0,0.005316039127941072,0.05327157002542584,0.058587609153366915
PropertyParser.parsePrimaryExpr|PropertyParser.parseUnaryExpr|PropertyParser.parseMultiplicativeExpr,0.008564112726827803,0.10791099224413853,0.0,0.0,0.11647510497096633
PropertyParser.parse|PropertyMaker.make|CompoundPropertyMaker.make,0.010203320228210995,0.1032806866978308,0.0,0.0,0.1134840069260418
PropertyTokenizer.next|PropertyParser.parseProperty|PropertyParser.parse,0.0,0.0,0.013704999999996895,0.09055566666696298,0.10426066666695988
RecursiveCharIterator.hasNext|XMLWhiteSpaceHandler.handleWhiteSpace|XMLWhiteSpaceHandler.handleWhiteSpace,0.0,0.0,0.011960000001029886,0.11383066666409528,0.12579066666512514
RecursiveCharIterator.mark|XMLWhiteSpaceHandler.handleWhiteSpace|XMLWhiteSpaceHandler.handleWhiteSpace,0.0,0.0,0.01724937821109396,0.126761726904204,0.14401110511529794
RecursiveCharIterator.nextChar|XMLWhiteSpaceHandler$EOLchecker.beforeLinefeed|XMLWhiteSpaceHandler.handleWhiteSpace,0.0,0.0,0.006862499999442662,0.05135854166686234,0.058221041666305
Renderer.<clinit>|Class.forName0|Class.forName,0.004600227079844803,0.08456815479857012,0.0,0.0,0.08916838187841493
Resource.cachedInputStream|Resource.getBytes|URLClassLoader.defineClass,0.0,0.0,0.010429329711152879,0.062459675433753865,0.07288900514490675
Resource.getBytes|URLClassLoader.defineClass|URLClassLoader.access$100,0.0,0.0,0.012669999998858351,0.1026000000007722,0.11526999999963056
ResourceTracker.registerSuppliedResource|PSProcSets$StdProcSet.writeTo|PSProcSets.writeStdProcSet,0.0030347312565421817,0.045549216665357765,0.0,0.0,0.04858394792189995
ResourceTracker.writeResources|PSRenderer.renderPage|RenderPagesModel.checkPreparedPages,0.0,0.0,0.009560000001026006,0.08648700000048848,0.09604700000151448
Root.getFOEventHandler|FONode.getFOEventHandler|FONode.getFOEventHandler,0.002649198304829485,0.0369837716849268,0.0,0.0,0.03963296998975629
SAXParser.<init>|SAXParser.<init>|SAXParserImpl$JAXPSAXParser.<init>,0.01814147684856322,0.2389161234102461,0.010378707683504443,0.07356578946314289,0.34100209740545673
SAXParserFactoryImpl.newSAXParser|SVGElementMapping.getAParserClassName|SVGElementMapping.initialize,0.0,0.0,0.010940000000118744,0.062214999998104765,0.0731549999982235
SAXParserImpl.<init>|SAXParserFactoryImpl.newSAXParser|SVGElementMapping.getAParserClassName,0.037852469631253126,0.43883052583388515,0.02227427602114767,0.14479565448672096,0.6437529259730069
SVGDOMImplementation.initLocalizable|ExtensibleDOMImplementation.<init>|SVGDOMImplementation.<init>,0.002435042125593837,0.02224307801482154,0.0,0.0,0.02467812014041537
SVGElementMapping.initialize|ElementMapping.getTable|ElementMappingRegistry.addElementMapping,0.0,0.0,0.014314999999138912,0.1036250833349186,0.1179400833340575
SerializerBase.<init>|ToSAXHandler.<init>|ToXMLSAXHandler.<init>,0.004733014574940396,0.06549249157443608,0.0,0.0,0.07022550614937648
SerializerBase.getLocalName|ToXMLSAXHandler.closeStartTag|ToXMLSAXHandler.characters,0.002999999998838832,0.05413333333331721,0.0,0.0,0.05713333333215605
Service.providers|ExtensibleDOMImplementation.getDomExtensions|ExtensibleDOMImplementation.<init>,0.0,0.0,0.012033320283370005,0.09499293788324392,0.10702625816661393
SignatureFileVerifier.<clinit>|JarFile.initializeVerifier|JarFile.getInputStream,0.00032120656776756337,0.005036482063150719,0.0,0.0,0.005357688630918282
SimpleCharStream.UpdateLineColumn|SimpleCharStream.readChar|ConfigFileTokenManager.getNextToken,0.0011043701227892947,0.01638195608644702,0.0,0.0,0.017486326209236312
SpaceResolver.resolveElementList|FlowLayoutManager.getNextKnuthElements|PageBreaker.getNextKnuthElements,0.003813844012801846,0.03552239120491545,0.0,0.0,0.0393362352177173
SpaceVal.<init>|BlockLayoutManager.initialize|AbstractLayoutManager.getChildLM,0.0036395555567988016,0.04047647407402717,0.0,0.0,0.04411602963082597
SpaceVal.makeLetterSpacing|TextLayoutManager.initialize|AbstractLayoutManager.getChildLM,0.0,0.0,0.014395000000755925,0.12900800000109786,0.14340300000185374
StackMapTable$Walker.stackMapFrames|StackMapTable$Walker.parse|StackMapTable$Shifter.doit,0.003340000000510675,0.03153477777779143,0.0,0.0,0.034874777778302106
StaticPropertyList.<init>|FOTreeBuilder$1.make|FObj.createPropertyList,0.01753044180030132,0.19232500551393866,0.0,0.0,0.20985544731424
StaticPropertyList.getExplicit|PropertyMaker.getShorthand|PropertyMaker.findProperty,0.010428747705955315,0.09782212859704538,0.0,0.0,0.10825087630300068
StaticPropertyList.get|PropertyList.get|Block.bind,0.0,0.0,0.0065049999999852535,0.050577666666261685,0.05708266666624694
StaticPropertyList.get|PropertyMaker.findProperty|PropertyMaker.get,0.0,0.0,0.014904999998786176,0.14786800000001676,0.16277299999880293
StringProperty$Maker.make|PropertyList.convertAttributeToProperty|PropertyList.addAttributesToList,0.0,0.0,0.010916363636638518,0.08877842424077577,0.09969478787741427
StringProperty.equals|PropertyCache.eq|PropertyCache.get,0.005161109950022824,0.0820255733874489,0.0,0.0,0.08718668333747172
SymbolTable.addSymbol|XMLEntityScanner.scanQName|XMLNSDocumentScannerImpl.scanAttribute,0.005731818181988218,0.06926545454544711,0.0,0.0,0.07499727272743532
TableBody.bind|FObj.processNode|TableBody.processNode,0.0043090909104758985,0.07096727272727492,0.0,0.0,0.07527636363775082
TableBody.processNode|FOTreeBuilder$MainFOHandler.startElement|FOTreeBuilder.startElement,0.00657441142814834,0.09534337670884824,0.0,0.0,0.10191778813699658
TableCell.validateChildNode|FOTreeBuilder$MainFOHandler.startElement|FOTreeBuilder.startElement,0.005725927579553056,0.085721180729127,0.0,0.0,0.09144710830868004
TableContentLayoutManager.addAreas|TableLayoutManager.addAreas|AreaAdditionUtil.addAreas,0.007849999999355834,0.08135999999997996,0.0,0.0,0.08920999999933579
TableFObj.startOfNode|Table.startOfNode|FOTreeBuilder$MainFOHandler.startElement,0.0,0.0,0.009560000001026006,0.0677489999992152,0.07730900000024121
TableRow.processNode|FOTreeBuilder$MainFOHandler.startElement|FOTreeBuilder.startElement,0.002643903555536765,0.03711260790976584,0.0,0.0,0.0397565114653026
TableStepper.getCombinedKnuthElementsForRowGroup|RowGroupLayoutManager.createElementsForRowGroup|RowGroupLayoutManager.getNextKnuthElements,0.0,0.0,0.01161500000055336,0.08756008000171278,0.09917508000226614
TestHarness.main|Harness.main|NativeMethodAccessorImpl.invoke0,0.010164999999688007,0.135762666666551,0.0,0.0,0.14592766666623902
TestHarness.twoDecimalPlaces|TestHarness.<clinit>|Harness.main,0.0,0.0,0.0,0.0,0.0
TextArea.getText|PageNumberLayoutManager.updateContent|PageNumberLayoutManager.getEffectiveArea,0.0,0.0,0.01990499999859215,0.14512133333240246,0.16502633333099462
TextLayoutManager.addAreas|LineLayoutManager.addInlineArea|LineLayoutManager.addAreas,0.0,0.0,0.016124999999495532,0.12815366666715516,0.1442786666666507
TextLayoutManager.createElementsForAWordFragment|TextLayoutManager.getNextKnuthElements|LineLayoutManager.collectInlineKnuthElements,0.003983909935647987,0.0880540853466414,0.013654999997622022,0.10103366666589864,0.20672666194581002
TextLayoutManager.createTextArea|TextLayoutManager.addAreas|LineLayoutManager.addInlineArea,0.014335995272508945,0.19809418799477874,0.0,0.0,0.21243018326728771
TextLayoutManager.getNextKnuthElements|InlineLayoutManager.getNextKnuthElements|LineLayoutManager.collectInlineKnuthElements,0.0,0.0,0.011708137159711637,0.08395157750183678,0.09565971466154842
TextLayoutManager.getNextKnuthElements|LineLayoutManager.collectInlineKnuthElements|LineLayoutManager.getNextKnuthElements,0.014057499999422966,0.15918280000009188,0.017689924144123445,0.11627115198324861,0.30720137612688686
TextLayoutManager.initialize|AbstractLayoutManager.getChildLM|LineLayoutManager.collectInlineKnuthElements,0.00945255225093239,0.11777198951328613,0.0,0.0,0.12722454176421852
TextLayoutManager.isSpace|TextLayoutManager.getNextKnuthElements|LineLayoutManager.collectInlineKnuthElements,0.016914092607706994,0.20239386864114375,0.0,0.0,0.2193079612488508
TimesBoldItalic.<init>|FontSetup.setup|PrintRenderer.setupFontInfo,0.005915000001550652,0.08133933333332757,0.0,0.0,0.08725433333487823
ToXMLSAXHandler.<init>|TransletOutputHandlerFactory.getSerializationHandler|TransformerImpl.getOutputHandler,0.004025498777959589,0.06375845556565247,0.0,0.0,0.06778395434361206
ToXMLSAXHandler.characters|AbstractSAXParser.characters|XIncludeHandler.characters,0.011239999997390743,0.16933200000001608,0.0,0.0,0.18057199999740686
ToXMLSAXHandler.endElement|AbstractSAXParser.endElement|XIncludeHandler.endElement,0.004565323117895576,0.0695388217212166,0.0,0.0,0.07410414483911218
ToXMLSAXHandler.ensurePrefixIsDeclared|ToXMLSAXHandler.startElement|AbstractSAXParser.startElement,0.005115178032461649,0.0513487483741141,0.0,0.0,0.05646392640657575
TraitSetter.addMargins|TraitSetter.addMargins|ListItemLayoutManager.getParentArea,0.0,0.0,0.016495000001062483,0.13590466666452508,0.15239966666558755
TransformerFactoryImpl.<init>|NativeConstructorAccessorImpl.newInstance0|NativeConstructorAccessorImpl.newInstance,0.0,0.0,0.03712000000086846,0.25543199999810895,0.2925519999989774
TransformerFactoryImpl.newTransformer|InputHandler.transformTo|InputHandler.renderTo,0.011884999999892898,0.13250733333340273,0.0,0.0,0.14439233333329565
TransformerImpl.transform|TransformerImpl.transform|InputHandler.transformTo,0.003812307179389604,0.029449589148045494,0.0,0.0,0.0332618963274351
TransletOutputHandlerFactory.getSerializationHandler|TransformerImpl.getOutputHandler|TransformerImpl.transform,0.027345236703767258,0.37505376891729136,0.030202222225381305,0.1964404814813558,0.6290417093277958
TypeChecker.atMethodCallCore|TypeChecker.atCallExpr|JvstTypeChecker.atCallExpr,0.0016345400989604328,0.032514365283733256,0.0,0.0,0.03414890538269369
TypedBlock.makeBlocks|MapMaker.make|MethodInfo.rebuildStackMap,0.004963259400902103,0.05155627826474999,0.0,0.0,0.05651953766565209
URLClassPath$JarLoader.access$600|URLClassPath$JarLoader$2.getCodeSourceURL|URLClassLoader.defineClass,0.0034002661991261018,0.047632853844643566,0.0,0.0,0.05103312004376967
US_ASCII$Decoder.decodeArrayLoop|US_ASCII$Decoder.decodeLoop|CharsetDecoder.decode,0.015185158473175388,0.20941619073079543,0.0,0.0,0.2246013492039708
US_ASCII$Encoder.<clinit>|US_ASCII.newEncoder|StringCoding$StringEncoder.<init>,0.00851064328799471,0.07880008616383152,0.0,0.0,0.08731072945182622
US_ASCII$Encoder.encode|StringCoding$StringEncoder.encode|StringCoding.encode,0.006056009736521839,0.06368536272774207,0.0,0.0,0.06974137246426391
UTF8Reader.read|XMLEntityScanner.load|XMLEntityScanner.scanLiteral,0.0011800000041451615,0.016906666666651894,0.0,0.0,0.018086666670797055
UTF8Reader.read|XMLEntityScanner.load|XMLEntityScanner.scanQName,0.003986181658758444,0.06083368016478202,0.0,0.0,0.06481986182354046
UTF8Reader.read|XMLEntityScanner.load|XMLEntityScanner.skipChar,0.005872567588886072,0.05959117473960611,0.0,0.0,0.06546374232849217
UTF_8$Encoder.encodeArrayLoop|UTF_8$Encoder.encodeLoop|CharsetEncoder.encode,0.0,0.0,0.0,0.0,0.0
UnresolvedListElementWithLength.getLength|SpaceResolver.<init>|SpaceResolver.resolveElementList,0.0046556165334199024,0.06667916573753457,0.0,0.0,0.07133478227095448
Unsafe.putLong|DirectLongBufferU.put|PerfCounter.add,0.0,0.0,0.00960000000001552,0.07891866666614078,0.08851866666615629
Utf8Info.<init>|ConstPool.readOne|ConstPool.read,0.0,0.0,0.0007088275350491753,0.005566902135235788,0.006275729670284964
XIncludeAwareParserConfiguration.configurePipeline|XML11Configuration.parse|XML11Configuration.parse,0.029111993375980225,0.33875602560903284,0.06284447205052579,0.4137411708170543,0.8444536618525933
XIncludeHandler.<init>|XIncludeAwareParserConfiguration.configurePipeline|XML11Configuration.parse,0.0075304027793481245,0.09940179460437676,0.0,0.0,0.10693219738372486
XIncludeHandler.copyFeatures|XIncludeHandler.reset|XIncludeAwareParserConfiguration.configurePipeline,0.007831403629916555,0.06754352267889048,0.008033333334525295,0.04638666666424898,0.12979492630758133
XIncludeHandler.processAttributes|XIncludeHandler.startElement|XMLNSDocumentScannerImpl.scanStartElement,0.0,0.0,0.010914999998931307,0.07944733333473171,0.09036233333366303
XIncludeHandler.startElement|XMLNSDocumentScannerImpl.scanStartElement|XMLDocumentFragmentScannerImpl$FragmentContentDriver.next,0.009356664522703928,0.09715922719152846,0.0,0.0,0.10651589171423237
XML11Configuration.<init>|XIncludeAwareParserConfiguration.<init>|XIncludeAwareParserConfiguration.<init>,0.01721613408715187,0.22255160180897435,0.04398643474826262,0.2930405983525764,0.5767947689969652
XML11Configuration.checkFeature|ParserConfigurationSettings.setFeature|XML11Configuration.setFeature,0.005123837007015664,0.07990796546385164,0.0,0.0,0.0850318024708673
XML11Configuration.configurePipeline|XIncludeAwareParserConfiguration.configurePipeline|XML11Configuration.parse,0.0040361537696173904,0.055021680087763626,0.0,0.0,0.059057833857381024
XMLAttributesImpl.<init>|XMLAttributesImpl.<init>|XMLAttributesIteratorImpl.<init>,0.005674109266195718,0.0738296449541368,0.0,0.0,0.07950375422033251
XMLAttributesImpl.checkDuplicatesNS|XMLNSDocumentScannerImpl.scanStartElement|XMLDocumentFragmentScannerImpl$FragmentContentDriver.next,0.003592323953085496,0.04219673468145477,0.0,0.0,0.04578905863454026
XMLAttributesImpl.getQName|AbstractSAXParser$AttributesProxy.getQName|SerializerBase.addAttributes,0.0,0.0,0.010920000000623986,0.10457366666620753,0.11549366666683153
XMLAttributesImpl.getValue|XIncludeHandler.processAttributes|XIncludeHandler.startElement,0.004486789909948196,0.06919796096561018,0.0,0.0,0.07368475087555837
XMLDocumentFragmentScannerImpl$FragmentContentDriver.startOfMarkup|XMLDocumentFragmentScannerImpl$FragmentContentDriver.next|XMLDocumentScannerImpl.next,0.0,0.0,0.009445714284083806,0.07564857143110462,0.08509428571518843
XMLDocumentFragmentScannerImpl.<init>|XMLDocumentScannerImpl.<init>|XMLNSDocumentScannerImpl.<init>,0.0,0.0,0.010634076462132087,0.0731780562954587,0.0838121327575908
XMLDocumentFragmentScannerImpl.getString|XMLNSDocumentScannerImpl.scanAttribute|XMLNSDocumentScannerImpl.scanStartElement,0.013100000001334895,0.19915766666660292,0.0,0.0,0.21225766666793786
XMLDocumentFragmentScannerImpl.scanDocument|XML11Configuration.parse|XML11Configuration.parse,0.018677100312190102,0.23620983244227312,0.0,0.0,0.2548869327544632
XMLDocumentFragmentScannerImpl.seekCloseOfStartTag|XMLNSDocumentScannerImpl.scanStartElement|XMLDocumentFragmentScannerImpl$FragmentContentDriver.next,0.0,0.0,0.013344999999389984,0.12548833333615522,0.1388333333355452
XMLDocumentScannerImpl.<init>|XMLNSDocumentScannerImpl.<init>|XML11Configuration.<init>,0.003432904939429925,0.05248045348070168,0.0,0.0,0.055913358420131606
XMLEntityManager.<init>|XML11Configuration.<init>|XIncludeAwareParserConfiguration.<init>,0.011091370319040901,0.14528991018769527,0.010651666667803915,0.06937207407382731,0.23640502124836738
XMLEntityManager.reset|XMLEntityManager.reset|XML11Configuration.resetCommon,0.0,0.0,0.010279166666199064,0.06378166666763717,0.07406083333383623
XMLEntityManager.setScannerVersion|XMLEntityManager.<init>|XML11Configuration.<init>,0.008502616350939438,0.08763957218136126,0.009896382059565395,0.06370804307164403,0.16974661366351013
XMLEntityManager.setupCurrentEntity|XMLVersionDetector.determineDocVersion|XML11Configuration.parse,0.007494870192383491,0.10042478168562041,0.0,0.0,0.1079196518780039
XMLEntityScanner.checkEntityLimit|XMLEntityScanner.skipString|XMLDocumentFragmentScannerImpl.scanEndElement,0.0064158955867904075,0.09254510956199168,0.0,0.0,0.09896100514878207
XMLEntityScanner.getBaseSystemId|XIncludeHandler.startDocument|XMLDTDValidator.startDocument,0.005170402780759078,0.06678879460436951,0.0,0.0,0.07195919738512857
XMLEntityScanner.getPublicId|AbstractSAXParser$LocatorProxy.getPublicId|LocatorImpl.<init>,0.0074298492283363686,0.10514249818368823,0.015079999999822272,0.1417236666699561,0.26937601408180295
XMLEntityScanner.peekChar|XMLDocumentFragmentScannerImpl.seekCloseOfStartTag|XMLNSDocumentScannerImpl.scanStartElement,0.007515384616757122,0.09604435897437304,0.0,0.0,0.10355974359113017
XMLEntityScanner.scanContent|XMLDocumentFragmentScannerImpl$FragmentContentDriver.next|XMLDocumentScannerImpl.next,0.011276136363559282,0.14260543181817015,0.005439999998391915,0.04728199999954087,0.2066035681796622
XMLEntityScanner.scanLiteral|XMLScanner.scanAttributeValue|XMLNSDocumentScannerImpl.scanAttribute,0.009273855900421492,0.09494322291070297,0.0,0.0,0.10421707881112446
XMLEntityScanner.scanQName|XMLNSDocumentScannerImpl.scanAttribute|XMLNSDocumentScannerImpl.scanStartElement,0.00801475434819455,0.07388734035692672,0.0,0.0,0.08190209470512128
XMLEntityScanner.scanQName|XMLNSDocumentScannerImpl.scanStartElement|XMLDocumentFragmentScannerImpl$FragmentContentDriver.next,0.006520820351536287,0.09413604603671726,0.0,0.0,0.10065686638825355
XMLEntityScanner.skipChar|XMLDocumentFragmentScannerImpl$FragmentContentDriver.next|XMLDocumentScannerImpl.next,0.0,0.0,0.012445588237075271,0.09264794117531412,0.1050935294123894
XMLEntityScanner.skipDeclSpaces|XMLVersionDetector.determineDocVersion|XML11Configuration.parse,0.0,0.0,0.009619999999510279,0.06498233333453148,0.07460233333404176
XMLEntityStorage.<clinit>|XMLEntityManager.<init>|XML11Configuration.<init>,0.002805272889380077,0.032415325411176026,0.0,0.0,0.0352205983005561
XMLNSDocumentScannerImpl.next|XMLDocumentFragmentScannerImpl.scanDocument|XML11Configuration.parse,0.0,0.0,0.006805000002107893,0.05356833333401785,0.06037333333612575
XMLNSDocumentScannerImpl.scanAttribute|XMLNSDocumentScannerImpl.scanStartElement|XMLDocumentFragmentScannerImpl$FragmentContentDriver.next,0.008919566700526875,0.08900559388427473,0.0,0.0,0.0979251605848016
XMLNSDocumentScannerImpl.scanStartElement|XMLDocumentFragmentScannerImpl$FragmentContentDriver.next|XMLDocumentScannerImpl.next,0.0,0.0,0.010553875602387236,0.07055918623843924,0.08111306184082648
XMLScanner.scanCharReferenceValue|XMLDocumentFragmentScannerImpl$FragmentContentDriver.next|XMLDocumentScannerImpl.next,0.00812307692383631,0.10990092307691576,0.0,0.0,0.11802400000075207
XMLSecurityManager$Limit.<clinit>|XMLSecurityManager.<init>|TransformerFactoryImpl.<init>,0.005248236492830461,0.06594294133470413,0.0,0.0,0.07119117782753459
XMLSecurityManager.isOverLimit|XMLSecurityManager.isOverLimit|XMLEntityScanner.checkLimit,0.0,0.0,0.012330000000171518,0.08900966666745565,0.10133966666762716
XMLWhiteSpaceHandler$EOLchecker.beforeLinefeed|XMLWhiteSpaceHandler.handleWhiteSpace|XMLWhiteSpaceHandler.handleWhiteSpace,0.008652383914770214,0.08405506397267992,0.0,0.0,0.09270744788745014
XMLWhiteSpaceHandler.handleWhiteSpace|FObjMixed.addChildNode|FOTreeBuilder$MainFOHandler.startElement,0.004192674637900161,0.07148867080827334,0.0,0.0,0.0756813454461735
XMLWhiteSpaceHandler.handleWhiteSpace|XMLWhiteSpaceHandler.handleWhiteSpace|FObjMixed.endOfNode,0.0,0.0,0.021895000002890207,0.1660156666645586,0.18791066666744882
XMLWhiteSpaceHandler.handleWhiteSpace|XMLWhiteSpaceHandler.handleWhiteSpace|XMLWhiteSpaceHandler.handleWhiteSpace,0.019564862869713977,0.26312967440839524,0.0,0.0,0.2826945372781092
ZoneInfoFile.getZoneInfo|ZoneInfoFile.getZoneInfo0|ZoneInfoFile.getZoneInfo,0.002850681965665429,0.04576772315526944,0.0,0.0,0.04861840512093487
ZoneInfoFile.getZoneInfo|ZoneInfoFile.getZoneInfo|ZoneInfoFile.getZoneInfo0,0.003425888831967973,0.05367290353965569,0.0,0.0,0.05709879237162367
ZoneInfoFile.load|ZoneInfoFile.access$000|ZoneInfoFile$1.run,0.0028269256755622573,0.043355152891328914,0.025959999999031425,0.19317633333169698,0.26531841189761957
