method,Energy
java.lang,15.528519321392608
java.util.zip,12.51889186416076
java.io,7.892639722626699
org.apache.fop.fo,6.556961085376492
java.util,5.326631242199946
org.apache.fop.fo.properties,4.766749610321634
org.apache.fop.layoutmgr,4.606305931548105
org.apache.xmlgraphics.fonts,4.109103627426875
com.sun.org.apache.xerces.internal.impl,3.274198638568772
org.apache.fop.layoutmgr.inline,2.4676332325857024
com.sun.org.apache.xerces.internal.parsers,2.353059867121796
java.text,2.1351333063621527
org.apache.fop.text.linebreak,1.5439218818579137
sun.misc,1.5055388785776855
org.apache.fop.fonts,1.4585167606411658
java.util.logging,1.1832665459387892
org.apache.fop.fo.expr,1.0555312673773167
org.apache.fop.fo.flow.table,0.9924758848521823
org.apache.fop.area,0.90008773471247
javassist.bytecode,0.8882172565583817
com.sun.org.apache.xerces.internal.util,0.8385022049686233
org.apache.fop.render.ps,0.8211322379655291
com.sun.org.apache.xalan.internal.xsltc.runtime.output,0.752217467855033
com.sun.org.apache.xml.internal.serializer,0.7379888357852386
java.net,0.7248260561277494
com.sun.org.apache.xerces.internal.jaxp,0.7123268759324632
sun.util.calendar,0.7008296976811629
org.apache.fop.render,0.6932848671692865
org.apache.xmlgraphics.ps,0.6762558915452506
com.sun.org.apache.xerces.internal.xinclude,0.623360957581025
org.apache.fop.layoutmgr.table,0.5951277123707897
org.apache.fop.fonts.base14,0.5611135929033572
sun.awt,0.5379288169321256
sun.nio.cs,0.5034972473176954
java.awt,0.4917617096185407
javassist,0.4681344766282373
com.sun.org.apache.xalan.internal.xsltc.trax,0.4672016063481539
org.dacapo.parser,0.45856765766181773
java.security,0.4368263263908892
javax.imageio.spi,0.4338458044516739
org.apache.fop.area.inline,0.3777750237562479
sun.net.www,0.3612068885948821
sun.security.util,0.32952011445046936
java.util.regex,0.3145062426483613
org.dacapo.harness,0.2889199251725222
org.apache.fop.apps,0.2833764856758803
java.util.jar,0.27941496911557756
org.apache.fop.fo.flow,0.27475866610142213
org.apache.commons.logging.impl,0.2695610609285297
com.sun.org.apache.xerces.internal.impl.io,0.2529622871013634
org.apache.fop.traits,0.23326450092163448
org.apache.fop.layoutmgr.list,0.22964666983966817
sun.reflect,0.2127297804011127
org.apache.fop.util,0.20111398596250007
org.xml.sax.helpers,0.19626135082936444
org.apache.fop.cli,0.17620940856849937
com.sun.org.apache.xerces.internal.utils,0.17106263375294323
sun.util.locale.provider,0.15753155574239525
org.apache.commons.io,0.1549020350808246
org.apache.xmlgraphics.ps.dsc,0.14370675447319708
org.apache.fop.fo.pagination,0.14354713639281944
org.apache.commons.logging,0.12364707912689821
javassist.compiler,0.12112129476265338
org.apache.fop.fo.extensions.svg,0.1171864448209978
org.apache.xmlgraphics.ps.dsc.events,0.10786885023229799
org.apache.batik.util,0.10634235912412664
java.awt.geom,0.10559637148660841
javassist.bytecode.stackmap,0.1025805400131474
org.apache.fop.image.loader.batik,0.0886170279633739
org.apache.xmlgraphics.image.loader.impl.imageio,0.07828061279001249
chappie.util,0.07707227529280654
com.sun.org.apache.xalan.internal.utils,0.07073626536788381
java.lang.ref,0.06783640352739881
sun.net.util,0.06678383934392687
jdk.xml.internal,0.06312404617125418
java.awt.color,0.06230551328216559
com.sun.org.apache.xerces.internal.impl.dv.dtd,0.056254790872907
org.apache.fop.datatypes,0.050529042348110446
com.sun.org.apache.xerces.internal.impl.dtd,0.04520561122854601
sun.net.www.protocol.file,0.04096036752941939
java.nio,0.038344120834152985
com.sun.xml.internal.stream,0.03499553826513861
org.apache.batik.dom.svg,0.024520426663846826
