method,package1,package2,dram1,dram2,energy
chappie,0.0,0.0,0.0,0.0,0.0
com.sun.org.apache.xalan.internal.utils,0.0,0.08459466666802958,0.0,0.01577999999911602,0.10037466666714559
com.sun.org.apache.xalan.internal.xsltc.runtime.output,0.0,0.0663653333322145,0.0,0.01096499999888086,0.07733033333109536
com.sun.org.apache.xalan.internal.xsltc.trax,0.0,0.051798666666096935,0.0,0.008200000001428027,0.05999866666752496
com.sun.org.apache.xerces.internal.dom,0.0,0.25598560000022796,0.0,0.046574000002389454,0.3025596000026174
com.sun.org.apache.xerces.internal.impl,0.0,0.04571533333364641,0.0,0.008020000001124572,0.053735333334770985
com.sun.org.apache.xerces.internal.jaxp,0.0,0.059956999998879226,0.0,0.01073500000105317,0.07069199999993239
com.sun.org.apache.xerces.internal.parsers,0.0,0.2149089333290855,0.0,0.034225000000636406,0.24913393332972192
com.sun.org.apache.xml.internal.serializer,0.0,0.27823933333638706,0.0,0.04384000000087932,0.3220793333372664
javassist.bytecode,0.20874795113587263,0.3595854291985226,0.02086038390350954,0.053958410889803174,0.643152175127708
org.dacapo.harness,3.2150529237547385,0.09615967267668357,0.28002096824808015,0.011148249503858367,3.6023818141833606
org.dacapo.parser,0.00458766666027562,0.0,0.0004899999997481548,0.0,0.005077666660023775
org.eclipse.core.internal.content,0.0,0.1523723666667744,0.0,0.02398400000238325,0.17635636666915766
org.eclipse.core.internal.dtree,0.14702766666388403,0.1773260833328499,0.010415000000475197,0.02548166666787842,0.36025041666508756
org.eclipse.core.internal.filesystem,0.0,0.0858560000003005,0.0,0.014404999999290641,0.10026099999959114
org.eclipse.core.internal.filesystem.local,0.913958115036432,0.40654286666807216,0.0801691798721898,0.05875400000610777,1.4594241615828016
org.eclipse.core.internal.jobs,0.0,0.039996067243537735,0.0,0.005796844574276814,0.04579291181781455
org.eclipse.core.internal.preferences,0.09320394008017537,0.06772866666627426,0.008791302759861055,0.008765000001100512,0.1784889095074112
org.eclipse.core.internal.registry,0.04484033333331657,0.013301133466942424,0.0024000000000038804,0.0013200762697769704,0.06186154307003984
org.eclipse.core.internal.resources,0.46539406004463507,0.2554515105116457,0.02868024550017213,0.03939039509209724,0.7889162111485502
org.eclipse.core.internal.runtime,0.0,0.06719966666666248,0.0,0.009215000000646493,0.07641466666730898
org.eclipse.core.internal.watson,0.1529093264725561,0.0,0.01144447709344721,0.0,0.1643538035660033
org.eclipse.core.resources,0.04186937770389705,0.0,0.005223825718859049,0.0,0.0470932034227561
org.eclipse.core.runtime,0.37257464412916863,0.3204973640211959,0.031711365185098817,0.048702396009245294,0.7734857693447087
org.eclipse.core.runtime.adaptor,0.05118445171495248,0.06901033333148612,0.007400022390141277,0.013970000002397379,0.14156480743897726
org.eclipse.core.runtime.internal.adaptor,0.0709636666579172,0.0,0.0051099999982398,0.0,0.076073666656157
org.eclipse.debug.core,0.0,0.0683393333335213,0.0,0.00953999999910593,0.07787933333262723
org.eclipse.debug.internal.core,0.0,0.12013799999961823,0.0,0.017740000000533957,0.13787800000015218
org.eclipse.debug.internal.core.commands,0.0,0.07661933333292836,0.0,0.00991499999994024,0.0865343333328686
org.eclipse.equinox.internal.simpleconfigurator,0.0,0.08308255486475932,0.0,0.013840967731674274,0.0969235225964336
org.eclipse.jdt.core,0.0,0.15758538095118033,0.0,0.022886428570234874,0.1804718095214152
org.eclipse.jdt.core.compiler,3.7819984771995143,6.214529093780798,0.22652637016584287,0.987350242682693,11.210404183828848
org.eclipse.jdt.core.dom,0.44182917090255686,0.12337266666751626,0.03932057117365243,0.01750000000174623,0.6220224087454718
org.eclipse.jdt.core.search,0.028779742082608424,0.20423769999930905,0.002326941527686886,0.0365389999957794,0.2718833836053838
org.eclipse.jdt.core.tests.performance,0.07409347887709437,0.0,0.006622674855611901,0.0,0.08071615373270627
org.eclipse.jdt.core.tests.util,0.7110304506093543,0.0,0.06390829413484764,0.0,0.774938744744202
org.eclipse.jdt.internal.codeassist,0.05487033333823395,0.0,0.0054599999978866744,0.0,0.060330333336120624
org.eclipse.jdt.internal.codeassist.complete,0.3048555694915063,0.0,0.024675102549369218,0.0,0.3295306720408755
org.eclipse.jdt.internal.codeassist.impl,0.1190593333352202,0.0,0.010899999998703908,0.0,0.12995933333392412
org.eclipse.jdt.internal.compiler,0.1333153885870655,0.048421333332953516,0.010074794181969276,0.0046399999991990635,0.19645151610118733
org.eclipse.jdt.internal.compiler.ast,0.8199304284221961,0.3083723134935546,0.06744880853791344,0.04908809523872078,1.244839645692385
org.eclipse.jdt.internal.compiler.classfmt,1.1110828585136827,2.4282669758992004,0.1088363409964019,0.4381526319941931,4.086338807403479
org.eclipse.jdt.internal.compiler.flow,0.04649094390945256,0.0,0.004855277402356285,0.0,0.05134622131180885
org.eclipse.jdt.internal.compiler.lookup,0.5991736062704933,0.050859958333148825,0.053230388523743094,0.007599375000609144,0.7108633281279944
org.eclipse.jdt.internal.compiler.parser,7.55951949840312,5.945909460919021,0.6077401836566205,0.8447413509662177,14.95791049394498
org.eclipse.jdt.internal.compiler.util,0.8490206266031456,7.49213497654014,0.07854194390157619,1.180106814416409,9.59980436146127
org.eclipse.jdt.internal.core,0.8471192758520215,0.335418325175234,0.07913538659016534,0.05198394497433438,1.3136569325917553
org.eclipse.jdt.internal.core.builder,0.0,0.04229750000210212,0.0,0.008019375000609822,0.05031687500271194
org.eclipse.jdt.internal.core.hierarchy,0.04944832435972872,0.0,0.0031851274674639532,0.0,0.05263345182719267
org.eclipse.jdt.internal.core.index,1.8833421068387663,5.817309054265622,0.15455169223048515,0.8800625872449921,8.735265440579866
org.eclipse.jdt.internal.core.search,0.0548789872228627,0.26965833333330613,0.003457984258449787,0.03857625000030869,0.3665715548149273
org.eclipse.jdt.internal.core.search.indexing,0.4567356040098947,2.764311628735151,0.04565655441367612,0.45156866114449945,3.718272448303221
org.eclipse.jdt.internal.core.search.matching,0.19414898332742664,0.12438433333287927,0.020864583131844375,0.01617374999902192,0.35557164979117223
org.eclipse.jdt.internal.core.search.processing,0.0,0.04742433333376539,0.0,0.006279999998999604,0.053704333332764996
org.eclipse.jdt.internal.core.util,0.45680661892592916,3.483465629123898,0.04231299682953176,0.5425316637804818,4.52511690865984
org.eclipse.jdt.internal.formatter,0.6084001241552793,0.0,0.05273458504175655,0.0,0.6611347091970359
org.eclipse.jdt.internal.formatter.align,0.23560204836740456,0.0,0.022099878771958827,0.0,0.2577019271393634
org.eclipse.jdt.internal.launching,0.0,0.06614166666622623,0.0,0.011000000001028336,0.07714166666725457
org.eclipse.osgi.baseadaptor.bundlefile,0.1573676634904397,0.012105333333844706,0.01313718582835434,0.0019200000000031048,0.18453018265264187
org.eclipse.osgi.baseadaptor.loader,0.0,0.036417666667451457,0.0,0.0054799999998067506,0.04189766666725821
org.eclipse.osgi.framework.internal.core,0.08872466668253765,0.1302509982056716,0.01195000000006985,0.017954645286482374,0.24888031017476148
org.eclipse.osgi.framework.internal.protocol.reference,0.0,0.05817819225028804,0.0,0.008323197759333276,0.06650139000962131
org.eclipse.osgi.framework.internal.reliablefile,0.0,0.004953737378520164,0.0,0.0,0.004953737378520164
org.eclipse.osgi.internal.baseadaptor,0.3557214469953265,0.4647967623561362,0.030708440378083873,0.07395362476788266,0.9251802744974292
org.eclipse.osgi.internal.permadmin,0.0,0.05431282233789868,0.0,0.008913039860773495,0.06322586219867217
org.eclipse.osgi.internal.resolver,0.08195000000220412,0.05817819225028804,0.006880000000819564,0.008323197759333276,0.15533139001264498
sun.instrument,0.0,0.055131754195206745,0.0,0.010176258972141337,0.06530801316734808
sun.misc,0.09054583332908805,0.0711783333341979,0.009314999998120278,0.009449999999473914,0.18048916666088013
sun.net.www,0.0,0.0,0.0,0.0,0.0
sun.nio.cs,0.8409107090189757,0.9553250387685583,0.07075024774221737,0.1337971440026202,2.000783139532371
sun.reflect,0.0,0.04775438906581924,0.0,0.00488358584435008,0.05263797491016932
sun.security.pkcs,0.06626366666750982,0.016564564489504975,0.010850000001179676,0.0011203367037405094,0.09479856786193498
sun.security.provider,0.06626366666750982,0.04688987271797036,0.010850000001179676,0.0050187100902417455,0.1290222494769016
sun.security.rsa,0.0,0.10008433606032215,0.0,0.011656849613665936,0.11174118567398808
sun.security.util,0.0,0.08658941295415512,0.0,0.010361943390432905,0.09695135634458803
sun.security.x509,0.0,0.1800414221418741,0.0,0.02058828808996324,0.20062971023183734
