method,package1,package2,dram1,dram2,energy
ASCIICaseInsensitiveComparator,0.03874160278288215,0.0,0.004078445724800164,0.0,0.04282004850768231
AST,0.07621770572157982,0.0,0.007119785850068706,0.0,0.08333749157164852
ASTConverter,0.10832298939095936,0.0,0.009453789839319247,0.0,0.1177767792302786
AbstractCommentParser,0.2115080728507609,0.14428906060824043,0.018634548863835282,0.024106363632061843,0.3985380459548985
AbstractDOMParser,0.0,0.0,0.0,0.0,0.0
AbstractDataTreeNode,0.18262201905757797,0.0,0.015081137181207264,0.0,0.19770315623878523
AbstractIndexer,0.06203233333265719,0.0,0.00787999999981063,0.0,0.06991233333246782
AdaptorUtil,0.0,0.0,0.0,0.0,0.0
AddJarFileToIndex,0.351019956002066,0.11387133333130005,0.03745072824946376,0.019500454544895823,0.5218424721277256
Alignment,0.06028415350847403,0.0,0.006648209902235538,0.0,0.06693236341070957
AlignmentException,0.3360342523352003,0.0,0.03563439894145767,0.0,0.37166865127665794
AnnotationMethodInfo,0.0,0.08752433333575027,0.0,0.012264999999994568,0.09978933333574484
AttributeInfo,0.030533653676123592,0.05462633333324144,0.003221489085661875,0.0109599999996135,0.0993414760946404
BaseAdaptor,0.0,0.03607708098771872,0.0,0.001229577315736401,0.037306658303455115
BaseStorage,0.020887499987212427,0.0,0.0016416666666272148,0.0,0.022529166653839642
Benchmark,2.9572507750325405,0.0,0.2689233750009913,0.0,3.2261741500335317
BinaryIndexer,1.5532139965449783,0.4448853333330286,0.16361425012284725,0.06972499999634843,2.2314385799972025
BinaryTypeBinding,0.08078658291901336,0.0,0.00513531508191281,0.0,0.08592189800092617
Binding,0.07638866873624707,0.0,0.004019723781886571,0.0,0.08040839251813364
BuildNotifier,0.0,0.014275444445148522,0.0,0.0014199999996991311,0.015695444444847655
ByteArrayAccess,0.0,0.0514241935752783,0.0,0.0089046152314286,0.06032880880670689
CascadingMethodInvocationFragmentBuilder,0.04443842678226774,0.0,0.0032310859489241227,0.0,0.04766951273119186
CertificateExtensions,0.0,0.05204269237778976,0.0,0.005585400105864966,0.057628092483654726
Chaperone,0.0,0.0,0.0,0.0,0.0
CharLiteral,0.0,0.13755299999805476,0.0,0.017084999999497086,0.15463799999755184
CharOperation,5.760321689380493,1.618951066349855,0.5385653826585616,0.2813486197678352,8.199186758156745
CharsetManager,0.03850220287981397,0.0,0.002854260160138344,0.0,0.041356463039952315
ClassFile,0.20557531681866914,0.0,0.018910387140586942,0.0,0.22448570395925607
ClassFileReader,0.36724974779045055,0.06488066666740147,0.03459893015687161,0.010840000000219636,0.47756934461494327
ClassFileStruct,2.088559180319268,0.7093107125458382,0.23006616314847939,0.12522707071011085,3.1531631267236966
ClassScope,0.09835061027229006,0.0,0.00979409982633389,0.0,0.10814471009862395
ClasspathJar,0.3029958862773837,0.0,0.02961831559214176,0.0,0.3326142018695255
CodeAttribute,0.0,0.02195328791480592,0.0,0.003940807813797567,0.02589409572860349
CodeFormatterVisitor,0.1573999938021733,0.07521960000012767,0.012133340281172723,0.01045800000210875,0.25521093408558243
CommandLineArgs,0.0,0.0,0.0,0.0,0.0
CompilationUnit,0.0,0.09598800000094344,0.0,0.01261499999964144,0.10860300000058488
CompilationUnitScope,0.12438088677169408,0.0,0.01153480378741041,0.0,0.1359156905591045
CompletionEngine,0.04859037567007488,0.07165533333075776,0.003439648256991851,0.016220000000127282,0.13990535725795178
ConstPool,0.08270250001078239,0.05204269237778976,0.007080000001224106,0.005585400105864966,0.1474105924956612
ConstructorPattern,0.062026024678160915,0.06479899999976624,0.004628977147458235,0.009560000001026006,0.1410140018264114
ContentDescriptionManager$LazyFileInputStream,0.0,0.12314547916738168,0.0,0.01490328125100859,0.13804876041839026
ContentType,0.0,0.09456366666806083,0.0,0.016115000003386133,0.11067866667144696
ContentTypeCatalog,0.04890705503793225,0.0,0.0029027411244637305,0.0,0.051809796162395984
DacapoClassLoader,0.1046956666590025,0.02302788578410352,0.009465000002819579,0.003408841958187525,0.14059739440411312
DataTreeNode,0.03344946264497538,0.0,0.0037129631941869674,0.0,0.03716242583916234
DefaultBindingResolver,0.05457483224029554,0.0,0.007026636962581707,0.0,0.06160146920287724
DefaultClassLoader,0.3633680628740881,0.16667179166597634,0.035972034420348756,0.02513749999949747,0.5911493889599106
DeltaProcessor,0.03186098960157287,0.0,0.004358407495201809,0.0,0.03621939709677468
DerInputBuffer,0.06304933333497804,0.026157404682810925,0.005499999999301508,0.0019236727984062987,0.09663041081549678
DerValue,0.07706700000562705,0.0,0.010400000001633694,0.0,0.08746700000726075
DiskIndex,3.619600933151768,0.8824154556797779,0.334807853785851,0.14417402674377033,4.980998269361167
DiskIndex$IntList,0.6227362488821073,0.0,0.058132646100300465,0.0,0.6808688949824078
DocCommentParser,0.058831759629485364,0.0,0.006403561079868471,0.0,0.06523532070935384
ElementImpl,0.056719565990572214,0.0,0.006512258914575417,0.0,0.06323182490514763
ElementTreeIterator,0.07636132085089588,0.0,0.006650201110327627,0.0,0.08301152196122351
ExceptionTable,0.0,0.08101399999820083,0.0,0.015034999999140078,0.09604899999734091
Expression,0.09971810749994443,0.0,0.008020366472489642,0.0,0.10773847397243408
FastCharsetProvider,0.03874160278288215,0.0,0.004078445724800164,0.0,0.04282004850768231
FieldInfo,0.04816879944863572,0.0,0.0065317527250300465,0.0,0.05470055217366576
Framework,0.14611138890258088,0.0,0.013050000001789562,0.0,0.15916138890437045
FullSourceWorkspaceFormatterTests,0.0,0.05416666666666667,0.0,0.010355999999834845,0.06452266666650151
Function,0.0,0.0,0.0,0.0,0.0
Handler,0.0,0.0813600000013442,0.0,0.012240000001232449,0.09360000000257665
HashtableOfArrayToObject,0.12039772293670115,0.05401600000186591,0.01360831292675057,0.005219999999098945,0.19324203586441657
HashtableOfObject,3.933375991804402,0.39549779259643936,0.3586052316505616,0.07019722222148966,4.757676238272892
HashtableOfObjectToInt,0.03233033686498241,0.0,0.0011655938930483427,0.0,0.033495930758030756
IfStatement,0.092783365827975,0.0,0.0073663530447058605,0.0,0.10014971887268086
ImplicitJobs,0.0,0.014370333333823104,0.0,0.0006483333329217404,0.015018666666744843
ImportDeclaration,0.0998802991043189,0.0,0.0074413972871574035,0.0,0.1073216963914763
Index,0.22455589781003565,0.11946599999888954,0.026314994790307383,0.02050999999967947,0.3908468925989121
IndexBasedHierarchyBuilder,0.044939770364333935,0.0,0.0046646619251198155,0.0,0.04960443228945375
IndexManager,0.5019076801203992,0.23619823809505236,0.04896236577870232,0.03279666666686165,0.8198649506610155
IndexRequest,0.0,0.04272466666831557,0.0,0.008509999999660067,0.05123466666797564
InputStreamMonitor,0.0,0.0,0.0,0.0,0.0
InternalFileSystemCore,0.07350655963998602,0.0,0.004153008085605849,0.0,0.07765956772559188
JarPackageFragmentRoot,0.07794131744653701,0.13090237499970195,0.01064294114820403,0.018998749997687504,0.23848538359213048
JavaModelManager,0.09209299407552778,0.0,0.008442168344124305,0.0,0.10053516241965207
JavaProject,0.1717174245814228,0.04272466666831557,0.016630766588505232,0.008509999999660067,0.23958285783790367
JavaSearchDocument,0.0,0.0636596666687789,0.0,0.010920000000623986,0.07457966666940288
Javadoc,0.07638866873624707,0.0,0.004019723781886571,0.0,0.08040839251813364
JavadocParser,0.0,0.10056566666510963,0.0,0.015420000000934426,0.11598566666604405
KeyedHashSet,0.06683935178216635,0.0,0.005222817697484761,0.0,0.0720621694796511
LocalFile,1.0813831780208936,0.0556233333312169,0.09633887817430259,0.010900000001129229,1.2442453895275423
Log,0.05225231358239979,0.0,0.003605618136582319,0.0,0.05585793171898211
LookupEnvironment,0.3352542029163435,0.0,0.03268576160707627,0.0,0.36793996452341976
ManifestDigester,0.04667166667059064,0.0,0.0031399999982871427,0.0,0.049811666668877784
ManifestElement,0.08807722222829599,0.0,0.007020833333323632,0.0,0.09509805556161963
MatchLocator,0.1502617447221801,0.058161458334022115,0.010963297736006024,0.00593750000007276,0.225324000792281
MemoryIndex,0.42525918635451665,0.16754133333112498,0.0399846956456578,0.025264999999005035,0.6580502153303044
MethodBinding,0.0,0.046142399999856316,0.0,0.011272000001432992,0.057414400001289306
MethodInfo,0.1065598643704333,0.1749204046826523,0.014899706112570325,0.024043672802282152,0.32042364796793804
NameLookup,0.05599740712866119,0.0,0.006500562365017326,0.0,0.062497969493678515
NotFoundException,0.10312797601575008,0.0,0.006304444346739707,0.0,0.10943242036248979
NumberLiteral,0.03613376510694128,0.0,0.002887288222500032,0.0,0.039021053329441314
Openable,0.12076689348666575,0.0,0.014191383813590839,0.0,0.13495827730025658
OrderedLock,0.048945102154537984,0.0,0.0029307166553650954,0.0,0.05187581880990308
PackageBinding,0.09330137823420967,0.0,0.006841819034451063,0.0,0.10014319726866074
Parser,2.5435982560531047,1.5832209966910284,0.24661608151672337,0.22086071405893568,4.5942960483197925
Path,0.41650483409511785,0.0,0.043111927605759284,0.0,0.4596167617008771
PathCollector,0.0,0.027872708333234183,0.0,0.0035437500006689033,0.03141645833390309
Project,0.0,0.0,0.0,0.0,0.0
ProjectPreferences,0.08177366442351869,0.0,0.009814645815071623,0.0,0.0915883102385903
ProviderList$ServiceList,0.0,0.05877016120101925,0.0,0.006298049714349387,0.06506821091536864
RSACore,0.0,0.0514241935752783,0.0,0.0089046152314286,0.06032880880670689
ReferenceBinding,0.1789986962724875,0.0,0.018070835952911868,0.0,0.19706953222539936
ReferenceBinding$3,0.06717821090037276,0.0,0.007127792447621778,0.0,0.07430600334799455
ReferenceInfoAdapter,0.027541999996174127,0.0,0.004124999999476131,0.0,0.03166699999565026
RegistryStrategyOSGI,0.028620403439288074,0.0,0.0044383356029952985,0.0,0.033058739042283375
Resource,0.10770024820797176,0.0587317224205836,0.010686850698503857,0.00901559453862044,0.18613441586567966
ResourceDelta,0.0,0.0,0.0,0.0,0.0
ResourceTree,0.07350818932190044,0.0,0.00450451844864261,0.0,0.07801270777054305
ReturnStatement,0.0,0.10797133333350452,0.0,0.016344999998788502,0.12431633333229303
SAXParserImpl,0.0,0.07218433333279486,0.0,0.005530000002181622,0.07771433333497649
SHA,0.0,0.05500152843646965,0.0,0.007652566227492759,0.0626540946639624
SafeChunkyOutputStream,0.08480272956915894,0.08475755555587561,0.011756017490862143,0.011373333333823309,0.19268963594972
SaveManager,0.03693544264403845,0.0,0.006638335587200401,0.0,0.043573778231238855
SaveManager$4,0.0,0.0,0.0,0.0,0.0
Scanner,4.174769824589701,3.067265431898241,0.3581816080660305,0.4457477239335479,8.04596458848752
Scope,0.11202757646699137,0.0,0.01158121886927293,0.0,0.1236087953362643
Scribe,0.24628656905911928,0.19663466666437063,0.02901628704589659,0.0304700000003019,0.5024075227696884
SearchDocument,0.11654556861901887,0.02903922222160165,0.013779072958541553,0.003628333333633943,0.162992197132796
SearchPattern,0.0,0.027872708333234183,0.0,0.0035437500006689033,0.03141645833390309
SecurityAdmin,0.037699333333875984,0.0,0.002749999999650754,0.0,0.04044933333352674
SecuritySupport$7,0.028661567937232856,0.0,0.004442655705305706,0.0,0.033104223642538566
Signature,0.32693781090884283,0.12019629166540349,0.033913076721199434,0.02055812499929743,0.5016053042947431
SimpleConfiguratorUtils,0.0,0.0,0.0,0.0,0.0
SimpleLookupTable,0.40599888730272615,0.0,0.03924786193655249,0.0,0.44524674923927865
SimpleWordSet,1.9283112734703354,0.6724798698356261,0.19203492909598385,0.10951259523790212,2.9023386676398473
SourceElementNotifier,0.053887627340715165,0.0,0.005916139714411457,0.0,0.05980376705512662
SourceFileAttribute,0.0,0.0,0.0,0.0,0.0
SourceIndexerRequestor,0.06737389346126861,0.0,0.0018933000409792023,0.0,0.06926719350224782
SourceTypeBinding,0.1272480416628241,0.0,0.013159999998606509,0.0,0.14040804166143062
StandardVMType,0.07759369590429067,0.0,0.005617525227586039,0.0,0.08321122113187672
StateWriter,0.0,0.0,0.0,0.0,0.0
StorageManager,0.07550066665862687,0.0,0.006890000001779602,0.0,0.08239066666040647
StreamDecoder,0.37406268624513433,0.1398316666673054,0.03391190639190668,0.016630000003109064,0.5644362593074556
StreamEncoder,0.06669924946062751,0.037292333334335126,0.006675196537542495,0.006800000000415214,0.11746677933292034
StreamHandlerFactory,0.10227466666644128,0.0,0.008065000001806766,0.0,0.11033966666824804
SuperTypeReferencePattern,0.0,0.051040499998634914,0.0,0.008190000000467991,0.059230499999102904
TableWriter,0.0,0.0,0.0,0.0,0.0
TestHarness,0.11348466666337723,0.0,0.013259999999718273,0.0,0.1267446666630955
TransformerFactoryImpl,0.007888525104285208,0.0,0.0010084169169762359,0.0,0.008896942021261444
TransformerImpl,0.007536532888656485,0.0,0.0005136239929122222,0.0,0.008050156881568706
TypeBinding,0.20588656258575522,0.0,0.019740692664559252,0.0,0.22562725525031446
TypeDeclaration,0.20144251475343156,0.0,0.014885650537972504,0.0,0.21632816529140406
TypeDeclarationPattern,0.0,0.06845422222169062,0.0,0.0074933333332107095,0.07594755555490133
URIUtil,0.0,0.0,0.0,0.0,0.0
URLClassPath$JarLoader,0.032226666662609205,0.0,0.0017999999981839212,0.0,0.034026666660793126
UTF_8$Decoder,0.1707701233662205,0.06578222222136294,0.017029401175636484,0.009066666666007629,0.26264841342922757
UTF_8$Encoder,0.12535497371316445,0.11513233333243987,0.012846224505717464,0.017220000001543667,0.2705535315528655
UnifiedTree,0.0,0.05615233333325401,0.0,0.01087999999920915,0.06703233333246317
Util,5.67975130735819,1.1092701784463643,0.5337949861212337,0.17915287877861033,7.501969350704398
Workspace,0.05911250695704951,0.0,0.006780578763013756,0.0,0.06589308572006326
WorkspaceRoot,0.07216296578958167,0.0,0.0024551672247740204,0.0,0.0746181330143557
X500Name$1,0.0,0.060107832741047924,0.0,0.006369469660949013,0.06647730240199694
X509CertImpl,0.0,0.060107832741047924,0.0,0.006369469660949013,0.06647730240199694
XMLWriter,0.10522493236760827,0.0,0.011440203449784416,0.0,0.11666513581739268
ZipBundleEntry,0.07722966666915454,0.0,0.005879999999403178,0.0,0.08310966666855772
ZipBundleEntry$ZipBundleEntryInputStream,0.038832886637276916,0.0,0.006179992899915282,0.0,0.0450128795371922
ZipBundleFile,0.0,0.06835933333301605,0.0,0.010935000000851385,0.07929433333386744
