method,hits
ASCIICaseInsensitiveComparator.compare,2
AST.modifying,2
ASTConverter.convert,4
AbstractCommentParser.<init>,2
AbstractCommentParser.commentParse,6
AbstractCommentParser.readToken,2
AbstractDOMParser.startElement,2
AbstractDataTreeNode.indexOfChild,4
AbstractIndexer.addIndexEntry,2
AdaptorUtil.writeStringOrNull,2
AddJarFileToIndex.execute,2
Alignment.performFragmentEffect,2
AnnotationMethodInfo.createAnnotationMethod,2
AttributeInfo.read,2
BaseAdaptor.<init>,2
BaseStorage.createBundleFile,2
Benchmark.initialize,2
BinaryIndexer.decodeFieldType,2
BinaryIndexer.decodeReturnType,2
BinaryIndexer.extractClassName,4
BinaryIndexer.extractClassReference,2
BinaryIndexer.extractReferenceFromConstantPool,14
BinaryIndexer.extractType,6
BinaryIndexer.indexDocument,30
BinaryIndexer.replace,6
BinaryTypeBinding.createMethods,2
Binding.computeUniqueKey,2
BuildNotifier.subTask,2
ByteArrayAccess.b2iBig64,2
CertificateExtensions.<init>,2
CharLiteral.<init>,2
CharOperation.concat,8
CharOperation.concatWith,2
CharOperation.equals,82
CharOperation.hashCode,142
CharOperation.lastIndexOf,12
CharOperation.replaceOnCopy,8
CharOperation.splitOn,4
CharOperation.subarray,4
CharsetManager.startup,2
ClassFile.<init>,2
ClassFile.completeCodeAttributeForProblemMethod,2
ClassFileReader.<init>,12
ClassFileReader.decodeAnnotations,2
ClassFileStruct.<init>,2
ClassFileStruct.u1At,2
ClassFileStruct.u2At,24
ClassFileStruct.utf8At,68
ClassScope.findSupertype,2
CodeFormatterVisitor.dumpBinaryExpression,2
CodeFormatterVisitor.isMultipleLocalDeclaration,2
CodeFormatterVisitor.visit,4
CompilationUnit.getType,2
CompilationUnitScope.checkParameterizedTypes,2
CompletionEngine.<init>,2
CompletionEngine.acceptTypes,2
ConstPool.getItem,2
ConstructorPattern.createDeclarationIndexKey,4
ContentType.isValid,2
DataTreeNode.<init>,2
DefaultBindingResolver.getVariableBinding,2
DeltaProcessor.deleting,2
DerInputBuffer.getTime,2
DerValue.toByteArray,2
DiskIndex$IntList.add,14
DiskIndex$IntList.asArray,8
DiskIndex.addQueryResult,2
DiskIndex.addQueryResults,12
DiskIndex.computeDocumentNames,2
DiskIndex.copyQueryResults,24
DiskIndex.mergeWith,2
DiskIndex.readStreamChars,12
DiskIndex.writeAllDocumentNames,6
DiskIndex.writeCategoryTable,16
DiskIndex.writeDocumentNumbers,2
DiskIndex.writeStreamChars,50
DiskIndex.writeStreamInt,12
ElementImpl.getAttributes,2
ElementTreeIterator.iterate,2
ExceptionTable.<init>,2
Expression.computeConversion,2
FieldInfo.createField,2
Framework.installWorker,2
FullSourceWorkspaceFormatterTests.testFormatDefault,2
Function.invoke,2
Handler.parseURL,2
HashtableOfArrayToObject.rehash,2
HashtableOfObject.<init>,2
HashtableOfObject.get,118
HashtableOfObject.put,34
HashtableOfObject.rehash,12
IfStatement.analyseCode,2
ImplicitJobs.begin,2
ImportDeclaration.<init>,2
Index.containerRelativePath,2
Index.isMatch,2
IndexBasedHierarchyBuilder.createCompilationUnitFromPath,2
IndexManager.getIndex,2
IndexManager.getSourceElementParser,4
IndexManager.saveIndex,8
IndexRequest.belongsTo,2
InternalFileSystemCore.getFileSystemRegistry,2
JavaModelManager.intern,2
JavaProject.close,2
JavaProject.decodeClasspath,2
JavaProject.equals,2
JavaProject.readFileEntriesWithException,2
Javadoc.resolveTypeParameterTags,2
JavadocParser.pushParamName,2
Log.log,2
LookupEnvironment.createArrayType,2
LookupEnvironment.createPackage,2
LookupEnvironment.newMethodVerifier,2
ManifestDigester.<init>,2
ManifestElement.parseHeader,2
MatchLocator.<init>,2
MatchLocator.findIndexMatches,2
MatchLocator.locateMatches,2
MatchLocator.newMethodReferenceMatch,2
MemoryIndex.addIndexEntry,18
MemoryIndex.shouldMerge,2
MethodBinding.<init>,2
MethodInfo.createMethod,4
MethodInfo.decodeCodeAttribute,2
MethodInfo.decodeLocalVariableAttribute,2
NameLookup.seekTypesInSourcePackage,2
NumberLiteral.<init>,2
Openable.codeComplete,4
OrderedLock.createSemaphore,2
PackageBinding.getType0,2
Parser.classInstanceCreation,2
Parser.consumeBinaryExpressionWithName,2
Parser.consumeDefaultLabel,2
Parser.consumeModifiers,2
Parser.consumeRule,38
Parser.consumeStatementReturn,2
Parser.consumeToken,8
Parser.consumeUnaryExpression,2
Parser.dispatchDeclarationInto,4
Parser.initTables,4
Parser.ntAction,2
Parser.parse,40
Parser.pushIdentifier,2
Parser.tAction,10
Path.computeLength,2
Path.lastSegment,2
Path.toString,4
Project.updateDescription,2
ProjectPreferences.removeNode,2
ProviderList$ServiceList.iterator,2
ReferenceBinding$3.compare,2
ReferenceBinding.compare,2
ReferenceInfoAdapter.acceptUnknownReference,2
Resource.getResourceInfo,2
ResourceTree.internalDeleteFile,2
ReturnStatement.traverse,2
SAXParserImpl.<init>,2
SHA.implCompress,2
SaveManager$4.visitElement,2
Scanner.getCurrentIdentifierSource,8
Scanner.getCurrentTokenSource,10
Scanner.getLineEnd,2
Scanner.getLineEnds,2
Scanner.getNextChar,10
Scanner.getNextToken,98
Scanner.internalScanIdentifierOrKeyword,10
Scanner.jumpOverMethodBody,14
Scanner.pushLineSeparator,40
Scanner.resetTo,2
Scanner.scanNumber,2
Scanner.unicodeInitializeBuffer,2
Scope.getImplicitMethod,2
Scribe.addOptimizedReplaceEdit,2
Scribe.getRootEdit,4
Scribe.isValidEdit,2
Scribe.print,2
Scribe.printIndentationIfNecessary,4
SearchDocument.getContainerRelativePath,4
SearchDocument.getPath,2
SearchPattern.findIndexMatches,2
SecurityAdmin.getPermissionInfos,2
Signature.createCharArrayTypeSignature,2
Signature.encodeQualifiedName,2
Signature.encodeTypeSignature,2
SimpleConfiguratorUtils.getBundleLocation,2
SimpleLookupTable.get,2
SimpleLookupTable.put,12
SimpleWordSet.add,78
SimpleWordSet.rehash,8
SourceElementNotifier.notifySourceElementRequestor,2
SourceFileAttribute.<init>,2
SourceIndexerRequestor.acceptUnknownReference,2
SourceIndexerRequestor.addDefaultConstructorIfNecessary,2
SourceTypeBinding.resolveTypesFor,2
StandardVMType.findJavaExecutable,2
StateWriter.writeImportPackageSpec,2
SuperTypeReferencePattern.createIndexKey,2
TableWriter.filter,2
TransformerFactoryImpl.newTransformer,2
TransformerImpl.getOutputHandler,2
TypeBinding.getErasureCompatibleType,2
TypeBinding.isParameterizedType,2
TypeDeclaration.checkConstructors,2
TypeDeclaration.generateCode,4
TypeDeclaration.parseMethods,2
TypeDeclarationPattern.createIndexKey,2
UTF_8$Decoder.decodeArrayLoop,8
UTF_8$Encoder.encode,8
UnifiedTree.<init>,2
Util.equalArraysOrNull,2
Util.getInputStreamAsByteArray,8
Util.getInputStreamAsCharArray,4
Util.getLineNumber,2
Util.getZipEntryByteContent,2
Util.quickSort,44
Workspace.startup,2
X500Name$1.run,2
X509CertImpl.parse,2
