method,package1,package2,dram1,dram2,energy
ASTConverter.convert|ASTConverter.convert|ASTConverter.convert,0.1809079999802634,0.0,0.013010000002395826,0.0,0.19391799998265924
ASTNode$NodeList.add|AbstractList.add|ASTConverter.setModifiers,0.0919800000071215,0.0,0.005339999998492809,0.0,0.09732000000561432
AbstractCommentParser.commentParse|JavadocParser.checkDeprecation|Parser.checkComment,0.0,0.1824530256408019,0.0,0.02991230769130664,0.21236533333210855
AbstractCommentParser.commentParse|JavadocParser.checkDeprecation|SourceElementParser.checkComment,0.0,0.15545124939991226,0.0,0.018431351583457108,0.17388260098336936
AbstractCommentParser.getLineNumber|AbstractCommentParser.commentParse|JavadocParser.checkDeprecation,0.0,0.10736099999970368,0.0,0.012980000001941031,0.12034100000164472
AbstractCommentParser.readChar|AbstractCommentParser.commentParse|JavadocParser.checkDeprecation,0.0,0.05734133392023245,0.0,0.006660183719021008,0.06400151763925345
AbstractCommentParser.readTokenSafely|AbstractCommentParser.parseReference|JavadocParser.parseTag,0.0,0.06054699999852649,0.0,0.009580000000520764,0.07012699999904726
AbstractCommentParser.updateLineEnd|AbstractCommentParser.commentParse|JavadocParser.checkDeprecation,0.0,0.055521666668937535,0.0,0.009584999999788124,0.06510666666872567
AbstractDOMParser.startDocument|XMLDTDValidator.startDocument|XMLDocumentScannerImpl.startEntity,0.0,0.034375877629107314,0.0,0.0017085812535354162,0.03608445888264273
AbstractDataTreeNode.assembleWith|AbstractDataTreeNode.assembleWith|AbstractDataTreeNode.assembleWith,0.0,0.05911642845833352,0.0,0.007916642516404856,0.06703307097473837
AbstractDataTreeNode.childAtOrNull|DeltaDataTree.lookup|ElementTree.includes,0.07427820024965817,0.0,0.0085390727378291,0.0,0.08281727298748727
AbstractDataTreeNode.indexOfChild|AbstractDataTreeNode.childAtOrNull|DeltaDataTree.lookup,0.03643111111725576,0.0,0.005243333331438609,0.0,0.04167444444869437
AbstractIndexer.addAnnotationTypeDeclaration|BinaryIndexer.indexDocument|JavaSearchParticipant.indexDocument,0.0,0.03831405185903479,0.0,0.005283851427708728,0.04359790328674352
AbstractIndexer.addClassDeclaration|BinaryIndexer.indexDocument|JavaSearchParticipant.indexDocument,0.0,0.03502041950278865,0.0,0.004214609896072105,0.039235029398860755
AbstractIndexer.addConstructorDeclaration|BinaryIndexer.indexDocument|JavaSearchParticipant.indexDocument,0.0,0.05284232313408338,0.0,0.005043890603284779,0.05788621373736816
AbstractIndexer.addIndexEntry|AbstractIndexer.addNameReference|AbstractIndexer.addFieldReference,0.0,0.08054316898250613,0.0,0.012573502890751605,0.09311667187325773
AbstractIndexer.addTypeReference|BinaryIndexer.addTypeReference|AbstractIndexer.addFieldDeclaration,0.0,0.053326803589682316,0.0,0.005064383989592232,0.05839118757927455
Activator.getDebugOptions|PlatformURLConnection.<clinit>|Activator.installPlatformURLSupport,0.0,0.06825753846146071,0.0,0.010390769228904854,0.07864830769036557
Activator.start|BundleContextImpl$1.run|AccessController.doPrivileged,0.0,0.07061766666690042,0.0,0.010920000000623986,0.0815376666675244
AddJarFileToIndex.execute|JobManager.run|Thread.run,0.0,0.04911300000094343,0.0,0.008220000000922784,0.05733300000186621
AnnotationInfo.scanAnnotation|AnnotationInfo.<init>|ClassFileReader.decodeAnnotations,0.0,0.031779000002037115,0.0,0.005830000001878943,0.03760900000391606
AssistOptions.set|AssistOptions.<init>|Engine.<init>,0.0,0.10938237670594636,0.0,0.019824554585508414,0.12920693129145477
BinaryExpression.<init>|Parser.consumeBinaryExpression|Parser.consumeRule,0.0,0.09600833333388437,0.0,0.015494999999646097,0.11150333333353046
BinaryExpressionFragmentBuilder.<init>|CodeFormatterVisitor.buildFragments|CodeFormatterVisitor.dumpBinaryExpression,0.0,0.08815158736456981,0.0,0.011008908501400341,0.09916049586597014
BinaryIndexer.addTypeReference|AbstractIndexer.addMethodDeclaration|BinaryIndexer.indexDocument,0.0,0.04122875118268274,0.0,0.003901927274701022,0.04513067845738376
BinaryIndexer.convertToArrayType|BinaryIndexer.decodeReturnType|BinaryIndexer.indexDocument,0.0,0.03731975121876092,0.0,0.003611086729376767,0.040930837948137684
BinaryIndexer.decodeParameterTypes|BinaryIndexer.indexDocument|JavaSearchParticipant.indexDocument,0.0,0.16748976893848974,0.0,0.026294358631367677,0.1937841275698574
BinaryIndexer.decodeReturnType|BinaryIndexer.indexDocument|JavaSearchParticipant.indexDocument,0.06199133332120255,0.04138174999934563,0.006915000002967038,0.008238750000600703,0.11852683332411591
BinaryIndexer.extractArgCount|BinaryIndexer.extractReferenceFromConstantPool|BinaryIndexer.indexDocument,0.0,0.24083732793383786,0.0,0.046610762981533896,0.28744809091537177
BinaryIndexer.extractClassName|BinaryIndexer.extractReferenceFromConstantPool|BinaryIndexer.indexDocument,0.0,0.07069349545756591,0.0,0.010470345409499052,0.08116384086706496
BinaryIndexer.extractName|BinaryIndexer.extractReferenceFromConstantPool|BinaryIndexer.indexDocument,0.0,0.172948692040224,0.0,0.021446204655248408,0.1943948966954724
BinaryIndexer.extractReferenceFromConstantPool|BinaryIndexer.indexDocument|JavaSearchParticipant.indexDocument,0.07619233333389275,0.43298020064661136,0.00473499999740549,0.07033642390485817,0.5842439578827677
BinaryIndexer.extractType|BinaryIndexer.extractReferenceFromConstantPool|BinaryIndexer.indexDocument,0.0,0.22283477115548503,0.0,0.034123997571827866,0.2569587687273129
BinaryIndexer.indexDocument|JavaSearchParticipant.indexDocument|IndexManager.indexDocument,0.04934906667719284,0.044788927225431104,0.0050199999997857965,0.006875523309765373,0.10603351721217512
BinaryIndexer.replace|BinaryIndexer.decodeParameterTypes|BinaryIndexer.indexDocument,0.0,0.09764479224019623,0.0,0.014392083920423909,0.11203687616062014
BinaryIndexer.replace|BinaryIndexer.replace|BinaryIndexer.indexDocument,0.0,0.09408241788581578,0.0,0.014491086728585918,0.1085735046144017
Bucket.load|Bucket.load|BucketTree.internalAccept,0.07448736585475134,0.0,0.008247751477165997,0.0,0.08273511733191734
BundleLoaderProxy.getBundleLoader0|BundleLoaderProxy.getBundleLoader|BundleHost.getBundleLoader,0.0,0.0,0.0,0.0,0.0
CalendarSystem.<clinit>|DerInputBuffer.getTime|DerInputBuffer.getUTCTime,0.0,0.02473933333142971,0.0,0.0005799999998998827,0.02531933333132959
CertificateExtensions.<init>|X509CertInfo.parse|X509CertInfo.<init>,0.0,0.0486653333355207,0.0,0.0031400000007124613,0.05180533333623316
CharInfo.defineChar2StringMapping|CharInfo.defineEntity|CharInfo.<init>,0.0,0.003346740328036368,0.0,0.0002801686964121854,0.0036269090244485536
CharLiteral.<init>|Parser.consumeToken|Parser.parse,0.0,0.06465633333088286,0.0,0.010884999998476513,0.07554133332935938
CharOperation.concatWith|CompletionEngine.acceptTypes|CompletionEngine.findTypesAndPackages,0.0,0.0615933053659119,0.0,0.01234355836225273,0.07393686372816463
CharOperation.concat|MethodPattern.createIndexKey|AbstractIndexer.addMethodReference,0.0,0.0717284000008173,0.0,0.013064000000304075,0.08479240000112137
CharOperation.equals|BinaryIndexer.extractReferenceFromConstantPool|BinaryIndexer.indexDocument,0.0,0.18356292505847216,0.0,0.031362239717560345,0.21492516477603252
CharOperation.equals|ClassFileReader.<init>|ClassFileReader.<init>,0.0,0.04873295446810672,0.0,0.004466123174082202,0.053199077642188924
CharOperation.equals|FieldInfo.readAttributes|FieldInfo.createField,0.0,0.06555801523544094,0.0,0.0132276009025485,0.07878561613798944
CharOperation.equals|HashtableOfObject.get|DiskIndex.copyQueryResults,0.0,0.1888729504605708,0.0,0.034608982783546044,0.22348193324411683
CharOperation.equals|HashtableOfObject.get|MemoryIndex.addIndexEntry,0.0,0.08925895693721217,0.0,0.01120841995019217,0.10046737688740434
CharOperation.equals|SimpleWordSet.add|MemoryIndex.addIndexEntry,0.0,1.8873209769739874,0.0,0.30566544608890134,2.1929864230628886
CharOperation.equals|SimpleWordSet.add|SimpleWordSet.rehash,0.0540363333420828,0.023699323935710108,0.005904999998165295,0.003309519298988777,0.08695017657494698
CharOperation.hashCode|HashtableOfIntValues.put|DiskIndex.writeCategoryTable,0.0,0.05826833333412651,0.0,0.009560000001026006,0.06782833333515252
CharOperation.hashCode|HashtableOfObject.get|DiskIndex.copyQueryResults,0.0,1.6756214072413258,0.0,0.285916985633651,1.9615383928749768
CharOperation.hashCode|HashtableOfObject.get|MemoryIndex.addIndexEntry,0.0,0.40220952401448556,0.0,0.07322307777953864,0.4754326017940242
CharOperation.hashCode|HashtableOfObject.put|DiskIndex.copyQueryResults,0.0,0.1961154588182536,0.0,0.03218893072504782,0.2283043895433014
CharOperation.hashCode|HashtableOfObject.put|HashtableOfObject.rehash,0.0,0.4606970553512633,0.0,0.07862081849807925,0.5393178738493426
CharOperation.hashCode|SimpleWordSet.add|MemoryIndex.addIndexEntry,0.06152333332768953,1.0757016361658962,0.007450000002184726,0.166143029484728,1.3108179989804982
CharOperation.hashCode|SimpleWordSet.add|SimpleWordSet.rehash,0.07399684848320304,1.024743316235012,0.0074218181808563795,0.1732623544802172,1.2794243373792884
CharOperation.indexOf|BinaryIndexer.decodeParameterTypes|BinaryIndexer.indexDocument,0.0465493333293125,0.14185822886621177,0.004696000000694767,0.020582986412460223,0.21368654860867925
CharOperation.indexOf|BinaryIndexer.extractArgCount|BinaryIndexer.extractReferenceFromConstantPool,0.0,0.08926309343745631,0.0,0.012354887198702912,0.10161798063615922
CharOperation.isWhitespace|Scanner.jumpOverMethodBody|Scanner.getNextToken,0.0,0.08990294551222952,0.0,0.013578673623691329,0.10348161913592085
CharOperation.lastIndexOf|BinaryIndexer.extractArgCount|BinaryIndexer.extractReferenceFromConstantPool,0.0,0.03150619688611153,0.0,0.0030420829631040555,0.03454827984921559
CharOperation.lastIndexOf|CharOperation.lastSegment|AbstractIndexer.addConstructorReference,0.0,0.08161662884988444,0.0,0.012479714832541056,0.09409634368242549
CharOperation.lastIndexOf|CharOperation.lastSegment|AbstractIndexer.addTypeReference,0.0,0.0,0.0,0.0,0.0
CharOperation.lastIndexOf|CharOperation.lastSegment|SuperTypeReferencePattern.createIndexKey,0.0,0.046313626978588894,0.0,0.008972250999338488,0.05528587797792738
CharOperation.lastSegment|AbstractIndexer.addTypeReference|BinaryIndexer.addTypeReference,0.0,0.020485474472545468,0.0,0.001964453359761257,0.022449927832306725
CharOperation.lastSegment|SuperTypeReferencePattern.createIndexKey|AbstractIndexer.addClassDeclaration,0.0,0.0480230490279582,0.0,0.004643016401049053,0.05266606542900726
CharOperation.splitOn|BinaryIndexer.extractReferenceFromConstantPool|BinaryIndexer.indexDocument,0.0,0.11773911911180852,0.0,0.023367013561707128,0.14110613267351566
CharOperation.subarray|CharOperation.lastSegment|AbstractIndexer.addTypeReference,0.0,0.18291786444463437,0.0,0.037584189368598336,0.2205020538132327
ClassFileReader.<init>|ClassFileReader.<init>|BinaryIndexer.indexDocument,0.0,0.502241293306852,0.0,0.07847108931564073,0.5807123826224927
ClassFileReader.getConstantClassNameAt|ClassFileReader.<init>|ClassFileReader.<init>,0.0,0.13042501456719044,0.0,0.021691994601611198,0.15211700916880164
ClassFileReader.isLocal|ExtraFlags.getExtraFlags|BinaryIndexer.indexDocument,0.0,0.052798966864317835,0.0,0.005087068842324702,0.05788603570664254
ClassFileStruct.u2At|AnnotationInfo.decodeAnnotation|AnnotationInfo.initialize,0.0,0.04000092625753461,0.0,0.006185464630785252,0.04618639088831986
ClassFileStruct.u2At|BinaryIndexer.extractClassReference|BinaryIndexer.extractReferenceFromConstantPool,0.0,0.0629273333324818,0.0,0.012609999997948762,0.07553733333043056
ClassFileStruct.u2At|BinaryIndexer.extractType|BinaryIndexer.extractReferenceFromConstantPool,0.0,0.25806417924340375,0.0,0.045036545270077694,0.30310072451348147
ClassFileStruct.u2At|ClassFileReader.<init>|ClassFileReader.<init>,0.0,0.08095320000138599,0.0,0.01559199999998479,0.09654520000137078
ClassFileStruct.u2At|ClassFileReader.getConstantClassNameAt|ClassFileReader.<init>,0.0,0.17325115685092568,0.0,0.019455673504827044,0.19270683035575273
ClassFileStruct.u2At|FieldInfo.readAttributes|FieldInfo.createField,0.0,0.07284426042618505,0.0,0.00797548436164422,0.08081974478782927
ClassFileStruct.u2At|InnerClassInfo.getModifiers|ClassFileReader.getModifiers,0.06199133332120255,0.0,0.006915000002967038,0.0,0.0689063333241696
ClassFileStruct.u2At|MethodInfo.decodeCodeAttribute|MethodInfo.readCodeAttribute,0.0,0.026198108165780568,0.0,0.005245968727606631,0.0314440768933872
ClassFileStruct.u2At|MethodInfo.readExceptionAttributes|MethodInfo.getExceptionTypeNames,0.0,0.024007111111940403,0.0,0.005466666666001804,0.029473777777942207
ClassFileStruct.utf8At|BinaryIndexer.extractClassName|BinaryIndexer.extractReferenceFromConstantPool,0.0,0.0868285964731593,0.0,0.015456234523510849,0.10228483099667014
ClassFileStruct.utf8At|BinaryIndexer.extractClassReference|BinaryIndexer.extractReferenceFromConstantPool,0.0,0.14535265300472966,0.0,0.022914623755443495,0.16826727676017317
ClassFileStruct.utf8At|BinaryIndexer.extractName|BinaryIndexer.extractReferenceFromConstantPool,0.0,0.36994185097728266,0.0,0.059151539032702226,0.42909339000998487
ClassFileStruct.utf8At|BinaryIndexer.extractType|BinaryIndexer.extractReferenceFromConstantPool,0.0,0.1856253414692267,0.0,0.0255832376048768,0.2112085790741035
ClassFileStruct.utf8At|ClassFileReader.getConstantClassNameAt|ClassFileReader.<init>,0.0,0.1743767545823312,0.0,0.02966428922386837,0.20404104380619958
ClassFileStruct.utf8At|FieldInfo.getTypeName|BinaryIndexer.indexDocument,0.0,0.18817173468581352,0.0,0.031306040861316976,0.2194777755471305
ClassFileStruct.utf8At|FieldInfo.readAttributes|FieldInfo.createField,0.0,0.046313626978588894,0.0,0.008972250999338488,0.05528587797792738
ClassFileStruct.utf8At|MethodInfo.createMethod|ClassFileReader.<init>,0.0,0.14698760331068456,0.0,0.02733775676813576,0.17432536007882032
ClassFileStruct.utf8At|MethodInfo.decodeCodeAttribute|MethodInfo.readCodeAttribute,0.0,0.057258933332438276,0.0,0.01089200000084626,0.06815093333328454
ClassFileStruct.utf8At|MethodInfo.getMethodDescriptor|BinaryIndexer.indexDocument,0.06986466666179088,0.3292764839222881,0.0063199999955638,0.05246969022322931,0.45793084080287205
ClassFileStruct.utf8At|MethodInfo.getMethodDescriptor|BinaryTypeBinding.createMethod,0.0,0.0668539999993906,0.0,0.008855000000039581,0.07570899999943018
ClassFileStruct.utf8At|MethodInfo.getSelector|BinaryTypeBinding.createMethods,0.0,0.07958999999876444,0.0,0.010920000003049305,0.09051000000181375
ClassFileStruct.utf8At|MethodInfo.getSelector|MethodInfo.isConstructor,0.04962166666518897,0.2227973010154763,0.0037500000010671397,0.04305332854049673,0.3192222962222291
ClassFileStruct.utf8At|MethodInfo.readExceptionAttributes|MethodInfo.getExceptionTypeNames,0.0,0.07891384483747473,0.0,0.0150986739644113,0.09401251880188602
ClassScope.buildMemberTypes|ClassScope.buildType|CompilationUnitScope.buildTypeBindings,0.10038233334004568,0.0,0.009799999999813735,0.0,0.11018233333985941
ClasspathChange.requestIndexing|DeltaProcessor.resourceChanged|DeltaProcessingState.resourceChanged,0.0,0.09807949402644732,0.0,0.013412243924410363,0.11149173795085768
ClasspathEntry.isOptional|JavaBuilder.getRequiredProjects|JavaBuilder.build,0.0,0.09098755555762046,0.0,0.0117250000004316,0.10271255555805206
ClasspathLocation.forSourceFolder|NameEnvironment.computeClasspathLocations|NameEnvironment.<init>,0.0,0.06483966666807342,0.0,0.010024999998374064,0.07486466666644748
ClasspathSourceDirectory.directoryTable|ClasspathSourceDirectory.isPackage|JavaSearchNameEnvironment.isPackage,0.0,0.093587000000601,0.0,0.01651500000055724,0.11010200000115823
CodeAttribute.<init>|AttributeInfo.read|MethodInfo.read,0.0,0.03360088888762725,0.0,0.004906666667752519,0.03850755555537977
CodeFormatterVisitor.format|CodeFormatterVisitor.formatTypeMembers|CodeFormatterVisitor.format,0.0,0.09017450549997384,0.0,0.013095730276764935,0.10327023577673877
CodeFormatterVisitor.visit|QualifiedNameReference.traverse|CodeFormatterVisitor.formatMessageSend,0.0,0.0994728693395029,0.0,0.014742713631698828,0.11421558297120173
CommandLineArgs.<clinit>|TestHarness.main|Harness.main,0.0,0.0,0.0,0.0,0.0
CommentRecorderParser.pushOnCommentsStack|CommentRecorderParser.flushCommentsDefinedPriorTo|Parser.consumeMethodDeclaration,0.0,0.06144213333221464,0.0,0.010679999998925877,0.07212213333114052
CompilationUnit.getFileName|CompilationResult.<init>|CompilationUnitResolver.beginToCompile,0.13340266666879566,0.0,0.01195999999860457,0.0,0.14536266666740022
CompilationUnit.getType|JavaModelManager.secondaryTypeAdding|AbstractIndexer.addTypeDeclaration,0.0,0.09699863467984507,0.0,0.013040421281114248,0.11003905596095932
CompilationUnitScope.buildFieldsAndMethods|LookupEnvironment.completeTypeBindings|MatchLocator.accept,0.0,0.1295039999998775,0.0,0.01545157894648391,0.1449555789463614
CompletionEngine.<init>|Openable.codeComplete|CompilationUnit.codeComplete,0.0,0.037194444376947085,0.0,0.009219248727509935,0.04641369310445702
CompletionEngine.acceptTypes|CompletionEngine.findTypesAndPackages|CompletionEngine.completionOnSingleNameReference,0.0,0.08501291533372686,0.0,0.017256150861076004,0.10226906619480286
CompletionScanner.getNextToken|Parser.parse|Parser.parse,0.0,0.10498429725304867,0.0,0.017237481838134415,0.12222177909118309
ConstructorLocator.resolveLevel|ConstructorLocator.resolveLevel|MatchLocator.reportMatching,0.0,0.09906333333573357,0.0,0.018641666665644152,0.11770500000137772
ConstructorPattern.createIndexKey|AbstractIndexer.addConstructorReference|BinaryIndexer.extractReferenceFromConstantPool,0.0,0.024023466665918626,0.0,0.004368000000249594,0.028391466666168222
DefaultCodeFormatterConstants.getEclipseDefaultSettings|JavaCorePreferenceInitializer.initializeDefaultPreferences|PreferenceServiceRegistryHelper.runInitializer,0.0,0.0369746038742288,0.0,0.006288555423330206,0.04326315929755901
DeletedNode.type|DataTreeWriter.writeNode|DataTreeWriter.writeNode,0.0,0.0,0.0,0.0,0.0
DeltaDataTree.searchNodeAt|DeltaDataTree.includes|DeltaDataTree.addChild,0.10691333333185564,0.0,0.013699999998304216,0.0,0.12061333333015986
DeltaDataTree.searchNodeAt|DeltaDataTree.includes|DeltaDataTree.setData,0.0,0.06783033333340427,0.0,0.009579999998095444,0.07741033333149971
DerInputBuffer.getTime|DerInputBuffer.getUTCTime|DerInputStream.getUTCTime,0.0,0.05141199999828434,0.0,0.0048050000017004395,0.05621699999998478
DerInputStream.init|DerInputStream.<init>|PKCS7.<init>,0.07159836716994329,0.0,0.006461095551330791,0.0,0.07805946272127408
DiskIndex$IntList.add|DiskIndex.copyQueryResults|DiskIndex.mergeWith,0.0,0.5288741235496524,0.0,0.0858882387916919,0.6147623623413443
DiskIndex$IntList.asArray|DiskIndex.writeCategoryTable|DiskIndex.writeCategories,0.0665486666742557,0.2565637326233946,0.00862499999978657,0.04000293724993401,0.3717403365473709
DiskIndex.addQueryResults|Index.query|SuperTypeReferencePattern.queryIn,0.09686799999083935,0.0,0.010406249998898904,0.0,0.10727424998973825
DiskIndex.copyQueryResults|DiskIndex.mergeWith|Index.save,0.06918933332587282,1.4167497219158172,0.00767599999671802,0.22740667300163914,1.721021728240047
DiskIndex.mergeWith|Index.save|IndexManager.saveIndex,0.0,0.09187833333514087,0.0,0.01778499999879083,0.10966333333393169
DiskIndex.readCategoryTable|DiskIndex.addQueryResults|Index.query,0.0,0.06764107659428832,0.0,0.0038899999999557617,0.07153107659424408
DiskIndex.readStreamChars|DiskIndex.readCategoryTable|DiskIndex.addQueryResults,0.0,0.07896822577039181,0.0,0.009816130815708094,0.0887843565860999
DiskIndex.readStreamChars|DiskIndex.readChunk|DiskIndex.readDocumentName,0.0,0.3013912122102865,0.0,0.05409514106584674,0.3554863532761332
DiskIndex.startQuery|Index.startQuery|SearchPattern.findIndexMatches,0.0,0.10938237670594636,0.0,0.019824554585508414,0.12920693129145477
DiskIndex.writeCategoryTable|DiskIndex.writeCategories|DiskIndex.mergeWith,0.05087170370475009,0.47808833333935274,0.0036977777792209826,0.057739999998981745,0.5903978148223056
DiskIndex.writeDocumentNumbers|DiskIndex.writeCategoryTable|DiskIndex.writeCategories,0.12009555925097731,0.062174666668094375,0.008603555555115841,0.008140000000518436,0.19901378147470597
DiskIndex.writeOffsetToHeader|DiskIndex.mergeWith|Index.save,0.0,0.0401475555554498,0.0,0.00542666666701229,0.04557422222246209
DiskIndex.writeStreamChars|DiskIndex.writeCategoryTable|DiskIndex.writeCategories,0.06972233332150304,0.7076405086941917,0.005729999999554517,0.1096833813083153,0.8927762233235645
DiskIndex.writeStreamChars|DiskIndex.writeStreamChars|DiskIndex.writeCategoryTable,0.8434176185137064,0.8904420000035316,0.08061788888352801,0.1634199999947062,1.9778975073954723
DiskIndex.writeStreamInt|DiskIndex.writeDocumentNumbers|DiskIndex.writeCategoryTable,0.0,0.04075100000045495,0.0,0.00579499999730615,0.0465459999977611
EclipseLogHook.createFrameworkLog|BaseAdaptor.getFrameworkLog|EclipseStarter.startup,0.0,0.040954666665735814,0.0,0.006900000000314321,0.047854666666050136
EclipseStarter.startup|NativeMethodAccessorImpl.invoke0|NativeMethodAccessorImpl.invoke,0.0,0.07657866666704649,0.0,0.010970000000573538,0.08754866666762003
ElementTree.<init>|Workspace.<init>|ResourcesPlugin.start,0.0,0.07670066666469211,0.0,0.010985000000800936,0.08768566666549305
ElementTree.getElementData|Workspace.getResourceInfo|Resource.getResourceInfo,0.04078513675426037,0.0,0.0037438461566234454,0.0,0.044528982910883814
Encodings$EncodingInfos.<init>|Encodings$EncodingInfos.<init>|Encodings.<clinit>,0.0,0.03388590182727432,0.0,0.0027972818179671692,0.03668318364524149
Engine.getSignature|CompletionEngine.findFields|CompletionEngine.findFields,0.0,0.08805475248624539,0.0,0.017694173934635474,0.10574892642088086
ExtensionRegistry.addContribution|ExtensionRegistry.addContribution|EclipseBundleListener.addBundle,0.0,0.02520766666809019,0.0,0.0040949999990213355,0.029302666667111527
FieldInfo.read|FieldInfo.<init>|ClassFile.read,0.0,0.03965266666637035,0.0,0.004120000000208771,0.04377266666657912
FileStoreRoot.toLocalPath|FileStoreRoot.<init>|FileSystemResourceManager.setLocation,0.0,0.0,0.0,0.0,0.0
GroupingChecker.isConsistentInternal|GroupingChecker.isConsistentInternal|GroupingChecker.populateRoots,0.0,0.09613066666497616,0.0,0.015050000001792798,0.11118066666676896
HashtableOfArrayToObject.hashCode|HashtableOfArrayToObject.hashCode|HashtableOfArrayToObject.get,0.0,0.0,0.0,0.0,0.0
HashtableOfIntValues.<init>|DiskIndex.initializeFrom|DiskIndex.mergeWith,0.0,0.0540177979537244,0.0,0.005663014766033986,0.059680812719758385
HashtableOfObject.<init>|HashtableOfObject.rehash|HashtableOfObject.put,0.0,0.1686195555577999,0.0,0.025999999998829376,0.19461955555662927
HashtableOfObject.get|CompletionEngine.acceptTypes|CompletionEngine.findTypesAndPackages,0.0,0.10606602234455688,0.0,0.017971125180402288,0.12403714752495917
HashtableOfObject.get|DiskIndex.copyQueryResults|DiskIndex.mergeWith,0.0,2.754640442342412,0.0,0.47418009582066395,3.2288205381630757
HashtableOfObject.get|MemoryIndex.addIndexEntry|Index.addIndexEntry,0.0,0.4741834887619353,0.0,0.07784822448690215,0.5520317132488375
HashtableOfObject.put|DiskIndex.copyQueryResults|DiskIndex.mergeWith,0.0,0.5056774087095641,0.0,0.08401475217416936,0.5896921608837334
HashtableOfObject.put|DiskIndex.readCategoryTable|DiskIndex.addQueryResults,0.0,0.06694724163850503,0.0,0.014265924356760697,0.08121316599526573
HashtableOfObject.put|HashtableOfObject.rehash|HashtableOfObject.put,0.0,0.7748942337694193,0.0,0.1190806972187709,0.8939749309881903
HashtableOfObject.put|MemoryIndex.addIndexEntry|Index.addIndexEntry,0.0,0.09116267550991475,0.0,0.014573649870409777,0.10573632538032453
HashtableOfObject.rehash|HashtableOfObject.put|DiskIndex.copyQueryResults,0.0,0.5544320713644483,0.0,0.09246292013687286,0.6468949915013211
HashtableOfObject.rehash|HashtableOfObject.put|Scope.getTypeOrPackage,0.0,0.044820333333821814,0.0,0.006799999997989896,0.05162033333181171
HierarchyBuilder.<init>|IndexBasedHierarchyBuilder.<init>|TypeHierarchy.compute,0.07356766667605066,0.0,0.010985000000800936,0.0,0.0845526666768516
HierarchyResolver.resolve|IndexBasedHierarchyBuilder.buildForProject|IndexBasedHierarchyBuilder.buildFromPotentialSubtypes,0.07926429629636307,0.0,0.009799999999813735,0.0,0.0890642962961768
Index.containerRelativePath|SearchDocument.getContainerRelativePath|SearchDocument.addIndexEntry,0.0,0.09065330083706809,0.0,0.015591285208922336,0.10624458604599042
IndexManager.computeIndexLocation|IndexSelector.initializeIndexLocations|IndexSelector.getIndexLocations,0.0,0.04901651850515745,0.0,0.010238445437413484,0.05925496394257094
IndexManager.getSourceElementParser|IndexAllProject.execute|JobManager.run,0.06477866667167594,0.0,0.0077000000019324935,0.0,0.07247866667360843
IndexManager.saveIndex|AddJarFileToIndex.execute|JobManager.run,0.12007666667341255,0.0,0.01261000000037408,0.0,0.13268666667378662
IndexManager.saveIndex|SaveIndex.execute|JobManager.run,0.0,0.06421539248293608,0.0,0.010608644841790079,0.07482403732472616
IndexManager.writeSavedIndexNamesFile|IndexManager.updateIndexState|IndexManager.removeIndex,0.0,0.05600088431104331,0.0,0.006514108532885172,0.06251499284392849
InnerClassInfo.getEnclosingTypeName|ClassFileReader.<init>|ClassFileReader.<init>,0.0,0.028465881164017444,0.0,0.0028545909262901073,0.03132047209030755
InnerClassInfo.getModifiers|ClassFileReader.getModifiers|BinaryIndexer.indexDocument,0.0,0.046937990423356814,0.0,0.004511118201080039,0.05144910862443685
JarPackageFragmentRoot.computeChildren|JavaProjectElementInfo.initializePackageNames|JavaProjectElementInfo.getProjectCache,0.0,0.0,0.0,0.0,0.0
JavaConventions.scannedIdentifier|JavaConventions.validateIdentifier|Util.isValidFolderNameForPackage,0.0,0.0,0.0,0.0,0.0
JavaElement.escapeMementoName|JavaElement.getHandleMemento|PackageFragmentRoot.getHandleMemento,0.1046956666590025,0.0,0.008784999998169951,0.0,0.11348066665717245
JavaElement.getElementInfo|JavaElement.getElementInfo|SearchableEnvironment.find,0.0621934901950333,0.0,0.00438117646776578,0.0,0.06657466666279908
JavaModel.getExternalTarget|JavaModel.getTarget|ClasspathEntry.validateLibraryEntry,0.0,0.06276951906309845,0.0,0.010677043270751058,0.07344656233384951
JavaModelManager.initializePreferences|JavaModelManager.startup|JavaCore.start,0.0,0.05421118500530105,0.0,0.009111519228614327,0.06332270423391538
JavaProject.readFileEntriesWithException|JavaModelManager$PerProjectInfo.readAndCacheClasspath|JavaProject.resolveClasspath,0.0,0.03573706454227375,0.0,0.002778995503548305,0.03851606004582206
JavaProjectElementInfo.getProjectCache|JavaProjectElementInfo.newNameLookup|JavaProject.newNameLookup,0.0,0.11350499999874347,0.0,0.014754999998937516,0.12825999999768098
JavaSearchNameEnvironment.cleanup|MatchLocator.initialize|MatchLocator.locateMatches,0.0,0.07281499999953668,0.0,0.014460000000932874,0.08727500000046956
JavaSearchNameEnvironment.isPackage|JavaSearchNameEnvironment.isPackage|LookupEnvironment.isPackage,0.0,0.0810546666640827,0.0,0.01577999999911602,0.09683466666319872
JavaSearchParticipant.indexDocument|IndexManager.indexDocument|IndexManager$1.execute,0.0,0.06470330901815183,0.0,0.010684257150528087,0.07538756616867992
JavaSearchScope.indexOf|JavaSearchScope.encloses|MatchLocator.encloses,0.0,0.07945188405743017,0.0,0.014260869565591944,0.09371275362302212
Javadoc.traverse|MethodDeclaration.traverse|MatchLocatorParser.parseBodies,0.0,0.06848133333308701,0.0,0.012649999999363596,0.08113133333245061
JavadocParser.parseTag|AbstractCommentParser.commentParse|JavadocParser.checkDeprecation,0.0,0.06575127372359695,0.0,0.009305891770227812,0.07505716549382475
JobManager.sleepHint|WorkerPool.startJob|Worker.run,0.0,0.0,0.0,0.0,0.0
LaunchConfigurationType.initializePreferredDelegates|LaunchConfigurationType.<init>|LaunchManager.initializeLaunchConfigurationTypes,0.07286291868272751,0.0,0.008596796086358749,0.0,0.08145971476908626
LocalFile.delete|ResourceTree.internalDeleteFile|ResourceTree.internalDeleteProject,0.0,0.0,0.0,0.0,0.0
LocalFile.openInputStream|FileSystemResourceManager.read|File.getContents,0.0,0.06663000000116881,0.0,0.0109599999996135,0.07759000000078231
MRUBundleFileList.<clinit>|BaseStorage.<init>|BaseHookConfigurator.addHooks,0.0,0.06703700000070968,0.0,0.010979999999108259,0.07801699999981794
ManifestDigester$Entry.access$000|ManifestDigester.<init>|JarVerifier.processEntry,0.07159836716994329,0.0,0.006461095551330791,0.0,0.07805946272127408
MatchLocator.parseAndBuildBindings|MatchLocator.locateMatches|MatchLocator.locateMatches,0.0,0.04355866666689205,0.0,0.008970000000166085,0.05252866666705813
MatchingNodeSet.matchingNodes|MatchLocator.reportMatching|MatchLocator.reportMatching,0.0,0.08260083333273845,0.0,0.011425000001407979,0.09402583333414642
MemoryIndex.addIndexEntry|Index.addIndexEntry|SearchDocument.addIndexEntry,0.0,0.31427508819851113,0.0,0.05398592694105654,0.36826101513956766
MethodBinding.areParametersEqual|SourceTypeBinding.getExactMethod|Scope.findExactMethod,0.0,0.09745299999728256,0.0,0.016090000002198696,0.11354299999948125
MethodInfo.createMethod|ClassFileReader.<init>|ClassFileReader.<init>,0.0,0.05535780385871586,0.0,0.01054922429427797,0.06590702815299383
MethodInfo.decodeLocalVariableAttribute|MethodInfo.decodeCodeAttribute|MethodInfo.readCodeAttribute,0.0,0.09543338141513233,0.0,0.01892346062653199,0.11435684204166432
MethodInfo.getSelector|MethodInfo.isConstructor|BinaryIndexer.indexDocument,0.0,0.0522821560545578,0.0,0.010548759028232444,0.06283091508279025
MethodPattern.createIndexKey|AbstractIndexer.addMethodDeclaration|BinaryIndexer.indexDocument,0.10052499999680244,0.0,0.007330000000365544,0.0,0.10785499999716798
MethodPattern.createIndexKey|AbstractIndexer.addMethodReference|BinaryIndexer.extractReferenceFromConstantPool,0.06034333334537222,0.0,0.004730000002988769,0.0,0.06507333334836099
OpenableElementInfo.getChildren|ElementCache.ensureSpaceLimit|JavaModelCache.putInfo,0.0,0.09361821333237458,0.0,0.015197599999179754,0.10881581333155434
Parser.computeReverseTable|Parser.initTables|Parser.<clinit>,0.06512466665784207,0.0,0.005415000002055118,0.0,0.0705396666598972
Parser.consumeBinaryExpression|Parser.consumeRule|Parser.parse,0.0,0.06556748216252667,0.0,0.00913568158298808,0.07470316374551475
Parser.consumeCastExpressionWithNameArray|Parser.consumeRule|Parser.parse,0.0,0.08481833333401785,0.0,0.01224499999807449,0.09706333333209234
Parser.consumeEmptyBlockStatementsopt|Parser.consumeRule|Parser.parse,0.13834633332832405,0.0,0.01178499999999379,0.0,0.15013133332831785
Parser.consumeEnterVariable|MatchLocatorParser.consumeEnterVariable|Parser.consumeRule,0.0,0.0975749999997788,0.0,0.014050000000376407,0.11162500000015521
Parser.consumeEnterVariable|Parser.consumeRule|Parser.parse,0.0,0.0810953333323899,0.0,0.012304999998984082,0.09340033333137399
Parser.consumeFormalParameter|Parser.consumeRule|Parser.parse,0.0,0.03819977483615578,0.0,0.0035661218681243634,0.041765896704280145
Parser.consumeMethodInvocationName|SourceElementParser.consumeMethodInvocationName|Parser.consumeRule,0.0,0.0647379999985181,0.0,0.008220000000922784,0.07295799999944089
Parser.consumeRule|Parser.parse|Parser.parse,0.049008076628171804,1.709606025199418,0.005821971242925181,0.2902526138444521,2.054688686914967
Parser.consumeStatementIfNoElse|Parser.consumeRule|Parser.parse,0.0,0.1293614949278855,0.0,0.017008660155234247,0.14637015508311976
Parser.consumeToken|Parser.parse|Parser.parse,0.0,0.14889943045200177,0.0,0.02404656128483381,0.17294599173683559
Parser.createJavadocParser|Parser.<init>|CommentRecorderParser.<init>,0.05694566666109796,0.0,0.0056949999974070424,0.0,0.062640666658505
Parser.createLocalDeclaration|Parser.consumeEnterVariable|MatchLocatorParser.consumeEnterVariable,0.0,0.065678745099599,0.0,0.010258823528191914,0.07593756862779091
Parser.getTypeReference|AssistParser.getTypeReference|Parser.consumeEnterVariable,0.0,0.048415818135482715,0.0,0.005733875788299983,0.054149693923782695
Parser.initTables|Parser.<clinit>|IndexManager.getSourceElementParser,0.046691666667660066,0.0,0.005929999999352732,0.0,0.0526216666670128
Parser.parse|Parser.parse|MatchLocatorParser.parseBodies,0.1740432824923014,0.05578063636428191,0.023606266378517704,0.011209090907703449,0.2646392761428044
Parser.parse|Parser.parse|MethodDeclaration.parseStatements,0.0,0.7789048060952778,0.0,0.12350433605928167,0.9024091421545595
Parser.parse|Parser.parse|Parser.parse,0.0,0.6103273518211447,0.0,0.09765630251795582,0.7079836543391005
Parser.pushIdentifier|Parser.consumeToken|Parser.parse,0.0,0.13989149531461986,0.0,0.02257928947608183,0.1624707847907017
Parser.pushOnExpressionStackLengthStack|Parser.consumeToken|Parser.parse,0.0,0.06876613333394441,0.0,0.009839999999773377,0.07860613333371778
Parser.pushOnExpressionStack|Parser.consumeToken|Parser.parse,0.0,0.06054699999852649,0.0,0.009580000000520764,0.07012699999904726
Parser.tAction|Parser.parse|Parser.parse,0.09799862744551444,0.2700528389411286,0.012472352941175829,0.04268924800175819,0.423213067329577
Path.append|PackageFragment.getPath|CompilationUnit.getPath,0.0,0.08511906884218146,0.0,0.016492888087460297,0.10161195692964176
Path.computeHashCode|Path.<init>|Path.removeLastSegments,0.061310074753913965,0.0,0.008157796202917409,0.0,0.06946787095683138
Path.computeLength|Path.toString|String.valueOf,0.0,0.05820095107255581,0.0,0.010371620440170155,0.06857257151272597
Path.toFile|Util.getResourceContentsAsCharArray|Util.getResourceContentsAsCharArray,0.0,0.0650100914341156,0.0,0.011739128376231896,0.07674921981034749
Path.toString|ClasspathSourceDirectory.directoryTable|ClasspathSourceDirectory.findClass,0.0,0.10481766666392407,0.0,0.015805000000303455,0.12062266666422752
Path.toString|String.valueOf|StringBuffer.append,0.0,0.08797490623002081,0.0,0.01375925124744558,0.10173415747746639
PatternSearchJob.search|PatternSearchJob.execute|JobManager.performConcurrentJob,0.0,0.040262546957908665,0.0,0.007606407899875703,0.04786895485778437
PerfCounter.add|PerfCounter.addTime|ClassLoader.loadClass,0.0,0.028274398785781838,0.0,0.0016746169131378913,0.02994901569891973
PossibleMatch.equals|ObjectVector.find|PossibleMatchSet.add,0.0,0.10479647435903852,0.0,0.017052884614270458,0.12184935897330898
PossibleMatchSet.getPossibleMatches|MatchLocator.locateMatches|MatchLocator.locateMatches,0.0,0.039693333332252216,0.0,0.006204999997862615,0.04589833333011483
ProjectContentTypes.usesContentTypePreferences|ProjectContentTypes$ProjectContentTypeSelectionPolicy.getDelegate|ProjectContentTypes$ProjectContentTypeSelectionPolicy.getLocation,0.0,0.09187833333271556,0.0,0.015405000000707028,0.10728333333342259
RSASignature.initCommon|RSASignature.engineInitVerify|Signature$Delegate.init,0.0,0.047628000000258915,0.0,0.002914999999726812,0.050542999999985724
ReferenceBinding$2.compare|TimSort.binarySort|TimSort.sort,0.0,0.05875633333441025,0.0,0.011080000001432685,0.06983633333584294
RegistryObjectFactory.createExtension|ExtensionsParser.parseExtensionAttributes|ExtensionsParser.handleBundleState,0.0,0.04225666666752659,0.0,0.006860000001324806,0.049116666668851394
Resource.findLinks|Resource.deleteResource|ResourceTree.deletedFile,0.05164291966358258,0.0,0.005694419941975123,0.0,0.0573373396055577
Resource.getFullPath|Resource.getResourceInfo|UnifiedTree.addChildren,0.10691333333185564,0.0,0.013699999998304216,0.0,0.12061333333015986
Resource.getLocation|Util.getResourceContentsAsCharArray|Util.getResourceContentsAsCharArray,0.0,0.11389166666776873,0.0,0.016419999999925494,0.13031166666769423
ResourceInfo.getLocalSyncInfo|RefreshLocalVisitor.visit|UnifiedTree.accept,0.0682423010415917,0.0,0.008033909126113948,0.0,0.07627621016770564
SAXParserImpl.<init>|SAXParserImpl.<init>|SAXParserFactoryImpl.newSAXParserImpl,0.0,0.06412766666956789,0.0,0.010945000001811422,0.07507266667137931
SHA.implCompress|DigestBase.implCompressMultiBlock|DigestBase.engineUpdate,0.0,0.05458566666493425,0.0,0.00802999999965929,0.06261566666459355
Scanner.getCurrentIdentifierSource|Parser.pushIdentifier|Parser.consumeToken,0.0,0.3002233771457396,0.0,0.04104285769006175,0.3412662348358014
Scanner.getNextCharAsDigit|Scanner.getNextToken|Parser.parse,0.0,0.0466472000000067,0.0,0.007652000000234694,0.054299200000241396
Scanner.getNextChar|DocCommentParser.createTag|DocCommentParser.parseTag,0.0,0.08594533311182134,0.0,0.013702124274040441,0.09964745738586178
Scanner.getNextChar|Scanner.getNextToken|Parser.parse,0.0,0.5145231143687496,0.0,0.08622102517440812,0.6007441395431578
Scanner.getNextChar|Scanner.getNextToken|Scribe.printComment,0.0,0.09302655494093516,0.0,0.014033368406013177,0.10705992334694833
Scanner.getNextToken|Parser.parse|Parser.parse,0.2167356666662575,2.505723725360509,0.02174000000377418,0.3642331970678203,3.1084325890983613
Scanner.getNextToken|Scribe.printComment|Scribe.printNextToken,0.0,0.051703673933998856,0.0,0.008401888690790605,0.06010556262478946
Scanner.internalScanIdentifierOrKeyword|Scanner.scanIdentifierOrKeyword|Scanner.getNextToken,0.0,0.40088392707390264,0.0,0.06244823736850613,0.46333216444240877
Scanner.internalScanIdentifierOrKeyword|Scanner.scanIdentifierOrKeyword|Scanner.jumpOverMethodBody,0.0,0.21147630455162836,0.0,0.034912786635857215,0.2463890911874856
Scanner.jumpOverMethodBody|CompletionScanner.getNextToken|Parser.parse,0.0,0.10947580146475737,0.0,0.01724289037441619,0.12671869183917356
Scanner.jumpOverMethodBody|Scanner.getNextToken|Parser.parse,0.0,0.41829632099972025,0.0,0.06005311723227176,0.478349438231992
Scanner.optimizedCurrentTokenSource6|Scanner.getCurrentIdentifierSource|Parser.pushIdentifier,0.0,0.09817112280755903,0.0,0.01506736842017282,0.11323849122773186
Scanner.pushLineSeparator|Scanner.getNextToken|AbstractCommentParser.readToken,0.0,0.05836999999883119,0.0,0.010280000002239829,0.06865000000107102
Scanner.pushLineSeparator|Scanner.getNextToken|Parser.parse,0.0,0.6380903802274852,0.0,0.1008111801855151,0.7389015604130003
Scanner.pushLineSeparator|Scanner.getNextToken|Scribe.printComment,0.0,0.041425726116978735,0.0,0.007999889806299555,0.04942561592327829
Scanner.pushLineSeparator|Scanner.jumpOverMethodBody|Scanner.getNextToken,0.05755599999489884,0.6087679305920165,0.006874999999126885,0.09652781187169474,0.769726742457737
Scanner.recordComment|Scanner.getNextToken|Parser.parse,0.0,0.07554133333421001,0.0,0.013015000001663186,0.08855633333587319
Scanner.scanIdentifierOrKeyword|Scanner.getNextToken|Parser.parse,0.0,0.2509458949376244,0.0,0.03789912706291199,0.2888450220005364
Scanner.scanNumber|Scanner.jumpOverMethodBody|Scanner.getNextToken,0.08262566667766996,0.0,0.0069878947393398885,0.0,0.08961356141700985
Scope.environment|ClassScope.buildType|CompilationUnitScope.buildTypeBindings,0.0,0.0895586666665622,0.0,0.012590000000879323,0.10214866666744153
Scope.findMethod|Scope.findMethod|Scope.getMethod,0.0,0.08599833333331237,0.0,0.014254999999441981,0.10025333333275435
Scope.getTypeOrPackage|Scope.getType|SingleTypeReference.getTypeBinding,0.0,0.1878708123622076,0.0,0.031026830538707223,0.21889764290091482
Scope.outerMostMethodScope|MethodScope.problemReporter|ConstructorDeclaration.resolveJavadoc,0.0,0.103393666666913,0.0,0.0160600000017439,0.11945366666865691
Scribe.getRootEdit|CodeFormatterVisitor.format|DefaultCodeFormatter.formatCompilationUnit,0.0,0.04462016186586462,0.0,0.006180149349202867,0.05080031121506749
Scribe.handleLineTooLong|Scribe.print|Scribe.printQualifiedReference,0.0,0.07283307361541777,0.0,0.012732188295429641,0.08556526191084741
Scribe.printIndentationIfNecessary|Scribe.print|Scribe.printNextToken,0.0,0.07009364084537485,0.0,0.007641569969007136,0.07773521081438199
Scribe.printLineComment|Scribe.printComment|Scribe.printNextToken,0.0,0.08961508066741279,0.0,0.01633725296138951,0.1059523336288023
SearchDocument.addIndexEntry|AbstractIndexer.addIndexEntry|AbstractIndexer.addNameReference,0.0,0.11747355752625657,0.0,0.015401967080644008,0.13287552460690058
SearchDocument.getContainerRelativePath|SearchDocument.addIndexEntry|AbstractIndexer.addIndexEntry,0.0,0.10178708107275034,0.0,0.013272319424050017,0.11505940049680036
SearchDocument.getPath|JavaSearchParticipant.indexDocument|IndexManager.indexDocument,0.0,0.08586753457774134,0.0,0.01059527437392472,0.09646280895166606
SearchDocument.removeAllIndexEntries|BinaryIndexer.indexDocument|JavaSearchParticipant.indexDocument,0.0,0.047860204170834884,0.0,0.004517899934824129,0.05237810410565901
ServiceUse.ungetService|ServiceRegistrationImpl.ungetService|ServiceRegistry.ungetService,0.0,0.0,0.0,0.0,0.0
Signature.consumeWhitespace|Signature.createCharArrayTypeSignature|BinaryIndexer.extractArgCount,0.07051600000704639,0.041925962664460935,0.0047450000007908475,0.008404415807262795,0.12559137847956098
Signature.createCharArrayTypeSignature|BinaryIndexer.extractArgCount|BinaryIndexer.extractReferenceFromConstantPool,0.0,0.16612633799128174,0.0,0.02953948189926458,0.19566581989054632
Signature.encodeQualifiedName|Signature.encodeTypeSignature|Signature.createCharArrayTypeSignature,0.0,0.014947773740882044,0.0,0.0017920302982500887,0.016739804039132132
SimpleLookupTable.get|DiskIndex.mergeWith|Index.save,0.0,0.1982420000009976,0.0,0.025040000002870023,0.2232820000038676
SimpleLookupTable.put|DiskIndex.computeDocumentNames|DiskIndex.mergeWith,0.0,0.31296730955864954,0.0,0.05441978830765076,0.3673870978663003
SimpleLookupTable.put|MemoryIndex.addIndexEntry|Index.addIndexEntry,0.04656966667971574,0.06321200000093086,0.0033299999995506373,0.012240000001232449,0.1253516666814297
SimpleLookupTable.put|MemoryIndex.remove|Index.remove,0.0,0.16722566072481165,0.0,0.02924384193374097,0.19646950265855262
SimpleLookupTable.put|SimpleLookupTable.rehash|SimpleLookupTable.put,0.0,0.032810989137595885,0.0,0.00729428717166305,0.04010527630925893
SimpleLookupTable.rehash|SimpleLookupTable.put|MemoryIndex.remove,0.0,0.0629476666629974,0.0,0.01224500000049981,0.07519266666349722
SimpleLookupTable.removeKey|MatchLocator.reportMatchingSuper|MatchLocator.reportMatching,0.0,0.10430769230786097,0.0,0.015817307692673355,0.12012500000053432
SimpleSet.includes|ClasspathJar.isPackage|JavaSearchNameEnvironment.isPackage,0.0,0.09484866666753078,0.0,0.016339999999521144,0.11118866666705192
SimpleWordSet.<init>|SimpleWordSet.rehash|SimpleWordSet.add,0.0,0.3359230253612014,0.0,0.0549432086376529,0.3908662339988543
SimpleWordSet.add|MemoryIndex.addIndexEntry|Index.addIndexEntry,0.11938466667197645,1.5121031782250383,0.012689999993502472,0.24795295588121177,1.8921308007717288
SimpleWordSet.add|SimpleWordSet.rehash|SimpleWordSet.add,0.0,0.30557867321129584,0.0,0.04235215646337187,0.3479308296746677
SimpleWordSet.rehash|SimpleWordSet.add|MemoryIndex.addIndexEntry,0.0898233333233899,0.16173130017224477,0.0053250000006907295,0.031759236265115696,0.2886388697614411
SingleNameReference.traverse|CodeFormatterVisitor.visit|InstanceOfExpression.traverse,0.0,0.03819977483615578,0.0,0.0035661218681243634,0.041765896704280145
SourceElementNotifier.<init>|SourceElementParser.<init>|IndexingParser.<init>,0.08929433333105408,0.0,0.006540000002132729,0.0,0.0958343333331868
SourceElementParser.<init>|IndexingParser.<init>|IndexManager.getSourceElementParser,0.06408700000611134,0.0,0.006320000000414439,0.0,0.07040700000652578
SourceElementParser.consumeTypeImportOnDemandDeclarationName|Parser.consumeRule|Parser.parse,0.0,0.0852188636115427,0.0,0.011678468763006863,0.09689733237454956
SourceElementParser.getTypeReference|Parser.consumeEnterVariable|Parser.consumeRule,0.0,0.05769422167880329,0.0,0.00931414267884598,0.06700836435764927
SourceElementParser.getUnspecifiedReference|Parser.consumeMethodInvocationName|SourceElementParser.consumeMethodInvocationName,0.0,0.10238679744000187,0.0,0.01537051244485246,0.11775730988485433
SourceIndexerRequestor.acceptUnknownReference|SourceElementParser.addUnknownRef|SourceElementParser.getUnspecifiedReferenceOptimized,0.0,0.09594733333506156,0.0,0.013585000000603031,0.10953233333566459
SourceRefElement.<init>|Member.<init>|NamedMember.<init>,0.0,0.07454433333380922,0.0,0.012625000000601478,0.0871693333344107
SourceTypeBinding.resolveTypesFor|SourceTypeBinding.methods|SourceTypeBinding.faultInTypesForFieldsAndMethods,0.0,0.07566666666712586,0.0,0.011449999999765877,0.08711666666689175
SourceTypeConverter.convert|SourceTypeConverter.convert|SourceTypeConverter.convert,0.0,0.09745715036149694,0.0,0.01616595096731568,0.11362310132881262
StateManager.getState|StateResolverUtils.getAdditionalRefresh|ConfigApplier.install,0.0,0.0,0.0,0.0,0.0
StateObjectFactoryImpl.writeState|StateManager.writeState|StateManager.update,0.0,0.012801029307809712,0.0,0.0013567100581517398,0.014157739365961451
StateWriter.writeMap|StateWriter.writeExportPackageDesc|StateWriter.writeBundleDescriptionLazyData,0.0,0.012801029307809712,0.0,0.0013567100581517398,0.014157739365961451
SuperTypeReferencePattern.createIndexKey|AbstractIndexer.addClassDeclaration|BinaryIndexer.indexDocument,0.0,0.03465173333340014,0.0,0.007123999999991307,0.04177573333339145
TransletOutputHandlerFactory.getSerializationHandler|TransformerImpl.getOutputHandler|TransformerImpl.transform,0.0,0.003346740328036368,0.0,0.0002801686964121854,0.0036269090244485536
TypeDeclaration.createDefaultConstructor|Parser.consumeClassDeclaration|Parser.consumeRule,0.0,0.08753212189049314,0.0,0.011272259875052109,0.09880438176554525
TypeDeclaration.internalAnalyseCode|TypeDeclaration.analyseCode|CompilationUnitDeclaration.analyseCode,0.07832833332940936,0.0,0.0068700000022848436,0.0,0.0851983333316942
TypeDeclaration.resolve|TypeDeclaration.resolve|CompilationUnitDeclaration.resolve,0.0,0.0956478181361597,0.0,0.01451386883834595,0.11016168697450565
URIName.<init>|URIName.<init>|GeneralName.<init>,0.0,0.04833999999876444,0.0,0.004809999998542479,0.05314999999730692
UTF_8$Decoder.decodeArrayLoop|UTF_8$Decoder.decodeLoop|CharsetDecoder.decode,0.0,0.33093990631214654,0.0,0.054429781437386485,0.385369687749533
UTF_8$Encoder.encode|StringCoding$StringEncoder.encode|StringCoding.encode,0.0,0.05141199999828434,0.0,0.0048050000017004395,0.05621699999998478
Util.getInputStreamAsByteArray|Util.getZipEntryByteContent|AddJarFileToIndex.execute,0.0,0.45065693648944016,0.0,0.07903947773326314,0.5296964142227033
Util.getInputStreamAsCharArray|Util.getResourceContentsAsCharArray|Util.getResourceContentsAsCharArray,0.0,0.14052333333529532,0.0,0.0303550000001754,0.17087833333547073
Util.getZipEntryByteContent|AddJarFileToIndex.execute|JobManager.run,0.0,0.07216399999985393,0.0,0.012934999998833518,0.08509899999868745
Util.indexOfJavaLikeExtension|ClasspathSourceDirectory.directoryTable|ClasspathSourceDirectory.findClass,0.0,0.09745299999728256,0.0,0.016090000002198696,0.11354299999948125
Util.quickSort|Util.quickSort|Util.quickSort,0.5823858740790187,0.8251366926516178,0.06506844445264302,0.12092764914223657,1.593518660325516
Util.quickSort|Util.quickSort|Util.sort,0.057273481480984226,0.11574705600643898,0.005582222221332981,0.01739744820192425,0.1960002079106804
Util.quickSort|Util.sort|DiskIndex.writeDocumentNumbers,0.15912051480974898,0.0885619999996076,0.019967222222584055,0.018190000000079934,0.28583973703202054
Util.sort|DiskIndex.writeDocumentNumbers|DiskIndex.writeCategoryTable,0.0,0.055643666666583165,0.0,0.009519999999611171,0.06516366666619433
WeakHashSet.cleanupGarbageCollectedValues|WeakHashSet.add|JavaModelManager.intern,0.0,0.0,0.0,0.0,0.0
WhileStatement.<clinit>|ASTConverter.convert|ASTConverter.convert,0.07065833332793166,0.0,0.0041600000016236045,0.0,0.07481833332955526
WhileStatement.analyseCode|Block.analyseCode|TryStatement.analyseCode,0.11775733334555599,0.0,0.009779999997893658,0.0,0.12753733334344966
X500Name.<clinit>|X509CertInfo.parse|X509CertInfo.<init>,0.0,0.02473933333142971,0.0,0.0005799999998998827,0.02531933333132959
X509CertImpl.parse|X509CertImpl.<init>|X509Factory.engineGenerateCertificate,0.0,0.07568366666964721,0.0,0.0135149999987334,0.08919866666838061
XML11Configuration.setProperty|XML11Configuration.configurePipeline|XIncludeAwareParserConfiguration.configurePipeline,0.0,0.06888833333262785,0.0,0.010979999999108259,0.07986833333173611
XMLDocumentScannerImpl$TrailingMiscDriver.next|XMLDocumentScannerImpl.next|XMLDocumentFragmentScannerImpl.scanDocument,0.047444666658217706,0.0,0.0063100000043050395,0.0,0.053754666662522745
XMLDocumentScannerImpl.<init>|XMLNSDocumentScannerImpl.<init>|XML11Configuration.<init>,0.0,0.06636566666566067,0.0,0.011010000001988374,0.07737566666764904
XMLErrorReporter.<init>|XML11Configuration.<init>|XIncludeAwareParserConfiguration.<init>,0.0,0.01904787499915983,0.0,0.0023799999992964627,0.021427874998456293
XMLScanner.setFeature|XMLDocumentFragmentScannerImpl.setFeature|XMLDocumentScannerImpl.setFeature,0.0,0.12247725000239976,0.0,0.0185674999999416,0.14104475000234135
