method,package1,package2,dram1,dram2,energy
AbstractStringBuilder.<init>,0.04966584447758903,0.0,0.003997721175044201,0.0,0.053663565652633236
AbstractStringBuilder.newCapacity,0.06972036722631485,0.0,0.0067446170747313215,0.0,0.07646498430104617
AccessController.doPrivileged,0.07793903976295002,0.0,0.010129121649817632,0.0,0.08806816141276766
ArrayList.elementData,0.0,0.04673802939321807,0.0,0.007451294544030136,0.05418932393724821
ArrayList.ensureCapacityInternal,0.0,0.05481094776636094,0.0,0.008623421076721729,0.06343436884308266
ArrayList.ensureExplicitCapacity,0.0,0.0,0.0,0.0,0.0
ArrayList.fastRemove,0.0,0.0,0.0,0.0,0.0
Arrays.copyOf,0.09361926792575695,0.0,0.0014248842205695116,0.0,0.09504415214632646
Arrays.copyOfRange,0.08757812314497015,0.05012382939692246,0.009307897410518401,0.0038640474380226843,0.1508738973904337
BufferedInputStream.<init>,0.5270122706021332,0.14029071242909094,0.05661241804208243,0.023911992723128418,0.7478273937964349
BufferedInputStream.read,0.07811151627008933,0.12274345195574439,0.011173062998978557,0.01630852276538488,0.22833655399019714
BufferedInputStream.read1,0.05532547358920885,0.0,0.007654584436177192,0.0,0.06298005802538605
BufferedOutputStream.write,0.10880566666795252,0.0,0.01577000000300662,0.0,0.12457566667095914
BufferedReader.<init>,0.09270547482971113,0.0,0.010694093337242892,0.0,0.10339956816695402
BufferedWriter.<init>,0.059532061500586674,0.0,0.005240538387931534,0.0,0.0647725998885182
CharacterDataLatin1.toLowerCase,0.0,0.04093428571442408,0.0,0.007051428572075175,0.04798571428649926
Class.forName0,0.0,0.04821685610644556,0.0,0.0035213153265293905,0.051738171432974954
Class.getDeclaredConstructors0,0.0,0.08937622998814937,0.0,0.01458592929134615,0.10396215927949552
ClassLoader.defineClass1,0.31750619844215655,0.8273216891258006,0.04035436078359359,0.12692193688196704,1.3121041852335178
Collections.singletonList,0.047464999991158635,0.0,0.005710000002485079,0.0,0.053174999993643716
DataInputStream.readUnsignedShort,0.0673865625000003,0.0,0.009946874997694977,0.0,0.07733343749769528
DataOutputStream.<init>,0.0,0.0,0.0,0.0,0.0
File.isInvalid,0.0,0.10746266666683367,0.0,0.017160000000634074,0.12462266666746774
FileInputStream.<init>,0.1349283333333394,0.0,0.020080000004478883,0.0,0.15500833333781827
FileInputStream.close,0.09451802083333463,0.0,0.011283124998347677,0.0,0.1058011458316823
FileInputStream.close0,0.0957049878915733,0.0,0.009307629935139804,0.0,0.10501261782671312
FileInputStream.open0,0.09512014536844376,0.0,0.004530131147321146,0.0,0.09965027651576491
FileInputStream.readBytes,0.30013098064391397,0.1095142017883314,0.02770161915672335,0.016273825188371848,0.45362062677734055
FileOutputStream.close0,0.04413517207460189,0.06261544407201658,0.0005634649320762291,0.010679651511476906,0.1179937325901716
FileOutputStream.open0,0.2789374701164907,0.2777376946115318,0.030267642027977472,0.04012596471410808,0.6270687714701082
FileOutputStream.write,0.022888250008691102,0.0,0.0017699999989417847,0.0,0.024658250007632887
FileOutputStream.writeBytes,1.29112749945347,0.7181998943871217,0.12932832540134329,0.11536204759350374,2.254017766835439
Formatter.parse,0.0438639999999945,0.0,0.0032750000003337236,0.0,0.047139000000328224
HashMap.containsKey,0.0,0.06033265845960736,0.0,0.007751481220917239,0.0680841396805246
HashMap.getNode,0.1036546234173064,0.04704661241702677,0.012891342939481359,0.007685508204001005,0.17127808697781555
HashMap.hash,0.0,0.08137563388388366,0.0,0.011195205979889787,0.09257083986377346
Hashtable.<init>,0.0,0.038675999998910505,0.0,0.005400000001827721,0.044076000000738226
Hashtable.put,0.03160616666666745,0.10002912899900858,0.004720000000816071,0.014954440814935431,0.15130973648142754
Inflater.inflate,0.10291618181773546,0.0,0.015028636360622122,0.0,0.11794481817835759
Inflater.inflateBytes,2.6152950599180986,0.800540271526038,0.33943154137127673,0.13172273147224012,3.8869896042876535
InflaterInputStream.<init>,0.0,0.0,0.0,0.0,0.0
InflaterInputStream.read,0.12567133333262365,0.0,0.017879999999422577,0.0,0.14355133333204623
Object.notifyAll,0.03686554034078847,0.0,0.0004650319357974372,0.0,0.037330572276585906
Object.wait,0.0,0.0,0.0,0.0,0.0
OutputStream.<init>,0.036010599997825916,0.0,0.0016739999977289698,0.0,0.03768459999555489
String.charAt,0.0,0.07928466666635359,0.0,0.01089499999701123,0.09017966666336481
String.format,0.04296866666667635,0.0,0.0024000000000038804,0.0,0.04536866666668023
String.getChars,0.09830733332394932,0.0,0.013719999995373657,0.0,0.11202733331932298
String.hashCode,0.06529941076951007,0.08290599999842621,0.012006853864840657,0.011625000001610413,0.17183726463438734
String.length,0.07263944628700268,0.0,0.0031975263237083327,0.0,0.07583697261071101
String.substring,0.055188496350310534,0.0,0.004005504862386442,0.0,0.059194001212696974
String.toCharArray,0.03020550533859482,0.0,0.0004184103119249545,0.0,0.030623915650519775
StringBuffer.append,0.049514687499998544,0.0,0.004978124998160638,0.0,0.05449281249815918
StringCoding$StringEncoder.encode,0.0,0.09960593525714727,0.0,0.012856289757902508,0.11246222501504978
StringTokenizer.scanToken,0.0,0.031017818305038476,0.0,0.005298707461606846,0.03631652576664532
Throwable.fillInStackTrace,0.362141404750551,0.18128136920675694,0.023758596172529765,0.028403886119731502,0.5955852562495693
TimSort.mergeLo,0.1127113333333334,0.0,0.01096500000130618,0.0,0.12367633333463958
URI$Parser.parse,0.0,0.061421666667835474,0.0,0.010434999998930529,0.071856666666766
URI.access$500,0.040187389671960214,0.0,0.006645386755532548,0.0,0.04683277642749276
URL.<init>,0.0,0.07401533333419744,0.0,0.010905000000396587,0.08492033333459402
UnixFileSystem.canonicalize0,0.06139050287169745,0.0,0.003938015643769439,0.0,0.0653285185154669
UnixFileSystem.checkAccess,0.055191769677978,0.0,0.00398741368574531,0.0,0.05917918336372331
UnixFileSystem.createDirectory,0.0,0.12509273039625746,0.0,0.0208025365428783,0.14589526693913576
UnixFileSystem.delete0,0.4859813317789833,0.0,0.03068381946338772,0.0,0.516665151242371
UnixFileSystem.getBooleanAttributes0,0.19113316424047577,0.26646610497563095,0.013808407439923624,0.04127253362030138,0.5126802102763317
UnixFileSystem.getLastModifiedTime,0.0,0.12577579166645592,0.0,0.01696874999834108,0.142744541664797
UnixFileSystem.getLength,0.171775616518184,0.0,0.006930127889182387,0.0,0.17870574440736636
UnixFileSystem.list,0.05325215432704696,0.0642496666672135,0.0040402341162725924,0.00936500000049515,0.1309070551110282
UnixFileSystem.rename0,0.0,0.0,0.0,0.0,0.0
ZipCoder.toString,0.027523511992500752,0.0,0.000577315407991166,0.0,0.02810082740049192
ZipFile.freeEntry,0.22570442204503838,0.04823833333405976,0.027671423459113047,0.004879999997986791,0.30649417883619795
ZipFile.getEntry,0.08449166852773579,0.0,0.004112300827188825,0.0,0.08860396935492462
ZipFile.getEntryBytes,0.11124870778028831,0.0,0.006576822171877505,0.0,0.11782552995216582
ZipFile.getEntryCSize,0.018255450739076987,0.0,0.004005504862386442,0.0,0.022260955601463427
ZipFile.getNextEntry,0.1121704697296707,0.0,0.012151278068817143,0.0,0.12432174779848784
ZipFile.read,1.2754608354573438,0.0,0.1256041099184318,0.0,1.4010649453757755
