method,package1,package2,dram1,dram2,energy
AbstractStringBuilder,0.07857266666057207,0.07851892589094092,0.010459999997692648,0.014879251418787594,0.18243084396799325
AccessController,0.0,0.0,0.0,0.0,0.0
ArrayList,0.05923673612356205,0.0,0.004646908074718107,0.0,0.06388364419828016
Arrays,0.27302393384654466,0.27530933333279484,0.024090620260869035,0.04106500000004113,0.6134888874402497
BigInteger,0.0,0.07017000000147769,0.0,0.011059999997087287,0.08122999999856498
BufferedInputStream,0.5614288229533004,0.3845939074404213,0.05727680420548365,0.05394235298520743,1.057241887584413
BufferedOutputStream,0.0,0.0607096666644793,0.0,0.01020500000110284,0.07091466666558215
ByteArrayInputStream,0.0,0.037821333336372234,0.0,0.005489999998341469,0.0433113333347137
Charset,0.0,0.048891266667002733,0.0,0.0065484999996745785,0.05543976666667731
Class,0.09114585184768118,0.4406063777755157,0.017000555556377445,0.06467766666982142,0.6134304518493958
ClassLoader,0.30123389879308715,0.4628459727589693,0.0466341261979841,0.0616787718614045,0.8723927696114451
DataInputStream,0.0,0.06229604444451979,0.0,0.00938016666946674,0.07167621111398653
Date,0.03663369323703128,0.0,0.005835245397430582,0.0,0.04246893863446186
File,0.0,0.03859752380854583,0.0,0.006217142856690943,0.04481466666523677
FileInputStream,0.24222624012857508,0.347863059547006,0.026655944685697833,0.051438585668703185,0.6681838300299822
FileOutputStream,0.2651764591740149,3.17027824296782,0.013697396713188727,0.47675637542305993,3.925908474278083
Formatter,0.0,0.0,0.0,0.0,0.0
HashMap,0.0,0.2414904761906308,0.0,0.031039285718482763,0.27252976190911354
Hashtable,0.0,0.07761666666677533,0.0,0.00983000000026853,0.08744666666704386
Inflater,0.07491066666746822,6.13296079653408,0.013759999999213807,0.8809119526162762,7.1025434158170375
InheritableThreadLocal,0.0,0.07720933333378828,0.0,0.01072500000009313,0.08793433333388141
InputStreamReader,0.019760484300431168,0.0,0.0006834197740197098,0.0,0.02044390407445088
Integer,0.0,0.08030639841620947,0.0,0.011417094748773615,0.09172349316498309
JarVerifier,0.0,0.1324260000013358,0.0,0.015100000001742346,0.14752600000307817
LinkedHashMap$LinkedKeySet,0.0,0.078125,0.0,0.008190000000467991,0.08631500000046799
Manifest$FastInputStream,0.0,0.07684333333115015,0.0,0.010974999999840898,0.08781833333099105
Object,0.0861000000149943,0.0,0.006806666664488148,0.0,0.09290666667948244
Properties$LineReader,0.0,0.036881600000197065,0.0,0.005476000000877926,0.04235760000107499
ReferenceQueue,0.0,0.0,0.0,0.0,0.0
String,0.412972209697848,0.3885027711367972,0.037170473264247064,0.06632055108674179,0.9049660051856341
StringBuffer,0.08032233333021091,0.04064933333089963,0.0,0.006800000000415214,0.12777166666152576
System,0.06827799998184976,0.05110562786284323,0.005375000000640284,0.008241912780116932,0.1330005406254502
Throwable,0.28328517939907233,0.12920384067012314,0.031077454041244193,0.017905034897673373,0.461471509008113
UnixFileSystem,0.8253637489902759,1.6417789851763773,0.08530691629639414,0.21877015708831435,2.7712198075513617
WeakHashMap,0.0,0.008058725119608322,0.0,0.0010136208560167046,0.009072345975625028
ZipFile,0.9080935388294378,0.7865393032391533,0.07304590887846331,0.1163611580800331,1.8840399090270876
ZipFile$ZipEntryIterator,0.11870805146184046,0.0,0.013741455703147134,0.0,0.1324495071649876
ZipInputStream,0.0,0.052229866666796916,0.0,0.008783999999286606,0.06101386666608352
