method,package1,package2,dram1,dram2,energy
AbstractStringBuilder.getChars|StringBuffer.getChars|Signature.createCharArrayTypeSignature,0.07857266666057207,0.07851892589094092,0.010459999997692648,0.014879251418787594,0.18243084396799325
AccessController.doPrivileged|URLClassLoader.findClass|ClassLoader.loadClass,0.0,0.0,0.0,0.0,0.0
ArrayList.add|TextEdit.internalAdd|TextEdit.addChild,0.05923673612356205,0.0,0.004646908074718107,0.0,0.06388364419828016
Arrays.copyOfRange|String.<init>|String.substring,0.1936389894185622,0.09513333333355453,0.017332488768772154,0.017054999999042288,0.3231598115199312
Arrays.copyOf|AbstractStringBuilder.ensureCapacityInternal|AbstractStringBuilder.append,0.0793849444279825,0.0,0.006758131492096879,0.0,0.08614307592007937
Arrays.copyOf|ArrayList.grow|ArrayList.ensureExplicitCapacity,0.0,0.0743206666666083,0.0,0.01163999999941249,0.0859606666660208
Arrays.copyOf|Resource.getBytes|URLClassLoader.defineClass,0.0,0.0,0.0,0.0,0.0
Arrays.copyOf|String.concat|URLClassLoader$1.run,0.0,0.10585533333263204,0.0,0.012370000001586352,0.11822533333421839
BigInteger.oddModPow|BigInteger.modPow|RSACore.crypt,0.0,0.07017000000147769,0.0,0.011059999997087287,0.08122999999856498
BufferedInputStream.<init>|BufferedInputStream.<init>|Util.getZipEntryByteContent,0.42231470741573574,0.1549593518812849,0.04446150109022381,0.01883901965301316,0.6405745800402577
BufferedInputStream.read|DataInputStream.readInt|CodeAttribute.<init>,0.07901749924187271,0.08178722222308149,0.007631789138966601,0.012558333332385195,0.180994843936306
BufferedInputStream.read|DataInputStream.readUnsignedByte|ConstPool.readOne,0.0,0.08439133333498224,0.0,0.012304999998984082,0.09669633333396632
BufferedInputStream.read|DataInputStream.readUnsignedShort|DataInputStream.readUTF,0.0,0.0,0.0,0.0,0.0
BufferedInputStream.read|FilterInputStream.read|PushbackInputStream.read,0.0,0.06345600000107272,0.0,0.010240000000824995,0.07369600000189772
BufferedInputStream.read|Util.getInputStreamAsByteArray|Util.getZipEntryByteContent,0.060096616295691935,0.0,0.0051835139762932405,0.0,0.06528013027198518
BufferedOutputStream.write|Benchmark.fileFromInputStream|Benchmark.extractFileResource,0.0,0.0607096666644793,0.0,0.01020500000110284,0.07091466666558215
BufferedOutputStream.write|DataOutputStream.writeByte|StateWriter.writeVersionRange,0.0,0.0,0.0,0.0,0.0
ByteArrayInputStream.<init>|DerInputBuffer.<init>|DerInputStream.init,0.0,0.037821333336372234,0.0,0.005489999998341469,0.0433113333347137
Charset.lookupViaProviders|Charset.lookup2|Charset.lookup,0.0,0.048891266667002733,0.0,0.0065484999996745785,0.05543976666667731
Class.forName0|Class.forName|AbstractCharsetProvider.lookup,0.0,0.041086966666625806,0.0,0.00576800000029228,0.04685496666691809
Class.forName0|Class.forName|Eclipse.<init>,0.0,0.039483111110813394,0.0,0.004546666666606648,0.044029777777420044
Class.forName0|Class.forName|FastCharsetProvider.lookup,0.0,0.041086966666625806,0.0,0.00576800000029228,0.04685496666691809
Class.forName0|Class.forName|MethodDeclaration.<clinit>,0.039225185177875335,0.0,0.007355555555679731,0.0,0.046580740733555066
Class.forName0|Class.forName|OIDMap$OIDInfo.getClazz,0.0,0.10144033333199333,0.0,0.01650000000032984,0.11794033333232318
Class.forName0|Class.forName|PackageDeclaration.<clinit>,0.05192066666980584,0.0,0.009645000000697715,0.0,0.061565666670503554
Class.forName0|Class.forName|Provider$Service.getImplClass,0.0,0.08726000000024214,0.0,0.010940000002544062,0.09820000000278621
Class.getDeclaredConstructors0|Class.privateGetDeclaredConstructors|Class.getConstructor0,0.0,0.06323233333387179,0.0,0.010160000000420649,0.07339233333429244
Class.getResourceAsStream|ClassClassPath.openClassfile|ClassPoolTail.openClassfile,0.0,0.06701666666534341,0.0,0.010994999999335656,0.07801166666467907
ClassLoader.defineClass1|ClassLoader.defineClass|DefaultClassLoader.defineClass,0.30123389879308715,0.30266897275861443,0.0466341261979841,0.03834877186262996,0.6888857696123157
ClassLoader.defineClass1|ClassLoader.defineClass|SecureClassLoader.defineClass,0.0,0.16017700000035495,0.0,0.023329999998774532,0.18350699999912948
DataInputStream.readUnsignedShort|DataInputStream.readUTF|DataInputStream.readUTF,0.0,0.036881600000197065,0.0,0.005476000000877926,0.04235760000107499
DataInputStream.readUnsignedShort|NameAndTypeInfo.<init>|ConstPool.readOne,0.0,0.02541444444432273,0.0,0.0039041666685888134,0.029318611112911543
Date.normalize|Date.toString|Properties.store0,0.03663369323703128,0.0,0.005835245397430582,0.0,0.04246893863446186
File.getName|LocalFile.fetchInfo|FileStore.fetchInfo,0.0,0.03859752380854583,0.0,0.006217142856690943,0.04481466666523677
FileInputStream.<init>|EclipsePreferences.loadProperties|EclipsePreferences.load,0.0,0.06631914285701765,0.0,0.009424285715795122,0.07574342857281277
FileInputStream.close0|FileInputStream.access$000|FileInputStream$1.close,0.0,0.12898525002393063,0.0,0.02103858566749912,0.15002383569142974
FileInputStream.close|DiskIndex.readDocumentName|EntryResult.getDocumentNames,0.07821804840172185,0.0,0.011260194685696943,0.0,0.0894782430874188
FileInputStream.open0|FileInputStream.open|FileInputStream.<init>,0.16400819172685324,0.028413333333446644,0.015395750000000891,0.003125714286441161,0.21094298934674194
FileInputStream.readBytes|FileInputStream.read|FilterInputStream.read,0.0,0.12414533333261107,0.0,0.017849999998967782,0.14199533333157885
FileOutputStream.close0|FileOutputStream.access$000|FileOutputStream$1.close,0.0,0.066060666666696,0.0,0.011000000001028336,0.07706066666772433
FileOutputStream.open0|FileOutputStream.open|FileOutputStream.<init>,0.044189666669505336,0.5370966937756024,0.0059099999998579724,0.08385341747538172,0.6710497779203475
FileOutputStream.writeBytes|FileOutputStream.write|BufferedOutputStream.flushBuffer,0.0,1.3469172999985555,0.0,0.1836467142979451,1.5305640142965005
FileOutputStream.writeBytes|FileOutputStream.write|BufferedOutputStream.write,0.0,0.07586633333388211,0.0,0.011759999998806355,0.08762633333268846
FileOutputStream.writeBytes|FileOutputStream.write|DiskIndex.initialize,0.03558688469936257,0.0645332733802418,0.00647339671523857,0.009647394507249071,0.116240949302092
FileOutputStream.writeBytes|FileOutputStream.write|DiskIndex.writeDocumentNumbers,0.0,0.11802166666651223,0.0,0.016625000001416385,0.13464666666792863
FileOutputStream.writeBytes|FileOutputStream.write|DiskIndex.writeStreamChars,0.185399907805147,0.2715934361285399,0.0013139999980921854,0.04898013484920191,0.507287478780981
FileOutputStream.writeBytes|FileOutputStream.write|StreamEncoder.writeBytes,0.0,0.0,0.0,0.0,0.0
FileOutputStream.writeBytes|FileOutputStream.write|Util.unzip,0.0,0.6766914444463002,0.0,0.10947800000657378,0.7861694444528741
FileOutputStream.write|FileOutputStream.write|TeeOutputStream.write,0.0,0.013497428571489372,0.0,0.0017657142854572848,0.015263142856946656
Formatter.parse|Formatter.format|Formatter.format,0.0,0.0,0.0,0.0,0.0
HashMap.getNode|HashMap.get|JavaModelCache.peekAtInfo,0.0,0.06907166666739309,0.0,0.007484999999481563,0.07655666666687465
HashMap.getNode|HashMap.get|LaunchingPlugin.getLibraryInfo,0.0,0.06631914285701765,0.0,0.009424285715795122,0.07574342857281277
HashMap.reinitialize|HashMap.clone|BuildCommand.getArguments,0.0,0.10609966666622007,0.0,0.014130000003206078,0.12022966666942615
Hashtable.<init>|Hashtable.<init>|LRUCache.<init>,0.0,0.07761666666677533,0.0,0.00983000000026853,0.08744666666704386
Inflater.inflateBytes|Inflater.inflate|InflaterInputStream.read,0.07491066666746822,6.072179963201074,0.013759999999213807,0.870578619283263,7.031429249151018
Inflater.needsInput|InflaterInputStream.read|ZipInputStream.read,0.0,0.06078083333300634,0.0,0.01033333333301319,0.07111416666601952
InheritableThreadLocal.createMap|ThreadLocal.setInitialValue|ThreadLocal.get,0.0,0.07720933333378828,0.0,0.01072500000009313,0.08793433333388141
InputStreamReader.<init>|Util.getInputStreamAsCharArray|Util.getResourceContentsAsCharArray,0.019760484300431168,0.0,0.0006834197740197098,0.0,0.02044390407445088
Integer.parseInt|NLS.internalBind|NLS.bind,0.0,0.08030639841620947,0.0,0.011417094748773615,0.09172349316498309
JarVerifier.update|JarVerifier$VerifierStream.read|Resource.getBytes,0.0,0.1324260000013358,0.0,0.015100000001742346,0.14752600000307817
LinkedHashMap$LinkedKeySet.iterator|HashSet.iterator|AbstractCollection.toArray,0.0,0.078125,0.0,0.008190000000467991,0.08631500000046799
Manifest$FastInputStream.peek|Manifest.read|SignatureFileVerifier.processImpl,0.0,0.07684333333115015,0.0,0.010974999999840898,0.08781833333099105
Object.hashCode|SimpleLookupTable.put|MatchingNodeSet.addTrustedMatch,0.03735333333800857,0.0,0.005626666665193625,0.0,0.04298000000320219
Object.hashCode|WeakHashMap.hash|WeakHashMap.put,0.04874666667698572,0.0,0.0011799999992945231,0.0,0.04992666667628024
Properties$LineReader.readLine|Properties.load0|Properties.load,0.0,0.036881600000197065,0.0,0.005476000000877926,0.04235760000107499
ReferenceQueue.reallyPoll|ReferenceQueue.poll|WeakHashSet.cleanupGarbageCollectedValues,0.0,0.0,0.0,0.0,0.0
String.<init>|String.substring|Index.containerRelativePath,0.025553333330511425,0.0,0.0,0.0,0.025553333330511425
String.charAt|Util.splitOn|JarPackageFragmentRoot.initRawPackageInfo,0.05191486806352267,0.0,0.003614820190155996,0.0,0.05552968825367866
String.compareTo|Util.quickSort|Util.quickSort,0.0,0.07674933891557592,0.0,0.014547684002621956,0.09129702291819788
String.equals|ImmutableMap$ArrayMap.get|EclipsePreferences.internalGet,0.0,0.0648418068523521,0.0,0.011964834326594913,0.076806641178947
String.format|Chaperone.main|end.end,0.0,0.0,0.0,0.0,0.0
String.hashCode|Hashtable.get|NameLookup.findSecondaryType,0.05478655153142675,0.0,0.004981416304210262,0.0,0.059767967835637016
String.hashCode|HashtableOfArrayToObject.hashCode|HashtableOfArrayToObject.getKey,0.0,0.0,0.0,0.0,0.0
String.hashCode|Path.computeHashCode|Path.initialize,0.0,0.0645332733802418,0.0,0.009647394507249071,0.07418066788749086
String.indexOf|String.indexOf|File.isInvalid,0.06748437548507867,0.0,0.00495870209899853,0.0,0.0724430775840772
String.lastIndexOf|String.lastIndexOf|NameLookup.seekTypesInSourcePackage,0.09421054478938697,0.0,0.01165367320488988,0.0,0.10586421799427684
String.length|DiskIndex.writeAllDocumentNames|DiskIndex.mergeWith,0.0,0.07419866666411204,0.0,0.012345000002824236,0.08654366666693628
String.length|Index.containerRelativePath|SearchDocument.getContainerRelativePath,0.03908686982945983,0.050908351993214966,0.005061861465678076,0.0083306382475626,0.10338772153591548
String.startsWith|String.startsWith|MetaIndex.mayContain,0.0,0.0,0.0,0.0,0.0
String.substring|DiskIndex.readChunk|DiskIndex.readDocumentName,0.05173766667333742,0.0,0.006900000000314321,0.0,0.058637666673651744
String.substring|Index.containerRelativePath|SearchDocument.getContainerRelativePath,0.0,0.05727133333130041,0.0,0.009484999999889016,0.06675633333118942
String.toLowerCase|String.toLowerCase|FileSpec.getMappingKeyFor,0.028197999995124214,0.0,0.0,0.0,0.028197999995124214
StringBuffer.getChars|Signature.createCharArrayTypeSignature|BinaryIndexer.extractArgCount,0.08032233333021091,0.04064933333089963,0.0,0.006800000000415214,0.12777166666152576
System.arraycopy|CharOperation.concat|HierarchyBinaryType.<init>,0.06827799998184976,0.0,0.005375000000640284,0.0,0.07365299998249004
System.arraycopy|Parser.dispatchDeclarationInto|Parser.consumeClassDeclaration,0.0,0.05110562786284323,0.0,0.008241912780116932,0.05934754064296016
Throwable.fillInStackTrace|Throwable.fillInStackTrace|Throwable.<init>,0.28328517939907233,0.12920384067012314,0.031077454041244193,0.017905034897673373,0.461471509008113
UnixFileSystem.createDirectory|File.mkdir|File.mkdirs,0.0,0.16170200000245433,0.0,0.019635000001774944,0.18133700000422928
UnixFileSystem.createFileExclusively|File.createNewFile|DiskIndex.initialize,0.0,0.04898725989507285,0.0,0.005921805446134975,0.05490906534120782
UnixFileSystem.delete0|UnixFileSystem.delete|File.delete,0.18123772491635698,0.5187383333395701,0.020962833045729906,0.07229499999812104,0.7932338912997781
UnixFileSystem.getBooleanAttributes0|UnixFileSystem.getBooleanAttributes|File.exists,0.06654589759455784,0.44293233332912973,0.007565173195776308,0.05650999999488703,0.573553404114351
UnixFileSystem.getBooleanAttributes0|UnixFileSystem.getBooleanAttributes|File.isDirectory,0.0,0.14113333333322467,0.0,0.01838500000061079,0.15951833333383547
UnixFileSystem.getLastModifiedTime|File.lastModified|LocalFile.fetchInfo,0.0,0.10723890476115877,0.0,0.015591428572190036,0.1228303333333488
UnixFileSystem.getLastModifiedTime|File.lastModified|ZipFile.<init>,0.06802493333583698,0.0,0.010291799999346646,0.0,0.07831673333518363
UnixFileSystem.getLength|File.length|LocalFile.fetchInfo,0.0642570412314631,0.0,0.007817013918927255,0.0,0.07207405515039035
UnixFileSystem.getLength|File.length|Util.getResourceContentsAsCharArray,0.3879831042859989,0.0,0.029572381849629056,0.0,0.417555486135628
UnixFileSystem.list|File.list|LocalFile.childNames,0.0,0.1602968205140011,0.0,0.021026923075110875,0.18132374358911196
UnixFileSystem.normalize|File.<init>|Path.toFile,0.05731504762606208,0.0,0.009097714286984963,0.0,0.06641276191304704
UnixFileSystem.resolve|File.<init>|URLClassPath$FileLoader.getResource,0.0,0.06075000000176563,0.0,0.00940499999948467,0.0701550000012503
WeakHashMap.remove|ZipFile$ZipFileInflaterInputStream.close|BufferedInputStream.close,0.0,0.008058725119608322,0.0,0.0010136208560167046,0.009072345975625028
ZipFile$ZipEntryIterator.next|ZipFile$ZipEntryIterator.nextElement|ZipFile$ZipEntryIterator.nextElement,0.11870805146184046,0.0,0.013741455703147134,0.0,0.1324495071649876
ZipFile.freeEntry|ZipFile.access$1000|ZipFile$ZipEntryIterator.next,0.09296751112172691,0.0,0.0073546666710171855,0.0,0.10032217779274409
ZipFile.freeEntry|ZipFile.access$1000|ZipFile$ZipFileInputStream.close,0.04807533334436205,0.0,0.0011799999992945231,0.0,0.049255333343656574
ZipFile.getEntryBytes|ZipFile.getZipEntry|ZipFile.access$900,0.04350504486122081,0.0,0.0004817923364489745,0.0,0.043986837197669784
ZipFile.getEntry|ZipFile.getInputStream|Util.getZipEntryByteContent,0.06583515747712297,0.0,0.0066664611642587145,0.0,0.07250161864138169
ZipFile.getNextEntry|ZipFile.access$500|ZipFile$ZipEntryIterator.next,0.14848922348729773,0.12298268319917488,0.0051086549813385744,0.019897412743929796,0.29647797441174095
ZipFile.getZipEntry|ZipFile.getEntry|JarFile.getEntry,0.0,0.0,0.0,0.0,0.0
ZipFile.open|ZipFile.<init>|ZipFile.<init>,0.0,0.11065231565785666,0.0,0.01716584796899575,0.12781816362685242
ZipFile.read|ZipFile.access$1400|ZipFile$ZipFileInputStream.read,0.5092212685377074,0.5529043043821218,0.05225433372610533,0.07929789736710756,1.1936778040130422
ZipInputStream.readLOC|ZipInputStream.getNextEntry|Util.unzip,0.0,0.052229866666796916,0.0,0.008783999999286606,0.06101386666608352
