method,package1,package2,dram1,dram2,energy
AST.preAddChildEvent,0.10778799999388866,0.0,0.00826000000233762,0.0,0.11604799999622628
ASTConverter.setQualifiedNameNameAndSourceRanges,0.07895899999615115,0.0,0.004779999998087685,0.0,0.08373899999423884
ASTNode.<init>,0.033201055569354335,0.0,0.0009718488296926848,0.0,0.03417290439904702
ASTNode.postValueChange,0.08386233334507172,0.0,0.007480000000214205,0.0,0.09134233334528592
AbstractCommentParser.parseThrows,0.1294963333348278,0.0,0.009824999998575851,0.0,0.13932133333340366
AbstractCommentParser.readChar,0.15457654883879002,0.0,0.012241926820959346,0.0,0.16681847565974936
AbstractCommentParser.readToken,0.06622408791686386,0.0,0.004523209474382108,0.0,0.07074729739124597
AbstractCommentParser.updateLineEnd,0.04420564926432826,0.0,0.0011598558176039026,0.0,0.04536550508193216
AbstractDOMParser.startDocument,0.0,0.07570073884501424,0.0,0.012028484051479705,0.08772922289649394
AbstractDataTreeNode.indexOfChild,0.11152319999411699,0.08741067930666173,0.010502399997785686,0.013792508754136169,0.22322878805270058
AbstractIndexer.addConstructorDeclaration,0.06871805132846265,0.04035639999929117,0.004597931006983007,0.007847999999648891,0.12152038233438571
AbstractIndexer.addIndexEntry,0.047647999997328334,0.0,0.0054599999978866744,0.0,0.05310799999521501
AbstractSAXParser.setErrorHandler,0.0,0.07368843535442073,0.0,0.012250866778818065,0.08593930213323879
AbstractStringBuilder.ensureCapacityInternal,0.0656775757582209,0.0,0.0042909090927533925,0.0,0.0699684848509743
AbstractStringBuilder.getChars,0.1840668333194723,0.0,0.011024999996152472,0.0,0.19509183331562477
AddJarFileToIndex.execute,0.05543123995768407,0.0,0.003409289298853491,0.0,0.058840529256537565
AnnotationInfo.readTargetValue,0.0,0.0,0.0,0.0,0.0
ArrayDeque.pollFirst,0.06326097137684468,0.0,0.0055545745082105314,0.0,0.06881554588505522
ArrayList.add,0.0,0.03645833333333333,0.0,0.006050000001171914,0.042508333334505245
Arrays.copyOf,0.09139600000344217,0.058390000003176575,0.006698571426178594,0.014854999998836622,0.17133957143163397
Arrays.copyOfRange,0.36502381023892433,0.0,0.03067672699218264,0.0,0.395700537231107
AttributeInfo.<init>,0.0,0.0,0.0,0.0,0.0
BinaryIndexer.addTypeReference,0.05939295755877125,0.0,0.004458447916147593,0.0,0.06385140547491884
BinaryIndexer.decodeParameterTypes,0.10847748167437982,0.0,0.008250836464625079,0.0,0.11672831813900489
BinaryIndexer.decodeReturnType,0.12773953283823905,0.0,0.009432054824602285,0.0,0.13717158766284132
BinaryIndexer.extractArgCount,0.1912856136724803,0.0,0.013392834844611037,0.0,0.20467844851709133
BinaryIndexer.extractClassName,0.17145136474379763,0.05418171428651215,0.013559107436058631,0.012745714286990862,0.25193790075335926
BinaryIndexer.extractName,0.07314795833735843,0.07168845833348314,0.008281875000344977,0.015592500000821019,0.16871079167200756
BinaryIndexer.extractReferenceFromConstantPool,0.24950036391187952,0.13795106666754386,0.02214241222945311,0.025781000001491822,0.4353748428103683
BinaryIndexer.extractType,0.2292750560831244,0.0,0.018228452128480708,0.0,0.2475035082116051
BinaryIndexer.indexDocument,0.5879191033770657,0.21500633333683555,0.04206773535284896,0.05254999999791228,0.8975431720646624
BinaryIndexer.replace,0.1248779999926531,0.0,0.009520000002036491,0.0,0.1343979999946896
BreakStatement.<clinit>,0.16695436781630904,0.0,0.01311655172438564,0.0,0.18007091954069468
BufferedInputStream.<init>,0.3531907196539838,0.1771196904751161,0.026965721424475276,0.03844125000354584,0.595717381557121
BufferedInputStream.close,0.0512493333274809,0.0,0.0011600000022250847,0.0,0.05240933332970598
BufferedInputStream.read,0.004618423341162901,0.26725053381603514,0.0003651569012121168,0.037990329175970075,0.31022444323438025
BufferedInputStream.read1,0.18050239949402047,0.0,0.015483693899214767,0.0,0.19598609339323525
BufferedOutputStream.write,0.0,0.07218044425886412,0.0,0.010706713445229232,0.08288715770409336
BufferedReader.ensureOpen,0.0,0.0448665871781155,0.0,0.006926286618964975,0.051792873797080474
BufferedReader.read,0.05170749902995979,0.0,0.00405885952668297,0.0,0.05576635855664276
BuildManager$1.<init>,0.0,0.015089222221932787,0.0,0.0007666666667015912,0.01585588888863438
BundleDescriptionImpl.addDependency,0.0,0.0,0.0,0.0,0.0
BundleDescriptionImpl.getSymbolicName,0.0,0.03310108998728559,0.0,0.0042926711335611965,0.03739376112084678
BundleHost.createContext,0.0,0.07175668290149798,0.0,0.010750356616382423,0.0825070395178804
CalendarSystem.<clinit>,0.0,0.04481559241022556,0.0,0.003574862445862761,0.048390454856088325
CertificateExtensions.<init>,0.0,0.03943449637776957,0.0,0.003134323460018461,0.042568819837788034
Chaperone.retire,0.0,0.0,0.0,0.0,0.0
CharLiteral.computeValue,0.07055383372482747,0.0,0.005295534541950402,0.0,0.07584936826677788
CharOperation.concat,0.1268233358151571,0.0356749166667214,0.006354483527823799,0.008128749999438394,0.17698148600914068
CharOperation.concatWith,0.033201055569354335,0.0,0.0009718488296926848,0.0,0.03417290439904702
CharOperation.equals,2.1858189654562037,0.24937198095133112,0.1678231490914911,0.050015714286737845,2.653029809785764
CharOperation.hashCode,3.7666255608675225,0.2752417676598055,0.30088497861284924,0.05120812523285295,4.393960432373031
CharOperation.indexOf,0.18872066668700427,0.06819666666706325,0.014259999998709342,0.017479999999826152,0.288657333352603
CharOperation.lastIndexOf,0.09471354921919549,0.0,0.0034748894732612406,0.0,0.09818843869245673
CharOperation.lastSegment,0.04758699999850553,0.0,0.0035849999985657632,0.0,0.051171999997071296
CharOperation.prefixEquals,0.12691233334286758,0.0,0.01179499999610319,0.0,0.13870733333897078
CharOperation.replace,0.0,0.04722342322696257,0.0,0.009316235702858113,0.05653965892982068
CharOperation.replaceOnCopy,0.04905199999726998,0.0,0.0012000000012145995,0.0,0.05025199999848458
CharOperation.splitOn,0.20043052061783792,0.0,0.0190849749619822,0.0,0.2195154955798201
CharOperation.subarray,0.16206447100611104,0.0,0.008732697426813488,0.0,0.17079716843292453
Character.toLowerCase,0.0,0.0,0.0,0.0,0.0
Class.forName0,0.0,0.05487645064631965,0.0,0.00798184040655927,0.06285829105287892
Class.getDeclaredConstructors0,0.0,0.04481559241022556,0.0,0.003574862445862761,0.048390454856088325
ClassFileReader.<init>,0.30237089556550983,0.0,0.022133892597304108,0.0,0.3245047881628139
ClassFileReader.getConstantClassNameAt,0.0421390264092118,0.06612166666794413,0.0028788239039621503,0.012355000001358954,0.12349451698247703
ClassFileReader.getMemberTypes,0.04593899998387011,0.0,0.003579999999298403,0.0,0.04951899998316851
ClassFileStruct.<init>,0.04823618540176262,0.0,0.004043849082832831,0.0,0.05228003448459545
ClassFileStruct.u1At,0.1782607916514583,0.0,0.012365000005653808,0.0,0.1906257916571121
ClassFileStruct.u2At,0.4589554169704785,0.034545999997395216,0.03468043496613137,0.007367142856570094,0.5355489947905752
ClassFileStruct.utf8At,1.4675910324613508,0.28267820000182836,0.10843192003500185,0.05173799999853751,1.9104391524967186
ClassLoader.defineClass1,0.275803315279765,0.7966467284933483,0.021097170542766806,0.11185079302538366,1.2053980073412636
ClasspathJar.findPackageSet,0.0,0.08140066666722608,0.0,0.01863500000035856,0.10003566666758464
CodeFormatterVisitor.<init>,0.0,0.07451674456274282,0.0,0.010619664012824895,0.08513640857556772
CodeFormatterVisitor.visit,0.0,0.15292219081977282,0.0,0.024917733963748877,0.1778399247835217
CompilationUnitResolver.resolve,0.08254000001276532,0.0,0.007880000002235949,0.0,0.09042000001500126
CompilationUnitScope.connectTypeHierarchy,0.0,0.09122928854519947,0.0,0.01586879295092371,0.10709808149612318
CompletionEngine.acceptTypes,0.0,0.043218045248311805,0.0,0.007443489508778978,0.05066153475709079
CompletionEngine.reset,0.0,0.025885983475534783,0.0,0.005464183059660743,0.031350166535195526
CompletionParser.consumeToken,0.10591633332660423,0.0,0.008839999997386862,0.0,0.1147563333239911
CompletionParser.createJavadocParser,0.10591633332660423,0.0,0.008839999997386862,0.0,0.1147563333239911
CompletionParser.initializeScanner,0.06473800000579406,0.0,0.007095000000845175,0.0,0.07183300000663924
CompletionScanner.getNextToken,0.0,0.08235927238555253,0.0,0.016504960183707403,0.09886423256925994
ConfigFile.<init>,0.0,0.043253135677397365,0.0,0.0070143322170088535,0.05026746789440622
ConstPool.getUtf8Info,0.0,0.02297843331819512,0.0,0.003557549863965258,0.026535983182160376
ConstPool.readOne,0.0,0.047583453534138974,0.0,0.004331794710688178,0.051915248244827156
ConstantPool.literalIndex,0.05619300001611312,0.0,0.005684999998872323,0.0,0.06187800001498544
ConstructorLocator.resolveLevel,0.05792991999536753,0.0,0.005241599997971206,0.0,0.06317151999333874
ContentType.getAliasTarget,0.033735846485672814,0.0,0.00048532251413889416,0.0,0.03422116899981171
DataInputStream.readUnsignedShort,0.0,0.0,0.0,0.0,0.0
DataOutputStream.writeInt,0.0,0.0,0.0,0.0,0.0
DefaultCodeFormatter.formatCompilationUnit,0.0,0.06785864738375913,0.0,0.010295114517771866,0.07815376190153099
DeltaDataTree.lookup,0.06328110001632012,0.0,0.005638499996712198,0.0,0.06891960001303232
DerInputBuffer.getBigInteger,0.0,0.06664550449071531,0.0,0.01033406870085958,0.07697957319157489
DerInputBuffer.getTime,0.0,0.047583453534138974,0.0,0.004331794710688178,0.051915248244827156
DiskIndex$IntList.add,0.5800790770385564,0.0,0.05429818979794962,0.0,0.6343772668365061
DiskIndex$IntList.asArray,0.12784750361566322,0.0,0.008994958398597555,0.0,0.13684246201426076
DiskIndex.addQueryResults,0.8445769363127245,0.11325527505465706,0.06703622479238258,0.023526093991044286,1.0483945301508082
DiskIndex.computeDocumentNames,0.042633519049956964,0.0,0.0005704667952066157,0.0,0.04320398584516358
DiskIndex.copyQueryResults,0.865137195892716,0.0,0.07055995550794779,0.0,0.9356971514006638
DiskIndex.readStreamChars,0.22449849893064122,0.04543835292983706,0.02071519048806847,0.00893023505924285,0.2995822774077896
DiskIndex.writeAllDocumentNames,0.07546000001214755,0.0,0.005980000001727603,0.0,0.08144000001387515
DiskIndex.writeCategoryTable,1.2855125031999688,0.0,0.12206549342183057,0.0,1.4075779966217994
DiskIndex.writeDocumentNumbers,0.05270469325321607,0.0,0.00674692872749229,0.0,0.05945162198070836
DiskIndex.writeStreamChars,2.2719633479548866,0.0,0.20974432409067753,0.0,2.481707672045564
Expression.<init>,0.09612243784814342,0.0,0.003438969733559207,0.0,0.09956140758170264
File.<init>,0.0,0.13121549287848736,0.0,0.020783676380403293,0.15199916925889065
File.exists,0.0,0.06376142508644919,0.0,0.008845533219731135,0.07260695830618033
File.isHidden,0.0,0.0,0.0,0.0,0.0
FileInfo.exists,0.0,0.05912756928859325,0.0,0.006494338136803638,0.06562190742539689
FileInputStream.available0,0.08578064951995469,0.0,0.007933335203497384,0.0,0.09371398472345208
FileInputStream.close0,0.0902099999851392,0.0,0.004719999999603411,0.0,0.09492999998474262
FileInputStream.open0,0.1327203389079951,0.08679932982235478,0.0076202237815161476,0.017439838351370685,0.2445797308632367
FileInputStream.readBytes,0.3339341363645553,0.43098293170246516,0.03221789910343471,0.05975251281155808,0.8568874799820134
FileInputStream.skip0,0.0,0.07575713822496871,0.0,0.015049224190073419,0.09080636241504213
FileOutputStream.close0,0.18229644593744843,0.18988383122780728,0.01734368940615125,0.032080881569562375,0.4216048481409693
FileOutputStream.open0,0.0,0.43116174017527154,0.0,0.07115362251848283,0.5023153626937543
FileOutputStream.write,0.0,0.01636411111071033,0.0,0.0016649999993710984,0.01802911111008143
FileOutputStream.writeBytes,0.6598958385437231,1.9149723517057162,0.06123574048349457,0.26133759625837805,2.8974415269913116
FileSystemResourceManager.descriptionChanged,0.0,0.04029542211565746,0.0,0.008677230074321092,0.04897265218997855
FilterImpl.match,0.0,0.04839512258527951,0.0,0.006666773999374,0.05506189658465351
Finalizer.<init>,0.0,0.040873333331546746,0.0,0.010265000002012432,0.051138333333559174
HashMap.getNode,0.0,0.30224973157233787,0.0,0.0563081089547592,0.35855784052709705
HashMap.hash,0.09265133333974518,0.0,0.007994999999937136,0.0,0.10064633333968231
HashMap.newNode,0.0,0.05799730700729951,0.0,0.00929383377810938,0.06729114078540889
HashMap.put,0.0405192666771149,0.0,0.004770999998759685,0.0,0.04529026667587458
Hashtable.<init>,0.0,0.035006601382989486,0.0,0.003873250519663525,0.03887985190265301
Hashtable.get,0.1714273333394279,0.10674356841301533,0.01643500000257821,0.020215171674587654,0.314821073429609
HashtableOfArrayToObject.hashCode,0.0,0.0601326478405298,0.0,0.008512458634042984,0.06864510647457278
HashtableOfObject.<init>,0.07409175676689109,0.0,0.007438892400131652,0.0,0.08153064916702274
HashtableOfObject.get,3.6121388669572823,0.0705159999973451,0.31931182509194284,0.01224500000049981,4.014211692047071
HashtableOfObject.put,1.1038203733651855,0.13072269223992297,0.101366233653576,0.02203984467855324,1.3579491439372378
HashtableOfObject.rehash,0.3471707215666905,0.0,0.02723279201506964,0.0,0.3744035135817601
HookRegistry.mergeFileHookConfigurators,0.0,0.08583181222580433,0.0,0.011229984097876105,0.09706179632368044
Index.addIndexEntry,0.04508986329338538,0.0,0.0019964752973405365,0.0,0.04708633859072592
Index.isMatch,0.0,0.08394900457393621,0.0,0.017644856033950173,0.10159386060788639
IndexManager.getSourceElementParser,0.11776498987348405,0.0,0.015388996271632356,0.0,0.1331539861451164
IndexManager.removeIndex,0.0,0.046376411814181256,0.0,0.008413759448280874,0.054790171262462134
IndexManager.saveIndex,0.15729607124302686,0.0,0.00966049742782705,0.0,0.1669565686708539
Inflater.inflate,0.0,0.1389173220771532,0.0,0.017367012421912707,0.15628433449906592
Inflater.inflateBytes,0.48009958631531097,4.6700296427917,0.04021007473647285,0.6718070909043556,5.86214639474784
Inflater.needsDictionary,0.0,0.12288350704327838,0.0,0.017652357355491005,0.1405358643987694
JarFile.getManifestFromReference,0.0,0.016021425686704012,0.0,0.002597486864933582,0.018618912551637595
JarFile.match,0.0,0.042292358646536,0.0,0.005067755771953472,0.047360114418489474
JarPackageFragmentRoot.equals,0.0698997619079559,0.0,0.00889571428394577,0.0,0.07879547619190166
JavaCore.start,0.0,0.08974651507080107,0.0,0.019997409186424748,0.10974392425722582
JavaModelManager$PerProjectInfo.rememberExternalLibTimestamps,0.058105333329876885,0.0,0.006910000003699679,0.0,0.06501533333357656
JavaModelStatus.<init>,0.10036200000710474,0.0,0.007860000000315873,0.0,0.10822200000742062
JavaProject.findType,0.0,0.04736434690939313,0.0,0.005208752704327982,0.052573099613721114
JavaSearchScope.indexOf,0.16447263999842104,0.0,0.014400000001769513,0.0,0.17887264000019057
JavadocParser.updateDocComment,0.12108262069389525,0.0,0.011180689653726936,0.0,0.13226331034762218
JavadocTagConstants.<clinit>,0.026602284050041176,0.0,0.002168435109439777,0.0,0.028770719159480953
JobManager.run,0.13171796929934318,0.0,0.006325383090006435,0.0,0.13804335238934962
Literal.<init>,0.1285082304855188,0.0,0.008785218282214572,0.0,0.13729344876773336
LocalFile.fetchInfo,0.0,0.07790933294701625,0.0,0.00962918884991918,0.08753852179693544
LocalFile.openInputStream,0.04346615890633264,0.0,0.0019059303794922511,0.0,0.04537208928582489
LocalFile.toString,0.0,0.029480471294937933,0.0,0.0044388702580678225,0.03391934155300576
LookupEnvironment.createBinaryTypeFrom,0.11592599999858065,0.0,0.009999999999611948,0.0,0.1259259999981926
LookupEnvironment.getCachedType,0.04638657142641023,0.0,0.004007142856218187,0.0,0.05039371428262841
LookupEnvironment.getType,0.0,0.04767411929201423,0.0,0.007982988731814548,0.05565710802382878
ManifestDigester.findSection,0.0,0.0595463455995396,0.0,0.008852489819974945,0.06839883541951454
MarkerManager$3.visitElement,0.0,0.01592344444523203,0.0,0.0015650000002804315,0.017488444445512463
MarkerReader_3.read,0.0,0.051933394825080734,0.0,0.006830686816765096,0.05876408164184583
MatchLocator.parseAndBuildBindings,0.07608295473970887,0.0,0.004539873326025976,0.0,0.08062282806573484
MemoryIndex.addIndexEntry,0.19475069982727686,0.0,0.008800091661179748,0.0,0.20355079148845662
MethodInfo.readExceptionAttributes,0.05440266666118987,0.0,0.004180000001118363,0.0,0.058582666662308235
NameLookup.findPackageFragments,0.0,0.054125580880567715,0.0,0.009374460025365504,0.06350004090593322
NamespaceSupport.<init>,0.0,0.07901250461148833,0.0,0.010806496875605415,0.08981900148709375
NodeIDMap.hashFor,0.0,0.16957273323858765,0.0,0.03987615718005727,0.20944889041864492
NotificationManager.<init>,0.0,0.04608610034460404,0.0,0.00667214402248111,0.05275824436708515
NullProgressMonitor.<init>,0.0,0.0,0.0,0.0,0.0
Object.<init>,0.0,0.05198198838611691,0.0,0.01250478037197687,0.06448676875809378
Object.hashCode,0.22674965905096378,0.0,0.018380778760974634,0.0,0.2451304378119384
Object.notifyAll,0.035150738052002965,0.0,0.0011163578254981686,0.0,0.03626709587750113
OrderedLock.setCurrentOperationThread,0.0,0.07757866324374046,0.0,0.011261468867763776,0.08884013211150424
PackageBinding.getType,0.09763566667485672,0.0,0.009559999998600688,0.0,0.10719566667345741
Parser.consumeBlock,0.11858463512309418,0.0,0.006717343205719383,0.0,0.12530197832881357
Parser.consumeCastExpressionWithPrimitiveType,0.0,0.0768538342336909,0.0,0.01564120646060454,0.09249504069429543
Parser.consumeDefaultModifiers,0.06314667117068287,0.0,0.006943601737066379,0.0,0.07009027290774925
Parser.consumeMethodInvocationPrimary,0.0392393499812715,0.0,0.0005692178676486094,0.0,0.03980856784892011
Parser.consumeRule,1.4920991818410243,0.06817776484934558,0.11873304588140607,0.01226236226650481,1.6912723548382806
Parser.consumeStaticOnly,0.04508986329338538,0.0,0.0019964752973405365,0.0,0.04708633859072592
Parser.consumeToken,0.24802329755117897,0.0,0.021394204768714148,0.0,0.26941750231989314
Parser.consumeTypeArgumentList3,0.05473256985338907,0.0,0.0040416462823462925,0.0,0.058774216135735365
Parser.getUnspecifiedReferenceOptimized,0.07747400001001854,0.0,0.004704999999376014,0.0,0.08217900000939456
Parser.initTables,0.11406667927412492,0.0,0.00952895819316451,0.0,0.12359563746728944
Parser.initialize,0.2237864264750118,0.0,0.024025504622896612,0.0,0.2478119310979084
Parser.parse,1.3250721297538437,0.0,0.07643214496478104,0.0,1.4015042747186248
Parser.pushIdentifier,0.14148926696731273,0.0,0.011288899946642839,0.0,0.15277816691395557
Parser.pushOnExpressionStack,0.02802952954920737,0.0,0.0009122351508892766,0.0,0.02894176470009665
Parser.pushOnIntStack,0.14510099999218554,0.0,0.011945000000802487,0.0,0.15704599999298802
Parser.readTable,0.06287886828355968,0.0,0.005473920895146717,0.0,0.0683527891787064
Parser.tAction,0.3352209304976838,0.0,0.029682975598498706,0.0,0.3649039060961825
Path.computeHashCode,0.0,0.040781982765362,0.0,0.005308354552906411,0.04609033731826841
Path.computeLength,0.06123866667621769,0.0,0.004800000000007761,0.0,0.06603866667622545
Path.toString,0.04402416667289799,0.0,0.0010149999977026405,0.0,0.04503916667060063
Pattern.expr,0.0,0.04209121192897266,0.0,0.005583495673152034,0.047674707602124694
ProgressMonitorWrapper.isCanceled,0.06404633333052819,0.0,0.0041799999986930425,0.0,0.06822633332922123
Provider$Service.getImplClass,0.0,0.05309844015663052,0.0,0.0067210190842886385,0.05981945924091916
ReadWriteMonitor.exitWrite,0.08726969030360901,0.0,0.00995717707493399,0.0,0.097226867378543
ResolverExport.getUsesDirective,0.0,0.0,0.0,0.0,0.0
Resource.getResourceInfo,0.1561483333449966,0.0,0.01647999999840977,0.0,0.17262833334340635
ResourceBundle$Control.newBundle,0.0,0.05190035100133047,0.0,0.008334769830752367,0.060235120832082836
ResourceTree.standardDeleteProject,0.0,0.04109177537417685,0.0,0.005377016309489063,0.04646879168366592
Scanner.<init>,0.0,0.0,0.0,0.0,0.0
Scanner.getCurrentIdentifierSource,0.1374904906876688,0.0,0.006067291013933015,0.0,0.14355778170160183
Scanner.getLineEnd,0.0696780310120405,0.0,0.005758273800554833,0.0,0.07543630481259533
Scanner.getNextChar,0.8188563033895802,0.0,0.06084375874039395,0.0,0.8797000621299741
Scanner.getNextToken,1.3177954442813749,0.05944496258338041,0.09956863020118709,0.010634295727219514,1.4874433327931618
Scanner.internalScanIdentifierOrKeyword,0.4341879035356794,0.0,0.025847689576269248,0.0,0.46003559311194864
Scanner.jumpOverMethodBody,0.39309386991051154,0.0,0.0238900594517905,0.0,0.41698392936230205
Scanner.optimizedCurrentTokenSource3,0.03770520189925125,0.0,0.002311752535546844,0.0,0.040016954434798094
Scanner.optimizedCurrentTokenSource5,0.046121999999741085,0.0,0.004690000001573935,0.0,0.05081200000131502
Scanner.optimizedCurrentTokenSource6,0.10155868044910904,0.0,0.009490630693919389,0.0,0.11104931114302843
Scanner.pushLineSeparator,0.4641693115154958,0.0,0.021478317008195108,0.0,0.4856476285236909
Scanner.resetTo,0.13544021052994615,0.04783058730479303,0.012827368423275304,0.006929011539466011,0.2030271777974805
Scanner.scanIdentifierOrKeyword,0.319052626700421,0.0,0.02662424556171002,0.0,0.345676872262131
ScannerHelper.isWhitespace,0.0569266251048265,0.0,0.003981315733588239,0.0,0.06090794083841474
Scope.compilationUnitScope,0.0,0.06985943819439316,0.0,0.013130464054955335,0.0829899022493485
Scope.getBaseType,0.04638657142641023,0.0,0.004007142856218187,0.0,0.05039371428262841
Scribe.addOptimizedReplaceEdit,0.0,0.051470473179862364,0.0,0.009778870023986802,0.061249343203849164
Scribe.alignFragment,0.0,0.04638981342456818,0.0,0.008433702044089927,0.05482351546865811
Scribe.getMemberAlignment,0.04582200000368175,0.0,0.0020649999987654155,0.0,0.047887000002447166
Scribe.printBlockComment,0.0,0.04808957729796737,0.0,0.007003679760357711,0.05509325705832508
Scribe.printComment,0.0,0.04816432464689528,0.0,0.008935849282483409,0.05710017392937869
Scribe.printIndentationIfNecessary,0.04400637499808605,0.0,0.002620625000114766,0.0,0.046626999998200816
SearchDocument.addIndexEntry,0.04394102638097965,0.0,0.002860262534007861,0.0,0.04680128891498751
SearchDocument.getContainerRelativePath,0.18878500608418533,0.03560779999970691,0.0134211605616158,0.0059130000008735814,0.2437269666463816
ServiceRegistry.addServiceListener,0.0,0.06856124339685282,0.0,0.00916797761913613,0.07772922101598895
Signature.consumeWhitespace,0.13244633335852996,0.0,0.0059200000008180105,0.0,0.13836633335934798
SimpleLookupTable.get,0.1458760366004435,0.0,0.008955000002364006,0.0,0.1548310366028075
SimpleLookupTable.put,0.7650819026725313,0.0,0.07004982325610082,0.0,0.8351317259286322
SimpleSet.rehash,0.0,0.05556233333239409,0.0,0.011689999999362044,0.06725233333175613
SimpleWordSet.<init>,0.08514433332796519,0.0,0.00653999999728209,0.0,0.09168433332524728
SimpleWordSet.add,4.280866440815663,0.2694801058187891,0.33028006220510975,0.06129439682511873,4.94192100566468
SimpleWordSet.rehash,0.1133571269285569,0.16258614815052608,0.008354763555171833,0.03299999999527009,0.31729803862952494
SingleNameReference.traverse,0.0,0.0530340619061029,0.0,0.008283605408815807,0.06131766731491871
SingleTypeReference.<init>,0.033735846485672814,0.0,0.00048532251413889416,0.0,0.03422116899981171
SingleTypeReference.getTypeName,0.07270253858972227,0.0,0.00457667679476002,0.0,0.07727921538448229
StateManager.createResolver,0.0,0.04923152408541243,0.0,0.006933035926834049,0.056164560012246484
StateObjectFactoryImpl.createBundleDescription,0.0,0.07932750948739822,0.0,0.010834836897591049,0.09016234638498927
StateWriter.writeImportPackageSpec,0.0,0.0,0.0,0.0,0.0
Status.setPlugin,0.0,0.016569046820186846,0.0,0.0033349996502603737,0.01990404647044722
StreamDecoder.implRead,0.051036077840004926,0.0,0.0016937919206041435,0.0,0.05272986976060907
String.<init>,0.06829396564275844,0.0,0.003969464506716028,0.0,0.07226343014947446
String.charAt,0.11456034394103193,0.054300999998910505,0.005903813728491026,0.005199999999604188,0.17996515766803764
String.equals,0.11167967999354003,0.0,0.010540800001472237,0.0,0.12222047999501227
String.getChars,0.06701666666776873,0.06722000000202873,0.003920000000410558,0.011024999999790452,0.14918166666999846
String.hashCode,0.08631295348067536,0.10092948302279772,0.001136118459378715,0.016697266402681557,0.20507582136553337
String.startsWith,0.01045376889780552,0.0,0.0011960647763052973,0.0,0.011649833674110818
String.substring,0.06618233334544735,0.0,0.0053799999999076436,0.0,0.07156233334535499
String.toCharArray,0.19818721556115765,0.055765666669079415,0.015588515372417257,0.009465000000394259,0.2790063976030485
String.valueOf,0.16729733334310973,0.0,0.00825499999821962,0.0,0.17555233334132936
StringBuffer.append,0.0,0.07589929570552338,0.0,0.014473707465420085,0.09037300317094346
StringBuilder.toString,0.0,0.0,0.0,0.0,0.0
StringCoding$StringEncoder.encode,0.0,0.04970611133815885,0.0,0.006875792797943398,0.05658190413610225
SymbolTable.addSymbol0,0.0,0.04036200097337899,0.0,0.006616141746779137,0.04697814272015813
System.checkKey,0.07100129215292685,0.0,0.00476864346699459,0.0,0.07576993561992143
ThisReference.implicitThis,0.05383251825681752,0.0,0.0022798518236389984,0.0,0.05611237008045652
ThreadLocal$ThreadLocalMap.getEntry,0.0,0.08629942360615273,0.0,0.01018446740911778,0.09648389101527051
Throwable.fillInStackTrace,0.10418400065869098,0.41697935874121994,0.007805499168526254,0.06727870116932319,0.5962475597377603
ToStream.init,0.0,0.0658128569606407,0.0,0.010368166860434534,0.07618102382107522
TransletOutputHandlerFactory.getSerializationHandler,0.0,0.04825592120557105,0.0,0.0075268864974223325,0.05578280770299339
TreeMap.parentOf,0.0,0.08295596171968375,0.0,0.01220258223513162,0.09515854395481538
TryStatement.generateCode,0.05619300001611312,0.0,0.005684999998872323,0.0,0.06187800001498544
TryStatement.resolve,0.12152099998396199,0.0,0.010400000001633694,0.0,0.13192099998559567
TypeConverter.createTypeReference,0.09199092857618647,0.0,0.008148214284509386,0.0,0.10013914286069586
URI$Parser.charAt,0.0,0.04720420341973932,0.0,0.007965828435502028,0.055170031855241344
UTF_8$Decoder.decodeArrayLoop,0.24321929748416485,0.06345374163588663,0.013086342098957341,0.007544654885175384,0.3273040361041842
UTF_8$Encoder.encode,0.16825366667277797,0.0,0.010609999997541308,0.0,0.17886366667031928
UnifiedTree.addChildren,0.0,0.06636320274374967,0.0,0.0079109940145584,0.07427419675830807
UnixFileSystem.checkAccess,0.0,0.06636320274374967,0.0,0.0079109940145584,0.07427419675830807
UnixFileSystem.createDirectory,0.0,0.04109177537417685,0.0,0.005377016309489063,0.04646879168366592
UnixFileSystem.createFileExclusively,0.04345121274226687,0.0,0.0,0.0,0.04345121274226687
UnixFileSystem.delete0,0.5732554784968571,0.1022500494817372,0.0392225013577903,0.01514820269722372,0.7298762320336083
UnixFileSystem.getBooleanAttributes0,0.22758399999001994,0.12484404975026708,0.01904800000678127,0.018110292131284608,0.3895863418783529
UnixFileSystem.getLength,0.27758744290006204,0.0,0.016590892467116775,0.0,0.2941783353671788
UnixFileSystem.list,0.42218810002280704,0.0,0.029863499995311328,0.0,0.4520516000181184
UnixFileSystem.rename0,0.03969570326207605,0.0,0.0,0.0,0.03969570326207605
Util.equalArrays,0.0,0.008837830682216257,0.0,0.0025008174876283698,0.011338648169844628
Util.getInputStreamAsByteArray,0.09883600001921877,0.0,0.007100000002537852,0.0,0.10593600002175663
Util.indexOfJavaLikeExtension,0.03739481959624444,0.0,0.0014283317786050636,0.0,0.0388231513748495
Util.quickSort,1.321411403557188,0.0,0.12610524569155668,0.0,1.4475166492487448
Util.scanIdentifier,0.0703518330988815,0.0,0.005387272508866936,0.0,0.07573910560774844
Util.sort,0.09265332173855792,0.0,0.005149022042670115,0.0,0.09780234378122804
Util.splitOn,0.0,0.060058333333775714,0.0,0.008044999997461371,0.06810333333123708
Util.unzip,0.0,0.054281285242087376,0.0,0.007395617533215538,0.06167690277530291
Workspace.computeFullProjectOrder,0.0,0.028564333333633837,0.0,0.0,0.028564333333633837
Workspace.getResourceInfo,0.060424666657733425,0.0,0.005084999999477683,0.0,0.06550966665721111
Workspace.startup,0.0,0.07553740334126084,0.0,0.010719216360001864,0.08625661970126271
X509CertImpl.parse,0.0,0.02297843331819512,0.0,0.003557549863965258,0.026535983182160376
XML11Configuration.<init>,0.0,0.038176619465336965,0.0,0.00647472020108519,0.04465133966642215
XMLAttributesImpl.getValue,0.0,0.03229142768578455,0.0,0.005625203075398878,0.03791663076118343
XMLSecurityManager.<init>,0.0,0.06526832612689007,0.0,0.010612997901834564,0.07588132402872463
ZipCoder.toString,0.0,0.054300999998910505,0.0,0.005199999999604188,0.05950099999851469
ZipFile$ZipEntryIterator.hasNext,0.06628400000045076,0.0,0.005379999997482324,0.0,0.07166399999793309
ZipFile.freeEntry,0.09309232498780132,0.0413015748321187,0.005132872490076539,0.004638748161065203,0.14416552047106176
ZipFile.getEntry,0.09370655556555532,0.07638114285821626,0.006060993247985185,0.019294285714360215,0.19544297738611696
ZipFile.getEntryBytes,0.10071836253763332,0.10597954159846287,0.010943582604361655,0.01348071569712146,0.23112220243757928
ZipFile.getInputStream,0.07847100000556867,0.0,0.005960000002232846,0.0,0.08443100000780152
ZipFile.getNextEntry,0.23900661565247514,0.1521200000012565,0.017871030388221784,0.0341400000009647,0.4431376460429181
ZipFile.getZipEntry,0.06123866667621769,0.0,0.004800000000007761,0.0,0.06603866667622545
ZipFile.read,0.6947513958552235,0.3971684110339032,0.04391396895355901,0.06044754410567123,1.196281319948357
ZipInputStream.<init>,0.0,0.03776012310399237,0.0,0.005349185961009817,0.04310930906500219
