method,package1,package2,dram1,dram2,energy
AST.postAddChildEvent|ASTNode$NodeList.add|AbstractList.add,0.07281500001166326,0.0,0.006340000002334515,0.0,0.07915500001399778
ASTConverter.convert|ASTConverter.convert|ASTConverter.convert,0.09082014813881227,0.0,0.008364444443335135,0.0,0.0991845925821474
ASTNode.<init>|Statement.<init>|AbstractVariableDeclaration.<init>,0.09843100616410552,0.0,0.005620928320283326,0.0,0.10405193448438885
ASTNode.getParent|ASTNode.checkNewChild|ASTNode.preReplaceChild,0.07733133332415794,0.0,0.004759999996167608,0.0,0.08209133332032555
AbstractCommentParser.commentParse|JavadocParser.checkDeprecation|CommentRecorderParser.checkComment,0.06320320001803338,0.0,0.006432000000495463,0.0,0.06963520001852884
AbstractCommentParser.parseArguments|AbstractCommentParser.parseMember|AbstractCommentParser.parseReference,0.0788166666655646,0.0,0.008829999998852145,0.0,0.08764666666441674
AbstractCommentParser.readChar|AbstractCommentParser.commentParse|JavadocParser.checkDeprecation,0.12009416439232337,0.0,0.01026808950041585,0.0,0.13036225389273923
AbstractCommentParser.readTokenAndConsume|AbstractCommentParser.parseParam|JavadocParser.parseParam,0.07767766710701647,0.0,0.0076081291366963235,0.0,0.0852857962437128
AbstractDOMParser.startDocument|XMLDTDValidator.startDocument|XMLDocumentScannerImpl.startEntity,0.0,0.1105304000006678,0.0,0.019047999999020248,0.12957839999968804
AbstractDataTreeNode.getName|DataDeltaNode.asBackwardDelta|DeltaDataTree.asBackwardDelta,0.03025235634072176,0.0,0.002536203563368586,0.0,0.032788559904090346
AbstractDataTreeNode.indexOfChild|AbstractDataTreeNode.childAtOrNull|DeltaDataTree.getChildNodes,0.0,0.0,0.0,0.0,0.0
AbstractDataTreeNode.indexOfChild|AbstractDataTreeNode.childAtOrNull|DeltaDataTree.lookup,0.08556035773577439,0.14443226295603695,0.006139627306846968,0.026673743482759103,0.2628059914814174
AbstractMap.<init>|HashMap.<init>|HashMap.<init>,0.04880562259643688,0.0,0.005602480012084346,0.0,0.054408102608521226
AbstractMethodDeclaration.compilationResult|ProblemReporter.handle|ProblemReporter.useEnumAsAnIdentifier,0.0,0.03576674999931129,0.0,0.003495000000839355,0.03926175000015064
AbstractStringBuilder.append|StringBuffer.append|StringBuffer.append,0.0,0.0,0.0,0.0,0.0
AbstractStringBuilder.newCapacity|AbstractStringBuilder.ensureCapacityInternal|AbstractStringBuilder.append,0.0,0.05008966666597795,0.0,0.005420000001322478,0.05550966666730043
AddJarFileToIndex.execute|JobManager.run|Thread.run,0.055373622093329605,0.0,0.003992423084593967,0.0,0.05936604517792357
AllocationExpression.resolveType|LocalDeclaration.resolve|Block.resolve,0.0921562801056052,0.0,0.007600889191384266,0.0,0.09975716929698947
ArrayList.<init>|ResolverBundle.getExports|ResolverImpl.resolveImport,0.0,0.0,0.0,0.0,0.0
ArrayList.add|JarPackageFragmentRoot.initRawPackageInfo|JarPackageFragmentRoot.computeChildren,0.053475721613165016,0.0,0.0051862052929825845,0.0,0.0586619269061476
Arrays.binarySearch0|Arrays.binarySearch|Scribe.printNextToken,0.05103417461373876,0.0,0.003404488462055375,0.0,0.05443866307579414
Arrays.copyOfRange|String.<init>|String.substring,0.07286818424646667,0.04189066666731378,0.004358148674960856,0.006800000000415214,0.12591699958915653
Arrays.copyOfRange|String.<init>|ZipCoder.toString,0.0728443882836054,0.0,0.007926205289247982,0.0,0.08077059357285338
Arrays.copyOf|ArrayList.grow|ArrayList.ensureExplicitCapacity,0.0,0.0908197926027114,0.0,0.011120942538597349,0.10194073514130875
Arrays.sort|VersionHashMap.reorder|ResolverImpl.resolve,0.06530306311673137,0.0,0.004574363713789761,0.0,0.06987742683052113
BaseData.getEntry0|BaseData.getEntry|AbstractBundle.getEntry0,0.06611307306985978,0.0,0.0071931246340844485,0.0,0.07330619770394423
Benchmark.prepare|Benchmark.initialize|Benchmark.<init>,0.08778760719100137,0.0,0.006509630007775171,0.0,0.09429723719877654
BinaryIndexer.addTypeReference|AbstractIndexer.addConstructorReference|BinaryIndexer.extractReferenceFromConstantPool,0.0,0.05647800000103113,0.0,0.00951999999718585,0.06599799999821698
BinaryIndexer.addTypeReference|AbstractIndexer.addMethodDeclaration|BinaryIndexer.indexDocument,0.0,0.037246500000037486,0.0,0.003029999999853317,0.0402764999998908
BinaryIndexer.addTypeReference|BinaryIndexer.extractReferenceFromConstantPool|BinaryIndexer.indexDocument,0.06563211112984117,0.0,0.012005814470239264,0.0,0.07763792560008044
BinaryIndexer.convertToArrayType|BinaryIndexer.decodeReturnType|BinaryIndexer.indexDocument,0.0,0.04892999999962437,0.0,0.004660000001119139,0.05359000000074351
BinaryIndexer.extractArgCount|BinaryIndexer.extractReferenceFromConstantPool|BinaryIndexer.indexDocument,0.06593833333075358,0.15037033333161767,0.005744999994931278,0.024889999998170723,0.24694366665547324
BinaryIndexer.extractName|BinaryIndexer.extractReferenceFromConstantPool|BinaryIndexer.indexDocument,0.0,0.02319324999916716,0.0,0.0027637499988486525,0.025956999998015814
BinaryIndexer.extractReferenceFromConstantPool|BinaryIndexer.indexDocument|JavaSearchParticipant.indexDocument,0.14986836448474586,0.3052284822997282,0.008466654525602874,0.04192179115759632,0.5054852924676733
BinaryIndexer.indexDocument|JavaSearchParticipant.indexDocument|IndexManager.indexDocument,0.0,0.0,0.0,0.0,0.0
BinaryIndexer.replace|BinaryIndexer.decodeParameterTypes|BinaryIndexer.indexDocument,0.0,0.037246500000037486,0.0,0.003029999999853317,0.0402764999998908
BinaryIndexer.replace|BinaryIndexer.indexDocument|JavaSearchParticipant.indexDocument,0.03757733333623037,0.0,0.00413000000116881,0.0,0.04170733333739918
BinaryTypeBinding.cachePartsFrom|LookupEnvironment.createBinaryTypeFrom|LookupEnvironment.createBinaryTypeFrom,0.03411262971240052,0.0,0.003227881855337064,0.0,0.037340511567737586
BufferedInputStream.<init>|BufferedInputStream.<init>|Util.getZipEntryByteContent,0.0,0.467321111108807,0.0,0.05898875000437127,0.5263098611131782
BufferedInputStream.read|DataInputStream.readUnsignedByte|ConstPool.readOne,0.04517732593135748,0.0,0.003463553006010964,0.0,0.048640878937368445
BufferedInputStream.read|DataInputStream.readUnsignedShort|DataInputStream.readUTF,0.0,0.07454334113284386,0.0,0.010663390980334659,0.08520673211317852
BufferedReader.<init>|BufferedReader.<init>|Util.getInputStreamAsCharArray,0.04452844444636462,0.10325210526322112,0.004586666665596163,0.013386315790213349,0.16575353216539523
BufferedWriter.<init>|BufferedWriter.<init>|EclipseLog.logForStream,0.05222915246816977,0.0,0.004129655473027989,0.0,0.056358807941197755
CharOperation.concatWith|SourceIndexerRequestor.acceptPackage|SourceElementNotifier.notifySourceElementRequestor,0.0,0.05122900000181592,0.0,0.005445000000084596,0.05667400000190052
CharOperation.concat|MethodPattern.createIndexKey|AbstractIndexer.addMethodReference,0.0,0.031921499998134095,0.0,0.003659999998490093,0.03558149999662419
CharOperation.equals|AnnotationInfo.scanAnnotation|AnnotationInfo.<init>,0.0432943333289586,0.0,0.0,0.0,0.0432943333289586
CharOperation.equals|HashtableOfObject.get|DiskIndex.copyQueryResults,0.14371733333488615,0.09940566666530988,0.013609999999365147,0.010060000005372178,0.26679300000493333
CharOperation.equals|MethodInfo.readExceptionAttributes|MethodInfo.getExceptionTypeNames,0.0,0.10990399999718647,0.0,0.014899999999518816,0.12480399999670529
CharOperation.equals|SimpleWordSet.add|MemoryIndex.addIndexEntry,0.1552315923340337,0.9109867171301447,0.009976982234919147,0.1253688779188469,1.2015641696179444
CharOperation.equals|SuperTypeReferencePattern.createIndexKey|AbstractIndexer.addClassDeclaration,0.05773933334664131,0.0,0.004760000003443565,0.0,0.062499333350084875
CharOperation.hashCode|HashtableOfObject.containsKey|ClassScope.buildFields,0.055755695874256266,0.0,0.009679816465820931,0.0,0.06543551234007719
CharOperation.hashCode|HashtableOfObject.get|DiskIndex.copyQueryResults,0.9348315537023386,1.3793199499950184,0.09679840392255835,0.18751049998512218,2.5984604076050375
CharOperation.hashCode|HashtableOfObject.put|DiskIndex.copyQueryResults,0.055460666665264086,0.0,0.004784999997355044,0.0,0.06024566666261913
CharOperation.hashCode|HashtableOfObject.put|HashtableOfObject.rehash,0.05828866666221681,0.26041666666666663,0.004180000001118363,0.03406500000225302,0.35695033333225484
CharOperation.hashCode|HashtableOfObject.put|MemoryIndex.addIndexEntry,0.05718289313424176,0.11207501453492977,0.004660031197652263,0.013662386141575396,0.1875803250083992
CharOperation.hashCode|SimpleWordSet.add|MemoryIndex.addIndexEntry,0.1416590718139002,0.6265906626301829,0.010340709967420373,0.09092795739431056,0.8695184018058141
CharOperation.hashCode|SimpleWordSet.add|SimpleWordSet.rehash,0.057685823469196075,0.5620624166676862,0.008235903738281834,0.08402000000023689,0.712004143875401
CharOperation.indexOf|BinaryIndexer.decodeParameterTypes|BinaryIndexer.indexDocument,0.0314330000061697,0.0,0.0,0.0,0.0314330000061697
CharOperation.indexOf|BinaryIndexer.extractArgCount|BinaryIndexer.extractReferenceFromConstantPool,0.059280374990824676,0.0,0.00787500000054327,0.0,0.06715537499136795
CharOperation.indexOf|CharOperation.indexOf|AbstractIndexer.erasure,0.0,0.06138544225762035,0.0,0.010722886937457371,0.07210832919507772
CharOperation.isWhitespace|CompletionScanner.getNextToken|Parser.parse,0.14359533333724053,0.0,0.013179999999313925,0.0,0.15677533333655447
CharOperation.lastIndexOf|BinaryIndexer.extractArgCount|BinaryIndexer.extractReferenceFromConstantPool,0.0,0.07088199999998324,0.0,0.008739999999913076,0.07962199999989632
CharOperation.lastIndexOf|CharOperation.lastSegment|AbstractIndexer.addAnnotationTypeReference,0.0,0.0,0.0,0.0,0.0
CharOperation.lastIndexOf|CharOperation.lastSegment|AbstractIndexer.addTypeReference,0.043886281252525805,0.11059599999862256,0.004003125000735963,0.02187499999854481,0.18036040625042915
CharOperation.lastIndexOf|CharOperation.lastSegment|SuperTypeReferencePattern.createIndexKey,0.0,0.05356399999975649,0.0,0.008466111111812535,0.062030111111569024
CharOperation.lastSegment|AbstractIndexer.addTypeReference|AbstractIndexer.addMethodDeclaration,0.0,0.051147666667626865,0.0,0.004064999998566539,0.055212666666193407
CharOperation.prefixEquals|DiskIndex.addQueryResults|Index.query,0.06191470588365679,0.0,0.003997058822064633,0.0,0.06591176470572142
CharOperation.replaceOnCopy|BinaryIndexer.addTypeReference|AbstractIndexer.addMethodDeclaration,0.07989533333845125,0.06066899999859743,0.00413000000116881,0.010299999999309268,0.15499433333752677
CharOperation.replaceOnCopy|BinaryIndexer.addTypeReference|BinaryIndexer.extractReferenceFromConstantPool,0.0,0.03275566666707164,0.0,0.00367999999919751,0.03643566666626915
CharOperation.replaceOnCopy|ConstructorPattern.createDeclarationIndexKey|AbstractIndexer.addConstructorDeclaration,0.04111388889012031,0.0,0.0039166666647361134,0.0,0.045030555554856425
CharOperation.splitOn|BinaryIndexer.extractReferenceFromConstantPool|BinaryIndexer.indexDocument,0.043111333332490176,0.03648375000011583,0.0,0.0040650000009918585,0.08366008333359787
CharOperation.subarray|CharOperation.lastSegment|AbstractIndexer.addTypeReference,0.0,0.06872566666667504,0.0,0.007150000000062088,0.07587566666673713
CharacterDataLatin1.isWhitespace|Character.isWhitespace|Character.isWhitespace,0.0344390041714411,0.0,0.0034047236551252398,0.0,0.03784372782656634
Class.forName0|Class.forName|AbstractCharsetProvider.lookup,0.0,0.15656260715897907,0.0,0.023131225156482468,0.17969383231546154
Class.forName0|Class.forName|Charset$ExtendedProviderHolder$1.run,0.0,0.004486755555586164,0.0,0.0006346666666407449,0.005121422222226909
Class.forName0|Class.forName|Eclipse.<init>,0.03967714027022605,0.0,0.0029196133493814627,0.0,0.04259675361960751
Class.forName0|Class.forName|OIDMap$OIDInfo.getClazz,0.08434527593767335,0.0,0.002858155755655233,0.0,0.08720343169332859
Class.forName0|Class.forName|Provider$Service.getImplClass,0.04599953430361341,0.0,0.002484039144736416,0.0,0.048483573448349825
Class.getDeclaredConstructors0|Class.privateGetDeclaredConstructors|Class.getConstructor0,0.0,0.005518933333547062,0.0,0.0005786666667619202,0.006097600000308982
ClassFile.getType|ClassFile.existsUsingJarTypeCache|NameLookup.seekTypesInBinaryPackage,0.08272300000923374,0.0,0.005340000003343448,0.0,0.08806300001257719
ClassFileReader.<init>|ClassFileReader.<init>|BinaryIndexer.indexDocument,0.06423182713147753,0.44660591975586755,0.007577085264856824,0.06986986960004712,0.588284701752249
ClassFileReader.getConstantClassNameAt|ClassFileReader.<init>|ClassFileReader.<init>,0.0,0.05356399999975649,0.0,0.008466111111812535,0.062030111111569024
ClassFileStruct.u2At|ClassFileReader.<init>|ClassFileReader.<init>,0.0,0.17995183333368914,0.0,0.023120000004685913,0.20307183333837506
ClassFileStruct.u2At|FieldInfo.getName|BinaryIndexer.indexDocument,0.031258809516051166,0.0,0.0025464285742297452,0.0,0.03380523809028091
ClassFileStruct.u2At|MethodInfo.getModifiers|MethodInfo.initialize,0.0,0.038065333334088784,0.0,0.00427499999932479,0.042340333333413575
ClassFileStruct.u2At|MethodInfo.getSelector|MethodInfo.isConstructor,0.0,0.07782000000103531,0.0,0.01683000000048196,0.09465000000151727
ClassFileStruct.u2At|MethodInfo.readExceptionAttributes|MethodInfo.getExceptionTypeNames,0.0,0.08121733333246084,0.0,0.012590000000879323,0.09380733333334017
ClassFileStruct.u4At|MethodInfo.createMethod|ClassFileReader.<init>,0.0,0.07541933333413907,0.0,0.013099999998909576,0.08851933333304865
ClassFileStruct.utf8At|BinaryIndexer.extractClassName|BinaryIndexer.extractReferenceFromConstantPool,0.11652406806025906,0.07513433333224384,0.013161660351200257,0.01223499999953977,0.21705506174324293
ClassFileStruct.utf8At|BinaryIndexer.extractClassReference|BinaryIndexer.extractReferenceFromConstantPool,0.0,0.07551058333410765,0.0,0.00833999999849766,0.08385058333260531
ClassFileStruct.utf8At|BinaryIndexer.extractName|BinaryIndexer.extractReferenceFromConstantPool,0.0,0.14257833333249437,0.0,0.016510000001289882,0.15908833333378425
ClassFileStruct.utf8At|BinaryIndexer.extractType|BinaryIndexer.extractReferenceFromConstantPool,0.059570333338342614,0.15966787499807344,0.0047299999981381315,0.021641249999144446,0.24560945833369863
ClassFileStruct.utf8At|ClassFileReader.getConstantClassNameAt|ClassFileReader.<init>,0.06414799999523288,0.07344566666627846,0.0053799999999076436,0.012240000001232449,0.15521366666265146
ClassFileStruct.utf8At|InnerClassInfo.getSourceName|ClassFileReader.getMemberTypes,0.05514642466668323,0.0,0.0045119262306021046,0.0,0.059658350897285335
ClassFileStruct.utf8At|MethodInfo.createMethod|ClassFileReader.<init>,0.0,0.06890874999953667,0.0,0.007304999999178108,0.07621374999871477
ClassFileStruct.utf8At|MethodInfo.getMethodDescriptor|BinaryIndexer.indexDocument,0.05554839050484267,0.11581985185141631,0.008297178316541908,0.017766666664371128,0.19743208733717202
ClassFileStruct.utf8At|MethodInfo.readCodeAttribute|MethodInfo.getArgumentNames,0.026931874999718275,0.0,0.00037500000113747467,0.0,0.02730687500085575
ClassLoader$2.hasMoreElements|CompoundEnumeration.next|CompoundEnumeration.hasMoreElements,0.0,0.07550999924515997,0.0,0.009826624747603223,0.08533662399276319
ClassLoader.defineClass1|ClassLoader.defineClass|DefaultClassLoader.defineClass,0.20702876403838072,0.2527546999973614,0.017287387419040515,0.04624974999824189,0.5233206014530245
ClassLoader.defineClass1|ClassLoader.defineClass|SecureClassLoader.defineClass,0.06902275794219709,0.0,0.005164352050471231,0.0,0.07418710999266832
ClassLoader.findLoadedClass0|ClassLoader.findLoadedClass|DefaultClassLoader.publicFindLoaded,0.04621828997365752,0.0,0.004970960501676016,0.0,0.051189250475333535
ClassPool.compress|ClassPool.makeClass|ClassPool.makeClass,0.0,0.07830869629505728,0.0,0.013573169244408814,0.09188186553946609
ClassPool.makeClass|ThreadCoreMapInjector.transform|TransformerManager.transform,0.04920158795894592,0.0,0.004069749323303414,0.0,0.05327133728224934
ClassScope.detectHierarchyCycle|ClassScope.detectHierarchyCycle|SingleTypeReference.getTypeBinding,0.0598106265840689,0.0,0.004002241187470691,0.0,0.06381286777153959
CodeFormatterVisitor.formatCascadingMessageSends|CodeFormatterVisitor.visit|MessageSend.traverse,0.08639047005930847,0.0,0.005522745701496453,0.0,0.09191321576080493
CodeFormatterVisitor.formatLocalDeclaration|CodeFormatterVisitor.visit|LocalDeclaration.traverse,0.0731507658788248,0.0,0.004587549411446357,0.0,0.07773831529027116
CodeStream.invokeStringConcatenationAppendForType|Expression.generateOptimizedStringConcatenation|CodeStream.generateStringConcatenationAppend,0.04658279166809128,0.0,0.002876250002221544,0.0,0.04945904167031283
ConcurrentHashMap.transfer|ConcurrentHashMap.addCount|ConcurrentHashMap.putVal,0.04162949979270653,0.0,0.00481178606806394,0.0,0.046441285860770475
ConstPool.addItem0|ConstPool.readOne|ConstPool.read,0.0,0.0,0.0,0.0,0.0
Container.getFolder|NameEnvironment.computeClasspathLocations|NameEnvironment.<init>,0.04067126170332766,0.0,0.003356676955512961,0.0,0.044027938658840624
CtClassType.getClassFile2|CtClassType.getInterfaces|ThreadCoreMapInjector.isRunnable,0.0,0.0,0.0,0.0,0.0
DataInputStream.readInt|CodeAttribute.<init>|AttributeInfo.read,0.03799972682604641,0.0,0.0028914596534277428,0.0,0.04089118647947415
DataInputStream.readUTF|DataInputStream.readUTF|Utf8Info.<init>,0.09894149980201541,0.0,0.008351786068372828,0.0,0.10729328587038825
DefaultBindingResolver.getTypeBinding|DefaultBindingResolver.resolveType|TypeDeclaration.internalResolveBinding,0.07171633334170716,0.0,0.0041200000026340895,0.0,0.07583633334434124
DefaultCodeFormatter.formatCompilationUnit|DefaultCodeFormatter.format|DefaultCodeFormatter.format,0.07514182244211867,0.0,0.0053332709043774395,0.0,0.08047509334649611
DefaultCommentMapper$CommentMapperVisitor.visitNode|DefaultASTVisitor.visit|SingleVariableDeclaration.accept0,0.07737199999003981,0.0,0.0072499999999611955,0.0,0.084621999990001
DefaultCommentMapper.initialize|CompilationUnit.initCommentMapper|ASTConverter.convert,0.07171633334170716,0.0,0.0041200000026340895,0.0,0.07583633334434124
DefaultCommentMapper.storeLeadingComments|DefaultCommentMapper$CommentMapperVisitor.visitNode|DefaultASTVisitor.visit,0.07379133334810224,0.0,0.005890000000363216,0.0,0.07968133334846546
DefaultCommentMapper.storeTrailingComments|DefaultCommentMapper$CommentMapperVisitor.visitNode|DefaultASTVisitor.visit,0.09128833332215436,0.0,0.004719999999603411,0.0,0.09600833332175777
DeferredDocumentImpl.getNodeObject|DeferredDocumentImpl.synchronizeChildren|CoreDocumentImpl.getDocumentElement,0.0,0.04887706666680364,0.0,0.00877999999987272,0.05765706666667636
DeferredDocumentImpl.getNodeObject|DeferredElementImpl.synchronizeData|ElementImpl.getTagName,0.0,0.04531226666877046,0.0,0.00878800000064075,0.05410026666941121
DeltaDataTree.getData|ResourceDeltaFactory.createDelta|ResourceDeltaFactory.createDelta,0.0,0.05879214137830304,0.0,0.008993469076356791,0.06778561045465983
DeltaProcessingState.getDeltaProcessor|DeltaProcessingState.resourceChanged|NotificationManager$2.run,0.0,0.0,0.0,0.0,0.0
DerInputBuffer.getBigInteger|DerInputStream.getBigInteger|PKCS7.parseSignedData,0.04599953430361341,0.0,0.002484039144736416,0.0,0.048483573448349825
DerInputStream.getUnalignedBitString|X509Key.parse|CertificateX509Key.<init>,0.02629128205605817,0.0,0.0005786287264667309,0.0,0.026869910782524903
DerValue.toByteArray|ContentInfo.<init>|PKCS7.parse,0.05793667187196011,0.0,0.006503784858418175,0.0,0.06444045673037829
DiskIndex$IntList.add|DiskIndex.copyQueryResults|DiskIndex.mergeWith,0.09218706808098102,0.35166399999676895,0.008731794003643352,0.03794999999809078,0.49053286207948416
DiskIndex$IntList.asArray|DiskIndex.writeCategoryTable|DiskIndex.writeCategories,0.0,0.1153566666689585,0.0,0.013544999996762877,0.12890166666572137
DiskIndex.addQueryResults|Index.query|SuperTypeReferencePattern.queryIn,0.7498099411987269,0.0,0.05176147059540324,0.0,0.8015714117941302
DiskIndex.addQueryResults|Index.query|TypeDeclarationPattern.queryIn,0.0945512493769782,0.0,0.007471004020031914,0.0,0.10202225339701011
DiskIndex.copyQueryResults|DiskIndex.mergeWith|Index.save,0.7231896584931778,0.23711175000062212,0.07034787517549237,0.027900000004592584,1.058549283673885
DiskIndex.mergeWith|Index.save|IndexManager.saveIndex,0.04922557833361913,0.09394849999807775,0.004092992811312703,0.012634999997923538,0.1599020711409331
DiskIndex.readStreamChars|DiskIndex.readCategoryTable|DiskIndex.addQueryResults,0.054260333330603316,0.03205219047681783,0.006890000001779602,0.004681428571486668,0.09788395238068741
DiskIndex.readStreamChars|DiskIndex.readChunk|DiskIndex.readDocumentName,0.27308191688025707,0.0,0.02837146345558563,0.0,0.3014533803358427
DiskIndex.writeAllDocumentNames|DiskIndex.mergeWith|Index.save,0.3330076666704068,0.0,0.036390000001119915,0.0,0.36939766667152674
DiskIndex.writeCategoryTable|DiskIndex.writeCategories|DiskIndex.mergeWith,0.47302703443659117,0.16260966667177856,0.04005942180176349,0.021812000001955312,0.6975081229120884
DiskIndex.writeDocumentNumbers|DiskIndex.writeCategoryTable|DiskIndex.writeCategories,0.033222808949367334,0.0,0.0023017034957067612,0.0,0.0355245124450741
DiskIndex.writeStreamChars|DiskIndex.writeCategoryTable|DiskIndex.writeCategories,0.405207544546861,0.2992145999979887,0.03214413526597538,0.03825999999826308,0.7748262798090882
DiskIndex.writeStreamChars|DiskIndex.writeStreamChars|DiskIndex.writeCategoryTable,0.3642001148045473,0.4093342666674289,0.02798268408925904,0.05112300000182586,0.8526400655630612
DiskIndex.writeStreamInt|DiskIndex.writeCategoryTable|DiskIndex.writeCategories,0.04332667779340475,0.0,0.003455495956136625,0.0,0.04678217374954138
DocumentBuilderFactoryImpl.newDocumentBuilder|JavaProject.decodeClasspath|JavaProject.readFileEntriesWithException,0.0,0.0,0.0,0.0,0.0
DocumentBuilderImpl.<init>|DocumentBuilderFactoryImpl.newDocumentBuilder|JavaProject.decodeClasspath,0.0,0.06373706666636281,0.0,0.012352000000343349,0.07608906666670616
EECompilationParticipant.isActive|JavaModelManager$CompilationParticipants.getCompilationParticipants|JavaBuilder.initializeBuilder,0.02800775101462901,0.0,0.001100812320099046,0.0,0.029108563334728058
EclipseAdaptorHook.frameworkStop|BaseAdaptor.frameworkStop|SystemBundleActivator.stop,0.0,0.00957265684960482,0.0,0.0003589746321225352,0.009931631481727354
EclipseAppDescriptor.createAppHandle|EclipseAppDescriptor.launchSpecific|ApplicationDescriptor.launch,0.06823990160802693,0.0,0.0054669744235173465,0.0,0.07370687603154427
EclipsePreferences.internalPut|EclipsePreferences.putInt|LaunchingPreferenceInitializer.initializeDefaultPreferences,0.0,0.056183000002420165,0.0,0.010305000001608278,0.06648800000402844
EclipsePreferences.removeNode|EclipsePreferences.removeNode|ProjectPreferences.removeNode,0.0,0.0765402110279324,0.0,0.012198629856573216,0.08873884088450562
ElementImpl.getAttributes|DeferredElementImpl.synchronizeData|ElementImpl.getTagName,0.0,0.04887706666680364,0.0,0.00877999999987272,0.05765706666667636
ElementTree.includes|Workspace.getResourceInfo|Container.findMember,0.07696142383006596,0.0,0.007472077478905071,0.0,0.08443350130897104
Encodings.<clinit>|ToStream.<init>|ToXMLStream.<init>,0.0,0.004486755555586164,0.0,0.0006346666666407449,0.005121422222226909
Engine.accept|LookupEnvironment.askForType|LookupEnvironment.getType,0.0957033333252184,0.0,0.010940000000118744,0.0,0.10664333332533714
ExtensionRegistry.addContribution|ExtensionRegistry.addContribution|EclipseBundleListener.addBundle,0.0328241197856407,0.0,0.0038270361279868345,0.0,0.03665115591362753
FieldInfo.getTypeName|BinaryIndexer.indexDocument|JavaSearchParticipant.indexDocument,0.0,0.09568266666610724,0.0,0.017260000000533182,0.11294266666664042
File.<init>|LocalFileSystem.getStore|InternalFileSystemCore.getStore,0.0,0.05131033333115435,0.0,0.007190000001476922,0.05850033333263127
FileInputStream.available0|FileInputStream.available|StreamDecoder.inReady,0.06816429643903159,0.05122900000181592,0.004583757675466534,0.005445000000084596,0.12942205411639865
FileInputStream.close0|FileInputStream.access$000|FileInputStream$1.close,0.06736233333746591,0.2485356666681279,0.008609999999559173,0.03563000000091658,0.3601380000060696
FileInputStream.open0|FileInputStream.open|FileInputStream.<init>,0.2868838193624716,0.10266100000202034,0.03136587582680524,0.013939999999517262,0.43485069519081443
FileInputStream.readBytes|FileInputStream.read|FilterInputStream.read,0.0,0.054097333331204325,0.0,0.0078000000018316,0.061897333333035924
FileInputStream.readBytes|FileInputStream.read|StreamDecoder.readBytes,0.05527733332322289,0.26116966666692554,0.0041299999987434895,0.04361499999989367,0.36419199998878554
FileOutputStream.<init>|DiskIndex.initialize|Index.<init>,0.0,0.0793456666676017,0.0,0.013670000002700059,0.09301566667030177
FileOutputStream.close0|FileOutputStream.access$000|FileOutputStream$1.close,0.12180665888977459,0.15557480000037077,0.008957916946461836,0.026053999999324638,0.3123933758359318
FileOutputStream.open0|FileOutputStream.open|FileOutputStream.<init>,0.2101966280188457,0.3005816335424307,0.020737051842684484,0.04306412930021372,0.5745794427041746
FileOutputStream.writeBytes|FileOutputStream.write|BufferedOutputStream.flushBuffer,0.9150179078664349,0.0,0.11026379742761697,0.0,1.025281705294052
FileOutputStream.writeBytes|FileOutputStream.write|DiskIndex.writeStreamChars,0.29924191615526674,0.2162780833295983,0.024087572806303657,0.02947624999918238,0.5690838222903511
FileOutputStream.writeBytes|FileOutputStream.write|Util.unzip,0.0,0.9208533999903014,0.0,0.13490399999718647,1.0557573999874879
FileOutputStream.write|FileOutputStream.write|TeeOutputStream.write,0.049037803225009474,0.0,0.003472420118557493,0.0,0.05251022334356697
Formatter$FormatSpecifier.<init>|Formatter.parse|Formatter.format,0.0,0.0,0.0,0.0,0.0
FrameworkDebugOptions.getBooleanOption|BaseStorage.setDebugOptions|BaseStorage.initialize,0.060801442729460274,0.0,0.00533445549613798,0.0,0.06613589822559826
Gregorian.newCalendarDate|Gregorian.newCalendarDate|DerInputBuffer.getTime,0.02629128205605817,0.0,0.0005786287264667309,0.0,0.026869910782524903
Gregorian.newCalendarDate|GregorianCalendar.<init>|Calendar$Builder.build,0.0,0.06956202110689956,0.0,0.011674718440639905,0.08123673954753946
GroupingChecker$PackageRoots.isConsistentClassSpace|GroupingChecker.isConsistentInternal|GroupingChecker.isConsistentInternal,0.01987100398918418,0.0,0.001440249401478057,0.0,0.021311253390662237
HashMap.getNode|HashMap.get|ClassLoader.getPackage,0.05926547463580106,0.0,0.004797210345798979,0.0,0.06406268498160005
HashMap.getNode|HashMap.get|JavaModelCache.getInfo,0.04301334578503261,0.0,0.0024774482953454505,0.0,0.04549079408037806
Hashtable.get|Properties.getProperty|SecuritySupport.readJAXPProperty,0.04885699658625384,0.0,0.0066480971897757936,0.0,0.05550509377602963
HashtableOfArrayToObject.put|HashtableOfArrayToObject.rehash|HashtableOfArrayToObject.put,0.0871382745671263,0.0,0.0073816772291598574,0.0,0.09451995179628617
HashtableOfObject.<init>|HashtableOfObject.rehash|HashtableOfObject.put,0.0,0.1437070666659565,0.0,0.021412000002601416,0.1651190666685579
HashtableOfObject.get|CompletionEngine.acceptTypes|CompletionEngine.findTypesAndPackages,0.05890145769086486,0.0,0.004174680270983915,0.0,0.06307613796184877
HashtableOfObject.get|DiskIndex.copyQueryResults|DiskIndex.mergeWith,1.1757283513067136,0.8601376666726234,0.1427406413879261,0.10701874999843615,2.2856254093656996
HashtableOfObject.get|MemoryIndex.addIndexEntry|Index.addIndexEntry,0.06423182713147753,0.10885706004329093,0.007577085264856824,0.015830164825448717,0.19649613726507398
HashtableOfObject.put|DiskIndex.copyQueryResults|DiskIndex.mergeWith,0.17332991985365992,0.12109891666599044,0.021147227010286988,0.014620000003560563,0.3301960635334979
HashtableOfObject.put|HashtableOfObject.rehash|HashtableOfObject.put,0.31499111245618777,0.21814000000449593,0.030770695873317547,0.023329999998774536,0.5872318083327758
HashtableOfObject.rehash|HashtableOfObject.put|DiskIndex.copyQueryResults,0.09682199998254268,0.15454066666522218,0.010460000002543286,0.0160600000017439,0.277882666652052
HashtableOfObjectToInt.put|SourceElementParser.consumeMethodHeaderName|Parser.consumeRule,0.0,0.07283533333490291,0.0,0.012604999998681402,0.08544033333358432
HashtableOfType.get|PackageBinding.getType0|LookupEnvironment.askForType,0.08076710416753485,0.0,0.004781562498919811,0.0,0.08554866666645466
HeapByteBuffer.<init>|ByteBuffer.allocate|StreamDecoder.<init>,0.17601094883121482,0.0,0.011398436270670867,0.0,0.18740938510188568
Index.addIndexEntry|SearchDocument.addIndexEntry|AbstractIndexer.addIndexEntry,0.0,0.19182308333741577,0.0,0.026167499999549666,0.21799058333696544
IndexBasedHierarchyBuilder.determinePossibleSubTypes|IndexBasedHierarchyBuilder.build|TypeHierarchy.compute,0.06152333334709208,0.0,0.005875000000135818,0.0,0.06739833334722789
IndexManager.indexAll|DeltaProcessor.updateIndex|DeltaProcessor.updateCurrentDeltaAndIndex,0.040908095231446034,0.0,0.002392857142175281,0.0,0.04330095237362132
IndexManager.indexLibrary|IndexManager.indexAll|DeltaProcessor.updateIndex,0.04788357142907833,0.0,0.004778571426521964,0.0,0.052662142855600294
IndexManager.saveIndex|AddJarFileToIndex.execute|JobManager.run,0.060057235683991725,0.0,0.004066081130759515,0.0,0.06412331681475124
IndexManager.saveIndex|SaveIndex.execute|JobManager.run,0.09642442311648625,0.0,0.01242944253572398,0.0,0.10885386565221022
Inflater.inflateBytes|Inflater.inflate|InflaterInputStream.read,3.7313654686214646,1.1470473166754043,0.39658468124803575,0.18325650000430563,5.45825396654921
Inflater.inflate|InflaterInputStream.read|ZipInputStream.read,0.052006909594765435,0.0,0.005684296630666566,0.0,0.057691206225432
Inflater.needsDictionary|InflaterInputStream.read|ZipInputStream.read,0.0,0.04172800000136097,0.0,0.005839999997988343,0.04756799999934931
Inflater.needsInput|InflaterInputStream.read|FilterInputStream.read,0.056759235727100885,0.0,0.006838870905999609,0.0,0.06359810663310049
Initializer.<clinit>|Class.forName0|Class.forName,0.10221333333174698,0.0,0.005320000001423371,0.0,0.10753333333317035
JarFile.initializeVerifier|JarFile.getInputStream|URLClassPath$JarLoader$2.getInputStream,0.04880562259643688,0.0,0.005602480012084346,0.0,0.054408102608521226
JavaCore.start|BundleContextImpl$1.run|AccessController.doPrivileged,0.0,0.00878656249975999,0.0,0.0014874999995602896,0.01027406249932028
JavaElement.equals|SourceRefElement.equals|SourceField.equals,0.04728188889351224,0.0,0.002302222224426697,0.0,0.04958411111793894
JavaModelCache.getInfo|JavaModelManager.getInfo|Openable.exists,0.058406185183061836,0.0,0.0036399999985911157,0.0,0.06204618518165295
JavaModelManager.getPerProjectInfo|JavaModelManager.getPerProjectInfoCheckExistence|JavaProject.getPerProjectInfo,0.0,0.0,0.0,0.0,0.0
JavaProject.decodeClasspath|JavaProject.readFileEntriesWithException|JavaModelManager$PerProjectInfo.readAndCacheClasspath,0.0,0.04531226666877046,0.0,0.00878800000064075,0.05410026666941121
JavaProject.getPackageFragmentRoot|JavaProject.getPackageFragmentRoot|JavaProject.computePackageFragmentRoots,0.0,0.09241234079440974,0.0,0.01262722224811102,0.10503956304252077
JavaSearchScope.<clinit>|BasicSearchEngine.createJavaSearchScope|SearchEngine.createJavaSearchScope,0.049037803225009474,0.0,0.003472420118557493,0.0,0.05251022334356697
JavadocParser.createTypeReference|AbstractCommentParser.parseQualifiedName|AbstractCommentParser.parseReference,0.08878566667165917,0.0,0.004754999999325567,0.0,0.09354066667098473
JobManager.moveToNextJob|IndexManager.moveToNextJob|JobManager.run,0.0,0.0506386666650845,0.0,0.0046450000008917405,0.05528366666597624
JobManager.nextJob|JobManager.startJob|WorkerPool.startJob,0.0,0.0,0.0,0.0,0.0
KeyedHashSet$EquinoxSetIterator.next|StateImpl.getFragments|BundleDescriptionImpl.getFragments,0.0,0.0,0.0,0.0,0.0
LaunchManager.serializeDocument|DebugPlugin.serializeDocument|LaunchingPlugin.getLibraryInfoAsXML,0.0,0.0027479333332545747,0.0,0.00029533333322938733,0.003043266666483962
LaunchingPlugin.handleDebugEvents|DebugPlugin$EventNotifier.run|SafeRunner.run,0.0,0.0,0.0,0.0,0.0
LaunchingPlugin.start|BundleContextImpl$1.run|AccessController.doPrivileged,0.0,0.0550333333327823,0.0,0.0109599999996135,0.06599333333239579
LocalFile.openInputStream|FileSystemResourceManager.read|File.getContents,0.0,0.09346008333644323,0.0,0.011442499999854285,0.10490258333629751
Locale.getDefault|MessageFormat.<init>|MessageFormat.format,0.05677799984245925,0.0,0.004594687926664401,0.0,0.06137268776912365
LookupEnvironment.buildTypeBindings|MatchLocator.parseAndBuildBindings|MatchLocator.locateMatches,0.0424687546074659,0.0,0.003445264408181023,0.0,0.04591401901564692
LookupEnvironment.createBinaryTypeFrom|LookupEnvironment.createBinaryTypeFrom|MatchLocator.accept,0.04920158795894592,0.0,0.004069749323303414,0.0,0.05327133728224934
LookupEnvironment.newMethodVerifier|LookupEnvironment.methodVerifier|Scope.findMethod,0.036139503493040105,0.0,0.002827724513558047,0.0,0.03896722800659815
ManifestDigester.findSection|ManifestDigester.<init>|JarVerifier.processEntry,0.06244557724156359,0.0,0.007649087979581389,0.0,0.07009466522114498
MatchLocator.<init>|JavaSearchParticipant.locateMatches|BasicSearchEngine.findMatches,0.05926547463580106,0.0,0.004797210345798979,0.0,0.06406268498160005
MatchLocator.newMethodReferenceMatch|ConstructorLocator.newDeclarationMatch|MatchLocator.reportMatching,0.049296603850368194,0.0,0.005176766568584612,0.0,0.0544733704189528
MatchLocatorParser.consumeMethodInvocationName|Parser.consumeRule|Parser.parse,0.07068176930070644,0.0,0.004035872207096971,0.0,0.07471764150780341
MemberDeclarationVisitor.matchNode|MemberDeclarationVisitor.visit|SingleTypeReference.traverse,0.036139503493040105,0.0,0.002827724513558047,0.0,0.03896722800659815
MemoryIndex.addIndexEntry|Index.addIndexEntry|SearchDocument.addIndexEntry,0.11381033332630372,0.4373543114940407,0.012009999998554122,0.06548175179440574,0.6286563966133043
MethodInfo.createMethod|ClassFileReader.<init>|ClassFileReader.<init>,0.04252100000546003,0.0,0.001164999996641806,0.0,0.043686000002101835
MethodInfo.readExceptionAttributes|MethodInfo.getExceptionTypeNames|BinaryIndexer.indexDocument,0.0,0.13165299999915683,0.0,0.017819999998512987,0.14947299999766983
MethodLocator.initializePolymorphicSearch|MatchLocator.locateMatches|JavaSearchParticipant.locateMatches,0.05220977777477216,0.0,0.0057511111113449755,0.0,0.05796088888611714
Object.<init>|ASTNode.<init>|Statement.<init>,0.08160399999663544,0.0,0.00743999999637405,0.0,0.08904399999300949
Object.hashCode|HashtableOfObjectToInt.put|SourceElementParser.consumeExitVariableWithInitialization,0.0,0.05358866666453347,0.0,0.005225000000791624,0.058813666665325094
Object.hashCode|HashtableOfObjectToInt.put|SourceElementParser.consumeMethodHeaderName,0.0,0.05019133333310795,0.0,0.005419999998897159,0.05561133333200511
Object.hashCode|SimpleLookupTable.removeKey|MatchLocator.reportMatchingSuper,0.04693600000852408,0.0,0.0037349999984144224,0.0,0.050671000006938506
Object.hashCode|WeakHashMap.hash|WeakHashMap.put,0.0,0.07220466666816112,0.0,0.009424999998979423,0.08162966666714055
PackageBinding.findPackage|PackageBinding.getPackage|CompilationUnitScope.buildTypeBindings,0.0551454103580042,0.0,0.006619456309390316,0.0,0.061764866667394516
ParseUtil.encodePath|URLClassPath$FileLoader.getResource|URLClassPath$FileLoader.findResource,0.06052787483222865,0.0,0.007626152669842644,0.0,0.0681540275020713
Parser.checkAndSetModifiers|Parser.consumeToken|Parser.parse,0.0,0.0735676666687747,0.0,0.008515000001352746,0.08208266667012745
Parser.consumeBlockStatements|Parser.consumeRule|Parser.parse,0.057892613614717175,0.0,0.004604499970459302,0.0,0.06249711358517648
Parser.consumeConstructorHeader|Parser.consumeRule|Parser.parse,0.0,0.048665333333095376,0.0,0.008880000001227017,0.05754533333432239
Parser.consumeEqualityExpression|Parser.consumeRule|Parser.parse,0.059914755376092525,0.0,0.005547302085173689,0.0,0.06546205746126621
Parser.consumeFormalParameterListopt|Parser.consumeRule|Parser.parse,0.0,0.06583666666847421,0.0,0.008950000000671327,0.07478666666914553
Parser.consumeInsideCastExpressionLL1|Parser.consumeRule|Parser.parse,0.0665486666742557,0.0,0.005929999999352732,0.0,0.07247866667360843
Parser.consumeMethodHeaderName|MatchLocatorParser.consumeMethodHeaderName|Parser.consumeRule,0.11586329681731758,0.0,0.00974504781982341,0.0,0.125608344637141
Parser.consumeMethodInvocationName|SourceElementParser.consumeMethodInvocationName|Parser.consumeRule,0.05667913077637025,0.0,0.005411594934844278,0.0,0.062090725711214524
Parser.consumeRule|Parser.parse|Parser.parse,1.044432459622863,0.1667886666667376,0.08576482353653553,0.02073999999750716,1.317725949823643
Parser.consumeSingleTypeImportDeclarationName|ImportMatchLocatorParser.consumeSingleTypeImportDeclarationName|Parser.consumeRule,0.055977999997724376,0.0,0.005082857142302341,0.0,0.061060857140026716
Parser.consumeToken|Parser.parse|Parser.parse,0.03188060134782877,0.042806000000079315,0.003799069897355389,0.0058200000009189035,0.08430567124618238
Parser.getUnspecifiedReferenceOptimized|MatchLocatorParser.getUnspecifiedReferenceOptimized|Parser.consumePostfixExpression,0.08429058171204361,0.0,0.006192659515668104,0.0,0.09048324122771172
Parser.initTables|Parser.<clinit>|IndexManager.getSourceElementParser,0.1139796713035357,0.0,0.012644212764776338,0.0,0.12662388406831204
Parser.ntAction|Parser.parse|Parser.parse,0.07574447904049016,0.05104566666705068,0.0054821666793285284,0.006240000000010089,0.13851231238687944
Parser.parse|ConstructorDeclaration.parseStatements|TypeDeclaration.parseMethods,0.0,0.0735676666687747,0.0,0.008515000001352746,0.08208266667012745
Parser.parse|Parser.parse|ConstructorDeclaration.parseStatements,0.0,0.07120766666533503,0.0,0.011280000001230896,0.08248766666656593
Parser.parse|Parser.parse|MatchLocatorParser.parseBodies,0.18178266668110155,0.0,0.01255999999799921,0.0,0.19434266667910075
Parser.parse|Parser.parse|MethodDeclaration.parseStatements,0.07504839071746401,0.177286666665168,0.005215513242184252,0.02739499999976639,0.2849455706245827
Parser.parse|Parser.parse|Parser.parse,0.08878566667165917,0.12662766666471725,0.004754999999325567,0.01690500000161895,0.23707333333732095
Parser.pushOnExpressionStackLengthStack|Parser.consumeToken|Parser.parse,0.0,0.08648700000048848,0.0,0.015309999997649962,0.10179699999813845
Parser.pushOnExpressionStack|Parser.consumeToken|Parser.parse,0.059814666669505336,0.0,0.009189999999459056,0.0,0.06900466666896439
Parser.pushOnGenericsIdentifiersLengthStack|Parser.consumeClassOrInterfaceName|Parser.consumeRule,0.06479899999491559,0.0,0.00353999999545825,0.0,0.06833899999037384
Parser.tAction|Parser.parse|Parser.parse,0.42724904388038526,0.6025558000056965,0.033030264476539783,0.08423199999767045,1.1470671083602921
Path.append|Container.findMember|Container.findMember,0.06510823158395243,0.0,0.007456729194885782,0.0,0.07256496077883821
Path.computeHashCode|Path.initialize|Path.<init>,0.07312033332224624,0.0,0.007870000001275912,0.0,0.08099033332352215
Path.computeSegments|Path.initialize|Path.<init>,0.04753254183083525,0.0,0.004392316464876629,0.0,0.05192485829571188
Path.equals|SimpleLookupTable.get|MemoryIndex.addIndexEntry,0.0,0.06811533333287419,0.0,0.009495000000849057,0.07761033333372325
PatternSearchJob.execute|JobManager.performConcurrentJob|BasicSearchEngine.searchAllTypeNames,0.04576637240497302,0.0,0.0036152708791770656,0.0,0.04938164328415009
Plugin$2.run|Plugin.savePluginPreferences|SaveManager.saveMetaInfo,0.0,0.0,0.0,0.0,0.0
PreferenceForwarder.getPluginPreferences|PreferenceForwarder.getString|ResourcesPlugin.getEncoding,0.0,0.05507399999866417,0.0,0.004640000001624381,0.05971400000028855
Properties.load0|Properties.load|PropertyResourceBundle.<init>,0.0,0.07521566666400759,0.0,0.01403999999941637,0.08925566666342395
RSASignature.initCommon|RSASignature.engineInitVerify|Signature$Delegate.init,0.05168943017131413,0.0,0.003430950925478776,0.0,0.05512038109679291
RandomAccessFile.<init>|Locker_JavaNio.lock|StorageManager.lock,0.0,0.0,0.0,0.0,0.0
ReferenceBinding.compare|ReferenceBinding$3.compare|TimSort.binarySort,0.11451050421468482,0.0,0.00761765643582628,0.0,0.1221281606505111
ReferenceBinding.getMemberType|Scope.findMemberType|Scope.getTypeOrPackage,0.10203670692277234,0.0,0.008522742843973766,0.0,0.1105594497667461
ResolverImpl.initialize|ResolverImpl.resolve|StateImpl.resolve,0.053410979727594926,0.0,0.004022807589851435,0.0,0.05743378731744636
ResourceInfo.getLocalSyncInfo|RefreshLocalVisitor.visit|UnifiedTree.accept,0.0,0.07882328353315401,0.0,0.011813025290232836,0.09063630882338686
SHA.<init>|GeneratedConstructorAccessor1.newInstance|DelegatingConstructorAccessorImpl.newInstance,0.0,0.0,0.0,0.0,0.0
SHA.implCompress|DigestBase.implCompressMultiBlock|DigestBase.engineUpdate,0.08261562653561193,0.0,0.004187468850656973,0.0,0.0868030953862689
Scanner.getCurrentIdentifierSource|Parser.pushIdentifier|Parser.consumeToken,0.0,0.07708733333371734,0.0,0.012340000001131557,0.0894273333348489
Scanner.getCurrentTokenSourceString|Parser.consumeToken|Parser.parse,0.046878881325814976,0.0,0.003186160073888189,0.0,0.050065041399703164
Scanner.getNextChar|Scanner.getNextToken|Parser.parse,0.23387262168014106,0.1633096666628262,0.014172732774056595,0.02187499999611949,0.43323002111314335
Scanner.getNextToken|Parser.checkNonNLSAfterBodyEnd|Parser.parse,0.05392807645837795,0.0,0.0035645905230214854,0.0,0.05749266698139944
Scanner.getNextToken|Parser.parse|Parser.parse,0.8943264129933228,0.984639497128958,0.06825283109622728,0.13253118257802782,2.0797499237965362
Scanner.getNextToken|Scribe.printNextToken|CodeFormatterVisitor.format,0.06106554963335997,0.0,0.006083168050658545,0.0,0.06714871768401852
Scanner.getNextToken|Scribe.printTrailingComment|CodeFormatterVisitor.formatStatements,0.06799280392324578,0.0,0.006726788139981075,0.0,0.07471959206322686
Scanner.internalScanIdentifierOrKeyword|Scanner.scanIdentifierOrKeyword|Scanner.getNextToken,0.150923845454276,0.3753053333348361,0.010122904950378112,0.05097000000144664,0.587322083740937
Scanner.internalScanIdentifierOrKeyword|SourceIndexerRequestor.acceptTypeReference|SourceElementParser.getTypeReference,0.0,0.03814700000172403,0.0,0.0058200000009189035,0.043967000002642934
Scanner.jumpOverMethodBody|Scanner.getNextToken|Parser.parse,0.0691833245888509,0.39719666666739306,0.00551405107980761,0.049254999998083804,0.5211490423341354
Scanner.optimizedCurrentTokenSource4|Scanner.getCurrentIdentifierSource|Parser.pushIdentifier,0.11582433333387597,0.0,0.009439999994356185,0.0,0.12526433332823217
Scanner.optimizedCurrentTokenSource6|Scanner.getCurrentIdentifierSource|Parser.pushIdentifier,0.0,0.06466936363589908,0.0,0.008918181819105732,0.07358754545500482
Scanner.pushLineSeparator|Scanner.getNextToken|AbstractCommentParser.readToken,0.0,0.13652003921257952,0.0,0.018836470588461912,0.15535650980104143
Scanner.pushLineSeparator|Scanner.getNextToken|Parser.parse,0.3564319968804557,0.22918699999718228,0.03704111915956024,0.0349900000001071,0.6576501160373053
Scanner.pushLineSeparator|Scanner.jumpOverMethodBody|CompletionScanner.getNextToken,0.07626660900436942,0.0,0.006602446085179726,0.0,0.08286905508954914
Scanner.pushLineSeparator|Scanner.jumpOverMethodBody|Scanner.getNextToken,0.1728519224677788,0.14089000000240048,0.014642822154558938,0.017069999999269683,0.3454547446240079
Scanner.scanIdentifierOrKeyword|Scanner.getNextToken|Scribe.printComment,0.09314708331483118,0.0,0.008897961975651934,0.0,0.10204504529048311
Scanner.scanIdentifierOrKeyword|Scanner.jumpOverMethodBody|Scanner.getNextToken,0.087625999993179,0.12575299999783354,0.004750000000058208,0.017435000001569282,0.23556399999264002
ScannerHelper.isWhitespace|Scribe.printBlockComment|Scribe.printComment,0.07140470910865372,0.0,0.005659857332415945,0.0,0.07706456644106967
ScannerHelper.isWhitespace|Signature.encodeQualifiedName|Signature.encodeTypeSignature,0.0,0.06734200000209968,0.0,0.010859999999714392,0.07820200000181407
Scope.<init>|BlockScope.<init>|MethodScope.<init>,0.07015324008805297,0.0,0.004567889894688721,0.0,0.07472112998274169
Scope.findExactMethod|Scope.getImplicitMethod|MessageSend.resolveType,0.04876828626282343,0.0,0.0032511884666751698,0.0,0.0520194747294986
Scope.getTypeOrPackage|Scope.getType|ArrayTypeReference.getTypeBinding,0.1042312231821264,0.0,0.0065508242616088355,0.0,0.11078204744373524
Scope.outerMostMethodScope|BlockScope.addLocalVariable|LocalDeclaration.resolve,0.03383085713721812,0.0,0.002040000002515236,0.0,0.035870857139733356
Scribe.getRootEdit|CodeFormatterVisitor.format|DefaultCodeFormatter.formatCompilationUnit,0.06862964657270555,0.0,0.006283393236559378,0.0,0.07491303980926493
Scribe.isValidEdit|Scribe.getRootEdit|CodeFormatterVisitor.format,0.12374373964894034,0.0,0.010142530664292982,0.0,0.13388627031323333
Scribe.print|Scribe.printQualifiedReference|CodeFormatterVisitor.format,0.05103417461373876,0.0,0.003404488462055375,0.0,0.05443866307579414
Scribe.print|Scribe.printQualifiedReference|CodeFormatterVisitor.visit,0.06799280392324578,0.0,0.006726788139981075,0.0,0.07471959206322686
SearchDocument.addIndexEntry|AbstractIndexer.addIndexEntry|AbstractIndexer.addNameReference,0.0,0.04913300000043819,0.0,0.004660000001119139,0.053793000001557324
SearchableEnvironment.find|SearchableEnvironment.findType|LookupEnvironment.askForType,0.09427900000203712,0.0,0.010979999999108259,0.0,0.10525900000114538
SecuritySupport.getFileExists|SecuritySupport.readJAXPProperty|FeaturePropertyBase.getSystemProperty,0.0,0.005518933333547062,0.0,0.0005786666667619202,0.006097600000308982
SerializerBase.<init>|ToStream.<init>|ToXMLStream.<init>,0.0,0.004265688888780359,0.0,0.0006233333333511838,0.004889022222131543
Signature.getInstance|SignerInfo.verify|PKCS7.verify,0.0344390041714411,0.0,0.0034047236551252398,0.0,0.03784372782656634
SimpleLookupTable.get|MemoryIndex.addIndexEntry|Index.addIndexEntry,0.0,0.055094333331605114,0.0,0.005615000001853332,0.060709333333458446
SimpleLookupTable.put|DiskIndex.computeDocumentNames|DiskIndex.mergeWith,0.08390299999155104,0.04892999999962437,0.0068799999983942435,0.004660000001119139,0.1443729999906888
SimpleLookupTable.put|MemoryIndex.addIndexEntry|Index.addIndexEntry,0.08833325000240519,0.0,0.00718833333121438,0.0,0.09552158333361957
SimpleLookupTable.put|MemoryIndex.remove|Index.remove,0.0,0.050638666667509824,0.0,0.0070049999994807885,0.05764366666699061
SimpleLookupTable.put|SimpleLookupTable.rehash|SimpleLookupTable.put,0.0,0.06628433333147161,0.0,0.010874999999941792,0.07715933333141341
SimpleSet.includes|ClasspathJar.isPackage|ClasspathJar.findClass,0.16449841125178524,0.0,0.00839618846615295,0.0,0.1728945997179382
SimpleSet.includes|ClasspathJar.isPackage|JavaSearchNameEnvironment.isPackage,0.03928348428502525,0.0,0.0026822706916039924,0.0,0.04196575497662924
SimpleWordSet.add|MemoryIndex.addIndexEntry|Index.addIndexEntry,0.4637969062411807,0.8676227017532941,0.05314233175233367,0.12155467105300263,1.5061166107998112
SimpleWordSet.add|SimpleWordSet.rehash|SimpleWordSet.add,0.0,0.3399884444480887,0.0,0.05770166667288221,0.39769011112097086
SimpleWordSet.rehash|SimpleWordSet.add|MemoryIndex.addIndexEntry,0.054405428082780066,0.2527039512101734,0.00400979019456607,0.03861359953600388,0.34973276902352335
SourceElementParser.<init>|IndexingParser.<init>|IndexManager.getSourceElementParser,0.04302317723276066,0.0,0.0069012024433829176,0.0,0.049924379676143577
SourceElementParser.getTypeReference|Parser.consumeInstanceOfExpression|Parser.consumeRule,0.0,0.13234433333370058,0.0,0.01948999999876833,0.1518343333324689
SourceElementParser.getTypeReference|Parser.consumeMethodHeaderName|SourceElementParser.consumeMethodHeaderName,0.07994952843965132,0.0,0.007448095835317214,0.0,0.08739762427496854
SourceType.getField|MatchLocator.createHandle|MatchLocator.reportMatching,0.060500482135028975,0.0,0.00495093098626879,0.0,0.06545141312129776
SourceTypeBinding.isEquivalentTo|ReferenceBinding.isCompatibleWith0|ReferenceBinding.isCompatibleWith,0.05343687320775538,0.0,0.0047662529536537275,0.0,0.0582031261614091
SourceTypeBinding.isGenericType|LookupEnvironment.convertToParameterizedType|Scope.enclosingReceiverType,0.1157301249889618,0.0,0.00514499999947778,0.0,0.12087512498843958
StatsManager.setDebugOptions|StatsManager.<clinit>|Class.forName0,0.06902275794219709,0.0,0.005164352050471231,0.0,0.07418710999266832
String.<init>|CompilationUnit.<init>|SourceIndexer.indexDocument,0.0,0.054280666668394886,0.0,0.005199999999604188,0.059480666667999074
String.<init>|String.substring|DiskIndex.readChunk,0.06685495783645763,0.0,0.0045225678324024715,0.0,0.0713775256688601
String.<init>|String.substring|JarPackageFragmentRoot.initRawPackageInfo,0.0,0.0,0.0,0.0,0.0
String.charAt|UnixFileSystem.normalize|File.<init>,0.0,0.04913300000043819,0.0,0.004660000001119139,0.053793000001557324
String.charAt|Util.splitOn|JarPackageFragmentRoot.initRawPackageInfo,0.06064719083027888,0.0,0.004385717715997513,0.0,0.06503290854627639
String.compareTo|MatchLocator$1.compare|Util.quickSort,0.03483382801116708,0.0,0.002781081016465774,0.0,0.03761490902763285
String.concat|URLClassLoader.definePackage|URLClassLoader.definePackageInternal,0.0318911275808502,0.0,0.0015064802832203187,0.0,0.03339760786407052
String.equals|JavaSearchScope.indexOf|JavaSearchScope.getAccessRuleSet,0.03678976373027045,0.0,0.0029944509380363084,0.0,0.03978421466830676
String.hashCode|HashtableOfArrayToObject.hashCode|HashtableOfArrayToObject.getKey,0.06794632905947304,0.0,0.0064451395517966855,0.0,0.07439146861126972
String.hashCode|HashtableOfArrayToObject.hashCode|HashtableOfArrayToObject.hashCode,0.05271135242868536,0.0,0.008449318788699376,0.0,0.061160671217384735
String.hashCode|SimpleLookupTable.put|MemoryIndex.addIndexEntry,0.0,0.04974366666768522,0.0,0.005399999999402401,0.05514366666708762
String.hashCode|SimpleLookupTable.put|MemoryIndex.remove,0.0,0.04605358333265031,0.0,0.00773499999983566,0.05378858333248597
String.indexOf|String.indexOf|File.isInvalid,0.0692004542881209,0.0,0.0056850067233902455,0.0,0.07488546101151114
String.indexOf|String.indexOf|String.indexOf,0.06736233333746591,0.0,0.008609999999559173,0.0,0.07597233333702509
String.length|DiskIndex.writeAllDocumentNames|DiskIndex.mergeWith,0.0668752907491726,0.0,0.005043891790691428,0.0,0.07191918253986403
String.regionMatches|NameLookup.seekTypesInSourcePackage|NameLookup.seekTypes,0.04576637240497302,0.0,0.0036152708791770656,0.0,0.04938164328415009
String.substring|DiskIndex.readChunk|DiskIndex.readDocumentName,0.10755905532144933,0.0,0.008450640936545212,0.0,0.11600969625799454
String.substring|Index.containerRelativePath|SearchDocument.getContainerRelativePath,0.0,0.02903749999859428,0.0,0.003194999999323045,0.03223249999791733
String.substring|JavaSearchNameEnvironment.findClass|JavaSearchNameEnvironment.findType,0.08926828572293742,0.0,0.005545714283860953,0.0,0.09481400000679838
String.toCharArray|ClasspathSourceDirectory.directoryTable|ClasspathSourceDirectory.isPackage,0.057780000002821914,0.0,0.004899999999906868,0.0,0.06268000000272878
String.valueOf|NLS.bind|LocalFile.internalDelete,0.0,0.05358129154012423,0.0,0.009651752463472685,0.06323304400359692
StringBuffer.append|Scribe.printIndentationIfNecessary|Scribe.printIndentationIfNecessary,0.05038803092835571,0.0,0.005348677565818268,0.0,0.05573670849417398
StringBuffer.append|StringBuffer.<init>|NamedMember.getFullyQualifiedName,0.10674740118383792,0.0,0.0099943922509577,0.0,0.11674179343479563
StringBuffer.toString|DiskIndex.readChunk|DiskIndex.readDocumentName,0.06726379718984292,0.0,0.007625999679540136,0.0,0.07488979686938306
StringCoding$StringEncoder.encode|StringCoding.encode|String.getBytes,0.0,0.07882328353315401,0.0,0.011813025290232836,0.09063630882338686
SuperTypeReferencePattern.createIndexKey|AbstractIndexer.addClassDeclaration|BinaryIndexer.indexDocument,0.0,0.07263170833236167,0.0,0.012241249999533466,0.08487295833189513
SyntheticArgumentBinding.<init>|NestedTypeBinding.addSyntheticArgument|NestedTypeBinding.addSyntheticArgumentAndField,0.08028166666432904,0.0,0.005939999995462132,0.0,0.08622166665979117
ThisReference.implicitThis|Parser.consumeMethodInvocationName|MatchLocatorParser.consumeMethodInvocationName,0.07736792030686247,0.0,0.0069848767273447965,0.0,0.08435279703420727
ThreadCallsiteInjector.transform|TransformerManager.transform|InstrumentationImpl.transform,0.0,0.0,0.0,0.0,0.0
ThreadLocal.get|StringCoding.deref|StringCoding.encode,0.0,0.06997066666566146,0.0,0.011504000000422822,0.08147466666608427
Throwable.fillInStackTrace|Throwable.fillInStackTrace|Throwable.<init>,0.5114768465904942,0.08878566666680854,0.04422658367451431,0.01373999999971905,0.6582290969315361
TimSort.<init>|TimSort.sort|Arrays.sort,0.049296603850368194,0.0,0.005176766568584612,0.0,0.0544733704189528
Tokenizer.getString|AliasMapper.initAliases|AliasMapper.aliasOSName,0.029805659999686342,0.0,0.0008470218000673924,0.0,0.030652681799753737
TransformerFactoryImpl.newTransformer|LaunchManager.serializeDocument|DebugPlugin.serializeDocument,0.0,0.0027479333332545747,0.0,0.00029533333322938733,0.003043266666483962
TransletOutputHandlerFactory.getSerializationHandler|TransformerImpl.getOutputHandler|TransformerImpl.transform,0.0,0.011467822222039103,0.0,0.0014546666667835477,0.01292248888882265
TreeMap.navigableKeySet|TreeSet.iterator|ComputeProjectOrder.computeProjectOrder,0.012162042175851252,0.0,0.0,0.0,0.012162042175851252
TypeConverter.decodeType|TypeConverter.createTypeReference|SourceTypeConverter.convert,0.09892284433097154,0.0,0.010828751391389425,0.0,0.10975159572236096
TypeReference.<init>|SingleTypeReference.<init>|TypeReference.baseTypeReference,0.0917259824946298,0.0,0.009141382198586071,0.0,0.10086736469321587
URI.match|URI.access$300|URI$Parser.scan,0.10665899999730756,0.13417574584081307,0.010335000002669405,0.015270636950257266,0.2664403827910473
URLClassPath$JarLoader$2.getInputStream|Resource.cachedInputStream|Resource.getByteBuffer,0.05889840617600309,0.0,0.00457100080333729,0.0,0.06346940697934038
UTF_8$Decoder.decodeArrayLoop|UTF_8$Decoder.decodeLoop|CharsetDecoder.decode,0.41784766069259033,0.2779339999979129,0.03402508679078605,0.03799000000435626,0.7677967474856455
UTF_8$Encoder.encode|StringCoding$StringEncoder.encode|StringCoding.encode,0.0,0.10325071102368535,0.0,0.01845849667151586,0.12170920769520122
UnixFileSystem.checkAccess|File.canWrite|LocalFile.fetchInfo,0.0,0.04927637693601651,0.0,0.009048483322489555,0.05832486025850607
UnixFileSystem.createDirectory|File.mkdir|File.mkdirs,0.0,0.07655349999913597,0.0,0.006483750001279987,0.08303725000041595
UnixFileSystem.delete0|UnixFileSystem.delete|File.delete,0.08803944748581402,0.6612037412812922,0.006899331712292749,0.09659110354287707,0.852733624022276
UnixFileSystem.getBooleanAttributes0|UnixFileSystem.getBooleanAttributes|File.exists,0.0,0.15969647924777694,0.0,0.024653154179397663,0.18434963342717461
UnixFileSystem.getBooleanAttributes0|UnixFileSystem.getBooleanAttributes|File.isDirectory,0.0,0.0,0.0,0.0,0.0
UnixFileSystem.getBooleanAttributes0|UnixFileSystem.getBooleanAttributes|File.isFile,0.0,0.06431718282935599,0.0,0.010356170033616928,0.07467335286297291
UnixFileSystem.getBooleanAttributes0|UnixFileSystem.getBooleanAttributes|File.isHidden,0.0,0.06812456973466602,0.0,0.01059930339957985,0.07872387313424586
UnixFileSystem.getLength|File.length|LocalFile.fetchInfo,0.0,0.11089120573263556,0.0,0.017496218100393,0.12838742383302856
UnixFileSystem.list|File.list|LocalFile.childNames,0.0,0.15852061625683866,0.0,0.02415162864471372,0.18267224490155237
UnixFileSystem.prefixLength|File.getCanonicalFile|File.mkdirs,0.0,0.03935885714184093,0.0,0.005279999997583218,0.04463885713942415
Util.equalArraysOrNull|HashtableOfArrayToObject.get|JavaProjectElementInfo.newNameLookup,0.0,0.0,0.0,0.0,0.0
Util.getInputStreamAsCharArray|Util.getResourceContentsAsCharArray|Util.getResourceContentsAsCharArray,0.0,0.044625428571764915,0.0,0.005545714285939798,0.050171142857704715
Util.getLineNumber|DefaultCommentMapper.getLineNumber|DefaultCommentMapper$CommentMapperVisitor.visitNode,0.10335300000345644,0.0,0.007849999999355834,0.0,0.11120300000281227
Util.getLineNumber|DefaultCommentMapper.getLineNumber|DefaultCommentMapper.storeLeadingComments,0.07015000000440827,0.0,0.005900000001323254,0.0,0.07605000000573152
Util.getZipEntryByteContent|AddJarFileToIndex.execute|JobManager.run,0.10173462466600117,0.06997066666566146,0.007627643158938192,0.011504000000422822,0.19083693449102362
Util.isExcluded|PackageFragmentRoot.computeFolderChildren|PackageFragmentRoot.computeFolderChildren,0.062089213748127,0.0,0.004495282586645031,0.0,0.06658449633477204
Util.quickSort|Util.quickSort|Util.quickSort,0.9716928557838779,0.129943666664379,0.07584823431564311,0.018500000000737295,1.1959847567646373
Util.quickSort|Util.sort|DiskIndex.computeDocumentNames,0.0,0.0441690000006929,0.0,0.005619999998695372,0.04978899999938827
Util.quickSort|Util.sort|DiskIndex.writeDocumentNumbers,0.11800761009929239,0.08636466666212073,0.008261110228158603,0.009109999999054708,0.22174338698862642
Util.splitOn|NameLookup.seekPackageFragments|NameLookup.findType,0.04301334578503261,0.0,0.0024774482953454505,0.0,0.04549079408037806
ValidationManager.setEntityState|XMLDTDValidator.handleStartElement|XMLDTDValidator.startElement,0.0,0.06752768228644032,0.0,0.011843743586747824,0.07937142587318814
Version.equals|VersionRange.equals|StateWriter.writeVersionRange,0.0,0.024591362788609256,0.0,0.003206767701790556,0.027798130490399812
WeakHashSet.add|JavaModelManager.intern|PackageFragmentRoot.computeFolderChildren,0.07143089012592407,0.0,0.00789275708308533,0.0,0.0793236472090094
WorkspaceRoot.getProject|FullSourceWorkspaceTests.setUpFullSourceWorkspace|FullSourceWorkspaceTests.setup,0.0,0.0,0.0,0.0,0.0
X509CertInfo.parse|X509CertInfo.<init>|X509CertImpl.parse,0.043324601309350064,0.0,0.002249395341803477,0.0,0.04557399665115354
X509Factory.engineGenerateCertificate|CertificateFactory.generateCertificate|PKCS7.parseSignedData,0.05259639891782801,0.0,0.0018629698672703184,0.0,0.05445936878509833
XML11Configuration.setProperty|DOMParser.setProperty0|DOMParser.setProperty,0.0,0.040734462270546216,0.0,0.0057357442265369325,0.04647020649708315
XMLDTDValidator.startDocument|XMLDocumentScannerImpl.startEntity|XMLVersionDetector.startDocumentParsing,0.0,0.09987681952392063,0.0,0.015762957645624038,0.11563977716954467
XMLDocumentFragmentScannerImpl.scanAttribute|XMLDocumentFragmentScannerImpl.scanStartElement|XMLDocumentFragmentScannerImpl$FragmentContentDriver.next,0.0,0.03790693333139643,0.0,0.006543999999606361,0.04445093333100279
XMLSecurityManager.<clinit>|SAXParserImpl.<init>|SAXParserImpl.<init>,0.061771996273652686,0.0,0.00747924645355693,0.0,0.06925124272720962
XMLString.setValues|XMLEntityScanner.scanContent|XMLDocumentFragmentScannerImpl$FragmentContentDriver.next,0.07836582039362927,0.0,0.005508144837442225,0.0,0.08387396523107149
ZipBundleFile.getZipEntry|ZipBundleFile.getEntry|ClasspathManager.findClassImpl,0.05519018698172588,0.0,0.004747698675815369,0.0,0.059937885657541254
ZipFile$ZipEntryIterator.hasNext|ZipFile$ZipEntryIterator.hasMoreElements|AddJarFileToIndex.execute,0.04647380953039308,0.0,0.00589285714384113,0.0,0.05236666667423421
ZipFile$ZipFileInputStream.read|BufferedInputStream.fill|BufferedInputStream.read1,0.0,0.061270222221975465,0.0,0.00956666666644634,0.07083688888842181
ZipFile.close|ZipFile.close|JavaModelManager.closeZipFile,0.0,0.08426298590976984,0.0,0.011020784934138965,0.09528377084390881
ZipFile.close|ZipFile.close|ZipBundleFile.close,0.0,0.0,0.0,0.0,0.0
ZipFile.freeEntry|ZipFile.access$1000|ZipFile$ZipEntryIterator.next,0.11387589689127314,0.0597129999975247,0.009783262953187082,0.009519999999611171,0.19289215984159608
ZipFile.getEntryFlag|ZipFile.getZipEntry|ZipFile.access$900,0.0,0.03648375000011583,0.0,0.0040650000009918585,0.04054875000110769
ZipFile.getEntry|ZipFile.getEntry|ZipBundleFile.getZipEntry,0.0,0.060404333334493764,0.0,0.010900000001129229,0.071304333335623
ZipFile.getEntry|ZipFile.getInputStream|Util.getZipEntryByteContent,0.037048333324491985,0.2574848007202961,0.008225000000190144,0.041131037914116965,0.34388917195909524
ZipFile.getNextEntry|ZipFile.access$500|ZipFile$ZipEntryIterator.next,0.12034975461217466,0.2293324821863056,0.012285264405567885,0.04111864800427913,0.40308614920832725
ZipFile.getZipEntry|ZipFile.getEntry|ZipBundleFile.getZipEntry,0.07012950794410236,0.0,0.0034039891845990987,0.0,0.07353349712870146
ZipFile.open|ZipFile.<init>|ZipFile.<init>,0.0,0.04194665590239824,0.0,0.005571472556515807,0.047518128458914045
ZipFile.read|ZipFile.access$1400|ZipFile$ZipFileInputStream.read,0.6034388728515754,0.4335197405549342,0.055887357629762005,0.06711030408367416,1.159956275119946
