method,package1,package2,dram1,dram2,energy
ASCIICaseInsensitiveComparator.compare|ASCIICaseInsensitiveComparator.compare|TreeMap.getEntryUsingComparator,0.03874160278288215,0.0,0.004078445724800164,0.0,0.04282004850768231
AST.modifying|ASTNode.setFlags|ASTNode.<init>,0.07621770572157982,0.0,0.007119785850068706,0.0,0.08333749157164852
ASTConverter.convert|ASTConverter.convert|ASTConverter.convert,0.04028380064502127,0.0,0.003541321520164936,0.0,0.043825122165186206
ASTConverter.convert|ASTConverter.convert|CompilationUnitResolver.resolve,0.06803918874593809,0.0,0.00591246831915431,0.0,0.0739516570650924
AbstractCollection.toArray|ContentTypeCatalog.internalFindContentTypesFor|ContentTypeCatalog.findContentTypesFor,0.04890705503793225,0.0,0.0029027411244637305,0.0,0.051809796162395984
AbstractCommentParser.<init>|JavadocParser.<init>|Parser.createJavadocParser,0.10893201163533124,0.0,0.010827637839512756,0.0,0.119759649474844
AbstractCommentParser.commentParse|JavadocParser.checkDeprecation|CommentRecorderParser.checkComment,0.07447140551799332,0.0,0.007806911024322525,0.0,0.08227831654231585
AbstractCommentParser.commentParse|JavadocParser.checkDeprecation|SourceElementParser.checkComment,0.02810465569743633,0.0599993939403882,0.0,0.010336363634313315,0.09844041327213784
AbstractCommentParser.readToken|AbstractCommentParser.readTokenSafely|AbstractCommentParser.parseQualifiedName,0.0,0.08428966666785223,0.0,0.013769999997748528,0.09805966666560076
AbstractDOMParser.startElement|AbstractDOMParser.emptyElement|XMLDocumentFragmentScannerImpl.scanStartElement,0.0,0.0,0.0,0.0,0.0
AbstractDataTreeNode.indexOfChild|AbstractDataTreeNode.childAtOrNull|DeltaDataTree.getChildNodes,0.07350818932190044,0.0,0.00450451844864261,0.0,0.07801270777054305
AbstractDataTreeNode.indexOfChild|AbstractDataTreeNode.childAtOrNull|DeltaDataTree.lookup,0.10911382973567753,0.0,0.010576618732564654,0.0,0.11969044846824219
AbstractIndexer.addIndexEntry|AbstractIndexer.addFieldDeclaration|BinaryIndexer.indexDocument,0.06203233333265719,0.0,0.00787999999981063,0.0,0.06991233333246782
AbstractStringBuilder.<init>|StringBuffer.<init>|Util.getProblemArgumentsForMarker,0.0,0.12095133333059492,0.0,0.02230499999859603,0.14325633332919097
AbstractStringBuilder.ensureCapacityInternal|AbstractStringBuilder.append|StringBuffer.append,0.0,0.06268062499808971,0.0,0.011038124999686259,0.07371874999777597
AbstractStringBuilder.getChars|StringBuffer.getChars|Signature.createCharArrayTypeSignature,0.05375166665180586,0.0,0.006880000000819564,0.0,0.06063166665262543
AdaptorUtil.writeStringOrNull|BaseStorageHook.save|BaseStorage.saveBaseData,0.0,0.0,0.0,0.0,0.0
AddJarFileToIndex.execute|JobManager.run|Thread.run,0.07474123138493577,0.0,0.005002249051797514,0.0,0.07974348043673328
Alignment.performFragmentEffect|Scribe.alignFragment|CodeFormatterVisitor.formatMessageSend,0.06028415350847403,0.0,0.006648209902235538,0.0,0.06693236341070957
AnnotationMethodInfo.createAnnotationMethod|ClassFileReader.<init>|ClassFileReader.<init>,0.0,0.08752433333575027,0.0,0.012264999999994568,0.09978933333574484
ArrayList.add|CascadingMethodInvocationFragmentBuilder.visit|MessageSend.traverse,0.04443842678226774,0.0,0.0032310859489241227,0.0,0.04766951273119186
Arrays.copyOfRange|String.<init>|DocCommentParser.pushText,0.058831759629485364,0.0,0.006403561079868471,0.0,0.06523532070935384
Arrays.copyOfRange|String.<init>|String.substring,0.11500401926039647,0.0,0.014929909045185416,0.0,0.12993392830558187
Arrays.copyOf|AbstractStringBuilder.ensureCapacityInternal|AbstractStringBuilder.append,0.0,0.12117533333609268,0.0,0.02044000000023516,0.14161533333632784
Arrays.copyOf|String.<init>|DiskIndex.readChunk,0.0,0.05765766666930479,0.0,0.011680000000827324,0.06933766667013211
AttributeInfo.read|MethodInfo.read|MethodInfo.<init>,0.0,0.05462633333324144,0.0,0.0109599999996135,0.06558633333285493
BaseAdaptor.<init>|NativeConstructorAccessorImpl.newInstance0|NativeConstructorAccessorImpl.newInstance,0.0,0.03607708098771872,0.0,0.001229577315736401,0.037306658303455115
BaseStorage.createBundleFile|BaseAdaptor.createBundleFile|BaseData.getBundleFile,0.020887499987212427,0.0,0.0016416666666272148,0.0,0.022529166653839642
Benchmark.initialize|Benchmark.<init>|Eclipse.<init>,0.062195000015587226,0.0,0.0035500000012689274,0.0,0.06574500001685615
BigInteger.<clinit>|DerInputBuffer.getBigInteger|DerInputStream.getBigInteger,0.06304933333497804,0.0,0.005499999999301508,0.0,0.06854933333427955
BigInteger.implSquareToLen|BigInteger.squareToLen|BigInteger.implMontgomerySquare,0.0,0.0514241935752783,0.0,0.0089046152314286,0.06032880880670689
BinaryIndexer.decodeFieldType|BinaryIndexer.indexDocument|JavaSearchParticipant.indexDocument,0.05578563825783018,0.0,0.007169870389990256,0.0,0.06295550864782043
BinaryIndexer.decodeReturnType|BinaryIndexer.indexDocument|JavaSearchParticipant.indexDocument,0.0,0.08262133333240247,0.0,0.014319999999618931,0.0969413333320214
BinaryIndexer.extractClassName|BinaryIndexer.extractReferenceFromConstantPool|BinaryIndexer.indexDocument,0.061157249998359475,0.07218433333522019,0.00444000000061351,0.012974999997823032,0.1507565833320162
BinaryIndexer.extractClassReference|BinaryIndexer.extractReferenceFromConstantPool|BinaryIndexer.indexDocument,0.056296333326967075,0.0,0.006046346151822197,0.0,0.06234267947878927
BinaryIndexer.extractReferenceFromConstantPool|BinaryIndexer.indexDocument|JavaSearchParticipant.indexDocument,0.27952972747663585,0.196512666666725,0.03380434899572024,0.03038999999747223,0.5402367431365533
BinaryIndexer.extractType|BinaryIndexer.extractReferenceFromConstantPool|BinaryIndexer.indexDocument,0.16872613827967958,0.0,0.020065382325318876,0.0,0.18879152060499846
BinaryIndexer.indexDocument|JavaSearchParticipant.indexDocument|IndexManager.indexDocument,0.7745084542200356,0.09356699999868093,0.0720756885463262,0.012040000001434237,0.9521911427664769
BinaryIndexer.replace|BinaryIndexer.decodeParameterTypes|BinaryIndexer.indexDocument,0.039982121128943414,0.0,0.003499305307682398,0.0,0.04348142643662581
BinaryIndexer.replace|BinaryIndexer.extractReferenceFromConstantPool|BinaryIndexer.indexDocument,0.0650068782485087,0.0,0.010545351356069349,0.0,0.07555222960457805
BinaryIndexer.replace|BinaryIndexer.indexDocument|JavaSearchParticipant.indexDocument,0.05222145560801821,0.0,0.0059679570493042285,0.0,0.05818941265732244
BinaryTypeBinding.createMethods|BinaryTypeBinding.cachePartsFrom|LookupEnvironment.createBinaryTypeFrom,0.08078658291901336,0.0,0.00513531508191281,0.0,0.08592189800092617
Binding.computeUniqueKey|SourceType.resolved|MatchLocator.newMethodReferenceMatch,0.07638866873624707,0.0,0.004019723781886571,0.0,0.08040839251813364
BufferedInputStream.<init>|BufferedInputStream.<init>|Util.getZipEntryByteContent,0.15304081693506047,0.12487799999992907,0.013251206491339665,0.018794999998741936,0.30996502342507115
BufferedInputStream.read1|BufferedInputStream.read|Util.getInputStreamAsByteArray,0.0,0.04675299999992906,0.0,0.007115000000339933,0.05386800000026899
BufferedInputStream.read|DataInputStream.readInt|AttributeInfo.<init>,0.030533653676123592,0.0,0.003221489085661875,0.0,0.03375514276178547
BufferedInputStream.read|DataInputStream.readInt|CodeAttribute.<init>,0.0,0.02195328791480592,0.0,0.003940807813797567,0.02589409572860349
BufferedInputStream.read|DataInputStream.readUnsignedByte|ConstPool.readOne,0.08270250001078239,0.0,0.007080000001224106,0.0,0.0897825000120065
BufferedInputStream.read|DataInputStream.readUnsignedShort|MethodInfo.read,0.0,0.026157404682810925,0.0,0.0019236727984062987,0.028081077481217222
BufferedInputStream.read|FilterInputStream.read|PushbackInputStream.read,0.044779666660663985,0.0,0.0013599999995979788,0.0,0.046139666660261966
BufferedOutputStream.write|DataOutputStream.writeByte|TableWriter.writeStringOrNull,0.0,0.0,0.0,0.0,0.0
BufferedReader.read1|BufferedReader.read|Util.getInputStreamAsCharArray,0.055389349411394236,0.0,0.003839741687495962,0.0,0.0592290910988902
BufferedWriter.<init>|BufferedWriter.<init>|IndexManager.writeSavedIndexNamesFile,0.12012655508603834,0.0,0.0072927668355163774,0.0,0.12741932192155472
BufferedWriter.<init>|BufferedWriter.<init>|Properties.store,0.03693544264403845,0.0,0.006638335587200401,0.0,0.043573778231238855
BuildNotifier.subTask|BuildNotifier.done|JavaBuilder.build,0.0,0.014275444445148522,0.0,0.0014199999996991311,0.015695444444847655
ByteArrayAccess.b2iBig64|SHA.implCompress|DigestBase.implCompressMultiBlock,0.0,0.0514241935752783,0.0,0.0089046152314286,0.06032880880670689
CertificateExtensions.<init>|X509CertInfo.parse|X509CertInfo.<init>,0.0,0.05204269237778976,0.0,0.005585400105864966,0.057628092483654726
CharLiteral.<init>|Parser.consumeToken|Parser.parse,0.0,0.13755299999805476,0.0,0.017084999999497086,0.15463799999755184
CharOperation.concatWith|SourceElementNotifier.getArguments|SourceElementNotifier.notifySourceElementRequestor,0.05455484822300617,0.0,0.005019894733451826,0.0,0.059574742956457996
CharOperation.concat|CompletionEngine.acceptTypes|CompletionEngine.findTypesAndPackages,0.0,0.027050666666279238,0.0,0.005471999999523783,0.03252266666580302
CharOperation.concat|MethodPattern.createIndexKey|AbstractIndexer.addMethodDeclaration,0.06322613993110275,0.050065066667351256,0.00459274953980412,0.010180000000400471,0.12806395613865862
CharOperation.concat|MethodPattern.createIndexKey|AbstractIndexer.addMethodReference,0.08675133335054852,0.0,0.008429999999255717,0.0,0.09518133334980423
CharOperation.equals|BinaryIndexer.extractReferenceFromConstantPool|BinaryIndexer.indexDocument,0.0,0.07698566666658735,0.0,0.011625000001610413,0.08861066666819777
CharOperation.equals|CompilationUnitScope.buildTypeBindings|LookupEnvironment.buildTypeBindings,0.10003175622658428,0.0,0.009730427447098922,0.0,0.1097621836736832
CharOperation.equals|HashtableOfObject.get|DiskIndex.copyQueryResults,0.12529521318130704,0.0,0.009776444081059283,0.0,0.13507165726236633
CharOperation.equals|HashtableOfObject.put|DiskIndex.readCategoryTable,0.04389975360832098,0.0,0.0037245167169372814,0.0,0.04762427032525826
CharOperation.equals|HashtableOfObject.put|HashtableOfObject.rehash,0.03773512616473554,0.0,0.002335475818769463,0.0,0.040070601983505004
CharOperation.equals|HashtableOfPackage.get|PackageBinding.getPackage0,0.05132624432780904,0.0,0.005057573800955968,0.0,0.05638381812876501
CharOperation.equals|SimpleWordSet.add|MemoryIndex.addIndexEntry,1.6377408741377606,0.3696060000039762,0.1574327477593979,0.06328944444518399,2.2280690663463187
CharOperation.hashCode|HashtableOfObject.get|DiskIndex.copyQueryResults,1.32568169757444,0.0,0.11698457515114197,0.0,1.4426662727255821
CharOperation.hashCode|HashtableOfObject.get|MemoryIndex.addIndexEntry,0.0809068832790036,0.0,0.006429999998848264,0.0,0.08733688327785186
CharOperation.hashCode|HashtableOfObject.put|DiskIndex.copyQueryResults,0.14134279089334423,0.0,0.01550989344283865,0.0,0.15685268433618288
CharOperation.hashCode|HashtableOfObject.put|HashtableOfObject.rehash,0.42907024863466336,0.11939359166863141,0.038197980467553856,0.020950000000751364,0.6076118207715999
CharOperation.hashCode|HashtableOfPackage.get|PackageBinding.getPackage0,0.06058538421827363,0.0,0.004605625789396768,0.0,0.0651910100076704
CharOperation.hashCode|SimpleWordSet.add|MemoryIndex.addIndexEntry,0.46001237009154045,0.14458647618968307,0.052418991381548034,0.024257857140106517,0.6812756948028781
CharOperation.hashCode|SimpleWordSet.add|SimpleWordSet.rehash,0.72565833628641,0.28723166666653316,0.06818324248432435,0.04815999999846098,1.1292332454357283
CharOperation.lastIndexOf|BinaryIndexer.extractArgCount|BinaryIndexer.extractReferenceFromConstantPool,0.06175674536666564,0.0,0.004175973802618887,0.0,0.06593271916928452
CharOperation.lastIndexOf|CharOperation.lastSegment|AbstractIndexer.addTypeReference,0.11076054006822378,0.1584750833341483,0.010540161456990448,0.021577499999390664,0.3013532848587532
CharOperation.lastIndexOf|CharOperation.lastSegment|SuperTypeReferencePattern.createIndexKey,0.0,0.05073303030451025,0.0,0.009354545453044752,0.060087575757555
CharOperation.replaceOnCopy|BinaryIndexer.addTypeReference|AbstractIndexer.addMethodDeclaration,0.06639514831315134,0.1385090000015528,0.008299498650109535,0.02787999999903452,0.2410836469638482
CharOperation.replaceOnCopy|ConstructorPattern.createDeclarationIndexKey|AbstractIndexer.addConstructorDeclaration,0.04071049999038223,0.0,0.003105000001596636,0.0,0.04381549999197887
CharOperation.splitOn|BinaryIndexer.extractReferenceFromConstantPool|BinaryIndexer.indexDocument,0.0568797555132194,0.07792133333229381,0.004014610134863661,0.016525000001517274,0.15534069898189415
CharOperation.subarray|CharOperation.lastSegment|AbstractIndexer.addTypeReference,0.0,0.11839348484830803,0.0,0.022077272728810465,0.1404707575771185
CharsetEncoder.onUnmappableCharacter|ZipCoder.encoder|ZipCoder.getBytes,0.060872666663878285,0.0,0.007895000002463348,0.0,0.06876766666634163
CharsetManager.startup|Workspace.startup|Workspace.open,0.03850220287981397,0.0,0.002854260160138344,0.0,0.041356463039952315
Class.forName0|Class.forName|FastCharsetProvider.lookup,0.03874160278288215,0.0,0.004078445724800164,0.0,0.04282004850768231
Class.forName0|Class.forName|StreamHandlerFactory.<clinit>,0.10227466666644128,0.0,0.008065000001806766,0.0,0.11033966666824804
Class.getDeclaredConstructors0|Class.privateGetDeclaredConstructors|Class.getConstructor0,0.028620403439288074,0.0,0.0044383356029952985,0.0,0.033058739042283375
ClassFile.<init>|ClassFilePool.acquire|ClassFile.getNewInstance,0.08554377406285335,0.0,0.008080256476884306,0.0,0.09362403053973765
ClassFile.completeCodeAttributeForProblemMethod|ClassFile.addProblemMethod|ClassFile.createProblemType,0.0416106288663763,0.0,0.003237144934195811,0.0,0.04484777380057211
ClassFileReader.<init>|ClassFileReader.<init>|BinaryIndexer.indexDocument,0.30440408113045464,0.06488066666740147,0.029438930158682257,0.010840000000219636,0.409563677956758
ClassFileReader.decodeAnnotations|ClassFileReader.<init>|ClassFileReader.<init>,0.06284566665999591,0.0,0.005159999998189353,0.0,0.06800566665818526
ClassFileStruct.<init>|FieldInfo.<init>|FieldInfo.createField,0.05975869439346228,0.0,0.0040300852824279535,0.0,0.06378877967589024
ClassFileStruct.u1At|ClassFileReader.<init>|ClassFileReader.<init>,0.04816879944863572,0.0,0.0065317527250300465,0.0,0.05470055217366576
ClassFileStruct.u2At|AnnotationInfo.decodeAnnotation|AnnotationInfo.initialize,0.0,0.0490799166676273,0.0,0.008343124999858748,0.05742304166748605
ClassFileStruct.u2At|BinaryIndexer.extractClassName|BinaryIndexer.extractReferenceFromConstantPool,0.05091252485115698,0.0,0.008024860999299294,0.0,0.05893738585045627
ClassFileStruct.u2At|BinaryIndexer.extractName|BinaryIndexer.extractReferenceFromConstantPool,0.10814102445140514,0.0,0.011546385987192397,0.0,0.11968741043859754
ClassFileStruct.u2At|BinaryIndexer.extractType|BinaryIndexer.extractReferenceFromConstantPool,0.10999349755909256,0.0,0.014680715304759099,0.0,0.12467421286385166
ClassFileStruct.u2At|ClassFileReader.<init>|ClassFileReader.<init>,0.0,0.08478014814857117,0.0,0.014528888889967841,0.09930903703853901
ClassFileStruct.u2At|FieldInfo.getTypeName|BinaryIndexer.indexDocument,0.055640699987766745,0.0,0.005173796320320184,0.0,0.06081449630808693
ClassFileStruct.u2At|MethodInfo.createMethod|ClassFileReader.<init>,0.05356206721613036,0.0,0.003856936872985306,0.0,0.05741900408911567
ClassFileStruct.u2At|MethodInfo.decodeCodeAttribute|MethodInfo.readCodeAttribute,0.05890168523690629,0.0,0.008162277384089532,0.0,0.06706396262099582
ClassFileStruct.u2At|MethodInfo.getSelector|MethodInfo.isConstructor,0.0,0.05792250000013155,0.0,0.012060000000928994,0.06998250000106054
ClassFileStruct.utf8At|BinaryIndexer.extractClassName|BinaryIndexer.extractReferenceFromConstantPool,0.15767863626835685,0.0,0.014446876126770158,0.0,0.172125512395127
ClassFileStruct.utf8At|BinaryIndexer.extractClassReference|BinaryIndexer.extractReferenceFromConstantPool,0.18583551622758135,0.0,0.02075794219139844,0.0,0.2065934584189798
ClassFileStruct.utf8At|BinaryIndexer.extractName|BinaryIndexer.extractReferenceFromConstantPool,0.05226758059103835,0.06329333333511991,0.00724219596831168,0.010910000002089266,0.1337131098965592
ClassFileStruct.utf8At|BinaryIndexer.extractType|BinaryIndexer.extractReferenceFromConstantPool,0.1653392325459327,0.19831381439080636,0.018468433123416134,0.0343800568197449,0.4165015368799001
ClassFileStruct.utf8At|ClassFileReader.<init>|ClassFileReader.<init>,0.038346537626871104,0.0,0.004789600574295804,0.0,0.04313613820116691
ClassFileStruct.utf8At|ClassFileReader.getConstantClassNameAt|ClassFileReader.<init>,0.0,0.0637206666676017,0.0,0.009554999999333328,0.07327566666693504
ClassFileStruct.utf8At|FieldInfo.getTypeName|BinaryIndexer.indexDocument,0.0,0.04001900000002934,0.0,0.006819999997484652,0.04683899999751399
ClassFileStruct.utf8At|FieldInfo.readAttributes|FieldInfo.createField,0.15888156099602588,0.0,0.016482805697272687,0.0,0.17536436669329858
ClassFileStruct.utf8At|InnerClassInfo.getEnclosingTypeName|ClassFileReader.<init>,0.11265066666722608,0.0,0.010979999999108259,0.0,0.12363066666633434
ClassFileStruct.utf8At|InnerClassInfo.getSourceName|ClassFileReader.isAnonymous,0.04759225000452716,0.0,0.003569999998944695,0.0,0.051162250003471854
ClassFileStruct.utf8At|MethodInfo.createMethod|ClassFileReader.<init>,0.0,0.06394466666824883,0.0,0.009574999998828085,0.07351966666707692
ClassFileStruct.utf8At|MethodInfo.getMethodDescriptor|BinaryIndexer.indexDocument,0.20881973890695796,0.08823666666770197,0.023727316086087552,0.019055000001875058,0.3398387216626226
ClassFileStruct.utf8At|MethodInfo.getSelector|MethodInfo.isConstructor,0.17320426722666923,0.0,0.018297446332902118,0.0,0.19150171355957135
ClassFileStruct.utf8At|MethodInfo.readExceptionAttributes|MethodInfo.getExceptionTypeNames,0.24286420011352497,0.0,0.02929673617386805,0.0,0.272160936287393
ClassLoader.defineClass1|ClassLoader.defineClass|DefaultClassLoader.defineClass,0.3633680628740881,0.16667179166597634,0.035972034420348756,0.02513749999949747,0.5911493889599106
ClassLoader.defineClass1|ClassLoader.defineClass|SecureClassLoader.defineClass,0.1046956666590025,0.02302788578410352,0.009465000002819579,0.003408841958187525,0.14059739440411312
ClassScope.findSupertype|ClassScope.connectSuperInterfaces|ClassScope.connectTypeHierarchy,0.09835061027229006,0.0,0.00979409982633389,0.0,0.10814471009862395
CodeFormatterVisitor.dumpBinaryExpression|CodeFormatterVisitor.visit|OR_OR_Expression.traverse,0.07204156398671327,0.0,0.006735164046447095,0.0,0.07877672803316037
CodeFormatterVisitor.isMultipleLocalDeclaration|CodeFormatterVisitor.formatLocalDeclaration|CodeFormatterVisitor.visit,0.034121846859992706,0.0,0.002561033864851703,0.0,0.03668288072484441
CodeFormatterVisitor.visit|IfStatement.traverse|CodeFormatterVisitor.formatStatements,0.051236582955467326,0.0,0.002837142369873924,0.0,0.05407372532534125
CodeFormatterVisitor.visit|ReturnStatement.traverse|CodeFormatterVisitor.formatStatements,0.0,0.07521960000012767,0.0,0.01045800000210875,0.08567760000223643
Collections$SynchronizedMap.get|WorkspaceRoot.getProject|Resource.getProject,0.034050374326282384,0.0,0.0004692092660690907,0.0,0.03451958359235147
CompilationUnit.getType|JavaModelManager.secondaryTypeAdding|AbstractIndexer.addTypeDeclaration,0.0,0.09598800000094344,0.0,0.01261499999964144,0.10860300000058488
CompilationUnitScope.checkParameterizedTypes|LookupEnvironment.completeTypeBindings|MatchLocator.accept,0.12438088677169408,0.0,0.01153480378741041,0.0,0.1359156905591045
CompletionEngine.<init>|Openable.codeComplete|CompilationUnit.codeComplete,0.04859037567007488,0.0,0.003439648256991851,0.0,0.05203002392706673
CompletionEngine.acceptTypes|CompletionEngine.findTypesAndPackages|CompletionEngine.completionOnSingleNameReference,0.0,0.07165533333075776,0.0,0.016220000000127282,0.08787533333088504
ConstPool.getItem|ConstPool.getClassInfo|ClassFile.getSuperclass,0.0,0.05204269237778976,0.0,0.005585400105864966,0.057628092483654726
ConstructorPattern.createDeclarationIndexKey|AbstractIndexer.addConstructorDeclaration|BinaryIndexer.indexDocument,0.062026024678160915,0.06479899999976624,0.004628977147458235,0.009560000001026006,0.1410140018264114
ContentType.isValid|ContentTypeCatalog.internalAccept|ContentTypeCatalog.selectMatchingByName,0.0,0.09456366666806083,0.0,0.016115000003386133,0.11067866667144696
DataOutputStream.write|DataOutputStream.writeUTF|DataOutputStream.writeUTF,0.0,0.0,0.0,0.0,0.0
DataTreeNode.<init>|DataDeltaNode.<init>|DataDeltaNode.copy,0.03344946264497538,0.0,0.0037129631941869674,0.0,0.03716242583916234
DefaultBindingResolver.getVariableBinding|DefaultBindingResolver.getVariableBinding|DefaultBindingResolver.resolveVariable,0.05457483224029554,0.0,0.007026636962581707,0.0,0.06160146920287724
DeltaProcessor.deleting|DeltaProcessor.resourceChanged|DeltaProcessingState.resourceChanged,0.03186098960157287,0.0,0.004358407495201809,0.0,0.03621939709677468
DerInputBuffer.getTime|DerInputBuffer.getUTCTime|DerInputStream.getUTCTime,0.0,0.026157404682810925,0.0,0.0019236727984062987,0.028081077481217222
DerValue.toByteArray|ContentInfo.<init>|PKCS7.parse,0.07706700000562705,0.0,0.010400000001633694,0.0,0.08746700000726075
DiskIndex$IntList.add|DiskIndex.copyQueryResults|DiskIndex.mergeWith,0.3933999829749889,0.0,0.03939122428118991,0.0,0.4327912072561788
DiskIndex$IntList.asArray|DiskIndex.writeCategoryTable|DiskIndex.writeCategories,0.2293362659071184,0.0,0.01874142181911056,0.0,0.24807768772622896
DiskIndex.addQueryResults|Index.query|SuperTypeReferencePattern.queryIn,0.3389961920048241,0.0,0.02778845358821472,0.0,0.36678464559303886
DiskIndex.addQueryResult|DiskIndex.addQueryResults|Index.query,0.0,0.03587083333362291,0.0,0.0024312499999723514,0.03830208333359526
DiskIndex.computeDocumentNames|DiskIndex.mergeWith|Index.save,0.0650753454523587,0.0,0.011131355622531229,0.0,0.07620670107488993
DiskIndex.copyQueryResults|DiskIndex.mergeWith|Index.save,0.5175948366638287,0.09804299999814248,0.04549905588196745,0.011645000001105169,0.6727818925450437
DiskIndex.mergeWith|Index.save|IndexManager.saveIndex,0.05274343900746359,0.0,0.0041116658506318285,0.0,0.05685510485809542
DiskIndex.readStreamChars|DiskIndex.readCategoryTable|DiskIndex.addQueryResults,0.1337661856401263,0.0,0.013908524883770602,0.0,0.14767471052389688
DiskIndex.readStreamChars|DiskIndex.readChunk|DiskIndex.readDocumentName,0.07482746277770687,0.13913999999931548,0.009123205509299322,0.024054999999255713,0.24714566828557738
DiskIndex.writeAllDocumentNames|DiskIndex.mergeWith|Index.save,0.15585499493282542,0.0,0.02359092585157049,0.0,0.17944592078439592
DiskIndex.writeCategoryTable|DiskIndex.writeCategories|DiskIndex.mergeWith,0.2677300697825881,0.14049070060724547,0.02832481233200885,0.02513716804772639,0.46168275076956883
DiskIndex.writeDocumentNumbers|DiskIndex.writeCategoryTable|DiskIndex.writeCategories,0.0,0.055989666667301215,0.0,0.01022499999817228,0.06621466666547349
DiskIndex.writeStreamChars|DiskIndex.writeAllDocumentNames|DiskIndex.mergeWith,0.052045729565814165,0.0,0.0066578059331555825,0.0,0.05870353549896975
DiskIndex.writeStreamChars|DiskIndex.writeCategoryTable|DiskIndex.writeCategories,0.4138874035167615,0.0,0.038774476804312855,0.0,0.45266188032107435
DiskIndex.writeStreamChars|DiskIndex.writeStreamChars|DiskIndex.writeCategoryTable,0.6517121483548207,0.0,0.04914957682695241,0.0,0.7008617251817731
DiskIndex.writeStreamInt|DiskIndex.writeCategoryTable|DiskIndex.writeCategories,0.2526751723706039,0.0,0.022292582463484506,0.0,0.2749677548340884
DiskIndex.writeStreamInt|DiskIndex.writeDocumentNumbers|DiskIndex.writeCategoryTable,0.033506982068861116,0.0,0.0005540765276601758,0.0,0.03406105859652129
ElementImpl.getAttributes|DeferredElementImpl.synchronizeData|ElementImpl.getTagName,0.056719565990572214,0.0,0.006512258914575417,0.0,0.06323182490514763
ElementTreeIterator.iterate|MarkerManager.visitorRemoveMarkers|MarkerManager.removeMarkers,0.07636132085089588,0.0,0.006650201110327627,0.0,0.08301152196122351
ExceptionTable.<init>|CodeAttribute.<init>|AttributeInfo.read,0.0,0.08101399999820083,0.0,0.015034999999140078,0.09604899999734091
Expression.computeConversion|ASTNode.checkInvocationArgument|ASTNode.checkInvocationArguments,0.09971810749994443,0.0,0.008020366472489642,0.0,0.10773847397243408
FieldInfo.createField|ClassFileReader.<init>|ClassFileReader.<init>,0.04816879944863572,0.0,0.0065317527250300465,0.0,0.05470055217366576
FileInputStream.available0|FileInputStream.available|StreamDecoder.inReady,0.10740838941939956,0.0,0.01065221666255105,0.0,0.11806060608195061
FileInputStream.close0|FileInputStream.access$000|FileInputStream$1.close,0.09604118649047927,0.16662281250008465,0.009681063863047495,0.023413281250668657,0.2957583441042801
FileInputStream.open0|FileInputStream.open|FileInputStream.<init>,0.256060704387039,0.0,0.022560457782784215,0.0,0.2786211621698232
FileInputStream.readBytes|FileInputStream.read|FilterInputStream.read,0.05321064603178675,0.0,0.005446621254890526,0.0,0.05865726728667727
FileInputStream.readBytes|FileInputStream.read|StreamDecoder.readBytes,0.2666542968257348,0.1398316666673054,0.02325968972935563,0.016630000003109064,0.44637565322550493
FileInputStream.read|FilterInputStream.read|PushbackInputStream.read,0.07146732928230304,0.0,0.007579097324243139,0.0,0.07904642660654618
FileOutputStream.close0|FileOutputStream.access$000|FileOutputStream$1.close,0.10600475303962788,0.037292333334335126,0.009673806738914072,0.006800000000415214,0.1597708931132923
FileOutputStream.open0|FileOutputStream.open|FileOutputStream.<init>,0.5345029752688166,0.08475755555587561,0.05881684923243777,0.011373333333823309,0.6894507133909533
FileOutputStream.writeBytes|FileOutputStream.write|BufferedOutputStream.flushBuffer,0.6839833889033697,0.0,0.061215000003155884,0.0,0.7451983889065257
FileOutputStream.writeBytes|FileOutputStream.write|DiskIndex.writeDocumentNumbers,0.09800776840990355,0.0,0.007660488899891272,0.0,0.10566825730979482
FileOutputStream.writeBytes|FileOutputStream.write|DiskIndex.writeStreamChars,0.2424615818234719,0.06606033333324983,0.01889890630072244,0.00817999999950795,0.33560082145695214
FileOutputStream.writeBytes|FileOutputStream.write|Util.unzip,0.6978029781921957,0.0,0.07369005752719329,0.0,0.771493035719389
FileOutputStream.write|DiskIndex.writeStreamChars|DiskIndex.writeCategoryTable,0.049676211104830406,0.0,0.0034867333762132816,0.0,0.05316294448104369
Formatter.parse|Formatter.format|Formatter.format,0.0,0.0,0.0,0.0,0.0
Framework.installWorker|Framework.installBundle|BundleContextImpl.installBundle,0.14611138890258088,0.0,0.013050000001789562,0.0,0.15916138890437045
FullSourceWorkspaceFormatterTests.testFormatDefault|FullSourceWorkspaceFormatterTests.runDaCapoTests|BenchmarkRunner.start,0.0,0.05416666666666667,0.0,0.010355999999834845,0.06452266666650151
Function.invoke|Function.invoke|Library$Handler.invoke,0.0,0.0,0.0,0.0,0.0
Handler.parseURL|URL.<init>|URL.<init>,0.0,0.0813600000013442,0.0,0.012240000001232449,0.09360000000257665
HashMap.getNode|HashMap.get|Collections$SynchronizedMap.get,0.03811259146329929,0.0,0.0019859579587049297,0.0,0.04009854942200422
HashMap.hash|HashMap.get|ResourceDelta.checkForMarkerDeltas,0.0,0.0,0.0,0.0,0.0
Hashtable.put|Hashtable.putAll|Hashtable.<init>,0.09209299407552778,0.0,0.008442168344124305,0.0,0.10053516241965207
HashtableOfArrayToObject.rehash|HashtableOfArrayToObject.put|JavaProjectElementInfo.newNameLookup,0.0,0.05401600000186591,0.0,0.005219999999098945,0.05923600000096486
HashtableOfObject.<init>|HashtableOfObject.rehash|HashtableOfObject.put,0.05237251175969845,0.0,0.004008958354190359,0.0,0.056381470113888804
HashtableOfObject.get|DiskIndex.copyQueryResults|DiskIndex.mergeWith,2.4895854739236087,0.0,0.22354409920569573,0.0,2.7131295731293044
HashtableOfObject.get|EntryResult.getDocumentNames|SearchPattern.findIndexMatches,0.0,0.07394186666739794,0.0,0.017659999998674417,0.09160186666607235
HashtableOfObject.get|MemoryIndex.addIndexEntry|Index.addIndexEntry,0.2704255321179118,0.3215559259290415,0.0268460720664533,0.05253722222281525,0.6713647523362218
HashtableOfObject.put|DiskIndex.copyQueryResults|DiskIndex.mergeWith,0.3016855946865614,0.0,0.022120494911334207,0.0,0.32380608959789564
HashtableOfObject.put|DiskIndex.readCategoryTable|DiskIndex.addQueryResults,0.0698077998315858,0.0,0.008003943296467213,0.0,0.07781174312805302
HashtableOfObject.put|HashtableOfObject.rehash|HashtableOfObject.put,0.3526988718140665,0.0,0.03847474600682555,0.0,0.39117361782089205
HashtableOfObject.put|MemoryIndex.addIndexEntry|Index.addIndexEntry,0.08780578354447868,0.0,0.003854874294640579,0.0,0.09166065783911927
HashtableOfObject.rehash|HashtableOfObject.put|DiskIndex.copyQueryResults,0.30899442412649103,0.0,0.03175204351495462,0.0,0.34074646764144567
IfStatement.analyseCode|Block.analyseCode|SynchronizedStatement.analyseCode,0.092783365827975,0.0,0.0073663530447058605,0.0,0.10014971887268086
ImplicitJobs.begin|JobManager.beginRule|WorkManager.checkIn,0.0,0.014370333333823104,0.0,0.0006483333329217404,0.015018666666744843
ImportDeclaration.<init>|ASTConverter.convertImport|ASTConverter.convert,0.0998802991043189,0.0,0.0074413972871574035,0.0,0.1073216963914763
Index.containerRelativePath|SearchDocument.getContainerRelativePath|SearchDocument.addIndexEntry,0.05455484822300617,0.0,0.005019894733451826,0.0,0.059574742956457996
Index.isMatch|DiskIndex.addQueryResults|Index.query,0.0,0.0594889999993029,0.0,0.012434999999337984,0.07192399999864088
IndexBasedHierarchyBuilder.createCompilationUnitFromPath|HierarchyResolver.resolve|IndexBasedHierarchyBuilder.buildForProject,0.044939770364333935,0.0,0.0046646619251198155,0.0,0.04960443228945375
IndexManager.getIndex|IndexManager.getIndexes|PatternSearchJob.getIndexes,0.056370741001675925,0.0,0.0073177591844959065,0.0,0.06368850018617184
IndexManager.getSourceElementParser|IndexAllProject.execute|JobManager.run,0.021283543349208567,0.0,0.00216307794033964,0.0,0.023446621289548206
IndexManager.saveIndex|AddJarFileToIndex.execute|JobManager.run,0.05250849421652669,0.04675299999992906,0.0040195735320791535,0.007115000000339933,0.11039606774887484
IndexManager.saveIndex|SaveIndex.execute|JobManager.run,0.0,0.18944523809512331,0.0,0.02568166666652172,0.21512690476164503
IndexRequest.belongsTo|JobManager.discardJobs|DeltaProcessor.deleting,0.0,0.04272466666831557,0.0,0.008509999999660067,0.05123466666797564
Inflater.inflateBytes|Inflater.inflate|InflaterInputStream.read,3.1005983105333574,0.21266238908787644,0.2829471306684674,0.029840594535799306,3.6260484248255005
Inflater.inflate|InflaterInputStream.read|ZipInputStream.read,0.07735199999297038,0.0,0.006894999998621643,0.0,0.08424699999159202
InflaterInputStream.<init>|ZipFile$ZipFileInflaterInputStream.<init>|ZipFile.getInputStream,0.0,0.09385166666713,0.0,0.015040000000832757,0.10889166666796277
InflaterInputStream.read|ZipInputStream.read|FilterInputStream.read,0.04692651107996975,0.0,0.0034646715810964976,0.0,0.05039118266106625
InternalFileSystemCore.getFileSystemRegistry|InternalFileSystemCore.getFileSystem|InternalFileSystemCore.getStore,0.07350655963998602,0.0,0.004153008085605849,0.0,0.07765956772559188
JarFile.match|JarFile.checkForSpecialAttributes|JarFile.hasClassPathAttribute,0.032226666662609205,0.0,0.0017999999981839212,0.0,0.034026666660793126
JavaModelManager.intern|JarPackageFragmentRoot.initRawPackageInfo|JarPackageFragmentRoot.computeChildren,0.0,0.0,0.0,0.0,0.0
JavaProject.close|DeltaProcessor.deleting|DeltaProcessor.resourceChanged,0.0,0.04272466666831557,0.0,0.008509999999660067,0.05123466666797564
JavaProject.decodeClasspath|JavaProject.readFileEntriesWithException|JavaModelManager$PerProjectInfo.readAndCacheClasspath,0.048279215301346566,0.0,0.006931027926904856,0.0,0.055210243228251424
JavaProject.equals|OpenableElementInfo.addChild|DeltaProcessor.addToParentInfo,0.07206193730856003,0.0,0.005011328955793739,0.0,0.07707326626435378
JavaProject.readFileEntriesWithException|JavaModelManager$PerProjectInfo.readAndCacheClasspath|JavaProject.resolveClasspath,0.0513762719715162,0.0,0.004688409705806636,0.0,0.05606468167732284
Javadoc.resolveTypeParameterTags|Javadoc.resolve|AbstractMethodDeclaration.resolveJavadoc,0.07638866873624707,0.0,0.004019723781886571,0.0,0.08040839251813364
JavadocParser.pushParamName|AbstractCommentParser.parseParam|JavadocParser.parseParam,0.0,0.10056566666510963,0.0,0.015420000000934426,0.11598566666604405
LinkedList.listIterator|AbstractList.listIterator|AbstractSequentialList.iterator,0.0,0.0,0.0,0.0,0.0
Log.log|Util.log|BinaryIndexer.indexDocument,0.05225231358239979,0.0,0.003605618136582319,0.0,0.05585793171898211
LookupEnvironment.createArrayType|LookupEnvironment.getTypeFromSignature|BinaryTypeBinding.createMethod,0.11425947630347093,0.0,0.010691705793698254,0.0,0.12495118209716918
LookupEnvironment.createPackage|CompilationUnitScope.buildTypeBindings|LookupEnvironment.buildTypeBindings,0.10673525030940162,0.0,0.011302350019679766,0.0,0.11803760032908138
LookupEnvironment.newMethodVerifier|LookupEnvironment.methodVerifier|Scope.findMethod,0.11425947630347093,0.0,0.010691705793698254,0.0,0.12495118209716918
ManifestDigester.<init>|JarVerifier.processEntry|JarVerifier.update,0.04667166667059064,0.0,0.0031399999982871427,0.0,0.049811666668877784
ManifestElement.parseHeader|StateBuilder.validateHeaders|StateBuilder.createBundleDescription,0.08807722222829599,0.0,0.007020833333323632,0.0,0.09509805556161963
MatchLocator.<init>|JavaSearchParticipant.locateMatches|BasicSearchEngine.findMatches,0.0,0.03128041666665619,0.0,0.002899999999499414,0.0341804166661556
MatchLocator.findIndexMatches|PatternSearchJob.search|PatternSearchJob.execute,0.05054363722223567,0.0,0.0029429312635163825,0.0,0.053486568485752055
MatchLocator.locateMatches|JavaSearchParticipant.locateMatches|BasicSearchEngine.findMatches,0.0,0.02688104166736593,0.0,0.003037500000573345,0.029918541667939277
MatchLocator.newMethodReferenceMatch|ConstructorLocator.newDeclarationMatch|MatchLocator.reportMatching,0.09971810749994443,0.0,0.008020366472489642,0.0,0.10773847397243408
MemoryIndex.addIndexEntry|Index.addIndexEntry|SearchDocument.addIndexEntry,0.3702089485629314,0.16754133333112498,0.034721377063567795,0.025264999999005035,0.5977366589566292
MemoryIndex.shouldMerge|Index.query|SuperTypeReferencePattern.queryIn,0.055050237791585216,0.0,0.005263318582090005,0.0,0.06031355637367522
MethodBinding.<init>|MethodBinding.<init>|MethodScope.createMethod,0.0,0.046142399999856316,0.0,0.011272000001432992,0.057414400001289306
MethodInfo.createMethod|ClassFileReader.<init>|ClassFileReader.<init>,0.06480601836128917,0.049723333332318966,0.0076242754452629175,0.008140000000518436,0.1302936271393895
MethodInfo.decodeCodeAttribute|MethodInfo.readCodeAttribute|MethodInfo.getArgumentNames,0.04175384600914412,0.0,0.0072754306673074075,0.0,0.04902927667645153
MethodInfo.decodeLocalVariableAttribute|MethodInfo.decodeCodeAttribute|MethodInfo.readCodeAttribute,0.0,0.0990396666675224,0.0,0.01398000000335742,0.11301966667087981
NameLookup.seekTypesInSourcePackage|NameLookup.seekTypes|NameLookup.findType,0.05599740712866119,0.0,0.006500562365017326,0.0,0.062497969493678515
NumberLiteral.<init>|IntLiteral.<init>|Parser.consumeToken,0.03613376510694128,0.0,0.002887288222500032,0.0,0.039021053329441314
Object.<init>|AbstractStringBuilder.<init>|StringBuffer.<init>,0.04068106045314634,0.0,0.0033139830415692298,0.0,0.043995043494715565
Object.equals|HashtableOfObjectToInt.put|SourceElementParser.consumeConstructorHeaderName,0.03233033686498241,0.0,0.0011655938930483427,0.0,0.033495930758030756
Object.hashCode|WeakHashMap.hash|WeakHashMap.put,0.1059830726941071,0.0,0.013547504424710491,0.0,0.1195305771188176
Openable.codeComplete|CompilationUnit.codeComplete|CompilationUnit.codeComplete,0.12076689348666575,0.0,0.014191383813590839,0.0,0.13495827730025658
OrderedLock.createSemaphore|OrderedLock.acquire|OrderedLock.acquire,0.048945102154537984,0.0,0.0029307166553650954,0.0,0.05187581880990308
PackageBinding.getType0|LookupEnvironment.createPackage|CompilationUnitScope.buildTypeBindings,0.09330137823420967,0.0,0.006841819034451063,0.0,0.10014319726866074
Parser.classInstanceCreation|SourceElementParser.classInstanceCreation|Parser.consumeClassInstanceCreationExpression,0.0,0.06760666666620332,0.0,0.014730000000175396,0.08233666666637872
Parser.consumeBinaryExpressionWithName|Parser.consumeRule|Parser.parse,0.0,0.11887633333632645,0.0,0.01635000000048118,0.13522633333680764
Parser.consumeDefaultLabel|Parser.consumeRule|Parser.parse,0.0,0.04390466666599322,0.0,0.005463333334773779,0.049368000000767
Parser.consumeModifiers|Parser.consumeRule|Parser.parse,0.09543873355649518,0.0,0.011134848171293808,0.0,0.106573581727789
Parser.consumeRule|Parser.parse|Parser.parse,0.7889106541996627,0.49220085238689326,0.08808103921462924,0.06548550000505722,1.4346780458062423
Parser.consumeStatementReturn|Parser.consumeRule|Parser.parse,0.04228123148931477,0.0,0.00406014187265976,0.0,0.04634137336197453
Parser.consumeToken|Parser.parse|Parser.parse,0.1727108360662415,0.09837154386076964,0.014461614503475365,0.012526315789855608,0.29807031022034214
Parser.consumeUnaryExpression|Parser.consumeRule|Parser.parse,0.0,0.1066286666682572,0.0,0.012589999998454005,0.1192186666667112
Parser.dispatchDeclarationInto|Parser.consumeClassDeclaration|Parser.consumeRule,0.11069058495206306,0.0,0.010952692575633931,0.0,0.12164327752769699
Parser.initTables|Parser.<clinit>|IndexManager.getSourceElementParser,0.10862334662820804,0.0,0.009416195948675503,0.0,0.11803954257688354
Parser.ntAction|Parser.parse|Parser.parse,0.02682988328074021,0.0,0.0,0.0,0.02682988328074021
Parser.parse,0.0,0.07038570000077016,0.0,0.009805499999492892,0.08019120000026304
Parser.parse|MethodDeclaration.parseStatements|TypeDeclaration.parseMethods,0.09572328926146756,0.06185485714273194,0.009138908443997746,0.009325714285036415,0.17604276913323366
Parser.parse|Parser.parse|Initializer.parseStatements,0.0,0.07958966666531826,0.0,0.01201999999708884,0.09160966666240711
Parser.parse|Parser.parse|MatchLocatorParser.parseBodies,0.4705949870583943,0.0,0.045984862913463494,0.0,0.5165798499718578
Parser.parse|Parser.parse|MethodDeclaration.parseStatements,0.12172766068639346,0.23605495238561636,0.0050111901573684165,0.03247071428631898,0.3952645175156972
Parser.parse|Parser.parse|Parser.parse,0.2661213604720034,0.0,0.02280249165264258,0.0,0.288923852124646
Parser.pushIdentifier|Parser.consumeToken|Parser.parse,0.0,0.1107380000030389,0.0,0.01577999999911602,0.12651800000215493
Parser.tAction|Parser.parse|Parser.parse,0.2439456884021211,0.09700909090910996,0.02557209606288351,0.014313636363085332,0.38084051173719996
Path.computeLength|Path.toString|String.valueOf,0.055640699987766745,0.0,0.005173796320320184,0.0,0.06081449630808693
Path.lastSegment|Resource.getName|ProjectContentTypes$ProjectContentTypeSelectionPolicy.getDelegate,0.04312863494198886,0.0,0.004475623222589597,0.0,0.04760425816457846
Path.toString|ClasspathSourceDirectory.directoryTable|ClasspathSourceDirectory.isPackage,0.10813474613042127,0.0,0.008971634972281189,0.0,0.11710638110270247
Path.toString|String.valueOf|StringBuffer.append,0.06030850050106928,0.0,0.004077249352073283,0.0,0.06438574985314256
Project.updateDescription|Project.create|Project.create,0.0,0.0,0.0,0.0,0.0
ProjectPreferences.removeNode|ProjectPreferences.deleted|ProjectPreferences.deleted,0.08177366442351869,0.0,0.009814645815071623,0.0,0.0915883102385903
Properties.load0|Properties.load|PropertyResourceBundle.<init>,0.028661567937232856,0.0,0.004442655705305706,0.0,0.033104223642538566
ProviderList$ServiceList.iterator|KeyFactory.<init>|KeyFactory.getInstance,0.0,0.05877016120101925,0.0,0.006298049714349387,0.06506821091536864
RandomAccessFile.seek0|RandomAccessFile.seek|DiskIndex.writeOffsetToHeader,0.0,0.10045852173884076,0.0,0.01299260869627292,0.11345113043511368
ReferenceBinding$3.compare|TimSort.countRunAndMakeAscending|TimSort.sort,0.06717821090037276,0.0,0.007127792447621778,0.0,0.07430600334799455
ReferenceBinding.compare|ReferenceBinding$3.compare|TimSort.binarySort,0.0961005991606817,0.0,0.009094467187932477,0.0,0.10519506634861417
ReferenceInfoAdapter.acceptUnknownReference|SourceElementParser.addUnknownRef|SourceElementParser.getUnspecifiedReferenceOptimized,0.027541999996174127,0.0,0.004124999999476131,0.0,0.03166699999565026
Resource.getResourceInfo|Project.internalGetDescription|Project.hasNature,0.10770024820797176,0.0,0.010686850698503857,0.0,0.11838709890647561
ResourceTree.internalDeleteFile|ResourceTree.internalDeleteProject|ResourceTree.standardDeleteProject,0.07350818932190044,0.0,0.00450451844864261,0.0,0.07801270777054305
ReturnStatement.traverse|CodeFormatterVisitor.visit|IfStatement.traverse,0.0,0.10797133333350452,0.0,0.016344999998788502,0.12431633333229303
SAXParserImpl.<init>|SAXParserImpl.<init>|SAXParserFactoryImpl.newSAXParserImpl,0.0,0.07218433333279486,0.0,0.005530000002181622,0.07771433333497649
SHA.implCompress|DigestBase.implCompressMultiBlock|DigestBase.engineUpdate,0.0,0.05500152843646965,0.0,0.007652566227492759,0.0626540946639624
SaveManager$4.visitElement|ElementTreeIterator.doIteration|ElementTreeIterator.doIteration,0.0,0.0,0.0,0.0,0.0
Scanner.getCurrentIdentifierSource|Parser.pushIdentifier|Parser.consumeToken,0.1262109624389891,0.13687782539590632,0.013564816444102457,0.018971904760710746,0.29562550903970863
Scanner.getCurrentTokenSource|Parser.consumeToken|Parser.parse,0.031459874689675704,0.19382733333623037,0.00348130955471882,0.027250000001610413,0.2560185175822353
Scanner.getCurrentTokenSource|Scribe.printComment|Scribe.printComment,0.02734360975818027,0.0,0.0018033708011891399,0.0,0.02914698055936941
Scanner.getCurrentTokenSource|Scribe.printComment|Scribe.printNextToken,0.04440266029913414,0.0,0.0032740233729404533,0.0,0.04767668367207459
Scanner.getLineEnds|Parser.persistLineSeparatorPositions|Parser.endParse,0.0,0.08697500000077221,0.0,0.010299999999309268,0.09727500000008148
Scanner.getLineEnd|AbstractCommentParser.commentParse|JavadocParser.checkDeprecation,0.0,0.04812000000019906,0.0,0.006119999998190906,0.054239999998389965
Scanner.getNextChar|Scanner.getNextToken|Parser.parse,0.21543977319292812,0.0,0.010064304320095308,0.0,0.22550407751302343
Scanner.getNextChar|Scanner.scanNumber|Scanner.getNextToken,0.0,0.08546966666472144,0.0,0.012969999998555672,0.09843966666327711
Scanner.getNextToken|AbstractCommentParser.readToken|AbstractCommentParser.readTokenSafely,0.1082387476260346,0.0,0.010607221452109137,0.0,0.11884596907814374
Scanner.getNextToken|DefaultCommentMapper.storeLeadingComments|DefaultCommentMapper$CommentMapperVisitor.visitNode,0.10692483097092262,0.0,0.01021476392138302,0.0,0.11713959489230563
Scanner.getNextToken|Parser.parse|Parser.parse,2.209139194134018,1.9029075715840196,0.19547132210211568,0.2755765667982038,4.583094654618358
Scanner.internalScanIdentifierOrKeyword|Scanner.scanIdentifierOrKeyword|Scanner.getNextToken,0.08208902792514444,0.06785938095171809,0.007204900702329428,0.012168928569735726,0.1693222381489277
Scanner.internalScanIdentifierOrKeyword|Scanner.scanIdentifierOrKeyword|Scanner.jumpOverMethodBody,0.06723042500882936,0.07196715555328409,0.005170255381390523,0.013738666665934336,0.15810650260943832
Scanner.jumpOverMethodBody|Scanner.getNextToken|Parser.parse,0.29218862539422513,0.09634599999844795,0.02319842844992284,0.016727000001992565,0.42846005384458846
Scanner.pushLineSeparator|Scanner.getNextToken|Parser.parse,0.24302186588771746,0.10813399999945733,0.016148912718004532,0.015104999998584391,0.3824097786037637
Scanner.pushLineSeparator|Scanner.getNextToken|Scribe.printComment,0.049327179545436035,0.0,0.0066527434041635395,0.0,0.055979922949599574
Scanner.pushLineSeparator|Scanner.jumpOverMethodBody|Scanner.getNextToken,0.5418871489659359,0.06419555555556952,0.04835389098070295,0.007959999999406539,0.662396595501615
Scanner.resetTo|AbstractCommentParser.commentParse|JavadocParser.checkDeprecation,0.029865898752529464,0.0,0.002971344460862677,0.0,0.03283724321339214
Scanner.scanNumber|Scanner.jumpOverMethodBody|Scanner.getNextToken,0.0,0.13130880000069736,0.0,0.016876799999736247,0.1481856000004336
Scanner.unicodeInitializeBuffer|Scanner.getNextToken|Parser.parse,0.0,0.07327714285721802,0.0,0.011982857141577236,0.08525999999879526
Scope.getImplicitMethod|MessageSend.resolveType|Expression.resolve,0.11202757646699137,0.0,0.01158121886927293,0.0,0.1236087953362643
Scribe.addOptimizedReplaceEdit|Scribe.addInsertEdit|Scribe.print,0.05933053565733583,0.0,0.007221414666054519,0.0,0.06655195032339034
Scribe.getRootEdit|CodeFormatterVisitor.format|DefaultCodeFormatter.formatCompilationUnit,0.052269236665881534,0.055236666664616976,0.006595658897849072,0.007559999998193234,0.12166156222654081
Scribe.isValidEdit|Scribe.getRootEdit|CodeFormatterVisitor.format,0.0,0.06907133333394691,0.0,0.011470000000069073,0.08054133333401599
Scribe.printIndentationIfNecessary|Scribe.print|Scribe.printNextToken,0.09546430076427712,0.0,0.01010870288855455,0.0,0.10557300365283166
Scribe.print|Scribe.printQualifiedReference|CodeFormatterVisitor.format,0.0,0.07232666666580674,0.0,0.011440000002039595,0.08376666666784634
SearchDocument.getContainerRelativePath|SearchDocument.addIndexEntry|AbstractIndexer.addIndexEntry,0.08703633333789185,0.02903922222160165,0.010849999998754356,0.003628333333633943,0.1305538888918818
SearchDocument.getPath|SearchDocument.getContainerRelativePath|SearchDocument.removeAllIndexEntries,0.02950923528112702,0.0,0.0029290729597871968,0.0,0.03243830824091422
SearchPattern.findIndexMatches|MatchLocator.findIndexMatches|PatternSearchJob.search,0.0,0.027872708333234183,0.0,0.0035437500006689033,0.03141645833390309
SecurityAdmin.getPermissionInfos|SecurityAdmin.<init>|Framework.initialize,0.037699333333875984,0.0,0.002749999999650754,0.0,0.04044933333352674
Signature.createCharArrayTypeSignature|BinaryIndexer.extractArgCount|BinaryIndexer.extractReferenceFromConstantPool,0.05241788597214689,0.0,0.004213362286662147,0.0,0.05663124825880904
Signature.encodeQualifiedName|Signature.encodeTypeSignature|Signature.createCharArrayTypeSignature,0.09254839560885066,0.0,0.0101731673911728,0.0,0.10272156300002346
Signature.encodeTypeSignature|Signature.createCharArrayTypeSignature|Signature.createTypeSignature,0.08753880222289306,0.0,0.00933256400097569,0.0,0.09687136622386876
SimpleConfiguratorUtils.getBundleLocation|ConfigApplier.installBundles|ConfigApplier.install,0.0,0.0,0.0,0.0,0.0
SimpleLookupTable.get|ClasspathSourceDirectory.directoryTable|ClasspathSourceDirectory.findClass,0.08078658291901336,0.0,0.00513531508191281,0.0,0.08592189800092617
SimpleLookupTable.put|DiskIndex.computeDocumentNames|DiskIndex.mergeWith,0.12196744704153006,0.0,0.012150275150749665,0.0,0.13411772219227974
SimpleLookupTable.put|MemoryIndex.remove|Index.remove,0.10689767310915764,0.0,0.010149670105708426,0.0,0.11704734321486607
SimpleLookupTable.put|SimpleLookupTable.rehash|SimpleLookupTable.put,0.09634718423302505,0.0,0.01181260159818159,0.0,0.10815978583120664
SimpleWordSet.add|MemoryIndex.addIndexEntry|Index.addIndexEntry,1.2255491431775813,0.4623155365008902,0.12737180334754605,0.07575759523630646,1.890994078262324
SimpleWordSet.add|SimpleWordSet.rehash|SimpleWordSet.add,0.5151952310808008,0.12263999999898564,0.0466865340900271,0.021490000001601096,0.7060117651714146
SimpleWordSet.rehash|SimpleWordSet.add|MemoryIndex.addIndexEntry,0.18756689921195316,0.08752433333575027,0.017976591658410708,0.012264999999994568,0.3053328242061087
SourceElementNotifier.notifySourceElementRequestor|SourceElementNotifier.notifySourceElementRequestor|SourceElementNotifier.notifySourceElementRequestor,0.053887627340715165,0.0,0.005916139714411457,0.0,0.05980376705512662
SourceFileAttribute.<init>|AttributeInfo.read|ClassFile.read,0.0,0.0,0.0,0.0,0.0
SourceIndexerRequestor.acceptUnknownReference|SourceElementParser.addUnknownRef|SourceElementParser.getUnspecifiedReferenceOptimized,0.03192231078082766,0.0,0.0014016268374533495,0.0,0.033323937618281015
SourceIndexerRequestor.addDefaultConstructorIfNecessary|SourceIndexerRequestor.enterInterface|SourceIndexerRequestor.enterType,0.03545158268044095,0.0,0.0004916732035258528,0.0,0.0359432558839668
SourceTypeBinding.resolveTypesFor|SourceTypeBinding.methods|SourceTypeBinding.faultInTypesForFieldsAndMethods,0.1272480416628241,0.0,0.013159999998606509,0.0,0.14040804166143062
StandardVMType.findJavaExecutable|StandardVMType.getDefaultJavadocLocation|StandardVMType.getDefaultLibraryLocations,0.07759369590429067,0.0,0.005617525227586039,0.0,0.08321122113187672
StateWriter.writeImportPackageSpec|StateWriter.writeBundleDescriptionLazyData|StateWriter.saveState,0.0,0.0,0.0,0.0,0.0
String.<init>|String.substring|DiskIndex.readChunk,0.0,0.07334399999914845,0.0,0.015120000001237106,0.08846400000038555
String.<init>|String.substring|Index.containerRelativePath,0.0453587003341148,0.05997699999958665,0.005740810430448414,0.008075000000341484,0.11915151076449136
String.charAt|DiskIndex.writeAllDocumentNames|DiskIndex.mergeWith,0.08330488435845525,0.0,0.011651426357206196,0.0,0.09495631071566145
String.compareTo|Util.quickSort|Util.quickSort,0.050402704135695066,0.0,0.006663927871765619,0.0,0.057066632007460684
String.format|Chaperone.main|end.end,0.0,0.0,0.0,0.0,0.0
String.hashCode|HashMap.hash|HashMap.put,0.0,0.027872708333234183,0.0,0.0035437500006689033,0.03141645833390309
String.hashCode|HashtableOfArrayToObject.hashCode|HashtableOfArrayToObject.getKey,0.03186098960157287,0.0,0.004358407495201809,0.0,0.03621939709677468
String.hashCode|HashtableOfArrayToObject.hashCode|HashtableOfArrayToObject.hashCode,0.08853673333512828,0.0,0.00924990543154876,0.0,0.09778663876667704
String.hashCode|KeyedHashSet.keyHash|KeyedHashSet.getByKey,0.06683935178216635,0.0,0.005222817697484761,0.0,0.0720621694796511
String.hashCode|Path.computeHashCode|Path.initialize,0.060783626549188736,0.0,0.007949326082360066,0.0,0.0687329526315488
String.indexOf|String.indexOf|File.isInvalid,0.06766595393971976,0.0,0.007834394323374442,0.0,0.07550034826309421
String.indexOf|String.indexOf|Path.append,0.0433986226560154,0.0,0.006188678237042375,0.0,0.049587300893057774
String.length|Scribe.isValidEdit|Scribe.getRootEdit,0.039222495971624825,0.0,0.00509051059343845,0.0,0.044313006565063276
String.substring|Index.containerRelativePath|SearchDocument.getContainerRelativePath,0.05474833332118578,0.0,0.006900000000314321,0.0,0.061648333321500104
StringBuffer.append|LocalFile.internalDelete|LocalFile.internalDelete,0.0593064005107594,0.0,0.004213603478966148,0.0,0.06352000398972554
StringBuffer.append|Signature.encodeQualifiedName|Signature.encodeTypeSignature,0.0,0.057515666667313774,0.0,0.009519999999611171,0.06703566666692494
StringBuffer.append|StringBuffer.<init>|XMLWriter.endTag,0.10522493236760827,0.0,0.011440203449784416,0.0,0.11666513581739268
StringBuffer.toString|DiskIndex.readChunk|DiskIndex.readDocumentName,0.0,0.05784506666629265,0.0,0.013188000000081957,0.0710330666663746
SuperTypeReferencePattern.createIndexKey|AbstractIndexer.addClassDeclaration|BinaryIndexer.indexDocument,0.0,0.051040499998634914,0.0,0.008190000000467991,0.059230499999102904
System.getSecurityManager|File.length|Util.getResourceContentsAsCharArray,0.0,0.06325266666681273,0.0,0.009570000001986044,0.07282266666879877
TableWriter.filter|TableWriter.saveExtension|TableWriter.saveExtensions,0.0,0.0,0.0,0.0,0.0
Throwable.fillInStackTrace|Throwable.fillInStackTrace|Throwable.<init>,0.43916222835095037,0.0,0.04193884328819738,0.0,0.4811010716391477
TimSort.gallopRight|TimSort.mergeAt|TimSort.mergeCollapse,0.08289809711180579,0.0,0.008976368764979389,0.0,0.09187446587678517
TimeZone.getTimeZone|TimeZone.setDefaultZone|TimeZone.getDefaultRef,0.07550066665862687,0.0,0.006890000001779602,0.0,0.08239066666040647
TransformerFactoryImpl.newTransformer|LaunchManager.serializeDocument|DebugPlugin.serializeDocument,0.007888525104285208,0.0,0.0010084169169762359,0.0,0.008896942021261444
TransformerImpl.getOutputHandler|TransformerImpl.transform|LaunchManager.serializeDocument,0.007536532888656485,0.0,0.0005136239929122222,0.0,0.008050156881568706
TypeBinding.getErasureCompatibleType|MessageSend.resolveType|Expression.resolve,0.10911382973567753,0.0,0.010576618732564654,0.0,0.11969044846824219
TypeBinding.isParameterizedType|ClassScope.detectHierarchyCycle|SingleTypeReference.getTypeBinding,0.09677273285007768,0.0,0.0091640739319946,0.0,0.10593680678207228
TypeDeclaration.checkConstructors|Parser.consumeClassDeclaration|Parser.consumeRule,0.02019836511889033,0.0,0.0014947104235194279,0.0,0.02169307554240976
TypeDeclaration.generateCode|TypeDeclaration.generateCode|CompilationUnitDeclaration.generateCode,0.14081323849391508,0.0,0.013390940114453076,0.0,0.15420417860836816
TypeDeclaration.parseMethods|Parser.getMethodBodies|SourceElementParser.parseCompilationUnit,0.04043091114062612,0.0,0.0,0.0,0.04043091114062612
TypeDeclarationPattern.createIndexKey|AbstractIndexer.addTypeDeclaration|AbstractIndexer.addClassDeclaration,0.0,0.06845422222169062,0.0,0.0074933333332107095,0.07594755555490133
URI.quote|URI.appendSchemeSpecificPart|URI.toString,0.0,0.0,0.0,0.0,0.0
UTF_8$Decoder.decodeArrayLoop|UTF_8$Decoder.decodeLoop|CharsetDecoder.decode,0.1707701233662205,0.06578222222136294,0.017029401175636484,0.009066666666007629,0.26264841342922757
UTF_8$Encoder.encode|StringCoding$StringEncoder.encode|StringCoding.encode,0.12535497371316445,0.11513233333243987,0.012846224505717464,0.017220000001543667,0.2705535315528655
UnifiedTree.<init>|FileSystemResourceManager.delete|ResourceTree.internalDeleteFolder,0.0,0.05615233333325401,0.0,0.01087999999920915,0.06703233333246317
UnixFileSystem.checkAccess|File.canWrite|LocalFile.fetchInfo,0.04193568318784811,0.0,0.0047429386004975505,0.0,0.04667862178834566
UnixFileSystem.createFileExclusively|File.createNewFile|DiskIndex.initializeFrom,0.02876306779780385,0.0,0.0013707762515118775,0.0,0.03013384404931573
UnixFileSystem.delete0|UnixFileSystem.delete|File.delete,0.37346852987249085,0.0556233333312169,0.04231614757921394,0.010900000001129229,0.4823080107840509
UnixFileSystem.getBooleanAttributes0|UnixFileSystem.getBooleanAttributes|File.exists,0.13178503187801233,0.0,0.012027073514750422,0.0,0.14381210539276273
UnixFileSystem.getBooleanAttributes0|UnixFileSystem.getBooleanAttributes|File.isDirectory,0.265848659255839,0.0,0.021758727512572195,0.0,0.2876073867684112
UnixFileSystem.getBooleanAttributes0|UnixFileSystem.getBooleanAttributes|File.isHidden,0.03495146694012638,0.0,0.0021317513689743588,0.0,0.03708321830910074
UnixFileSystem.getLength|File.length|LocalFile.fetchInfo,0.0696324598635826,0.0,0.005956154600856162,0.0,0.07558861446443876
UnixFileSystem.getLength|File.length|Util.getResourceContentsAsCharArray,0.04658062029249123,0.0,0.0023255281235237805,0.0,0.04890614841601501
UnixFileSystem.list|File.list|LocalFile.childNames,0.2404050735097727,0.0,0.021086552695358616,0.0,0.26149162620513133
Util.equalArraysOrNull|HashtableOfArrayToObject.get|JarPackageFragmentRoot.initRawPackageInfo,0.007793623926489602,0.0,0.0012296997347194868,0.0,0.009023323661209089
Util.getInputStreamAsByteArray|Util.getZipEntryByteContent|AddJarFileToIndex.execute,0.23464976807982257,0.0,0.02417980092336187,0.0,0.25882956900318443
Util.getInputStreamAsCharArray|Util.getResourceContentsAsCharArray|Util.getResourceContentsAsCharArray,0.09138366679146373,0.09598800000094344,0.00762502119836303,0.01261499999964144,0.20761168799041166
Util.getLineNumber|DefaultCommentMapper.getLineNumber|DefaultCommentMapper$CommentMapperVisitor.visitNode,0.1039779263955934,0.0,0.010466836700076395,0.0,0.1144447630956698
Util.getZipEntryByteContent|AddJarFileToIndex.execute|JobManager.run,0.06601914753138872,0.0,0.007762304036248859,0.0,0.07378145156763759
Util.quickSort|Util.quickSort|Util.quickSort,0.8800859029357837,0.0,0.06504754827382568,0.0,0.9451334512096093
Util.quickSort|Util.quickSort|Util.sort,0.04042957564482681,0.0,0.0032391532317090155,0.0,0.04366872887653583
Util.quickSort|Util.sort|DiskIndex.computeDocumentNames,0.0643817368340348,0.0,0.004813958959983592,0.0,0.06919569579401838
Util.quickSort|Util.sort|DiskIndex.writeDocumentNumbers,0.04783564695481368,0.0,0.004613948995420027,0.0,0.05244959595023371
Vector.isEmpty|InputStreamMonitor.writeNext|InputStreamMonitor.write,0.0,0.0,0.0,0.0,0.0
Workspace.startup|Workspace.open|ResourcesPlugin.start,0.05911250695704951,0.0,0.006780578763013756,0.0,0.06589308572006326
X500Name$1.run|X500Name$1.run|AccessController.doPrivileged,0.0,0.060107832741047924,0.0,0.006369469660949013,0.06647730240199694
X509CertImpl.parse|X509CertImpl.<init>|X509Factory.engineGenerateCertificate,0.0,0.060107832741047924,0.0,0.006369469660949013,0.06647730240199694
ZipCoder.getBytes|ZipFile.getInputStream|ZipBundleEntry.getInputStream,0.07722966666915454,0.0,0.005879999999403178,0.0,0.08310966666855772
ZipEntry.<init>|ZipInputStream.createZipEntry|ZipInputStream.readLOC,0.05788645031325936,0.0,0.00408655801028188,0.0,0.061973008323541245
ZipFile.freeEntry|ZipFile.access$1000|ZipFile$ZipEntryIterator.next,0.10274257047401081,0.05777999999929416,0.010989660695516884,0.009945454545562494,0.18145768571438436
ZipFile.getEntryBytes|ZipFile.getZipEntry|ZipFile.access$900,0.34605202933316587,0.09901183333173927,0.036906630843101085,0.014297499998368341,0.49626799350637457
ZipFile.getEntryTime|ZipFile.getZipEntry|ZipFile.access$900,0.0,0.039631999999983236,0.0,0.006109999999656186,0.04574199999963942
ZipFile.getEntry|ZipFile.getEntry|ClassFile.getJarBinaryTypeInfo,0.07842091388943949,0.0,0.007592985729506825,0.0,0.08601389961894632
ZipFile.getEntry|ZipFile.getEntry|ZipBundleFile.getZipEntry,0.0,0.06835933333301605,0.0,0.010935000000851385,0.07929433333386744
ZipFile.getEntry|ZipFile.getInputStream|Util.getZipEntryByteContent,0.14192859352840248,0.0,0.013815527661419068,0.0,0.15574412118982156
ZipFile.getInputStream|Util.getZipEntryByteContent|AddJarFileToIndex.execute,0.092142666670649,0.0,0.010945000001811422,0.0,0.10308766667246043
ZipFile.getNextEntry|ZipFile.access$500|ZipFile$ZipEntryIterator.next,0.13273717804415505,0.04834987499998533,0.01450377761707712,0.008146249998996305,0.2037370806602138
ZipFile.getZipEntry|ZipFile.access$900|ZipFile$ZipEntryIterator.next,0.07568415048971923,0.0,0.01030966678231695,0.0,0.08599381727203617
ZipFile.read|ZipFile.access$1400|ZipFile$ZipFileInputStream.read,0.9152399370580733,0.3661875117810293,0.09927088599860144,0.06437787878163324,1.4450762136193371
ZipUtils.get16|ZipUtils.get32|ZipInputStream.readLOC,0.048846015094189885,0.0,0.002364387058179781,0.0,0.05121040215236967
