method,package1,package2,dram1,dram2,energy
chappie,0.0,0.0,0.0,0.0,0.0
com.sun.org.apache.xalan.internal.xsltc.runtime.output,0.0,0.07879633333262366,0.0,0.010980000001533577,0.08977633333415724
com.sun.org.apache.xalan.internal.xsltc.trax,0.0,0.15433766666683368,0.0,0.02259499999733331,0.176932666664167
com.sun.org.apache.xerces.internal.dom,0.0,0.023590166666811758,0.0,0.003964999999880092,0.02755516666669185
com.sun.org.apache.xerces.internal.impl,0.0,0.06066879999998491,0.0,0.008252999999967871,0.06892179999995278
com.sun.org.apache.xerces.internal.impl.dtd,0.0,0.08711766666844292,0.0,0.012360000000626314,0.09947766666906924
com.sun.org.apache.xerces.internal.parsers,0.03671565148747033,0.19800619999902358,0.004734263941018607,0.026478000001710217,0.26593411542922274
com.sun.org.apache.xerces.internal.util,0.0,0.005681818181818181,0.0,0.0007464935063450996,0.006428311688163281
com.sun.org.apache.xerces.internal.utils,0.0,0.007378129870063844,0.0,0.0008509090909577133,0.008229038961021557
com.sun.org.apache.xml.internal.serializer,0.0,0.15348333333289094,0.0,0.022579999999531232,0.17606333333242216
java.io,4.296268066778223,3.271266834608149,0.3958579232539626,0.5495010480218233,8.512893872662158
java.lang,1.5922654505334182,1.6678616253473546,0.15737980912960425,0.28255794972395926,3.700064834734336
java.math,0.06472136363542327,0.0,0.007757272728089116,0.0,0.07247863636351239
java.nio,0.05992805424290518,0.0,0.006592498700666956,0.0,0.06652055294357213
java.nio.charset,0.0,0.07501233333459822,0.0,0.019010000001192868,0.09402233333579109
java.security,0.0,0.19423966666514994,0.0,0.02455499999996391,0.21879466666511385
java.text,0.0,0.06762700000035693,0.0,0.010920000000623986,0.07854700000098092
java.util,0.586126717030222,0.3962636426913472,0.06552440099765855,0.0580592878553234,1.105974048574551
java.util.concurrent.atomic,0.0,0.053568666666251374,0.0,0.010899999998703908,0.06446866666495528
java.util.jar,0.0777789999944313,0.07022544037000016,0.008439999997790437,0.012026232744462958,0.16847067310668484
java.util.regex,0.0,0.0,0.0,0.0,0.0
java.util.zip,2.063651087152217,5.39918606988143,0.21736761279263847,0.9234727411113692,8.603677510937654
javassist.bytecode,0.0,0.0,0.0,0.0,0.0
javax.xml.transform,0.0,0.030860875000144006,0.0,0.004511250000177824,0.03537212500032183
org.dacapo.parser,0.0,0.0,0.0,0.0,0.0
org.eclipse.core.internal.content,0.05770346905238705,0.11002600000089538,0.007322117353102463,0.015095000002474991,0.19014658640885987
org.eclipse.core.internal.dtree,0.011405797698731209,0.045186015051611184,0.0012322635417486428,0.0045314373349274,0.06235551362701843
org.eclipse.core.internal.events,0.0,0.0638085461533942,0.0,0.009874961538410458,0.07368350769180465
org.eclipse.core.internal.jobs,0.0,0.0,0.0,0.0,0.0
org.eclipse.core.internal.localstore,0.0,0.058044333332266725,0.0,0.009330000000772998,0.06737433333303972
org.eclipse.core.internal.preferences,0.0,0.03199727216756405,0.0,0.003139261636969811,0.03513653380453387
org.eclipse.core.internal.properties,0.0,0.023590166666811758,0.0,0.003964999999880092,0.02755516666669185
org.eclipse.core.internal.resources,0.26133353057729314,0.20019329101629976,0.030834723369321866,0.02557400371485876,0.5179355486777736
org.eclipse.core.internal.runtime,0.0,0.19775399999828852,0.0,0.035959999998643376,0.2337139999969319
org.eclipse.core.runtime,0.1328482916041311,0.09398401260345521,0.01502148308744006,0.015611357194832007,0.2574651444898584
org.eclipse.debug.core,0.0,0.06588463636283201,0.0,0.01013727272617292,0.07602190908900493
org.eclipse.jdt.core,0.07045280000505347,0.12185899999943406,0.008691999999912998,0.024107999998280623,0.22511180000268113
org.eclipse.jdt.core.compiler,1.8902854031795895,5.663441682421629,0.20256660102592264,1.035464788013431,8.791758474640572
org.eclipse.jdt.core.dom,0.5117843989032849,0.0,0.046053613537784026,0.0,0.5578380124410689
org.eclipse.jdt.core.search,0.0,0.0918169999992339,0.0,0.01500000000184324,0.10681700000107713
org.eclipse.jdt.core.tests.util,0.04355718859031085,0.0,0.004156284319440187,0.0,0.04771347290975104
org.eclipse.jdt.internal.codeassist.complete,0.18862500051050152,0.0,0.023374509264043154,0.0,0.21199950977454468
org.eclipse.jdt.internal.compiler,0.28777068533376227,0.06886800000089957,0.024173253579428167,0.014499999999922391,0.3953119389140124
org.eclipse.jdt.internal.compiler.ast,0.559581313884434,0.39626554900579836,0.056272805968103426,0.04591573167727689,1.0580354005356127
org.eclipse.jdt.internal.compiler.classfmt,0.9027021070151244,3.004371463146496,0.10250303712499015,0.5494701871568684,4.5590467944434785
org.eclipse.jdt.internal.compiler.codegen,0.2599934805436938,0.0,0.02386518791402292,0.0,0.28385866845771673
org.eclipse.jdt.internal.compiler.lookup,0.3512364272639499,0.0,0.031951627080647235,0.0,0.38318805434459713
org.eclipse.jdt.internal.compiler.parser,6.5382040761171325,2.6899542401726158,0.6378607204838771,0.3975313062849352,10.263550343058562
org.eclipse.jdt.internal.compiler.util,1.6317124810282269,3.1477502653224563,0.17403653842614483,0.6003450032995878,5.553844288076416
org.eclipse.jdt.internal.core,0.7231572078741935,0.2454632765584334,0.07981157096141031,0.04120286096467884,1.089634916358716
org.eclipse.jdt.internal.core.builder,0.0,0.27505177777776324,0.0,0.06631000000197673,0.34136177777973997
org.eclipse.jdt.internal.core.index,1.923955970019454,8.888675993065998,0.2040497432783688,1.461322703747457,12.478004410111279
org.eclipse.jdt.internal.core.search,0.0,0.03591780952306829,0.0,0.00587428571417972,0.041792095237248014
org.eclipse.jdt.internal.core.search.indexing,0.3313791988864658,1.6659701370409834,0.03881375574022002,0.28680657270928456,2.322969664376954
org.eclipse.jdt.internal.core.search.matching,0.1489835985418735,0.2984242113137245,0.014812175840072602,0.046550704226628686,0.5087706899222993
org.eclipse.jdt.internal.core.util,1.1677045721509236,3.384032111454514,0.13109980139503755,0.5850122143829727,5.267848699383447
org.eclipse.jdt.internal.formatter,0.32394360406321865,0.0,0.029300215552691414,0.0,0.35324381961591006
org.eclipse.osgi.baseadaptor.bundlefile,0.0,0.11761500000041755,0.0,0.018074999999953437,0.13569000000037099
org.eclipse.osgi.internal.baseadaptor,0.051818727269578216,0.0,0.005624999999285633,0.0,0.05744372726886385
org.eclipse.osgi.internal.loader,0.0,0.0,0.0,0.0,0.0
org.eclipse.osgi.internal.resolver,0.0,0.0049733093597639005,0.0,0.00011181319138331146,0.005085122551147212
sun.misc,0.04331466666189954,0.0,0.006859999998899487,0.0,0.050174666660799026
sun.nio.cs,0.10703874127437465,0.0875065351871109,0.011383876599369621,0.01257774343040238,0.21850689649125757
sun.security.provider,0.0322895151585919,0.04154749791672281,0.00336954545315221,0.0076244418081081984,0.08483100033657512
sun.security.rsa,0.07346600000164473,0.0,0.009620000001935598,0.0,0.08308600000358032
sun.security.util,0.0,0.029592550513972568,0.0,0.0046376486625751175,0.03423019917654768
sun.security.x509,0.08766700001433493,0.06800060324270488,0.008829999998852145,0.007239530595216638,0.17173713385110861
sun.util.calendar,0.08260099999218558,0.029020811154532387,0.007845000002513794,0.0026551653574890923,0.12212197650672085
