method,package1,package2,dram1,dram2,energy
ASCIICaseInsensitiveComparator,0.02197260606060285,0.0,0.0021381818188467264,0.0,0.024110787879449577
AST,0.0,0.21077977394643263,0.0,0.031866615157921496,0.24264638910435413
ASTConverter,0.0,0.5441255135654229,0.0,0.07805872583871032,0.6221842394041333
ASTNode,0.0,0.3104886241723903,0.0,0.044797072823509546,0.35528569699589985
ASTParser,0.0,0.10605122096141413,0.0,0.0128714789599196,0.11892269992133372
AbstractCommentParser,0.2865016547515547,0.14614418399184362,0.018466618777778603,0.01823786158903624,0.4693503191102132
AbstractDOMParser,0.13868088888889402,0.0,0.011394444444266372,0.0,0.1500753333331604
AbstractDataTreeNode,0.11311833333333728,0.18648124712572833,0.012334999999438878,0.02800373454028644,0.3399383149987909
AbstractIndexer,0.20851991856247026,0.0,0.013432855091009718,0.0,0.22195277365347998
AbstractStringBuilder,0.12915867712256157,0.0,0.010273809922470093,0.0,0.13943248704503167
AccessController,0.13094661904761462,0.034301956023299426,0.0123635714304068,0.006225931885702449,0.18383807838702332
AddJarFileToIndex,0.20635139602861308,0.034270108001615084,0.011284557403866465,0.006231362434032413,0.25813742386812705
Alignment,0.109801999999983,0.0,0.00713499999740937,0.0,0.11693699999739236
AnnotationInfo,0.1177400980463972,0.0,0.007062660224920964,0.0,0.12480275827131818
ArrayAllocationExpression,0.0,0.04913325000052282,0.0,0.007241249999424326,0.05637449999994715
ArrayList,0.07187900000000505,0.0,0.006479999998797817,0.0,0.07835899999880287
ArrayTypeReference,0.0,0.10091451093542604,0.0,0.013510565827054823,0.11442507676248087
Arrays,0.4785864818917311,0.0,0.04294844086564341,0.0,0.5215349227573745
Assert,0.0,0.0,0.0,0.0,0.0
BasicSearchEngine,0.0,0.07226575000095181,0.0,0.008231249999880674,0.08049700000083249
BigInteger,0.07019066666667109,0.0,0.005520000001221584,0.0,0.07571066666789268
BinaryIndexer,1.977180438641828,0.05435755514377495,0.1655697190170264,0.006397082619489036,2.2035047954221185
BinaryTypeBinding,0.0,0.12554117657044772,0.0,0.01840057014963587,0.14394174672008359
BlockScope,0.0,0.15249913679525956,0.0,0.02015294476088692,0.17265208155614648
BufferedInputStream,0.8840921518184579,0.0,0.07489089149420809,0.0,0.958983043312666
BuildManager,0.0,0.0,0.0,0.0,0.0
BundleContextImpl,0.03855400000000486,0.0,0.002374999998816444,0.0,0.040928999998821304
BundleLoader,0.0,0.03956600000128674,0.0,0.00526125000033062,0.04482725000161736
Calendar$Builder,0.0715999761904772,0.0,0.00549714285790244,0.0,0.07709711904837964
CharInfo,0.021018303030304556,0.0,0.001870909090167984,0.0,0.02288921212047254
CharOperation,6.660002223427329,1.3231471881282773,0.5137282097388729,0.2007093009209286,8.697586922215407
Character,0.03855400000000486,0.0,0.002374999998816444,0.0,0.040928999998821304
CharacterDataLatin1,0.03691808315412575,0.0,0.0,0.0,0.03691808315412575
Charset,0.03046880000000177,0.0,0.0004799999995157122,0.0,0.03094879999951748
Class,0.19793990476190698,0.11426650011715139,0.019349285714616558,0.018700013683621702,0.3502557042772967
ClassFile,0.0,0.15246289303973037,0.0,0.023178636501587854,0.17564152954131823
ClassFileReader,0.4530238291006898,0.0,0.029292307178467872,0.0,0.48231613627915765
ClassFileStruct,3.178213348275677,0.39447117511295,0.24462175543630654,0.056167421438420795,3.8734737002633546
ClassLoader,0.8026940833333641,0.432809444361393,0.05697624999932789,0.060877527756634374,1.3533573054507195
ClassScope,0.0,0.19915799999823014,0.0,0.024865000001833927,0.22402300000006406
CodeFormatterVisitor,0.08473700000001827,0.0,0.004074999999526577,0.0,0.08881199999954485
CommentRecorderParser,0.04285145722828404,0.0,0.004058689657376545,0.0,0.046910146885660586
CompilationResult,0.0,0.12122654991722225,0.0,0.01740256655522214,0.13862911647244439
CompilationUnitScope,0.0,0.123345523808218,0.0,0.016621142855451798,0.1399666666636698
CompletionParser,0.0,0.15692055847200473,0.0,0.02765155080154283,0.18457210927354756
ConfigApplier,0.07954900000000482,0.0,0.00789499999518739,0.0,0.08744399999519221
ConstPool,0.07165533333334413,0.0,0.004759999998592925,0.0,0.07641533333193706
ConstructorDeclaration,0.0,0.09779970588330317,0.0,0.012983823529365885,0.11078352941266906
ConstructorPattern,0.051350999999992084,0.0,0.0005950000001272807,0.0,0.05194600000011936
ContentType,0.0,0.07532162888045496,0.0,0.011045024350775416,0.08636665323123038
ContentTypeCatalog,0.0,0.13540678052014116,0.0,0.016429852032682296,0.15183663255282345
DataInputStream,0.15248616666667658,0.0,0.010274999998121832,0.0,0.16276116666479842
DataTreeLookup,0.0,0.06700942857354503,0.0,0.010126071426687606,0.07713550000023263
DataTreeNode,0.2002970000000156,0.0,0.01832999999896856,0.0,0.21862699999898416
DebugPlugin,0.0619100000000022,0.0,0.003565000001496325,0.0,0.06547500000149853
DeepNodeListImpl,0.039164222222213815,0.0,0.0032277777782938858,0.0,0.042392000000507704
DefaultCommentMapper,0.0,0.09033333972941897,0.0,0.012173086887483598,0.10250642661690257
DeltaDataTree,0.060447268910086775,0.03956600000128674,0.004633814686390535,0.00526125000033062,0.10990833359809468
DeltaProcessingState,0.03430831578944698,0.0,0.0016484210500493643,0.0,0.035956736839496344
DerInputBuffer,0.04958099999998922,0.0,0.0041200000026340895,0.0,0.0537010000026233
DerInputStream,0.081484571428582,0.0,0.01345428571256066,0.0,0.09493885714114265
DiskIndex,1.8321354646848689,2.1324355255429097,0.09933996722848577,0.3321918821215177,4.396102839577782
DiskIndex$IntList,0.5800236883376946,0.2527059999993071,0.03965989214864566,0.03815999999642372,0.910549580482071
DistributionPoint,0.036411809523813295,0.0,0.003651428572733753,0.0,0.04006323809654705
DocumentBuilderFactoryImpl,0.057779999999989215,0.0,0.004779999998087685,0.0,0.0625599999980769
DocumentBuilderImpl,0.06456151851852432,0.0,0.0050749999995955645,0.0,0.06963651851811989
EclipseAdaptorHook,0.07639566666667481,0.0,0.0076300000049135015,0.0,0.08402566667158831
EclipseLog,0.04758700000001189,0.0,0.0035550000005362867,0.0,0.05114200000054818
ElementImpl,0.039164222222213815,0.0,0.0032277777782938858,0.0,0.042392000000507704
ElementTree,0.0,0.19803588148465176,0.0,0.03029733333387412,0.22833321481852586
Encodings,0.021018303030304556,0.0,0.001870909090167984,0.0,0.02288921212047254
EntryResult,0.0,0.09543527777673767,0.0,0.011958333333394777,0.10739361111013244
ExportPackageDescriptionImpl,0.0,0.007700583333037987,0.0,0.001028749999629023,0.00872933333266701
Expression,0.042639224662571765,0.0,0.0,0.0,0.042639224662571765
FeaturePropertyBase,0.03183454545453721,0.0,0.003265454545864045,0.0,0.035100000000401255
FieldReference,0.0,0.06028233333442282,0.0,0.009514999997918494,0.06979733333234131
File,0.0,0.1080224260861639,0.0,0.014761033355737013,0.12278345944190092
FileInputStream,0.4907198240592829,0.44808599838386337,0.03924992753790395,0.06296649031769261,1.0410222402987428
FileOutputStream,2.63227775732461,0.3455404999986058,0.21445463114440805,0.04770749999806867,3.2399803884656926
FilterOutputStream,0.0,0.0,0.0,0.0,0.0
Finalizer,0.0,0.08886312442661445,0.0,0.00916164313624468,0.09802476756285913
Formatter$FormatSpecifier,0.0,0.0,0.0,0.0,0.0
FullSourceWorkspaceFormatterTests,0.05822733333332052,0.0,0.004920000001826944,0.0,0.06314733333514747
Gregorian,0.05372266666666378,0.0,0.004537142857554412,0.0,0.05825980952421819
GregorianCalendar,0.04351323076922689,0.0,0.003276923075855638,0.0,0.046790153845082526
HashMap,0.2977402631579219,0.10571795256528572,0.022948355258784813,0.019785353596532503,0.4461919245785249
HashMap$HashIterator,0.0,0.12867326318243874,0.0,0.016928120161264062,0.14560138334370282
HashSetOfArray,0.0,0.06857958823535476,0.0,0.008557058823427329,0.07713664705878209
Hashtable,0.0,0.11351644444167268,0.0,0.014542222221347469,0.12805866666302015
Hashtable$Entry,0.0,0.10519964103518208,0.0,0.015451380907631016,0.12065102194281309
HashtableOfObject,2.546564456093914,1.679850333336314,0.14474140768855218,0.2934599999983523,4.664616197117132
HashtableOfObjectToInt,0.10167271163622052,0.07314666804610401,0.009010924850969021,0.011013255201126752,0.1948435597344203
HashtableOfPackage,0.05135416666667601,0.11316416000016033,0.004591666664863523,0.016118399999104437,0.18522839333080432
HashtableOfType,0.0,0.3824785671176663,0.0,0.05242873303157447,0.4349073001492408
Headers,0.07301833333332297,0.0,0.005479999997381431,0.0,0.0784983333307044
HeapByteBuffer,0.0,0.057041714288061485,0.0,0.009359999998456,0.06640171428651748
IndexManager,0.04368791577719201,0.8468226783168759,0.0005822036597288866,0.13226864974382885,1.0233614474976256
IndexRequest,0.0,0.04659393939514165,0.0,0.005832727273545143,0.05242666666868679
IndexSelector,0.0644896000000017,0.0,0.005277000000933185,0.0,0.06976660000093489
IndexingParser,0.0,0.07108141185146143,0.0,0.010289303360378426,0.08137071521183985
Inflater,3.4853404085475947,0.48640103100065246,0.2781720404070884,0.0708258286072649,4.3207393085626
InnerClassInfo,0.07498961101370141,0.0,0.004653569962034763,0.0,0.07964318097573618
InputStreamReader,0.07484691956790313,0.0,0.004945463464744291,0.0,0.07979238303264742
JavaModelCache,0.0,0.0,0.0,0.0,0.0
JavaModelManager,0.1023966666666638,0.0,0.0059200000008180105,0.0,0.10831666666748181
JavaProject,0.053579814814826134,0.0,0.004161111110685548,0.0,0.05774092592551168
JavaProjectElementInfo,0.0,0.19441031045949023,0.0,0.022792058824182997,0.21720236928367323
JavaSearchDocument,0.05003660061527152,0.0,0.004569096775021468,0.0,0.05460569739029299
JavaSearchNameEnvironment,0.0,0.07113115686233333,0.0,0.008870588235617571,0.0800017450979509
JavadocParser,0.0,0.06998702210518662,0.0,0.012023526040614858,0.08201054814580147
JavadocSingleNameReference,0.0,0.11990244026002728,0.0,0.01854336785359016,0.13844580811361742
JobManager,0.09751661270521512,0.15100569581938658,0.0077064911100178934,0.02181299307154951,0.27804179270616913
LocalFile,0.04447806995299124,0.0,0.0005837612896810057,0.0,0.04506183124267224
LocalVariableBinding,0.0,0.1101602381985986,0.0,0.014850189368289881,0.1250104275668885
LongVector,0.036051428571421885,0.0,0.004505714285187422,0.0,0.04055714285660931
LookupEnvironment,0.08651827027027421,0.2532211851864337,0.009743918918822009,0.029963888892207587,0.3794472632677375
ManifestDigester,0.08009866666665744,0.0,0.007860000000315873,0.0,0.08795866666697331
MarkerManager,0.06952200000003023,0.0,0.003941052635414771,0.0,0.073463052635445
MarkerManager$4,0.0,0.027450499999758904,0.0,0.001518749999377178,0.028969249999136082
MatchLocator,0.0,0.09543527777673767,0.0,0.011958333333394777,0.10739361111013244
MatchLocatorParser,0.0,0.10056566666753496,0.0,0.015255000000858368,0.11582066666839333
MemoryIndex,0.24426080855915375,0.06706700718663985,0.020003599799683747,0.010158368817930068,0.34148978436340743
MethodBinding,0.0,0.23061100000146934,0.0,0.03154999999969732,0.26216100000116666
MethodInfo,0.0617473333333199,0.0,0.007840000000821115,0.0,0.06958733333414102
MethodScope,0.0,0.16074599999895628,0.0,0.019875000000562672,0.18062099999951894
NestedTypeBinding,0.0,0.12951633333432255,0.0,0.017455000001064036,0.1469713333353866
Normalizer,0.09932433333332824,0.0,0.011389999997239405,0.0,0.11071433333056764
Object,0.06522633333332806,0.0,0.0053799999999076436,0.0,0.0706063333332357
Openable,0.0,0.14141528893165486,0.0,0.02803264209023869,0.16944793102189357
Parser,1.1579142504902902,4.228287831332229,0.06787621771299208,0.6182473653971675,6.072325664932679
Path,0.13205590677658657,0.059019261650135005,0.013838662786882595,0.00823019790117798,0.21314402911478214
Pattern,0.0,0.0,0.0,0.0,0.0
Plugin$1,0.07643633333332407,0.0,0.005304999998770654,0.0,0.08174133333209473
ProblemMethodBinding,0.0,0.07590656547362158,0.0,0.010087441796336114,0.08599400726995769
ProjectContentTypes$ProjectContentTypeSelectionPolicy,0.0,0.08268886310701863,0.0,0.011471213692117715,0.09416007679913635
QualifiedNameReference,0.0,0.07592766666736375,0.0,0.009870000001683366,0.08579766666904712
Queue,0.0,0.019982941814472424,0.0,0.00032185203094384777,0.020304793845416273
RSASignature,0.05780033333332805,0.0,0.0059200000008180105,0.0,0.06372033333414606
ReferenceBinding,0.0,0.17138178333395138,0.0,0.022811749998921486,0.19419353333287287
ReferenceMap,0.0,0.0,0.0,0.0,0.0
RegistryObjectManager,0.04066966666667327,0.0,0.004939999998896383,0.0,0.045609666665569655
ResolverImpl,0.07873533333333663,0.0,0.0047450000007908475,0.0,0.08348033333412748
Resource,0.13424042365608918,0.0,0.006401916208259675,0.0,0.14064233986434885
ResourceBundle$CacheKey,0.0,0.04336791776970514,0.0,0.006236996802824038,0.04960491457252918
ResourceProxy,0.03820492961101935,0.0,0.0005831824392003267,0.0,0.038788112050219675
ResourcesCompatibilityHelper,0.0,0.04939766666696717,0.0,0.005145000000387275,0.054542666667354446
SAXParserImpl,0.07704666666666071,0.0,0.007885000003928628,0.0,0.08493166667058934
SHA,0.23069266666667923,0.0,0.019870000001295313,0.0,0.25056266666797455
Scanner,2.5521438835633248,5.057478925747806,0.133513643744554,0.7064613883522517,8.449597841407936
ScannerHelper,0.05706667647832778,0.0,0.005165225180101661,0.0,0.062231901658429435
Scope,0.1023966666666638,0.2846303881509057,0.0059200000008180105,0.0365402666666476,0.4294873214850351
Scribe,0.47579353333339014,0.0,0.028254461537961517,0.0,0.5040479948713517
SearchDocument,0.24423975304571577,0.0,0.02532782422475948,0.0,0.26956757727047526
SearchPattern,0.0487501666666598,0.0,0.003263333330930133,0.0,0.05201349999758993
SecuritySupport,0.08017966666667083,0.0,0.007859999997890554,0.0,0.08803966666456138
Signature,0.17610705158881987,0.09242207999806852,0.013340391281296781,0.014111999999731778,0.29598152286791696
SignatureFileVerifier,0.06290666666667258,0.0,0.010979999999108259,0.0,0.07388666666578084
SimpleLookupTable,0.7208186683115502,0.17514367129730335,0.0407292113625758,0.02233411771733744,0.9590256686887667
SimpleSet,0.0,0.10133866666728863,0.0,0.011530000000978664,0.1128686666682673
SimpleWordSet,2.477409862934149,0.511955251396568,0.20067920711449724,0.0670155168931137,3.257059838338328
SourceElementParser,0.06931533333333087,0.3490874991001471,0.004714999995485414,0.04673026616026285,0.46984809858922627
SourceIndexerRequestor,0.04389991840964296,0.0,0.0,0.0,0.04389991840964296
SourceTypeBinding,0.0,0.12906271999934688,0.0,0.017774400000926106,0.146837120000273
StandardVMType,0.08212611111109898,0.0,0.00545833333388954,0.0,0.08758444444498852
StateBuilder,0.08564114285713588,0.0,0.006617142858366215,0.0,0.0922582857155021
StateObjectFactoryImpl,0.07873533333333663,0.0,0.0047450000007908475,0.0,0.08348033333412748
String,0.83185498592259,0.521549259877561,0.0596384501084753,0.0760821708609724,1.4891248667695987
StringBuffer,0.17986716666668673,0.0,0.009882500000255985,0.0,0.1897496666669427
StringCoding$StringEncoder,0.07570366666667874,0.0,0.004700000000108654,0.0,0.0804036666667874
StringLiteral,0.04188003256020032,0.0,0.0017073679868112516,0.0,0.04358740054701157
SuperReference,0.0,0.2262925032371647,0.0,0.0311695590204445,0.2574620622576092
SuperTypeReferencePattern,0.056796113020003536,0.0,0.005196886846005217,0.0,0.06199299986600875
System,0.0,0.12533258911005354,0.0,0.016558698981477358,0.1418912880915309
ThrowStatement,0.0,0.07493142874753546,0.0,0.014310477423305096,0.08924190617084056
Throwable,0.5169019743589714,0.22397405756019995,0.03354923076907513,0.033009469700033316,0.8074347323882798
TimSort,0.0,0.11351644444167268,0.0,0.014542222221347469,0.12805866666302015
TransformerFactoryImpl,0.01706763636364237,0.0,0.0012872727273850505,0.0,0.01835490909102742
TransformerImpl,0.01706763636364237,0.0,0.0012872727273850505,0.0,0.01835490909102742
TransletOutputHandlerFactory,0.03709454545454112,0.0,0.0030109090924573443,0.0,0.040105454546998466
TypeBinding,0.0,0.09470983584335142,0.0,0.010947947765528487,0.10565778360887991
TypeConverter,0.0,0.08807346104205445,0.0,0.013251522929777559,0.10132498397183201
URLClassLoader,0.06805400000000834,0.0,0.0041600000016236045,0.0,0.07221400000163194
UTF_8$Decoder,0.33683598591833586,0.5098996017354374,0.023797027655135503,0.07652085585917046,0.9470534711680791
UTF_8$Encoder,0.13659700000003266,0.05478899999919425,0.008289999997941777,0.01133500000044781,0.21101099999761652
UnixFileSystem,1.4542045177480383,0.4840911967607078,0.13809611800167504,0.07556756695941169,2.151959399469833
Util,1.5174354544146702,1.4596655136665784,0.12014147932236878,0.20922356667897,3.3064660140825874
WeakHashMap,0.05397554166665704,0.0,0.006846874998397349,0.0,0.060822416665054384
X509Factory,0.062113333333343235,0.0,0.005929999999352732,0.0,0.06804333333269597
XML11Configuration,0.06756599999999935,0.0,0.007880000002235949,0.0,0.0754460000022353
ZipCoder,0.058166666666655445,0.06403647058779788,0.0027649999950275133,0.008442352941190119,0.13341049019067094
ZipFile,2.7206076792193046,0.9893758116147793,0.20870698842609603,0.1293550678056139,4.048045547065794
ZoneInfoFile,0.12239599999999955,0.0,0.008089999995718244,0.0,0.1304859999957178
