method,hits
AST.postAddChildEvent,2
ASTConverter.convert,2
ASTNode.<init>,2
ASTNode.getParent,2
AbstractCommentParser.commentParse,2
AbstractCommentParser.parseArguments,2
AbstractCommentParser.readChar,4
AbstractCommentParser.readTokenAndConsume,2
AbstractDOMParser.startDocument,6
AbstractDataTreeNode.getName,2
AbstractDataTreeNode.indexOfChild,8
AbstractMap.<init>,2
AbstractMethodDeclaration.compilationResult,2
AbstractStringBuilder.append,2
AbstractStringBuilder.newCapacity,2
AddJarFileToIndex.execute,2
AllocationExpression.resolveType,2
ArrayList.<init>,2
ArrayList.add,2
Arrays.binarySearch0,2
Arrays.copyOf,2
Arrays.copyOfRange,8
Arrays.sort,2
BaseData.getEntry0,2
Benchmark.prepare,2
BinaryIndexer.addTypeReference,6
BinaryIndexer.convertToArrayType,2
BinaryIndexer.extractArgCount,6
BinaryIndexer.extractName,2
BinaryIndexer.extractReferenceFromConstantPool,16
BinaryIndexer.indexDocument,2
BinaryIndexer.replace,4
BinaryTypeBinding.cachePartsFrom,2
BufferedInputStream.<init>,18
BufferedInputStream.read,8
BufferedReader.<init>,4
BufferedWriter.<init>,2
CharOperation.concat,2
CharOperation.concatWith,2
CharOperation.equals,56
CharOperation.hashCode,152
CharOperation.indexOf,6
CharOperation.isWhitespace,4
CharOperation.lastIndexOf,10
CharOperation.lastSegment,2
CharOperation.prefixEquals,2
CharOperation.replaceOnCopy,10
CharOperation.splitOn,4
CharOperation.subarray,2
CharacterDataLatin1.isWhitespace,2
Class.forName0,16
Class.getDeclaredConstructors0,2
ClassFile.getType,2
ClassFileReader.<init>,14
ClassFileReader.getConstantClassNameAt,4
ClassFileStruct.u2At,14
ClassFileStruct.u4At,2
ClassFileStruct.utf8At,46
ClassLoader$2.hasMoreElements,2
ClassLoader.defineClass1,32
ClassLoader.findLoadedClass0,2
ClassPool.compress,2
ClassPool.makeClass,2
ClassScope.detectHierarchyCycle,2
CodeFormatterVisitor.formatCascadingMessageSends,2
CodeFormatterVisitor.formatLocalDeclaration,2
CodeStream.invokeStringConcatenationAppendForType,2
ConcurrentHashMap.transfer,2
ConstPool.addItem0,2
Container.getFolder,2
CtClassType.getClassFile2,2
DataInputStream.readInt,2
DataInputStream.readUTF,6
DefaultBindingResolver.getTypeBinding,2
DefaultCodeFormatter.formatCompilationUnit,2
DefaultCommentMapper$CommentMapperVisitor.visitNode,2
DefaultCommentMapper.initialize,2
DefaultCommentMapper.storeLeadingComments,2
DefaultCommentMapper.storeTrailingComments,2
DeferredDocumentImpl.getNodeObject,4
DeltaDataTree.getData,2
DeltaProcessingState.getDeltaProcessor,2
DerInputBuffer.getBigInteger,2
DerInputStream.getUnalignedBitString,2
DerValue.toByteArray,2
DiskIndex$IntList.add,18
DiskIndex$IntList.asArray,4
DiskIndex.addQueryResults,24
DiskIndex.copyQueryResults,38
DiskIndex.mergeWith,6
DiskIndex.readStreamChars,22
DiskIndex.writeAllDocumentNames,10
DiskIndex.writeCategoryTable,24
DiskIndex.writeDocumentNumbers,2
DiskIndex.writeStreamChars,60
DiskIndex.writeStreamInt,2
DocumentBuilderFactoryImpl.newDocumentBuilder,2
DocumentBuilderImpl.<init>,2
EECompilationParticipant.isActive,2
EclipseAdaptorHook.frameworkStop,2
EclipseAppDescriptor.createAppHandle,2
EclipsePreferences.internalPut,2
EclipsePreferences.removeNode,2
ElementImpl.getAttributes,2
ElementTree.includes,2
Encodings.<clinit>,2
Engine.accept,2
ExtensionRegistry.addContribution,2
FieldInfo.getTypeName,2
File.<init>,2
FileInputStream.available0,4
FileInputStream.close0,8
FileInputStream.open0,12
FileInputStream.readBytes,12
FileOutputStream.<init>,2
FileOutputStream.close0,10
FileOutputStream.open0,20
FileOutputStream.write,4
FileOutputStream.writeBytes,86
Formatter$FormatSpecifier.<init>,1
FrameworkDebugOptions.getBooleanOption,2
Gregorian.newCalendarDate,4
GroupingChecker$PackageRoots.isConsistentClassSpace,2
HashMap.getNode,4
Hashtable.get,2
HashtableOfArrayToObject.put,2
HashtableOfObject.<init>,4
HashtableOfObject.get,92
HashtableOfObject.put,32
HashtableOfObject.rehash,10
HashtableOfObjectToInt.put,2
HashtableOfType.get,2
HeapByteBuffer.<init>,4
Index.addIndexEntry,6
IndexBasedHierarchyBuilder.determinePossibleSubTypes,2
IndexManager.indexAll,2
IndexManager.indexLibrary,2
IndexManager.saveIndex,6
Inflater.inflate,2
Inflater.inflateBytes,194
Inflater.needsDictionary,2
Inflater.needsInput,2
Initializer.<clinit>,2
JarFile.initializeVerifier,2
JavaCore.start,2
JavaElement.equals,2
JavaModelCache.getInfo,2
JavaModelManager.getPerProjectInfo,2
JavaProject.decodeClasspath,2
JavaProject.getPackageFragmentRoot,2
JavaSearchScope.<clinit>,2
JavadocParser.createTypeReference,2
JobManager.moveToNextJob,2
JobManager.nextJob,2
KeyedHashSet$EquinoxSetIterator.next,2
LaunchManager.serializeDocument,2
LaunchingPlugin.handleDebugEvents,2
LaunchingPlugin.start,2
LocalFile.openInputStream,4
Locale.getDefault,2
LookupEnvironment.buildTypeBindings,2
LookupEnvironment.createBinaryTypeFrom,2
LookupEnvironment.newMethodVerifier,2
ManifestDigester.findSection,2
MatchLocator.<init>,2
MatchLocator.newMethodReferenceMatch,2
MatchLocatorParser.consumeMethodInvocationName,2
MemberDeclarationVisitor.matchNode,2
MemoryIndex.addIndexEntry,20
MethodInfo.createMethod,2
MethodInfo.readExceptionAttributes,4
MethodLocator.initializePolymorphicSearch,2
Object.<init>,2
Object.hashCode,8
PackageBinding.findPackage,2
ParseUtil.encodePath,2
Parser.checkAndSetModifiers,2
Parser.consumeBlockStatements,2
Parser.consumeConstructorHeader,2
Parser.consumeEqualityExpression,2
Parser.consumeFormalParameterListopt,2
Parser.consumeInsideCastExpressionLL1,2
Parser.consumeMethodHeaderName,4
Parser.consumeMethodInvocationName,2
Parser.consumeRule,36
Parser.consumeSingleTypeImportDeclarationName,2
Parser.consumeToken,4
Parser.getUnspecifiedReferenceOptimized,4
Parser.initTables,4
Parser.ntAction,4
Parser.parse,24
Parser.pushOnExpressionStack,2
Parser.pushOnExpressionStackLengthStack,2
Parser.pushOnGenericsIdentifiersLengthStack,2
Parser.tAction,26
Path.append,2
Path.computeHashCode,2
Path.computeSegments,2
Path.equals,2
PatternSearchJob.execute,2
Plugin$2.run,2
PreferenceForwarder.getPluginPreferences,2
Properties.load0,2
RSASignature.initCommon,2
RandomAccessFile.<init>,2
ReferenceBinding.compare,2
ReferenceBinding.getMemberType,2
ResolverImpl.initialize,2
ResourceInfo.getLocalSyncInfo,2
SHA.<init>,2
SHA.implCompress,4
Scanner.getCurrentIdentifierSource,2
Scanner.getCurrentTokenSourceString,2
Scanner.getNextChar,12
Scanner.getNextToken,62
Scanner.internalScanIdentifierOrKeyword,16
Scanner.jumpOverMethodBody,12
Scanner.optimizedCurrentTokenSource4,4
Scanner.optimizedCurrentTokenSource6,2
Scanner.pushLineSeparator,34
Scanner.scanIdentifierOrKeyword,6
ScannerHelper.isWhitespace,4
Scope.<init>,2
Scope.findExactMethod,2
Scope.getTypeOrPackage,2
Scope.outerMostMethodScope,2
Scribe.getRootEdit,2
Scribe.isValidEdit,4
Scribe.print,4
SearchDocument.addIndexEntry,2
SearchableEnvironment.find,2
SecuritySupport.getFileExists,2
SerializerBase.<init>,2
Signature.getInstance,2
SimpleLookupTable.get,2
SimpleLookupTable.put,12
SimpleSet.includes,6
SimpleWordSet.add,58
SimpleWordSet.rehash,12
SourceElementParser.<init>,2
SourceElementParser.getTypeReference,4
SourceType.getField,2
SourceTypeBinding.isEquivalentTo,2
SourceTypeBinding.isGenericType,2
StatsManager.setDebugOptions,2
String.<init>,6
String.charAt,4
String.compareTo,2
String.concat,2
String.equals,2
String.hashCode,10
String.indexOf,4
String.length,2
String.regionMatches,2
String.substring,6
String.toCharArray,2
String.valueOf,2
StringBuffer.append,4
StringBuffer.toString,2
StringCoding$StringEncoder.encode,2
SuperTypeReferencePattern.createIndexKey,2
SyntheticArgumentBinding.<init>,2
ThisReference.implicitThis,2
ThreadCallsiteInjector.transform,2
ThreadLocal.get,2
Throwable.fillInStackTrace,18
TimSort.<init>,2
Tokenizer.getString,2
TransformerFactoryImpl.newTransformer,2
TransletOutputHandlerFactory.getSerializationHandler,6
TreeMap.navigableKeySet,2
TypeConverter.decodeType,4
TypeReference.<init>,2
URI.match,4
URLClassPath$JarLoader$2.getInputStream,2
UTF_8$Decoder.decodeArrayLoop,20
UTF_8$Encoder.encode,4
UnixFileSystem.checkAccess,2
UnixFileSystem.createDirectory,4
UnixFileSystem.delete0,30
UnixFileSystem.getBooleanAttributes0,12
UnixFileSystem.getLength,4
UnixFileSystem.list,6
UnixFileSystem.prefixLength,2
Util.equalArraysOrNull,2
Util.getInputStreamAsCharArray,2
Util.getLineNumber,4
Util.getZipEntryByteContent,8
Util.isExcluded,2
Util.quickSort,48
Util.splitOn,2
ValidationManager.setEntityState,2
Version.equals,2
WeakHashSet.add,2
WorkspaceRoot.getProject,2
X509CertInfo.parse,2
X509Factory.engineGenerateCertificate,2
XML11Configuration.setProperty,2
XMLDTDValidator.startDocument,2
XMLDocumentFragmentScannerImpl.scanAttribute,2
XMLSecurityManager.<clinit>,2
XMLString.setValues,2
ZipBundleFile.getZipEntry,2
ZipFile$ZipEntryIterator.hasNext,2
ZipFile$ZipFileInputStream.read,2
ZipFile.close,4
ZipFile.freeEntry,10
ZipFile.getEntry,12
ZipFile.getEntryFlag,2
ZipFile.getNextEntry,12
ZipFile.getZipEntry,2
ZipFile.open,2
ZipFile.read,38
