method,package1,package2,dram1,dram2,energy
ASTConverter.convert|ASTConverter.convert|ASTConverter.buildBodyDeclarations,0.09239377778161452,0.0,0.009982222221205357,0.0,0.10237600000281988
ASTConverter.convert|ASTConverter.convert|ASTConverter.convert,0.182129000032243,0.0,0.016125000001920853,0.0,0.19825400003416385
ASTConverter.convert|ASTConverter.convert|ASTConverter.convertToVariableDeclarationFragment,0.0609333333268296,0.0,0.005740000002939874,0.0,0.06667333332976948
ASTConverter.convert|CompilationUnitResolver.resolve|CompilationUnitResolver.resolve,0.04547133334563114,0.0,0.0033299999995506373,0.0,0.048801333345181774
ASTNode$NodeList.updateCursors|ASTNode$NodeList.add|AbstractList.add,0.07369422221866746,0.0,0.005582222221332981,0.0,0.07927644444000044
ASTNode.<init>|Statement.<init>|Expression.<init>,0.08529396823769997,0.0,0.004509523811672503,0.0,0.08980349204937248
ASTNode.checkNewChild|ASTNode$NodeList.add|AbstractList.add,0.09239377778161452,0.0,0.009982222221205357,0.0,0.10237600000281988
AbstractCommentParser.commentParse|JavadocParser.checkDeprecation|SourceElementParser.checkComment,0.12990075717612704,0.31890172221917756,0.010653565628705064,0.04607310606198469,0.5055291510859944
AbstractCommentParser.consumeToken|AbstractCommentParser.parseQualifiedName|AbstractCommentParser.parseReference,0.0,0.08079033333342522,0.0,0.009559999998600688,0.09035033333202591
AbstractCommentParser.getLineNumber|AbstractCommentParser.commentParse|JavadocParser.checkDeprecation,0.0,0.07629366666757656,0.0,0.012299999999716722,0.08859366666729328
AbstractCommentParser.parseReference|JavadocParser.parseTag|AbstractCommentParser.commentParse,0.0,0.045807000002241686,0.0,0.007695000000239814,0.0535020000024815
AbstractCommentParser.readChar|JavadocParser.parseTag|AbstractCommentParser.commentParse,0.0729146458964011,0.0,0.008012421891792437,0.0,0.08092706778819354
AbstractCommentParser.readTokenSafely|AbstractCommentParser.parseReference|JavadocParser.parseTag,0.0,0.047641388888829767,0.0,0.007979166665690072,0.055620555554519835
AbstractCommentParser.readToken|AbstractCommentParser.readTokenSafely|AbstractCommentParser.parseQualifiedName,0.0,0.06972266666707583,0.0,0.010884999998476513,0.08060766666555234
AbstractDataTreeNode.assembleWith|AbstractDataTreeNode.assembleWith|AbstractDataTreeNode.assembleWith,0.0,0.0675689132601873,0.0,0.009612313209518157,0.07718122646970546
AbstractDataTreeNode.assembleWith|AbstractDataTreeNode.assembleWith|DeltaDataTree.forwardDeltaWith,0.0,0.0,0.0,0.0,0.0
AbstractDataTreeNode.indexOfChild|AbstractDataTreeNode.childAtOrNull|DeltaDataTree.getChildNodes,0.0,0.0,0.0,0.0,0.0
AbstractDataTreeNode.indexOfChild|AbstractDataTreeNode.childAtOrNull|DeltaDataTree.lookup,0.08979412555474624,0.1188763333314758,0.008635585368547909,0.015740000000126503,0.23304604425489647
AbstractIndexer.addConstructorReference|BinaryIndexer.extractReferenceFromConstantPool|BinaryIndexer.indexDocument,0.0,0.05208543117874277,0.0,0.007932353172704966,0.06001778435144774
AbstractIndexer.addIndexEntry|AbstractIndexer.addMethodDeclaration|BinaryIndexer.indexDocument,0.0609343269152403,0.0,0.006271824170282239,0.0,0.06720615108552254
AbstractIndexer.addIndexEntry|AbstractIndexer.addNameReference|AbstractIndexer.addTypeReference,0.0,0.08689408401740739,0.0,0.013221559019258335,0.10011564303666573
AbstractIndexer.addMethodDeclaration|BinaryIndexer.indexDocument|JavaSearchParticipant.indexDocument,0.0535897903615909,0.0,0.004448550752798807,0.0,0.058038341114389706
AbstractStringBuilder.<init>|StringBuilder.<init>|ClassClassPath.find,0.047043923080379434,0.0,0.00328500000054751,0.0,0.05032892308092694
AbstractStringBuilder.getChars|StringBuffer.getChars|Signature.createCharArrayTypeSignature,0.1759280370153849,0.0,0.01680833333052255,0.0,0.19273637034590746
AccessController.doPrivileged|SecuritySupport.getSystemProperty|XMLSecurityManager.getSystemProperty,0.0,0.03118900000013777,0.0,0.004079999999833359,0.03526899999997113
AddJarFileToIndex.execute|JobManager.run|Thread.run,0.0,0.2410493673230288,0.0,0.039434373558483185,0.280483740881512
Alignment.<init>|Scribe.createAlignment|Scribe.createAlignment,0.13148999999005656,0.0,0.011470000002494391,0.0,0.14295999999255096
AnnotationInfo.readTargetValue|AnnotationInfo.scanAnnotation|AnnotationInfo.<init>,0.0,0.0,0.0,0.0,0.0
ArrayList.toArray|Signature.getTypeParameters|BinaryIndexer.indexDocument,0.06677233331720345,0.0,0.0053400000009181285,0.0,0.07211233331812157
Arrays.copyOfRange|String.<init>|String.substring,0.1586492662513515,0.0,0.014327011552178207,0.0,0.1729762778035297
Arrays.copyOf|AbstractStringBuilder.ensureCapacityInternal|AbstractStringBuilder.append,0.1261800000211224,0.0,0.00983999999880325,0.0,0.13602000001992565
Arrays.copyOf|Resource.getBytes|URLClassLoader.defineClass,0.0,0.04854944789666474,0.0,0.008113035094455583,0.056662482991120325
Arrays.copyOf|ZipCoder.getBytes|ZipFile.getInputStream,0.05325299999822164,0.0,0.004005000000688597,0.0,0.057257999998910236
AttributeInfo.read|MethodInfo.read|MethodInfo.<init>,0.0,0.03962950086902252,0.0,0.0068479172344798325,0.04647741810350235
Attributes.putValue|Attributes.read|Manifest.read,0.0,0.0,0.0,0.0,0.0
BaseExtensionHandle.getExtensionPointUniqueIdentifier|TableWriter.saveExtensionData|TableWriter.saveExtension,0.0,0.0,0.0,0.0,0.0
BasicSearchEngine.createJavaSearchScope|SearchEngine.createJavaSearchScope|FullSourceWorkspaceCompleteSearchTests.search,0.0,0.020365416666512218,0.0,0.002410000000357589,0.022775416666869806
Benchmark.initialize|Benchmark.<init>|Eclipse.<init>,0.0,0.12624881071466218,0.0,0.020908265100875505,0.1471570758155377
BigInteger.oddModPow|BigInteger.modPow|RSACore.crypt,0.0,0.04014157960523965,0.0,0.006522744440197623,0.04666432404543727
BinaryExpression.optimizedBooleanConstant|BinaryExpression.computeConstant|BinaryExpression.resolveType,0.04700369573682543,0.0,0.004766582923098782,0.0,0.051770278659924215
BinaryIndexer.addTypeReference|AbstractIndexer.addFieldDeclaration|BinaryIndexer.indexDocument,0.04498693334559599,0.0,0.00629600000102073,0.0,0.05128293334661672
BinaryIndexer.addTypeReference|AbstractIndexer.addMethodDeclaration|BinaryIndexer.indexDocument,0.05415866667559991,0.0,0.004939999998896383,0.0,0.05909866667449629
BinaryIndexer.convertToArrayType|BinaryIndexer.decodeFieldType|BinaryIndexer.indexDocument,0.0748700000209889,0.0,0.0063100000043050395,0.0,0.08118000002529394
BinaryIndexer.decodeParameterTypes|BinaryIndexer.indexDocument|JavaSearchParticipant.indexDocument,0.0,0.20045693861021324,0.0,0.03060786736316229,0.23106480597337553
BinaryIndexer.extractArgCount|BinaryIndexer.extractReferenceFromConstantPool|BinaryIndexer.indexDocument,0.3052545479702984,0.14480834813877097,0.02423995330502856,0.02606062058063005,0.5003634699947279
BinaryIndexer.extractClassName|BinaryIndexer.extractReferenceFromConstantPool|BinaryIndexer.indexDocument,0.13272711644365076,0.0,0.013885806191406683,0.0,0.14661292263505743
BinaryIndexer.extractClassReference|BinaryIndexer.extractReferenceFromConstantPool|BinaryIndexer.indexDocument,0.0,0.06387951664053647,0.0,0.012057550925454895,0.07593706756599136
BinaryIndexer.extractName|BinaryIndexer.extractReferenceFromConstantPool|BinaryIndexer.indexDocument,0.0,0.06295125823261723,0.0,0.010903739234760543,0.07385499746737777
BinaryIndexer.extractReferenceFromConstantPool|BinaryIndexer.indexDocument|JavaSearchParticipant.indexDocument,0.16667700002896405,0.09009526255977947,0.01309499999994538,0.013874488309088636,0.2837417508977776
BinaryIndexer.extractType|BinaryIndexer.extractReferenceFromConstantPool|BinaryIndexer.indexDocument,0.09812424998987504,0.0,0.009467500000634269,0.0,0.10759174999050931
BinaryIndexer.indexDocument|JavaSearchParticipant.indexDocument|IndexManager.indexDocument,0.06020099999538313,0.14781462037906767,0.007470000001679485,0.02252333161614451,0.23800895199227481
BinaryIndexer.replace|BinaryIndexer.addPairValue|BinaryIndexer.addBinaryAnnotation,0.0703125925976093,0.0,0.007000000000482908,0.0,0.07731259259809221
BinaryIndexer.replace|BinaryIndexer.decodeParameterTypes|BinaryIndexer.indexDocument,0.06400533332877481,0.04267940740532207,0.006700000000516107,0.006062222222142197,0.11944696295675519
BinaryTypeBinding.<init>|LookupEnvironment.createBinaryTypeFrom|LookupEnvironment.createBinaryTypeFrom,0.05368441097386198,0.0,0.006274480917170441,0.0,0.05995889189103242
BinaryTypeBinding.createMethod|BinaryTypeBinding.createMethods|BinaryTypeBinding.cachePartsFrom,0.0,0.09960183333320552,0.0,0.013238749997678193,0.11284058333088372
Binding.computeUniqueKey|SourceMethod.resolved|MatchLocator.newMethodReferenceMatch,0.08331345494262353,0.0,0.007853793234135624,0.0,0.09116724817675916
BufferedInputStream.<init>|BufferedInputStream.<init>|ClassPool.makeClass,0.0,0.0,0.0,0.0,0.0
BufferedInputStream.<init>|BufferedInputStream.<init>|Util.getZipEntryByteContent,0.5553424313808119,0.12841662912638654,0.044221218384720144,0.026296505864995198,0.7542767847569137
BufferedInputStream.read|DataInputStream.readFully|DataInputStream.readFully,0.0,0.0526559381082865,0.0,0.008683976706238956,0.061339914814525456
BufferedInputStream.read|DataInputStream.readFully|DataInputStream.readUTF,0.0,0.05832464231617596,0.0,0.009537691981566128,0.06786233429774209
BufferedInputStream.read|DataInputStream.readUnsignedShort|DataInputStream.readUTF,0.0,0.0629901600955911,0.0,0.010664335821737935,0.07365449591732903
BufferedInputStream.read|DataInputStream.readUnsignedShort|FieldInfo.read,0.0,0.06651592291614705,0.0,0.01143286433339509,0.07794878724954214
BufferedInputStream.read|DataInputStream.readUnsignedShort|MethodInfo.read,0.0,0.07220907469651314,0.0,0.01197186372242463,0.08418093841893777
BufferedReader.<init>|BufferedReader.<init>|Util.getInputStreamAsCharArray,0.06851133892055103,0.0,0.004524166324978861,0.0,0.07303550524552989
BufferedReader.read|Util.getInputStreamAsCharArray|Util.getResourceContentsAsCharArray,0.06313322928188339,0.0,0.004999693305120908,0.0,0.0681329225870043
BufferedWriter.<init>|BufferedWriter.<init>|EclipseLog.logForStream,0.05644148148389325,0.0,0.0037333333338783288,0.0,0.06017481481777157
ByteVectorFactory.create|MethodAccessorGenerator.generate|MethodAccessorGenerator.generateConstructor,0.0,0.0629901600955911,0.0,0.010664335821737935,0.07365449591732903
CertificateExtensions.<init>|X509CertInfo.parse|X509CertInfo.<init>,0.0,0.044567891131402235,0.0,0.007831246784539557,0.05239913791594179
Chaperone.retire|Chaperone.dismiss|Chaperone.main,0.0,0.022579420398414454,0.0,0.0021297149557553295,0.024709135354169784
CharInfo.<init>|CharInfo.getCharInfoInternal|ToXMLStream.<clinit>,0.0,0.08451333333262785,0.0,0.013450000000981769,0.09796333333360963
CharOperation.concat|ArrayTypeReference.getParameterizedTypeName|SourceElementNotifier.getArguments,0.06336937708351012,0.0,0.005157288699277736,0.0,0.06852666578278785
CharOperation.concat|MethodPattern.createIndexKey|AbstractIndexer.addMethodReference,0.2731323893160276,0.0,0.020597924451114472,0.0,0.2937303137671421
CharOperation.equals|BinaryIndexer.extractReferenceFromConstantPool|BinaryIndexer.indexDocument,0.19787383197836927,0.0,0.017618821856802573,0.0,0.21549265383517185
CharOperation.equals|HashtableOfObject.get|DiskIndex.copyQueryResults,0.05057740347244178,0.07613099999919844,0.004317162428567057,0.012609999997948762,0.14363556589815604
CharOperation.equals|Scope.getTypeOrPackage|Scope.getType,0.07863829716449923,0.0,0.007813169656150143,0.0,0.08645146682064937
CharOperation.equals|SimpleWordSet.add|MemoryIndex.addIndexEntry,0.9040691335342215,0.7861037277899573,0.0788167714563344,0.11532345647830973,1.8843130892588227
CharOperation.hashCode|HashtableOfObject.get|DiskIndex.copyQueryResults,0.4137481232544442,0.5475671666687656,0.03379024769871135,0.09418625000519872,1.0892917876271198
CharOperation.hashCode|HashtableOfObject.put|DiskIndex.copyQueryResults,0.048024669070900965,0.13948566666658735,0.003165240523478013,0.022840000000239037,0.21351557626120538
CharOperation.hashCode|HashtableOfObject.put|HashtableOfObject.rehash,0.259346287179505,0.33124213333048824,0.024600668434237263,0.06353375000441398,0.6787228389486444
CharOperation.hashCode|HashtableOfObject.put|MemoryIndex.addIndexEntry,0.0,0.06519373178736369,0.0,0.010541083907004709,0.07573481569436841
CharOperation.hashCode|SimpleWordSet.add|MemoryIndex.addIndexEntry,0.23402900000413257,0.37145637407213344,0.01922499999879316,0.051970555555319015,0.6766809296303782
CharOperation.hashCode|SimpleWordSet.add|SimpleWordSet.rehash,0.7886171048011552,0.27943162367847646,0.07980769805369739,0.046924449526125386,1.1947808760594545
CharOperation.indexOf|BinaryIndexer.decodeParameterTypes|BinaryIndexer.indexDocument,0.05247116370959305,0.0,0.003986971432912907,0.0,0.05645813514250596
CharOperation.lastIndexOf|BinaryIndexer.decodeParameterTypes|BinaryIndexer.indexDocument,0.09143066667214346,0.0,0.0071600000010221265,0.0,0.09859066667316559
CharOperation.lastIndexOf|BinaryIndexer.extractArgCount|BinaryIndexer.extractReferenceFromConstantPool,0.04927566666932155,0.0,0.0035600000022289646,0.0,0.05283566667155052
CharOperation.lastIndexOf|CharOperation.lastSegment|AbstractIndexer.addTypeReference,0.054016333345013365,0.0,0.00413999999727821,0.0,0.058156333342291575
CharOperation.lastIndexOf|CharOperation.lastSegment|SuperTypeReferencePattern.createIndexKey,0.06146233332886671,0.0,0.004180000003543682,0.0,0.0656423333324104
CharOperation.lastSegment|AbstractIndexer.addTypeReference|BinaryIndexer.addTypeReference,0.0,0.08516433333231058,0.0,0.012299999999716722,0.0974643333320273
CharOperation.lastSegment|AbstractIndexer.addTypeReference|SourceIndexerRequestor.acceptTypeReference,0.07807766615642119,0.0,0.0052226399448869676,0.0,0.08330030610130815
CharOperation.replaceOnCopy|BinaryIndexer.addTypeReference|AbstractIndexer.addFieldDeclaration,0.0,0.09761566666566067,0.0,0.015040000003258076,0.11265566666891874
CharOperation.replaceOnCopy|BinaryIndexer.addTypeReference|AbstractIndexer.addMethodDeclaration,0.2033548357995435,0.0,0.014716789053787406,0.0,0.2180716248533309
CharOperation.replaceOnCopy|BinaryIndexer.addTypeReference|BinaryIndexer.extractReferenceFromConstantPool,0.0,0.06859037848592572,0.0,0.015846472567110283,0.084436851053036
CharOperation.splitOn|BinaryIndexer.extractReferenceFromConstantPool|BinaryIndexer.indexDocument,0.056870193156266284,0.0,0.007710077569728767,0.0,0.06458027072599505
Class.forName0|Class.forName|AbstractCharsetProvider.lookup,0.0,0.0735269999980422,0.0,0.009545000000798607,0.08307199999884081
Class.forName0|Class.forName|OIDMap$OIDInfo.getClazz,0.0,0.039364726168309286,0.0,0.006095882122796806,0.04546060829110609
ClassFileReader.<init>|ClassFileReader.<init>|BinaryIndexer.indexDocument,0.15807215148013792,0.20752646040000644,0.01232473205130475,0.03299311343507024,0.4109164573665193
ClassFileReader.decodeAnnotations|ClassFileReader.<init>|ClassFileReader.<init>,0.055412049265138166,0.0,0.003939581824256992,0.0,0.05935163108939516
ClassFileReader.getConstantClassNameAt|ClassFileReader.<init>|ClassFileReader.<init>,0.0,0.06250377057587951,0.0,0.011051128287677679,0.07355489886355719
ClassFileStruct.u2At|BinaryIndexer.extractClassName|BinaryIndexer.extractReferenceFromConstantPool,0.17114268888275275,0.04615055446005814,0.0146214444441419,0.006937136602661379,0.23885182438961416
ClassFileStruct.u2At|BinaryIndexer.extractType|BinaryIndexer.extractReferenceFromConstantPool,0.10811298127126692,0.05208543117874277,0.011612357228663727,0.007932353172704966,0.1797431228513784
ClassFileStruct.u2At|ClassFileReader.<init>|ClassFileReader.<init>,0.054028624991284836,0.28892144960689947,0.004129999999652985,0.045809250738790955,0.39288932533662824
ClassFileStruct.u2At|MethodInfo.createMethod|ClassFileReader.<init>,0.049532110479121184,0.0,0.0066376232741946544,0.0,0.05616973375331584
ClassFileStruct.u2At|MethodInfo.decodeCodeAttribute|MethodInfo.readCodeAttribute,0.07809695831504844,0.0,0.004681250001643396,0.0,0.08277820831669183
ClassFileStruct.u2At|MethodInfo.decodeLocalVariableAttribute|MethodInfo.decodeCodeAttribute,0.08099366666283457,0.0,0.005965000001500204,0.0,0.08695866666433477
ClassFileStruct.u2At|MethodInfo.readExceptionAttributes|MethodInfo.getExceptionTypeNames,0.06020099999538313,0.0,0.007470000001679485,0.0,0.06767099999706261
ClassFileStruct.u4At|MethodInfo.decodeCodeAttribute|MethodInfo.readCodeAttribute,0.05662385033806035,0.0,0.008644200980451664,0.0,0.06526805131851202
ClassFileStruct.utf8At|BinaryIndexer.extractClassName|BinaryIndexer.extractReferenceFromConstantPool,0.0,0.049883641850727946,0.0,0.008660546383752481,0.058544188234480425
ClassFileStruct.utf8At|BinaryIndexer.extractClassReference|BinaryIndexer.extractReferenceFromConstantPool,0.1301289936411169,0.20932909556357449,0.009671627117713934,0.03340858961561334,0.38253830593801863
ClassFileStruct.utf8At|BinaryIndexer.extractName|BinaryIndexer.extractReferenceFromConstantPool,0.144749463584397,0.07439786666654982,0.013561869430249748,0.011456000001635405,0.24416519968283198
ClassFileStruct.utf8At|BinaryIndexer.extractType|BinaryIndexer.extractReferenceFromConstantPool,0.19917179315972605,0.38077571657414977,0.02179307756818013,0.06101269847251841,0.6627532857745744
ClassFileStruct.utf8At|ClassFileReader.getConstantClassNameAt|ClassFileReader.<init>,0.05102533334866166,0.07620485104129217,0.0041700000025836435,0.013765794402488736,0.14516597879502618
ClassFileStruct.utf8At|FieldInfo.getName|BinaryIndexer.indexDocument,0.0,0.06143714370751153,0.0,0.008714013233322295,0.07015115694083382
ClassFileStruct.utf8At|MethodInfo.createMethod|ClassFileReader.<init>,0.14863079164448817,0.0,0.010912499998084968,0.0,0.15954329164257314
ClassFileStruct.utf8At|MethodInfo.getMethodDescriptor|BinaryIndexer.indexDocument,0.10889415589265333,0.029553475257936206,0.01106457984872916,0.004851561072251782,0.15436377207157048
ClassFileStruct.utf8At|MethodInfo.getSelector|MethodInfo.isConstructor,0.0597969166689533,0.06586851445694969,0.004672499998681208,0.01420845615850589,0.1445463872830901
ClassFileStruct.utf8At|MethodInfo.readExceptionAttributes|MethodInfo.getExceptionTypeNames,0.06368748922082715,0.08688002840564524,0.0051495798471785075,0.012889861533515613,0.16860695900716652
ClassLoader.defineClass1|ClassLoader.defineClass|DefaultClassLoader.defineClass,0.05330400000481556,0.41368100814466136,0.006288000002192954,0.0583875106480442,0.531660518799714
ClassLoader.defineClass1|ClassLoader.defineClass|SecureClassLoader.defineClass,0.0,0.28525129322859255,0.0,0.04738880981145679,0.3326401030400493
ClassLoader.findBootstrapClass|ClassLoader.findBootstrapClassOrNull|ClassLoader.loadClass,0.0,0.1014450148056541,0.0,0.016736946998128978,0.11818196180378307
ClassPool.compress|ClassPool.makeClass|ClassPool.makeClass,0.09051499999865578,0.0,0.008280000004257696,0.0,0.09879500000291348
ClassPool.get0|ClassPool.get|CtClassType.getSuperclass,0.0,0.07235901068304162,0.0,0.011901903030360093,0.08426091371340172
ClassScope.buildFieldsAndMethods|CompilationUnitScope.buildFieldsAndMethods|LookupEnvironment.completeTypeBindings,0.07982104146701856,0.0,0.009264190740991005,0.0,0.08908523220800957
ClasspathJar.findPackageSet|ClasspathJar.isPackage|ClasspathJar.findClass,0.0,0.06272366666720093,0.0,0.007855000001048513,0.07057866666824944
ClasspathJar.lastModified|ClasspathJar.findPackageSet|ClasspathJar.isPackage,0.07805694464404096,0.0,0.007357647074785795,0.0,0.08541459171882676
ClasspathLocation.forLibrary|NameEnvironment.computeClasspathLocations|NameEnvironment.<init>,0.0,0.010665833332798986,0.0,0.0017087499994280124,0.012374583332226997
CodeFormatterVisitor.<init>|DefaultCodeFormatter.formatCompilationUnit|DefaultCodeFormatter.format,0.1168492307814841,0.0,0.007707692306632031,0.0,0.12455692308811613
CodeFormatterVisitor.dumpBinaryExpression|CodeFormatterVisitor.visit|OR_OR_Expression.traverse,0.06774900000891647,0.0,0.004720000002028732,0.0,0.0724690000109452
CodeFormatterVisitor.formatTypeMembers|CodeFormatterVisitor.format|CodeFormatterVisitor.visit,0.06899688888289447,0.0,0.0048466666679208474,0.0,0.07384355555081532
CodeFormatterVisitor.visit|CompoundAssignment.traverse|CodeFormatterVisitor.formatStatements,0.05365000000650373,0.0,0.002959999997983686,0.0,0.05661000000448742
CodeStream.checkcast|CastExpression.generateCode|LocalDeclaration.generateCode,0.07236733333168861,0.0,0.004740000001523488,0.0,0.0771073333332121
CommentRecorderParser.pushOnCommentsStack|CommentRecorderParser.flushCommentsDefinedPriorTo|Parser.consumeFieldDeclaration,0.07409272726914479,0.0,0.00468636363538363,0.0,0.07877909090452842
CompletionEngine.<init>|Openable.codeComplete|CompilationUnit.codeComplete,0.0581272956631775,0.0,0.0067151064075296595,0.0,0.06484240207070716
CompletionEngine.acceptTypes|CompletionEngine.findTypesAndPackages|CompletionEngine.completionOnSingleNameReference,0.033758333343679885,0.0,0.002835714285971508,0.0,0.03659404762965139
CompletionParser.createJavadocParser|Parser.<init>|AssistParser.<init>,0.0790052819777181,0.0,0.008579755543823186,0.0,0.08758503752154129
CompletionParser.recoveryTokenCheck|Parser.parse|Parser.parse,0.07951446152471292,0.0,0.009392307692905888,0.0,0.08890676921761881
CompletionScanner.getNextToken|Parser.parse|Parser.parse,0.1249593333438194,0.0,0.013645000001512624,0.0,0.138604333345332
ConstPool.addItem0|ConstPool.readOne|ConstPool.read,0.0,0.05212822765060282,0.0,0.007693481091176505,0.05982170874177933
ConstantPool.<init>|ClassFile.<init>|ClassFilePool.acquire,0.07275366666726768,0.0,0.005130000000159877,0.0,0.07788366666742756
ConstructorPattern.createDeclarationIndexKey|AbstractIndexer.addConstructorDeclaration|SourceIndexerRequestor.enterConstructor,0.0,0.06479900000219155,0.0,0.010935000000851385,0.07573400000304294
Container.findMember|JavaProject.computeExpandedClasspath|JavaProject.getExpandedClasspath,0.0,0.020395916667136284,0.0,0.002813750000617195,0.023209666667753478
ContentType.basicGetDefaultProperty|ContentType.internalGetDefaultProperty|ContentType.internalGetDefaultProperty,0.029064176840603487,0.0,0.00227025673817168,0.0,0.03133443357877517
CtClassType.getInterfaces|ThreadCoreMapInjector.isRunnable|ThreadCoreMapInjector.transform,0.0,0.048670142450167986,0.0,0.008523268046685442,0.05719341049685343
DataInputStream.readUnsignedShort|CodeAttribute.<init>|AttributeInfo.read,0.0,0.051033536924215264,0.0,0.008800926949591083,0.05983446387380635
DataInputStream.readUnsignedShort|DataInputStream.readUTF|DataInputStream.readUTF,0.0,0.06651592291614705,0.0,0.01143286433339509,0.07794878724954214
DataTreeLookup.newLookup|DeltaDataTree.lookup|ElementTree.includes,0.0,0.16880266666703392,0.0,0.02097999999872021,0.18978266666575414
DefaultCodeFormatter.formatCompilationUnit|DefaultCodeFormatter.format|DefaultCodeFormatter.format,0.06452799998581983,0.0,0.007310769234139186,0.0,0.07183876921995902
DefaultCodeFormatterConstants.getEclipseDefaultSettings|JavaCorePreferenceInitializer.initializeDefaultPreferences|PreferenceServiceRegistryHelper.runInitializer,0.0,0.03095708554033699,0.0,0.004431860425076072,0.03538894596541306
DefaultCommentMapper.initialize|CompilationUnit.initCommentMapper|ASTConverter.convert,0.14648399998744324,0.0,0.011799999997795869,0.0,0.15828399998523912
DefaultCommentMapper.storeLeadingComments|DefaultCommentMapper$CommentMapperVisitor.visitNode|DefaultASTVisitor.visit,0.06059400799502046,0.0,0.005361170050302028,0.0,0.06595517804532249
DeltaDataTree.getParent|DeltaDataTree.hasAncestor|DeltaDataTree.compareWith,0.0,0.0736324337880717,0.0,0.011178876905921618,0.08481131069399332
DeltaDataTree.lookup|ElementTree.includes|Workspace.getResourceInfo,0.15825022437057273,0.0,0.01483337208898873,0.0,0.17308359645956145
DerInputBuffer.getBigInteger|DerInputStream.getBigInteger|PKCS7.parseSignedData,0.0,0.045966997571546285,0.0,0.008057715034712802,0.05402471260625909
DerInputBuffer.getTime|DerInputBuffer.getUTCTime|DerInputStream.getUTCTime,0.0,0.025988922623903114,0.0,0.0044673476889539225,0.030456270312857036
DerValue.toByteArray|ContentInfo.<init>|PKCS7.parse,0.0,0.045966997571546285,0.0,0.008057715034712802,0.05402471260625909
DisabledAlgorithmConstraints.<init>|SignatureFileVerifier.<clinit>|JarFile.initializeVerifier,0.0,0.03870312754781216,0.0,0.005943010496255792,0.04464613804406795
DiskIndex$IntList.add|DiskIndex.copyQueryResults|DiskIndex.mergeWith,0.24875629156301704,0.49765583333889174,0.01914587731753227,0.08401874999981374,0.8495767522192548
DiskIndex$IntList.asArray|DiskIndex.writeCategoryTable|DiskIndex.writeCategories,0.049283492791282704,0.042271238094794425,0.0040915028482523255,0.006262857142636286,0.10190909087696574
DiskIndex.addQueryResults|Index.query|SuperTypeReferencePattern.queryIn,0.9069296888657843,0.0,0.08277833333381243,0.0,0.9897080221995967
DiskIndex.addQueryResults|Index.query|TypeDeclarationPattern.queryIn,0.0,0.028401666666468376,0.0,0.00443000000086613,0.0328316666673345
DiskIndex.copyQueryResults|DiskIndex.mergeWith|Index.save,0.2438297100038389,0.7069527083343322,0.019638596146326015,0.13057999999728054,1.1010010144817777
DiskIndex.mergeWith|Index.save|IndexManager.saveIndex,0.0,0.0655060000008234,0.0,0.009198749999995924,0.07470475000081933
DiskIndex.readCategoryTable|DiskIndex.addQueryResults|Index.query,0.049526250109781685,0.0,0.004869427289378757,0.0,0.054395677399160444
DiskIndex.readStreamChars|DiskIndex.readCategoryTable|DiskIndex.addQueryResults,0.1472511836096317,0.14077965265493136,0.016148699645103157,0.01599072404951895,0.3201702599591852
DiskIndex.readStreamChars|DiskIndex.readChunk|DiskIndex.readDocumentName,0.1905208070294752,0.0,0.016389999999598344,0.0,0.20691080702907352
DiskIndex.writeAllDocumentNames|DiskIndex.mergeWith|Index.save,0.0,0.052764121211966435,0.0,0.009730909090263373,0.062495030302229804
DiskIndex.writeCategoryTable|DiskIndex.writeCategories|DiskIndex.mergeWith,0.053819005125121167,0.38337657142533094,0.0038885258613467963,0.060397857141132195,0.5014819595529311
DiskIndex.writeDocumentNumbers|DiskIndex.writeCategoryTable|DiskIndex.writeCategories,0.0,0.12499051428582919,0.0,0.020141142855642273,0.14513165714147147
DiskIndex.writeStreamChars|DiskIndex.writeCategoryTable|DiskIndex.writeCategories,0.09720470378531341,0.6731905157370621,0.008219512813981696,0.11049041422058786,0.8891051465569451
DiskIndex.writeStreamChars|DiskIndex.writeStreamChars|DiskIndex.writeCategoryTable,0.2634874110473173,0.4931886571425518,0.021019517623611848,0.0817562857159785,0.8594518715294595
DiskIndex.writeStreamInt|DiskIndex.writeCategoryTable|DiskIndex.writeCategories,0.031453695046081996,0.08805333333245169,0.00257812445420796,0.01472400000008444,0.1368091528328261
DocumentBuilderImpl.<init>|DocumentBuilderFactoryImpl.newDocumentBuilder|JavaProject.decodeClasspath,0.0,0.034322166666242986,0.0,0.00548249999944043,0.039804666665683414
EclipseAppDescriptor.createAppHandle|EclipseAppDescriptor.launchSpecific|ApplicationDescriptor.launch,0.06197133334353566,0.0,0.008459999997285195,0.0,0.07043133334082086
ElementTree.includes|Workspace.getResourceInfo|Container.findMember,0.06957794019272732,0.0,0.00848503670864998,0.0,0.07806297690137731
ElementTree.includes|Workspace.getResourceInfo|FileSystemResourceManager.getStoreRoot,0.06508183595364721,0.0,0.004600219857641629,0.0,0.06968205581128883
ElementTreeIterator.push|ElementTreeIterator.iterate|Resource.accept,0.0,0.06530766666643709,0.0,0.009560000001026006,0.0748676666674631
ExplicitConstructorCall.resolve|ConstructorDeclaration.resolveStatements|AbstractMethodDeclaration.resolve,0.07626890546411981,0.0,0.0103159406608795,0.0,0.08658484612499931
Expression.<init>|Literal.<init>|MagicLiteral.<init>,0.050491830003866735,0.0,0.0040550728081702545,0.0,0.05454690281203699
FieldDeclaration.resolve|TypeDeclaration.resolve|TypeDeclaration.resolve,0.05681183787971893,0.0,0.0072084371384999405,0.0,0.06402027501821887
FieldInfo.createField|ClassFileReader.<init>|ClassFileReader.<init>,0.05644148148389325,0.0,0.0037333333338783288,0.0,0.06017481481777157
File.isHidden|LocalFile.fetchInfo|FileStore.fetchInfo,0.0,0.05003999999878162,0.0,0.006587142857564945,0.05662714285634657
File.isInvalid|FileInputStream.<init>|DiskIndex.readDocumentName,0.062174666663243734,0.0,0.004735000002256129,0.0,0.06690966666549986
File.length|LocalFile.fetchInfo|FileStore.fetchInfo,0.0,0.05003999999878162,0.0,0.006587142857564945,0.05662714285634657
FileInputStream.available0|FileInputStream.available|StreamDecoder.inReady,0.04813125286809622,0.0,0.004957576620691901,0.0,0.05308882948878812
FileInputStream.close0|FileInputStream.access$000|FileInputStream$1.close,0.033758333343679885,0.07619233333389275,0.002835714285971508,0.0123200000016368,0.12510638096518095
FileInputStream.open0|FileInputStream.open|FileInputStream.<init>,0.1995145863360453,0.2888796666666167,0.02083025853034456,0.04724500000399227,0.5564695115369988
FileInputStream.readBytes|FileInputStream.read|DiskIndex.readDocumentName,0.05554199999702784,0.0,0.0059100000047086106,0.0,0.06145200000173645
FileInputStream.readBytes|FileInputStream.read|DiskIndex.readStreamBuffer,0.049526250109781685,0.0,0.004869427289378757,0.0,0.054395677399160444
FileInputStream.readBytes|FileInputStream.read|FilterInputStream.read,0.0,0.23521777358834428,0.0,0.03794082249395227,0.27315859608229653
FileInputStream.readBytes|FileInputStream.read|StreamDecoder.readBytes,0.0,0.07619233333389275,0.0,0.0123200000016368,0.08851233333552955
FileLock.size|FileChannelImpl.release|FileLockImpl.release,0.0,0.037863155596472665,0.0,0.00276354083839632,0.040626696434868985
FileOutputStream.close0|FileOutputStream.access$000|FileOutputStream$1.close,0.0,0.11861621181551199,0.0,0.015286023823009387,0.13390223563852138
FileOutputStream.open0|FileOutputStream.open|FileOutputStream.<init>,0.03986987070727898,0.17908740347689536,0.003451992825789773,0.02602335544183524,0.24843262245179937
FileOutputStream.writeBytes|FileOutputStream.write|BufferedOutputStream.flushBuffer,0.0,1.4360366770451805,0.0,0.24181497055617693,1.6778516476013574
FileOutputStream.writeBytes|FileOutputStream.write|BufferedOutputStream.write,0.0,0.07094859740448102,0.0,0.012309728816855166,0.08325832622133619
FileOutputStream.writeBytes|FileOutputStream.write|DiskIndex.writeDocumentNumbers,0.0,0.051228666663519114,0.0,0.008180000001933271,0.059408666665452387
FileOutputStream.writeBytes|FileOutputStream.write|DiskIndex.writeStreamChars,0.16792243228757953,0.7085303915412839,0.013486178901924377,0.12012957143051221,1.0100685741613
FileOutputStream.writeBytes|FileOutputStream.write|StreamEncoder.writeBytes,0.0,0.0,0.0,0.0,0.0
FileOutputStream.writeBytes|FileOutputStream.write|Util.unzip,0.0,0.6577635667608416,0.0,0.10875120393589974,0.7665147706967413
FileSystemResourceManager.delete|ResourceTree.internalDeleteFolder|ResourceTree.internalDeleteProject,0.0,0.07094137720333665,0.0,0.010609793457495468,0.08155117066083212
Formatter.<clinit>|String.format|Chaperone.main,0.0,0.01329827650048762,0.0,0.002481295295642752,0.015779571796130373
Formatter.parse|Formatter.format|Formatter.format,0.0,0.01329827650048762,0.0,0.002481295295642752,0.015779571796130373
Framework.initialize|Framework.<init>|EclipseStarter.startup,0.0,0.062361780907190925,0.0,0.007907553997152861,0.07026933490434378
HashMap$EntryIterator.<init>|HashMap$EntrySet.iterator|HashMap.putMapEntries,0.0,0.009805008785013088,0.0,0.0016647624968966475,0.011469771281909735
HashMap.<init>|HashMap.<init>|Attributes.<init>,0.0,0.03870312754781216,0.0,0.005943010496255792,0.04464613804406795
HashMap.getNode|HashMap.get|JavaModelCache.getInfo,0.10074866664945148,0.0,0.009569999999560723,0.0,0.1103186666490122
Hashtable.<init>|JavaModelManager.getOptions|JavaCore.getOptions,0.04750566666674179,0.0,0.004935000002054342,0.0,0.05244066666879613
HashtableOfArrayToObject.getKey|JavaProjectElementInfo.addSuperPackageNames|JavaProjectElementInfo.newNameLookup,0.0,0.0,0.0,0.0,0.0
HashtableOfObject.<init>|HashtableOfObject.rehash|HashtableOfObject.put,0.0,0.05183899999974528,0.0,0.008220000000922784,0.060059000000668064
HashtableOfObject.get|DiskIndex.copyQueryResults|DiskIndex.mergeWith,0.8213428806457153,1.093253333328903,0.06703265076550106,0.19763312499101934,2.1792619897311387
HashtableOfObject.get|MemoryIndex.addIndexEntry|Index.addIndexEntry,0.0,0.07385974202749744,0.0,0.010589761932027398,0.08444950395952484
HashtableOfObject.put|DiskIndex.copyQueryResults|DiskIndex.mergeWith,0.15087123946615083,0.21726466666344396,0.013868205587122949,0.041490000000825,0.4234941117175427
HashtableOfObject.put|DiskIndex.readCategoryTable|DiskIndex.addQueryResults,0.034754586722017346,0.0,0.0031951890219473014,0.0,0.037949775743964645
HashtableOfObject.put|HashtableOfObject.rehash|HashtableOfObject.put,0.40270259181344625,0.0,0.03874812681524314,0.0,0.4414507186286894
HashtableOfObject.put|MemoryIndex.addIndexEntry|Index.addIndexEntry,0.05594170834235634,0.22142791287888228,0.006219224752950088,0.03872398567649029,0.322312831650679
HashtableOfObject.rehash|HashtableOfObject.put|DiskIndex.copyQueryResults,0.15809380044773796,0.1539716666690462,0.012034922208400401,0.024949999996655,0.34905038932183957
HashtableOfObject.rehash|HashtableOfObject.put|HashtableOfObject.rehash,0.050296256316793485,0.0,0.004031453302401301,0.0,0.05432770961919479
HashtableOfObjectToInt.put|SourceElementParser.consumeExitVariableWithoutInitialization|Parser.consumeRule,0.04542220441162116,0.0,0.003819998065800676,0.0,0.04924220247742184
HashtableOfType.<init>|PackageBinding.addType|LookupEnvironment.getTypeFromCompoundName,0.0,0.0862149166675105,0.0,0.01295875000050728,0.09917366666801777
HashtableOfType.get|PackageBinding.getType0|LookupEnvironment.getType,0.05221404761652507,0.0,0.0038000000010166937,0.0,0.05601404761754176
HeapByteBuffer.<init>|ByteBuffer.allocate|StreamDecoder.<init>,0.0,0.06479900000219155,0.0,0.010935000000851385,0.07573400000304294
HierarchyResolver.resolve|IndexBasedHierarchyBuilder.buildForProject|IndexBasedHierarchyBuilder.buildFromPotentialSubtypes,0.07517499999570039,0.0,0.005905000003015933,0.0,0.08107999999871632
ISO_8859_1$Encoder.<init>|ISO_8859_1$Encoder.<init>|ISO_8859_1.newEncoder,0.0,0.03245211671974353,0.0,0.005162585713181818,0.03761470243292535
ImplicitJobs.begin|JobManager.beginRule|WorkManager.checkIn,0.0,0.020395916667136284,0.0,0.002813750000617195,0.023209666667753478
ImportPackageSpecificationImpl.getDirective|ResolverImport.isDynamic|ResolverImpl.resolveImport,0.0,0.0,0.0,0.0,0.0
Index.addIndexEntry|SearchDocument.addIndexEntry|AbstractIndexer.addIndexEntry,0.0,0.09311744399149796,0.0,0.016347334593318164,0.10946477858481612
Index.isMatch|DiskIndex.addQueryResults|Index.query,0.08620199999616791,0.0,0.009369999999762513,0.0,0.09557199999593043
IndexManager.getIndex|IndexManager$1.execute|JobManager.run,0.0,0.047641388888829767,0.0,0.007979166665690072,0.055620555554519835
IndexManager.getSourceElementParser|IndexAllProject.execute|JobManager.run,0.0,0.06579600000016701,0.0,0.010280000002239829,0.07607600000240684
IndexManager.indexDocument|IndexManager$1.execute|JobManager.run,0.054096022793910285,0.0,0.004552378220655668,0.0,0.058648401014565955
IndexManager.indexLibrary|IndexManager.indexAll|DeltaProcessor.updateIndex,0.0,0.05150349999894388,0.0,0.0071850000009969035,0.05868849999994078
IndexManager.saveIndex|AddJarFileToIndex.execute|JobManager.run,0.0,0.1307285238071927,0.0,0.022525000001007267,0.15325352380819995
IndexManager.saveIndex|SaveIndex.execute|JobManager.run,0.03425586277099231,0.0,0.00442476297680628,0.0,0.03868062574779859
IndexManager.updateIndexState|IndexManager.removeIndex|IndexManager.removeIndexFamily,0.0,0.08409268848857991,0.0,0.010658587515037002,0.09475127600361691
Inflater.finished|InflaterInputStream.read|ZipInputStream.read,0.0,0.040123785036479814,0.0,0.006000641235992602,0.046124426272472416
Inflater.inflateBytes|Inflater.inflate|InflaterInputStream.read,0.28506024191224916,4.4582188687313415,0.03262230592363557,0.7399792720931956,5.515880688660422
Inflater.inflate|InflaterInputStream.read|ZipInputStream.read,0.0,0.062298509539663184,0.0,0.010345066203648758,0.07264357574331194
Inflater.needsDictionary|InflaterInputStream.read|ZipInputStream.read,0.0,0.04432071707892357,0.0,0.0075994134468919845,0.05192013052581555
Inflater.needsInput|InflaterInputStream.read|ZipInputStream.read,0.0,0.0707193937753589,0.0,0.011799878149720642,0.08251927192507953
InputStreamReader.<init>|Util.getInputStreamAsCharArray|Util.getResourceContentsAsCharArray,0.0,0.04571524999846588,0.0,0.007147499998609419,0.0528627499970753
JarPackageFragmentRoot.computeChildren|JavaProjectElementInfo.initializePackageNames|JavaProjectElementInfo.getProjectCache,0.0,0.0,0.0,0.0,0.0
JarPackageFragmentRoot.initRawPackageInfo|JarPackageFragmentRoot.computeChildren|JavaProjectElementInfo.initializePackageNames,0.0,0.008827352456093384,0.0,0.0015908758814848528,0.010418228337578236
JavaBuilder.initializeBuilder|JavaBuilder.build|BuildManager$2.run,0.0,0.01231391666685037,0.0,0.0009975000005700472,0.013311416667420417
JavaElement.getAncestor|Openable.getPackageFragmentRoot|CompilationUnit.getPath,0.060689333321837076,0.0,0.004740000001523488,0.0,0.06542933332336057
JavaProject.defaultClasspath|JavaProject.readFileEntriesWithException|JavaProject.readFileEntries,0.0,0.07814515904733517,0.0,0.01347742476907091,0.09162258381640608
JavaProject.readFileEntriesWithException|JavaModelManager$PerProjectInfo.readAndCacheClasspath|JavaProject.resolveClasspath,0.0,0.02103683333431642,0.0,0.0034299999994497434,0.024466833333766164
JavaSearchScope.indexOf|JavaSearchScope.encloses|MatchLocator.encloses,0.0642645006479284,0.0,0.006724244111549983,0.0,0.07098874475947838
JavaSearchScope.indexOf|JavaSearchScope.getAccessRuleSet|SearchPattern.acceptMatch,0.07352380701565396,0.0,0.008553684213614344,0.0,0.0820774912292683
JavadocMessageSend.internalResolveType|JavadocMessageSend.resolveType|Javadoc.resolveReference,0.07626890546411981,0.0,0.0103159406608795,0.0,0.08658484612499931
JavadocParser.updateDocComment|AbstractCommentParser.commentParse|JavadocParser.checkDeprecation,0.08010648452585803,0.0,0.007880388153613643,0.0,0.08798687267947167
JobActivator.registerServices|JobActivator.start|BundleContextImpl$1.run,0.07865399999233583,0.0,0.004740000001523488,0.0,0.08339399999385931
JobManager.request|IndexManager.indexAll|FullSourceWorkspaceSearchTests.testIndexing,0.07441156769612345,0.0,0.008721280332703649,0.0,0.0831328480288271
LaunchingPlugin.<clinit>|NativeConstructorAccessorImpl.newInstance0|NativeConstructorAccessorImpl.newInstance,0.0,0.06848133333389543,0.0,0.010506666666414172,0.0789880000003096
LocalFile.openInputStream|FileSystemResourceManager.read|File.getContents,0.05789941042641729,0.0,0.0040572133027658944,0.0,0.06195662372918318
ManifestDigester.findSection|ManifestDigester.<init>|JarVerifier.processEntry,0.0,0.04074303759042002,0.0,0.006920946274083796,0.047663983864503816
ManifestElement.parseHeader|StateBuilder.createBundleDescription|StateObjectFactoryImpl.createBundleDescription,0.0,0.04956871121014548,0.0,0.00942528093337943,0.05899399214352491
MarkerManager$3.visitElement|ElementTreeIterator.doIteration|ElementTreeIterator.doIteration,0.0,0.027216583333332284,0.0,0.003342499999538025,0.03055908333287031
MatchLocatorParser.consumeMethodInvocationPrimary|Parser.consumeRule|Parser.parse,0.08903928177390331,0.0,0.011133416274484395,0.0,0.10017269804838771
MemoryCache.newEntry|MemoryCache.put|X509Factory.addToCache,0.0,0.044567891131402235,0.0,0.007831246784539557,0.05239913791594179
MemoryIndex.addIndexEntry|Index.addIndexEntry|SearchDocument.addIndexEntry,0.13839153900922657,0.08029489149400468,0.014459873198228099,0.013306996088638908,0.24645329979009825
MethodInfo.getExceptionTypeNames|BinaryIndexer.indexDocument|JavaSearchParticipant.indexDocument,0.0,0.08065907868194548,0.0,0.011629997651977229,0.0922890763339227
MethodInfo.getMethodDescriptor|BinaryIndexer.indexDocument|JavaSearchParticipant.indexDocument,0.06064833332978499,0.0,0.007835000001553755,0.0,0.06848333333133874
MethodInfo.getSelector|MethodInfo.isConstructor|BinaryIndexer.indexDocument,0.036575320786621235,0.0963950000029096,0.0028810705782099594,0.01357999999891035,0.14943139136665115
MethodInfo.readCodeAttribute|MethodInfo.getArgumentNames|BinaryIndexer.indexDocument,0.0317759967207508,0.0,0.004256023735480253,0.0,0.03603202045623105
MethodPattern.createIndexKey|AbstractIndexer.addMethodReference|BinaryIndexer.extractReferenceFromConstantPool,0.0,0.08571366666728862,0.0,0.016335000000253785,0.1020486666675424
MultiStatus.addAll|MultiStatus.merge|FileSystemResourceManager.delete,0.0,0.027418295404720714,0.0,0.0033547503368366828,0.030773045741557398
NameLookup.acceptType|NameLookup.seekTypesInBinaryPackage|NameLookup.seekTypes,0.057303142858602635,0.0,0.0058928571441876024,0.0,0.06319600000279024
NormalizerBase.<clinit>|Normalizer.normalize|AVA.toRFC2253CanonicalString,0.0,0.035547527972808975,0.0,0.00604232236696457,0.04158985033977355
OS.isNameValid|LocationValidator.validateName|Workspace.validateName,0.09359528889698494,0.0,0.008269333332686478,0.0,0.10186462222967142
Object.hashCode|HashMap.hash|HashMap.get,0.13947501286124733,0.0,0.0163897291939525,0.0,0.15586474205519985
Object.hashCode|HashtableOfObjectToInt.put|SourceElementParser.consumeMethodHeaderName,0.0452462982029267,0.0,0.002879637120052089,0.0,0.04812593532297879
Object.hashCode|SimpleLookupTable.put|SimpleLookupTable.rehash,0.08422842792327248,0.0,0.008281842008729,0.0,0.09251026993200148
Object.hashCode|WeakHashMap.hash|WeakHashMap.put,0.0,0.07673157386002248,0.0,0.013532302337576357,0.09026387619759883
Object.notifyAll|ReadWriteMonitor.exitWrite|IndexManager$1.execute,0.05132636362951242,0.0,0.004101450842815984,0.0,0.055427814472328404
Openable.generateInfos|JavaElement.openWhenClosed|JavaElement.getElementInfo,0.041272447413204745,0.0,0.00490282658773645,0.0,0.046175274000941194
OutputStreamWriter.write|BufferedWriter.flushBuffer|BufferedWriter.flush,0.045206666671826184,0.0,0.005915000001550652,0.0,0.05112166667337684
PKCS7.<init>|SignatureFileVerifier.<init>|JarVerifier.processEntry,0.0,0.04074303759042002,0.0,0.006920946274083796,0.047663983864503816
Parser.consumeClassHeaderName1|SourceElementParser.consumeClassHeaderName1|Parser.consumeRule,0.0,0.043294333333809235,0.0,0.006819999999909972,0.05011433333371921
Parser.consumeEmptyArgumentListopt|Parser.consumeRule|Parser.parse,0.108037556285186,0.0,0.016823868439884208,0.0,0.12486142472507021
Parser.consumeLocalVariableDeclarationStatement|Parser.consumeRule|Parser.parse,0.0,0.07668066666519735,0.0,0.012360000000626314,0.08904066666582366
Parser.consumePrimitiveType|Parser.consumeRule|Parser.parse,0.0,0.06303583333242893,0.0,0.009100000000519987,0.07213583333294891
Parser.consumeRule|Parser.parse|Parser.parse,0.8332800790735913,0.1426737438265308,0.07527899912575749,0.020214907404043053,1.0714477294299225
Parser.consumeStatementSynchronized|Parser.consumeRule|Parser.parse,0.0,0.06109600000005836,0.0,0.009560000001026006,0.07065600000108437
Parser.consumeToken|Parser.parse|Parser.parse,0.1256308887521134,0.0,0.011935374329397258,0.0,0.13756626308151065
Parser.containsComment|Parser.parse|MatchLocatorParser.parseBodies,0.08010648452585803,0.0,0.007880388153613643,0.0,0.08798687267947167
Parser.createFieldDeclaration|Parser.consumeEnterVariable|Parser.consumeRule,0.0,0.0790813333345189,0.0,0.01441999999951804,0.09350133333403694
Parser.dispatchDeclarationInto|Parser.consumeClassDeclaration|Parser.consumeRule,0.0,0.06583666666604887,0.0,0.009559999998600688,0.07539666666464956
Parser.initTables|Parser.<clinit>|IndexManager.getSourceElementParser,0.0,0.13189699999929871,0.0,0.019860000000335273,0.151756999999634
Parser.newMessageSend|Parser.consumeMethodInvocationPrimary|SourceElementParser.consumeMethodInvocationPrimary,0.0,0.04339599999851392,0.0,0.006819999999909972,0.050215999998423896
Parser.parse|Parser.parse|MatchLocatorParser.parseBodies,0.19250398770384836,0.0,0.015861590468147547,0.0,0.2083655781719959
Parser.parse|Parser.parse|MethodDeclaration.parseStatements,0.25103419618613165,0.1775106666658151,0.022439531223117475,0.025944999998804022,0.47692939407386825
Parser.parse|Parser.parse|Parser.parse,0.27381337870626826,0.19891366666706747,0.022268884421289666,0.030154999997951862,0.5251509297925773
Parser.pushIdentifier|Parser.consumeToken|Parser.parse,0.06279368238193757,0.0,0.007567334678381186,0.0,0.07036101706031875
Parser.pushOnExpressionStack|Parser.consumeEqualityExpressionWithName|Parser.consumeRule,0.15665484296904675,0.0,0.012353836779252628,0.0,0.16900867974829936
Parser.pushOnExpressionStack|Parser.consumePostfixExpression|Parser.consumeRule,0.059757201289547014,0.0,0.00453937018767104,0.0,0.06429657147721805
Parser.pushOnExpressionStack|Parser.consumeToken|Parser.parse,0.13949974882481245,0.0,0.010401244717622216,0.0,0.14990099354243466
Parser.pushOnIntStack|Parser.consumeToken|Parser.parse,0.0,0.052754666665957003,0.0,0.008199999999002708,0.06095466666495971
Parser.readLongTable|Parser.initTables|Parser.<clinit>,0.0,0.07428000000072643,0.0,0.01104000000001785,0.08532000000074429
Parser.tAction|Parser.parse|Parser.parse,0.18657331087456738,0.19513495238026646,0.017173815673506797,0.029865714283784785,0.4287477932121254
Path.segment|DeltaDataTree.lookup|ElementTree.includes,0.04563549680641391,0.0,0.004921530184124235,0.0,0.05055702699053815
Path.toOSString|LocalFile.getChild|FileStoreRoot.createStore,0.0,0.07187900000038401,0.0,0.010920000000623986,0.082799000001008
Path.toOSString|Path.toFile|Util.getResourceContentsAsCharArray,0.04445733479736976,0.0,0.00649515654939913,0.0,0.050952491346768894
Pattern.split|Pattern.split|AlgorithmDecomposer.decomposeImpl,0.0,0.04270455527265896,0.0,0.00785938300437285,0.05056393827703182
PolicyInformation.<init>|CertificatePoliciesExtension.<init>|NativeConstructorAccessorImpl.newInstance0,0.0,0.039364726168309286,0.0,0.006095882122796806,0.04546060829110609
PreferenceServiceRegistryHelper.getPrefExtensions|PreferenceServiceRegistryHelper.initializeScopes|PreferenceServiceRegistryHelper.<init>,0.04726133333557906,0.0,0.004100000000714013,0.0,0.05136133333629307
ProjectDescription.setBuildSpec|ProjectDescriptionReader.endBuildSpecElement|ProjectDescriptionReader.endElement,0.0,0.0,0.0,0.0,0.0
ProviderList$ServiceList.iterator|KeyFactory.<init>|KeyFactory.getInstance,0.0,0.025988922623903114,0.0,0.0044673476889539225,0.030456270312857036
RandomAccessFile.open0|RandomAccessFile.open|RandomAccessFile.<init>,0.05103017307190527,0.0,0.006857616170563478,0.0,0.05788778924246875
ReferenceInfoAdapter.acceptTypeReference|SourceElementParser.getTypeReference|Parser.consumeEnterVariable,0.08715808889311223,0.0,0.010070666664655113,0.0,0.09722875555776735
RegistryObject.noExtraData|ExtensionPoint.getExtraData|ExtensionPoint.getNamespace,0.10428309524459542,0.0,0.00630714285632296,0.0,0.11059023810091838
Resource.getName|CharsetManager.getPreferences|CharsetManager.getCharsetFor,0.0,0.07350666666752659,0.0,0.010920000000623986,0.08442666666815057
RuntimeProcess.fireCreationEvent|RuntimeProcess.<init>|DebugPlugin.newProcess,0.0,0.017595523810346743,0.0,0.003448571429111152,0.021044095239457897
SAXParserImpl.<init>|SAXParserImpl.<init>|SAXParserFactoryImpl.newSAXParserImpl,0.02755038461495692,0.0,0.0016200000010520364,0.0,0.029170384616008956
Scanner.<init>|Scanner.<init>|CommentRecorderParser.initializeScanner,0.0,0.0,0.0,0.0,0.0
Scanner.getCurrentIdentifierSource|Parser.pushIdentifier|Parser.consumeToken,0.10869736572368612,0.07629366666757656,0.010968334677714669,0.012299999999716722,0.20825936706869408
Scanner.getLineEnd|AbstractCommentParser.commentParse|JavadocParser.checkDeprecation,0.061240797422692686,0.0,0.006037589263789487,0.0,0.06727838668648217
Scanner.getLineEnd|AbstractCommentParser.updateLineEnd|AbstractCommentParser.commentParse,0.07864292500250814,0.0,0.005139482203083478,0.0,0.08378240720559162
Scanner.getNextChar|Scanner.getNextToken|Parser.parse,0.13979043301816352,0.21541299999565428,0.013105205038894183,0.03552499999932479,0.40383363805203676
Scanner.getNextChar|Scanner.getNextToken|Scribe.printNextToken,0.07419833334279248,0.0,0.005355000003570845,0.0,0.07955333334636333
Scanner.getNextChar|Scanner.jumpOverMethodBody|Scanner.getNextToken,0.04134083451076855,0.0,0.002827768874620081,0.0,0.04416860338538863
Scanner.getNextToken|AbstractCommentParser.readToken|AbstractCommentParser.parseMember,0.0,0.1162110000004759,0.0,0.016800000000027158,0.13301100000050306
Scanner.getNextToken|AbstractCommentParser.readToken|AbstractCommentParser.readTokenSafely,0.0,0.07539866666775198,0.0,0.010920000000623986,0.08631866666837597
Scanner.getNextToken|Parser.parse|Parser.parse,1.2366316759668639,0.7360768625667387,0.12878327324928285,0.11286135965237705,2.2143531714352624
Scanner.internalScanIdentifierOrKeyword|CommentRecorderParser.flushCommentsDefinedPriorTo|end.end,0.029064176840603487,0.0,0.00227025673817168,0.0,0.03133443357877517
Scanner.internalScanIdentifierOrKeyword|Scanner.scanIdentifierOrKeyword|Scanner.getNextToken,0.08003546757760757,0.08876566666731378,0.00938545348671203,0.01231499999994412,0.1905015877315775
Scanner.internalScanIdentifierOrKeyword|Scanner.scanIdentifierOrKeyword|Scanner.jumpOverMethodBody,0.08749421138560219,0.0,0.010977314611409168,0.0,0.09847152599701137
Scanner.jumpOverMethodBody|CompletionScanner.getNextToken|Parser.parse,0.06238958843222034,0.0,0.007079359381814328,0.0,0.06946894781403466
Scanner.jumpOverMethodBody|Scanner.getNextToken|Parser.parse,0.38605900301669394,0.13853277777848738,0.03461533224726783,0.02164999999877182,0.580857113041221
Scanner.optimizedCurrentTokenSource4|Scanner.getCurrentIdentifierSource|Parser.pushIdentifier,0.15230648923305096,0.0,0.011831138762980125,0.0,0.16413762799603107
Scanner.optimizedCurrentTokenSource6|Scanner.getCurrentIdentifierSource|Parser.pushIdentifier,0.06858292321264847,0.0,0.004474529839746693,0.0,0.07305745305239517
Scanner.pushLineSeparator|Scanner.getNextToken|Parser.parse,0.1989852157780658,0.24416066666647868,0.017250217216405423,0.03833999999672717,0.498736099657677
Scanner.pushLineSeparator|Scanner.jumpOverMethodBody|Scanner.getNextToken,0.5697980749751809,0.05017100000016701,0.05016331177156462,0.008220000000922784,0.6783523867478354
Scanner.scanIdentifierOrKeyword|Scanner.getNextToken|Parser.parse,0.0,0.1020713333346066,0.0,0.014865000002221981,0.11693633333682858
Scanner.scanIdentifierOrKeyword|Scanner.jumpOverMethodBody|Scanner.getNextToken,0.0,0.051859666663707074,0.0,0.006799999997989896,0.05865966666169697
ScannerHelper.isWhitespace|Signature.encodeQualifiedName|Signature.encodeTypeSignature,0.04636633332120255,0.0,0.0035599999973783274,0.0,0.04992633331858088
Scope.findField|Scope.getBinding|Argument.bind,0.07063378519947458,0.0,0.007781983479153194,0.0,0.07841576867862778
Scribe.addOptimizedReplaceEdit|Scribe.addInsertEdit|Scribe.printNewLine,0.042399333333984636,0.0,0.002959999997983686,0.0,0.04535933333196832
Scribe.initFormatterCommentParser|Scribe.initializeScanner|CodeFormatterVisitor.format,0.05750461538823753,0.0,0.004384615384669115,0.0,0.061889230772906645
Scribe.space|Scribe.print|Scribe.printNextToken,0.11153166665462776,0.0,0.007115000000339933,0.0,0.11864666665496769
SearchDocument.getContainerRelativePath|SearchDocument.addIndexEntry|AbstractIndexer.addIndexEntry,0.052876999999474115,0.0,0.004139999999703528,0.0,0.05701699999917764
SearchEngine.getDefaultSearchParticipant|AddJarFileToIndex.execute|JobManager.run,0.0,0.1169026666660405,0.0,0.021404999999504067,0.13830766666554456
Signature.createCharArrayTypeSignature|BinaryIndexer.extractArgCount|BinaryIndexer.extractReferenceFromConstantPool,0.1253662083314945,0.04960786110879982,0.013426250000217502,0.009423333333163302,0.1978236527736751
Signature.encodeTypeSignature|Signature.createCharArrayTypeSignature|BinaryIndexer.extractArgCount,0.056508284667737725,0.08947733333237314,0.006625044851308155,0.012260000000727208,0.16487066285214624
SimpleLookupTable.get|DiskIndex.mergeWith|Index.save,0.03321448327485205,0.05735266666548947,0.0028340383355589982,0.00960000000001552,0.10300118827591603
SimpleLookupTable.put|DiskIndex.computeDocumentNames|DiskIndex.mergeWith,0.11783896535643346,0.01532896969824879,0.009069785539767646,0.003018181818076457,0.14525590241252634
SimpleLookupTable.put|MemoryIndex.addIndexEntry|Index.addIndexEntry,0.1633096197234224,0.06156400000084735,0.0107934630370441,0.008120000001023678,0.24378708276233751
SimpleLookupTable.put|SimpleLookupTable.rehash|SimpleLookupTable.put,0.0,0.09611000000101436,0.0,0.016339999999521144,0.1124500000005355
SimpleWordSet.<init>|SimpleWordSet.rehash|SimpleWordSet.add,0.11836170887024192,0.0,0.010990033776403743,0.0,0.12935174264664567
SimpleWordSet.add|MemoryIndex.addIndexEntry|Index.addIndexEntry,1.104672223162298,0.7075657148442556,0.0986020670672982,0.11634316496703484,2.0271831700408867
SimpleWordSet.add|SimpleWordSet.rehash|SimpleWordSet.add,0.7434075120322329,0.3589829854916789,0.06197103025981387,0.0564702427277395,1.220831770511465
SimpleWordSet.rehash|SimpleWordSet.add|MemoryIndex.addIndexEntry,0.0,0.04267940740532207,0.0,0.006062222222142197,0.04874162962746427
SingleNameReference.<init>|Parser.getUnspecifiedReferenceOptimized|MatchLocatorParser.getUnspecifiedReferenceOptimized,0.053109813996223165,0.0,0.005738896032404254,0.0,0.05884871002862742
SingleTypeReference.<init>|TypeConverter.decodeType|TypeConverter.createTypeReference,0.08496099999562526,0.0,0.0068799999983942435,0.0,0.0918409999940195
SourceElementNotifier.notifySourceElementRequestor|SourceElementNotifier.notifySourceElementRequestor|SourceElementNotifier.notifySourceElementRequestor,0.08370391430681764,0.0,0.00863888747788728,0.0,0.09234280178470493
SourceElementParser.<init>|IndexingParser.<init>|IndexManager.getSourceElementParser,0.0,0.166030242424423,0.0,0.020980909087952703,0.18701115151237568
SourceElementParser.consumeTypeImportOnDemandDeclarationName|Parser.consumeRule|Parser.parse,0.0,0.07187900000038401,0.0,0.010920000000623986,0.082799000001008
SourceElementParser.getUnspecifiedReference|Parser.consumeMethodInvocationName|SourceElementParser.consumeMethodInvocationName,0.0,0.07668066666519735,0.0,0.012360000000626314,0.08904066666582366
SourceIndexerRequestor.addDefaultConstructorIfNecessary|SourceIndexerRequestor.enterClass|SourceIndexerRequestor.enterType,0.04134083451076855,0.0,0.002827768874620081,0.0,0.04416860338538863
StandardVMType.generateLibraryInfo|StandardVMType.getLibraryInfo|StandardVMType.getDefaultLibraryLocations,0.0,0.04504399999859743,0.0,0.007313333332098813,0.05235733333069624
StateBuilder.createBundleDescription|StateObjectFactoryImpl.createBundleDescription|BaseStorage.readStateData,0.0,0.04460238684586166,0.0,0.007005727790305029,0.051608114636166685
StateWriter.writeBundleDescriptionLazyData|StateWriter.saveState|StateObjectFactoryImpl.writeState,0.0,0.0,0.0,0.0,0.0
String.<init>|DataInputStream.readUTF|DataInputStream.readUTF,0.0,0.01231391666685037,0.0,0.0009975000005700472,0.013311416667420417
String.<init>|String.substring|DiskIndex.readChunk,0.054009596484288436,0.0,0.006102105263077343,0.0,0.06011170174736578
String.charAt|UnixFileSystem.getBooleanAttributes|File.isFile,0.0,0.03149400000135453,0.0,0.003409999999954986,0.03490400000130951
String.charAt|UnixFileSystem.prefixLength|File.<init>,0.0,0.07777905198270806,0.0,0.01168471617975394,0.089463768162462
String.charAt|Util.splitOn|JarPackageFragmentRoot.initRawPackageInfo,0.0,0.21260599999853486,0.0,0.026449999999992237,0.23905599999852709
String.equals|QualifiedName.equals|HashMap.getNode,0.0,0.04339599999851392,0.0,0.006819999999909972,0.050215999998423896
String.equals|ZipCoder.<init>|ZipCoder.get,0.07195374199896605,0.0,0.007246917625883632,0.0,0.07920065962484968
String.hashCode|HashMap.hash|HashMap.get,0.0816882728275535,0.0,0.007302783668484577,0.0,0.08899105649603808
String.startsWith|String.startsWith|JavaSearchScope.encloses,0.0,0.059318541667986814,0.0,0.008546874999713811,0.06786541666770063
String.startsWith|String.startsWith|Util.startsWithIgnoreCase,0.061116666668870785,0.0,0.00413499999801085,0.0,0.06525166666688163
String.substring|Index.containerRelativePath|SearchDocument.getContainerRelativePath,0.14378456813815094,0.0,0.011034732055395392,0.0,0.15481930019354634
String.substring|Path.computeSegments|Path.initialize,0.04559404361124063,0.0,0.002911791124015865,0.0,0.04850583473525649
String.substring|Util.splitOn|JarPackageFragmentRoot.initRawPackageInfo,0.0,0.0,0.0,0.0,0.0
String.toCharArray|ConstructorPattern.createIndexKey|AbstractIndexer.addConstructorReference,0.03329362963429755,0.0,0.002648888888803345,0.0,0.035942518523100896
StringBuffer.append|JavaSearchDocument.<init>|AddJarFileToIndex.execute,0.06013999999656031,0.0,0.004780000002938323,0.0,0.06491999999949863
StringBuffer.append|Signature.encodeQualifiedName|Signature.encodeTypeSignature,0.0,0.08155545830846468,0.0,0.01306734504203013,0.0946228033504948
StringBuffer.toString|JavaSearchDocument.<init>|AddJarFileToIndex.execute,0.0,0.0870038832064025,0.0,0.016423588603988855,0.10342747181039136
StringCoding.encode|String.getBytes|FileOutputStream.open0,0.0,0.07856349538883754,0.0,0.013335704867017607,0.09189920025585516
StringCoding.encode|String.getBytes|UnixFileSystem.getBooleanAttributes0,0.0,0.08803299999999581,0.0,0.01366500000100738,0.1016980000010032
StringCoding.scale|StringCoding.access$000|StringCoding$StringEncoder.encode,0.07712800001415113,0.0,0.0053250000006907295,0.0,0.08245300001484186
SuperTypeReferencePattern.createIndexKey|AbstractIndexer.addClassDeclaration|BinaryIndexer.indexDocument,0.07700893981597835,0.0,0.008858402779744076,0.0,0.08586734259572243
System.nanoTime|ClassLoader.loadClass|Launcher$AppClassLoader.loadClass,0.0,0.0,0.0,0.0,0.0
Throwable.fillInStackTrace|Throwable.fillInStackTrace|Throwable.<init>,0.6066193833427007,0.062233002512898324,0.04777669047050168,0.011213960894862058,0.7278430372209628
TimSort.binarySort|TimSort.sort|Arrays.sort,0.09382740420995477,0.0,0.01048311555933997,0.0,0.10431051976929473
TypeConverter.decodeType|TypeConverter.createTypeReference|SourceTypeConverter.convert,0.1301779462785686,0.0,0.01198395481041237,0.0,0.14216190108898097
TypeDeclaration.generateCode|TypeDeclaration.generateCode|CompilationUnitDeclaration.generateCode,0.07924366665732425,0.0,0.007860000002741192,0.0,0.08710366666006544
UTF8.encode|ClassFileAssembler.emitConstantPoolUTF8|AccessorGenerator.emitBoxingContantPoolEntries,0.0,0.04171008333287318,0.0,0.005950000000363311,0.04766008333323649
UTF_8$Decoder.decodeArrayLoop|UTF_8$Decoder.decodeLoop|CharsetDecoder.decode,0.050491830003866735,0.0,0.0040550728081702545,0.0,0.05454690281203699
UnixFileSystem.checkAccess|File.canWrite|LocalFile.fetchInfo,0.0,0.21519813236005245,0.0,0.03235377410801665,0.2475519064680691
UnixFileSystem.createFileExclusively|File.createNewFile|DiskIndex.initialize,0.0,0.0,0.0,0.0,0.0
UnixFileSystem.delete0|UnixFileSystem.delete|File.delete,0.07089161247369294,0.3983629172659876,0.005792707419559307,0.060982920993799664,0.5360301581530394
UnixFileSystem.getBooleanAttributes0|UnixFileSystem.getBooleanAttributes|File.exists,0.08131899998988956,0.2849140417548417,0.005340000003343448,0.040714213348351125,0.41228725509642583
UnixFileSystem.getBooleanAttributes0|UnixFileSystem.getBooleanAttributes|File.isDirectory,0.0,0.06275567561495587,0.0,0.010715409477588698,0.07347108509254457
UnixFileSystem.getBooleanAttributes0|UnixFileSystem.getBooleanAttributes|File.isHidden,0.0,0.14505258476294844,0.0,0.021728298277491655,0.1667808830404401
UnixFileSystem.getLastModifiedTime|File.lastModified|LocalFile.fetchInfo,0.0,0.19011082397595572,0.0,0.027885289564394202,0.21799611354034992
UnixFileSystem.getLastModifiedTime|File.lastModified|ZipFile.<init>,0.08347857143131218,0.0,0.009437142854689487,0.0,0.09291571428600166
UnixFileSystem.getLength|File.length|Util.getResourceContentsAsCharArray,0.0875801838448265,0.1339926666696556,0.00917949207648146,0.019115000000359338,0.24986734259132293
UnixFileSystem.list|File.list|File.listFiles,0.0,0.06897729430058708,0.0,0.01038571071796455,0.07936300501855163
Util.equalArrays|HashtableOfArrayToObject.getKey|JarPackageFragmentRoot.initRawPackageInfo,0.0,0.09897866666627426,0.0,0.012359999998200994,0.11133866666447526
Util.getInputStreamAsByteArray|Util.getZipEntryByteContent|AddJarFileToIndex.execute,0.11096457777765704,0.0,0.012108681289671623,0.0,0.12307325906732866
Util.getInputStreamAsCharArray|Util.getResourceContentsAsCharArray|Util.getResourceContentsAsCharArray,0.04989767696533479,0.0,0.006010835110812918,0.0,0.055908512076147714
Util.getZipEntryByteContent|AddJarFileToIndex.execute|JobManager.run,0.07269300000431636,0.0,0.004759999998592925,0.0,0.07745300000290929
Util.indexOfJavaLikeExtension|Util.isJavaLikeFileName|JavaSearchParticipant.indexDocument,0.0,0.03377321565296849,0.0,0.0046743338459239465,0.03844754949889243
Util.quickSort|Util.quickSort|Util.quickSort,0.1047914351962623,0.7330309528143842,0.008674773598530968,0.1200899058413924,0.9665870674505699
Util.quickSort|Util.quickSort|Util.sort,0.04271020389756513,0.15663666666902523,0.003453811324142885,0.02384500000092278,0.22664568189165601
Util.quickSort|Util.sort|DiskIndex.writeDocumentNumbers,0.0,0.05175775000134309,0.0,0.012183750000986038,0.06394150000232912
Util.scanClassTypeSignature|Util.scanTypeSignature|BinaryIndexer.removeFirstSyntheticParameter,0.0,0.07630384074386458,0.0,0.011870637519869926,0.08817447826373451
Util.splitOn|JarPackageFragmentRoot.initRawPackageInfo|JarPackageFragmentRoot.computeChildren,0.0,0.29241933333347936,0.0,0.039750000001125343,0.3321693333346047
Util.splitOn|NameLookup.seekPackageFragments|NameLookup.findType,0.07910004618018797,0.0,0.008949489978759063,0.0,0.08804953615894703
VersionRange.getIncludeMaximum|StateWriter.writeVersionRange|StateWriter.writeVersionConstraint,0.0,0.0,0.0,0.0,0.0
WeakHashSet.add|JavaModelManager.intern|CompilationUnitStructureRequestor.createField,0.08522533334325999,0.0,0.007490000001174242,0.0,0.09271533334443423
WorkManager.checkOut|Workspace.endOperation|Marker.setAttributes,0.0,0.062332208363137236,0.0,0.008882196392518431,0.07121440475565567
Workspace.createResource|Workspace.createResource|Project.create,0.0,0.0,0.0,0.0,0.0
Workspace.getResourceInfo|Resource.getResourceInfo|RefreshLocalVisitor.visit,0.0,0.027418295404720714,0.0,0.0033547503368366828,0.030773045741557398
X509CertImpl.parse|X509CertImpl.<init>|X509Factory.engineGenerateCertificate,0.0,0.0526559381082865,0.0,0.008683976706238956,0.061339914814525456
X509CertInfo.parse|X509CertInfo.<init>|X509CertImpl.parse,0.0,0.03962950086902252,0.0,0.0068479172344798325,0.04647741810350235
XML11Configuration.<init>|XIncludeAwareParserConfiguration.<init>|XIncludeAwareParserConfiguration.<init>,0.16663253844644013,0.0,0.014857307693044927,0.0,0.18148984613948504
XMLDTDValidator.reset|XML11Configuration.reset|XML11Configuration.parse,0.06011966667332065,0.0,0.0041799999986930425,0.0,0.0642996666720137
XMLDocumentFragmentScannerImpl$ElementStack.<init>|XMLDocumentFragmentScannerImpl.<init>|XMLDocumentScannerImpl.<init>,0.048494769233422205,0.0,0.005732307691897193,0.0,0.0542270769253194
XMLDocumentFragmentScannerImpl$ElementStack2.<init>|XMLDocumentFragmentScannerImpl.<init>|XMLDocumentScannerImpl.<init>,0.08131899998988956,0.0,0.005340000003343448,0.0,0.08665899999323301
XMLEntityManager.setScannerVersion|XMLEntityManager.<init>|XML11Configuration.<init>,0.047043923080379434,0.0,0.00328500000054751,0.0,0.05032892308092694
XMLEntityScanner.skipChar|XMLDocumentFragmentScannerImpl$FragmentContentDriver.next|XMLDocumentScannerImpl.next,0.10428309524459542,0.0,0.00630714285632296,0.0,0.11059023810091838
ZipEntry.setExtra0|ZipFile.getZipEntry|ZipFile.access$900,0.05984641508269615,0.0,0.005374674005487935,0.0,0.06522108908818408
ZipFile$ZipEntryIterator.next|ZipFile$ZipEntryIterator.nextElement|ZipFile$ZipEntryIterator.nextElement,0.0,0.07538723644535461,0.0,0.0144669776407748,0.08985421408612941
ZipFile$ZipFileInflaterInputStream.fill|InflaterInputStream.read|JarVerifier$VerifierStream.read,0.0,0.048670142450167986,0.0,0.008523268046685442,0.05719341049685343
ZipFile$ZipFileInputStream.close|ZipFile$ZipFileInputStream.read|ZipFile$ZipFileInflaterInputStream.fill,0.038295428559649736,0.0,0.003544285716738419,0.0,0.041839714276388155
ZipFile.access$1100|ZipFile$ZipFileInputStream.<init>|ZipFile.getInputStream,0.05442300000383208,0.0,0.004160000004048925,0.0,0.058583000007881005
ZipFile.freeEntry|ZipFile.access$1000|ZipFile$ZipEntryIterator.next,0.0,0.05305966666492168,0.0,0.008880000001227017,0.061939666666148696
ZipFile.getEntryBytes|ZipFile.getZipEntry|ZipFile.access$900,0.0,0.23249622482702492,0.0,0.033266996086447974,0.2657632209134729
ZipFile.getEntryCSize|ZipFile.getZipEntry|ZipFile.access$900,0.0,0.0,0.0,0.0,0.0
ZipFile.getEntryFlag|ZipFile.getZipEntry|ZipFile.access$900,0.0,0.0,0.0,0.0,0.0
ZipFile.getEntryMethod|ZipFile.getZipEntry|ZipFile.access$900,0.06092330826593681,0.0,0.008518566018292274,0.0,0.06944187428422909
ZipFile.getEntrySize|ZipFile.getZipEntry|ZipFile.access$900,0.05214433333215614,0.0,0.004759999998592925,0.0,0.05690433333074906
ZipFile.getEntry|ZipFile.getEntry|ClassFileReader.read,0.07924155544022722,0.0,0.008407476892045377,0.0,0.0876490323322726
ZipFile.getEntry|ZipFile.getInputStream|Util.getZipEntryByteContent,0.0522259999900901,0.08123799999884795,0.0041799999986930425,0.016399999998005416,0.1540439999856365
ZipFile.getInputStream|Util.getZipEntryByteContent|AddJarFileToIndex.execute,0.0,0.06143714370751153,0.0,0.008714013233322295,0.07015115694083382
ZipFile.getNextEntry|ZipFile.access$500|ZipFile$ZipEntryIterator.next,0.09812424998987504,0.09606933333270716,0.009467500000634269,0.014739999998710118,0.21840108332192656
ZipFile.read|ZipFile.access$1400|ZipFile$ZipFileInputStream.read,0.7241407904573571,0.9543469345372789,0.06025582143039413,0.1519254908178825,1.8906690372429125
ZipInputStream.read|Benchmark.fileFromInputStream|Benchmark.unpackZipStream,0.0,0.05471596215875338,0.0,0.009521149813370985,0.06423711197212437
