method,package1,package2,dram1,dram2,energy
avrora.actions,0.0,0.0,0.0,0.0,0.0
avrora.arch.legacy,0.044535305525263365,0.1661031999987851,0.006407398888559541,0.029404000002008004,0.246449904414616
avrora.monitors,0.0,0.0,0.0,0.0,0.0
avrora.sim,0.05850365447289724,0.04842099999950733,0.00750192769548228,0.008389999997840883,0.12281658216572773
avrora.sim.clock,0.7054755387645069,0.8081895356079589,0.08580304792687811,0.13519059092021493,1.7346587132195588
avrora.sim.mcu,0.0,0.13476399107077802,0.0,0.017953794641406215,0.15271778571218425
avrora.sim.radio,0.0,0.0,0.0,0.0,0.0
avrora.sim.state,0.0,0.0,0.0,0.0,0.0
avrora.sim.util,0.0,0.05723066666784385,0.0,0.008310000002287172,0.06554066667013102
cck.help,0.0,0.0,0.0,0.0,0.0
cck.text,0.0,0.0,0.0,0.0,0.0
javassist.bytecode,0.0,0.006544333332890851,0.0,0.0011650000006840045,0.007709333333574855
org.dacapo.harness,0.5202686817398414,0.6849501944502663,0.060237647215450205,0.11208166667185854,1.3775381900774164
sun.misc,0.0,0.08598310101003123,0.0,0.013093030302446674,0.0990761313124779
sun.net.www.protocol.jar,0.0,0.012557272727031207,0.0,0.0014768181818642073,0.014034090908895415
sun.nio.cs,0.0,0.0,0.0,0.0,0.0
sun.security.util,0.0,0.0,0.0,0.0,0.0
