method,package1,package2,dram1,dram2,energy
avrora.arch.legacy,0.16298082725896332,0.0,0.024109363633496375,0.0,0.1870901908924597
avrora.sim,0.07250966666227518,0.10136839574867584,0.00962499999877764,0.01854668725355362,0.2020497496632823
avrora.sim.clock,1.4402004824848118,0.3638175418104944,0.1982499885869924,0.05741429740728242,2.059682310289581
avrora.sim.mcu,0.0,0.0,0.0,0.0,0.0
avrora.sim.platform,0.0,0.0,0.0,0.0,0.0
avrora.sim.radio,0.0,0.0,0.0,0.0,0.0
avrora.sim.util,0.0,0.0,0.0,0.0,0.0
avrora.syntax.elf,0.0,0.0,0.0,0.0,0.0
cck.elf,0.0,0.1532988744542911,0.0,0.024029459970094643,0.17732833442438575
cck.text,0.0,0.0,0.0,0.0,0.0
chappie,0.0,0.042655968315805634,0.0,0.008027060059097918,0.05068302837490355
javassist,0.0,0.0,0.0,0.0,0.0
javassist.bytecode,0.0,0.18346876250127583,0.0,0.03284221791914469,0.21631098042042052
org.dacapo.harness,0.8020903999769264,0.466824093821505,0.10047075000372083,0.06892521859989796,1.4383104624020502
sun.misc,0.0,0.12216638537673678,0.0,0.01977601580155822,0.141942401178295
sun.net.www.protocol.jar,0.0,0.032483351585328765,0.0,0.0052080310933673895,0.03769138267869616
sun.nio.cs,0.0,0.0,0.0,0.0,0.0
