method,package1,package2,dram1,dram2,energy
ADC$ControlRegister.access$100,0.0,0.0,0.0,0.0,0.0
Arithmetic.lowestBit,0.0,0.0,0.0,0.0,0.0
AtmelInterpreter$IORegBehavior.read,0.0,0.0,0.0,0.0,0.0
AtmelInterpreter.commit,0.05023174999951152,0.0,0.00826500000039232,0.0,0.05849674999990384
AtmelInterpreter.getRegisterByte,0.05741678570796336,0.0,0.009729642858084324,0.0,0.06714642856604769
AtmelInterpreter.getSP,0.0,0.0,0.0,0.0,0.0
AtmelInterpreter.popByte,0.0,0.0,0.0,0.0,0.0
AtmelInterpreter.readSRAM,0.09745729089544206,0.0,0.014873673540354041,0.0,0.1123309644357961
AtmelInterpreter.readVolatile,0.0,0.0,0.0,0.0,0.0
AtmelInterpreter.setSP,0.0,0.0,0.0,0.0,0.0
AtmelInterpreter.writeRegisterByte,0.0,0.04444094083354701,0.0,0.009098610770128959,0.05353955160367597
Benchmark.deleteFile,0.06838347252602972,0.0,0.007967832655798115,0.0,0.07635130518182784
Benchmark.fileFromInputStream,0.30524304320407625,0.0,0.04708530322254528,0.0,0.35232834642662153
CC1000Radio.<init>,0.055251999998290564,0.0,0.008249999998952262,0.0,0.06350199999724282
Chaperone.retire,0.05901217959176376,0.0,0.008747723909055795,0.0,0.06775990350081956
ClassMap.getObjectOfClass,0.041326515154320405,0.0,0.005008181817450377,0.0,0.046334696971770784
ConfigFile.<init>,0.02688843836435176,0.0,0.003900488210367232,0.0,0.030788926574718992
ConstPool.readOne,0.0,0.0,0.0,0.0,0.0
DacapoClassLoader.loadClass,0.09944286667741835,0.0,0.015318000000358248,0.0,0.1147608666777766
DefaultMCU$Pin.printWrite,0.0,0.0,0.0,0.0,0.0
Defaults.addActions,0.0,0.0,0.0,0.0,0.0
DeltaQueue$Link.fire,0.0,0.0,0.0,0.0,0.0
DeltaQueue.advance,0.0,0.0,0.0,0.0,0.0
DeltaQueue.insertEvent,0.0,0.0,0.0,0.0,0.0
DeltaQueue.newEventList,0.03592933333129622,0.0,0.005499999999301508,0.0,0.04142933333059773
DeltaQueue.newLink,0.0,0.0,0.0,0.0,0.0
DeltaQueue.skipAhead,0.0,0.0,0.0,0.0,0.0
ELFParser.read,0.0,0.0,0.0,0.0,0.0
FileURLConnection.getPermission,0.0,0.0,0.0,0.0,0.0
InterruptTable.beforeInvoke,0.0,0.0,0.0,0.0,0.0
Launcher$AppClassLoader.loadClass,0.0,0.0,0.0,0.0,0.0
LegacyArchitecture.getDisassembler,0.07383200000428282,0.0,0.0088550000024649,0.0,0.08268700000674772
LegacyDisassembler.<clinit>,0.0599773333427341,0.0,0.0068899999993542824,0.0,0.06686733334208839
LegacyDisassembler.decode_root0,0.0,0.0,0.0,0.0,0.0
LegacyInstr$CP.accept,0.0,0.0,0.0,0.0,0.0
LegacyInstr$CPI.accept,0.0,0.0,0.0,0.0,0.0
LegacyInstr$INC.accept,0.0,0.0,0.0,0.0,0.0
LegacyInstr$LDS.accept,0.0,0.0,0.0,0.0,0.0
LegacyInstr$NOP.accept,0.0,0.0,0.0,0.0,0.0
LegacyInstr$PUSH.accept,0.0,0.0,0.0,0.0,0.0
LegacyInstr$SEI.accept,0.0,0.0,0.0,0.0,0.0
LegacyInstr.access$900,0.0,0.0,0.0,0.0,0.0
LegacyInterpreter.fastLoop,0.05861420000631672,0.09372483790655918,0.008810500000496782,0.018653568403119904,0.17980310631649257
LegacyInterpreter.runLoop,0.06819666666948856,0.0,0.008660000001934046,0.0,0.07685666667142262
LegacyInterpreter.visit,0.0,0.0,0.0,0.0,0.0
LegacyRegister.getNumber,0.0,0.0,0.0,0.0,0.0
Main.<clinit>,0.08340959217240478,0.0,0.013106842721080696,0.0,0.09651643489348546
MainClock.advance,0.0,0.05623366666623042,0.0,0.011000000001028336,0.06723366666725876
MainClock.skipAhead,0.0,0.0,0.0,0.0,0.0
Medium$BasicArbitrator.mergeTransmissions,0.0,0.0,0.0,0.0,0.0
Medium$Receiver$Ticker.deliverByte,0.0,0.02783577217800857,0.0,0.0054490615420127115,0.033284833720021285
Medium$Receiver.earliestNewTransmission,0.0,0.0,0.0,0.0,0.0
MulticastFSMProbe.fireAfterTransition,0.0,0.0,0.0,0.0,0.0
MulticastFSMProbe.fireBeforeTransition,0.0,0.0,0.0,0.0,0.0
ParseUtil.canonizeString,0.0,0.0,0.0,0.0,0.0
Program.writeByteInto,0.0,0.0,0.0,0.0,0.0
RegisterUtil$BoolView.setValue,0.0,0.0,0.0,0.0,0.0
Resource.getBytes,0.047476121208588164,0.0,0.005759090909453913,0.0,0.05323521211804208
RippleSynchronizer.advance,0.048401000000012566,0.0,0.008253750002040759,0.0,0.056654750002053327
RippleSynchronizer.notifyLink,0.05128650001213166,0.0,0.008443636361665664,0.0,0.05973013637379733
RippleSynchronizer.waitForLink,0.6807159132391183,0.07366539992839786,0.10073771433908525,0.011393771554412863,0.8665127990610143
RippleSynchronizer.waitForNeighbors,0.0903625000064494,0.0,0.01323000000047614,0.0,0.10359250000692553
SPI$SPSReg.clearSPIF,0.0,0.0,0.0,0.0,0.0
SPI$TransferEvent.enableTransfer,0.0,0.0,0.0,0.0,0.0
SPI.receive,0.0,0.0,0.0,0.0,0.0
SensorSimulation.<init>,0.0,0.0,0.0,0.0,0.0
SignatureFileVerifier.<clinit>,0.03036827540806165,0.0,0.00456788153330147,0.0,0.03493615694136312
SimPrinter.printBuffer,0.0972289999917848,0.0,0.016522499998245618,0.0,0.11375149999003042
StreamEncoder.writeBytes,0.0,0.0,0.0,0.0,0.0
StringUtil.justify,0.0,0.0,0.0,0.0,0.0
StringUtil.toFixedFloat,0.0,0.0,0.0,0.0,0.0
TeeOutputStream.write,0.23415905812519677,0.36408321860544923,0.03190242270208981,0.062204304134710356,0.6923490035674461
Terminal.println,0.0,0.0,0.0,0.0,0.0
TestHarness.main,0.0658278132148496,0.0,0.011220860322933415,0.0,0.07704867353778301
TestHarness.rmdir,0.004596647154286318,0.0,0.0008660683195313747,0.0,0.0054627154738176925
Timer8Bit$Mode_CTC.fire,0.0,0.0,0.0,0.0,0.0
Timer8Bit.tickerFinish,0.0,0.0,0.0,0.0,0.0
TransactionalList.isEmpty,0.0,0.0,0.0,0.0,0.0
Utf8Info.<init>,0.016908606055728866,0.0,0.0023640909084034238,0.0,0.01927269696413229
