method,hits
ATMegaFamily$DirectionRegister.write,1
AtmelInterpreter$SREGBehavior.read,1
AtmelInterpreter$SREGBehavior.write,1
AtmelInterpreter.commit,5
AtmelInterpreter.fireBeforeWrite,1
AtmelInterpreter.getRegisterByte,3
AtmelInterpreter.readSRAM,4
AtmelInterpreter.readVolatile,2
AtmelInterpreter.setSP,2
AtmelInterpreter.writeRegisterByte,3
AtmelInterpreter.writeVolatile,1
CC1000Radio$Receiver.nextByte,1
ConstPool.readOne,1
DeltaQueue$Link.fire,2
DeltaQueue.advance,3
DeltaQueue.free,2
DeltaQueue.insertEvent,2
DeltaQueue.newEventList,2
ELFParser.getArchitecture,1
ELFStringTable.getString,1
FiniteStateMachine.transition,1
LegacyInstr$NOP.accept,1
LegacyInstr$POP.accept,2
LegacyInstr$SEI.accept,1
LegacyInstr$SUB.accept,1
LegacyInterpreter.fastLoop,5
LegacyInterpreter.runLoop,4
LegacyInterpreter.sleepLoop,1
LegacyInterpreter.visit,7
LegacyRegister.getNumber,1
LegacyRegister.getRegisterByName,1
Medium$Receiver$Ticker.deliverByte,1
Medium$Receiver.earliestNewTransmission,3
Mica2.addDevices,1
MulticastFSMProbe.fireAfterTransition,2
MulticastFSMProbe.fireBeforeTransition,1
RippleSynchronizer$NotifyEvent.fire,1
RippleSynchronizer.advance,2
RippleSynchronizer.waitFor,1
RippleSynchronizer.waitForLink,2
RippleSynchronizer.waitForNeighbors,12
StringUtil.toHex,1
TransactionalList.isEmpty,1
