method,package1,package2,dram1,dram2,energy
ADC$ControlRegister.convertVoltage,0.0,0.0,0.0,0.0,0.0
ATMega128.installDevices,0.07726210491027842,0.0,0.011202574343276223,0.0,0.08846467925355464
Arithmetic.uword,0.0,0.0,0.0,0.0,0.0
AtmelInterpreter.commit,0.0,0.016262499999963133,0.0,0.0031358333330394486,0.01939833333300258
AtmelInterpreter.fireAfterRead,0.0,0.0,0.0,0.0,0.0
AtmelInterpreter.getRegisterByte,0.0,0.1890459999982947,0.0,0.032020000001163375,0.22106599999945806
AtmelInterpreter.readSRAM,0.0,0.0,0.0,0.0,0.0
AtmelInterpreter.setSP,0.0,0.03627940000005765,0.0,0.007481999999436085,0.04376139999949374
AtmelInterpreter.writeRegisterByte,0.0,0.0,0.0,0.0,0.0
AtmelInterpreter.writeVolatile,0.0,0.0935669999980746,0.0,0.014422500004002359,0.10798950000207695
CC1000Radio$SerialConfigurationInterface$PCLKOutput.write,0.0,0.0,0.0,0.0,0.0
ClassPool.compress,0.0,0.0,0.0,0.0,0.0
ConstPool.readOne,0.0,0.0,0.0,0.0,0.0
DeltaQueue.advance,0.0,0.0,0.0,0.0,0.0
DeltaQueue.free,0.0,0.0,0.0,0.0,0.0
DeltaQueue.insertEvent,0.0,0.0,0.0,0.0,0.0
DeltaQueue.newEventList,0.042947369435215176,0.0,0.005909795092031839,0.0,0.04885716452724702
DeltaQueue.newLink,0.0,0.0,0.0,0.0,0.0
DerivedClock.insertEvent,0.07493816090966893,0.0,0.007156743726392358,0.0,0.08209490463606128
LegacyDisassembler.decode_JMP_0,0.0,0.0,0.0,0.0,0.0
LegacyDisassembler.decode_LDD_0,0.0,0.0,0.0,0.0,0.0
LegacyInstr$PUSH.accept,0.0,0.0,0.0,0.0,0.0
LegacyInstr$SBIW.accept,0.0,0.0,0.0,0.0,0.0
LegacyInterpreter.fastLoop,0.04487101028772241,0.05450949999845357,0.005054923446425248,0.010850000000573344,0.11528543373317457
LegacyInterpreter.runLoop,0.0,0.0,0.0,0.0,0.0
LegacyInterpreter.visit,0.05383079336003284,0.05306999999993423,0.006437565004980189,0.00820124999700056,0.12153960836194783
MainClock.advance,0.0,0.0,0.0,0.0,0.0
Medium$BasicArbitrator.mergeTransmissions,0.0,0.0,0.0,0.0,0.0
Medium$Receiver$Ticker.deliverByte,0.0,0.0,0.0,0.0,0.0
Medium$Receiver.earliestNewTransmission,0.03060208727047432,0.12392141666653816,0.004247088826628798,0.021591250001317043,0.1803618427649583
MulticastFSMProbe.fireBeforeTransition,0.0,0.0,0.0,0.0,0.0
Option$List.parseString,0.0,0.0,0.0,0.0,0.0
ParseUtil.encodePath,0.06527248261093994,0.0,0.010484569644143894,0.0,0.07575705225508383
RippleSynchronizer.advance,0.11436052903024325,0.11820466666540595,0.01577052818629698,0.02342999999867364,0.2717657238806198
RippleSynchronizer.notifyLink,0.0,0.0,0.0,0.0,0.0
RippleSynchronizer.waitForLink,0.0,0.15107674166659613,0.0,0.023960375000327376,0.1750371166669235
RippleSynchronizer.waitForNeighbors,0.0,0.0,0.0,0.0,0.0
SPI$SPDReg.write,0.0,0.09080000000055102,0.0,0.015809999999570813,0.10661000000012183
SPI$TransferEvent.enableTransfer,0.0,0.0,0.0,0.0,0.0
TeeOutputStream.write,0.0,0.0,0.0,0.0,0.0
UTF_8$Encoder.encode,0.0,0.0,0.0,0.0,0.0
Verbose.getPrinter,0.09492564048822223,0.0,0.0118860127401021,0.0,0.10681165322832434
