method,package1,package2,dram1,dram2,energy
AbstractStringBuilder,0.0,0.0,0.0,0.0,0.0
ArrayDeque,0.0,0.0,0.0,0.0,0.0
BufferedInputStream,0.0,0.07521448317332917,0.0,0.010671638359082676,0.08588612153241185
Class,0.0,0.02639689144171473,0.0,0.004762654344335628,0.031159545786050357
ClassLoader,0.0,0.09026829295570005,0.0,0.013414707967732665,0.10368300092343272
DataOutputStream,0.0,0.0,0.0,0.0,0.0
FileOutputStream,0.24037936918435646,0.31656763661654086,0.0326481439624013,0.04997989776090831,0.6395750475242069
Formatter,0.0,0.0,0.0,0.0,0.0
HashMap,0.14772583752532406,0.13038504121958466,0.01669528606706068,0.02060735834832078,0.31541352316029014
Inflater,0.0,0.08394226895010279,0.0,0.012236931555866155,0.09617920050596894
LinkedList,0.0,0.0,0.0,0.0,0.0
Object,0.4383681381191007,0.3606198663050768,0.061794640528448026,0.061353087279372415,0.922135732231998
Pattern,0.0,0.0,0.0,0.0,0.0
PrintStream,0.0,0.0,0.0,0.0,0.0
RandomAccessFile,0.0,0.06108632465813407,0.0,0.009576523051436464,0.07066284770957054
String,0.0,0.007186935352344011,0.0,0.0014545647883350695,0.008641500140679081
UnixFileSystem,0.0,0.04297643440150025,0.0,0.00628166626386564,0.04925810066536589
ZipInputStream,0.0,0.0,0.0,0.0,0.0
