method,hits
AbstractStringBuilder.<init>,1
BufferedInputStream.<init>,1
BufferedInputStream.read,2
Class.getDeclaredConstructors0,1
ClassLoader.defineClass1,3
FileOutputStream.write,124
FileOutputStream.writeBytes,4
HashMap.getNode,11
Inflater.inflateBytes,8
LinkedList$ListItr.<init>,1
LinkedList.linkLast,1
LinkedList.listIterator,2
Object.notifyAll,9
Object.wait,111
OutputStreamWriter.write,1
PrintStream.newLine,1
String.equals,1
UnixFileSystem.delete0,1
UnixFileSystem.list,1
ZipFile.getEntryBytes,1
ZipFile.read,1
