method,package1,package2,dram1,dram2,energy
java.io,0.42208882208474263,0.7190781063641232,0.06185991254128695,0.11366050362536533,1.316687344615518
java.lang,0.16826128439088278,0.3177747600110354,0.02394459375027509,0.052433417242365075,0.5624140553945584
java.util,0.0,0.0,0.0,0.0,0.0
java.util.zip,0.0,0.21749368945585865,0.0,0.03350395711848294,0.2509976465743416
