method,package1,package2,dram1,dram2,energy
Arrays,0.0,0.019126356008890982,0.0,0.0025393098986672296,0.021665665907558213
BufferedInputStream,0.0,0.06526765099380137,0.0,0.009063111995315277,0.07433076298911664
CharacterData,0.0,0.06873265456576957,0.0,0.010282362840040785,0.07901501740581036
Class,0.0,0.0,0.0,0.0,0.0
ClassLoader,0.0,0.13764330914629266,0.0,0.020212288508391737,0.1578555976546844
DataInputStream,0.0,0.0,0.0,0.0,0.0
FileInputStream,0.0,0.0,0.0,0.0,0.0
FileOutputStream,0.08554934595346968,0.9707019890740654,0.009839017855681248,0.1430465072650443,1.2091368601482606
HashMap,0.0,0.06965333999949508,0.0,0.009444600000424543,0.07909793999991963
Hashtable,0.0,0.0,0.0,0.0,0.0
Inflater,0.0,0.2297046595981148,0.0,0.03583279577789495,0.26553745537600976
LinkedList,0.0,0.05582524999993309,0.0,0.008865535714124104,0.06469078571405719
Long,0.0,0.0,0.0,0.0,0.0
Object,0.21006316667868913,0.538475636213224,0.024290000003626726,0.07964505876878442,0.8524738616643242
Pattern,0.0,0.06663162182106011,0.0,0.01005304360405338,0.07668466542511349
PrintStream,0.0,0.0,0.0,0.0,0.0
UnixFileSystem,0.0,0.07905444681783558,0.0,0.012720264831647942,0.09177471164948352
ZipFile,0.0,0.0,0.0,0.0,0.0
