method,package1,package2,dram1,dram2,energy
ATMegaFamily$PortRegister.write|AtmelInterpreter$IORegBehavior.write|AtmelInterpreter.writeVolatile,0.0,0.0,0.0,0.0,0.0
AbstractStringBuilder.ensureCapacityInternal|AbstractStringBuilder.append|StringBuffer.append,0.0,0.0,0.0,0.0,0.0
AccessController.doPrivileged|URLClassLoader.findClass|DacapoClassLoader.loadClass,0.03604809808095464,0.0,0.005455722586722455,0.0,0.04150382066767709
Arithmetic.getBit|SPI$SPCRReg.decode|SPI$SPCRReg.write,0.0,0.0,0.0,0.0,0.0
Arithmetic.setBit|InterruptTable.post|AtmelInterpreter.setPosted,0.0,0.0,0.0,0.0,0.0
Arithmetic.uword|AtmelInterpreter.getRegisterWord|LegacyInterpreter.visit,0.0,0.0,0.0,0.0,0.0
Arithmetic.uword|AtmelInterpreter.getSP|AtmelInterpreter.pushByte,0.0,0.0,0.0,0.0,0.0
Arrays.copyOf|ArrayList.grow|ArrayList.ensureExplicitCapacity,0.0,0.0,0.0,0.0,0.0
AtmelInterpreter$IORegBehavior.read|AtmelInterpreter.readVolatile|AtmelInterpreter.readSRAM,0.0,0.0,0.0,0.0,0.0
AtmelInterpreter$SREGBehavior.read|AtmelInterpreter.readVolatile|AtmelInterpreter.readSRAM,0.0,0.0,0.0,0.0,0.0
AtmelInterpreter.commit|LegacyInterpreter.fastLoop|LegacyInterpreter.runLoop,0.0,0.0,0.0,0.0,0.0
AtmelInterpreter.fireBeforeRead|AtmelInterpreter.readSRAM|AtmelInterpreter.setIORegBit,0.043640006599416005,0.0,0.005587231982875471,0.0,0.04922723858229148
AtmelInterpreter.getRegisterByte|AtmelInterpreter.getRegisterWord|LegacyInterpreter.visit,0.0,0.016418444444247546,0.0,0.00370166666754004,0.020120111111787586
AtmelInterpreter.getRegisterByte|LegacyInterpreter.visit|LegacyInstr$CPI.accept,0.0,0.0,0.0,0.0,0.0
AtmelInterpreter.getRegisterByte|LegacyInterpreter.visit|LegacyInstr$PUSH.accept,0.04872668081020184,0.11126700000022538,0.007865553398838359,0.01643999999942025,0.18429923420868582
AtmelInterpreter.popByte|LegacyInterpreter.visit|LegacyInstr$POP.accept,0.0,0.0,0.0,0.0,0.0
AtmelInterpreter.readSRAM|AtmelInterpreter.getDataByte|AtmelInterpreter.popByte,0.0,0.0,0.0,0.0,0.0
AtmelInterpreter.readVolatile|AtmelInterpreter.readSRAM|AtmelInterpreter.getIORegisterByte,0.0,0.02717574999951466,0.0,0.004095000000233996,0.03127074999974866
AtmelInterpreter.setSP|AtmelInterpreter.popByte|LegacyInterpreter.visit,0.0,0.0,0.0,0.0,0.0
AtmelInterpreter.toSRAM|AtmelInterpreter.getIORegisterByte|LegacyInterpreter.visit,0.0,0.0,0.0,0.0,0.0
AtmelInterpreter.writeRegisterByte|LegacyInterpreter.visit|LegacyInstr$LDI.accept,0.0,0.0,0.0,0.0,0.0
AtmelInterpreter.writeRegisterByte|LegacyInterpreter.visit|LegacyInstr$LSR.accept,0.0,0.132965000000695,0.0,0.0207525000005262,0.1537175000012212
AtmelInterpreter.writeRegisterByte|LegacyInterpreter.visit|LegacyInstr$POP.accept,0.0,0.0,0.0,0.0,0.0
AtmelInterpreter.writeSRAM|AtmelInterpreter.setIORegBit|LegacyInterpreter.visit,0.0,0.0,0.0,0.0,0.0
AtmelInterpreter.writeVolatile|AtmelInterpreter.writeSRAM|AtmelInterpreter.writeIORegisterByte,0.0,0.0,0.0,0.0,0.0
Benchmark.initialize|Benchmark.<init>|Benchmark.<init>,0.0,0.0,0.0,0.0,0.0
Buffer.hasRemaining|StreamEncoder.implWrite|StreamEncoder.write,0.0,0.0,0.0,0.0,0.0
BufferedInputStream.read|DataInputStream.readInt|AttributeInfo.<init>,0.0,0.0,0.0,0.0,0.0
BufferedWriter.write|Writer.write|BufferedWriter.newLine,0.0,0.0,0.0,0.0,0.0
ByteBuffer.array|StreamEncoder.writeBytes|StreamEncoder.implFlushBuffer,0.0,0.0,0.0,0.0,0.0
CC1000Radio$PA_POWRegister.decode|CC1000Radio$RadioRegister.write|CC1000Radio$SerialConfigurationInterface.clockInBit,0.0,0.0,0.0,0.0,0.0
CC1000Radio$Receiver.nextByte|Medium$Receiver$Ticker.deliverByte|Medium$Receiver$Ticker.fireLocked,0.0,0.0,0.0,0.0,0.0
CC1000Radio$SerialConfigurationInterface.clockInBit|CC1000Radio$SerialConfigurationInterface.access$200|CC1000Radio$SerialConfigurationInterface$PCLKOutput.write,0.036010796987402664,0.0,0.004868011561108658,0.0,0.04087880854851132
Class.forName0|Class.forName|Avrora.<init>,0.0,0.0,0.0,0.0,0.0
Class.getDeclaredConstructors0|Class.privateGetDeclaredConstructors|Class.getConstructor0,0.03224867077577788,0.0,0.00544175731450205,0.0,0.03769042809027993
ClassLoader.defineClass1|ClassLoader.defineClass|SecureClassLoader.defineClass,0.1067079613028894,0.0,0.018700805858378883,0.0,0.12540876716126828
ClassLoader.findLoadedClass0|ClassLoader.findLoadedClass|DacapoClassLoader.loadClass,0.0,0.0,0.0,0.0,0.0
DeltaQueue$Link.add|DeltaQueue.newLink|DeltaQueue.insertAfter,0.0,0.0,0.0,0.0,0.0
DeltaQueue.advance|MainClock.advance|AtmelInterpreter.commit,0.0,0.0,0.0,0.0,0.0
DeltaQueue.insertEvent|MainClock.insertEvent|Medium$Receiver$Ticker.fireUnlocked,0.0,0.0,0.0,0.0,0.0
DeltaQueue.newEventList|DeltaQueue.access$000|DeltaQueue$Link.add,0.0,0.0,0.0,0.0,0.0
DeltaQueue.newLink|DeltaQueue.insertAfter|DeltaQueue.insertEvent,0.0,0.0,0.0,0.0,0.0
DerivedClock.insertEvent|Timer8Bit.tickerFinish|Timer8Bit.access$100,0.0,0.0,0.0,0.0,0.0
FileOutputStream.open0|FileOutputStream.open|FileOutputStream.<init>,0.07289656956341703,0.0,0.011797267850107871,0.0,0.0846938374135249
FileOutputStream.writeBytes|FileOutputStream.write|BufferedOutputStream.flushBuffer,0.0,0.0,0.0,0.0,0.0
FileOutputStream.writeBytes|FileOutputStream.write|BufferedOutputStream.write,0.055475969080491884,0.0,0.009215070721946191,0.0,0.06469103980243808
FileOutputStream.write|FileOutputStream.write|TeeOutputStream.write,0.4325663736982156,0.7680295608184868,0.06483979142625743,0.12686230356816003,1.39229802951112
FiniteStateMachine.fireAfter|FiniteStateMachine.transition|AtmelMicrocontroller.wakeup,0.0,0.0,0.0,0.0,0.0
HashMap.getNode|HashMap.get|RippleSynchronizer.waitForNeighbors,0.05059099944435004,0.05113224999968224,0.008060770294010103,0.006172499997774139,0.11595651973581651
HelpCategory.<clinit>|Defaults.addActions|Defaults.getAction,0.003533955620691197,0.0,0.0006000974377807628,0.0,0.004134053058471959
Inflater.inflateBytes|Inflater.inflate|InflaterInputStream.read,0.1202551510263644,0.0,0.02090291639411833,0.0,0.14115806742048273
InterruptTable.disableAll|AtmelInterpreter.disableInterrupts|AtmelInterpreter$SREGBehavior.write,0.0,0.034973250000803084,0.0,0.0061649999997825935,0.04113825000058568
LegacyDisassembler.decode_NOP_0|LegacyDisassembler.decode_30|LegacyDisassembler.decode_31,0.042914713505973416,0.0,0.0053217250709352544,0.0,0.04823643857690867
LegacyInterpreter.fastLoop|LegacyInterpreter.runLoop|AtmelInterpreter.start,0.0,0.11047594074116206,0.0,0.020960555555993104,0.13143649629715515
LegacyInterpreter.runLoop|AtmelInterpreter.start|Simulator.start,0.029585847688828368,0.0,0.0046144120979451685,0.0,0.03420025978677354
LegacyInterpreter.sleepLoop|LegacyInterpreter.runLoop|AtmelInterpreter.start,0.0,0.0,0.0,0.0,0.0
LegacyInterpreter.visit|LegacyInstr$BRNE.accept|LegacyInterpreter.fastLoop,0.0,0.0,0.0,0.0,0.0
LegacyInterpreter.visit|LegacyInstr$CP.accept|LegacyInterpreter.fastLoop,0.0,0.0,0.0,0.0,0.0
LegacyInterpreter.visit|LegacyInstr$CPSE.accept|LegacyInterpreter.fastLoop,0.0,0.0,0.0,0.0,0.0
LegacyInterpreter.visit|LegacyInstr$NOP.accept|LegacyInterpreter.fastLoop,0.0,0.0,0.0,0.0,0.0
LegacyInterpreter.visit|LegacyInstr$POP.accept|LegacyInterpreter.fastLoop,0.0,0.0,0.0,0.0,0.0
LegacyInterpreter.visit|LegacyInstr$RETI.accept|LegacyInterpreter.fastLoop,0.0,0.10170288333392817,0.0,0.015736750000481452,0.11743963333440963
LegacyInterpreter.visit|LegacyInstr$SBCI.accept|LegacyInterpreter.fastLoop,0.0,0.0,0.0,0.0,0.0
LegacyInterpreter.visit|LegacyInstr$SUBI.accept|LegacyInterpreter.fastLoop,0.0,0.0,0.0,0.0,0.0
LegacyRegister.getNumber|AtmelInterpreter.getRegisterByte|LegacyInterpreter.visit,0.0,0.0,0.0,0.0,0.0
LegacyRegister.getNumber|AtmelInterpreter.writeRegisterByte|LegacyInterpreter.visit,0.0,0.0,0.0,0.0,0.0
LinkedList$ListItr.checkForComodification|LinkedList$ListItr.next|Medium$Receiver$Ticker.deliverByte,0.0,0.0,0.0,0.0,0.0
LinkedList$ListItr.next|Medium$Receiver.getIntersection|Medium$Receiver.access$200,0.07441607119695481,0.0,0.011997128173855379,0.0,0.0864131993708102
Long.toString|StringUtil.justify|SimUtil.toIDTimeString,0.0,0.0,0.0,0.0,0.0
MainClock.advance|AtmelInterpreter.commit|LegacyInterpreter.fastLoop,0.0,0.02497918518525289,0.0,0.004249999999754234,0.029229185185007125
Medium$Receiver$Ticker.deliverByte|Medium$Receiver$Ticker.fireLocked|Medium$Receiver$Ticker.fire,0.0,0.07348019999953975,0.0,0.010152000001107808,0.08363220000064756
Medium$Receiver$Ticker.deliverByte|Medium$Receiver$Ticker.fireUnlocked|Medium$Receiver$Ticker.fire,0.0,0.0,0.0,0.0,0.0
Medium$Receiver$Ticker.fire|DeltaQueue$Link.fire|DeltaQueue.skipAhead,0.0,0.0,0.0,0.0,0.0
Medium$Receiver.earliestNewTransmission|Medium$Receiver.access$100|Medium$Receiver$Ticker.fireUnlocked,0.0,0.0,0.0,0.0,0.0
Medium$Receiver.getIntersection|Medium$Receiver.access$200|Medium$Receiver$Ticker.deliverByte,0.0,0.03770949999974012,0.0,0.007039999999202943,0.04474949999894306
Medium.access$300|Medium$Receiver$Ticker.deliverByte|Medium$Receiver$Ticker.fireLocked,0.0,0.0,0.0,0.0,0.0
MulticastFSMProbe.fireBeforeTransition|FiniteStateMachine.fireBefore|FiniteStateMachine.transition,0.0,0.0,0.0,0.0,0.0
Object.<init>|DeltaQueue$EventList.<init>|DeltaQueue.newEventList,0.0,0.0,0.0,0.0,0.0
Object.notifyAll|RippleSynchronizer.notifyLink|RippleSynchronizer.advance,0.0,0.0,0.0,0.0,0.0
Object.wait|Object.wait|RippleSynchronizer.waitForLink,0.47635898904543317,0.7608437397202372,0.0726659066465584,0.11896321428380892,1.4288318496960377
Option$List.parseString|Option$List.<init>|Options.newOptionList,0.0062342300510666035,0.0,0.0008921435333582783,0.0,0.007126373584424882
PacketMonitor$Mon.append|PacketMonitor$Mon.fireAfterReceive|Medium$Probe$List.fireAfterReceive,0.0,0.0,0.0,0.0,0.0
PacketMonitor$Mon.clear|PacketMonitor$Mon.fireAfterReceiveEnd|Medium$Probe$List.fireAfterReceiveEnd,0.0,0.0,0.0,0.0,0.0
PrintStream.write|StreamEncoder.writeBytes|StreamEncoder.implFlushBuffer,0.0,0.0,0.0,0.0,0.0
RippleSynchronizer$NotifyEvent.currentWaitLink|RippleSynchronizer$NotifyEvent.access$100|RippleSynchronizer.waitForNeighbors,0.0,0.0,0.0,0.0,0.0
RippleSynchronizer$NotifyEvent.fire|DeltaQueue$Link.fire|DeltaQueue.skipAhead,0.0,0.0,0.0,0.0,0.0
RippleSynchronizer.advance|RippleSynchronizer.waitForNeighbors|Medium$Receiver.waitForNeighbors,0.0,0.0,0.0,0.0,0.0
RippleSynchronizer.notifyLink|RippleSynchronizer.advance|RippleSynchronizer.waitForNeighbors,0.0,0.0,0.0,0.0,0.0
RippleSynchronizer.waitForLink|RippleSynchronizer.waitFor|RippleSynchronizer.waitForNeighbors,0.0,0.0,0.0,0.0,0.0
RippleSynchronizer.waitForNeighbors|Medium$Receiver.waitForNeighbors|Medium$Receiver.access$000,0.0,0.0,0.0,0.0,0.0
SPI$SPCRReg.write|AtmelInterpreter$IORegBehavior.write|AtmelInterpreter.writeVolatile,0.0,0.0,0.0,0.0,0.0
SPI.receive|SPI.exchange|CC1000Radio$SPITicker.fire,0.0,0.0,0.0,0.0,0.0
SimPrinter.printBuffer|PacketMonitor$Mon.fireAfterReceiveEnd|Medium$Probe$List.fireAfterReceiveEnd,0.0,0.0,0.0,0.0,0.0
String.getChars|BufferedWriter.write|Writer.write,0.0,0.0,0.0,0.0,0.0
Terminal.println|SimPrinter.printBuffer|LEDMonitor$Mon.fireAfterTransition,0.0,0.0,0.0,0.0,0.0
ThreadCoreMapInjector.transform|TransformerManager.transform|InstrumentationImpl.transform,0.09032721151997944,0.0,0.01516624014698512,0.0,0.10549345166696456
Timer8Bit.tickerStart|Timer8Bit.access$000|Timer8Bit$Mode_CTC.fire,0.0,0.0,0.0,0.0,0.0
UTF_8$Encoder.encodeArrayLoop|UTF_8$Encoder.encodeLoop|CharsetEncoder.encode,0.0,0.0,0.0,0.0,0.0
UnixFileSystem.delete0|UnixFileSystem.delete|File.delete,0.07777541047541686,0.0,0.01217964972658892,0.0,0.08995506020200578
ZipFile.getEntry|ZipFile.getEntry|JarFile.getEntry,0.0,0.0,0.0,0.0,0.0
ZipUtils.get16|ZipInputStream.readLOC|ZipInputStream.getNextEntry,0.006884233263478781,0.0,0.0010341177324533985,0.0,0.00791835099593218
