method,package1,package2,dram1,dram2,energy
ANTLRStringStream,0.027405140047716502,0.0,0.003396176132028768,0.0,0.03080131617974527
AnnotationReader,0.043078370179596585,0.0,0.0049615703316954795,0.0,0.04803994051129207
ArgParser,0.0941379917736254,0.0,0.006969178579721234,0.0,0.10110717035334664
Arithmetic$py,2.104895880267208,0.0,0.18837775058407522,0.0,2.2932736308512833
AttributeInfo,0.06697911552437769,0.0,0.005985604737665568,0.0,0.07296472026204326
BaseParser,0.5435842357934603,0.0,0.06108718592714352,0.0,0.6046714217206037
Benchmark,2.3600132457825023,0.0,0.20772598238680226,0.0,2.5677392281693043
BuiltinFunctions,0.05461350860645844,0.0,0.009195787013521944,0.0,0.06380929561998039
BytecodeLoader,0.13066510986186386,0.0,0.015789621712644718,0.0,0.14645473157450858
BytecodeLoader$Loader,0.10388673787774948,0.0,0.012997081148824969,0.0,0.11688381902657445
CachedJarsPackageManager,9.3690859481588,0.0,0.7602813111478444,0.0,10.129367259306644
Calls$py,0.2629656424101081,0.0709840000005594,0.028670377844402302,0.01231999999981781,0.3749400202548876
ClassFile,0.08249571397683508,0.0,0.012532096643640623,0.0,0.0950278106204757
ClassInfo,0.0373090039471202,0.0,0.0035993345840434955,0.0,0.0409083385311637
ClassWriter,0.05987235381524528,0.0,0.006863611228601121,0.0,0.06673596504384639
ClassicPyObjectAdapter$9,0.05850044516484041,0.0,0.003883606592892012,0.0,0.06238405175773242
CodeAttribute,0.03848291089932462,0.0,0.004115502891870662,0.0,0.04259841379119528
CodeCompiler,0.10599390070634357,0.0,0.01525085094610284,0.0,0.12124475165244641
CommonTokenStream,0.12202943959973639,0.0,0.013623640094703751,0.0,0.13565307969444013
CompilerFlags,0.08593544603566274,0.0,0.009487089895689006,0.0,0.09542253593135175
ConfigFile,0.06455499999962436,0.0,0.004719999999603411,0.0,0.06927499999922777
Constructs$py,0.7444807469346832,0.0,0.0684069689316015,0.0,0.8128877158662847
CtClassType,0.05837907407516873,0.0,0.007113888888717931,0.0,0.06549296296388665
DFA,0.07984113783768493,0.0,0.008448511130967125,0.0,0.08828964896865205
DacapoClassLoader,0.7490232254104061,0.0,0.06740553519259143,0.0,0.8164287606029975
Dict$py,0.9719141823512456,0.0,0.09378759518286725,0.0,1.0657017775341129
Errno,0.0468041819920781,0.0,0.0049140461223597465,0.0,0.051718228114437846
ExceptionTable,0.05685644864445826,0.0,0.004350651870660469,0.0,0.06120710051511873
Exceptions$py,0.37373737504709426,0.0,0.04154001786222229,0.0,0.41527739290931653
Exec$PyExposer,0.12115958225993385,0.0,0.011033801744999596,0.0,0.13219338400493344
FloatingDecimal,0.635268038632468,0.0,0.08241844027763563,0.0,0.7176864789101036
Generic,0.06123716530450962,0.0,0.010578687812199958,0.0,0.07181585311670959
Global$PyExposer,0.05270656141570118,0.0,0.003385365863999673,0.0,0.05609192727970085
GrammarActions,0.14539646754429594,0.0,0.015712422671048117,0.0,0.16110889021534405
If$PyExposer,0.027765476005403557,0.0,0.003185878851290228,0.0,0.030951354856693786
IfExp$PyExposer,0.0618308193922687,0.0,0.004155980411318732,0.0,0.06598679980358743
ImportFunction,0.27475880890099114,0.0,0.036908815660778575,0.0,0.3116676245617697
Launcher$AppClassLoader,0.042385077061786,0.0,0.0037038739685914365,0.0,0.04608895103037744
Lists$py,0.45964985812694703,0.0,0.04890909501246303,0.0,0.50855895313941
Lookups$py,1.1530236653835213,0.14870188888421076,0.06791555865278341,0.024810000000798027,1.3944511129213133
MemberrefInfo,0.0490535929428571,0.0,0.0054977707383006575,0.0,0.054551363681157754
MetaIndex,0.0452149496486132,0.0,0.0047884319962000245,0.0,0.05000338164481323
MethodInfo,0.0,0.0,0.0,0.0,0.0
MethodWriter,0.050872464376419915,0.0,0.0032525172758205365,0.0,0.05412498165224045
Module,0.03581560546134962,0.0,0.00429135155501301,0.0,0.04010695701636263
Native,0.13058180985619328,0.0,0.012604242110611216,0.0,0.1431860519668045
NativeLibrary,0.1289033748610123,0.0,0.012106711396289598,0.0,0.1410100862573019
NativeMethodAccessorImpl,0.02926907325037695,0.0,0.003741910256320242,0.0,0.03301098350669719
NotFoundException,0.07761148706496176,0.0,0.006329417388111385,0.0,0.08394090445307315
Numbers$py,0.0,0.8307317333405888,0.0,0.06823966666739174,0.8989714000079806
PackageManager,5.774493623349042,0.0,0.519452030880727,0.0,6.293945654229769
ProxyMaker,0.04671089700037991,0.0,0.0039912880823887095,0.0,0.05070218508276862
Py,0.21706258574836235,0.047922111115702944,0.029852052721351593,0.0037620000001172423,0.2985987495855341
PyArray$PyExposer,0.05850044516484041,0.0,0.003883606592892012,0.0,0.06238405175773242
PyBaseCode,0.15559891164837056,0.0,0.018039863923544588,0.0,0.17363877557191515
PyBuiltinCallable$PyExposer,0.016169927535963285,0.0,0.001261956521889458,0.0,0.01743188405785274
PyDictionary,0.7341795489332439,0.0,0.07733959157852006,0.0,0.811519140511764
PyException,3.7619918009551623,0.0,0.472222852660139,0.0,4.234214653615301
PyFloat,0.09352253295378199,0.0,0.014610944357601591,0.0,0.10813347731138358
PyFrame,1.1602606428312596,0.11708600000323108,0.13863648222881697,0.006900000000314321,1.4228831250636218
PyInstance,0.057235783602772164,0.0,0.004495951434133967,0.0,0.061731735036906134
PyInteger,0.16748546079147475,0.05196133332598644,0.014926949475742288,0.005510000000261546,0.239883743593465
PyJavaPackage,0.031231999998756994,0.0,0.003035555555942227,0.0,0.03426755555469922
PyJavaType,0.07357909970460641,0.0,0.004887188223077927,0.0,0.07846628792768434
PyList,0.8015456764647546,0.0,0.0854121548579253,0.0,0.8869578313226799
PyList$list_insert_exposer,0.0,0.007547999994130804,0.0,0.0013600000008106385,0.008907999994941443
PyLong,0.1607617856507889,0.11153133333815884,0.01367820743957732,0.009490000000975366,0.29546132642950046
PyLong$PyExposer,0.0500361052627181,0.0,0.0061976315785917295,0.0,0.056233736841309834
PyMethodDescr,0.0847709121520486,0.0,0.00905692349662025,0.0,0.09382783564866885
PyObject,0.49423781416551016,0.4907177777773338,0.053620310708828084,0.037661333333704125,1.076237235985376
PyObject$object___setattr___exposer,0.07961012500163632,0.0,0.010543749999972835,0.0,0.09015387500160915
PyObjectDerived,0.15573133333540073,0.0,0.015452499999052328,0.0,0.17118383333445306
PyProperty$PyExposer,0.03588629629693632,0.0,0.004511111111006122,0.0,0.04039740740794244
PySequence,0.41905251922501324,0.0,0.03906715590470844,0.0,0.4581196751297217
PySequence$1,0.12256652518623508,0.0,0.01761323136386789,0.0,0.14017975655010298
PySlice,0.04233132525757045,0.0,0.007274478298020844,0.0,0.04960580355559129
PyString,2.71827920894129,0.2627561333181802,0.29181275639588206,0.02530799999804003,3.298156098653392
PyString$str_isupper_exposer,0.05663518469900774,0.0,0.005269926882787283,0.0,0.06190511158179502
PyString$str_title_exposer,0.059974088056237836,0.0,0.004180309069714274,0.0,0.06415439712595211
PyStringMap,1.384751497452956,0.043802999998054766,0.14244587288466015,0.005014999999427042,1.5760153703350979
PySuper,0.04349314814909897,0.0,0.005288888889346574,0.0,0.048782037038445546
PyTableCode,0.2267951026283604,0.0,0.03891856454706777,0.0,0.26571366717542816
PyTimeTuple$PyExposer,0.037188519217553284,0.0,0.0054498438971057475,0.0,0.04263836311465903
PyTuple,0.27485784825590553,0.0,0.0367506596203178,0.0,0.31160850787622335
PyType,1.217512825589855,0.0,0.13341537922834612,0.0,1.3509282048182012
PyUnicode,0.3895231268508462,0.20853666668214524,0.06569722465408571,0.0324399999990419,0.696197018186119
PyUnicode$unicode_isdigit_exposer,0.07082581958631565,0.0,0.007860394480764641,0.0,0.07868621406708029
PyUnicode$unicode_upper_exposer,0.04167612481033957,0.0,0.007628885786623297,0.0,0.049305010596962864
PythonLexer,0.061211849259356674,0.0,0.0036530187350828493,0.0,0.06486486799443952
PythonParser,0.7883494195057319,0.0,0.08924759301071286,0.0,0.8775970125164447
PythonParser$DFA51,0.027405140047716502,0.0,0.003396176132028768,0.0,0.03080131617974527
PythonTokenSource,0.0,0.0,0.0,0.0,0.0
PythonTree,0.02431243798896695,0.0,0.002627885080902237,0.0,0.026940323069869185
PythonTreeAdaptor,0.02431243798896695,0.0,0.002627885080902237,0.0,0.026940323069869185
Resource,0.4110608230048775,0.0,0.03949982327686251,0.0,0.45056064628174003
RewriteRuleElementStream,0.3081057971386252,0.0,0.03866909017724241,0.0,0.3467748873158676
ScopeInfo,0.03274964979529158,0.0,0.0030207845783833376,0.0,0.03577043437367492
SequenceIndexDelegate,0.12247938015951831,0.0,0.014620351612186715,0.0,0.13709973177170504
SignatureFileVerifier,0.020594333333671482,0.0,0.0022337500001109825,0.0,0.022828083333782466
SignatureParser,0.10136480072703502,0.0,0.012972047150209585,0.0,0.1143368478772446
StringFormatter,0.06330738542161644,0.0,0.008030166080630041,0.0,0.07133755150224648
Strings$py,0.5356824905590212,3.79704559998742,0.07069217920147045,0.22272299999919298,4.6261432697471045
SyspathJavaLoader,0.1319450650478216,0.0,0.01909340405642274,0.0,0.15103846910424434
TestHarness,0.06455499999962436,0.0,0.004719999999603411,0.0,0.06927499999922777
ThreadStateMapping,0.09608746713267502,0.12889673332619064,0.009091114850150208,0.009078666665866167,0.24315398197488203
Time,0.07609048234183871,0.0,0.00973927740636914,0.0,0.08582975974820785
TryExcept$PyExposer,0.0484038869992073,0.0,0.002324033263572845,0.0,0.05072792026278015
Tuples$py,0.5015767568793345,0.0,0.063491130185898,0.0,0.5650678870652325
URLClassPath,0.04224260460533784,0.0,0.003914930240161453,0.0,0.04615753484549929
URLClassPath$JarLoader,0.19707038995622606,0.0,0.027106861603097027,0.0,0.22417725155932308
UTF_8$Encoder,0.03763324030615575,0.0,0.003583206061565953,0.0,0.041216446367721704
Unicode$py,0.49647812841066696,0.7876626666906908,0.05646820312845477,0.05324200000104612,1.3938509982308587
UniversalIOWrapper,0.08015516646348916,0.0,0.008825858509474541,0.0,0.0889810249729637
Utf8Info,0.11947733831898943,0.0,0.012150620294166952,0.0,0.13162795861315638
Version,0.06926954354584222,0.0,0.008025357307155105,0.0,0.07729490085299733
__builtin__,0.14088046400253673,0.0,0.018772758899013146,0.0,0.15965322290154987
_pyx1,0.04231498179443336,0.0,0.007946360521538975,0.0,0.05026134231597233
bisect$py,0.10239808377074217,0.0,0.010952495881869962,0.0,0.11335057965261212
imp,0.2838414925476436,0.0,0.03676987131379467,0.0,0.3206113638614383
unicodedata$py,0.36256198051267563,0.0,0.049939700014835525,0.0,0.4125016805275111
