method,hits
ASCIICaseInsensitiveComparator.compare,2
AnnotationParser.parseSig,2
Arithmetic$py.test$11,10
Arithmetic$py.test$14,24
Arithmetic$py.test$2,36
Arithmetic$py.test$5,48
Arithmetic$py.test$8,32
AttributeInfo.<init>,4
BaseParser$PyLexer.nextToken,2
BaseParser.setupParser,24
BaseTreeAdaptor.nil,2
BaseTypeBuilder.getDict,4
Benchmark.deleteTree,12
Benchmark.fileFromInputStream,134
Benchmark.unpackZipStream,4
BreakIteratorProviderImpl.getBreakInstance,2
ByteVector.putUTF8,2
BytecodeLoader$Loader.loadClassFromBytes,2
BytecodeLoader.makeCode,6
CachedJarsPackageManager.addZipEntry,6
CachedJarsPackageManager.getZipPackages,218
Calls$py.f$28,2
Calls$py.test$13,2
Calls$py.test$16,6
Calls$py.test$2,6
Chaperone.retire,1
ClassFile.addMethod,2
ClassInfo.<init>,2
ClassPool.makeClass,4
ClassReader.accept,4
ClassWriter.visitMethod,2
CodeAttribute.<init>,2
CommonTokenStream.LT,4
CommonTokenStream.consume,2
CommonTokenStream.toString,2
Compare.<clinit>,2
CompilerFlags.<init>,2
ConfigFileTokenManager.getNextToken,2
ConstPool.readOne,2
Constructs$py.test$2,20
Constructs$py.test$5,4
Constructs$py.test$8,8
DFA.unpackEncodedString,2
DacapoClassLoader.loadClass,50
Dict$py.test$11,4
Dict$py.test$14,10
Dict$py.test$2,14
Dict$py.test$5,8
Dict$py.test$8,6
Exceptions$py.test$2,4
Exceptions$py.test$5,2
FileURLConnection.getPermission,2
FloatingDecimal$BinaryToASCIIBuffer.estimateDecExp,2
FloatingDecimal.readJavaFormatString,8
Frame.b,2
Future.<init>,2
Generic.concurrentMap,2
Generic.list,6
GrammarActions.makeFuncdef,2
Handler.parseContextSpec,2
Handler.parseURL,2
ISO_8859_1$Encoder.encode,2
If.traverse,2
IfExp$PyExposer.<init>,2
ImportFunction.__call__,2
Imports$py.test$5,2
Jython.<init>,2
Launcher$AppClassLoader.loadClass,6
Lists$py.test$2,26
Lists$py.test$8,10
LocaleData$1.run,2
LocaleResources.getDecimalFormatSymbolsData,2
Lookups$py.test$12,10
Lookups$py.test$17,6
Lookups$py.test$2,14
Lookups$py.test$22,4
Lookups$py.test$7,14
MethodInfo.read,2
Module.PyCode,2
NewInstances$py.test$3,4
NotFoundException.<init>,2
Numbers$py.test$2,14
Numbers$py.test$5,10
Numbers$py.test$8,6
PackageManager.checkAccess,442
ParserFacade.matchEncoding,2
ProxyMaker.getArgs,2
Py.getThreadState,4
Py.newCode,2
Py.newInteger,2
Py.newString,2
Py.recursiveIsInstance,2
Py.unpackSequence,4
PyBaseCode.call,2
PyBaseString.<init>,2
PyComplex$PyExposer.<init>,2
PyComplex.canCoerce,2
PyDictionary$PyExposer.<init>,2
PyDictionary.<init>,4
PyDictionary.__finditem__,4
PyDictionary.dict___delitem__,4
PyDictionary.dict___setitem__,12
PyException.fillInStackTrace,102
PyException.match,2
PyFile$PyExposer.<init>,2
PyFloat$PyExposer.<init>,2
PyFloat.__cmp__,2
PyFloat.coerce,2
PyFloat.float___hash__,2
PyFrame.<init>,6
PyFrame.doGetglobal,2
PyFrame.getglobal,6
PyFrame.getlocal,16
PyFrame.setline,10
PyFrame.setlocal,4
PyFrame.setupEnv,2
PyFrozenSet$frozenset___ne___exposer.<init>,2
PyFunction.__call__,2
PyInstance.__findattr_ex__,6
PyInteger.canCoerce,2
PyInteger.coerce,2
PyInteger.divide,2
PyInteger.getValue,2
PyInteger.int___div__,2
PyJavaType.handleSuperMethodArgCollisions,2
PyJavaType.init,6
PyList$PyExposer.<init>,2
PyList$list_append_exposer.bind,2
PyList.<init>,4
PyList.getslice,4
PyList.list___init__,2
PyList.pyget,4
PyList.setslicePyList,2
PyLong.canCoerce,4
PyLong.divide,4
PyLong.long___add__,2
PyLong.long___cmp__,2
PyMethod$PyExposer.<init>,2
PyObject.<init>,6
PyObject.__call__,2
PyObject.__getattr__,2
PyObject.__getitem__,4
PyObject.__not__,2
PyObject._basic_sub,4
PyObject._div,2
PyObject._eq,2
PyObject._gt,6
PyObject.fastGetDict,2
PyObject.getType,8
PyObject.object___findattr__,4
PyObject.object___setattr__,2
PySequence$1.len,2
PySequence.seq___finditem__,6
PySequence.sliceLength,4
PySet$PyExposer.<init>,2
PySlice$PyExposer.<init>,2
PyString.<init>,2
PyString._isalnum,4
PyString.atoi,14
PyString.splitfields,2
PyString.str___add__,10
PyString.str___eq__,2
PyString.str___ge__,2
PyString.str_isalnum,2
PyString.str_isdigit,2
PyString.str_islower,2
PyString.str_istitle,4
PyString.str_isupper,2
PyString.str_lower,8
PyString.str_title,18
PyString.str_upper,8
PyStringMap.__finditem__,26
PyStringMap.__setitem__,18
PyTableCode.call,4
PyTuple.<init>,2
PyTuple.getslice,10
PyType.fromClass,24
PyType.getDict,2
PyType.lookup,4
PyUnicode$PyExposer.<init>,2
PyUnicode$unicode_isalpha_exposer.__call__,2
PyUnicode$unicode_istitle_exposer.__call__,2
PyUnicode.<init>,2
PyUnicode.fromSubstring,6
PyUnicode.unicode___add__,14
PyUnicode.unicode_new,2
PyXRange.pyget,2
PythonLexer$DFA43.specialStateTransition,2
PythonLexer.mNAME,2
PythonParser.<clinit>,8
PythonParser.<init>,2
PythonParser.atom,4
PythonParser.compound_stmt,2
PythonParser.del_stmt,2
PythonParser.except_clause,2
PythonParser.power,2
PythonParser.simple_stmt,2
PythonParser.trailer,2
PythonTokenSource.handleDedents,2
Resource.getBytes,24
RewriteRuleElementStream.<init>,2
RewriteRuleTokenStream.<init>,2
ScopeInfo.setup_closure,2
SequenceIndexDelegate.checkIdxAndSetItem,2
SequenceIndexDelegate.fixindex,6
StreamIO.<init>,2
StringIO$py.readline$11,2
Strings$py.test$11,6
Strings$py.test$14,4
Strings$py.test$17,4
Strings$py.test$2,8
Strings$py.test$20,10
Strings$py.test$5,14
Strings$py.test$8,24
Surrogate$Parser.<clinit>,2
SyspathJavaLoader.loadClass,4
TestHarness.main,2
TextIOInputStream.read,4
ThreadStateMapping.getThreadState,20
Tuples$py.test$5,16
URLClassPath$JarLoader$2.getInputStream,2
URLClassPath$JarLoader.getResource,2
UTF_8$Encoder.encode,2
Unicode$py.test$11,4
Unicode$py.test$14,2
Unicode$py.test$17,10
Unicode$py.test$2,2
Unicode$py.test$20,8
Unicode$py.test$5,10
Unicode$py.test$8,4
UniversalIOWrapper.read,2
Utf8Info.<init>,2
Visitor.traverse,2
While$PyExposer.<init>,2
ZoneInfoFile.readEpochSec,2
__builtin__.fillWithBuiltins,4
__builtin__.range,2
imp.importName,2
imp.import_next,4
pybench$py.run$9,2
unicodedata$py.call_function,2
unicodedata$py.decimal$12,4
unicodedata$py.get$11,2
unicodedata$py.init_east_asian_width$5,2
zipimporter$PyExposer.<init>,2
