method,package1,package2,dram1,dram2,energy
,11.364614936296341,0.10951062222658138,0.8578829006611786,0.014006666665874136,12.346015125849977
chappie.util,0.0,0.15947064103481048,0.0,0.015403846153742795,0.17487448718855328
com.kenai.constantine.platform,0.0,0.07279466665931977,0.0,0.009525000000091191,0.08231966665941097
javassist.bytecode,0.0,0.033246730158146144,0.0,0.004620238095023003,0.037866968253169146
org.antlr.runtime,0.061299666670189865,0.3540056556777307,0.00945999999991424,0.040716868131162445,0.46548219047899725
org.antlr.runtime.tree,0.0710564444452757,0.02548295555688027,0.01050766666731862,0.0031733333332441467,0.11022040000271872
org.dacapo.harness,0.0,0.020203876317702967,0.0,0.003356970537241609,0.023560846854944577
org.dacapo.parser,0.0,0.010818549904409143,0.0,0.0015541230075626533,0.012372672911971796
org.objectweb.asm,0.0,0.2722913158760454,0.0,0.029828357142702898,0.30211967301874826
org.python.antlr,0.0,1.8887261259390378,0.0,0.2518240312310558,2.1405501571700936
org.python.antlr.ast,0.06481933333270717,0.603709559576132,0.009439999999206822,0.07246683834643727,0.7504357312544834
org.python.compiler,0.0,0.23393463317499918,0.0,0.03210924019665036,0.26604387337164953
org.python.core,7.3947975862244055,0.310163600169717,0.6539834611544978,0.041751226707532334,8.400695874256153
org.python.core.io,0.0,0.045660641024975725,0.0,0.00456884615400318,0.050229487178978904
org.python.core.packagecache,0.11461554361501627,0.0,0.01281065688597198,0.0,0.12742620050098824
org.python.expose,0.01873626968530221,0.0,0.001874777710120611,0.0,0.02061104739542282
org.python.modules.time,0.0720121062811743,0.0,0.004312173914372952,0.0,0.07632428019554725
sun.misc,0.12704744852553584,0.0,0.014397849115761502,0.0,0.14144529764129735
sun.net.www,0.0,0.02539057142816351,0.0,0.00231642857137818,0.02770699999954169
sun.net.www.protocol.file,0.0,0.06148612280805155,0.0,0.008422631579410415,0.06990875438746197
sun.nio.cs,0.0555859465517286,0.0,0.007444863551593744,0.0,0.06303081010332234
sun.security.util,0.0,0.01679713215546954,0.0,0.002101271013190227,0.018898403168659768
sun.util.locale.provider,0.03436268119428916,0.0,0.0063605234290238285,0.0,0.04072320462331299
