method,package1,package2,dram1,dram2,energy
ANTLRStringStream.rewind|ANTLRStringStream.rewind|PythonLexer$DFA44.specialStateTransition,0.0,0.1237386666665164,0.0,0.016244999999495725,0.1399836666660121
ASCIICaseInsensitiveComparator.compare|ASCIICaseInsensitiveComparator.compare|Attributes$Name.equals,0.0,0.04498518518866385,0.0,0.005274999999797998,0.05026018518846185
AnnotationReader.<init>|imp.readCode|imp.createFromPyClass,0.0,0.014180444442899898,0.0,0.002279999999801576,0.016460444442701474
Arithmetic$py.test$11|Arithmetic$py.call_function|PyTableCode.call,0.0,0.23126829984180866,0.0,0.0355877986354257,0.26685609847723435
Arithmetic$py.test$14|Arithmetic$py.call_function|PyTableCode.call,0.4483127087850012,0.0,0.03432057692336769,0.0,0.4826332857083689
Arithmetic$py.test$2|Arithmetic$py.call_function|PyTableCode.call,0.0,1.159196624818543,0.0,0.18286256011072988,1.342059184929273
Arithmetic$py.test$5|Arithmetic$py.call_function|PyTableCode.call,1.1797080000057274,0.0,0.09268499999840667,0.0,1.2723930000041341
Arithmetic$py.test$8|Arithmetic$py.call_function|PyTableCode.call,0.7666152222227539,0.18017323275604002,0.04998416666805699,0.028643724174961464,1.0254163458218124
BaseParser.setupParser|BaseParser.parseModule|CompileMode$3.dispatch,0.0,0.751106377778342,0.0,0.10818283333400261,0.8592892111123446
Benchmark.fileFromInputStream|Benchmark.unpackZipStream|Benchmark.unpackZipFileResource,0.0,0.022487038257176892,0.0,0.002732408689248894,0.025219446946425784
BuiltinFunctions.__call__|PyObject.__call__|unicodedata$py.get_codepoint$9,0.0,0.0459593333362136,0.0,0.006805000000288904,0.0527643333365025
ByteVector.a|MethodWriter.visitIntInsn|Code.bipush,0.0,0.036209249999147784,0.0,0.0047950000001846,0.04100424999933239
CachedJarsPackageManager.listToString|CachedJarsPackageManager.getZipPackages|CachedJarsPackageManager.addJarToPackages,0.0,0.1524188794242733,0.0,0.01923828342350062,0.1716571628477739
Calls$py.call_function|PyTableCode.call|PyBaseCode.call,0.062317000003531575,0.0,0.004760000001018246,0.0,0.06707700000454982
Calls$py.f1$4|Calls$py.call_function|PyTableCode.call,0.05281566666963045,0.0,0.0041649999996783045,0.0,0.05698066666930876
Calls$py.test$13|Calls$py.call_function|PyTableCode.call,0.0,0.28878607958265656,0.0,0.032618467372463406,0.32140454695512
Calls$py.test$16|Calls$py.call_function|PyTableCode.call,0.0544026666660405,0.0,0.004139999999703528,0.0,0.05854266666574403
Calls$py.test$27|Calls$py.call_function|PyTableCode.call,0.05342599999858066,0.0,0.0041799999986930425,0.0,0.0576059999972737
Calls$py.test$2|Calls$py.call_function|PyTableCode.call,0.1202593333388601,0.0,0.009499999998903753,0.0,0.12975933333776385
ClassFile.addMethod|Module.PyCode|Module.compile,0.0,0.06619456667103804,0.0,0.008623999999448035,0.07481856667048607
ClassFile.endMethods|ClassFile.write|Module.write,0.0,0.033646530926512014,0.0,0.0042589948451818285,0.03790552577169384
ClassPool.get|CtClassType.getInterfaces|ThreadCoreMapInjector.isRunnable,0.0,0.06798379487381914,0.0,0.00926461538414841,0.07724841025796755
ClassReader.<init>|ClassReader.<init>|BytecodeLoader$Loader.loadClassFromBytes,0.0,0.11629728333112628,0.0,0.017008500000156343,0.13330578333128262
ClassReader.accept|ClassReader.accept|AnnotationReader.<init>,0.0,0.07987466666963883,0.0,0.010940000000725071,0.09081466667036389
ClassWriter.visitMethod|ClassFile.addMethod|Module.PyCode,0.0,0.06619456667103804,0.0,0.008623999999448035,0.07481856667048607
CodeCompiler$ExceptionHandler.addExceptionHandlers|CodeCompiler.visitTryExcept|TryExcept.accept,0.0,0.13548397100986104,0.0,0.018900869565054632,0.15438484057491567
CodeCompiler.seqSet|CodeCompiler.visitTuple|Tuple.accept,0.0,0.11629728333112628,0.0,0.017008500000156343,0.13330578333128262
CodeCompiler.visitName|Name.accept|Visitor.visit,0.0,0.056740638886468436,0.0,0.007997499999924508,0.06473813888639295
CommonTokenStream.LT|CommonTokenStream.LA|PythonParser.power,0.0,0.1328297833247537,0.0,0.019477749999623484,0.1523075333243772
CommonTokenStream.fillBuffer|CommonTokenStream.LT|PythonParser.file_input,0.0,0.0750426666684992,0.0,0.007899999999911717,0.08294266666841091
CommonTokenStream.skipOffTokenChannelsReverse|CommonTokenStream.LB|CommonTokenStream.LT,0.0,0.10888699999971624,0.0,0.017665000000609627,0.12655200000032588
Constructs$py.test$2|Constructs$py.call_function|PyTableCode.call,0.35742200001065305,0.0,0.027275000002797846,0.0,0.3846970000134509
Constructs$py.test$5|Constructs$py.call_function|PyTableCode.call,0.1519357030323149,0.0,0.0117501818179197,0.0,0.1636858848502346
Constructs$py.test$8|Constructs$py.call_function|PyTableCode.call,0.13942466666048858,0.0,0.010075000000748936,0.0,0.1494996666612375
DFA.unpackEncodedStringToUnsignedChars|PythonLexer.<clinit>|BaseParser.setupParser,0.0,0.053552199999103316,0.0,0.006576000000495696,0.06012819999959901
Dict$py.test$11|Dict$py.call_function|PyTableCode.call,0.3074343333379753,0.0,0.02259999999902599,0.0,0.33003433333700133
Dict$py.test$14|Dict$py.call_function|PyTableCode.call,0.17853783333460643,0.0,0.013687500000135818,0.0,0.19222533333474226
Dict$py.test$2|Dict$py.call_function|PyTableCode.call,0.4844518974382364,0.0,0.039482307691706894,0.0,0.5239342051299433
Dict$py.test$5|Dict$py.call_function|PyTableCode.call,0.46437566666766844,0.0,0.032354999999370186,0.0,0.49673066666703863
Dict$py.test$8|Dict$py.call_function|PyTableCode.call,0.06337499999790452,0.0,0.004775000000032985,0.0,0.06814999999793751
Exceptions$py.test$5|Exceptions$py.call_function|PyTableCode.call,0.0,0.2296369259247849,0.0,0.0426772222216877,0.2723141481464726
FloatingDecimal$BinaryToASCIIBuffer.estimateDecExp|FloatingDecimal$BinaryToASCIIBuffer.dtoa|FloatingDecimal$BinaryToASCIIBuffer.access$100,0.0,0.09218333333653086,0.0,0.015280000000226815,0.10746333333675769
Frame.a|MethodWriter.visitFieldInsn|Code.getstatic,0.0,0.137471666666291,0.0,0.019330000000384942,0.15680166666667594
FunctionDef$PyExposer.<init>|FunctionDef.<clinit>|GrammarActions.makeFuncdef,0.0,0.05877700000564801,0.0,0.009243749999768623,0.06802075000541663
Generic.list|CachedJarsPackageManager.addZipEntry|CachedJarsPackageManager.getZipPackages,0.0,0.04435560361181416,0.0,0.005710821752386965,0.050066425364201125
Gregorian.newCalendarDate|GregorianCalendar.<init>|GregorianCalendar.<init>,0.0,0.090416809107388,0.0,0.009245294624300118,0.09966210373168811
Imports$py.test$5|Imports$py.call_function|PyTableCode.call,0.07871700000105193,0.0,0.005850000000646107,0.0,0.08456700000169803
Instances$py.__init__$5|Instances$py.call_function|PyTableCode.call,0.0,0.059075031889046885,0.0,0.013906646986606116,0.072981678875653
Instances$py.test$2|Instances$py.call_function|PyTableCode.call,0.0,0.12082632021654455,0.0,0.014548449730380376,0.13537476994692493
Item.a|ClassWriter.a|ClassWriter.a,0.0,0.052658083335296,0.0,0.006402083333594218,0.05906016666889022
Item.a|ClassWriter.newNameType|ClassWriter.a,0.0,0.052658083335296,0.0,0.006402083333594218,0.05906016666889022
Linux64HeapFileStat.<init>|LinuxPOSIX.allocateStat|LinuxPOSIX.stat,0.0,0.0,0.0,0.0,0.0
Lists$py.test$2|Lists$py.call_function|PyTableCode.call,0.0,0.4408183012653774,0.0,0.06830342651141913,0.5091217277767965
Lists$py.test$8|Lists$py.call_function|PyTableCode.call,0.0,0.2765481008823716,0.0,0.03685452109325798,0.31340262197562957
Lookups$py.test$12|Lookups$py.call_function|PyTableCode.call,0.0,0.3422945551042448,0.0,0.05258823581523593,0.3948827909194807
Lookups$py.test$17|Lookups$py.call_function|PyTableCode.call,0.36901799999759527,0.0,0.017870000000887856,0.0,0.3868879999984831
Lookups$py.test$22|Lookups$py.call_function|PyTableCode.call,0.0,0.1463419069638751,0.0,0.021234967953785194,0.1675768749176603
Lookups$py.test$2|Lookups$py.call_function|PyTableCode.call,0.0,0.37009633308974077,0.0,0.05136802504041005,0.4214643581301508
Lookups$py.test$7|Lookups$py.call_function|PyTableCode.call,0.43261566666214174,0.0,0.02420772727286517,0.0,0.4568233939350069
MethodAccessorGenerator.generate|MethodAccessorGenerator.generateMethod|NativeMethodAccessorImpl.invoke,0.0,0.09564200000022538,0.0,0.01634499999939483,0.11198699999962021
MethodWriter.visitMaxs|Code.visitMaxs|ClassFile.endMethods,0.0,0.06514316666935985,0.0,0.006760833333020047,0.0719040000023799
MinFunction.min|MinFunction.__call__|PyObject.__call__,0.0,0.19864933332428336,0.0,0.024680000001050452,0.2233293333253338
Module.PyCode|Module.compile|imp.compileSource,0.0,0.056740638886468436,0.0,0.007997499999924508,0.06473813888639295
Module.compile|imp.compileSource|imp.createFromSource,0.0,0.03889363333097814,0.0,0.006709500000276117,0.04560313333125426
Numbers$py.test$11|Numbers$py.call_function|PyTableCode.call,0.0,0.1451559228581434,0.0,0.021096941171607906,0.1662528640297513
Numbers$py.test$2|Numbers$py.call_function|PyTableCode.call,0.0,0.25595050310529743,0.0,0.04255620871542796,0.2985067118207254
Numbers$py.test$5|Numbers$py.call_function|PyTableCode.call,0.0,0.06702142406500705,0.0,0.010630933591829176,0.07765235765683623
Numbers$py.test$8|Numbers$py.call_function|PyTableCode.call,0.0,0.20291377268514066,0.0,0.031917808827784604,0.23483158151292527
POSIXFactory.loadLibC|POSIXFactory.loadLinuxPOSIX|POSIXFactory.getPOSIX,0.0,0.11602775000210386,0.0,0.016657500000292202,0.13268525000239606
POSIXFactory.loadLinuxPOSIX|POSIXFactory.getPOSIX|NativeMethodAccessorImpl.invoke0,0.0,0.05815124999935506,0.0,0.00822749999952066,0.06637874999887572
PackageManager.checkAccess|CachedJarsPackageManager.addZipEntry|CachedJarsPackageManager.getZipPackages,0.0,0.05005134622144285,0.0,0.006326320734223984,0.05637766695566683
Parser.getCurrentInputSymbol|BaseRecognizer.match|PythonParser.synpred11_Python_fragment,0.0,0.13049300000420772,0.0,0.020254999998845356,0.15074800000305308
Pass$PyExposer.<init>|Pass.<clinit>|PythonParser.pass_stmt,0.0,0.05805975000112085,0.0,0.007170000000314758,0.0652297500014356
Py.<clinit>|PyType.init|PyType.createType,0.0,0.014383944443478763,0.0,0.0015966666665513506,0.015980611110030116
Py.getThreadState|Py.getThreadState|PyObject._gt,0.0,0.0838076985501798,0.0,0.011051705371390448,0.09485940392157025
Py.getThreadState|Py.getThreadState|PyObject._lt,0.0,0.20272296651144517,0.0,0.03089300809613229,0.23361597460757746
Py.newInteger|PyInteger.int___div__|PyInteger.__div__,0.0,0.07484883510406651,0.0,0.01201728197474598,0.08686611707881249
Py.newInteger|PyInteger.int_new|PyInteger$exposed___new__.new_impl,0.0,0.09581272703498277,0.0,0.011968896588177534,0.1077816236231603
Py.newInteger|PyXRange.pyget|PySequence$1.getItem,0.0,0.06702142406500705,0.0,0.010630933591829176,0.07765235765683623
PyArray$PyExposer.<init>|PyArray.<clinit>|ClassicPyObjectAdapter$9.adapt,0.0,0.07510375000128988,0.0,0.00817125000003216,0.08327500000132204
PyBaseCode.call|PyBaseCode.call|PyFunction.__call__,0.0,0.0716872325173856,0.0,0.009238624338699672,0.08092585685608526
PyClass.__call__|PyObject.__call__|PyObject.__call__,0.0,0.0,0.0,0.0,0.0
PyClass.__setattr__|Lookups$py.test$7|Lookups$py.call_function,0.05716939394143551,0.0,0.0037681818172462618,0.0,0.06093757575868177
PyComplex$PyExposer.<init>|PyComplex.<clinit>|__builtin__.fillWithBuiltins,0.0,0.032151384613452814,0.0,0.004206153846238381,0.0363575384596912
PyComplex.canCoerce|PyComplex.complex___sub__|PyComplex.__sub__,0.033445820516835034,0.0,0.0025630769229722386,0.0,0.03600889743980727
PyComplex.coerce|PyComplex.complex___add__|PyComplex.__add__,0.0,0.06416833333787507,0.0,0.009500000000116415,0.07366833333799148
PyComplex.complex___radd__|PyComplex.__radd__|PyObject._basic_add,0.04831004444341589,0.0,0.0034906666665240962,0.0,0.05180071110993999
PyDataDescr.<init>|Tuple$col_offset_descriptor.<init>|Tuple$PyExposer.<init>,0.0,0.08038333332903372,0.0,0.012344999999792586,0.09272833332882631
PyDictionary$dict_has_key_exposer.__call__|PyObject.__call__|Dict$py.test$14,0.03347766666653721,0.0,0.0026624999997390355,0.0,0.036140166666276244
PyDictionary.dict___delitem__|PyDictionary.__delitem__|Dict$py.test$14,0.027842166666232515,0.0,0.0020850000000791624,0.0,0.029927166666311678
PyFastSequenceIter.<init>|PyList.list___iter__|PyList.__iter__,0.05709209999913582,0.0,0.004261499999847729,0.0,0.06135359999898355
PyFastSequenceIter.__iternext__|Constructs$py.test$5|Constructs$py.call_function,0.05855729999748292,0.0,0.004275000000052386,0.0,0.06283229999753531
PyFile$PyExposer.<init>|PyFile.<clinit>|PySystemState.<init>,0.0,0.02552088888672491,0.0,0.0036693333334470576,0.02919022222017197
PyFloat$PyExposer.<init>|PyFloat.<clinit>|__builtin__.fillWithBuiltins,0.0,0.040733511109525965,0.0,0.005813333333288836,0.0465468444428148
PyFloat.canCoerce|PyFloat.float___div__|PyFloat.__div__,0.07110599999820502,0.0,0.005680000000817623,0.0,0.07678599999902265
PyFloat.float___cmp__|PyFloat.__cmp__|PyObject._try__cmp__,0.0,0.06907761137292291,0.0,0.010542788612778244,0.07962039998570115
PyFloat.float___hash__|PyFloat.hashCode|ConcurrentHashMap.get,0.06343566666570646,0.0,0.0047599999998055855,0.0,0.06819566666551205
PyFrame.<init>|PyFrame.<init>|PyBaseCode.call,0.05417899999883957,0.3124478571380244,0.004160000000410946,0.042696428571573394,0.41348328570884835
PyFrame.doGetglobal|PyFrame.getglobal|unicodedata$py.bidirectional$17,0.0,0.07267233333550394,0.0,0.010879999999815482,0.08355233333531942
PyFrame.getglobal|StringIO$py.readline$11|StringIO$py.call_function,0.0,0.10034166666446254,0.0,0.013629999999466236,0.11397166666392877
PyFrame.getglobal|unicodedata$py.get_int$1|unicodedata$py.call_function,0.0,0.08001384027133462,0.0,0.01081003377013366,0.09082387404146829
PyFrame.getlocal|Arithmetic$py.test$11|Arithmetic$py.call_function,0.0,0.10467736595535708,0.0,0.01670618548876126,0.12138355144411833
PyFrame.getlocal|Arithmetic$py.test$5|Arithmetic$py.call_function,0.05818666666649126,0.0,0.00473499999983081,0.0,0.06292166666632207
PyFrame.getlocal|Arithmetic$py.test$8|Arithmetic$py.call_function,0.08404533332698823,0.06283603573097214,0.006560000000414826,0.010612465861183178,0.16405383491955836
PyFrame.getlocal|Dict$py.test$8|Dict$py.call_function,0.06337499999790452,0.0,0.004775000000032985,0.0,0.06814999999793751
PyFrame.getlocal|Lookups$py.test$17|Lookups$py.call_function,0.06152366666841165,0.0,0.003544999999576248,0.0,0.0650686666679879
PyFrame.getlocal|Lookups$py.test$7|Lookups$py.call_function,0.05746575757670639,0.0,0.004327272728198404,0.0,0.061793030304904795
PyFrame.getlocal|Strings$py.test$20|Strings$py.call_function,0.0,0.13934824999644965,0.0,0.020475000000108896,0.15982324999655856
PyFrame.getlocal|Strings$py.test$8|Strings$py.call_function,0.0,0.06680521452273477,0.0,0.010956602449304772,0.07776181697203954
PyFrame.setline|Arithmetic$py.test$14|Arithmetic$py.call_function,0.02896510256351365,0.0,0.0022400000002212785,0.0,0.031205102563734925
PyFrame.setline|Arithmetic$py.test$5|Arithmetic$py.call_function,0.04384333333291579,0.0,0.0032400000006115683,0.0,0.04708333333352736
PyFrame.setline|Constructs$py.test$5|Constructs$py.call_function,0.07324212121382129,0.0,0.00540454545526617,0.0,0.07864666666908746
PyFrame.setlocal|Constructs$py.test$5|Constructs$py.call_function,0.07324212121382129,0.0,0.00540454545526617,0.0,0.07864666666908746
PyFrame.setlocal|Constructs$py.test$8|Constructs$py.call_function,0.11785900000055942,0.0,0.008939999998498628,0.0,0.12679899999905805
PyFrame.setlocal|Lookups$py.test$2|Lookups$py.call_function,0.0,0.06609365353692771,0.0,0.010317114981067296,0.07641076851799501
PyFrame.setlocal|Strings$py.test$11|Strings$py.call_function,0.18395966666867025,0.0,0.014205000000705088,0.0,0.19816466666937535
PyFrame.setlocal|Tuples$py.test$5|Tuples$py.call_function,0.0,0.0980166345054392,0.0,0.010607099764013356,0.10862373426945256
PyFunction.__call__|PyMethod.__call__|Calls$py.test$16,0.05281566666963045,0.0,0.0041649999996783045,0.0,0.05698066666930876
PyFunction.__call__|PyMethod.__call__|PyMethod.instancemethod___call__,0.0,0.07885103046999813,0.0,0.009839712300151435,0.08869074277014956
PyFunction.__call__|unicodedata$py.numeric$15|unicodedata$py.call_function,0.0,0.06416833333787507,0.0,0.009500000000116415,0.07366833333799148
PyInstance$PyExposer.<init>|PyInstance.<clinit>|PyClass.__call__,0.0,0.2507322381050991,0.0,0.030986428572370123,0.2817186666774692
PyInstance.__findattr_ex__|PyObject.__getattr__|Lookups$py.test$12,0.0,0.058962057449968325,0.0,0.007858751112451419,0.06682080856241975
PyInstance.__findattr_ex__|PyObject.__getattr__|Lookups$py.test$17,0.06152366666841165,0.0,0.003544999999576248,0.0,0.0650686666679879
PyInstance.__findattr_ex__|PyObject.__getattr__|StringIO$py.next$5,0.0,0.07211342283286283,0.0,0.010656987589192068,0.0827704104220549
PyInstance.__findattr_ex__|PyObject.__getattr__|StringIO$py.readline$11,0.0,0.11053501466160352,0.0,0.013288666535609645,0.12382368119721317
PyInstance.__init__|PyClass.__call__|PyObject.__call__,0.0,0.12082632021654455,0.0,0.014548449730380376,0.13537476994692493
PyInstance.ifindlocal|PyInstance.__findattr_ex__|PyObject.__getattr__,0.0,0.12109749999581255,0.0,0.018651562500053842,0.13974906249586638
PyInteger.getValue|PyInteger.int_hashCode|PyInteger.hashCode,0.07362866666032156,0.0,0.0053400000009181285,0.0,0.07896866666123968
PyJavaPackage.addPlaceholders|PackageManager.makeJavaPackage|CachedJarsPackageManager.addPackages,0.0,0.03056511110884862,0.0,0.0038666666668076576,0.03443177777565628
PyJavaType.init|PyType.createType|PyType.addFromClass,0.0,0.0423792093977557,0.0,0.006066217948974888,0.04844542734673059
PyList$list_append_exposer.__call__|PyObject.__call__|Lists$py.test$2,0.0,0.17721651247428097,0.0,0.028519268830699822,0.2057357813049808
PyList$list_insert_exposer.<init>|PyList$list_insert_exposer.bind|PyMethodDescr.method_descriptor___get__,0.0,0.07839355726240835,0.0,0.010631190239127062,0.08902474750153541
PyList.pyget|PySequence$1.getItem|SequenceIndexDelegate.checkIdxAndFindItem,0.0663859999961763,0.0,0.004750000000058208,0.0,0.0711359999962345
PyLong$PyExposer.<init>|PyLong.<clinit>|__builtin__.fillWithBuiltins,0.0,0.03371324444500108,0.0,0.005077333333772711,0.03879057777877379
PyLong.canCoerce|PyLong.long___cmp__|PyLong.__cmp__,0.0,0.0564822090133254,0.0,0.00809606233438861,0.06457827134771402
PyLong.coerce|PyLong.long___cmp__|PyLong.__cmp__,0.0,0.14102279909866694,0.0,0.021432316357401053,0.162455115456068
PyLong.long___cmp__|PyLong.__cmp__|PyObject._try__cmp__,0.0,0.13110107316447903,0.0,0.02122340173579497,0.152324474900274
PyObject.<init>|PyReflectedFunction.<init>|PyReflectedFunction.<init>,0.0,0.02800576923152384,0.0,0.003684615384349272,0.03169038461587311
PyObject.<init>|PySequence.<init>|PyBaseString.<init>,0.0,0.2516872463236213,0.0,0.03639102430924312,0.28807827063286445
PyObject.__call__|PyObject.__call__|Tuples$py.test$5,0.0,0.08796837189750074,0.0,0.010664125577603191,0.09863249747510394
PyObject.__getattr__|unicodedata$py.get$11|unicodedata$py.call_function,0.0,0.081578000007929,0.0,0.01052142857120738,0.09209942857913639
PyObject.__lt__|PyObject._gt|Numbers$py.test$5,0.0,0.06907761137292291,0.0,0.010542788612778244,0.07962039998570115
PyObject._basic_add|PyObject._add|sre_constants$py.makedict$2,0.0,0.137471666666291,0.0,0.019330000000384942,0.15680166666667594
PyObject._div|Arithmetic$py.test$5|Arithmetic$py.call_function,0.11352533333410975,0.0,0.008875000000746997,0.0,0.12240033333485674
PyObject._eq|Constructs$py.test$2|Constructs$py.call_function,0.11006666667041523,0.0,0.00773999999849669,0.0,0.11780666666891192
PyObject._ge|Strings$py.test$8|Strings$py.call_function,0.0,0.06574361008249946,0.0,0.010572337054033171,0.07631594713653263
PyObject._gt|Numbers$py.test$5|Numbers$py.call_function,0.0,0.06752425256889871,0.0,0.010646693343823843,0.07817094591272256
PyObject._ne|Constructs$py.test$2|Constructs$py.call_function,0.08880599999974947,0.0,0.006500000000717893,0.0,0.09530600000046736
PyObject.getType|PyObject._add|Arithmetic$py.test$2,0.0,0.058952086547370636,0.0,0.009323880344661535,0.06827596689203216
PyObject.getType|PyObject._add|Arithmetic$py.test$8,0.0,0.05950407883269385,0.0,0.008612760942516095,0.06811683977520995
PyObject.getType|PyObject._add|Strings$py.test$11,0.055277333332924165,0.0,0.004179999999905704,0.0,0.05945733333282987
PyObject.getType|PyObject._add|Unicode$py.test$8,0.060994666666374535,0.0,0.010719999999613112,0.0,0.07171466666598765
PyObject.getType|PyObject._eq|unicodedata$py.get_codepoint$9,0.0,0.08178733332897536,0.0,0.010929999999158705,0.09271733332813407
PyObject.getType|PyObject._mul|Arithmetic$py.test$2,0.0,0.07640688830935738,0.0,0.010506715737259635,0.08691360404661702
PyObject.getType|PyObject._sub|Arithmetic$py.test$14,0.047252595237209566,0.0,0.00374000000080005,0.0,0.050992595238009614
PyObject.getType|PyObject._sub|Arithmetic$py.test$5,0.056844000001243934,0.0,0.004470000001068304,0.0,0.06131400000231224
PyObject.getType|PyString$str_isalpha_exposer.bind|PyMethodDescr.method_descriptor___get__,0.0,0.06980900000053225,0.0,0.010121250000793223,0.07993025000132548
PyObject.isDataDescr|PyObject.object___findattr__|PyObject.__findattr_ex__,0.0,0.06932498612407545,0.0,0.010353065668331655,0.07967805179240711
PyObject.object___findattr__|PyObject.__findattr_ex__|PyObject.__getattr__,0.0,0.168776030467794,0.0,0.02362471230055268,0.19240074276834668
PyObjectDerived.dispatch__init__|PyType.invoke_new_|PyType.type___call__,0.0,0.10611011691008293,0.0,0.012207585805679166,0.1183177027157621
PySequence$1.len|SequenceIndexDelegate.fixindex|SequenceIndexDelegate.checkIdx,0.0,0.030602286022949062,0.0,0.00483295367520316,0.035435239698152224
PySequence$1.len|SequenceIndexDelegate.fixindex|SequenceIndexDelegate.checkIdxAndFindItem,0.043390303030857016,0.0,0.003218181817360208,0.0,0.046608484848217224
PySequence.<init>|PyBaseString.<init>|PyString.<init>,0.0,0.05998002467989605,0.0,0.009582256010011236,0.06956228068990729
PySequence.<init>|PySequenceList.<init>|PyTuple.<init>,0.0,0.07668615302888779,0.0,0.009296784357479656,0.08598293738636745
PySequence.seq___iter__|PySequence.__iter__|Arithmetic$py.test$8,0.08404533332698823,0.0,0.006560000000414826,0.0,0.09060533332740306
PySequence.seq___setitem__|PySequence.__setitem__|Lists$py.test$8,0.0,0.0618745056147461,0.0,0.00910202032048857,0.07097652593523467
PySequence.seq___setslice__|PySequence.__setslice__|Lists$py.test$8,0.0,0.15324590564465806,0.0,0.01753836043342842,0.1707842660780865
PySequence.sliceLength|PyTuple.getslice|PySequence$1.getSlice,0.0,0.05122866667807102,0.0,0.00817999999890162,0.059408666676972643
PySequenceIter.__iternext__|Lookups$py.test$2|Lookups$py.call_function,0.0,0.06666919018246989,0.0,0.009960342334975787,0.07662953251744567
PySlot.<clinit>|PyType.createAllSlots|PyType.newType,0.0,0.029516025641873382,0.0,0.004201923076881287,0.03371794871875467
PyString$str_islower_exposer.bind|PyMethodDescr.method_descriptor___get__|PyMethodDescr.__get__,0.0,0.05625925000640564,0.0,0.007245000000239087,0.06350425000664472
PyString.coerce|PyString.str___lt__|PyString.__lt__,0.0,0.05176083322744497,0.0,0.008537869397880917,0.06029870262532589
PyString.createInstance|PyString.fromSubstring|PyString.getslice,0.0,0.07259133333961168,0.0,0.010859999999714392,0.08345133333932607
PyString.str_title|PyString$str_title_exposer.__call__|PyObject.__call__,0.0,0.06821699999272822,0.0,0.010800000000017462,0.07901699999274568
PyStringMap.<init>|PyStringMap.<init>|PyFrame.<init>,0.0,0.12685166666051373,0.0,0.019039999999828673,0.1458916666603424
PyStringMap.__finditem__|PyFrame.doGetglobal|PyFrame.getglobal,0.0,0.26438399998975604,0.0,0.03949000000102387,0.3038739999907799
PyStringMap.__finditem__|PyType.lookup|PyObject.object___findattr__,0.0,0.11737159970012054,0.0,0.017293777714365785,0.1346653774144863
PyStringMap.__finditem__|PyType.lookup|PyType.type___call__,0.0,0.0541383333329577,0.0,0.00683500000013737,0.06097333333309507
PySuper.<clinit>|__builtin__.fillWithBuiltins|PySystemState$DefaultBuiltinsHolder.fillin,0.0,0.048377435899172455,0.0,0.0058646153849669,0.05424205128413936
PySystemState.<init>|PySystemState.doInitialize|PySystemState.initialize,0.0,0.028069333335022543,0.0,0.003646666666504137,0.03171600000152668
PyTableCode.call|PyBaseCode.call|PyFunction.__call__,0.0,0.07267233333550394,0.0,0.010879999999815482,0.08355233333531942
PyTuple$exposed___new__.new_impl|PyType.invoke_new_|PyType.type___call__,0.0,0.0980166345054392,0.0,0.010607099764013356,0.10862373426945256
PyTuple.<init>|PyTuple.<init>|Calls$py.g$5,0.0527343333378667,0.0,0.004159999999198286,0.0,0.056894333337064985
PyTuple.<init>|PyTuple.<init>|PyTuple.fromArrayNoCopy,0.0,0.060969082737565676,0.0,0.007931371089194979,0.06890045382676066
PyTuple.<init>|PyTuple.fromArrayNoCopy|PyTuple.getslice,0.0,0.06935633331886493,0.0,0.01652500000030462,0.08588133331916954
PyTuple.fromArrayNoCopy|PyTuple.getslice|PySequence$1.getSlice,0.0,0.060969082737565676,0.0,0.007931371089194979,0.06890045382676066
PyTuple.getslice|PySequence$1.getSlice|SequenceIndexDelegate.getSlice,0.0,0.13513200000549355,0.0,0.03303000000111448,0.16816200000660803
PyTuple.tuple_new|PyTuple$exposed___new__.new_impl|PyType.invoke_new_,0.0,0.08796837189750074,0.0,0.010664125577603191,0.09863249747510394
PyType.fromClass|PyObject.<init>|AST.<init>,0.0,0.0540422142845013,0.0,0.007007142857479006,0.06104935714198031
PyType.fromClass|PyObject.<init>|PyFrame.<init>,0.16715466666695042,0.6376755631291199,0.01131999999779509,0.08507971155824903,0.9012299413521144
PyType.fromClass|PyObject.<init>|PyIterator.<init>,0.05855729999748292,0.0,0.004275000000052386,0.0,0.06283229999753531
PyType.fromClass|PyObject.<init>|PyMethod.<init>,0.0544026666660405,0.0,0.004139999999703528,0.0,0.05854266666574403
PyType.fromClass|PyObject.<init>|PyStringMap.<init>,0.0,0.0939409476334642,0.0,0.013080494725710514,0.10702144235917471
PyType.isSubType|PyDescriptor.checkGetterType|PyMethodDescr.method_descriptor___get__,0.0,0.08186833334427017,0.0,0.010920000000623986,0.09278833334489416
PyType.isSubType|PyObject._gt|Numbers$py.test$8,0.0,0.0651490118703472,0.0,0.010787975148266892,0.0759369870186141
PyType.lookup|PyObject.object___setattr__|PyObject.object___setattr__,0.0,0.1043124383462382,0.0,0.010534335425615951,0.11484677377185415
PyType.lookup|PyType.type___call__|PyType.__call__,0.0724490000041745,0.06829833333419325,0.005320000000210712,0.010955000000346141,0.1570223333389246
PyUnicode.<init>|PyUnicode.<init>|PyUnicode.unicode___add__,0.0,0.05372937236985726,0.0,0.007633064641116737,0.061362437010974
PyUnicode.fromSubstring|PyString.getslice|PyUnicode.getslice,0.0,0.108723999990616,0.0,0.014650000000377382,0.12337399999099338
PyUnicode.unicode_new|PyUnicode$exposed___new__.new_impl|PyType.invoke_new_,0.0,0.1237386666665164,0.0,0.016244999999495725,0.1399836666660121
PythonLexer$DFA44.specialStateTransition|DFA.predict|PythonLexer.mTokens,0.0,0.10254492857521176,0.0,0.012967499999528323,0.11551242857474009
PythonLexer.mCOMMENT|PythonLexer.mTokens|PythonLexer.nextToken,0.0,0.033406555555605635,0.0,0.003633333333305523,0.03703988888891116
PythonLexer.mSTRING|PythonLexer.mTokens|PythonLexer.nextToken,0.0,0.028306777776581124,0.0,0.0036600000001069718,0.0319667777766881
PythonParser$DFA136.specialStateTransition|DFA.predict|PythonParser.testlist,0.0,0.12025966666017968,0.0,0.017680000000230695,0.13793966666041038
PythonParser.<clinit>|BaseParser.setupParser|BaseParser.parseModule,0.0,0.12927572222057884,0.0,0.019499166666820306,0.14877488888739915
PythonParser.<init>|PythonParser.<init>|PythonParser.<init>,0.0,0.024305555555555552,0.0,0.0027399999999033753,0.027045555555458928
PythonParser.and_expr|PythonParser.xor_expr|PythonParser.expr,0.0,0.10542800000015023,0.0,0.016150000000076638,0.12157800000022687
PythonParser.arith_expr|PythonParser.shift_expr|PythonParser.and_expr,0.0,0.22628600554345646,0.0,0.030386083333269198,0.25667208887672566
PythonParser.atom|PythonParser.power|PythonParser.factor,0.0,0.1440050000019255,0.0,0.020624999999654392,0.1646300000015799
PythonParser.defparameter|PythonParser.varargslist|PythonParser.parameters,0.0,0.11732999998882103,0.0,0.015064999999594875,0.13239499998841592
PythonParser.expr|PythonParser.comparison|PythonParser.not_test,0.0,0.16570591305102478,0.0,0.021139130434913448,0.18684504348593822
PythonParser.factor|PythonParser.term|PythonParser.arith_expr,0.0,0.12661000000704348,0.0,0.016227391303866592,0.14283739131091006
PythonParser.or_test|PythonParser.test|PythonParser.testlist,0.0,0.04324785715046649,0.0,0.005857142857296692,0.04910500000776318
PythonParser.stmt|PythonParser.suite|PythonParser.if_stmt,0.0,0.12661000000704348,0.0,0.016227391303866592,0.14283739131091006
PythonParser.subscriptlist|PythonParser.trailer|PythonParser.power,0.0,0.10473633333458564,0.0,0.012330000000171518,0.11706633333475716
PythonParser.term|PythonParser.arith_expr|PythonParser.shift_expr,0.0,0.17380766666610725,0.0,0.025405000000318975,0.19921266666642623
PythonParser.testlist|PythonParser.synpred2_Python_fragment|PythonParser.synpred2_Python,0.0,0.08532699999826339,0.0,0.010914999999537637,0.09624199999780103
PythonParser.xor_expr|PythonParser.expr|PythonParser.comparison,0.0,0.11515601667391212,0.0,0.02062949999990451,0.13578551667381664
PythonTokenSource.insertImaginaryIndentDedentTokens|PythonTokenSource.nextToken|CommonTokenStream.fillBuffer,0.0,0.033406555555605635,0.0,0.003633333333305523,0.03703988888891116
PythonTree.getChildCount|GrammarActions.recurseSetContext|GrammarActions.recurseSetContext,0.0,0.1547036666694718,0.0,0.021049999999983502,0.1757536666694553
Resource.getBytes|URLClassLoader.defineClass|URLClassLoader.access$100,0.0,0.0,0.0,0.0,0.0
RewriteRuleElementStream.<init>|RewriteRuleSubtreeStream.<init>|PythonParser.trailer,0.0,0.13367391304548262,0.0,0.016829999999954715,0.15050391304543734
RewriteRuleElementStream.<init>|RewriteRuleTokenStream.<init>|PythonParser.atom,0.0,0.30147748840200905,0.0,0.04551808695835105,0.3469955753603601
ScopeInfo.setup_closure|ScopeInfo.setup_closure|CodeCompiler.visitFunctionDef,0.0,0.11732999998882103,0.0,0.015064999999594875,0.13239499998841592
SequenceIndexDelegate.checkIdxAndSetItem|SequenceIndexDelegate.checkIdxAndSetItem|PySequence.seq___setitem__,0.0,0.07640688830935738,0.0,0.010506715737259635,0.08691360404661702
StringIO$py.readline$11|StringIO$py.call_function|PyTableCode.call,0.0,0.043752000002617315,0.0,0.006304999999883876,0.05005700000250119
Strings$py.call_function|PyTableCode.call|PyBaseCode.call,0.0,0.1161703333297434,0.0,0.017920000000837412,0.13409033333058082
Strings$py.test$11|Strings$py.call_function|PyTableCode.call,0.5270789999922271,0.0,0.04235499999898214,0.0,0.5694339999912092
Strings$py.test$14|Strings$py.call_function|PyTableCode.call,0.0,0.3235357407161414,0.0,0.057188333334124763,0.38072407405026615
Strings$py.test$17|Strings$py.call_function|PyTableCode.call,0.0,0.11482733333832584,0.0,0.013615000000451495,0.12844233333877733
Strings$py.test$20|Strings$py.call_function|PyTableCode.call,0.0,0.24211133334514062,0.0,0.030722499998773856,0.2728338333439145
Strings$py.test$2|Strings$py.call_function|PyTableCode.call,0.0,0.1528531299682105,0.0,0.03278910399400989,0.18564223396222038
Strings$py.test$5|Strings$py.call_function|PyTableCode.call,0.0,0.5201771321927277,0.0,0.07894986704357641,0.5991269992363041
Strings$py.test$8|Strings$py.call_function|PyTableCode.call,0.0,0.38959102483536473,0.0,0.06024783781167862,0.44983886264704337
ThreadStateMapping.getThreadState|Py.getThreadState|Py.getThreadState,0.0,0.12910364091788606,0.0,0.017858839610538767,0.14696248052842484
Tuples$py.test$5|Tuples$py.call_function|PyTableCode.call,0.0,0.6249963548830497,0.0,0.07694522198140129,0.701941576864451
US_ASCII$Decoder.decodeArrayLoop|US_ASCII$Decoder.decodeLoop|CharsetDecoder.decode,0.0,0.3331500000009934,0.0,0.04163500000079996,0.3747850000017933
Unicode$py.test$11|Unicode$py.call_function|PyTableCode.call,0.0,0.13863133333506994,0.0,0.028865000000223517,0.16749633333529346
Unicode$py.test$17|Unicode$py.call_function|PyTableCode.call,0.0,0.16349266665444398,0.0,0.021959999998216517,0.1854526666526605
Unicode$py.test$20|Unicode$py.call_function|PyTableCode.call,0.0,0.31449366665522877,0.0,0.04281499999948815,0.35730866665471694
Unicode$py.test$2|Unicode$py.call_function|PyTableCode.call,0.0,0.10720470757296333,0.0,0.02441592491432163,0.13162063248728495
Unicode$py.test$5|Unicode$py.call_function|PyTableCode.call,0.0,0.36031267752261503,0.0,0.05564528737624884,0.4159579648988639
Unicode$py.test$8|Unicode$py.call_function|PyTableCode.call,0.24479166666666666,0.0,0.039390000000518434,0.0,0.2841816666671851
VisitorBase.visitIf|If.accept|While.traverse,0.0,0.13793933332393254,0.0,0.01824499999929685,0.1561843333232294
arguments$PyExposer.<init>|arguments.<clinit>|PythonParser.parameters,0.0,0.09118666667685224,0.0,0.012299999999716722,0.10348666667656896
bisect$py.bisect_left$4|bisect$py.call_function|PyTableCode.call,0.0,0.1395555237998321,0.0,0.020491428571663813,0.1600469523714959
imp.import_name|imp.importName|ImportFunction.__call__,0.036547800000698766,0.0,0.002628000000186148,0.0,0.039175800000884914
imp.import_next|imp.import_logic|imp.import_name,0.04625108888980725,0.0,0.003465000000061182,0.0,0.049716088889868434
imp.import_next|imp.import_name|imp.importName,0.03819047619236656,0.0,0.002971428571722104,0.0,0.041161904764088666
unicodedata$py.check_segments$8|unicodedata$py.call_function|PyTableCode.call,0.0,0.06410733333905227,0.0,0.009520000000217502,0.07362733333926978
unicodedata$py.get$11|unicodedata$py.call_function|PyTableCode.call,0.0,0.06315099999968272,0.0,0.00955000000006597,0.07270099999974869
unicodedata$py.get_int$1|unicodedata$py.call_function|PyTableCode.call,0.0,0.09550222738374947,0.0,0.011927789874196263,0.10743001725794574
unicodedata$py.init_east_asian_width$5|unicodedata$py.call_function|PyTableCode.call,0.0,0.09312799020172753,0.0,0.011872461410655243,0.10500045161238278
zipimporter$exposed___new__.createOfType|PyOverridableNew.new_impl|PyType.invoke_new_,0.0,0.03436277777978425,0.0,0.00455333333350912,0.03891611111329337
