method,package1,dram1,energy
java.io,5.601893087832678,0.4933622061431435,6.095255293975821
java.lang,10.833360218377043,1.0583614655041989,11.891721683881242
java.lang.reflect,0.03392371459016304,0.005833996677239922,0.03975771126740296
java.math,0.16109442302742932,0.012672463922363235,0.17376688694979256
java.security,0.14076850554652537,0.011827613547946036,0.1525961190944714
java.text,0.18845080426954364,0.019199105563797964,0.2076499098333416
java.util,1.9684999332516422,0.1933762432634095,2.161876176515052
java.util.concurrent,2.297037869309337,0.20629067416901983,2.5033285434783568
java.util.regex,0.1538317759692051,0.021822105416223536,0.17565388138542865
java.util.zip,16.532544572912805,1.4530866717257198,17.985631244638526
