method,package1,package2,dram1,dram2,energy
java.io,2.1420046963842614,0.12107333334279245,0.18678399415198796,0.0172385714285199,2.4671005953075618
java.lang,3.523405848033355,5.98661207113722,0.47060915079860566,0.7661186032685028,10.746745673237683
java.lang.invoke,0.057901999995616876,0.0,0.006824999999177331,0.0,0.06472699999479421
java.lang.reflect,0.0,0.06749049999399133,0.0,0.009711428571444271,0.0772019285654356
java.math,0.13494671614350673,0.0,0.017252727333570767,0.0,0.1521994434770775
java.net,0.19019026109157405,0.0,0.020569261935790124,0.0,0.21075952302736417
java.text,0.056518666664487675,0.0,0.009379999999509891,0.0,0.06589866666399757
java.util,0.5906863049767515,1.1692926212702417,0.06059146747274242,0.15313545251890737,1.973705846238643
java.util.concurrent,0.8110914551980907,2.478106997109284,0.09149637191271182,0.299219968518847,3.6799147927389333
java.util.concurrent.locks,0.0,0.11350499999631815,0.0,0.013755000000552778,0.12725999999687093
java.util.jar,0.01728886703645452,0.0,0.0016305988053531564,0.0,0.018919465841807676
java.util.regex,0.0,0.0,0.0,0.0,0.0
java.util.zip,12.50331280645178,3.205916263414639,1.06728339955187,0.47722460075273404,17.253737070171024
