method,hits
AbstractCollection.toArray,4
AbstractStringBuilder.<init>,2
AccessController.doPrivileged,2
ArrayList.<init>,6
ArrayList.removeRange,2
Arrays.copyOf,20
Arrays.copyOfRange,10
BufferedInputStream.<init>,2
BufferedInputStream.read,56
BufferedInputStream.read1,4
BufferedOutputStream.<init>,2
BufferedOutputStream.flushBuffer,2
BufferedOutputStream.write,2
CRC32.update,6
Channels$WritableByteChannelImpl.write,2
Character.getType,8
Character.isLowerCase,6
Character.isUpperCase,2
Character.toUpperCaseEx,2
CharacterData.of,2
CharacterData00.<clinit>,2
CharacterData00.getProperties,4
CharacterData00.toTitleCase,2
CharacterDataLatin1.getProperties,2
CharacterDataLatin1.toLowerCase,2
CharacterDataLatin1.toUpperCaseEx,2
Class$MethodArray.addIfNotPresent,2
Class.forName0,4
Class.getConstantPool,2
Class.getDeclaredConstructors0,4
Class.isAssignableFrom,2
ClassLoader.defineClass1,36
ClassLoader.getSystemClassLoader,2
ConcurrentHashMap$Node.<init>,4
ConcurrentHashMap.addCount,2
ConcurrentHashMap.casTabAt,2
ConcurrentHashMap.get,20
ConcurrentHashMap.initTable,2
ConcurrentHashMap.putVal,34
ConcurrentHashMap.replaceNode,4
ConcurrentHashMap.spread,2
ConcurrentHashMap.tabAt,8
ConcurrentHashMap.transfer,2
DataInputStream.readByte,2
DataInputStream.readUnsignedShort,4
DataInputStream.skipBytes,2
DecimalFormatSymbols.getInstance,2
FileInputStream.available0,4
FileInputStream.readBytes,32
FileOutputStream.open0,18
FileOutputStream.writeBytes,30
FilterInputStream.available,2
FilterInputStream.read,6
Formatter$FormatSpecifier.<init>,2
HashMap.getNode,12
HashMap.hash,2
HashMap.resize,2
HashSet.<init>,2
Hashtable$Enumerator.nextElement,2
Inflater.finished,4
Inflater.inflate,36
Inflater.inflateBytes,666
Inflater.needsDictionary,6
InflaterInputStream.ensureOpen,4
InflaterInputStream.fill,2
InflaterInputStream.read,4
JumboEnumSet$EnumSetIterator.hasNext,2
Method.<init>,2
MutableBigInteger.compare,2
Object.<init>,6
Pattern$GroupHead.match,2
Pattern.expr,2
PushbackInputStream.read,10
RegularEnumSet.contains,2
String.<init>,2
String.charAt,2
String.equals,2
String.hashCode,8
String.indexOf,2
String.intern,20
String.lastIndexOf,2
String.substring,6
String.toLowerCase,4
String.toUpperCase,8
ThreadLocal$ThreadLocalMap.getEntry,18
ThreadLocal.get,6
Throwable.<init>,2
Throwable.fillInStackTrace,212
UnixFileSystem.delete0,10
UnixFileSystem.getBooleanAttributes0,2
UnixFileSystem.list,2
Vector.firstElement,2
Vector.removeElementAt,2
WeakHashMap.remove,2
ZipInputStream.createZipEntry,2
ZipInputStream.ensureOpen,4
ZipInputStream.read,12
ZipInputStream.readLOC,2
ZipInputStream.skip,2
