method,package1,dram1,energy
ASCII.isType|Pattern$Ctype.isSatisfiedBy|Pattern$BmpCharProperty.match,0.07493099999555852,0.009319999999812959,0.08425099999537149
AbstractCollection.toArray|ArrayList.<init>|PyList.getslice,0.2009854323454338,0.014854759355798917,0.21584019170123273
AbstractStringBuilder.append|StringBuilder.append|Currency.getInstance,0.12274166666611565,0.013190000000273963,0.13593166666638962
AccessController.doPrivileged|URLClassLoader.findClass|DacapoClassLoader.loadClass,0.07511943411469019,0.006223684975640416,0.0813431190903306
ArrayList.add|Formatter.parse|Formatter.format,0.057637333331513226,0.003540000000308888,0.06117733333182211
ArrayList.elementData|ArrayList.get|CachedJarsPackageManager.listToString,0.03392371459016304,0.005833996677239922,0.03975771126740296
ArrayList.elementData|ArrayList.get|CommonTokenStream.skipOffTokenChannels,0.08954039393839511,0.00857818181755261,0.09811857575594772
ArrayList.elementData|ArrayList.get|PyList.pyget,0.04888182119278688,0.003704786737077693,0.052586607929864575
ArrayList.rangeCheck|ArrayList.get|PyList.pyget,0.05806540898996353,0.006439161870341964,0.06450457086030549
Arrays.copyOfRange|BigInteger.multiplyByInt|BigInteger.multiply,0.052831854591494004,0.0028152137568997148,0.05564706834839372
Arrays.copyOfRange|String.<init>|String.substring,0.41511848591147404,0.03646606132347371,0.45158454723494773
Arrays.copyOfRange|String.<init>|StringBuilder.toString,0.06127478152248522,0.008479116774790482,0.0697538982972757
Arrays.copyOf|ArrayList.grow|ArrayList.ensureExplicitCapacity,0.06670356083732995,0.005406922561223108,0.07211048339855305
Arrays.copyOf|Resource.getBytes|URLClassLoader.defineClass,0.02268001278353577,0.0021996727062986647,0.024879685489834436
Arrays.copyOf|String.concat|PyString.str___add__,0.09307818148838808,0.01141101753874646,0.10448919902713454
Arrays.copyOf|String.concat|PyUnicode.unicode___add__,0.221859950180207,0.027344250718320487,0.24920420089852746
Arrays.copyOf|StringCoding.safeTrim|StringCoding.access$300,0.016839937850699014,0.0018057727642936702,0.018645710614992685
BigInteger.multiply|PyLong.long___mul__|PyLong.__mul__,0.0493914735273228,0.0017197366505736836,0.051111210177896486
BigInteger.trustedStripLeadingZeroInts|BigInteger.<init>|GrammarActions.makeInt,0.11170294950010652,0.010952727271789552,0.12265567677189607
BreakIterator.setText|ConditionalSpecialCasing.isFinalCased|ConditionalSpecialCasing.isConditionMet,0.054253563296633715,0.006459739097385452,0.06071330239401917
BufferedInputStream.read1|BufferedInputStream.read|FilterInputStream.read,0.2289369772349975,0.021062247724138027,0.24999922495913554
BufferedInputStream.read|DataInputStream.readInt|CodeAttribute.<init>,0.02820708333274524,0.002968437499551631,0.03117552083229687
BufferedInputStream.read|DataInputStream.readUnsignedByte|ConstPool.readOne,0.03575529885175905,0.0024005172415164787,0.03815581609327553
BufferedInputStream.read|DataInputStream.readUnsignedShort|AttributeInfo.read,0.054032020129823076,0.004259601288285323,0.0582916214181084
BufferedInputStream.read|DataInputStream.readUnsignedShort|ClassFile.read,0.03901100449808419,0.004895899523420093,0.04390690402150428
BufferedInputStream.read|DataInputStream.readUnsignedShort|CodeAttribute.<init>,0.037225714285991016,0.002351428571966521,0.039577142857957534
BufferedInputStream.read|DataInputStream.readUnsignedShort|MemberrefInfo.<init>,0.0752839285709169,0.0047078571421609785,0.07999178571307787
BufferedInputStream.read|DataInputStream.readUnsignedShort|MethodInfo.read,0.07766447618736752,0.0052417857141768935,0.08290626190154442
BufferedInputStream.read|DataInputStream.readUnsignedShort|NameAndTypeInfo.<init>,0.040777846155926965,0.00429538461433437,0.04507323077026133
BufferedInputStream.read|FilterInputStream.read|PushbackInputStream.read,1.7061605418747434,0.1505204150099935,1.8566809568847369
BufferedOutputStream.<init>|Benchmark.fileFromInputStream|Benchmark.unpackZipStream,0.030457634218611432,0.003774569754679386,0.03423220397329082
CRC32.update|ZipInputStream.read|InflaterInputStream.read,0.1467873033118183,0.011629085876875098,0.15841638918869339
CRC32.update|ZipInputStream.read|ZipInputStream.closeEntry,0.034464444444488936,0.0032366666669582217,0.03770111111144716
CRC32.update|ZipInputStream.read|ZipInputStream.skip,0.046421865593212056,0.003170235819067175,0.04959210141227923
Character.getType|Character.isLowerCase|Character.isLowerCase,0.044375053512474914,0.0031997689036108376,0.04757482241608575
Character.getType|Character.isUpperCase|Character.isUpperCase,0.057305854806466085,0.00399940477397372,0.06130525958043981
Character.isLowerCase|Character.isLowerCase|PyString.str_isupper,0.0525970118355612,0.0032479506780926466,0.05584496251365385
Character.isUpperCase|Character.isUpperCase|PyString.str_islower,0.05831733464168507,0.0038391058283907204,0.06215644047007579
Character.isUpperCase|Character.isUpperCase|PyString.str_isupper,0.09519230406705348,0.008033105829263415,0.1032254098963169
Character.toUpperCaseEx|String.toUpperCase|String.toUpperCase,0.057908947264990636,0.005916760929204793,0.06382570819419543
CharacterData.of|Character.toTitleCase|Character.toTitleCase,0.044536117780756466,0.004050892081076147,0.04858700986183261
CharacterData00.getProperties|CharacterData00.getType|Character.getType,0.09325108193688632,0.00952792086592981,0.10277900280281613
CharacterData00.getProperties|CharacterData00.toLowerCase|Character.toLowerCase,0.05482933903317904,0.005949436119874156,0.060778775153053195
CharacterData00.toUpperCaseEx|Character.toUpperCaseEx|String.toUpperCase,0.07398848672098911,0.0055978309474994156,0.07958631766848852
CharacterDataLatin1.getType|Character.getType|Character.isTitleCase,0.05831733464168507,0.0038391058283907204,0.06215644047007579
CharacterDataLatin1.getType|Character.getType|Character.isUpperCase,0.05297808909110209,0.00366487974278671,0.0566429688338888
CharacterDataLatin1.toUpperCaseEx|Character.toUpperCaseEx|String.toUpperCase,0.044536117780756466,0.004050892081076147,0.04858700986183261
Class$MethodArray.addAllIfNotPresent|Class.privateGetPublicMethods|Class.getMethods,0.0489633498218473,0.0031791327388045586,0.05214248256065186
Class$MethodArray.addIfNotPresent|Class$MethodArray.addAllIfNotPresent|Class.privateGetPublicMethods,0.020410681562281874,0.001511293961886706,0.02192197552416858
Class.forName0|Class.forName|Jython.<init>,0.00965182036620162,0.0012523888515816413,0.010904209217783262
Class.forName0|Class.forName|SyspathJavaLoader.loadClass,0.1033794296248468,0.012125190277190565,0.11550461990203736
Class.getDeclaredConstructors0|Class.privateGetDeclaredConstructors|Class.getConstructor0,0.12386876161403089,0.011805181817805415,0.1356739434318363
Class.getDeclaredMethods0|Class.privateGetDeclaredMethods|Class.privateGetPublicMethods,0.08317722222273005,0.008908333333642481,0.09208555555637253
Class.privateGetPublicMethods|Class.getMethods|PyJavaType.init,0.03956888888798722,0.0031088888893093638,0.04267777777729659
ClassLoader.defineClass1|ClassLoader.defineClass|SecureClassLoader.defineClass,0.8752549056236253,0.07906668955945495,0.9543215951830802
ClassLoader.loadClass|Launcher$AppClassLoader.loadClass|ClassLoader.loadClass,0.019177019608654446,0.0014694117645358705,0.020646431373190315
CodeSource.<init>|URLClassLoader.defineClass|URLClassLoader.access$100,0.06564907143183517,0.0056039285723056215,0.0712530000041408
ConcurrentHashMap$Node.<init>|ConcurrentHashMap.putVal|ConcurrentHashMap.put,0.12184168711135489,0.011082091020675266,0.13292377813203016
ConcurrentHashMap.addCount|ConcurrentHashMap.putVal|ConcurrentHashMap.put,0.08373308673014934,0.008658619682227456,0.0923917064123768
ConcurrentHashMap.casTabAt|ConcurrentHashMap.putVal|ConcurrentHashMap.put,0.17427778344555214,0.014049355944591235,0.18832713939014337
ConcurrentHashMap.casTabAt|ConcurrentHashMap.transfer|ConcurrentHashMap.addCount,0.0687734286212642,0.007342255104636369,0.07611568372590058
ConcurrentHashMap.get|ConcurrentHashMap.containsKey|PyDictionary.dict_has_key,0.0433171283299312,0.0011332271687998026,0.044450355498731
ConcurrentHashMap.get|PyDictionary.__finditem__|PyObject.__getitem__,0.04431856446467517,0.0037773727878531132,0.04809593725252828
ConcurrentHashMap.get|PyStringMap.__finditem__|PyFrame.doGetglobal,0.14735686197531525,0.014352994141007352,0.1617098561163226
ConcurrentHashMap.get|PyStringMap.__finditem__|PyInstance.ifindlocal,0.044518069741368585,0.0037572372219490014,0.04827530696331759
ConcurrentHashMap.get|PyStringMap.__finditem__|PyType.lookup,0.2608359527859644,0.026485284674911035,0.2873212374608754
ConcurrentHashMap.initTable|ConcurrentHashMap.putVal|ConcurrentHashMap.put,0.09735280058296084,0.010507665053309934,0.10786046563627077
ConcurrentHashMap.putVal|ConcurrentHashMap.put|PyDictionary.dict___setitem__,0.1453655980691316,0.012012971213269007,0.1573785692824006
ConcurrentHashMap.putVal|ConcurrentHashMap.put|PyStringMap.__setitem__,0.44160439901875126,0.03253466455294379,0.47413906357169505
ConcurrentHashMap.replaceNode|ConcurrentHashMap.remove|PyDictionary.dict___delitem__,0.09494062589265259,0.005494812792609766,0.10043543868526236
ConcurrentHashMap.spread|ConcurrentHashMap.get|PyStringMap.__finditem__,0.2116813839376942,0.020286797394906787,0.231968181332601
ConcurrentHashMap.tabAt|ConcurrentHashMap.get|PyDictionary.__finditem__,0.056247158254893126,0.005118791428730425,0.06136594968362355
ConcurrentHashMap.tabAt|ConcurrentHashMap.get|PyStringMap.__finditem__,0.13893480675487102,0.016769339874281895,0.1557041466291529
ConcurrentHashMap.tabAt|ConcurrentHashMap.putVal|ConcurrentHashMap.put,0.12193853359280737,0.012927194112317597,0.13486572770512498
DataInputStream.readByte|PackageManager.checkAccess|CachedJarsPackageManager.addZipEntry,0.05235347391411856,0.005518947790679611,0.05787242170479817
DataInputStream.readShort|PackageManager.checkAccess|CachedJarsPackageManager.addZipEntry,0.02195827451000428,0.0013694117646367635,0.023327686274641046
DataInputStream.skipBytes|PackageManager.checkAccess|CachedJarsPackageManager.addZipEntry,0.0849085714268897,0.010525714285904542,0.09543428571279425
DecimalFormat.applyPattern|DecimalFormat.<init>|NumberFormatProviderImpl.getInstance,0.06709862048645497,0.0063696832332062565,0.07346830371966123
DecimalFormat.expandAffix|DecimalFormat.getPositiveSuffixFieldPositions|DecimalFormat.subformat,0.06709862048645497,0.0063696832332062565,0.07346830371966123
Field.copy|ReflectAccess.copyField|ReflectionFactory.copyField,0.03392371459016304,0.005833996677239922,0.03975771126740296
FileInputStream.available0|FileInputStream.available|BufferedInputStream.read,0.5417459152515475,0.04379984854844378,0.5855457637999912
FileInputStream.readBytes|FileInputStream.read|BufferedInputStream.fill,1.1467570319056772,0.09346538560294414,1.2402224175086214
FileOutputStream.open0|FileOutputStream.open|FileOutputStream.<init>,0.12285806131699262,0.013033076930973957,0.1358911382479666
FileOutputStream.writeBytes|FileOutputStream.write|BufferedOutputStream.flushBuffer,0.2779493651912583,0.024372107009254476,0.30232147220051275
FileOutputStream.writeBytes|FileOutputStream.write|BufferedOutputStream.write,0.16794222490918892,0.014883006874117075,0.182825231783306
FilterInputStream.read|PushbackInputStream.read|ZipInputStream.read,0.06550458977315796,0.005770336405588095,0.07127492617874605
HashMap.getNode|HashMap.get|PyType.fromClass,0.3445606567337909,0.03510478994207675,0.37966544667586766
HashMap.putVal|HashMap.put|ScopeInfo.addBound,0.05158024242414147,0.006000909091336793,0.05758115151547826
Hashtable.get|ClassPool.getCached|ClassPool.get0,0.0409451538468532,0.0035099999994809665,0.04445515384633417
Inflater.ensureOpen|Inflater.inflate|InflaterInputStream.read,0.07566666666712586,0.007141666667141383,0.08280833333426725
Inflater.finished|InflaterInputStream.read|ZipInputStream.read,0.04608504853659581,0.004663763584321792,0.05074881212091761
Inflater.inflateBytes|Inflater.inflate|InflaterInputStream.read,13.963888781134175,1.220818706218491,15.184707487352666
Inflater.inflate|InflaterInputStream.read|ZipInputStream.read,0.9890501073879311,0.09313829086080472,1.0821883982487357
Inflater.needsDictionary|InflaterInputStream.read|ZipInputStream.read,0.1587167543212842,0.014062636086948197,0.1727793904082324
Inflater.needsInput|InflaterInputStream.read|ZipInputStream.read,0.03863837700557249,0.003203005974993692,0.04184138298056618
Inflater.setInput|InflaterInputStream.fill|InflaterInputStream.read,0.016532328200636624,0.0011973078209209676,0.017729636021557593
InflaterInputStream.<init>|ZipFile$ZipFileInflaterInputStream.<init>|ZipFile.getInputStream,0.026070714287925508,0.0018342857142020614,0.027905000002127568
InflaterInputStream.ensureOpen|InflaterInputStream.read|ZipInputStream.read,0.0758600000020427,0.009413333333213814,0.08527333333525651
InflaterInputStream.fill|InflaterInputStream.read|ZipInputStream.read,0.07226652515306388,0.005451894863661651,0.07771842001672553
InflaterInputStream.read|DataInputStream.readUnsignedShort|PackageManager.checkAccess,0.05226013160068022,0.003389870782348931,0.055650002383029154
InflaterInputStream.read|ZipInputStream.read|ZipInputStream.closeEntry,0.019755786120042324,0.0024457423005950127,0.022201528420637336
InflaterInputStream.read|ZipInputStream.read|ZipInputStream.skip,0.07792142857353956,0.005446428571130604,0.08336785714467017
Long.toString|Long.toString|Formatter$FormatSpecifier.print,0.0716349999953915,0.00428000000101747,0.07591499999640897
Matcher.group|Formatter$FormatSpecifier.<init>|Formatter.parse,0.0789007759736466,0.012502105416410577,0.09140288139005717
Math.max|ArrayList.calculateCapacity|ArrayList.ensureCapacityInternal,0.07743759523700214,0.005989285714999172,0.0834268809520013
Objects.requireNonNull|Arrays$ArrayList.<init>|Arrays.asList,0.0919930106929877,0.009881629628148696,0.10187464032113638
PushbackInputStream.read|ZipInputStream.readFully|ZipInputStream.readLOC,0.03187878787954987,0.0027327272722631637,0.03461151515181303
PushbackInputStream.read|ZipInputStream.read|InflaterInputStream.read,0.1986467966884497,0.019267914447868933,0.21791471113631863
PushbackInputStream.read|ZipInputStream.read|ZipInputStream.skip,0.09747059019477433,0.0076907369243338596,0.1051613271191082
StrictMath.floorOrCeil|StrictMath.floor|Math.floor,0.06848208777071878,0.008070833019701958,0.07655292079042074
String.charAt|UnixFileSystem.getBooleanAttributes|File.isDirectory,0.10332068908310954,0.013293997760186155,0.11661468684329569
String.hashCode|ConcurrentHashMap.get|PyStringMap.__finditem__,0.12321511996982992,0.012169903061845561,0.1353850230316755
String.indexOf|CachedJarsPackageManager.filterByName|CachedJarsPackageManager.addZipEntry,0.09726161647618677,0.01034186930691329,0.10760348578310006
String.indexOf|String.indexOf|CachedJarsPackageManager.filterByName,0.03203004355137617,0.003751929129628573,0.03578197268100474
String.indexOf|String.indexOf|PyString.splitfields,0.068284307691591,0.0043569230776763735,0.07264123076926737
String.intern|ImportFunction.__call__|PyObject.__call__,0.09838635740853327,0.010060367588152621,0.1084467249966859
String.intern|PyJavaPackage.addPlaceholders|PackageManager.makeJavaPackage,0.03800143035813786,0.0035112282710057247,0.041512658629143585
String.intern|imp.import_next|imp.import_name,0.23236458591661177,0.02446805390672327,0.25683263982333504
String.length|PyString.translateIndices|PyString.str_find,0.07352499999763461,0.008694444444879566,0.08221944444251417
String.replace|CachedJarsPackageManager.addZipEntry|CachedJarsPackageManager.getZipPackages,0.016923279773414734,0.0013819177518655387,0.018305197525280273
String.substring|CachedJarsPackageManager.addZipEntry|CachedJarsPackageManager.getZipPackages,0.032070399688077185,0.002233958173626936,0.03430435786170412
String.substring|PyString.fromSubstring|PyString.splitfields,0.09879533333393434,0.007399999999809855,0.10619533333374419
String.toLowerCase|String.toLowerCase|PyString.str_lower,0.10858028718956664,0.010404725088040138,0.11898501227760677
String.toUpperCase|String.toUpperCase|PyString.str_upper,0.231271162112379,0.022519398649898627,0.25379056076227763
StringBuilder.<init>|imp.import_name|imp.importName,0.07980255938979197,0.008844943865543652,0.08864750325533563
StringBuilder.append|StringBuilder.<init>|imp.import_name,0.08945407789397998,0.010422581072535778,0.09987665896651576
Thread.isInterrupted|PyTableCode.call|PyBaseCode.call,0.07911291977409925,0.00840230065205666,0.0875152204261559
Thread.isInterrupted|Thread.interrupted|Resource.getBytes,0.01569895254091845,0.0012270675937383312,0.016926020134656782
ThreadLocal$ThreadLocalMap.getEntry|ThreadLocal$ThreadLocalMap.access$000|ThreadLocal.get,0.22058970483348714,0.01521486717783793,0.23580457201132507
ThreadLocal.get|ThreadStateMapping.getThreadState|Py.getThreadState,0.06938847500632078,0.0018774929919710128,0.0712659679982918
Throwable.fillInStackTrace|PyException.fillInStackTrace|Throwable.<init>,0.1012776666660405,0.011479999999816451,0.11275766666585696
Throwable.fillInStackTrace|Throwable.fillInStackTrace|PyException.fillInStackTrace,4.42813272449828,0.4425267456910049,4.870659470189285
Throwable.fillInStackTrace|Throwable.fillInStackTrace|Throwable.<init>,1.9439920231087244,0.20490306571006836,2.1488950888187928
UnixFileSystem.delete0|UnixFileSystem.delete|File.delete,0.222956022531854,0.02213403766390802,0.24509006019576202
UnixFileSystem.getBooleanAttributes0|UnixFileSystem.getBooleanAttributes|File.exists,0.06510428571172745,0.005828571428580853,0.07093285714030831
UnixFileSystem.getBooleanAttributes0|UnixFileSystem.getBooleanAttributes|File.isDirectory,0.15034657128651788,0.016492239109423122,0.166838810395941
ZipCoder.toString|ZipCoder.toStringUTF8|ZipInputStream.readLOC,0.043444250369480436,0.004385324507336761,0.047829574876817195
ZipCoder.toString|ZipFile.getZipEntry|ZipFile.getEntry,0.04536811494079135,0.0058239655169101704,0.051192080457701516
ZipFile.getEntryBytes|ZipFile.getZipEntry|ZipFile.getEntry,0.05533419047597341,0.005037499999421665,0.060371690475395076
ZipFile.open|ZipFile.<init>|ZipFile.<init>,0.008651125858994697,0.0006955973720128827,0.00934672323100758
ZipInputStream.closeEntry|CachedJarsPackageManager.getZipPackages|CachedJarsPackageManager.addJarToPackages,0.02629005405238479,0.00305441323387997,0.02934446728626476
ZipInputStream.readFully|ZipInputStream.readLOC|ZipInputStream.getNextEntry,0.03881505153114384,0.002531522236825109,0.04134657376796895
ZipInputStream.read|InflaterInputStream.read|DataInputStream.readShort,0.21152986653389305,0.01743351588039633,0.22896338241428937
ZipInputStream.read|InflaterInputStream.read|DataInputStream.readUnsignedShort,0.26272565681000737,0.02388191183726241,0.2866075686472698
