method,package1,package2,dram1,dram2,energy
java.io,1.9956501902833685,0.14586325714785958,0.18471249598930872,0.020909428571481144,2.3471353719920183
java.lang,5.904827071047939,4.831031051977916,0.67092711862943,0.6080164935040389,12.014801735159324
java.math,0.07381200000236278,0.09732049999729496,0.010164999999688009,0.008249999999861757,0.1895474999992075
java.net,0.06089968253887953,0.0,0.0064380952371432204,0.0,0.06733777777602275
java.security,0.032114914587431015,0.0,0.0021928230403410005,0.0,0.03430773762777201
java.text,0.04295903289640162,0.0,0.005737750557754257,0.0,0.04869678345415588
java.util,0.8493141069645241,0.6662748750059109,0.11807253828021878,0.07120999999945828,1.704871520250112
java.util.concurrent,0.9879797262146127,1.2200315833300313,0.14549421591950945,0.17059249999973264,2.5240980254638865
java.util.regex,0.08221418182206848,0.0,0.004794545454470525,0.0,0.08700872727653901
java.util.zip,10.25168269190424,0.23241170475092263,0.7989967686230453,0.034934989010064484,11.318026154288273
