method,hits
ANTLRStringStream.LA,2
ANTLRStringStream.consume,2
AbstractCollection.toArray,16
AbstractStringBuilder.append,2
AccessController.doPrivileged,2
AnnotationParser.parseSig,4
Arithmetic$py.test$11,22
Arithmetic$py.test$14,26
Arithmetic$py.test$2,24
Arithmetic$py.test$5,42
Arithmetic$py.test$8,28
ArrayList$SubList$1.next,2
ArrayList.add,2
ArrayList.ensureExplicitCapacity,2
ArrayList.rangeCheck,2
Arrays.copyOf,16
Arrays.copyOfRange,10
AugAssign$PyExposer.<init>,2
BaseParser.setupParser,18
BaseRecognizer.pushFollow,2
BaseTree.<init>,2
Benchmark.unpackZipStream,2
BigInteger.divideKnuth,2
BufferedInputStream.read,26
BufferedInputStream.read1,6
BufferedOutputStream.<init>,2
BufferedOutputStream.write,2
ByteVector.putUTF8,2
CachedJarsPackageManager.getZipPackages,2
Call.traverse,2
Calls$py.f$28,2
Calls$py.test$13,6
Calls$py.test$16,8
Calls$py.test$2,10
Character.getType,2
Character.isLowerCase,2
Character.toTitleCase,6
CharacterData.of,2
CharacterDataLatin1.getProperties,2
CharacterDataLatin1.getType,2
Class$MethodArray.addIfNotPresent,2
Class$MethodArray.compactAndTrim,2
Class.forName0,6
Class.getDeclaredConstructors0,8
ClassFile.addMethod,2
ClassLoader.defineClass1,34
ClassLoader.findLoadedClass0,2
ClassPool.compress,2
ClassReader.accept,4
ClassWriter.visitMethod,2
ClassicPyObjectAdapter$NumberToPyInteger.adapt,2
CodeAttribute.<init>,2
CodeCompiler.parse,2
CommandLineArgs.makeOption,2
CompilerFlags.isFlagSet,2
ConcurrentHashMap$Node.<init>,2
ConcurrentHashMap.addCount,2
ConcurrentHashMap.casTabAt,2
ConcurrentHashMap.get,18
ConcurrentHashMap.putVal,22
ConcurrentHashMap.replaceNode,2
ConcurrentHashMap.setTabAt,2
ConcurrentHashMap.spread,6
ConcurrentHashMap.tabAt,20
ConcurrentHashMap.transfer,2
ConstPool.read,2
ConstPool.readOne,2
Constructs$py.test$2,14
Constructs$py.test$5,4
Constructs$py.test$8,4
DFA.predict,6
DataInputStream.skipBytes,2
DecimalFormat.applyPattern,2
Dict$py.test$11,2
Dict$py.test$14,12
Dict$py.test$2,12
Dict$py.test$5,10
Dict$py.test$8,8
Errno$StringTable.generateTable,2
Exceptions$py.test$2,2
Exceptions$py.test$5,8
FileInputStream.available0,8
FileInputStream.readBytes,16
FileOutputStream.close0,4
FileOutputStream.open0,8
FileOutputStream.writeBytes,24
FloatingDecimal.getBinaryToASCIIConverter,2
FloatingDecimal.readJavaFormatString,2
Formatter$Conversion.isGeneral,2
Formatter$FormatSpecifier.checkGeneral,4
Frame.b,2
FunctionDef$PyExposer.<init>,2
Future.<init>,2
HashMap$HashIterator.<init>,2
HashMap$KeyIterator.next,2
HashMap.getNode,6
HashMap.hash,4
Hashtable.rehash,2
Imports$py.test$2,2
Inflater.finished,4
Inflater.getBytesRead,2
Inflater.inflate,16
Inflater.inflateBytes,534
Inflater.needsInput,6
Inflater.setInput,4
InflaterInputStream.fill,2
InflaterInputStream.read,6
Instances$py.call_function,2
JarFile.getManifestFromReference,2
Lists$py.test$2,22
Lists$py.test$8,16
Lookups$py.test$12,14
Lookups$py.test$17,8
Lookups$py.test$2,8
Lookups$py.test$22,6
Lookups$py.test$7,6
Math.min,2
Module.<init>,2
Module.PyCode,2
Module.compile,2
Native.initIDs,2
Numbers$py.test$11,4
Numbers$py.test$2,12
Numbers$py.test$5,14
Numbers$py.test$8,4
Package.getSystemPackage0,4
PackageManager.checkAccess,6
PushbackInputStream.read,4
Py.getSystemState,2
Py.getThreadState,2
Py.newInteger,4
PyBaseCode.call,6
PyBaseString.<init>,2
PyClass.__call__,2
PyClass.__setattr__,4
PyComplex.complex___sub__,2
PyDictionary$PyExposer.<init>,2
PyDictionary$dict_get_exposer.bind,2
PyDictionary.__finditem__,2
PyDictionary.dict___setitem__,2
PyException.isExceptionClass,2
PyException.normalize,2
PyFile$PyExposer.<init>,2
PyFile.file___init__,2
PyFloat.<init>,2
PyFloat.float___div__,2
PyFrame.<init>,8
PyFrame.doGetglobal,14
PyFrame.getLocals,2
PyFrame.getlocal,28
PyFrame.setline,16
PyFrame.setlocal,24
PyFrame.setupEnv,2
PyInstance.__findattr_ex__,2
PyInstance.ifindlocal,2
PyInteger$PyExposer.<init>,2
PyInteger.__floordiv__,2
PyInteger.divide,4
PyInteger.int___mul__,2
PyList$list_append_exposer.__call__,2
PyList.fromList,2
PyList.list___len__,2
PyList.pyadd,2
PyList.pyget,6
PyList.pyset,2
PyLong.long___div__,2
PyObject.<init>,6
PyObject.__call__,6
PyObject.__eq__,2
PyObject.__getattr__,4
PyObject.__getitem__,2
PyObject.__lt__,2
PyObject._basic_div,2
PyObject._basic_sub,2
PyObject._div,2
PyObject._eq,2
PyObject._lt,4
PyObject.getType,6
PyObjectDerived.__setattr__,2
PyReflectedFunction._doget,2
PySequence$1.getItem,2
PySlice.indicesEx,2
PyString$str_isspace_exposer.bind,2
PyString$str_rstrip_exposer.bind,2
PyString.<init>,2
PyString.__gt__,4
PyString.__le__,2
PyString.str___lt__,2
PyString.str_islower,2
PyString.str_isupper,2
PyStringMap.__finditem__,14
PySystemState.initialize,2
PyTableCode.call,4
PyTuple.<init>,4
PyTuple.getslice,2
PyTuple.tuple_new,2
PyType.computeMro,2
PyType.fastGetDict,4
PyType.fromClass,20
PyType.invoke_new_,4
PyType.lookup,2
PyUnicode$PyExposer.<init>,4
PyUnicode$unicode_istitle_exposer.bind,2
PyUnicode.isBasicPlane,2
PyUnicode.unicode___add__,2
PythonLexer.<clinit>,4
PythonParser.<clinit>,6
PythonParser.<init>,2
PythonParser.and_test,2
PythonParser.atom,4
PythonParser.decorator,2
PythonParser.expr_stmt,2
PythonParser.xor_expr,4
RewriteRuleElementStream.<init>,4
String.<init>,4
String.charAt,2
String.concat,4
String.endsWith,2
String.hashCode,4
String.indexOf,2
String.intern,18
String.replace,2
String.toLowerCase,2
String.toUpperCase,8
StringBuilder.append,4
Strings$py.test$11,14
Strings$py.test$14,10
Strings$py.test$17,4
Strings$py.test$2,10
Strings$py.test$20,10
Strings$py.test$5,40
Strings$py.test$8,76
Subscript$PyExposer.<init>,2
TextIOInputStream.read,2
ThreadLocal$ThreadLocalMap.getEntry,16
ThreadStateMapping.getThreadState,4
Throwable.fillInStackTrace,152
Tuples$py.test$2,6
Tuples$py.test$5,20
URL.openStream,2
URLClassLoader.defineClass,2
URLClassPath.getResources,2
Unicode$py.test$17,6
Unicode$py.test$2,4
Unicode$py.test$20,4
Unicode$py.test$5,20
Unicode$py.test$8,2
UnixFileSystem.delete0,10
UnixFileSystem.list,2
Vector.elementData,2
While$PyExposer.<init>,2
ZipCoder.toString,2
ZipFile.getEntry,2
ZipFile.getInflater,2
ZipFile.read,10
ZipInputStream.<init>,2
ZipInputStream.read,6
ZipInputStream.readLOC,2
ZipInputStream.skip,2
__builtin__.__import__,2
__builtin__.fillWithBuiltins,6
_pyx1.run$19,2
_sre.getlower,2
arguments$PyExposer.<init>,2
codecs$py.<init>,2
unicodedata$py.get$11,4
unicodedata$py.get_codepoint$9,2
unicodedata$py.get_numeric$3,2
unicodedata$py.init_east_asian_width$5,2
