dram,epoch,package,socket
0.0,0,0.0,1
0.0,1,0.0,1
0.21255000000019209,2,1.5411979999989853,1
0.0,3,0.0,1
0.0040200000039476436,4,0.03521800000453368,1
0.0,5,0.0,1
0.0,6,0.0,1
0.0,7,0.0,1
0.004019999996671686,8,0.03430199999274919,1
0.0,9,0.0,1
0.024525000000721775,10,0.18640099999902304,1
0.0,11,0.0,1
0.00811500000054366,12,0.06567400000494672,1
0.0,13,0.0,1
0.0,14,0.0,1
0.0,15,0.0,1
0.004080000002431916,16,0.029723999999987427,1
0.0,17,0.0,1
0.0,18,0.0,1
0.0,19,0.0,1
0.03682499999922584,20,0.2588499999983469,1
0.0,21,0.0,1
0.012239999996381812,22,0.08758499999385094,1
0.0,23,0.0,1
0.03274500000406988,24,0.2459110000054352,1
0.0,25,0.0,1
0.03269999999974971,26,0.24676500000350643,1
0.0,27,0.0,1
0.03275999999823398,28,0.2421879999965313,1
0.0,29,0.0,1
0.048494999999093125,30,0.3695679999946151,1
0.0,31,0.0,1
0.01224000000001979,32,0.09124700000393204,1
0.0,33,0.0,1
0.024690000002010493,34,0.21118199999909848,1
0.0,35,0.0,1
0.03281999999671825,36,0.2393800000063493,1
0.0,37,0.0,1
0.02704500000254484,38,0.21008299999812152,1
0.0,39,0.0,1
0.07312500000261934,40,0.5053709999992861,1
0.0,41,0.0,1
0.002909999999246793,42,0.029845999997633044,1
0.0,43,0.0,1
0.012899999997898703,44,0.10095200000068871,1
0.0,45,0.0,1
0.03260999999838532,46,0.24340800000209128,1
0.0,47,0.0,1
0.02455500000360189,48,0.21655299999838462,1
0.0,49,0.0,1
0.03464999999778229,50,0.34094200000254204,1
0.0,51,0.0,1
0.01644000000305823,52,0.10717799999838462,1
0.0,53,0.0,1
0.16993499999807682,54,1.3563229999999749,1
0.0,55,0.0,1
0.0038400000012188684,56,0.037537000003794674,1
0.0,57,0.0,1
0.0,58,0.0,1
0.0,59,0.0,1
0.020114999995712424,60,0.24810799999249866,1
0.0,61,0.0,1
0.008175000002665911,62,0.0692750000016531,1
0.0,63,0.0,1
0.008174999999027932,64,0.065124000000651,1
0.0,65,0.0,1
0.03267000000050757,66,0.2562870000037947,1
0.0,67,0.0,1
0.03246000000217464,68,0.27178899999853456,1
0.0,69,0.0,1
0.04283999999825028,70,0.28857499999867287,1
0.0,71,0.0,1
0.018209999998362036,72,0.1317750000016531,1
0.0,73,0.0,1
0.02832000000125845,74,0.2140499999950407,1
0.0,75,0.0,1
0.028800000000046566,76,0.21154800000658724,1
0.0,77,0.0,1
0.03242999999929452,78,0.2724610000004759,1
0.0,79,0.0,1
0.0381600000000617,80,0.3062129999962053,1
0.0,81,0.0,1
0.015210000001388835,82,0.12603800000215415,1
0.0,83,0.0,1
0.03116999999838299,84,0.24395699999877252,1
0.0,85,0.0,1
0.032700000003387686,86,0.25860600000305567,1
0.0,87,0.0,1
0.028739999997924315,88,0.21917699999175966,1
0.0,89,0.0,1
0.0432600000021921,90,0.40527400000428315,1
0.0,91,0.0,1
0.016319999998813728,92,0.13031000000046333,1
0.0,93,0.0,1
0.031214999999065185,94,0.27001900000323076,1
0.0,95,0.0,1
0.0240300000004936,96,0.20642099999531638,1
0.0,97,0.0,1
0.019350000002305023,98,0.2600709999969695,1
0.0,99,0.0,1
0.04139999999824795,100,0.402527000005648,1
0.0,101,0.0,1
0.020400000001245644,102,0.20172099999763304,1
0.0,103,0.0,1
0.032339999997930136,104,0.3541259999983595,1
0.0,105,0.0,1
0.03657000000021071,106,0.4292600000044331,1
0.0,107,0.0,1
0.02854499999739346,108,0.32428000000072643,1
0.0,109,0.0,1
0.04890000000159489,110,0.5222779999967315,1
0.0,111,0.0,1
0.016199999998207204,112,0.17993199999909848,1
0.0,113,0.0,1
0.03265500000270549,114,0.3593140000011772,1
0.0,115,0.0,1
0.03664500000013504,116,0.3597410000002128,1
0.0,117,0.0,1
0.02832000000125845,118,0.3076169999985723,1
0.0,119,0.0,1
0.04858500000045751,120,0.5511469999983092,1
0.0,121,0.0,1
0.01622999999744934,122,0.16192700000101468,1
0.0,123,0.0,1
0.03252000000065891,124,0.31799299999693176,1
0.0,125,0.0,1
0.03257999999914318,126,0.29333500000211643,1
0.0,127,0.0,1
0.032640000001265435,128,0.3088990000032936,1
0.0,129,0.0,1
0.04876499999954831,130,0.457762999998522,1
0.0,131,0.0,1
0.016274999998131534,132,0.13440000000264263,1
0.0,133,0.0,1
0.032940000000962755,134,0.26092500000231666,1
0.0,135,0.0,1
0.03268500000194763,136,0.26110899999184767,1
0.0,137,0.0,1
0.03035999999701744,138,0.2570800000030431,1
0.0,139,0.0,1
0.03958499999862397,140,0.32672099999763304,1
0.0,141,0.0,1
0.020520000001852168,142,0.1500850000011269,1
0.0,143,0.0,1
0.02179500000056578,144,0.20196600000781473,1
0.0,145,0.0,1
0.03337499999906868,146,0.267638999997871,1
0.0,147,0.0,1
0.022845000003144378,148,0.21893299999646842,1
0.0,149,0.0,1
0.032714999997551786,150,0.2763669999985723,1
0.0,151,0.0,1
0.01593000000139,152,0.16741900000488386,1
0.0,153,0.0,1
0.023535000000265427,154,0.20751999999629334,1
0.0,155,0.0,1
0.02058000000033644,156,0.1849369999981718,1
0.0,157,0.0,1
0.02651999999943655,158,0.23474100000748876,1
0.0,159,0.0,1
0.02945999999792548,160,0.26660099999571685,1
0.0,161,0.0,1
0.017700000000331784,162,0.15637199999764562,1
0.0,163,0.0,1
0.030449999998381827,164,0.20880200000101468,1
0.0,165,0.0,1
0.028515000001789303,166,0.24572700000135228,1
0.0,167,0.0,1
0.02457000000140397,168,0.2590940000009141,1
0.0,169,0.0,1
0.032939999997324776,170,0.2705690000002505,1
0.0,171,0.0,1
0.016935000003286405,172,0.135987000001478,1
0.0,173,0.0,1
0.03329999999914435,174,0.27484099999128375,1
0.0,175,0.0,1
0.026310000001103617,176,0.23144500000489643,1
0.0,177,0.0,1
0.03334499999618856,178,0.29968299999745796,1
0.0,179,0.0,1
0.0485400000034133,180,0.5350340000004508,1
0.0,181,0.0,1
0.012119999999413267,182,0.1450810000023921,1
0.0,183,0.0,1
0.032189999998081475,184,0.3865349999978207,1
0.0,185,0.0,1
0.02853000000322936,186,0.38263000000006286,1
0.0,187,0.0,1
0.02854499999739346,188,0.3371580000020913,1
0.0,189,0.0,1
0.04890000000159489,190,0.5026849999994738,1
0.0,191,0.0,1
0.020459999999729916,192,0.1546020000023418,1
0.0,193,0.0,1
0.028739999997924315,194,0.29064999999536667,1
0.0,195,0.0,1
0.031290000002627494,196,0.2413940000042203,1
0.0,197,0.0,1
0.02936999999656109,198,0.2160029999940889,1
0.0,199,0.0,1
0.038040000003093155,200,0.3055420000018785,1
0.0,201,0.0,1
0.014100000000325963,202,0.10906999999861,1
0.0,203,0.0,1
0.02966999999989639,204,0.25079399999958696,1
0.0,205,0.0,1
0.032639999997627456,206,0.26367100000788923,1
0.0,207,0.0,1
0.032640000001265435,208,0.24932899999112124,1
0.0,209,0.0,1
0.03456000000005588,210,0.3024290000030305,1
0.0,211,0.0,1
0.02448000000003958,212,0.18695100000331877,1
0.0,213,0.0,1
0.030240000000048894,214,0.2853389999945648,1
0.0,215,0.0,1
0.026879999997618143,216,0.23864800000592368,1
0.0,217,0.0,1
0.028050000000803266,218,0.270262999998522,1
0.0,219,0.0,1
0.03625500000271131,220,0.3739629999981844,1
0.0,221,0.0,1
0.018224999999802094,222,0.14929200000187848,1
0.0,223,0.0,1
0.02936999999656109,224,0.24365199999738252,1
0.0,225,0.0,1
0.030525000001944136,226,0.27185100000497187,1
0.0,227,0.0,1
0.02058000000033644,228,0.24890099999902304,1
0.0,229,0.0,1
0.0369749999990745,230,0.4013669999985723,1
0.0,231,0.0,1
0.01644000000305823,232,0.12378000000171596,1
0.0,233,0.0,1
0.03689999999915017,234,0.2888180000009015,1
0.0,235,0.0,1
0.02623499999754131,236,0.25970499999675667,1
0.0,237,0.0,1
0.02577000000019325,238,0.28009000000020023,1
0.0,239,0.0,1
0.04144500000256812,240,0.3734739999999874,1
0.0,241,0.0,1
0.020339999999123393,242,0.16485600000305567,1
0.0,243,0.0,1
0.02855999999883352,244,0.2258910000018659,1
0.0,245,0.0,1
0.0366600000015751,246,0.29754599999432685,1
0.0,247,0.0,1
0.030299999998533167,248,0.24371399999654386,1
0.0,249,0.0,1
0.04136999999900581,250,0.43713400000706315,1
0.0,251,0.0,1
0.01623000000108732,252,0.1436759999996866,1
0.0,253,0.0,1
0.03252000000065891,254,0.26324499999464024,1
0.0,255,0.0,1
0.03267000000050757,256,0.25305200000002515,1
0.0,257,0.0,1
0.03441000000020722,258,0.27844200000254204,1
0.0,259,0.0,1
0.04858499999681953,260,0.4053959999946528,1
0.0,261,0.0,1
0.01224000000365777,262,0.1147460000065621,1
0.0,263,0.0,1
0.030299999998533167,264,0.2789909999992233,1
0.0,265,0.0,1
0.03268499999830965,266,0.31481999999959953,1
0.0,267,0.0,1
0.03238500000225031,268,0.32263200000306824,1
0.0,269,0.0,1
0.05184000000008382,270,0.4995109999945271,1
0.0,271,0.0,1
0.011159999998199055,272,0.10931400000117719,1
0.0,273,0.0,1
0.022949999998672865,274,0.26464900000428315,1
0.0,275,0.0,1
0.03269999999974971,276,0.24194299999362556,1
0.0,277,0.0,1
0.032850000003236346,278,0.23535200000333134,1
0.0,279,0.0,1
0.04079999999885331,280,0.2948000000033062,1
0.0,281,0.0,1
0.01698000000033062,282,0.13970899999549147,1
0.0,283,0.0,1
0.03446999999869149,284,0.263611000002129,1
0.0,285,0.0,1
0.027510000003530877,286,0.20782499999768334,1
0.0,287,0.0,1
0.036854999998467974,288,0.29809499999828404,1
0.0,289,0.0,1
0.03938999999809312,290,0.33636500000284286,1
0.0,291,0.0,1
0.016319999998813728,292,0.11419700000260491,1
0.0,293,0.0,1
0.03238500000225031,294,0.24108899999555433,1
0.0,295,0.0,1
0.02644499999951222,296,0.20080500000040047,1
0.0,297,0.0,1
0.02058000000397442,298,0.24267600000166567,1
0.0,299,0.0,1
0.02516999999716063,300,0.3273320000007516,1
0.0,301,0.0,1
0.020400000001245644,302,0.17852700000366895,1
0.0,303,0.0,1
0.026490000000194414,304,0.24340899999515386,1
0.0,305,0.0,1
0.03350999999747728,306,0.3122559999974328,1
0.0,307,0.0,1
0.02043000000048778,308,0.23547300000791438,1
0.0,309,0.0,1
0.04680000000007567,310,0.39343299999745796,1
0.0,311,0.0,1
0.0181799999991199,312,0.16595399999641813,1
0.0,313,0.0,1
0.025109999998676358,314,0.24231000000145286,1
0.0,315,0.0,1
0.033375000002706656,316,0.2947390000044834,1
0.0,317,0.0,1
0.02177999999912572,318,0.21990899999946123,1
0.0,319,0.0,1
0.04747499999939464,320,0.45959499999298714,1
0.0,321,0.0,1
0.016500000001542503,322,0.14007600000331877,1
0.0,323,0.0,1
0.02516999999716063,324,0.24646000000211643,1
0.0,325,0.0,1
0.02697000000262051,326,0.27215499999874737,1
0.0,327,0.0,1
0.026850000002013985,328,0.26739599999564234,1
0.0,329,0.0,1
0.050969999996596016,330,0.4223630000051344,1
0.0,331,0.0,1
0.01224000000001979,332,0.09741199999552919,1
0.0,333,0.0,1
0.03282000000035623,334,0.234375,1
0.0,335,0.0,1
0.027960000003076857,336,0.22601299999951152,1
0.0,337,0.0,1
0.025859999997919658,338,0.22540300000400748,1
0.0,339,0.0,1
0.0447600000006787,340,0.38079799999832176,1
0.0,341,0.0,1
0.020249999997759005,342,0.18011500000284286,1
0.0,343,0.0,1
0.03153000000384054,344,0.2524409999969066,1
0.0,345,0.0,1
0.028154999996331753,346,0.23095699999976205,1
0.0,347,0.0,1
0.028050000000803266,348,0.23675599999842234,1
0.0,349,0.0,1
0.04501499999969383,350,0.3372190000009141,1
0.0,351,0.0,1
0.02051999999821419,352,0.16546600000583567,1
0.0,353,0.0,1
0.02599500000360422,354,0.21813999999722,1
0.0,355,0.0,1
0.0356099999989965,356,0.2985229999976582,1
0.0,357,0.0,1
0.03288000000247848,358,0.2952880000011646,1
0.0,359,0.0,1
0.044594999999389984,360,0.4083249999966938,1
0.0,361,0.0,1
0.020399999997607665,362,0.19635000000562286,1
0.0,363,0.0,1
0.03258000000278116,364,0.2764900000038324,1
0.0,365,0.0,1
0.028604999995877733,366,0.2556759999934002,1
0.0,367,0.0,1
0.032640000001265435,368,0.2959590000027674,1
0.0,369,0.0,1
0.04464000000007218,370,0.3526609999971697,1
0.0,371,0.0,1
0.02028000000063912,372,0.17645300000003772,1
0.0,373,0.0,1
0.030480000001261942,374,0.2568360000004759,1
0.0,375,0.0,1
0.03545999999914784,376,0.3037719999992987,1
0.0,377,0.0,1
0.03185999999914202,378,0.2614140000005136,1
0.0,379,0.0,1
0.03779999999824213,380,0.319151999996393,1
0.0,381,0.0,1
0.02457000000140397,382,0.18103100000007544,1
0.0,383,0.0,1
0.02862000000095577,384,0.2108150000058231,1
0.0,385,0.0,1
0.032565000001341105,386,0.2344359999988228,1
0.0,387,0.0,1
0.0363599999982398,388,0.26806699999724515,1
0.0,389,0.0,1
0.04096500000014203,390,0.34112499999901047,1
0.0,391,0.0,1
0.024509999999281717,392,0.19958500000211643,1
0.0,393,0.0,1
0.028080000000045402,394,0.2343140000011772,1
0.0,395,0.0,1
0.0328799999988405,396,0.2255860000004759,1
0.0,397,0.0,1
0.03254999999990105,398,0.2119749999983469,1
0.0,399,0.0,1
0.04394999999931315,400,0.2949220000009518,1
0.0,401,0.0,1
0.020460000003367895,402,0.13366700000187848,1
0.0,403,0.0,1
0.033014999997249106,404,0.21533199999976205,1
0.0,405,0.0,1
0.03277499999967404,406,0.21148700000048848,1
0.0,407,0.0,1
0.030510000004142057,408,0.20831299999554176,1
0.0,409,0.0,1
0.045104999997420236,410,0.30737300000328105,1
0.0,411,0.0,1
0.019349999998667045,412,0.1339109999971697,1
0.0,413,0.0,1
0.02598000000216416,414,0.18316600000252947,1
0.0,415,0.0,1
0.03304500000012922,416,0.18835499999840977,1
0.0,417,0.0,1
0.02824500000133412,418,0.17468299999745796,1
0.0,419,0.0,1
0.0446399999964342,420,0.3622430000032182,1
0.0,421,0.0,1
0.020520000001852168,422,0.16522199999599252,1
0.0,423,0.0,1
0.03257999999914318,424,0.29882800000632415,1
0.0,425,0.0,1
0.03252000000065891,426,0.31951899999694433,1
0.0,427,0.0,1
0.03257999999914318,428,0.35113600000477163,1
0.0,429,0.0,1
0.04477500000211876,430,0.4465940000009141,1
0.0,431,0.0,1
0.020249999997759005,432,0.1532589999915217,1
0.0,433,0.0,1
0.024660000002768356,434,0.22461000000475906,1
0.0,435,0.0,1
0.012389999996230472,436,0.19586100000014994,1
0.0,437,0.0,1
0.02883000000292668,438,0.2543950000035693,1
0.0,439,0.0,1
0.03446999999869149,440,0.39636199999949895,1
0.0,441,0.0,1
0.017070000001695007,442,0.17077699999208562,1
0.0,443,0.0,1
0.021659999998519197,444,0.24084399999992456,1
0.0,445,0.0,1
0.024059999999735737,446,0.3021240000016405,1
0.0,447,0.0,1
0.025770000003831228,448,0.22198500000376953,1
0.0,449,0.0,1
0.030479999997623963,450,0.3345340000014403,1
0.0,451,0.0,1
0.015869999999267748,452,0.17340099999273662,1
0.0,453,0.0,1
0.026504999997996492,454,0.28100600000470877,1
0.0,455,0.0,1
0.02065500000389875,456,0.19116200000280514,1
0.0,457,0.0,1
0.026474999998754356,458,0.2704470000026049,1
0.0,459,0.0,1
0.029865000000427244,460,0.39953599998989375,1
0.0,461,0.0,1
0.01517999999850872,462,0.15612800000235438,1
0.0,463,0.0,1
0.02818499999921187,464,0.2958370000051218,1
0.0,465,0.0,1
0.03561000000263448,466,0.2770390000005136,1
0.0,467,0.0,1
0.02276999999958207,468,0.22424299999693176,1
0.0,469,0.0,1
0.04363499999817577,470,0.3699339999948279,1
0.0,471,0.0,1
0.019800000001851004,472,0.1935420000081649,1
0.0,473,0.0,1
0.0344249999980093,474,0.30303999999159714,1
0.0,475,0.0,1
0.025140000001556473,476,0.20446800000354415,1
0.0,477,0.0,1
0.03250499999921885,478,0.3024290000030305,1
0.0,479,0.0,1
0.043229999999311985,480,0.45648200000141514,1
0.0,481,0.0,1
0.020339999999123393,482,0.18182399999932386,1
0.0,483,0.0,1
0.028335000002698507,484,0.26238999999623047,1
0.0,485,0.0,1
0.027539999999135034,486,0.2750240000023041,1
0.0,487,0.0,1
0.03329999999914435,488,0.3029790000000503,1
0.0,489,0.0,1
0.04341000000204076,490,0.39636199999949895,1
0.0,491,0.0,1
0.01628999999957159,492,0.13635200000135228,1
0.0,493,0.0,1
0.03275999999823398,494,0.2583009999943897,1
0.0,495,0.0,1
0.03215999999883934,496,0.28741500000614906,1
0.0,497,0.0,1
0.034590000002935994,498,0.31396500000118976,1
0.0,499,0.0,1
0.20773499999995693,500,1.2607419999985723,1
0.0,501,0.0,1
0.0038399999975808896,502,0.03704799999832176,1
0.0,503,0.0,1
0.0,504,0.0,1
0.0,505,0.0,1
0.0040200000039476436,506,0.03747599999769591,1
0.0,507,0.0,1
0.023939999995491235,508,0.22747800000070129,1
0.0,509,0.0,1
0.04191000000355416,510,0.392943999999261,1
0.0,511,0.0,1
0.025784999997995328,512,0.22485400000732625,1
0.0,513,0.0,1
0.033600000002479646,514,0.2791129999968689,1
0.0,515,0.0,1
0.044204999998328276,516,0.3441169999932754,1
0.0,517,0.0,1
0.033329999998386484,518,0.2646480000039446,1
0.0,519,0.0,1
0.047130000002653105,520,0.4160769999944023,1
0.0,521,0.0,1
0.01607999999760068,522,0.1479490000056103,1
0.0,523,0.0,1
0.037290000000211876,524,0.2992549999980838,1
0.0,525,0.0,1
0.030375000002095476,526,0.24578900000051362,1
0.0,527,0.0,1
0.02854499999739346,528,0.22729500000423286,1
0.0,529,0.0,1
0.059820000002218876,530,0.4974359999978333,1
0.0,531,0.0,1
0.0076200000003154855,532,0.07604999999603024,1
0.0,533,0.0,1
0.033389999996870756,534,0.33422900000732625,1
0.0,535,0.0,1
0.028635000002395827,536,0.28802499999437714,1
0.0,537,0.0,1
0.030149999998684507,538,0.23889100000087637,1
0.0,539,0.0,1
0.0399600000018836,540,0.3514409999988857,1
0.0,541,0.0,1
0.029264999997394625,542,0.2545160000008764,1
0.0,543,0.0,1
0.028440000001864973,544,0.23492399999668123,1
0.0,545,0.0,1
0.03693000000203028,546,0.30865500000072643,1
0.0,547,0.0,1
0.03088500000012573,548,0.25763000000006286,1
0.0,549,0.0,1
0.040169999996578554,550,0.3687740000023041,1
0.0,551,0.0,1
0.02832000000125845,552,0.24133299999812152,1
0.0,553,0.0,1
0.024359999999433057,554,0.2319340000030934,1
0.0,555,0.0,1
0.032640000001265435,556,0.2635489999956917,1
0.0,557,0.0,1
0.029835000001185108,558,0.26702900000236696,1
0.0,559,0.0,1
0.04072499999892898,560,0.33990500000072643,1
0.0,561,0.0,1
0.022199999999429565,562,0.19531300000380725,1
0.0,563,0.0,1
0.02051999999821419,564,0.19854699999268632,1
0.0,565,0.0,1
0.021690000001399312,566,0.2175900000074762,1
0.0,567,0.0,1
0.021225000000413274,568,0.214112000001478,1
0.0,569,0.0,1
0.03280500000255415,570,0.27136199999949895,1
0.0,571,0.0,1
0.01877999999851454,572,0.16467299999203533,1
0.0,573,0.0,1
0.023549999998067506,574,0.21862800000235438,1
0.0,575,0.0,1
0.018509999998059357,576,0.2111810000060359,1
0.0,577,0.0,1
0.02289000000382657,578,0.23590099999273662,1
0.0,579,0.0,1
0.03223499999876367,580,0.2671510000000126,1
0.0,581,0.0,1
0.01698000000033062,582,0.198792000002868,1
0.0,583,0.0,1
0.018944999999803258,584,0.2139889999962179,1
0.0,585,0.0,1
0.021225000000413274,586,0.21350100000563543,1
0.0,587,0.0,1
0.02365500000087195,588,0.20886199999949895,1
0.0,589,0.0,1
0.027539999999135034,590,0.2680049999980838,1
0.0,591,0.0,1
0.022890000000188593,592,0.18628000000171596,1
0.0,593,0.0,1
0.02269499999965774,594,0.22979699999996228,1
0.0,595,0.0,1
0.024539999998523854,596,0.23132299999997485,1
0.0,597,0.0,1
0.02914500000042608,598,0.25366200000280514,1
0.0,599,0.0,1
0.03042000000277767,600,0.2892459999929997,1
0.0,601,0.0,1
0.0123299999977462,602,0.123596000004909,1
0.0,603,0.0,1
0.020475000001169974,604,0.23455799999646842,1
0.0,605,0.0,1
0.02455499999996391,606,0.23291100000642473,1
0.0,607,0.0,1
0.02816999999777181,608,0.2381589999931748,1
0.0,609,0.0,1
0.0408900000002177,610,0.3391110000011395,1
0.0,611,0.0,1
0.02448000000367756,612,0.18536399999720743,1
0.0,613,0.0,1
0.024179999996704282,614,0.24816900000587339,1
0.0,615,0.0,1
0.03674999999930151,616,0.3143309999941266,1
0.0,617,0.0,1
0.027150000001711305,618,0.2160030000086408,1
0.0,619,0.0,1
0.03901499999847147,620,0.3402709999936633,1
0.0,621,0.0,1
0.02442000000155531,622,0.20184400000289315,1
0.0,623,0.0,1
0.025904999998601852,624,0.23754799999733223,1
0.0,625,0.0,1
0.03138000000399188,626,0.2625130000014906,1
0.0,627,0.0,1
0.03240000000005239,628,0.26739500000257976,1
0.0,629,0.0,1
0.02930999999807682,630,0.31835899999714456,1
0.0,631,0.0,1
0.0210449999976845,632,0.19793699999718228,1
0.0,633,0.0,1
0.022410000001400476,634,0.25811800000519725,1
0.0,635,0.0,1
0.03272999999899184,636,0.25,1
0.0,637,0.0,1
0.03412500000194996,638,0.25305099999241065,1
0.0,639,0.0,1
0.04475999999704072,640,0.3489380000028177,1
0.0,641,0.0,1
0.02004000000306405,642,0.17791800000122748,1
0.0,643,0.0,1
0.029190000001108274,644,0.2743530000007013,1
0.0,645,0.0,1
0.02426999999806867,646,0.2545160000008764,1
0.0,647,0.0,1
0.014849999999569263,648,0.2684330000047339,1
0.0,649,0.0,1
0.02472000000125263,650,0.35052499999437714,1
0.0,651,0.0,1
0.018209999998362036,652,0.1705320000037318,1
0.0,653,0.0,1
0.03431999999884283,654,0.31921399999555433,1
0.0,655,0.0,1
0.03283500000179629,656,0.2702639999988605,1
0.0,657,0.0,1
0.022274999999353895,658,0.2585449999969569,1
0.0,659,0.0,1
0.03634500000043772,660,0.3201290000070003,1
0.0,661,0.0,1
0.018660000001545995,662,0.17486600000120234,1
0.0,663,0.0,1
0.028139999998529674,664,0.234375,1
0.0,665,0.0,1
0.023535000000265427,666,0.23419199999625562,1
0.0,667,0.0,1
0.030105000001640292,668,0.2461540000003879,1
0.0,669,0.0,1
0.03496499999528169,670,0.29010099999868544,1
0.0,671,0.0,1
0.021195000004809117,672,0.16448900000250433,1
0.0,673,0.0,1
0.018239999997604173,674,0.1853640000044834,1
0.0,675,0.0,1
0.029910000001109438,676,0.25512699999671895,1
0.0,677,0.0,1
0.017100000000937143,678,0.2051999999966938,1
0.0,679,0.0,1
0.029940000000351574,680,0.2980350000070757,1
0.0,681,0.0,1
0.015389999996841652,682,0.16271999999298714,1
0.0,683,0.0,1
0.012435000000550644,684,0.18511900000157766,1
0.0,685,0.0,1
0.02170499999920139,686,0.23760999999649357,1
0.0,687,0.0,1
0.020700000000942964,688,0.18658500000310596,1
0.0,689,0.0,1
0.03612000000066473,690,0.2857660000008764,1
0.0,691,0.0,1
0.02411999999822001,692,0.17724599999928614,1
0.0,693,0.0,1
0.03456000000005588,694,0.23315500000171596,1
0.0,695,0.0,1
0.02073000000382308,696,0.18731599999591708,1
0.0,697,0.0,1
0.021299999996699626,698,0.21154800000658724,1
0.0,699,0.0,1
0.030630000001110602,700,0.2980959999913466,1
0.0,701,0.0,1
0.014699999999720603,702,0.17150900000706315,1
0.0,703,0.0,1
0.026610000000800937,704,0.24426300000050105,1
0.0,705,0.0,1
0.019500000002153683,706,0.18817099999432685,1
0.0,707,0.0,1
0.01600499999767635,708,0.23571800000354415,1
0.0,709,0.0,1
0.02418000000034226,710,0.24572699999407632,1
0.0,711,0.0,1
0.01990499999737949,712,0.16729800000757677,1
0.0,713,0.0,1
0.026610000004438916,714,0.24371299999620533,1
0.0,715,0.0,1
0.020639999995182734,716,0.18713400000706315,1
0.0,717,0.0,1
0.023610000003827736,718,0.21996999999828404,1
0.0,719,0.0,1
0.030539999996108236,720,0.27172899999277433,1
0.0,721,0.0,1
0.017685000002529705,722,0.158874000000651,1
0.0,723,0.0,1
0.022410000001400476,724,0.21014499999728287,1
0.0,725,0.0,1
0.023579999997309642,726,0.20812900000601076,1
0.0,727,0.0,1
0.022440000000642613,728,0.21557699999539182,1
0.0,729,0.0,1
0.03057000000262633,730,0.2755730000062613,1
0.0,731,0.0,1
0.014789999997447012,732,0.1339109999971697,1
0.0,733,0.0,1
0.02418000000034226,734,0.24231000000145286,1
0.0,735,0.0,1
0.01471500000116066,736,0.18878200000472134,1
0.0,737,0.0,1
0.016019999999116408,738,0.23254399999859743,1
0.0,739,0.0,1
0.017114999998739222,740,0.24169899999105837,1
0.0,741,0.0,1
0.019514999999955762,742,0.18597399999998743,1
0.0,743,0.0,1
0.01434000000153901,744,0.2108150000058231,1
0.0,745,0.0,1
0.016560000000026776,746,0.20868000000336906,1
0.0,747,0.0,1
0.03269999999974971,748,0.21343999999953667,1
0.0,749,0.0,1
0.029399999999441206,750,0.2705069999938132,1
0.0,751,0.0,1
0.017745000001013977,752,0.1604010000010021,1
0.0,753,0.0,1
0.01598999999987427,754,0.18359400000190362,1
0.0,755,0.0,1
0.018359999998210697,756,0.23626700000022538,1
0.0,757,0.0,1
0.016050000001996523,758,0.1832880000001751,1
0.0,759,0.0,1
0.02653499999723863,760,0.29565500000171596,1
0.0,761,0.0,1
0.012930000000778819,762,0.1370230000029551,1
0.0,763,0.0,1
0.0367949999999837,764,0.24511799999163486,1
0.0,765,0.0,1
0.023010000000795117,766,0.1813350000011269,1
0.0,767,0.0,1
0.026460000000952277,768,0.23510800000076415,1
0.0,769,0.0,1
0.027779999996710103,770,0.23419100000319304,1
0.0,771,0.0,1
0.020070000002306188,772,0.15472500000032596,1
0.0,773,0.0,1
0.02237999999852036,774,0.2122799999997369,1
0.0,775,0.0,1
0.021240000001853332,776,0.21685799999977462,1
0.0,777,0.0,1
0.023520000002463348,778,0.22088600000279257,1
0.0,779,0.0,1
0.04085999999733758,780,0.2736819999990985,1
0.0,781,0.0,1
0.01877999999851454,782,0.17077599999902304,1
0.0,783,0.0,1
0.023010000004433095,784,0.1964109999971697,1
0.0,785,0.0,1
0.021179999996093102,786,0.1939700000002631,1
0.0,787,0.0,1
0.027690000002621673,788,0.18933100000140257,1
0.0,789,0.0,1
0.0305099999968661,790,0.24511699999857228,1
0.0,791,0.0,1
0.015255000002071029,792,0.14642299999832176,1
0.0,793,0.0,1
0.023489999999583233,794,0.18261799999891082,1
0.0,795,0.0,1
0.025904999998601852,796,0.18627900000137743,1
0.0,797,0.0,1
0.0313800000003539,798,0.1901849999994738,1
0.0,799,0.0,1
0.031740000002173474,800,0.23803799999586772,1
0.0,801,0.0,1
0.021059999999124557,802,0.14233400000375696,1
0.0,803,0.0,1
0.018840000000636792,804,0.18518000000040047,1
0.0,805,0.0,1
0.017609999998967396,806,0.18579099999624304,1
0.0,807,0.0,1
0.022349999999278225,808,0.1989750000066124,1
0.0,809,0.0,1
0.02289000000382657,810,0.23760999999649357,1
0.0,811,0.0,1
0.022859999997308478,812,0.1670529999973951,1
0.0,813,0.0,1
0.02801999999792315,814,0.1847530000086408,1
0.0,815,0.0,1
0.02928000000247266,816,0.17846699999790872,1
0.0,817,0.0,1
0.020684999999502907,818,0.1531369999938761,1
0.0,819,0.0,1
0.037544999999227,820,0.22900400000071386,1
0.0,821,0.0,1
0.013560000003053574,822,0.1431280000033439,1
0.0,823,0.0,1
0.03203999999459484,824,0.20794600000226637,1
0.0,825,0.0,1
0.023940000002767192,826,0.16064499999629334,1
0.0,827,0.0,1
0.02058000000033644,828,0.1959229999993113,1
0.0,829,0.0,1
0.029910000001109438,830,0.20874000000185333,1
0.0,831,0.0,1
0.024524999997083796,832,0.16857900000468362,1
0.0,833,0.0,1
0.03696000000127242,834,0.21569799999997485,1
0.0,835,0.0,1
0.027750000001105946,836,0.1601569999984349,1
0.0,837,0.0,1
0.03326999999990221,838,0.21527099999366328,1
0.0,839,0.0,1
0.03523499999937485,840,0.24462900000798982,1
0.0,841,0.0,1
0.01681500000267988,842,0.11102299999038223,1
0.0,843,0.0,1
0.026654999997845152,844,0.16979900000296766,1
0.0,845,0.0,1
0.015959999996994156,846,0.13275200000498444,1
0.0,847,0.0,1
0.024210000003222376,848,0.15093999999953667,1
0.0,849,0.0,1
0.03513000000020838,850,0.25720199999341276,1
0.0,851,0.0,1
0.01728000000002794,852,0.13366700000187848,1
0.0,853,0.0,1
0.004649999998946441,854,0.12207000000489643,1
0.0,855,0.0,1
0.018059999998513376,856,0.14813199999480275,1
0.0,857,0.0,1
0.0,858,0.15551799999957439,1
0.0,859,0.0,1
0.018000000000029104,860,0.1657720000075642,1
0.0,861,0.0,1
0.008880000001227017,862,0.11553899999853456,1
0.0,863,0.0,1
0.0,864,0.1467899999988731,1
0.0,865,0.0,1
0.0018000000018218998,866,0.11413499999616761,1
0.0,867,0.0,1
0.005279999997583218,868,0.1339120000047842,1
0.0,869,0.0,1
0.005639999999402789,870,0.19006299999455223,1
0.0,871,0.0,1
0.0105150000017602,872,0.09356700000353158,1
0.0,873,0.0,1
0.006344999997963896,874,0.13482700000167824,1
0.0,875,0.0,1
0.003555000002961606,876,0.13330000000132713,1
0.0,877,0.0,1
0.0035400000015215483,878,0.12957799999276176,1
0.0,879,0.0,1
0.011414999997214181,880,0.2009890000044834,1
0.0,881,0.0,1
0.004769999999552965,882,0.0846559999990859,1
0.0,883,0.0,1
0.005340000003343448,884,0.13018800000281772,1
0.0,885,0.0,1
0.008924999998271232,886,0.1354979999960051,1
0.0,887,0.0,1
0.0035699999971257057,888,0.13092000000324333,1
0.0,889,0.0,1
0.01186500000403612,890,0.17718499999318738,1
0.0,891,0.0,1
0.013559999999415595,892,0.10809300000255462,1
0.0,893,0.0,1
0.015284999997675186,894,0.14611800000420772,1
0.0,895,0.0,1
0.014100000000325963,896,0.14807199999631848,1
0.0,897,0.0,1
0.031725000000733417,898,0.15289299999858486,1
0.0,899,0.0,1
0.027149999998073326,900,0.19653300000209128,1
0.0,901,0.0,1
0.024434999999357387,902,0.17724599999928614,1
0.0,903,0.0,1
0.028260000002774177,904,0.21813999999722,1
0.0,905,0.0,1
0.02861999999731779,906,0.1867670000065118,1
0.0,907,0.0,1
0.025710000001708977,908,0.1958009999943897,1
0.0,909,0.0,1
0.01764000000184751,910,0.17364500000257976,1
0.0,911,0.0,1
0.015209999997750856,912,0.14117399999668123,1
0.0,913,0.0,1
0.0,914,0.13195800000539748,1
0.0,915,0.0,1
0.002940000002126908,916,0.11126799999328796,1
0.0,917,0.0,1
0.00608999999894877,918,0.1307370000067749,1
0.0,919,0.0,1
0.005279999997583218,920,0.16290299999673152,1
0.0,921,0.0,1
0.0035400000015215483,922,0.09912099999928614,1
0.0,923,0.0,1
0.0035400000015215483,924,0.12591500000417,1
0.0,925,0.0,1
0.016485000000102445,926,0.15008599999418948,1
0.0,927,0.0,1
0.0017399999996996485,928,0.14654500000324333,1
0.0,929,0.0,1
0.023999999997613486,930,0.17620899999747053,1
0.0,931,0.0,1
0.012900000001536682,932,0.109375,1
0.0,933,0.0,1
0.020039999999426072,934,0.1388550000046962,1
0.0,935,0.0,1
0.03056999999898835,936,0.1416620000018156,1
0.0,937,0.0,1
0.026235000001179287,938,0.17480500000237953,1
0.0,939,0.0,1
0.007560000001831213,940,0.16973899999720743,1
0.0,941,0.0,1
0.01592999999775202,942,0.11236499999358784,1
0.0,943,0.0,1
0.0,944,0.1300660000051721,1
0.0,945,0.0,1
0.0026250000009895302,946,0.1444709999996121,1
0.0,947,0.0,1
0.00653999999849475,948,0.11798000000271713,1
0.0,949,0.0,1
0.004469999999855645,950,0.14691199999651872,1
0.0,951,0.0,1
0.005850000001373701,952,0.11956800000189105,1
0.0,953,0.0,1
0.003585000002203742,954,0.13360600000305567,1
0.0,955,0.0,1
0.0017399999960616697,956,0.11889599999267375,1
0.0,957,0.0,1
0.007499999999708962,958,0.137695999997959,1
0.0,959,0.0,1
0.0017400000033376273,960,0.10968000000139,1
0.0,961,0.0,1
0.005880000000615837,962,0.10583500000211643,1
0.0,963,0.0,1
0.0,964,0.07324200000584824,1
0.0,965,0.0,1
0.005354999997507548,966,0.09167499999603024,1
0.0,967,0.0,1
0.007215000001451699,968,0.1563109999988228,1
0.0,969,0.0,1
0.007004999999480788,970,0.154236000002129,1
0.0,971,0.0,1
0.006390000002284069,972,0.10235599999577971,1
0.0,973,0.0,1
0.0,974,0.07269300000189105,1
0.0,975,0.0,1
0.0035849999985657632,976,0.13238499999715714,1
0.0,977,0.0,1
0.0,978,0.12609800000063842,1
0.0,979,0.0,1
0.002669999998033745,980,0.1456910000051721,1
0.0,981,0.0,1
0.005339999999705469,982,0.12170399999740766,1
0.0,983,0.0,1
0.0018000000018218998,984,0.12768599999981234,1
0.0,985,0.0,1
0.0018149999996239785,986,0.12664800000493415,1
0.0,987,0.0,1
0.0018000000018218998,988,0.13568099999974947,1
0.0,989,0.0,1
0.00736499999766238,990,0.17352299999038223,1
0.0,991,0.0,1
0.0035399999978835694,992,0.1005860000004759,1
0.0,993,0.0,1
0.005355000001145527,994,0.12701400000514695,1
0.0,995,0.0,1
0.0035400000015215483,996,0.12841800000023795,1
0.0,997,0.0,1
0.0035400000015215483,998,0.08715800000209128,1
0.0,999,0.0,1
0.0026250000009895302,1000,0.09997599999769591,1
0.0,1001,0.0,1
0.010049999997136183,1002,0.10076900000422029,1
0.0,1003,0.0,1
0.00706499999796506,1004,0.10095199999341276,1
0.0,1005,0.0,1
0.0017400000033376273,1006,0.10156300000380725,1
0.0,1007,0.0,1
0.0,1008,0.0872799999997369,1
0.0,1009,0.0,1
0.005430000001069857,1010,0.11187699999572942,1
0.0,1011,0.0,1
0.013589999998657731,1012,0.12084999999933643,1
0.0,1013,0.0,1
0.007095000000845175,1014,0.1344600000011269,1
0.0,1015,0.0,1
0.004469999996217666,1016,0.11938500000542263,1
0.0,1017,0.0,1
0.004499999999097781,1018,0.09155299999838462,1
0.0,1019,0.0,1
0.0018000000018218998,1020,0.10375999999814667,1
0.0,1021,0.0,1
0.005310000004101312,1022,0.09356699999625562,1
0.0,1023,0.0,1
0.004484999997657724,1024,0.10296600000583567,1
0.0,1025,0.0,1
0.007140000001527369,1026,0.1277459999982966,1
0.0,1027,0.0,1
0.0018149999959859997,1028,0.10760499999742024,1
0.0,1029,0.0,1
0.007140000001527369,1030,0.171875,1
0.0,1031,0.0,1
0.0017399999996996485,1032,0.07794200000353158,1
0.0,1033,0.0,1
0.0017399999996996485,1034,0.14013700000214158,1
0.0,1035,0.0,1
0.0035400000015215483,1036,0.1260379999948782,1
0.0,1037,0.0,1
0.007184999998571584,1038,0.1321410000018659,1
0.0,1039,0.0,1
0.007349999999860302,1040,0.15271000000211643,1
0.0,1041,0.0,1
0.0058200000021315645,1042,0.11736999999993714,1
0.0,1043,0.0,1
0.0,1044,0.11065699999744538,1
0.0,1045,0.0,1
0.007079999999405118,1046,0.1312259999976959,1
0.0,1047,0.0,1
0.000915000000532018,1048,0.14642300000559771,1
0.0,1049,0.0,1
0.0017399999960616697,1050,0.14727799999673152,1
0.0,1051,0.0,1
0.0029100000028847717,1052,0.11761500000284286,1
0.0,1053,0.0,1
0.003479999999399297,1054,0.11328099999809638,1
0.0,1055,0.0,1
0.0017399999996996485,1056,0.13848899999720743,1
0.0,1057,0.0,1
0.010784999998577405,1058,0.1261590000067372,1
0.0,1059,0.0,1
0.014700000003358582,1060,0.16961699999228586,1
0.0,1061,0.0,1
0.013649999997142004,1062,0.13995400000567315,1
0.0,1063,0.0,1
0.009870000001683366,1064,0.15191600000252947,1
0.0,1065,0.0,1
0.01598999999987427,1066,0.14715599999180995,1
0.0,1067,0.0,1
0.01598999999987427,1068,0.15435800000705058,1
0.0,1069,0.0,1
0.0207300000001851,1070,0.1762689999959548,1
0.0,1071,0.0,1
0.015135000001464505,1072,0.13568099999974947,1
0.0,1073,0.0,1
0.013394999998126877,1074,0.14459300000453368,1
0.0,1075,0.0,1
0.012524999998277053,1076,0.15252699999837205,1
0.0,1077,0.0,1
0.014370000004419126,1078,0.15625,1
0.0,1079,0.0,1
0.014609999998356216,1080,0.17101999999431428,1
0.0,1081,0.0,1
0.02043000000048778,1082,0.15820300000632415,1
0.0,1083,0.0,1
0.032639999997627456,1084,0.19018599999253638,1
0.0,1085,0.0,1
0.0,0,0.0,2
0.0,1,0.0,2
0.21409500000117987,2,1.7691039999917848,2
0.0,3,0.0,2
0.004079999998793937,4,0.036804000003030524,2
0.0,5,0.0,2
0.0,6,0.0,2
0.0,7,0.0,2
0.004080000000612927,8,0.03888000000733882,2
0.0,9,0.0,2
0.024659999999130378,10,0.20825199999671895,2
0.0,11,0.0,2
0.008220000001529115,12,0.06664999999338761,2
0.0,13,0.0,2
0.0,14,0.0,2
0.0,15,0.0,2
0.004079999998793937,16,0.034667999992961995,2
0.0,17,0.0,2
0.0,18,0.0,2
0.0,19,0.0,2
0.041115000001809676,20,0.30108600000676233,2
0.0,21,0.0,2
0.008159999999406864,22,0.10015900000871625,2
0.0,23,0.0,2
0.032714999999370775,24,0.27416999998968095,2
0.0,25,0.0,2
0.03490500000043539,26,0.2614750000066124,2
0.0,27,0.0,2
0.03269999999974971,28,0.22027599999273662,2
0.0,29,0.0,2
0.053520000001299195,30,0.3532100000011269,2
0.0,31,0.0,2
0.012239999998200801,32,0.09252900000137743,2
0.0,33,0.0,2
0.0328799999988405,34,0.2113039999967441,2
0.0,35,0.0,2
0.03385500000149477,36,0.23596200000611134,2
0.0,37,0.0,2
0.03281999999853724,38,0.20001200000115205,2
0.0,39,0.0,2
0.07780500000262691,40,0.5454100000060862,2
0.0,41,0.0,2
0.0,42,0.0,2
0.0,43,0.0,2
0.02057999999851745,44,0.1426999999966938,2
0.0,45,0.0,2
0.032639999999446445,46,0.2635500000033062,2
0.0,47,0.0,2
0.032940000000962755,48,0.22412099999201018,2
0.0,49,0.0,2
0.04115999999885389,50,0.30615300001227297,2
0.0,51,0.0,2
0.01644000000123924,52,0.12341299999388866,2
0.0,53,0.0,2
0.17585999999937485,54,1.1421509999927366,2
0.0,55,0.0,2
0.006120000000009895,56,0.039000999997369945,2
0.0,57,0.0,2
0.0,58,0.0,2
0.0,59,0.0,2
0.04209000000082597,60,0.2750250000099186,2
0.0,61,0.0,2
0.005189999999856809,62,0.025328999996418133,2
0.0,63,0.0,2
0.008219999999710126,64,0.05108699999982491,2
0.0,65,0.0,2
0.04010999999991327,66,0.2472529999940889,2
0.0,67,0.0,2
0.04644000000007509,68,0.3398440000019036,2
0.0,69,0.0,2
0.04190999999991618,70,0.3414909999992233,2
0.0,71,0.0,2
0.024600000000646105,72,0.18042000000423286,2
0.0,73,0.0,2
0.032864999999219435,74,0.2221069999941392,2
0.0,75,0.0,2
0.02862000000095577,76,0.20019600000523496,2
0.0,77,0.0,2
0.03710999999930209,78,0.22973600000841543,2
0.0,79,0.0,2
0.045270000000527943,80,0.3283689999807393,2
0.0,81,0.0,2
0.01643999999942025,82,0.11853000000701286,2
0.0,83,0.0,2
0.03694499999983236,84,0.29992700000002515,2
0.0,85,0.0,2
0.029730000000199652,86,0.20837400000891648,2
0.0,87,0.0,2
0.032864999999219435,88,0.22821099999418948,2
0.0,89,0.0,2
0.04918500000167114,90,0.3673699999926612,2
0.0,91,0.0,2
0.018509999998059357,92,0.14648500000475906,2
0.0,93,0.0,2
0.03906000000097265,94,0.2915649999922607,2
0.0,95,0.0,2
0.03305999999975029,96,0.2579950000072131,2
0.0,97,0.0,2
0.03498000000035972,98,0.26391599999624304,2
0.0,99,0.0,2
0.04716000000007625,100,0.3785400000051595,2
0.0,101,0.0,2
0.020414999999047723,102,0.17474400000355672,2
0.0,103,0.0,2
0.03282000000035623,104,0.2729490000056103,2
0.0,105,0.0,2
0.04648500000075728,106,0.36242699998547323,2
0.0,107,0.0,2
0.03619499999877007,108,0.30657899999641813,2
0.0,109,0.0,2
0.052245000000766595,110,0.4780890000110958,2
0.0,111,0.0,2
0.016320000000632717,112,0.16101099998923019,2
0.0,113,0.0,2
0.03386999999929685,114,0.29919400000653695,2
0.0,115,0.0,2
0.034814999999071006,116,0.328125,2
0.0,117,0.0,2
0.03282000000035623,118,0.3010250000079395,2
0.0,119,0.0,2
0.049080000000685686,120,0.45764199999393895,2
0.0,121,0.0,2
0.01862999999866588,122,0.21075399999972433,2
0.0,123,0.0,2
0.0286950000008801,124,0.2742920000018785,2
0.0,125,0.0,2
0.03997499999968568,126,0.3724369999981718,2
0.0,127,0.0,2
0.04152000000067346,128,0.3449699999910081,2
0.0,129,0.0,2
0.058920000001307926,130,0.5186160000157543,2
0.0,131,0.0,2
0.01637999999911699,132,0.15612800000235438,2
0.0,133,0.0,2
0.028800000000046566,134,0.2656859999988228,2
0.0,135,0.0,2
0.040229999998700805,136,0.3467409999866504,2
0.0,137,0.0,2
0.03392999999960011,138,0.3012690000177827,2
0.0,139,0.0,2
0.04332000000067637,140,0.39843799998925533,2
0.0,141,0.0,2
0.02052000000003318,142,0.17413299999316223,2
0.0,143,0.0,2
0.028800000000046566,144,0.2450560000143014,2
0.0,145,0.0,2
0.03793500000028871,146,0.31915299998945557,2
0.0,147,0.0,2
0.028860000000349828,148,0.2180789999983972,2
0.0,149,0.0,2
0.04529999999977008,150,0.3492430000042077,2
0.0,151,0.0,2
0.02472000000125263,152,0.19097900000633672,2
0.0,153,0.0,2
0.028800000000046566,154,0.22045900000375696,2
0.0,155,0.0,2
0.0328799999988405,156,0.2603759999910835,2
0.0,157,0.0,2
0.037215000000287546,158,0.2601929999946151,2
0.0,159,0.0,2
0.041205000001355074,160,0.2955320000037318,2
0.0,161,0.0,2
0.024779999997917912,162,0.17156999999133404,2
0.0,163,0.0,2
0.028860000000349828,164,0.19775400000798982,2
0.0,165,0.0,2
0.032790000001114095,166,0.23419200000353158,2
0.0,167,0.0,2
0.037079999998240964,168,0.25451599998632446,2
0.0,169,0.0,2
0.041265000001658336,170,0.2811890000157291,2
0.0,171,0.0,2
0.023849999999583815,172,0.15332099999068305,2
0.0,173,0.0,2
0.03281999999853724,174,0.26171800000884105,2
0.0,175,0.0,2
0.03709500000150001,176,0.26342799999110866,2
0.0,177,0.0,2
0.036840000000665896,178,0.27258300001267344,2
0.0,179,0.0,2
0.04514999999992142,180,0.34747299998707604,2
0.0,181,0.0,2
0.015569999999570427,182,0.09399400000984315,2
0.0,183,0.0,2
0.03596999999899708,184,0.2996220000059111,2
0.0,185,0.0,2
0.02862000000095577,186,0.2825929999817163,2
0.0,187,0.0,2
0.03704999999899883,188,0.34942600000067614,2
0.0,189,0.0,2
0.053745000001072185,190,0.4862060000159545,2
0.0,191,0.0,2
0.02261999999973341,192,0.23498499998822808,2
0.0,193,0.0,2
0.034064999999827705,194,0.3865360000054352,2
0.0,195,0.0,2
0.03506999999990512,196,0.3764650000084657,2
0.0,197,0.0,2
0.032790000001114095,198,0.33343499997863546,2
0.0,199,0.0,2
0.040979999999763095,200,0.39019800000824034,2
0.0,201,0.0,2
0.021689999999580323,202,0.1847529999940889,2
0.0,203,0.0,2
0.039179999999760184,204,0.29748500000278,2
0.0,205,0.0,2
0.03598499999861815,206,0.2426149999955669,2
0.0,207,0.0,2
0.03375000000050932,208,0.2458500000066124,2
0.0,209,0.0,2
0.042030000000522705,210,0.3226320000103442,2
0.0,211,0.0,2
0.025649999999586726,212,0.19055099999241065,2
0.0,213,0.0,2
0.03610500000104366,214,0.26397699999506585,2
0.0,215,0.0,2
0.04043999999885273,216,0.2703250000049593,2
0.0,217,0.0,2
0.03381000000081258,218,0.27624500000092667,2
0.0,219,0.0,2
0.05063999999947555,220,0.3933110000070883,2
0.0,221,0.0,2
0.02052000000003318,222,0.1780389999912586,2
0.0,223,0.0,2
0.034065000001646695,224,0.2743530000007013,2
0.0,225,0.0,2
0.035039999998843996,226,0.325500999999349,2
0.0,227,0.0,2
0.028739999999743304,228,0.23876900000323076,2
0.0,229,0.0,2
0.050370000000839354,230,0.45001300000876654,2
0.0,231,0.0,2
0.01645499999904132,232,0.1399529999907827,2
0.0,233,0.0,2
0.036839999998846906,234,0.31628400000045076,2
0.0,235,0.0,2
0.02862000000095577,236,0.24084499999298714,2
0.0,237,0.0,2
0.03299999999944703,238,0.29064999999536667,2
0.0,239,0.0,2
0.04956000000129279,240,0.42828300001565367,2
0.0,241,0.0,2
0.01637999999911699,242,0.14990299999772105,2
0.0,243,0.0,2
0.03282000000035623,244,0.2536009999894304,2
0.0,245,0.0,2
0.04021499999907974,246,0.2864990000089165,2
0.0,247,0.0,2
0.03300000000126602,248,0.2813109999988228,2
0.0,249,0.0,2
0.04528500000014901,250,0.3370359999971697,2
0.0,251,0.0,2
0.02058000000033644,252,0.12512200001219753,2
0.0,253,0.0,2
0.024659999999130378,254,0.2515259999927366,2
0.0,255,0.0,2
0.03282000000035623,256,0.2715449999959674,2
0.0,257,0.0,2
0.03392999999960011,258,0.27624500000092667,2
0.0,259,0.0,2
0.055635000000620494,260,0.4456789999967441,2
0.0,261,0.0,2
0.012344999999186257,262,0.10022000000753906,2
0.0,263,0.0,2
0.0339300000014191,264,0.29052699999010656,2
0.0,265,0.0,2
0.03265499999906751,266,0.2986450000171317,2
0.0,267,0.0,2
0.03273000000081083,268,0.27093499997863546,2
0.0,269,0.0,2
0.06221999999979744,270,0.5209350000077393,2
0.0,271,0.0,2
0.012300000000323053,272,0.10784900000726338,2
0.0,273,0.0,2
0.03605999999854248,274,0.2921759999881033,2
0.0,275,0.0,2
0.035940000001573935,276,0.2899170000164304,2
0.0,277,0.0,2
0.03701999999975669,278,0.3117059999931371,2
0.0,279,0.0,2
0.0515849999992497,280,0.47113099999842234,2
0.0,281,0.0,2
0.02584500000011758,282,0.21606400000746362,2
0.0,283,0.0,2
0.04117500000029395,284,0.3832399999955669,2
0.0,285,0.0,2
0.029789999998683925,286,0.27081299999554176,2
0.0,287,0.0,2
0.036990000000514556,288,0.33935500000370666,2
0.0,289,0.0,2
0.04107000000112748,290,0.3178709999920102,2
0.0,291,0.0,2
0.020639999998820713,292,0.1555789999983972,2
0.0,293,0.0,2
0.037905000001046574,294,0.3105470000009518,2
0.0,295,0.0,2
0.029789999998683925,296,0.2500609999988228,2
0.0,297,0.0,2
0.03705000000081782,298,0.3020630000100937,2
0.0,299,0.0,2
0.04506000000037602,300,0.3552239999989979,2
0.0,301,0.0,2
0.016469999998662388,302,0.1372679999913089,2
0.0,303,0.0,2
0.0339300000014191,304,0.2872320000024047,2
0.0,305,0.0,2
0.03892500000074506,306,0.3162840000150027,2
0.0,307,0.0,2
0.028814999997848645,308,0.2019039999868255,2
0.0,309,0.0,2
0.0493350000015198,310,0.35766599999624304,2
0.0,311,0.0,2
0.016499999999723514,312,0.12036200000147801,2
0.0,313,0.0,2
0.03298499999982596,314,0.24615500001527835,2
0.0,315,0.0,2
0.037005000000135624,316,0.29235799999150913,2
0.0,317,0.0,2
0.03206999999929394,318,0.25787299999501556,2
0.0,319,0.0,2
0.05319000000054075,320,0.476319000008516,2
0.0,321,0.0,2
0.01645500000086031,322,0.1379999999917345,2
0.0,323,0.0,2
0.028754999999364372,324,0.232361000002129,2
0.0,325,0.0,2
0.03275999999823398,326,0.29455599999346305,2
0.0,327,0.0,2
0.03283500000179629,328,0.28900100001192186,2
0.0,329,0.0,2
0.049320000000079744,330,0.41137699999671895,2
0.0,331,0.0,2
0.01643999999942025,332,0.13562000000092667,2
0.0,333,0.0,2
0.0328799999988405,334,0.274598000003607,2
0.0,335,0.0,2
0.0447600000006787,336,0.3389279999973951,2
0.0,337,0.0,2
0.03390000000035798,338,0.30541999998968095,2
0.0,339,0.0,2
0.04610999999931664,340,0.4210200000088662,2
0.0,341,0.0,2
0.02058000000033644,342,0.1724240000039572,2
0.0,343,0.0,2
0.0380700000005163,344,0.30328399999416433,2
0.0,345,0.0,2
0.03596999999899708,346,0.2995610000070883,2
0.0,347,0.0,2
0.0348599999997532,348,0.2819819999858737,2
0.0,349,0.0,2
0.048270000001139124,350,0.3628540000063367,2
0.0,351,0.0,2
0.02052000000003318,352,0.15875300001061987,2
0.0,353,0.0,2
0.024600000000646105,354,0.22643999998399522,2
0.0,355,0.0,2
0.03898499999922933,356,0.3356930000009015,2
0.0,357,0.0,2
0.02448000000003958,358,0.2644660000078147,2
0.0,359,0.0,2
0.06319499999881373,360,0.4034419999952661,2
0.0,361,0.0,2
0.02254500000162807,362,0.1542970000009518,2
0.0,363,0.0,2
0.033840000000054715,364,0.21838399999251124,2
0.0,365,0.0,2
0.03607499999998254,366,0.27728200001001824,2
0.0,367,0.0,2
0.03694499999983236,368,0.2875369999965187,2
0.0,369,0.0,2
0.047130000000834116,370,0.3817750000016531,2
0.0,371,0.0,2
0.021600000000034925,372,0.1705929999880027,2
0.0,373,0.0,2
0.036164999997708946,374,0.27209500000753906,2
0.0,375,0.0,2
0.04971000000114145,376,0.3675539999967441,2
0.0,377,0.0,2
0.03297000000020489,378,0.2662960000016028,2
0.0,379,0.0,2
0.07149000000026717,380,0.42297400000097696,2
0.0,381,0.0,2
0.032040000000051805,382,0.24023400001169648,2
0.0,383,0.0,2
0.0328799999988405,384,0.2432249999983469,2
0.0,385,0.0,2
0.04755000000113796,386,0.3010869999998249,2
0.0,387,0.0,2
0.039179999999760184,388,0.2758170000015525,2
0.0,389,0.0,2
0.04933499999970081,390,0.403015999996569,2
0.0,391,0.0,2
0.0322199999991426,392,0.1990959999966435,2
0.0,393,0.0,2
0.04125000000021828,394,0.2425539999967441,2
0.0,395,0.0,2
0.04228500000135682,396,0.2716060000093421,2
0.0,397,0.0,2
0.03701999999975669,398,0.24499599999398924,2
0.0,399,0.0,2
0.04635000000052969,400,0.2929069999954663,2
0.0,401,0.0,2
0.02576999999837426,402,0.19250499999907333,2
0.0,403,0.0,2
0.03493500000149652,404,0.24633799999719486,2
0.0,405,0.0,2
0.04355999999825144,406,0.2921750000095926,2
0.0,407,0.0,2
0.028740000001562294,408,0.3057249999983469,2
0.0,409,0.0,2
0.053759999998874264,410,0.3914190000068629,2
0.0,411,0.0,2
0.02058000000033644,412,0.1603389999945648,2
0.0,413,0.0,2
0.03288000000065949,414,0.2603759999910835,2
0.0,415,0.0,2
0.033764999998311396,416,0.2642820000182837,2
0.0,417,0.0,2
0.03304500000194821,418,0.23614499998802785,2
0.0,419,0.0,2
0.045179999999163556,420,0.30609199999889825,2
0.0,421,0.0,2
0.020640000000639702,422,0.12066600000252947,2
0.0,423,0.0,2
0.03299999999944703,424,0.18969800000195391,2
0.0,425,0.0,2
0.03282000000035623,426,0.27947999999742024,2
0.0,427,0.0,2
0.03288000000065949,428,0.2365109999955166,2
0.0,429,0.0,2
0.04531499999757216,430,0.32421900001645554,2
0.0,431,0.0,2
0.02268000000185566,432,0.1534419999952661,2
0.0,433,0.0,2
0.032939999999143765,434,0.24627699999837205,2
0.0,435,0.0,2
0.02892000000065309,436,0.20709199999691918,2
0.0,437,0.0,2
0.041279999999460415,438,0.3041380000067875,2
0.0,439,0.0,2
0.04506000000037602,440,0.39044199998897966,2
0.0,441,0.0,2
0.02052000000003318,442,0.19262699999671895,2
0.0,443,0.0,2
0.02869499999906111,444,0.2858890000061365,2
0.0,445,0.0,2
0.03690000000096916,446,0.36840800000936724,2
0.0,447,0.0,2
0.028679999999440042,448,0.35223399999085814,2
0.0,449,0.0,2
0.044205000000147265,450,0.4434809999947902,2
0.0,451,0.0,2
0.020640000000639702,452,0.15527400000428315,2
0.0,453,0.0,2
0.042329999998401036,454,0.2804559999931371,2
0.0,455,0.0,2
0.028860000002168817,456,0.2234500000049593,2
0.0,457,0.0,2
0.03704999999899883,458,0.26202399999601766,2
0.0,459,0.0,2
0.041129999999611755,460,0.3622440000035567,2
0.0,461,0.0,2
0.020459999999729916,462,0.20019499999762047,2
0.0,463,0.0,2
0.032865000001038425,464,0.3013910000154283,2
0.0,465,0.0,2
0.03689999999915017,466,0.3336189999827184,2
0.0,467,0.0,2
0.028800000000046566,468,0.2335200000088662,2
0.0,469,0.0,2
0.0462150000003021,470,0.3913579999934882,2
0.0,471,0.0,2
0.01643999999942025,472,0.17773399999714456,2
0.0,473,0.0,2
0.032790000001114095,474,0.29223600000841543,2
0.0,475,0.0,2
0.03276000000005297,476,0.29254199999559205,2
0.0,477,0.0,2
0.033914999999979045,478,0.26324400000157766,2
0.0,479,0.0,2
0.05040000000008149,480,0.4043579999997746,2
0.0,481,0.0,2
0.016424999999799184,482,0.14361600000120234,2
0.0,483,0.0,2
0.0328799999988405,484,0.31768799999554176,2
0.0,485,0.0,2
0.035040000000662985,486,0.3176880000100937,2
0.0,487,0.0,2
0.04039499999998952,488,0.2725829999981215,2
0.0,489,0.0,2
0.06513000000086322,490,0.4313969999930123,2
0.0,491,0.0,2
0.018539999999120482,492,0.14013600000180304,2
0.0,493,0.0,2
0.03307499999937136,494,0.28637699999671895,2
0.0,495,0.0,2
0.043530000000828295,496,0.3079839999991236,2
0.0,497,0.0,2
0.04138500000044587,498,0.27459700001054443,2
0.0,499,0.0,2
0.1981500000001688,500,1.3809199999959674,2
0.0,501,0.0,2
0.00623999999879743,502,0.04821799999626819,2
0.0,503,0.0,2
0.0,504,0.0,2
0.0,505,0.0,2
0.0,506,0.0,2
0.0,507,0.0,2
0.041580000000976725,508,0.299499000000651,2
0.0,509,0.0,2
0.06003000000055181,510,0.40667799999937415,2
0.0,511,0.0,2
0.036464999999225256,512,0.2526849999994738,2
0.0,513,0.0,2
0.04671000000053027,514,0.3221440000052098,2
0.0,515,0.0,2
0.08123999999952503,516,0.35223399999085814,2
0.0,517,0.0,2
0.081689999999071,518,0.3614500000112457,2
0.0,519,0.0,2
0.08124000000134401,520,0.42431599998963065,2
0.0,521,0.0,2
0.024600000000646105,522,0.1705330000113463,2
0.0,523,0.0,2
0.05195999999887135,524,0.36376900000323076,2
0.0,525,0.0,2
0.05057999999917229,526,0.35845999998855405,2
0.0,527,0.0,2
0.03876000000127533,528,0.3041380000067875,2
0.0,529,0.0,2
0.08075999999891792,530,0.5216059999947902,2
0.0,531,0.0,2
0.012479999999413849,532,0.07556199999817181,2
0.0,533,0.0,2
0.05295000000114669,534,0.36645499999576714,2
0.0,535,0.0,2
0.03405000000020664,536,0.2539670000114711,2
0.0,537,0.0,2
0.04868999999962398,538,0.3057859999971697,2
0.0,539,0.0,2
0.04745999999977357,540,0.3785400000051595,2
0.0,541,0.0,2
0.028979999999137362,542,0.23748799999884795,2
0.0,543,0.0,2
0.04356000000188942,544,0.3050539999967441,2
0.0,545,0.0,2
0.047744999999849824,546,0.31072999999742024,2
0.0,547,0.0,2
0.04892999999901804,548,0.24829100001079496,2
0.0,549,0.0,2
0.043155000001206645,550,0.3493649999873014,2
0.0,551,0.0,2
0.04274999999870488,552,0.2736210000148276,2
0.0,553,0.0,2
0.04245000000082655,554,0.2846059999865247,2
0.0,555,0.0,2
0.04681499999969674,556,0.328125,2
0.0,557,0.0,2
0.037215000000287546,558,0.3167119999998249,2
0.0,559,0.0,2
0.04873500000030617,560,0.3714600000093924,2
0.0,561,0.0,2
0.028979999999137362,562,0.203125,2
0.0,563,0.0,2
0.04040999999961059,564,0.31841999998141546,2
0.0,565,0.0,2
0.03717000000142434,566,0.31079100001079496,2
0.0,567,0.0,2
0.03388499999891792,568,0.28497300000162795,2
0.0,569,0.0,2
0.04554000000098313,570,0.32226600000285544,2
0.0,571,0.0,2
0.031004999998913263,572,0.26269499999762047,2
0.0,573,0.0,2
0.03502500000104192,574,0.3016359999892302,2
0.0,575,0.0,2
0.034064999999827705,576,0.29650900000706315,2
0.0,577,0.0,2
0.03299999999944703,578,0.2868040000030305,2
0.0,579,0.0,2
0.038264999999228166,580,0.2746579999948153,2
0.0,581,0.0,2
0.024840000000040163,582,0.2011720000009518,2
0.0,583,0.0,2
0.028905000001032022,584,0.20465100000728853,2
0.0,585,0.0,2
0.03922500000044238,586,0.26922600000398234,2
0.0,587,0.0,2
0.03404999999838765,588,0.2270509999943897,2
0.0,589,0.0,2
0.03825000000142609,590,0.2575070000020787,2
0.0,591,0.0,2
0.028860000000349828,592,0.20159899999271147,2
0.0,593,0.0,2
0.029939999998532585,594,0.20391900000686292,2
0.0,595,0.0,2
0.038205000000743894,596,0.26745599998685066,2
0.0,597,0.0,2
0.03288000000065949,598,0.2410280000185594,2
0.0,599,0.0,2
0.038204999998924905,600,0.2832029999844963,2
0.0,601,0.0,2
0.024660000000949367,602,0.17938200001663063,2
0.0,603,0.0,2
0.037140000000363216,604,0.2377319999941392,2
0.0,605,0.0,2
0.02885999999853084,606,0.17291299998760223,2
0.0,607,0.0,2
0.03299999999944703,608,0.19256599999789614,2
0.0,609,0.0,2
0.047670000001744484,610,0.2965080000140006,2
0.0,611,0.0,2
0.020534999999654246,612,0.13885499999742024,2
0.0,613,0.0,2
0.046694999999090214,614,0.3002319999941392,2
0.0,615,0.0,2
0.044354999999995925,616,0.3758550000056857,2
0.0,617,0.0,2
0.03096000000005006,618,0.2633659999992233,2
0.0,619,0.0,2
0.046229999999923166,620,0.3483280000073137,2
0.0,621,0.0,2
0.02455499999996391,622,0.17791799998667557,2
0.0,623,0.0,2
0.030704999999215943,624,0.20892299999832176,2
0.0,625,0.0,2
0.03612000000066473,626,0.26647900001262315,2
0.0,627,0.0,2
0.032940000000962755,628,0.23889199999393895,2
0.0,629,0.0,2
0.037139999998544226,630,0.32348600000841543,2
0.0,631,0.0,2
0.02478000000155589,632,0.21728599999914877,2
0.0,633,0.0,2
0.03305999999975029,634,0.2588499999983469,2
0.0,635,0.0,2
0.03282000000035623,636,0.24957199998607393,2
0.0,637,0.0,2
0.03288000000065949,638,0.2479250000033062,2
0.0,639,0.0,2
0.04644000000007509,640,0.3287359999958426,2
0.0,641,0.0,2
0.026759999998830608,642,0.18145700001332443,2
0.0,643,0.0,2
0.03298499999982596,644,0.238402999995742,2
0.0,645,0.0,2
0.03288000000065949,646,0.25293000000237953,2
0.0,647,0.0,2
0.03304499999831023,648,0.2629400000005262,2
0.0,649,0.0,2
0.041280000001279404,650,0.32220399999641813,2
0.0,651,0.0,2
0.02058000000033644,652,0.16259800000989344,2
0.0,653,0.0,2
0.03911999999945692,654,0.2887569999875268,2
0.0,655,0.0,2
0.04591500000060478,656,0.2582400000101188,2
0.0,657,0.0,2
0.037904999999227584,658,0.31695499998750165,2
0.0,659,0.0,2
0.04110000000036962,660,0.37438999999722,2
0.0,661,0.0,2
0.020490000000791042,662,0.19122300001617987,2
0.0,663,0.0,2
0.03802499999983411,664,0.3467409999866504,2
0.0,665,0.0,2
0.03095999999823107,666,0.2626340000133496,2
0.0,667,0.0,2
0.03289500000028056,668,0.32574499999464024,2
0.0,669,0.0,2
0.041190000001734006,670,0.36645499999576714,2
0.0,671,0.0,2
0.025589999999283464,672,0.22308300000440795,2
0.0,673,0.0,2
0.028889999999591964,674,0.2438969999930123,2
0.0,675,0.0,2
0.03387000000111584,676,0.35089100000914186,2
0.0,677,0.0,2
0.028800000000046566,678,0.2499390000011772,2
0.0,679,0.0,2
0.048344999999244465,680,0.3744509999960428,2
0.0,681,0.0,2
0.02058000000033644,682,0.17571999999927357,2
0.0,683,0.0,2
0.03410999999869091,684,0.2702640000061365,2
0.0,685,0.0,2
0.0415499999999156,686,0.2982169999886537,2
0.0,687,0.0,2
0.037065000000438886,688,0.2613530000089668,2
0.0,689,0.0,2
0.04133999999976368,690,0.3152459999982966,2
0.0,691,0.0,2
0.024540000000342843,692,0.19207799999276176,2
0.0,693,0.0,2
0.036990000000514556,694,0.27465800000936724,2
0.0,695,0.0,2
0.02996999999959371,696,0.20037899998715147,2
0.0,697,0.0,2
0.03310500000043248,698,0.22589100000914186,2
0.0,699,0.0,2
0.04129499999908148,700,0.2799070000037318,2
0.0,701,0.0,2
0.02479500000117696,702,0.16870100000232924,2
0.0,703,0.0,2
0.03280499999891617,704,0.2529299999878276,2
0.0,705,0.0,2
0.03295500000058382,706,0.24768100000801496,2
0.0,707,0.0,2
0.03305999999975029,708,0.22253400000045076,2
0.0,709,0.0,2
0.037140000000363216,710,0.28161599999293685,2
0.0,711,0.0,2
0.024659999999130378,712,0.16955599999346305,2
0.0,713,0.0,2
0.03300000000126602,714,0.229553000011947,2
0.0,715,0.0,2
0.033015000000887085,716,0.23999000000185333,2
0.0,717,0.0,2
0.0289199999988341,718,0.2005619999981718,2
0.0,719,0.0,2
0.049619999999777065,720,0.3164669999969192,2
0.0,721,0.0,2
0.024810000000798027,722,0.17278999999689404,2
0.0,723,0.0,2
0.03298499999982596,724,0.227723000003607,2
0.0,725,0.0,2
0.03521999999975378,726,0.23663300000771414,2
0.0,727,0.0,2
0.03298499999982596,728,0.22997999998915475,2
0.0,729,0.0,2
0.04129499999908148,730,0.2929080000030808,2
0.0,731,0.0,2
0.020640000000639702,732,0.14428700000280514,2
0.0,733,0.0,2
0.03718499999922642,734,0.2572630000067875,2
0.0,735,0.0,2
0.028755000001183362,736,0.20776399999158457,2
0.0,737,0.0,2
0.037140000000363216,738,0.26190199999837205,2
0.0,739,0.0,2
0.037139999998544226,740,0.2580560000060359,2
0.0,741,0.0,2
0.028860000000349828,742,0.20361399999819696,2
0.0,743,0.0,2
0.028860000000349828,744,0.20220899999549147,2
0.0,745,0.0,2
0.037080000000059954,746,0.2698979999986477,2
0.0,747,0.0,2
0.028889999999591964,748,0.20019499999762047,2
0.0,749,0.0,2
0.04529999999977008,750,0.3198850000044331,2
0.0,751,0.0,2
0.026940000001559383,752,0.16888500000641216,2
0.0,753,0.0,2
0.028904999999213032,754,0.17358399998920504,2
0.0,755,0.0,2
0.03513000000020838,756,0.25640800000110175,2
0.0,757,0.0,2
0.029790000000502914,758,0.2030640000011772,2
0.0,759,0.0,2
0.04528499999833002,760,0.31744400001480244,2
0.0,761,0.0,2
0.020700000000942964,762,0.14794899997650646,2
0.0,763,0.0,2
0.037065000000438886,764,0.26165800001763273,2
0.0,765,0.0,2
0.028860000000349828,766,0.2086789999884786,2
0.0,767,0.0,2
0.03725999999915075,768,0.26196299999719486,2
0.0,769,0.0,2
0.03726000000096974,770,0.2630619999981718,2
0.0,771,0.0,2
0.02479499999935797,772,0.1737670000147773,2
0.0,773,0.0,2
0.0341100000005099,774,0.22924800000328105,2
0.0,775,0.0,2
0.03404999999838765,776,0.2364499999966938,2
0.0,777,0.0,2
0.03295500000058382,778,0.2460939999873517,2
0.0,779,0.0,2
0.04140000000006694,780,0.2921140000107698,2
0.0,781,0.0,2
0.024840000000040163,782,0.171875,2
0.0,783,0.0,2
0.03300000000126602,784,0.23065199999837205,2
0.0,785,0.0,2
0.032939999997324776,786,0.23803699998825323,2
0.0,787,0.0,2
0.032865000001038425,788,0.22857700001623016,2
0.0,789,0.0,2
0.04117500000029395,790,0.2764889999962179,2
0.0,791,0.0,2
0.02472000000125263,792,0.17297299999336246,2
0.0,793,0.0,2
0.032864999997400446,794,0.21838400000706315,2
0.0,795,0.0,2
0.03306000000156928,796,0.2045899999939138,2
0.0,797,0.0,2
0.032864999999219435,798,0.19873100001132116,2
0.0,799,0.0,2
0.03726000000096974,800,0.22387599998910446,2
0.0,801,0.0,2
0.02892000000065309,802,0.17297400000097696,2
0.0,803,0.0,2
0.03817499999968277,804,0.19812000000092667,2
0.0,805,0.0,2
0.032939999999143765,806,0.20544499999959953,2
0.0,807,0.0,2
0.033015000000887085,808,0.1983639999962179,2
0.0,809,0.0,2
0.037139999998544226,810,0.2186890000011772,2
0.0,811,0.0,2
0.028935000000274158,812,0.17279000001144595,2
0.0,813,0.0,2
0.033090000000811415,814,0.1986089999845717,2
0.0,815,0.0,2
0.032939999999143765,816,0.20355200000631157,2
0.0,817,0.0,2
0.028800000000046566,818,0.17340099999273662,2
0.0,819,0.0,2
0.037140000000363216,820,0.24609400001645554,2
0.0,821,0.0,2
0.02479499999935797,822,0.14581299999554176,2
0.0,823,0.0,2
0.036840000000665896,824,0.22937000000092667,2
0.0,825,0.0,2
0.028725000000122236,826,0.18084699999599252,2
0.0,827,0.0,2
0.037080000000059954,828,0.22174100000120234,2
0.0,829,0.0,2
0.037080000000059954,830,0.2506099999882281,2
0.0,831,0.0,2
0.026774999998451676,832,0.1663820000103442,2
0.0,833,0.0,2
0.03300000000126602,834,0.19457999999576714,2
0.0,835,0.0,2
0.0328349999999773,836,0.20678700000280514,2
0.0,837,0.0,2
0.033989999999903375,838,0.19799800000328105,2
0.0,839,0.0,2
0.042180000000371365,840,0.27142299999832176,2
0.0,841,0.0,2
0.02065500000026077,842,0.12127699999837205,2
0.0,843,0.0,2
0.037139999998544226,844,0.22515900000871625,2
0.0,845,0.0,2
0.028890000001410954,846,0.17437699998845346,2
0.0,847,0.0,2
0.03719999999884749,848,0.21862800000235438,2
0.0,849,0.0,2
0.04504500000075495,850,0.3152470000059111,2
0.0,851,0.0,2
0.0226200000015524,852,0.17163100000470877,2
0.0,853,0.0,2
0.0289199999988341,854,0.17346199999155942,2
0.0,855,0.0,2
0.03392999999960011,856,0.2147209999966435,2
0.0,857,0.0,2
0.03312000000005355,858,0.19238300000142772,2
0.0,859,0.0,2
0.04121999999915715,860,0.25586000000475906,2
0.0,861,0.0,2
0.0247799999997369,862,0.15051200000743847,2
0.0,863,0.0,2
0.03396000000066124,864,0.22277899998880457,2
0.0,865,0.0,2
0.02560500000072352,866,0.18493600000510924,2
0.0,867,0.0,2
0.033104999998613494,868,0.19201699999393895,2
0.0,869,0.0,2
0.04228500000135682,870,0.2634269999980461,2
0.0,871,0.0,2
0.0182699999986653,872,0.12194900000758935,2
0.0,873,0.0,2
0.030660000002171728,874,0.19769200000155251,2
0.0,875,0.0,2
0.03299999999944703,876,0.20697099999233615,2
0.0,877,0.0,2
0.03305999999975029,878,0.19177200000558514,2
0.0,879,0.0,2
0.045404999998936546,880,0.26586899999529123,2
0.0,881,0.0,2
0.02065500000207976,882,0.121582000007038,2
0.0,883,0.0,2
0.03299999999944703,884,0.19519099999160971,2
0.0,885,0.0,2
0.03403499999876658,886,0.20459000000846572,2
0.0,887,0.0,2
0.03305999999975029,888,0.20050000000628643,2
0.0,889,0.0,2
0.041340000001582666,890,0.24444599998241756,2
0.0,891,0.0,2
0.02464499999950931,892,0.14337100001284853,2
0.0,893,0.0,2
0.03377999999975145,894,0.18542499998875428,2
0.0,895,0.0,2
0.033989999999903375,896,0.20623799999884795,2
0.0,897,0.0,2
0.0341100000005099,898,0.19415300000400748,2
0.0,899,0.0,2
0.041354999999384745,900,0.24163799999223556,2
0.0,901,0.0,2
0.02479499999935797,902,0.1459350000077393,2
0.0,903,0.0,2
0.03305999999975029,904,0.20184300000255462,2
0.0,905,0.0,2
0.032940000000962755,906,0.22607499999867287,2
0.0,907,0.0,2
0.04126499999983935,908,0.28832999999576714,2
0.0,909,0.0,2
0.03936000000066997,910,0.28637699999671895,2
0.0,911,0.0,2
0.02885999999853084,912,0.1773070000053849,2
0.0,913,0.0,2
0.03300000000126602,914,0.19518999999854714,2
0.0,915,0.0,2
0.0289199999988341,916,0.17822300000989344,2
0.0,917,0.0,2
0.03516000000126951,918,0.20007299999997485,2
0.0,919,0.0,2
0.04133999999976368,920,0.254027999995742,2
0.0,921,0.0,2
0.024810000000798027,922,0.153625999999349,2
0.0,923,0.0,2
0.03311999999823456,924,0.20092799999110866,2
0.0,925,0.0,2
0.032940000000962755,926,0.21075399999972433,2
0.0,927,0.0,2
0.037140000000363216,928,0.228333000006387,2
0.0,929,0.0,2
0.03725999999915075,930,0.21710199999506585,2
0.0,931,0.0,2
0.020459999999729916,932,0.14843700001074467,2
0.0,933,0.0,2
0.03289500000028056,934,0.21380599999974947,2
0.0,935,0.0,2
0.033015000000887085,936,0.20428499998524785,2
0.0,937,0.0,2
0.036104999999224674,938,0.19787600002018735,2
0.0,939,0.0,2
0.04138500000044587,940,0.23950199999671895,2
0.0,941,0.0,2
0.02479499999935797,942,0.146056999990833,2
0.0,943,0.0,2
0.03304500000012922,944,0.19464100000914186,2
0.0,945,0.0,2
0.03300000000126602,946,0.23803700000280514,2
0.0,947,0.0,2
0.028799999998227577,948,0.16809099999954924,2
0.0,949,0.0,2
0.03720000000066648,950,0.2153929999913089,2
0.0,951,0.0,2
0.02892000000065309,952,0.16729700000723824,2
0.0,953,0.0,2
0.03304500000012922,954,0.19219999999040738,2
0.0,955,0.0,2
0.032939999999143765,956,0.19580100000894163,2
0.0,957,0.0,2
0.009960000001228764,958,0.13275099999736995,2
0.0,959,0.0,2
0.0,960,0.12878499999351334,2
0.0,961,0.0,2
0.0017699999989417847,962,0.10546799999428913,2
0.0,963,0.0,2
0.001755000001139706,964,0.0889290000195615,2
0.0,965,0.0,2
0.011759999999412685,966,0.128417999992962,2
0.0,967,0.0,2
0.021149999998669955,968,0.14227299999038223,2
0.0,969,0.0,2
0.014595000000554137,970,0.16198699999949895,2
0.0,971,0.0,2
0.0009000000009109499,972,0.09948700001405086,2
0.0,973,0.0,2
0.004124999999476131,974,0.08349599999201018,2
0.0,975,0.0,2
0.03187500000058208,976,0.16009499999927357,2
0.0,977,0.0,2
0.02764500000012049,978,0.15380899999581743,2
0.0,979,0.0,2
0.026309999999284628,980,0.1812740000023041,2
0.0,981,0.0,2
0.028874999999970896,982,0.14245600000140257,2
0.0,983,0.0,2
0.0274200000003475,984,0.1617439999972703,2
0.0,985,0.0,2
0.029805000000123982,986,0.1643670000048587,2
0.0,987,0.0,2
0.02861999999913678,988,0.1624759999976959,2
0.0,989,0.0,2
0.03492000000187545,990,0.20068399999581743,2
0.0,991,0.0,2
0.022439999998823623,992,0.12011699999857228,2
0.0,993,0.0,2
0.026565000000118744,994,0.1656490000023041,2
0.0,995,0.0,2
0.029489999998986605,996,0.169250999999349,2
0.0,997,0.0,2
0.005940000000919099,998,0.10418700000445824,2
0.0,999,0.0,2
0.007724999999481952,1000,0.12310799999977462,2
0.0,1001,0.0,2
0.0029549999999289867,1002,0.1160879999952158,2
0.0,1003,0.0,2
0.0,1004,0.11541800000122748,2
0.0,1005,0.0,2
0.016470000000481377,1006,0.14239500000257976,2
0.0,1007,0.0,2
0.004140000000916189,1008,0.09246800000255462,2
0.0,1009,0.0,2
0.009449999999560532,1010,0.13146999999298714,2
0.0,1011,0.0,2
0.016919999998208368,1012,0.12414500000886619,2
0.0,1013,0.0,2
0.016320000000632717,1014,0.13580400000500958,2
0.0,1015,0.0,2
0.01644000000123924,1016,0.13946499998564832,2
0.0,1017,0.0,2
0.001739999997880659,1018,0.09881599999789614,2
0.0,1019,0.0,2
0.0026400000006105984,1020,0.12048300000606105,2
0.0,1021,0.0,2
0.0008700000016688136,1022,0.10644600000523496,2
0.0,1023,0.0,2
0.009149999999863212,1024,0.10381999998935498,2
0.0,1025,0.0,2
0.029804999998304993,1026,0.15136800000618678,2
0.0,1027,0.0,2
0.024240000000645523,1028,0.12658600001304876,2
0.0,1029,0.0,2
0.03906000000097265,1030,0.20715399998880457,2
0.0,1031,0.0,2
0.018299999999726424,1032,0.09521499999391381,2
0.0,1033,0.0,2
0.02719500000057451,1034,0.18005300000368152,2
0.0,1035,0.0,2
0.03064499999891268,1036,0.16882399999303743,2
0.0,1037,0.0,2
0.030539999999746215,1038,0.16644200001610443,2
0.0,1039,0.0,2
0.03464999999960128,1040,0.184265999996569,2
0.0,1041,0.0,2
0.025485000001935987,1042,0.1441039999917848,2
0.0,1043,0.0,2
0.031739999998535495,1044,0.16528300000936724,2
0.0,1045,0.0,2
0.027479999998831772,1046,0.14971900000819005,2
0.0,1047,0.0,2
0.029475000001184526,1048,0.18377699999837205,2
0.0,1049,0.0,2
0.03470999999990454,1050,0.18365499998617452,2
0.0,1051,0.0,2
0.020114999999350403,1052,0.14514100000087637,2
0.0,1053,0.0,2
0.027675000001181616,1054,0.1413580000080401,2
0.0,1055,0.0,2
0.03479999999944994,1056,0.1929929999896558,2
0.0,1057,0.0,2
0.020099999999729334,1058,0.14172400000097696,2
0.0,1059,0.0,2
0.03246000000035565,1060,0.18768300001102034,2
0.0,1061,0.0,2
0.02155499999935273,1062,0.14544599999499042,2
0.0,1063,0.0,2
0.03268500000012864,1064,0.19342099998902995,2
0.0,1065,0.0,2
0.010230000001683948,1066,0.14501900001778267,2
0.0,1067,0.0,2
0.011084999998274725,1068,0.1508789999934379,2
0.0,1069,0.0,2
0.016020000000935397,1070,0.185486000002129,2
0.0,1071,0.0,2
0.0,1072,0.10833699999784585,2
0.0,1073,0.0,2
0.008219999999710126,1074,0.16217100000358187,2
0.0,1075,0.0,2
0.005820000000312575,1076,0.13299499999266118,2
0.0,1077,0.0,2
0.016319999998813728,1078,0.14752199999929871,2
0.0,1079,0.0,2
0.013620000001537846,1080,0.18158000000403263,2
0.0,1081,0.0,2
0.0076200000003154855,1082,0.10754399999859743,2
0.0,1083,0.0,2
0.015584999999191496,1084,0.14294400000653695,2
0.0,1085,0.0,2
