method,package1,package2,dram1,dram2,energy
AAShapePipe,0.02465691026080371,0.0,0.0030451883164730148,0.0,0.027702098577276724
AWTGVTGlyphVector,0.0,0.049030423105096935,0.0,0.006410108446999402,0.055440531552096335
AbstractParentNode$ElementsByTagNameNS,0.04843530520021524,0.0,0.007412067087467605,0.0,0.05584737228768284
AbstractRed,0.0,0.021946808451833704,0.0,0.0035656108465163304,0.025512419298350034
AbstractSVGPathSegList,0.09501634234127049,0.0,0.008678706330700281,0.0,0.10369504867197077
AlgorithmDecomposer,0.02714685189528016,0.0,0.003200836305935438,0.0,0.030347688201215597
Any2sRGBRed,0.2708936428589368,0.07557675175054661,0.03157654761891882,0.008369353494936706,0.38641629572333897
Benchmark,0.8551798575300834,0.0,0.10462473656271014,0.0,0.9598045940927935
BidiAttributedCharacterIterator,0.02751760438584936,0.0,0.0033372192837289056,0.0,0.030854823669578264
ByteInterleavedRaster,0.08962759722150318,0.0,0.009457499999851078,0.0,0.09908509722135425
CSSClassCondition,0.026552328733380332,0.0,0.003236862075349189,0.0,0.02978919080872952
CSSElementSelector,0.06159466666698184,0.0,0.006062499999946643,0.0,0.06765716666692848
CSSEngine,0.09842005068473426,0.0,0.012720556647109325,0.0,0.11114060733184358
CSSSelectorFactory,0.03947497701599437,0.0,0.006384656531805106,0.0,0.04585963354779947
CSSUtilities,0.026509668597932603,0.0,0.003742096384612253,0.0,0.030251764982544855
Chaperone,0.0,0.10805036950782868,0.0,0.018858713577293015,0.1269090830851217
CharTrie,0.03488174786148837,0.0,0.0046848507918783,0.0,0.039566598653366675
ClassFile,0.07359445420068789,0.0,0.006946601235999206,0.0,0.08054105543668709
ClassInfo,0.045148858216649886,0.0,0.006352028455316466,0.0,0.05150088667196635
ClassPool,0.0,0.0,0.0,0.0,0.0
CodeAttribute,0.052039410257212024,0.0,0.006641538460779627,0.0,0.05868094871799165
ConstPool,0.06799268028984326,0.0,0.007491429911574354,0.0,0.07548411020141761
CtClassType,0.03947497701599437,0.0,0.006384656531805106,0.0,0.04585963354779947
DacapoClassLoader,0.1894012281632471,0.0,0.02319737743443432,0.0,0.2125986055976814
DefaultBrokenLinkProvider,0.04041213244037798,0.0,0.005045351658035768,0.0,0.04545748409841375
DuctusRenderingEngine$FillAdapter,0.02077736363659796,0.0,0.0023145454547237464,0.0,0.023091909091321704
FcFontConfiguration,0.0400355106337556,0.0,0.00492366508434965,0.0,0.04495917571810525
FcFontManager,0.048109965480083526,0.0,0.0053944474695995885,0.0,0.05350441294968311
FileDispatcherImpl,0.02577680100629089,0.0,0.003784921362889912,0.0,0.029561722369180803
FontConfiguration,0.045291826177714746,0.0,0.005467431552051919,0.0,0.050759257729766666
FontFamilyResolver,0.04843530520021524,0.0,0.007412067087467605,0.0,0.05584737228768284
FontManagerFactory$1,0.042539355967211485,0.0,0.006112435213394927,0.0,0.04865179118060641
FontStrikeDesc,0.03746221615588846,0.0,0.005049965023118296,0.0,0.04251218117900676
GVTBuilder,0.05195533491498242,0.0,0.008182871022014033,0.0,0.06013820593699645
GaussianBlurRed8Bit,0.0,0.13274673136732404,0.0,0.015566522112443762,0.14831325347976781
GlyphLayout,0.08137085696655133,0.0,0.009068228275870678,0.0,0.090439085242422
GraphicsPrimitiveMgr,0.022490953905350074,0.0,0.003158515150073457,0.0,0.02564946905542353
GraphicsUtil,0.29784054761902157,0.11813261738272557,0.03389428571465812,0.014710493592606351,0.4645779443090116
ImagingLib,0.0,0.04751903750177238,0.0,0.0074473627563009575,0.05496640025807334
InputEntity,0.026100074132992902,0.0,0.003879712731436877,0.0,0.02997978686442978
Launcher$AppClassLoader,0.042539355967211485,0.0,0.006112435213394927,0.0,0.04865179118060641
LocalizableSupport,0.034451970785131285,0.0,0.003726113050971855,0.0,0.03817808383610314
LongVector,0.05885814865123416,0.0,0.007735729150477421,0.0,0.06659387780171158
MaskBlit,0.0,0.07069502650617142,0.0,0.008363111268327368,0.07905813777449879
MorphologyOp,0.0,0.33251846395254125,0.0,0.045450591563042986,0.37796905551558424
PNGEncodeParam,0.1896979707123976,0.0,0.02277050478621398,0.0,0.2124684754986116
PNGImageEncoder,0.589215608375375,1.7769542036382333,0.07991832603060355,0.24221885694536796,2.68830699498958
PNGRed,0.5511526217929698,0.0,0.06817490384595752,0.0,0.6193275256389272
PaintServer,0.04848216666626588,0.0,0.005449999999958284,0.0,0.05393216666622417
ParsedURL,0.04437650000157493,0.0,0.005341000000044005,0.0,0.04971750000161893
Parser,0.012384804678563493,0.0,0.0023011253663845804,0.0,0.014685930044948073
PathStroker,0.17952231211766506,0.0,0.021324903842247136,0.0,0.2008472159599122
Rasterizer,0.03787536186306036,0.0,0.004367362984241408,0.0,0.04224272484730177
Resource,0.16280028666583043,0.0,0.018711599999369354,0.0,0.1815118866651998
SAXParserFactoryImpl,0.04437650000157493,0.0,0.005341000000044005,0.0,0.04971750000161893
SVGAnimatedPathDataSupport,0.05675426442602253,0.0,0.0058107424088238045,0.0,0.06256500683484634
SVGDOMImplementation,0.02435052083304375,0.0,0.002934374999767897,0.0,0.027284895832811646
SVGDOMImplementation$ScriptElementFactory,0.0,0.036941769858851614,0.0,0.005673957778845756,0.04261572763769737
SVGFeCompositeElementBridge,0.044721559684327165,0.0,0.005548763515453516,0.0,0.050270323199780684
SVGFilterElementBridge,0.0,0.0,0.0,0.0,0.0
SVGTextElementBridge,0.06410744798374514,0.0,0.009461533848412841,0.0,0.07356898183215799
SVGUtilities,0.04671662162247624,0.0,0.004352027027208179,0.0,0.05106864864968442
SVGValueConstants,0.04640831674773389,0.0,0.0058694048202896955,0.0,0.052277721568023586
ShapeNode,0.041299448066161634,0.0,0.003674737083429985,0.0,0.04497418514959162
StandardGlyphVector,0.039684264727745694,0.0,0.004618277942466805,0.0,0.0443025426702125
StrokeShapePainter,0.039755405405476514,0.0,0.004390540540731997,0.0,0.04414594594620851
StyleMap,0.026552328733380332,0.0,0.003236862075349189,0.0,0.02978919080872952
SunFontManager,0.0791740521217114,0.0,0.009155502000802108,0.0,0.0883295541225135
SunGraphics2D,0.10746061048426156,0.03402976988149162,0.013053752342036522,0.0044560257296788796,0.15900015843746856
SunGraphicsEnvironment$1,0.06277686245431592,0.0,0.009501577919122414,0.0,0.07227844037343834
SunLayoutEngine,0.0466062803023471,0.0,0.00456215909086192,0.0,0.05116843939320902
SurfaceData,0.028654352693784836,0.0,0.0039678416056756136,0.0,0.03262219429946045
SurfaceType,0.028654352693784836,0.0,0.0039678416056756136,0.0,0.03262219429946045
T2KFontScaler,0.21263082986181486,0.0,0.025975302074044696,0.0,0.23860613193585956
TestHarness,0.0735676666663494,0.0,0.010940000000118744,0.0,0.08450766666646814
TranscoderSupport,0.0020165599999018013,0.0,0.000331200000073295,0.0,0.0023477599999750963
TransformHelper,0.0,0.09743024452087623,0.0,0.012658652636140296,0.11008889715701653
TrueTypeFont,0.043810554320868514,0.0,0.0040468384977411865,0.0,0.0478573928186097
TrueTypeFont$TTDisposerRecord,0.04261971536062345,0.0,0.004653321240509422,0.0,0.04727303660113287
Type1Font,0.07070413801995486,0.0,0.008814905979008032,0.0,0.0795190439989629
URLClassPath$FileLoader,0.03539127108882181,0.0,0.005310780912420864,0.0,0.040702052001242675
URLClassPath$JarLoader,0.003147362357262886,0.0,0.0003790926355481029,0.0,0.003526454992810989
US_ASCII,0.03507653740456463,0.0,0.0034553613362541874,0.0,0.03853189874081882
Utf8Info,0.0666981966273554,0.04789398460400525,0.009615059334893575,0.006201925114213555,0.1304091656804678
X11FontManager,0.09232854218732803,0.0,0.01328855048285426,0.0,0.1056170926701823
XMLAbstractTranscoder,0.03539036666673685,0.0,0.0034265000000232248,0.0,0.038816866666760076
