method,package1,package2,dram1,dram2,energy
AbstractGraphicsNode,0.0,0.038574206897715936,0.0,0.005118620689558909,0.04369282758727484
AbstractParser,0.062278687500565866,0.0,0.0062774999996690894,0.0,0.06855618750023496
Any2sRGBRed,0.26444739736866185,0.0,0.028697682130148883,0.0,0.29314507949881075
AttributeInfo,0.05629510126698632,0.0,0.00626844380032399,0.0,0.06256354506731031
Benchmark,0.712485841790528,0.0,0.09668820381075113,0.0,0.8091740456012791
BidiAttributedCharacterIterator,0.0,0.08349198666245987,0.0,0.008309599999944718,0.0918015866624046
CSSUtilities,0.04670556393696342,0.06698000000033061,0.004234027326285108,0.007835999999952036,0.1257555912635312
ClassPool,0.020965666666597826,0.0,0.0027300000001559965,0.0,0.023695666666753823
CompositeGraphicsNode,0.0,0.04756327999891558,0.0,0.005565800000404125,0.053129079999319706
CompositeShapePainter,0.0,0.0399396666643615,0.0,0.0053627777781204925,0.04530244444248199
ConfigFile,0.004915746485391434,0.0,0.0,0.0,0.004915746485391434
ConstPool,0.09767082301102442,0.0,0.014094912996942419,0.0,0.11176573600796684
CursorManager,0.051465642856783234,0.0,0.005380714286210215,0.0,0.05684635714299345
DacapoClassLoader,0.32466573648360053,0.0,0.04011665070456627,0.0,0.3647823871881668
DisabledAlgorithmConstraints$Constraints,0.06026737142518975,0.0,0.007975645588387613,0.0,0.06824301701357736
DuctusRenderingEngine$FillAdapter,0.0,0.033817793102132086,0.0,0.003980689655220666,0.03779848275735275
EventListenerList,0.02844838095257901,0.0,0.003000000000437943,0.0,0.031448380953016955
ExtendedGeneralPath,0.0,0.10982660000154282,0.0,0.011705999999685444,0.12153260000122826
FcFontConfiguration,0.0463507041483246,0.0,0.005664334057001784,0.0,0.05201503820532639
FloatingDecimal$BinaryToASCIIBuffer,0.0,0.09997041666489773,0.0,0.010915625000128177,0.1108860416650259
GaussianBlurRed8Bit,0.0,0.050307293615969265,0.0,0.005273632121846005,0.05558092573781527
GlyphLayout,0.0,0.09018674976162984,0.0,0.010562672132145215,0.10074942189377506
GraphicsPrimitiveMgr,0.0,0.07723297436015666,0.0,0.01146923076908607,0.08870220512924273
GraphicsUtil,0.25900024739007144,0.36236320271758804,0.028556865258107512,0.046063499548453284,0.6959838149142202
HashTable,0.05394569230758442,0.0,0.005021538461173454,0.0,0.05896723076875787
ImagingLib,0.0,0.08138892304379156,0.0,0.009095913385674599,0.09048483642946616
Launcher$AppClassLoader,0.0,0.0,0.0,0.0,0.0
LocalizableSupport,0.05649031741603205,0.0,0.009240925226729202,0.0,0.06573124264276126
MemberrefInfo,0.1273905833356063,0.0,0.01339250000122168,0.0,0.14078308333682799
MetaIndex,0.05490142984381751,0.0,0.007809645829280698,0.0,0.06271107567309821
MorphologyOp,0.0,0.1815201097505253,0.0,0.021367432142706873,0.20288754189323216
NullSurfaceData,0.0,0.05901948717804865,0.0,0.006720000000383993,0.06573948717843264
PNGEncodeParam,0.0,0.1626183245090345,0.0,0.02051176584666981,0.1831300903557043
PNGImageEncoder,0.0,4.040143914085225,0.0,0.5878144710398591,4.627958385125084
PNGRed,0.03450385822852933,0.0,0.004195823822020864,0.0,0.038699682050550195
PNGRegistryEntry$1,0.0,0.0,0.0,0.0,0.0
ParsedURL,0.0414428333339553,0.0,0.004695000000234964,0.0,0.04613783333419026
Parser2,0.0413208333326717,0.0,0.005567499999718469,0.0,0.04688833333239017
PathStroker,0.0,0.132703134374942,0.0,0.015904210593583483,0.14860734496852548
RenderLoops,0.0,0.020233948719508656,0.0,0.0029615384614888355,0.023195487180997492
Resource,0.1037052235771581,0.0,0.012673902438745416,0.0,0.11637912601590351
SVGAbstractTranscoder,0.03875733333309957,0.0,0.005094999999831392,0.0,0.04385233333293096
SVGAnimatedPathDataSupport,0.0,0.03804940000118222,0.0,0.004127999999764142,0.04217740000094636
SVGComposite$OverCompositeContext_INT_PACK_UNPRE,0.0,0.07585849559684385,0.0,0.009869359016609578,0.08572785461345343
SVGConverter,0.0,0.060393965950842975,0.0,0.007980088749323868,0.06837405470016684
SVGConverterFileSource,0.035888666666627,0.0,0.003729999999753393,0.0,0.0396186666663804
SVGDOMImplementation,0.13266415789468353,0.0,0.016232105262755984,0.0,0.1488962631574395
SVGGElementBridge,0.0,0.08020250000229749,0.0,0.008480769230608039,0.08868326923290554
SVGImageElementBridge,0.0,0.11068709999963176,0.0,0.01325700000015786,0.12394409999978963
SVGOMURIReferenceElement,0.0,0.07767889936474327,0.0,0.010632466997208087,0.08831136636195136
StandardGlyphVector$GlyphStrike,0.0,0.08780933333522019,0.0,0.010939999999512413,0.0987493333347326
StringNormalizingReader,0.0,0.060961999997380174,0.0,0.00848400000031688,0.06944599999769706
StrokingTextPainter,0.0,0.08578137036615603,0.0,0.009566666666917929,0.09534803703307396
StyleMap,0.0,0.0717772000003606,0.0,0.007577999999921301,0.0793552000002819
SunFontManager,0.18074079255250178,0.0,0.021273864162777927,0.0,0.2020146567152797
SunLayoutEngine,0.0,0.08003350666918171,0.0,0.010118400000016363,0.09015190666919808
T2KFontScaler,0.0,0.48108836912608266,0.0,0.05900808601482728,0.54009645514091
TransformHelper,0.0,0.04157323934743608,0.0,0.004818225202479174,0.04639146454991525
TrueTypeFont,0.04558337779195616,0.0,0.003938154055610381,0.0,0.049521531847566545
Type1Font,0.1811257390048774,0.0,0.02059123040631424,0.0,0.20171696941119166
UCharacter,0.0,0.16668700000445824,0.0,0.021949999999681797,0.18863700000414005
URLClassPath$FileLoader,0.0,0.021375777775473483,0.0,0.0027466666668058467,0.02412244444227933
URLClassPath$JarLoader,0.06605463873862807,0.0,0.009937017872387571,0.0,0.07599165661101565
URLClassPath$JarLoader$2,0.06026737142518975,0.0,0.007975645588387613,0.0,0.06824301701357736
UTF_8$Encoder,0.0,0.08457692088306556,0.0,0.015387883292508998,0.09996480417557456
UnitProcessor,0.04670556393696342,0.0,0.004234027326285108,0.0,0.050939591263248526
Unsafe,0.037609986707446204,0.0,0.0035499204552091436,0.0,0.04115990716265535
Utf8Info,0.0,0.0,0.0,0.0,0.0
XMLReaderImpl,0.05399566666649965,0.0,0.007424999999784632,0.0,0.06142066666628428
