method,package1,package2,dram1,dram2,energy
AbstractElement$NamedNodeHashMap.getNamedItemNS,0.031960712029993656,0.0,0.0036330702971241187,0.0,0.035593782327117775
AbstractSVGPathSegList.doParse,0.013255937888247448,0.0,0.0014339155922320902,0.0,0.014689853480479539
AbstractSVGTransformList.doParse,0.04735986372679506,0.0,0.005532379748667965,0.0,0.05289224347546302
Any2sRGBRed.applyLut_INT,0.0529315384617523,0.0,0.006552692307125723,0.0,0.05948423076887803
AttributeValues.equals,0.02608204738746434,0.0,0.0021855841330981093,0.0,0.02826763152056245
BaselineShiftManager.computeValue,0.034834798604115126,0.0,0.002938426802771197,0.0,0.037773225406886324
ByteInterleavedRaster.getPixels,0.0,0.03895062500123458,0.0,0.005967499999921225,0.0449181250011558
CRC.<clinit>,0.03777258573107648,0.0,0.003308192546472939,0.0,0.04108077827754942
CSSConditionalSelector.match,0.05379892416124565,0.0,0.00551164977951374,0.0,0.059310573940759385
CSSEngine.addMatchingRules,0.061890159057955293,0.0,0.006721692693912779,0.0,0.06861185175186807
ClassPool.compress,0.05341154486276522,0.0,0.006994662100852278,0.0,0.060406206963617495
DacapoClassLoader.loadClass,0.04690664396915796,0.0,0.005054992728835727,0.0,0.05196163669799369
DestinationType.getTranscoder,0.02930644198395914,0.0,0.0041045957021503396,0.0,0.03341103768610948
ExtendedGeneralPath.checkMoveTo,0.012863993030639823,0.0,0.0008399808097822532,0.0,0.013703973840422077
ExtendedGeneralPath.lineTo,0.06510260974461063,0.0,0.006149639546494261,0.0,0.0712522492911049
ExtendedGeneralPath.makeRoom,0.027100450409357785,0.0,0.003213687349390809,0.0,0.030314137758748593
FieldInfo.read,0.0411849880065961,0.0,0.004881473393114535,0.0,0.04606646139971063
FileChannelImpl.<init>,0.047412805669821936,0.0,0.00435992860082638,0.0,0.05177273427064832
FileFont.getGlyphImage,0.03158251622525423,0.0,0.0026633195976149123,0.0,0.03424583582286914
GaussianBlurRed8Bit.boxFilterH,0.1495221651294224,0.0,0.01832763076905767,0.0,0.16784979589848006
GaussianBlurRed8Bit.boxFilterV,0.06347748000038943,0.0,0.008144400000213256,0.0,0.07162188000060268
GraphicsUtil.copyData,0.02574581818242388,0.052171466667722495,0.0022781818181763147,0.0064096666668774565,0.08660513333520013
GraphicsUtil.copyData_INT_PACK,0.07283386958374888,0.0,0.008344313288790673,0.0,0.08117818287253956
GraphicsUtil.divide_INT_PACK_Data,0.07339595999879141,0.0,0.00786060000017945,0.0,0.08125655999897086
GraphicsUtil.mult_INT_PACK_Data,0.1151169230752902,0.0,0.014067692307435209,0.0,0.1291846153827254
IDATOutputStream.write,0.032162571428454516,0.0,0.003344285714168412,0.0,0.03550685714262293
IOUtil.read,0.02591780767412216,0.0,0.002886680743993486,0.0,0.028804488418115646
InputEntity.init,0.019602441668012813,0.0,0.002420789097162473,0.0,0.022023230765175286
MethodAccessorGenerator.generate,0.04496235496715119,0.0,0.005338260649741351,0.0,0.05030061561689254
MorphologyOp.filter,0.5518657414139144,0.0,0.04583860606150178,0.0,0.5977043474754162
MorphologyOp.isBetter,0.04256933333244612,0.0,0.003398181817994389,0.0,0.04596751515044051
PNGEncodeParam.filterRow,0.26362910199980977,0.0,0.02905833425720509,0.0,0.2926874362570149
PNGImageEncoder.encodePass,0.11338370972565513,0.0,0.012904215513358238,0.0,0.12628792523901336
PNGRed.decodePaethFilter,0.0,0.14151272727317654,0.0,0.016996363635619426,0.15850909090879597
PNGRed.decodeUpFilter,0.0,0.037641939389604064,0.0,0.00494545454575652,0.04258739393536058
ParsedURL.getHandlersMap,0.017601687308490016,0.0,0.001916841571460122,0.0,0.019518528879950137
Parser2.parseLiteral,0.03688483395086258,0.0,0.004527641266798779,0.0,0.04141247521766136
PathFiller.reset,0.03831154498393883,0.0,0.004657809546402318,0.0,0.04296935453034115
PathStroker.cInitialize,0.05131491310024445,0.0,0.005546697340695458,0.0,0.0568616104409399
PathStroker.endPath,0.08773246886502091,0.0,0.01104825067822718,0.0,0.09878071954324809
PlatformLogger.<init>,0.05005885454074519,0.0,0.004519268981916559,0.0,0.05457812352266175
Rasterizer.closedSubpath,0.04374388803764452,0.0,0.004796269107583852,0.0,0.04854015714522837
Resource.getBytes,0.02479916996107932,0.0,0.002511083723051661,0.0,0.02731025368413098
SVGAnimatedPathDataSupport.handlePathSegList,0.05692394474693058,0.0,0.005590909988839992,0.0,0.06251485473577056
SVGComposite$OverCompositeContext_INT_PACK_UNPRE.precompose_INT_PACK,0.02576366666633273,0.0,0.002731666666578449,0.0,0.02849533333291118
SVGDOMImplementation$FeComponentTransferElementFactory.create,0.06801760000089416,0.0,0.007490999999572522,0.0,0.07550860000046668
SVGDOMImplementation$SvgElementFactory.create,0.013186319303836104,0.0,0.0014968046221314492,0.0,0.014683123925967554
SVGDOMImplementation.<clinit>,0.052378880098696165,0.0,0.005557344627276506,0.0,0.05793622472597267
SVGOMElement.createLiveAnimatedString,0.05512439880378628,0.0,0.00463448882241187,0.0,0.059758887626198146
SVGPathElementBridge.buildShape,0.014791723395378409,0.0,0.001633197093498102,0.0,0.01642492048887651
SVGShapeElementBridge.createShapePainter,0.029929447027961638,0.0,0.003088622396788661,0.0,0.0330180694247503
SVGTextElementBridge.getFontList,0.0708021694858016,0.0,0.007797525223707358,0.0,0.07859969470950896
SVGValueConstants.<clinit>,0.01954269972250377,0.0,0.0022411714110868587,0.0,0.021783871133590628
StandardGlyphVector.getGlyphMetrics,0.04770288536844674,0.0,0.004907809932684879,0.0,0.05261069530113162
StaticRenderer.updateWorkingBuffers,0.05998347565831276,0.0,0.005244482841125833,0.0,0.06522795849943859
StringMap.put,0.01900724380044697,0.0,0.0022414942534249114,0.0,0.021248738053871882
StyleSheet.append,0.021177841998075698,0.0,0.002437739890999645,0.0,0.023615581889075345
SunLayoutEngine.nativeLayout,0.08770219669474102,0.0,0.010553752028773622,0.0,0.09825594872351465
T2KFontScaler.getGlyphImageNative,0.04859823727888461,0.0,0.005073501351349226,0.0,0.05367173863023384
T2KFontScaler.getGlyphMetricsNative,0.04859823727888461,0.0,0.005073501351349226,0.0,0.05367173863023384
TextDecorationManager.<init>,0.018001377294618245,0.0,0.002218479596222976,0.0,0.02021985689084122
TextNode.<init>,0.07083020169921288,0.0,0.008050636013462144,0.0,0.07888083771267503
TransformHelper.Transform,0.027140333333389003,0.0,0.0022083333331263727,0.0,0.029348666666515377
Type1Font.initNames,0.02410966439819404,0.0,0.003173708099519321,0.0,0.02728337249771336
Type1Font.nextTokenType,0.04995222619627666,0.0,0.005427556797239451,0.0,0.055379782993516105
Type1Font.skip,0.042478328521478,0.0,0.005033536429436364,0.0,0.04751186495091437
