method,hits
AWTGVTGlyphVector.computeGlyphLogicalBounds,4
AbstractRed.copyBand,2
Any2LsRGBRed.<init>,2
Any2sRGBRed.applyLut_INT,4
BidiBase$ImpTabPair.<init>,2
BridgeContext.createURIResolver,2
CSSEngine.getCascadedStyleMap,2
CompositeShapePainter.getPaintedBounds2D,2
DisabledAlgorithmConstraints$Constraints.<init>,2
DuctusRenderingEngine.getAATileGenerator,2
FcFontManager.getFontPathNative,2
FontSizeManager.<clinit>,2
GaussianBlurRed8Bit.boxFilterH,2
GaussianBlurRed8Bit.boxFilterV,8
GraphicsUtil.divide_INT_PACK_Data,4
ImagingLib.transformBI,2
InputEntity.getc,2
InputEntity.parsedContent,2
LocalizableSupport.formatMessage,2
Main.<clinit>,2
MorphologyOp.filter,24
MorphologyOp.isBetter,6
PNGEncodeParam.filterRow,26
PNGImageEncoder.encodePass,10
ParseUtil.canonizeString,2
Parser2.init,2
Parser2.maybeGetNameCacheEntry,2
PathStroker.appendLine,2
PathStroker.endPath,2
SAXParserImpl.<init>,2
SVGAbstractTranscoder.<clinit>,2
SVGAbstractTranscoder.createUserAgent,2
SVGComposite$OverCompositeContext_INT_PACK_UNPRE.precompose_INT_PACK,4
SVGDOMImplementation.createDocument,2
SVGOMAnimatedPathData.getAnimatedPathSegList,2
SVGOMElement.createLiveAnimatedString,2
SVGValueConstants.<clinit>,2
StaticRenderer.updateWorkingBuffers,2
SunFontManager.addCompositeToFontList,2
SunHints.<clinit>,2
SurfaceData.initIDs,2
T2KFontScaler.getGlyphMetricsNative,6
TrueTypeFont.getFamilyName,2
Type1Font.initNames,2
Type1Font.nextTokenType,6
UBiDiProps.readData,2
