method,package1,package2,dram1,dram2,energy
AAShapePipe,0.0,0.04883878260759798,0.0,0.007554782608918764,0.05639356521651675
AWTPathProducer,0.0,0.03594325000055202,0.0,0.00640046874999219,0.04234371875054421
AttributeInfo,0.04331228503402683,0.0,0.0052280252474890855,0.0,0.04854031028151591
ByteInterleavedRaster,0.09597673674155657,0.0,0.012657985484886043,0.0,0.10863472222644262
CSSEngine,0.0,0.041817447386515806,0.0,0.005790654387568759,0.04760810177408457
CompositeGraphicsNode,0.0,0.012610249872612314,0.0,0.0015305509055533757,0.01414080077816569
ConstPool,0.06259500000144019,0.0,0.008625000000392902,0.0,0.0712200000018331
FileDispatcherImpl,0.0,0.032555723871263306,0.0,0.004481805509789064,0.03703752938105237
FontConfiguration,0.0,0.022830187034290482,0.0,0.003112793305155588,0.02594298033944607
GaussianBlurRed8Bit,0.0,0.22745952381089973,0.0,0.029522619047311887,0.25698214285821164
GlyphLayout,0.0,0.04257200000089748,0.0,0.006179999999706827,0.04875200000060431
GraphicsUtil,0.0432567750028187,0.06535306349045611,0.005434693778892787,0.009285714285729298,0.1233302465578969
Main,0.002260261298361601,0.0,0.0003418291236006553,0.0,0.0026020904219622564
MaskBlit,0.0,0.05992124999829685,0.0,0.008501249999881109,0.06842249999817795
MorphologyOp,0.0,0.21299207636564982,0.0,0.02825277089800951,0.24124484726365933
PNGEncodeParam,0.0,0.6234759657201371,0.0,0.08690602130420923,0.7103819870243463
PNGImageEncoder,0.0,0.12125644444151677,0.0,0.01649333333302315,0.13774977777453992
PNGRed,0.1531824279565358,0.0,0.015908106584235117,0.0,0.16909053454077091
PNGRegistryEntry$1,0.04712311274218128,0.0,0.005576665721357929,0.0,0.05269977846353921
PNGTranscoderInternalCodecWriteAdapter,0.0,0.027310793650233083,0.0,0.0047666666666503115,0.0320774603168834
Parser2,0.06444305555406674,0.07826733333058655,0.008387499999824084,0.009620000000116608,0.16071788888459398
PathStroker,0.0,0.09533793939617954,0.0,0.012776363636200556,0.1081143030323801
SAXSVGDocumentFactory,0.023464444443056388,0.0,0.0034000000000054976,0.0,0.026864444443061887
SVGAbstractTranscoder,0.10663591353377548,0.0,0.013427706767404578,0.0,0.12006362030118006
SVGBridgeExtension,0.05507022727132689,0.0,0.006146590909669281,0.0,0.06121681818099617
SVGTextElementBridge,0.0,0.035767400694126886,0.0,0.005066164527962156,0.040833565222089044
StaticRenderer,0.0,0.033619826085708585,0.0,0.004822826087073064,0.03844265217278165
StrokingTextPainter,0.0,0.0649048000021139,0.0,0.008460000000195577,0.07336480000230948
T2KFontScaler,0.0,0.1449963692641964,0.0,0.018205837662211215,0.1632022069264076
TextLabelFactory,0.0,0.09749953333545516,0.0,0.010437999999673287,0.10793753333512845
TextNode,0.0,0.035767400694126886,0.0,0.005066164527962156,0.040833565222089044
TrueTypeFont,0.0,0.042188411076227256,0.0,0.004917777686225052,0.04710618876245231
Type1Font,0.0,0.1025121616941106,0.0,0.011982331754186774,0.11449449344829737
XMLReaderImpl,0.12703805555550693,0.0,0.017012500000216986,0.0,0.1440505555557239
