method,hits
AbstractParser.<init>,2
CSSUtilities.getComputedStyle,2
ClassPool.makeClass,2
ConfigFile.<init>,2
ConstPool.readOne,2
DisabledAlgorithmConstraints$Constraints.<init>,2
EventListenerList.<init>,2
FloatingDecimal$BinaryToASCIIBuffer.dtoa,2
GaussianBlurRed8Bit.boxFilterV,2
GlyphLayout.draw,2
GraphicsPrimitiveMgr.initIDs,4
GraphicsUtil.copyData,10
GraphicsUtil.divide_INT_PACK_Data,4
HashTable.get,2
ImagingLib.transformBI,4
MorphologyOp.filter,6
NullSurfaceData.<clinit>,2
PNGEncodeParam.filterRow,8
PNGImageEncoder.encodePass,4
PNGRed.decodePaethFilter,2
PNGRegistryEntry$1.run,2
ParsedURL.<clinit>,2
Parser2.maybeElementDecl,2
PathStroker.endPath,4
RenderLoops.<clinit>,2
SVGAbstractTranscoder.createDocumentFactory,2
SVGAnimatedPathDataSupport.handlePathSegList,2
SVGComposite$OverCompositeContext_INT_PACK_UNPRE.precompose_INT_PACK,2
SVGConverterFileSource.isSameAs,2
SVGDOMImplementation.<clinit>,2
SVGDOMImplementation.createElementNS,2
SVGGElementBridge.instantiateGraphicsNode,2
SVGImageElementBridge.createRasterImageNode,2
SVGOMURIReferenceElement.<init>,2
StandardGlyphVector$GlyphStrike.appendGlyphOutline,2
StringNormalizingReader.read,2
StyleMap.putValue,2
SunFontManager.<clinit>,2
SunFontManager.getInstalledFontFamilyNames,2
SunLayoutEngine.nativeLayout,2
T2KFontScaler.getGlyphImageNative,4
T2KFontScaler.getGlyphMetricsNative,10
T2KFontScaler.getGlyphOutlineNative,2
TransformHelper.Transform,2
TrueTypeFont.createLCIDMap,2
Type1Font.nextTokenType,8
UCharacter.<clinit>,4
URLClassPath$JarLoader.parseClassPath,2
UTF_8$Encoder.encodeArrayLoop,2
UnitProcessor.createContext,2
Unsafe.compareAndSwapInt,2
XMLReaderImpl.parse,2
