method,package1,package2,dram1,dram2,energy
AAShapePipe.renderTiles|AAShapePipe.renderPath|AAShapePipe.draw,0.0,0.04883878260759798,0.0,0.007554782608918764,0.05639356521651675
AWTPathProducer.movetoRel|SVGAnimatedPathDataSupport.handlePathSegList|SVGPathElementBridge.buildShape,0.0,0.03594325000055202,0.0,0.00640046874999219,0.04234371875054421
AttributeInfo.read|CodeAttribute.<init>|AttributeInfo.read,0.04331228503402683,0.0,0.0052280252474890855,0.0,0.04854031028151591
ByteInterleavedRaster.setPixels|GraphicsUtil.copyData_FALLBACK|GraphicsUtil.copyData,0.09597673674155657,0.0,0.012657985484886043,0.0,0.10863472222644262
CSSEngine.getComputedStyle|CSSEngine.getComputedStyle|CSSUtilities.getComputedStyle,0.0,0.041817447386515806,0.0,0.005790654387568759,0.04760810177408457
CompositeGraphicsNode.invalidateGeometryCache|AbstractGraphicsNode.invalidateGeometryCache|CompositeGraphicsNode.invalidateGeometryCache,0.0,0.012610249872612314,0.0,0.0015305509055533757,0.01414080077816569
ConstPool.readOne|ConstPool.read|ConstPool.<init>,0.06259500000144019,0.0,0.008625000000392902,0.0,0.0712200000018331
FileDispatcherImpl.read0|FileDispatcherImpl.read|IOUtil.readIntoNativeBuffer,0.0,0.032555723871263306,0.0,0.004481805509789064,0.03703752938105237
FontConfiguration.<clinit>|X11FontManager.createFontConfiguration|SunFontManager$2.run,0.0,0.022830187034290482,0.0,0.003112793305155588,0.02594298033944607
GaussianBlurRed8Bit.boxFilterH|GaussianBlurRed8Bit.copyData|PadRed.copyData,0.0,0.05944631746041566,0.0,0.007611190476093307,0.06705750793650897
GaussianBlurRed8Bit.boxFilterV|GaussianBlurRed8Bit.copyData|PadRed.copyData,0.0,0.16801320635048406,0.0,0.02191142857121858,0.18992463492170264
GlyphLayout.getDecorationOutline|StrokingTextPainter.getDecorationStrokeOutline|StrokingTextPainter.getBounds2D,0.0,0.04257200000089748,0.0,0.006179999999706827,0.04875200000060431
GraphicsUtil.copyData|GraphicsUtil.copyData|FormatRed.copyData,0.0432567750028187,0.0,0.005434693778892787,0.0,0.04869146878171149
GraphicsUtil.mult_INT_PACK_Data|GraphicsUtil.multiplyAlpha|GraphicsUtil.coerceData,0.0,0.06535306349045611,0.0,0.009285714285729298,0.07463877777618541
Main.<clinit>|Class.forName0|Class.forName,0.002260261298361601,0.0,0.0003418291236006553,0.0,0.0026020904219622564
MaskBlit.MaskBlit|Blit$GeneralMaskBlit.Blit|DrawImage.blitSurfaceData,0.0,0.05992124999829685,0.0,0.008501249999881109,0.06842249999817795
MorphologyOp.filter|MorphologyOp.filter|MorphologyRable8Bit.createRendering,0.0,0.21299207636564982,0.0,0.02825277089800951,0.24124484726365933
PNGEncodeParam.filterRow|PNGImageEncoder.encodePass|PNGImageEncoder.writeIDAT,0.0,0.6234759657201371,0.0,0.08690602130420923,0.7103819870243463
PNGImageEncoder.clamp|PNGImageEncoder.encodePass|PNGImageEncoder.writeIDAT,0.0,0.07042088888637307,0.0,0.0091599999998127,0.07958088888618578
PNGImageEncoder.encodePass|PNGImageEncoder.writeIDAT|PNGImageEncoder.encode,0.0,0.0508355555551437,0.0,0.00733333333321045,0.05816888888835415
PNGRed.decodePaethFilter|PNGRed.decodePass|PNGRed.decodeImage,0.12317784384852873,0.0,0.012410893497289997,0.0,0.13558873734581872
PNGRed.decodePass|PNGRed.decodeImage|PNGRed.parse_IEND_chunk,0.03000458410800707,0.0,0.0034972130869451194,0.0,0.033501797194952186
PNGRegistryEntry$1.run,0.04712311274218128,0.0,0.005576665721357929,0.0,0.05269977846353921
PNGTranscoderInternalCodecWriteAdapter.writeImage|PNGTranscoder.writeImage|ImageTranscoder.transcode,0.0,0.027310793650233083,0.0,0.0047666666666503115,0.0320774603168834
Parser2.init|Parser2.parse|XMLReaderImpl.parse,0.06444305555406674,0.0,0.008387499999824084,0.0,0.07283055555389081
Parser2.parseLiteral|Parser2.maybeElement|Parser2.content,0.0,0.07826733333058655,0.0,0.009620000000116608,0.08788733333070316
PathStroker.endPath|DuctusRenderingEngine.feedConsumer|DuctusRenderingEngine.createStrokedShape,0.0,0.09533793939617954,0.0,0.012776363636200556,0.1081143030323801
SAXSVGDocumentFactory.createDocument|SAXSVGDocumentFactory.createDocument|XMLAbstractTranscoder.transcode,0.023464444443056388,0.0,0.0034000000000054976,0.0,0.026864444443061887
SVGAbstractTranscoder.<init>|ImageTranscoder.<init>|PNGTranscoder.<init>,0.04636057142800252,0.0,0.007459285714763349,0.0,0.05381985714276587
SVGAbstractTranscoder.createBridgeContext|SVGAbstractTranscoder.createBridgeContext|SVGAbstractTranscoder.transcode,0.06027534210577296,0.0,0.00596842105264123,0.0,0.0662437631584142
SVGBridgeExtension.registerTags|BridgeContext.registerSVGBridges|BridgeContext.setDocument,0.05507022727132689,0.0,0.006146590909669281,0.0,0.06121681818099617
SVGTextElementBridge.instantiateGraphicsNode|AbstractGraphicsNodeBridge.createGraphicsNode|SVGTextElementBridge.createGraphicsNode,0.0,0.035767400694126886,0.0,0.005066164527962156,0.040833565222089044
StaticRenderer.repaint|StaticRenderer.repaint|ImageTranscoder.transcode,0.0,0.033619826085708585,0.0,0.004822826087073064,0.03844265217278165
StrokingTextPainter.createModifiedACIForFontMatching|StrokingTextPainter.computeTextRuns|StrokingTextPainter.getTextRuns,0.0,0.0649048000021139,0.0,0.008460000000195577,0.07336480000230948
T2KFontScaler.getGlyphImageNative|T2KFontScaler.getGlyphImage|FileFont.getGlyphImage,0.0,0.047874857142146315,0.0,0.005451428571610622,0.05332628571375694
T2KFontScaler.getGlyphMetricsNative|T2KFontScaler.getGlyphMetrics|FileFont.getGlyphMetrics,0.0,0.0971215121220501,0.0,0.012754409090600594,0.10987592121265069
TextLabelFactory.createExtended|TextLine.createComponentsOnRun|TextLine.getComponents,0.0,0.09749953333545516,0.0,0.010437999999673287,0.10793753333512845
TextNode.<init>|SVGTextElementBridge.instantiateGraphicsNode|AbstractGraphicsNodeBridge.createGraphicsNode,0.0,0.035767400694126886,0.0,0.005066164527962156,0.040833565222089044
TrueTypeFont.readBlock|TrueTypeFont.init|TrueTypeFont.<init>,0.0,0.042188411076227256,0.0,0.004917777686225052,0.04710618876245231
Type1Font.nextTokenType|Type1Font.initNames|Type1Font.verify,0.0,0.1025121616941106,0.0,0.011982331754186774,0.11449449344829737
XMLReaderImpl.parse|SAXDocumentFactory.createDocument|SAXDocumentFactory.createDocument,0.12703805555550693,0.0,0.017012500000216986,0.0,0.1440505555557239
