method,package1,package2,dram1,dram2,energy
AffineTransform,0.07990349019653911,0.0,0.008877647059253991,0.0,0.0887811372557931
Arrays,0.0,0.07195270970761874,0.0,0.009002649922152656,0.0809553596297714
BandCombineOp,0.18610316550639708,0.0,0.02209844927759355,0.0,0.20820161478399063
BufferedInputStream,0.13475234920746712,0.3195467407186009,0.016370689412452004,0.039797267829961985,0.510467047168482
Character,0.0,0.03223927245235605,0.0,0.004377955966496036,0.03661722841885209
Class,0.0,0.05326965768480962,0.0,0.007262117938395177,0.060531775623204796
ClassLoader,0.22721333333174695,0.1945052962396494,0.028959999998429943,0.02652101144234368,0.47719964101217005
ComponentSampleModel,0.12374988020946397,0.0,0.012213640254845611,0.0,0.13596352046430957
CubicCurve2D,0.0,0.028969066755418018,0.0,0.0039052876410325225,0.03287435439645054
DataBufferInt,0.05732857352876008,0.0,0.006683832514091765,0.0,0.06401240604285184
Deflater,9.969024960928245,0.0,1.039157024752059,0.0,11.008181985680304
DirectByteBuffer,0.0,0.0374986574403832,0.0,0.005014250636591324,0.042512908076974526
FileOutputStream,0.13745640351088806,0.21471501938151114,0.017342368419600747,0.030777827018165362,0.4002916183301653
Float,0.0,0.024184443754048112,0.0,0.0029475361499444225,0.027131979903992534
Format,0.0,0.04699780677636909,0.0,0.006949747015287706,0.0539475537916568
Inflater,0.0,0.5390323874596384,0.0,0.07529835169432773,0.6143307391539662
JarFile,0.0,0.0071910786450085,0.0,0.0010249642234967551,0.008216042868505255
LoggingProxyImpl,0.0,0.04687043645846164,0.0,0.004611432335951743,0.05148186879441338
LookupOp,0.20057668560446362,0.0,0.019330880680923434,0.0,0.21990756628538705
Path2D$Float,0.08966200629470089,0.04864142119264826,0.0103423998237981,0.005329533518454146,0.15397536082960137
SinglePixelPackedSampleModel,0.628005103845104,0.0,0.06811217300285327,0.0,0.6961172768479573
String,0.06083166666697555,0.06123444127049452,0.008160000000013193,0.007573674134331956,0.13779978207181523
StringBuffer,0.0,0.059811984419225674,0.0,0.0065661779188632115,0.06637816233808888
URL,0.04531153846115697,0.0,0.0047769230771406825,0.0,0.05008846153829766
URLClassLoader,0.09720186666769827,0.0,0.008866000000125494,0.0,0.10606786666782377
UnixFileSystem,0.0,0.1350277152986336,0.0,0.015280197170503176,0.15030791246913677
Vector,0.0,0.03648505868173856,0.0,0.004624558297092369,0.041109616978830935
WritableRaster,0.032546479158185565,0.0,0.0030570356738277888,0.0,0.03560351483201336
ZipFile,0.0,0.09420996664352241,0.0,0.012193093745556525,0.10640306038907893
ZipFile$ZipFileInflaterInputStream,0.0,0.0,0.0,0.0,0.0
