method,package1,package2,dram1,dram2,energy
ArrayList.ensureExplicitCapacity,0.0,0.09353839999918516,0.0,0.013139999999839346,0.10667839999902451
Arrays.copyOf,0.0,0.13648980871077968,0.0,0.01743394886411255,0.15392375757489224
BandCombineOp.filter,0.04960262069000927,0.0,0.0061986206896233785,0.0,0.05580124137963265
BufferedInputStream.<init>,0.0,0.10220120000012684,0.0,0.01654100000002169,0.11874220000014853
BufferedInputStream.getBufIfOpen,0.0,0.03725600000082825,0.0,0.004352000000168724,0.04160800000099697
BufferedInputStream.read,0.0,0.1446876666668686,0.0,0.02200400000013663,0.16669166666700524
Class.forName0,0.0,0.04518539682474164,0.0,0.006224761904810466,0.051410158729552104
Class.getDeclaredMethods0,0.0,0.0431105376359561,0.0,0.0059883870964513725,0.04909892473240747
ClassLoader.defineClass1,0.0,0.43007009395561574,0.0,0.05860862635323439,0.4886787203088501
ClassLoader.findBootstrapClass,0.0,0.035001600000153614,0.0,0.004396000000027319,0.03939760000018093
Collections.unmodifiableMap,0.0,0.04049580246907153,0.0,0.0066155555557122206,0.04711135802478375
DataBufferInt.getElem,0.0,0.044203102325729014,0.0,0.0056854309538629496,0.049888533279591966
DataInputStream.readUnsignedShort,0.0,0.056540727274047874,0.0,0.00668727272733866,0.06322800000138654
Deflater.deflateBytes,0.0,11.00133092543045,0.0,1.5720523367260872,12.573383262156536
DirectByteBuffer.get,0.0,0.026222684208493628,0.0,0.0035834210528647467,0.029806105261358375
FileOutputStream.writeBytes,0.0,0.10585530000244034,0.0,0.016184499999690162,0.1220398000021305
FilterInputStream.available,0.0,0.015917999999752887,0.0,0.00219499999996818,0.018112999999721068
Finalizer.add,0.0,0.2879883200000041,0.0,0.040029599999834325,0.3280179199998384
HashMap.newNode,0.0,0.04049580246907153,0.0,0.0066155555557122206,0.04711135802478375
Hashtable.<init>,0.0,0.04158516666696717,0.0,0.005462500000248839,0.04704766666721601
Hashtable.get,0.0,0.048721375000241096,0.0,0.006120000000009895,0.05484137500025099
HeapByteBuffer.<init>,0.0,0.03938699999937517,0.0,0.004859999999864253,0.04424699999923942
Inflater.inflateBytes,0.0,0.4370480058071754,0.0,0.06501317590076602,0.5020611817079415
JarFile.getManifestFromReference,0.0,0.01605220000007345,0.0,0.0019080000000637179,0.017960200000137167
Long.parseLong,0.0,0.04988923077307378,0.0,0.0057707692306930534,0.055660000003766835
LookupOp.byteFilter,0.0,0.1991189150854869,0.0,0.0273007620912808,0.2264196771767677
Object.hashCode,0.0,0.02385909090993333,0.0,0.002236363636422373,0.0260954545463557
PackedColorModel.createCompatibleSampleModel,0.0,0.047080916667053115,0.0,0.005646666666861064,0.052727583333914176
Path2D$Double.moveTo,0.0,0.08203455890121762,0.0,0.010225926401326548,0.09226048530254417
RandomAccessFile.open0,0.0,0.04211415789598647,0.0,0.00549000000003281,0.04760415789601928
Raster.getPixel,0.029894620689948824,0.0,0.003616551723600173,0.0,0.033511172413549
Rectangle2D.getPathIterator,0.0,0.05401199999808644,0.0,0.006402000000040668,0.060413999998127105
SinglePixelPackedSampleModel.getPixels,0.0,0.21159485180861157,0.0,0.02554582845126665,0.23714068025987822
SinglePixelPackedSampleModel.setPixel,0.021854896551993644,0.0,0.0028137931036200893,0.0,0.024668689655613734
SinglePixelPackedSampleModel.setPixels,0.0,0.08010967941681929,0.0,0.007602481911969608,0.0877121613287889
SinglePixelPackedSampleModel.setSamples,0.0,0.16801594884548798,0.0,0.022442535104077014,0.190458483949565
String.format,0.0,0.09749333332971824,0.0,0.016364999999495918,0.11385833332921416
String.toCharArray,0.0,0.01930750000125651,0.0,0.00206250000004123,0.02137000000129774
System.nanoTime,0.0,0.0,0.0,0.0,0.0
TextLine.standardCreateTextLine,0.0,0.03118345454409295,0.0,0.004663636363561222,0.03584709090765417
URLClassLoader.defineClass,0.0,0.05942783333254435,0.0,0.008185000000291135,0.06761283333283549
URLClassLoader.getAndVerifyPackage,0.0,0.025854400001117026,0.0,0.004130999999688356,0.029985400000805382
UnixFileSystem.delete0,0.0,0.09619133333520342,0.0,0.010870000000068105,0.10706133333527153
UnixFileSystem.list,0.0,0.04418621052709089,0.0,0.0055136842105352295,0.04969989473762612
Vector.addElement,0.0,0.0,0.0,0.0,0.0
WritableRaster.setPixel,0.03204965517165717,0.0,0.004024137930988719,0.0,0.03607379310264589
ZipFile.freeEntry,0.0,0.0,0.0,0.0,0.0
ZipFile.getInputStream,0.0,0.0,0.0,0.0,0.0
ZipFile.read,0.0,0.1513346000011855,0.0,0.020934499999748366,0.17226910000093387
ZipInputStream.<init>,0.0,0.028696666665685676,0.0,0.004790000000260382,0.03348666666594606
