method,hits
Arrays.copyOf,2
BandCombineOp.filter,8
BufferedInputStream.read,2
ClassLoader.defineClass1,10
ColorModel.getLinearRGB16TosRGB8LUT,2
ComponentSampleModel.getPixel,4
DataBufferInt.getElem,2
DataInputStream.readUTF,2
DataInputStream.readUnsignedShort,2
Deflater.deflateBytes,214
Float.floatToRawIntBits,2
Font.getLineMetrics,2
HashMap.<init>,2
Hashtable.get,2
Inflater.inflateBytes,6
Logger.<init>,2
LookupOp.byteFilter,2
Path2D$Float.cloneCoordsDouble,2
Path2D$Float.getBounds2D,2
Properties$LineReader.readLine,2
RandomAccessFile.close0,2
SinglePixelPackedSampleModel.getPixels,8
SinglePixelPackedSampleModel.getSamples,8
SinglePixelPackedSampleModel.setPixel,2
SinglePixelPackedSampleModel.setPixels,4
SinglePixelPackedSampleModel.setSamples,2
String.indexOf,2
String.toUpperCase,2
StringBuffer.append,2
UnixFileSystem.canonicalize0,2
ZipFile.getEntry,2
