method,package1,package2,dram1,dram2,energy
java.awt,0.0,0.06697701961064582,0.0,0.008335294117583256,0.07531231372822908
java.awt.font,0.0,0.027732181817885827,0.0,0.003730909090915123,0.03146309090880095
java.awt.geom,0.0,0.06923120457008153,0.0,0.009372566889644093,0.07860377145972562
java.awt.image,0.1609491277176511,0.4533923212106553,0.02111546960978992,0.056309409091089474,0.6917663276291859
java.io,0.0,0.48490432040349085,0.0,0.06289892037059679,0.5478032407740876
java.lang,0.0,0.6773053878808546,0.0,0.0925637289651493,0.7698691168460039
java.net,0.0,0.1058959999985139,0.0,0.012240000000019789,0.11813599999853369
java.nio,0.0,0.13733783333219535,0.0,0.015939166666572014,0.15327699999876737
java.text,0.0,0.027038333331195947,0.0,0.0041150000003350815,0.03115333333153103
java.util,0.0,0.2062420008281703,0.0,0.025820849623789856,0.23206285045196015
java.util.zip,0.0,7.863131957967133,0.0,1.0812470711472644,8.944379029114398
