method,package1,package2,dram1,dram2,energy
java.awt,0.0,0.06697701961064582,0.0,0.008335294117583256,0.07531231372822908
java.awt.font,0.0,0.027732181817885827,0.0,0.003730909090915123,0.03146309090880095
java.awt.geom,0.0,0.06923120457008153,0.0,0.009372566889644093,0.07860377145972562
java.awt.image,0.1609491277176511,0.4533923212106553,0.02111546960978992,0.056309409091089474,0.6917663276291859
java.io,0.0,0.48490432040349085,0.0,0.06289892037059679,0.5478032407740876
java.lang,0.0,0.6773053878808546,0.0,0.0925637289651493,0.7698691168460039
java.net,0.0,0.1058959999985139,0.0,0.012240000000019789,0.11813599999853369
java.nio,0.0,0.13733783333219535,0.0,0.015939166666572014,0.15327699999876737
java.text,0.0,0.027038333331195947,0.0,0.0041150000003350815,0.03115333333153103
java.util,0.0,0.2062420008281703,0.0,0.025820849623789856,0.23206285045196015
java.util.zip,0.0,7.863131957967133,0.0,1.0812470711472644,8.944379029114398
org.apache.batik.apps.rasterizer,0.0,0.01794166666816939,0.0,0.002562500000067302,0.020504166668236692
org.apache.batik.bridge,0.0,0.07473422222149867,0.0,0.00633666666666007,0.08107088888815873
org.apache.batik.css.engine,0.0,0.05644821212230122,0.0,0.006311136363558146,0.06275934848585937
org.apache.batik.css.engine.value.css2,0.0,0.04976895833351591,0.0,0.006862499999821617,0.05663145833333753
org.apache.batik.css.engine.value.svg,0.0,0.02552020833415251,0.0,0.0034374999999423985,0.02895770833409491
org.apache.batik.dom.svg,0.0,0.1332039292917923,0.0,0.01482339393915394,0.14802732323094625
org.apache.batik.ext.awt.image,0.0,0.2700408888897009,0.0,0.030260526315936797,0.3003014152056377
org.apache.batik.ext.awt.image.codec.png,0.0,0.7591812604394503,0.0,0.10680158900836485,0.8659828494478152
org.apache.batik.ext.awt.image.rendered,0.0,1.0971080687090238,0.0,0.13819703464307537,1.2353051033520992
org.apache.batik.gvt,0.0,0.023201347827494643,0.0,0.0029156521737024673,0.02611700000119711
org.apache.batik.gvt.font,0.0,0.13873769230439137,0.0,0.015246153845789825,0.15398384615018118
org.apache.batik.gvt.renderer,0.0,0.046421714287827764,0.0,0.005462857142750484,0.05188457143057825
org.apache.batik.i18n,0.0,0.01794166666816939,0.0,0.002562500000067302,0.020504166668236692
org.apache.batik.transcoder,0.0,0.0647176666680025,0.0,0.009600000000015521,0.07431766666801802
org.apache.crimson.jaxp,0.0,0.06395742424391562,0.0,0.008109090909012151,0.07206651515292778
org.apache.crimson.parser,0.0,0.15841211097088934,0.0,0.015818451410309853,0.1742305623811992
sun.awt,0.0,0.061624085470067896,0.0,0.007503846153660064,0.06912793162372796
sun.awt.image,0.0,0.029764729168164195,0.0,0.003887187499951021,0.03365191666811521
sun.dc,0.0,0.01178684615353212,0.0,0.0016626923077358068,0.013449538461267927
sun.dc.pr,0.0,0.062142938219085696,0.0,0.007752648811605961,0.06989558703069165
sun.font,0.0,0.4957262471705939,0.0,0.06184426648618527,0.5575705136567791
sun.java2d,0.0,0.03885911110814454,0.0,0.0045600000000073715,0.04341911110815191
sun.net.www,0.0,0.08186866666558974,0.0,0.010920000000623986,0.09278866666621373
sun.security.util,0.0,0.04786166666841988,0.0,0.006878125000184809,0.05473979166860469
sun.text.bidi,0.0,0.044034000001953566,0.0,0.0052145454547743685,0.04924854545672794
sun.text.normalizer,0.0,0.044034000001953566,0.0,0.0052145454547743685,0.04924854545672794
