dram,epoch,package,socket
0.0,0,0.0,1
0.0,1,0.0,1
0.14977499999804422,2,1.59313999999722,1
0.0,3,0.0,1
0.0029699999977310654,4,0.02722100001119543,1
0.0,5,0.0,1
0.0028800000036426354,6,0.03369199999724515,1
0.0,7,0.0,1
0.0,8,0.0,1
0.0,9,0.0,1
0.02036999999836553,10,0.22949199999857228,1
0.0,11,0.0,1
0.002820000001520384,12,0.041870000000926666,1
0.0,13,0.0,1
0.002909999999246793,14,0.03418000000237953,1
0.0,15,0.0,1
0.0,16,0.0,1
0.0,17,0.0,1
0.0029250000006868504,18,0.03131099999882281,1
0.0,19,0.0,1
0.02621999999610125,20,0.29180899998755194,1
0.0,21,0.0,1
0.0070050000031187665,22,0.05932600001688115,1
0.0,23,0.0,1
0.022199999999429565,24,0.22314499999629334,1
0.0,25,0.0,1
0.023414999999658903,26,0.215942000009818,1
0.0,27,0.0,1
0.023550000001705484,28,0.19073499998194166,1
0.0,29,0.0,1
0.028139999998529674,30,0.33129899999767076,1
0.0,31,0.0,1
0.008805000001302687,32,0.07775900000706315,1
0.0,33,0.0,1
0.02117999999973108,34,0.1907950000022538,1
0.0,35,0.0,1
0.023310000000492437,36,0.23498599999584258,1
0.0,37,0.0,1
0.01757999999972526,38,0.19781500000681262,1
0.0,39,0.0,1
0.05595000000175787,40,0.48821999999927357,1
0.0,41,0.0,1
0.0,42,0.0,1
0.0,43,0.0,1
0.018659999997908017,44,0.18261699999857228,1
0.0,45,0.0,1
0.014054999999643769,46,0.1997069999924861,1
0.0,47,0.0,1
0.021614999997837003,48,0.20330800001102034,1
0.0,49,0.0,1
0.029880000001867302,50,0.31158500000310596,1
0.0,51,0.0,1
0.01464000000123633,52,0.13549799998872913,1
0.0,53,0.0,1
0.023429999997460982,54,0.1922610000037821,1
0.0,55,0.0,1
0.15208500000153435,56,1.6658929999975953,1
0.0,57,0.0,1
0.0,58,0.0,1
0.0,59,0.0,1
0.013470000001689186,60,0.14019800000824034,1
0.0,61,0.0,1
0.004079999998793937,62,0.030455999993137084,1
0.0,63,0.0,1
0.002909999999246793,64,0.030457000000751577,1
0.0,65,0.0,1
0.0,66,0.0,1
0.0,67,0.0,1
0.020400000001245644,68,0.1956789999967441,1
0.0,69,0.0,1
0.03520500000013271,70,0.32366900000488386,1
0.0,71,0.0,1
0.01164000000062515,72,0.09771699999691918,1
0.0,73,0.0,1
0.026504999997996492,74,0.2227790000033565,1
0.0,75,0.0,1
0.021300000000337604,76,0.20556599998963065,1
0.0,77,0.0,1
0.020489999998972053,78,0.2017820000037318,1
0.0,79,0.0,1
0.03208500000255299,80,0.3387450000154786,1
0.0,81,0.0,1
0.012269999999261927,82,0.13220299998647533,1
0.0,83,0.0,1
0.019949999998061685,84,0.21130300000368152,1
0.0,85,0.0,1
0.029760000001260778,86,0.23821999999927357,1
0.0,87,0.0,1
0.020370000002003508,88,0.2099000000016531,1
0.0,89,0.0,1
0.037679999997635605,90,0.37597700000333134,1
0.0,91,0.0,1
0.011699999999109423,92,0.11950699999579228,1
0.0,93,0.0,1
0.025634999998146668,94,0.22662299999501556,1
0.0,95,0.0,1
0.024420000005193288,96,0.23529100000450853,1
0.0,97,0.0,1
0.023399999998218846,98,0.28912299999501556,1
0.0,99,0.0,1
0.03825000000142609,100,0.4183960000082152,1
0.0,101,0.0,1
0.012134999997215346,102,0.10900899999251124,1
0.0,103,0.0,1
0.031140000002778834,104,0.3105470000155037,1
0.0,105,0.0,1
0.025574999999662396,106,0.32318099998519756,1
0.0,107,0.0,1
0.030240000000048894,108,0.31079099999624304,1
0.0,109,0.0,1
0.04169999999794527,110,0.45062300001154654,1
0.0,111,0.0,1
0.017639999998209532,112,0.16522199999599252,1
0.0,113,0.0,1
0.03280500000255415,114,0.30670200000167824,1
0.0,115,0.0,1
0.027809999999590218,116,0.2536009999894304,1
0.0,117,0.0,1
0.03064500000255066,118,0.3251340000133496,1
0.0,119,0.0,1
0.04630499999620952,120,0.47875999999814667,1
0.0,121,0.0,1
0.02193000000261236,122,0.1731559999898309,1
0.0,123,0.0,1
0.04628999999840744,124,0.36120700000901707,1
0.0,125,0.0,1
0.04183499999999185,126,0.3058469999959925,1
0.0,127,0.0,1
0.02344499999890104,128,0.25024399999529123,1
0.0,129,0.0,1
0.03600000000005821,130,0.33117700000002515,1
0.0,131,0.0,1
0.01690500000040629,132,0.16497800000070129,1
0.0,133,0.0,1
0.028560000002471497,134,0.2817990000039572,1
0.0,135,0.0,1
0.024539999998523854,136,0.24542200000723824,1
0.0,137,0.0,1
0.02049000000261003,138,0.2087409999949159,1
0.0,139,0.0,1
0.0351749999972526,140,0.3675530000036815,1
0.0,141,0.0,1
0.012764999999490101,142,0.12597700000333134,1
0.0,143,0.0,1
0.027389999999286374,144,0.27423099998850375,1
0.0,145,0.0,1
0.02035500000056345,146,0.21429400000488386,1
0.0,147,0.0,1
0.024465000002237502,148,0.24218800000380725,1
0.0,149,0.0,1
0.030314999996335246,150,0.3356319999875268,1
0.0,151,0.0,1
0.011580000002140878,152,0.15728800000215415,1
0.0,153,0.0,1
0.028604999999515712,154,0.27062900000601076,1
0.0,155,0.0,1
0.026160000001254957,156,0.216736000002129,1
0.0,157,0.0,1
0.02336999999897671,158,0.23742700000002515,1
0.0,159,0.0,1
0.034589999999298016,160,0.33190899998589884,1
0.0,161,0.0,1
0.014610000001994194,162,0.1527100000093924,1
0.0,163,0.0,1
0.02455499999996391,164,0.24041800000122748,1
0.0,165,0.0,1
0.023385000000416767,166,0.2479250000033062,1
0.0,167,0.0,1
0.026429999998072162,168,0.27545099999406375,1
0.0,169,0.0,1
0.03373500000088825,170,0.33520499999576714,1
0.0,171,0.0,1
0.01794000000154483,172,0.16546700001345016,1
0.0,173,0.0,1
0.020474999997531995,174,0.2541499999933876,1
0.0,175,0.0,1
0.025754999998753192,176,0.24334699999599252,1
0.0,177,0.0,1
0.023535000000265427,178,0.24224900000263005,1
0.0,179,0.0,1
0.03567000000111875,180,0.36450199999671895,1
0.0,181,0.0,1
0.015735000000859145,182,0.16546600000583567,1
0.0,183,0.0,1
0.02051999999821419,184,0.22668399999383837,1
0.0,185,0.0,1
0.030750000001717126,186,0.3485720000026049,1
0.0,187,0.0,1
0.031230000000505242,188,0.34954900000593625,1
0.0,189,0.0,1
0.048330000001442386,190,0.5737299999891547,1
0.0,191,0.0,1
0.01622999999744934,192,0.17987100000027567,1
0.0,193,0.0,1
0.030240000000048894,194,0.3184810000093421,1
0.0,195,0.0,1
0.020325000001321314,196,0.2771609999908833,1
0.0,197,0.0,1
0.03202500000043074,198,0.36651600000914186,1
0.0,199,0.0,1
0.035564999998314306,200,0.40850799999316223,1
0.0,201,0.0,1
0.019260000000940636,202,0.17340100000728853,1
0.0,203,0.0,1
0.03139499999815598,204,0.2833249999966938,1
0.0,205,0.0,1
0.0273300000008021,206,0.23547400000097696,1
0.0,207,0.0,1
0.027389999999286374,208,0.29376200000115205,1
0.0,209,0.0,1
0.03454499999861582,210,0.3607179999962682,1
0.0,211,0.0,1
0.0192300000016985,212,0.16601500000979286,1
0.0,213,0.0,1
0.024540000002161833,214,0.26410000000032596,1
0.0,215,0.0,1
0.025064999997994164,216,0.25225799999316223,1
0.0,217,0.0,1
0.021060000002762536,218,0.2804559999931371,1
0.0,219,0.0,1
0.03451499999573571,220,0.4329230000003008,1
0.0,221,0.0,1
0.013980000003357418,222,0.14697200001683086,1
0.0,223,0.0,1
0.021689999997761333,224,0.27954099999624304,1
0.0,225,0.0,1
0.020384999999805586,226,0.2603759999910835,1
0.0,227,0.0,1
0.025649999999586726,228,0.30877699999837205,1
0.0,229,0.0,1
0.03505500000392203,230,0.43780500000866596,1
0.0,231,0.0,1
0.01285499999721651,232,0.13763499999186024,1
0.0,233,0.0,1
0.021659999998519197,234,0.26586900000984315,1
0.0,235,0.0,1
0.028740000001562294,236,0.315124000000651,1
0.0,237,0.0,1
0.020445000001927838,238,0.25726399999985006,1
0.0,239,0.0,1
0.0363599999982398,240,0.4008789999934379,1
0.0,241,0.0,1
0.009930000000167638,242,0.1214590000017779,1
0.0,243,0.0,1
0.02839500000118278,244,0.27166799998667557,1
0.0,245,0.0,1
0.0204299999968498,246,0.22302200000558514,1
0.0,247,0.0,1
0.023520000002463348,248,0.24884100000781473,1
0.0,249,0.0,1
0.039090000002033776,250,0.35351499999524094,1
0.0,251,0.0,1
0.015749999998661224,252,0.15588399999251124,1
0.0,253,0.0,1
0.026760000000649597,254,0.2592160000203876,1
0.0,255,0.0,1
0.02336999999897671,256,0.2515869999915594,1
0.0,257,0.0,1
0.02329499999905238,258,0.2678230000019539,1
0.0,259,0.0,1
0.035564999998314306,260,0.36297600000398234,1
0.0,261,0.0,1
0.01810500000283355,262,0.17632999998750165,1
0.0,263,0.0,1
0.023399999998218846,264,0.2762450000154786,1
0.0,265,0.0,1
0.02321999999912805,266,0.26397699999506585,1
0.0,267,0.0,1
0.029040000001259614,268,0.29602099998737685,1
0.0,269,0.0,1
0.03764999999839347,270,0.39080800001102034,1
0.0,271,0.0,1
0.020309999999881256,272,0.17700199999671895,1
0.0,273,0.0,1
0.021570000004430767,274,0.22058100000140257,1
0.0,275,0.0,1
0.035489999998389976,276,0.3132329999934882,1
0.0,277,0.0,1
0.031229999996867264,278,0.3178710000065621,1
0.0,279,0.0,1
0.038340000002790475,280,0.3728019999980461,1
0.0,281,0.0,1
0.019094999999651918,282,0.1874390000011772,1
0.0,283,0.0,1
0.027449999997770647,284,0.32440199999837205,1
0.0,285,0.0,1
0.020400000001245644,286,0.24035700000240467,1
0.0,287,0.0,1
0.021135000002686866,288,0.29174800000328105,1
0.0,289,0.0,1
0.03443999999581138,290,0.36993400000210386,1
0.0,291,0.0,1
0.014565000001312,292,0.16216999999596737,1
0.0,293,0.0,1
0.021674999999959255,294,0.20361299999058247,1
0.0,295,0.0,1
0.02637000000322587,296,0.2732550000073388,1
0.0,297,0.0,1
0.01757999999608728,298,0.22582999999576714,1
0.0,299,0.0,1
0.03912000000127591,300,0.3782350000110455,1
0.0,301,0.0,1
0.0192300000016985,302,0.1679689999873517,1
0.0,303,0.0,1
0.027374999997846317,304,0.29284600001119543,1
0.0,305,0.0,1
0.02050500000041211,306,0.2127079999918351,1
0.0,307,0.0,1
0.021225000000413274,308,0.23870800000440795,1
0.0,309,0.0,1
0.0321750000002794,310,0.3484499999904074,1
0.0,311,0.0,1
0.01465499999903841,312,0.15564000001177192,1
0.0,313,0.0,1
0.020535000003292225,314,0.25305099999241065,1
0.0,315,0.0,1
0.03431999999884283,316,0.3159180000075139,1
0.0,317,0.0,1
0.022815000000264263,318,0.25244199999724515,1
0.0,319,0.0,1
0.031514999998762505,320,0.40594499999133404,1
0.0,321,0.0,1
0.011160000001837034,322,0.16137600000365637,1
0.0,323,0.0,1
0.022214999997231644,324,0.2518930000078399,1
0.0,325,0.0,1
0.024600000000646105,326,0.256041999993613,1
0.0,327,0.0,1
0.019889999999577412,328,0.26379399999859743,1
0.0,329,0.0,1
0.03272999999899184,330,0.39917000000423286,1
0.0,331,0.0,1
0.011730000001989538,332,0.13079799999832176,1
0.0,333,0.0,1
0.026850000002013985,334,0.27215599999180995,1
0.0,335,0.0,1
0.024539999994885875,336,0.2660520000063116,1
0.0,337,0.0,1
0.023445000002539018,338,0.2841190000035567,1
0.0,339,0.0,1
0.043079999999463325,340,0.4001459999999497,1
0.0,341,0.0,1
0.011010000001988374,342,0.10021999999298714,1
0.0,343,0.0,1
0.03530999999929918,344,0.2899170000164304,1
0.0,345,0.0,1
0.024659999999130378,346,0.250793999992311,1
0.0,347,0.0,1
0.021674999999959255,348,0.22424300000420772,1
0.0,349,0.0,1
0.03146999999808031,350,0.3906859999842709,1
0.0,351,0.0,1
0.016950000001088483,352,0.1655270000192104,1
0.0,353,0.0,1
0.029249999999592546,354,0.2623289999901317,1
0.0,355,0.0,1
0.03133500000330969,356,0.2709960000065621,1
0.0,357,0.0,1
0.026249999998981366,358,0.23065199999837205,1
0.0,359,0.0,1
0.044969999999011634,360,0.36590599999180995,1
0.0,361,0.0,1
0.014580000002752058,362,0.152222000004258,1
0.0,363,0.0,1
0.022799999998824205,364,0.21386699999857228,1
0.0,365,0.0,1
0.027825000001030276,366,0.2471919999952661,1
0.0,367,0.0,1
0.023339999996096594,368,0.23693900000944268,1
0.0,369,0.0,1
0.03957000000082189,370,0.39446999998472165,1
0.0,371,0.0,1
0.016200000001845183,372,0.14410400000633672,1
0.0,373,0.0,1
0.033104999998613494,374,0.2886960000032559,1
0.0,375,0.0,1
0.03371999999944819,376,0.3213499999983469,1
0.0,377,0.0,1
0.019800000001851004,378,0.2567750000016531,1
0.0,379,0.0,1
0.044279999998252606,380,0.37127699999837205,1
0.0,381,0.0,1
0.018060000002151355,382,0.17712400000891648,1
0.0,383,0.0,1
0.03418500000043423,384,0.29785200000333134,1
0.0,385,0.0,1
0.027704999996785773,386,0.24700899998424575,1
0.0,387,0.0,1
0.03385500000149477,388,0.29370100001688115,1
0.0,389,0.0,1
0.04583999999886146,390,0.43243399998755194,1
0.0,391,0.0,1
0.016260000000329455,392,0.13891600001079496,1
0.0,393,0.0,1
0.03180000000065775,394,0.25921599999128375,1
0.0,395,0.0,1
0.03133499999967171,396,0.25384599999233615,1
0.0,397,0.0,1
0.025590000001102453,398,0.23815900000045076,1
0.0,399,0.0,1
0.040004999998927815,400,0.37469500000588596,1
0.0,401,0.0,1
0.015810000000783475,402,0.15588299999944866,1
0.0,403,0.0,1
0.023789999999280553,404,0.21148699999321252,1
0.0,405,0.0,1
0.02855999999883352,406,0.2728880000067875,1
0.0,407,0.0,1
0.02336999999897671,408,0.26800599999842234,1
0.0,409,0.0,1
0.036240000001271255,410,0.3153069999971194,1
0.0,411,0.0,1
0.024659999999130378,412,0.18158000000403263,1
0.0,413,0.0,1
0.03177000000141561,414,0.23046900000190362,1
0.0,415,0.0,1
0.022290000000793952,416,0.22229000000515953,1
0.0,417,0.0,1
0.014099999996687984,418,0.2044679999962682,1
0.0,419,0.0,1
0.021150000000488944,420,0.2792349999945145,1
0.0,421,0.0,1
0.021000000000640284,422,0.17761300000711344,1
0.0,423,0.0,1
0.02703000000110478,424,0.19757099999696948,1
0.0,425,0.0,1
0.017745000001013977,426,0.25854399999661837,1
0.0,427,0.0,1
0.02351999999882537,428,0.2446899999922607,1
0.0,429,0.0,1
0.03178499999921769,430,0.30188000001362525,1
0.0,431,0.0,1
0.01765500000328757,432,0.19549599998572376,1
0.0,433,0.0,1
0.02059499999813852,434,0.21423300000606105,1
0.0,435,0.0,1
0.025409999998373678,436,0.2609260000026552,1
0.0,437,0.0,1
0.030390000003535533,438,0.26123000000370666,1
0.0,439,0.0,1
0.03382499999861466,440,0.3456420000002254,1
0.0,441,0.0,1
0.020459999999729916,442,0.19329799999832176,1
0.0,443,0.0,1
0.03665999999793712,444,0.359558999989531,1
0.0,445,0.0,1
0.030300000002171146,446,0.33917200000723824,1
0.0,447,0.0,1
0.028379999999742722,448,0.3180540000030305,1
0.0,449,0.0,1
0.03734999999869615,450,0.4183959999936633,1
0.0,451,0.0,1
0.014085000002523884,452,0.12121599999954924,1
0.0,453,0.0,1
0.02660999999716296,454,0.2614750000066124,1
0.0,455,0.0,1
0.024960000002465677,456,0.21575899999879766,1
0.0,457,0.0,1
0.02462999999988824,458,0.2667230000079144,1
0.0,459,0.0,1
0.03227999999944586,460,0.38848899998993147,1
0.0,461,0.0,1
0.01464000000123633,462,0.17205800001102034,1
0.0,463,0.0,1
0.023549999998067506,464,0.26464899998973124,1
0.0,465,0.0,1
0.01990500000101747,466,0.28710899999714456,1
0.0,467,0.0,1
0.016574999997828854,468,0.2628790000162553,1
0.0,469,0.0,1
0.036165000001346925,470,0.413695999988704,1
0.0,471,0.0,1
0.01164000000062515,472,0.14074699999764562,1
0.0,473,0.0,1
0.02237999999852036,474,0.2725219999992987,1
0.0,475,0.0,1
0.0246450000013283,476,0.2582399999955669,1
0.0,477,0.0,1
0.02336999999897671,478,0.2626950000121724,1
0.0,479,0.0,1
0.03462000000217813,480,0.37530499999411404,1
0.0,481,0.0,1
0.017025000001012813,482,0.1691900000005262,1
0.0,483,0.0,1
0.024525000000721775,484,0.2980340000067372,1
0.0,485,0.0,1
0.02675999999701162,486,0.3065190000052098,1
0.0,487,0.0,1
0.02043000000048778,488,0.25122099998407066,1
0.0,489,0.0,1
0.040604999998322455,490,0.43634000000020023,1
0.0,491,0.0,1
0.016800000001239823,492,0.186096000004909,1
0.0,493,0.0,1
0.022799999998824205,494,0.22723400000541005,1
0.0,495,0.0,1
0.03403500000058557,496,0.28094499999133404,1
0.0,497,0.0,1
0.028080000000045402,498,0.27679400000488386,1
0.0,499,0.0,1
0.03845999999975902,500,0.3402099999948405,1
0.0,501,0.0,1
0.024300000000948785,502,0.21136500001011882,1
0.0,503,0.0,1
0.03334499999982654,504,0.3082879999856232,1
0.0,505,0.0,1
0.029129999998986023,506,0.25586000000475906,1
0.0,507,0.0,1
0.028500000000349246,508,0.3192140000028303,1
0.0,509,0.0,1
0.04866000000038184,510,0.41784600001119543,1
0.0,511,0.0,1
0.020085000000108266,512,0.17382899999211077,1
0.0,513,0.0,1
0.02621999999973923,514,0.24542200000723824,1
0.0,515,0.0,1
0.03659999999945285,516,0.30395499999576714,1
0.0,517,0.0,1
0.14742000000114786,518,0.7918090000021039,1
0.0,519,0.0,1
0.022440000000642613,520,0.1760249999933876,1
0.0,521,0.0,1
0.004019999996671686,522,0.034728999991784804,1
0.0,523,0.0,1
0.01569000000017695,524,0.1486820000136504,1
0.0,525,0.0,1
0.03355500000179745,526,0.32110599998850375,1
0.0,527,0.0,1
0.03627000000051339,528,0.3566279999940889,1
0.0,529,0.0,1
0.038339999999152496,530,0.378541000012774,1
0.0,531,0.0,1
0.02419499999814434,532,0.22375399999145884,1
0.0,533,0.0,1
0.0283800000033807,534,0.22515900000871625,1
0.0,535,0.0,1
0.035489999998389976,536,0.317321999988053,1
0.0,537,0.0,1
0.029325000003154855,538,0.24737500000628643,1
0.0,539,0.0,1
0.044654999997874256,540,0.3847050000040326,1
0.0,541,0.0,1
0.016845000001922017,542,0.18634000000020023,1
0.0,543,0.0,1
0.03134999999747379,544,0.2813109999988228,1
0.0,545,0.0,1
0.03116999999838299,546,0.2479250000033062,1
0.0,547,0.0,1
0.029100000003381865,548,0.2649539999983972,1
0.0,549,0.0,1
0.04462499999863212,550,0.3959959999920102,1
0.0,551,0.0,1
0.017759999998816056,552,0.1596680000075139,1
0.0,553,0.0,1
0.03207000000111293,554,0.3071290000079898,1
0.0,555,0.0,1
0.032640000001265435,556,0.29455499998584855,1
0.0,557,0.0,1
0.03252000000065891,558,0.28289800000493415,1
0.0,559,0.0,1
0.04772999999840977,560,0.4299319999990985,1
0.0,561,0.0,1
0.016244999998889398,562,0.1372680000058608,1
0.0,563,0.0,1
0.03246000000217464,564,0.2900999999983469,1
0.0,565,0.0,1
0.03260999999838532,566,0.27502499999536667,1
0.0,567,0.0,1
0.02854500000103144,568,0.24627600000530947,1
0.0,569,0.0,1
0.0501750000003085,570,0.4301149999955669,1
0.0,571,0.0,1
0.018074999999953434,572,0.17102100000192877,1
0.0,573,0.0,1
0.02396999999837135,574,0.22735599998850375,1
0.0,575,0.0,1
0.03665999999793712,576,0.2989500000112457,1
0.0,577,0.0,1
0.023415000003296882,578,0.2575070000020787,1
0.0,579,0.0,1
0.031664999998611165,580,0.3140869999915594,1
0.0,581,0.0,1
0.017609999998967396,582,0.18444800001452677,1
0.0,583,0.0,1
0.01576500000373926,584,0.20916799998667557,1
0.0,585,0.0,1
0.027674999997543637,586,0.263611000002129,1
0.0,587,0.0,1
0.020550000001094304,588,0.20275799999944866,1
0.0,589,0.0,1
0.03695999999763444,590,0.31213399999251124,1
0.0,591,0.0,1
0.019275000002380693,592,0.1425170000147773,1
0.0,593,0.0,1
0.027509999999892898,594,0.25457799999276176,1
0.0,595,0.0,1
0.018239999997604173,596,0.20300300000235438,1
0.0,597,0.0,1
0.026460000000952277,598,0.2426149999955669,1
0.0,599,0.0,1
0.026460000000952277,600,0.24255300000368152,1
0.0,601,0.0,1
0.016500000001542503,602,0.1602790000033565,1
0.0,603,0.0,1
0.015974999998434214,604,0.2385249999933876,1
0.0,605,0.0,1
0.015869999999267748,606,0.18585199999506585,1
0.0,607,0.0,1
0.0235949999987497,608,0.21087700000498444,1
0.0,609,0.0,1
0.03235500000300817,610,0.29577599999902304,1
0.0,611,0.0,1
0.014774999999644933,612,0.13305699999909848,1
0.0,613,0.0,1
0.023535000000265427,614,0.21551500000350643,1
0.0,615,0.0,1
0.024659999999130378,616,0.23345900001004338,1
0.0,617,0.0,1
0.03011999999944237,618,0.25177000000257976,1
0.0,619,0.0,1
0.04162500000165892,620,0.3175049999845214,1
0.0,621,0.0,1
0.024059999999735737,622,0.20440699999744538,1
0.0,623,0.0,1
0.029190000001108274,624,0.26574700001219753,1
0.0,625,0.0,1
0.024629999996250262,626,0.2614129999856232,1
0.0,627,0.0,1
0.025799999999435386,628,0.24017400000593625,1
0.0,629,0.0,1
0.03502500000104192,630,0.2982180000108201,1
0.0,631,0.0,1
0.024150000001100125,632,0.18304399999033194,1
0.0,633,0.0,1
0.027735000003303867,634,0.24755900001036935,1
0.0,635,0.0,1
0.026264999996783445,636,0.2384639999945648,1
0.0,637,0.0,1
0.024675000000570435,638,0.24841299999388866,1
0.0,639,0.0,1
0.03175499999997555,640,0.2982179999962682,1
0.0,641,0.0,1
0.01764000000184751,642,0.1807859999971697,1
0.0,643,0.0,1
0.020534999999654246,644,0.2118530000152532,1
0.0,645,0.0,1
0.02358000000094762,646,0.27416999998968095,1
0.0,647,0.0,1
0.022229999995033722,648,0.24957300000824034,1
0.0,649,0.0,1
0.02928000000247266,650,0.32574400000157766,1
0.0,651,0.0,1
0.01465499999903841,652,0.16137699999671895,1
0.0,653,0.0,1
0.02772000000186381,654,0.2880860000004759,1
0.0,655,0.0,1
0.02170499999920139,656,0.22204599999531638,1
0.0,657,0.0,1
0.027599999997619307,658,0.28363000000535976,1
0.0,659,0.0,1
0.030480000001261942,660,0.3240969999897061,1
0.0,661,0.0,1
0.01863000000230386,662,0.19244400001480244,1
0.0,663,0.0,1
0.023939999995491235,664,0.222167999992962,1
0.0,665,0.0,1
0.029760000004898757,666,0.2873530000069877,1
0.0,667,0.0,1
0.017009999999572756,668,0.2182009999960428,1
0.0,669,0.0,1
0.03456000000005588,670,0.36645499999576714,1
0.0,671,0.0,1
0.014669999996840488,672,0.17157000000588596,1
0.0,673,0.0,1
0.026925000001938315,674,0.30401599999458995,1
0.0,675,0.0,1
0.025110000002314337,676,0.22735600000305567,1
0.0,677,0.0,1
0.023999999997613486,678,0.2682499999937136,1
0.0,679,0.0,1
0.03215999999883934,680,0.2771599999978207,1
0.0,681,0.0,1
0.017610000002605375,682,0.18219000000681262,1
0.0,683,0.0,1
0.020474999997531995,684,0.2658079999964684,1
0.0,685,0.0,1
0.01696500000252854,686,0.21179200000187848,1
0.0,687,0.0,1
0.026265000000421423,688,0.29241999999794643,1
0.0,689,0.0,1
0.024089999995339895,690,0.2600700000039069,1
0.0,691,0.0,1
0.022785000004660105,692,0.17981000000145286,1
0.0,693,0.0,1
0.027989999995043036,694,0.23760999999649357,1
0.0,695,0.0,1
0.024645000004966278,696,0.23425300000235438,1
0.0,697,0.0,1
0.02981999999610707,698,0.24420200000167824,1
0.0,699,0.0,1
0.030450000002019806,700,0.29254100000252947,1
0.0,701,0.0,1
0.017684999998891726,702,0.17376699998567346,1
0.0,703,0.0,1
0.019949999998061685,704,0.23254400001314934,1
0.0,705,0.0,1
0.024510000002919696,706,0.24938999999722,1
0.0,707,0.0,1
0.018810000001394656,708,0.23950199999671895,1
0.0,709,0.0,1
0.02990999999747146,710,0.3218990000023041,1
0.0,711,0.0,1
0.013469999998051208,712,0.14703400000871625,1
0.0,713,0.0,1
0.014160000002448214,714,0.2303459999966435,1
0.0,715,0.0,1
0.012360000000626314,716,0.19879199999559205,1
0.0,717,0.0,1
0.015960000000632135,718,0.25360100000398234,1
0.0,719,0.0,1
0.020039999999426072,720,0.2845459999953164,1
0.0,721,0.0,1
0.008835000000544824,722,0.14471400000911672,1
0.0,723,0.0,1
0.021765000001323642,724,0.2587889999995241,1
0.0,725,0.0,1
0.02059499999813852,726,0.19988999998895451,1
0.0,727,0.0,1
0.026490000000194414,728,0.2575080000096932,1
0.0,729,0.0,1
0.025349999999889405,730,0.25781199999619275,1
0.0,731,0.0,1
0.017625000000407454,732,0.17926099999749567,1
0.0,733,0.0,1
0.026490000000194414,734,0.25854399999661837,1
0.0,735,0.0,1
0.020564999998896383,736,0.2011720000009518,1
0.0,737,0.0,1
0.018389999997452833,738,0.25592100000358187,1
0.0,739,0.0,1
0.019335000004502945,740,0.26672299999336246,1
0.0,741,0.0,1
0.017639999998209532,742,0.17645300000731368,1
0.0,743,0.0,1
0.02643000000171014,744,0.25988800000050105,1
0.0,745,0.0,1
0.020609999995940598,746,0.20153799999388866,1
0.0,747,0.0,1
0.026475000002392335,748,0.25836200000776444,1
0.0,749,0.0,1
0.02650500000163447,750,0.2602539999934379,1
0.0,751,0.0,1
0.015240000000630971,752,0.17425499999080785,1
0.0,753,0.0,1
0.018239999997604173,754,0.2589110000117216,1
0.0,755,0.0,1
0.020474999997531995,756,0.19891399999323767,1
0.0,757,0.0,1
0.02358000000094762,758,0.22698900000250433,1
0.0,759,0.0,1
0.028109999999287538,760,0.28826899999694433,1
0.0,761,0.0,1
0.01765500000328757,762,0.1745610000070883,1
0.0,763,0.0,1
0.026490000000194414,764,0.2561029999924358,1
0.0,765,0.0,1
0.02441999999791733,766,0.21691900001314934,1
0.0,767,0.0,1
0.02771999999822583,768,0.24414099998830352,1
0.0,769,0.0,1
0.02740500000436441,770,0.28826899999694433,1
0.0,771,0.0,1
0.01877999999851454,772,0.1716920000180835,1
0.0,773,0.0,1
0.022410000001400476,774,0.220153999995091,1
0.0,775,0.0,1
0.01397999999608146,776,0.22442599998612422,1
0.0,777,0.0,1
0.019995000002381857,778,0.2282720000075642,1
0.0,779,0.0,1
0.029399999999441206,780,0.2880850000074133,1
0.0,781,0.0,1
0.014054999999643769,782,0.16955599999346305,1
0.0,783,0.0,1
0.0258300000023155,784,0.2221680000075139,1
0.0,785,0.0,1
0.023459999996703118,786,0.22027599999273662,1
0.0,787,0.0,1
0.02110500000344473,788,0.2255250000016531,1
0.0,789,0.0,1
0.026924999998300336,790,0.28546100000676233,1
0.0,791,0.0,1
0.01809000000139349,792,0.14465399998880457,1
0.0,793,0.0,1
0.031079999997018604,794,0.25378400000045076,1
0.0,795,0.0,1
0.017550000000483124,796,0.201111000002129,1
0.0,797,0.0,1
0.026385000001027947,798,0.25701899999694433,1
0.0,799,0.0,1
0.02462999999988824,800,0.2587280000007013,1
0.0,801,0.0,1
0.02501999999731197,802,0.20159900000726338,1
0.0,803,0.0,1
0.023460000003979076,804,0.22058100000140257,1
0.0,805,0.0,1
0.020564999998896383,806,0.1990969999897061,1
0.0,807,0.0,1
0.028664999997999985,808,0.2585440000111703,1
0.0,809,0.0,1
0.030675000001792796,810,0.28369199998269323,1
0.0,811,0.0,1
0.019395000002987217,812,0.20806900001480244,1
0.0,813,0.0,1
0.01811999999699765,814,0.20880100000067614,1
0.0,815,0.0,1
0.024090000002615852,816,0.26318399999581743,1
0.0,817,0.0,1
0.017009999995934777,818,0.20629800000460818,1
0.0,819,0.0,1
0.03238500000225031,820,0.30462700000498444,1
0.0,821,0.0,1
0.029129999998986023,822,0.22650099999736995,1
0.0,823,0.0,1
0.0,0,0.0,2
0.0,1,0.0,2
0.2086349999990489,2,1.7044070000265492,2
0.0,3,0.0,2
0.004140000000916189,4,0.029113999975379556,2
0.0,5,0.0,2
0.0,6,0.0,2
0.0,7,0.0,2
0.004019999998490675,8,0.03692600000067614,2
0.0,9,0.0,2
0.02862000000095577,10,0.24102800000400748,2
0.0,11,0.0,2
0.005129999999553547,12,0.03289800000493415,2
0.0,13,0.0,2
0.006180000000313157,14,0.03393500001402572,2
0.0,15,0.0,2
0.0,16,0.0,2
0.0,17,0.0,2
0.004079999998793937,18,0.03240999998524785,2
0.0,19,0.0,2
0.036540000000968575,20,0.3220819999987725,2
0.0,21,0.0,2
0.008159999999406864,22,0.08300800001597963,2
0.0,23,0.0,2
0.032639999999446445,24,0.3004149999760557,2
0.0,25,0.0,2
0.03280500000073516,26,0.2825320000265492,2
0.0,27,0.0,2
0.0328799999988405,28,0.24652099997911137,2
0.0,29,0.0,2
0.05326500000046508,30,0.3773800000199117,2
0.0,31,0.0,2
0.01224000000001979,32,0.10357699998712633,2
0.0,33,0.0,2
0.0328349999999773,34,0.2418210000032559,2
0.0,35,0.0,2
0.032640000001265435,36,0.25775200000498444,2
0.0,37,0.0,2
0.03283499999815831,38,0.22869800000626128,2
0.0,39,0.0,2
0.07357500000034634,40,0.5774539999983972,2
0.0,41,0.0,2
0.0,42,0.0,2
0.0,43,0.0,2
0.02463000000170723,44,0.19329799999832176,2
0.0,45,0.0,2
0.03583499999876949,46,0.2561649999843212,2
0.0,47,0.0,2
0.03268500000012864,48,0.2506710000016028,2
0.0,49,0.0,2
0.04104000000006636,50,0.305664000014076,2
0.0,51,0.0,2
0.02052000000003318,52,0.1673589999845717,2
0.0,53,0.0,2
0.03801000000203203,54,0.22839300001214724,2
0.0,55,0.0,2
0.218219999998837,56,1.6730959999986226,2
0.0,57,0.0,2
0.0,58,0.0,2
0.0,59,0.0,2
0.014384999998583226,60,0.15136699998402037,2
0.0,61,0.0,2
0.004140000000916189,62,0.03039600000192877,2
0.0,63,0.0,2
0.004080000000612927,64,0.033874000000650994,2
0.0,65,0.0,2
0.0,66,0.0,2
0.0,67,0.0,2
0.028560000000652508,68,0.2545780000073137,2
0.0,69,0.0,2
0.045119999998860294,70,0.3585809999931371,2
0.0,71,0.0,2
0.01643999999942025,72,0.11187799999606796,2
0.0,73,0.0,2
0.036990000000514556,74,0.2880860000150278,2
0.0,75,0.0,2
0.03289499999846157,76,0.251403999995091,2
0.0,77,0.0,2
0.02883000000292668,78,0.1989739999989979,2
0.0,79,0.0,2
0.045179999997344567,80,0.36987300000328105,2
0.0,81,0.0,2
0.02058000000033644,82,0.1629640000028303,2
0.0,83,0.0,2
0.032940000000962755,84,0.28308100000140257,2
0.0,85,0.0,2
0.040979999997944105,86,0.42028799997933675,2
0.0,87,0.0,2
0.028650000000197906,88,0.31683400002657436,2
0.0,89,0.0,2
0.05098500000349304,90,0.5217889999767067,2
0.0,91,0.0,2
0.016319999998813728,92,0.1737670000147773,2
0.0,93,0.0,2
0.030674999999973807,94,0.3500369999819668,2
0.0,95,0.0,2
0.0337199999976292,96,0.3408810000255471,2
0.0,97,0.0,2
0.0367500000011205,98,0.37750299999606796,2
0.0,99,0.0,2
0.04486499999984517,100,0.5200189999741269,2
0.0,101,0.0,2
0.012180000001535518,102,0.13250800002424512,2
0.0,103,0.0,2
0.036915000000590226,104,0.3717039999901317,2
0.0,105,0.0,2
0.03251999999883992,106,0.3790890000091167,2
0.0,107,0.0,2
0.03352500000073633,108,0.3898320000007516,2
0.0,109,0.0,2
0.051869999997506966,110,0.5690299999987474,2
0.0,111,0.0,2
0.021345000002838788,112,0.19696099997963756,2
0.0,113,0.0,2
0.03883499999938067,114,0.3845210000145016,2
0.0,115,0.0,2
0.042794999997568084,116,0.3260499999887543,2
0.0,117,0.0,2
0.052320000002509914,118,0.41809100001410116,2
0.0,119,0.0,2
0.08156999999846448,120,0.5615229999966687,2
0.0,121,0.0,2
0.024615000000267173,122,0.19836499998928048,2
0.0,123,0.0,2
0.03390000000035798,124,0.34320000000298023,2
0.0,125,0.0,2
0.046019999999771244,126,0.398804000011296,2
0.0,127,0.0,2
0.028560000002471497,128,0.2963260000105947,2
0.0,129,0.0,2
0.053459999999176944,130,0.5406490000023041,2
0.0,131,0.0,2
0.024524999998902786,132,0.23431399998662528,2
0.0,133,0.0,2
0.04498500000045169,134,0.39709499999298714,2
0.0,135,0.0,2
0.03686999999808904,136,0.3075559999997495,2
0.0,137,0.0,2
0.03499500000179978,138,0.37176500000350643,2
0.0,139,0.0,2
0.05279999999947904,140,0.5310669999889797,2
0.0,141,0.0,2
0.027734999999665888,142,0.25506600001244806,2
0.0,143,0.0,2
0.049455000002126326,144,0.4234009999927366,2
0.0,145,0.0,2
0.04001999999854888,146,0.33270299999276176,2
0.0,147,0.0,2
0.0449849999986327,148,0.3992299999954412,2
0.0,149,0.0,2
0.0627600000007078,150,0.5310670000180835,2
0.0,151,0.0,2
0.03087000000050466,152,0.25457799999276176,2
0.0,153,0.0,2
0.05147999999826425,154,0.4469600000156788,2
0.0,155,0.0,2
0.04437000000143598,156,0.3671269999904325,2
0.0,157,0.0,2
0.04205999999976484,158,0.3767700000171317,2
0.0,159,0.0,2
0.0521550000012212,160,0.4462889999849722,2
0.0,161,0.0,2
0.021510000000489526,162,0.18981900000653695,2
0.0,163,0.0,2
0.036690000000817236,164,0.31835999999020714,2
0.0,165,0.0,2
0.03770999999869673,166,0.35009700000227895,2
0.0,167,0.0,2
0.03491999999823747,168,0.3284309999871766,2
0.0,169,0.0,2
0.04914000000098895,170,0.3842770000046585,2
0.0,171,0.0,2
0.02463000000170723,172,0.16204799999832176,2
0.0,173,0.0,2
0.034904999998616404,174,0.2518920000147773,2
0.0,175,0.0,2
0.03373499999906926,176,0.2720339999796124,2
0.0,177,0.0,2
0.034815000000889995,178,0.2626950000121724,2
0.0,179,0.0,2
0.04603499999939231,180,0.3436890000011772,2
0.0,181,0.0,2
0.02043000000048778,182,0.15857000001415145,2
0.0,183,0.0,2
0.03277499999967404,184,0.26190199999837205,2
0.0,185,0.0,2
0.037755000001197914,186,0.35919099998136517,2
0.0,187,0.0,2
0.03776999999899999,188,0.3512580000242451,2
0.0,189,0.0,2
0.05755500000122993,190,0.5292970000009518,2
0.0,191,0.0,2
0.016169999998965068,192,0.17138599998725113,2
0.0,193,0.0,2
0.03250500000103784,194,0.2962039999983972,2
0.0,195,0.0,2
0.03281999999853724,196,0.2565920000051847,2
0.0,197,0.0,2
0.03870000000097207,198,0.3186639999767067,2
0.0,199,0.0,2
0.04798499999924388,200,0.38049300001875963,2
0.0,201,0.0,2
0.02028000000063912,202,0.1679079999885289,2
0.0,203,0.0,2
0.036915000000590226,204,0.2725219999992987,2
0.0,205,0.0,2
0.03056999999898835,206,0.26373300001432654,2
0.0,207,0.0,2
0.03664499999831605,208,0.2982179999817163,2
0.0,209,0.0,2
0.04701000000204658,210,0.36785900001996197,2
0.0,211,0.0,2
0.02042999999866879,212,0.1691279999940889,2
0.0,213,0.0,2
0.0326550000008865,214,0.2532960000098683,2
0.0,215,0.0,2
0.03180000000065775,216,0.24761999998008832,2
0.0,217,0.0,2
0.03274499999861291,218,0.2716670000081649,2
0.0,219,0.0,2
0.05317500000091968,220,0.41723600000841543,2
0.0,221,0.0,2
0.016424999999799184,222,0.12335300000268035,2
0.0,223,0.0,2
0.028574999998454587,224,0.21777299999666866,2
0.0,225,0.0,2
0.03261000000020431,226,0.2752069999987725,2
0.0,227,0.0,2
0.03267000000232656,228,0.24847500000032596,2
0.0,229,0.0,2
0.053219999997963896,230,0.4028319999924861,2
0.0,231,0.0,2
0.012255000001459848,232,0.09313900000415742,2
0.0,233,0.0,2
0.028589999999894644,234,0.2818609999958426,2
0.0,235,0.0,2
0.036839999998846906,236,0.31011900000157766,2
0.0,237,0.0,2
0.0286050000013347,238,0.221557999990182,2
0.0,239,0.0,2
0.04910999999810883,240,0.3855590000166558,2
0.0,241,0.0,2
0.016320000002451707,242,0.13000499999907333,2
0.0,243,0.0,2
0.0368849999995291,244,0.28503399998589884,2
0.0,245,0.0,2
0.028529999997772393,246,0.2486570000037318,2
0.0,247,0.0,2
0.03280500000073516,248,0.26593000000866596,2
0.0,249,0.0,2
0.0501750000003085,250,0.40447999999742024,2
0.0,251,0.0,2
0.020459999999729916,252,0.169250999999349,2
0.0,253,0.0,2
0.03267000000232656,254,0.2730710000032559,2
0.0,255,0.0,2
0.032729999997172854,256,0.2640990000072634,2
0.0,257,0.0,2
0.032775000001493027,258,0.2570189999823924,2
0.0,259,0.0,2
0.04507499999999709,260,0.3629759999894304,2
0.0,261,0.0,2
0.020474999999350985,262,0.1691900000150781,2
0.0,263,0.0,2
0.032865000001038425,264,0.24151600000914186,2
0.0,265,0.0,2
0.032639999999446445,266,0.2655639999866253,2
0.0,267,0.0,2
0.032715000001189765,268,0.24499500000092667,2
0.0,269,0.0,2
0.04507499999999709,270,0.33526600000914186,2
0.0,271,0.0,2
0.020309999999881256,272,0.1611939999856986,2
0.0,273,0.0,2
0.028575000000273576,274,0.24951200000941753,2
0.0,275,0.0,2
0.03979499999877589,276,0.34411600000748876,2
0.0,277,0.0,2
0.03258000000096217,278,0.30340599999180995,2
0.0,279,0.0,2
0.04081500000029337,280,0.3696290000079898,2
0.0,281,0.0,2
0.020399999999426655,282,0.179930999991484,2
0.0,283,0.0,2
0.036839999998846906,284,0.30200199999671895,2
0.0,285,0.0,2
0.028440000000045984,286,0.2466430000058608,2
0.0,287,0.0,2
0.03695999999945343,288,0.2846069999941392,2
0.0,289,0.0,2
0.04500000000007276,290,0.35296699999889825,2
0.0,291,0.0,2
0.020490000000791042,292,0.17736800001875963,2
0.0,293,0.0,2
0.02863499999875785,294,0.22869799999170937,2
0.0,295,0.0,2
0.03689999999915017,296,0.3028570000024047,2
0.0,297,0.0,2
0.02862000000277476,298,0.21765099999902304,2
0.0,299,0.0,2
0.0449849999986327,300,0.3609619999770075,2
0.0,301,0.0,2
0.020459999999729916,302,0.1648560000321595,2
0.0,303,0.0,2
0.03680999999960477,304,0.2976079999789363,2
0.0,305,0.0,2
0.028650000000197906,306,0.23144500001217239,2
0.0,307,0.0,2
0.032865000001038425,308,0.25360100000398234,2
0.0,309,0.0,2
0.049155000000610016,310,0.3668210000032559,2
0.0,311,0.0,2
0.01636500000131491,312,0.12445099999604281,2
0.0,313,0.0,2
0.03277499999967404,314,0.2590329999948153,2
0.0,315,0.0,2
0.03878999999687949,316,0.31079100001079496,2
0.0,317,0.0,2
0.028500000000349246,318,0.22943099998519756,2
0.0,319,0.0,2
0.0449399999997695,320,0.3734740000072634,2
0.0,321,0.0,2
0.020415000000866712,322,0.16485599998850375,2
0.0,323,0.0,2
0.032640000001265435,324,0.27276600000914186,2
0.0,325,0.0,2
0.03478499999982887,326,0.2845460000098683,2
0.0,327,0.0,2
0.03483000000051106,328,0.2718509999976959,2
0.0,329,0.0,2
0.04904999999962456,330,0.41052200000558514,2
0.0,331,0.0,2
0.016364999997676932,332,0.13513199998124037,2
0.0,333,0.0,2
0.032715000001189765,334,0.2777099999948405,2
0.0,335,0.0,2
0.03267000000232656,336,0.29638700000941753,2
0.0,337,0.0,2
0.03275999999823398,338,0.27477999999246094,2
0.0,339,0.0,2
0.05012999999962631,340,0.40496800001710653,2
0.0,341,0.0,2
0.01638000000093598,342,0.13446099997963756,2
0.0,343,0.0,2
0.03889499999786494,344,0.26971400002366863,2
0.0,345,0.0,2
0.0326100000020233,346,0.27911399997537956,2
0.0,347,0.0,2
0.02974499999982072,348,0.23352100000192877,2
0.0,349,0.0,2
0.04903500000000349,350,0.3986810000060359,2
0.0,351,0.0,2
0.020399999999426655,352,0.16766400000778958,2
0.0,353,0.0,2
0.0326550000008865,354,0.2623289999901317,2
0.0,355,0.0,2
0.03470999999990454,356,0.2786250000062864,2
0.0,357,0.0,2
0.034815000000889995,358,0.2406619999819668,2
0.0,359,0.0,2
0.060359999997672276,360,0.4032590000133496,2
0.0,361,0.0,2
0.020295000000260188,362,0.1781009999976959,2
0.0,363,0.0,2
0.036840000000665896,364,0.2824089999921853,2
0.0,365,0.0,2
0.03269999999974971,366,0.267028999995091,2
0.0,367,0.0,2
0.038880000000062864,368,0.3049930000124732,2
0.0,369,0.0,2
0.043904999998630956,370,0.37194799999997485,2
0.0,371,0.0,2
0.02343000000109896,372,0.1786500000016531,2
0.0,373,0.0,2
0.04010999999991327,374,0.24279800000658724,2
0.0,375,0.0,2
0.04402499999923748,376,0.3126829999964684,2
0.0,377,0.0,2
0.029490000000805594,378,0.2330320000037318,2
0.0,379,0.0,2
0.05400000000008731,380,0.39385999999649357,2
0.0,381,0.0,2
0.02141999999912514,382,0.1840210000082152,2
0.0,383,0.0,2
0.046155000001817825,384,0.3011479999986477,2
0.0,385,0.0,2
0.04109999999855063,386,0.2613520000013523,2
0.0,387,0.0,2
0.039855000002717134,388,0.29040499999246094,2
0.0,389,0.0,2
0.05205000000023574,390,0.3963019999937387,2
0.0,391,0.0,2
0.016259999998510466,392,0.12457200000062585,2
0.0,393,0.0,2
0.033390000000508735,394,0.29797400000097696,2
0.0,395,0.0,2
0.033629999998083804,396,0.2839970000059111,2
0.0,397,0.0,2
0.03680999999960477,398,0.27813699998660013,2
0.0,399,0.0,2
0.04881000000204949,400,0.41674800000328105,2
0.0,401,0.0,2
0.020400000001245644,402,0.17205799999646842,2
0.0,403,0.0,2
0.03073499999845808,404,0.24292000000423286,2
0.0,405,0.0,2
0.032340000001568114,406,0.2960200000088662,2
0.0,407,0.0,2
0.03268499999830965,408,0.2923589999845717,2
0.0,409,0.0,2
0.03787499999998545,410,0.38354500000423286,2
0.0,411,0.0,2
0.02441999999973632,412,0.22125200000300538,2
0.0,413,0.0,2
0.03258000000096217,414,0.30053700000280514,2
0.0,415,0.0,2
0.032639999999446445,416,0.2846680000075139,2
0.0,417,0.0,2
0.02861999999913678,418,0.3026739999768324,2
0.0,419,0.0,2
0.04087500000059663,420,0.3488770000258228,2
0.0,421,0.0,2
0.02050500000041211,422,0.21435500000370666,2
0.0,423,0.0,2
0.03277499999967404,424,0.27417000000423286,2
0.0,425,0.0,2
0.032700000001568696,426,0.28570599999511614,2
0.0,427,0.0,2
0.028829999997469713,428,0.27282699999341276,2
0.0,429,0.0,2
0.04099500000120315,430,0.3472899999906076,2
0.0,431,0.0,2
0.02456999999958498,432,0.20806900000025053,2
0.0,433,0.0,2
0.028830000001107692,434,0.24084399999992456,2
0.0,435,0.0,2
0.036854999998467974,436,0.3156740000122227,2
0.0,437,0.0,2
0.03275999999823398,438,0.27618399998755194,2
0.0,439,0.0,2
0.04086000000279455,440,0.32916300000215415,2
0.0,441,0.0,2
0.020459999999729916,442,0.15881299998727627,2
0.0,443,0.0,2
0.03690000000096916,444,0.29516600001079496,2
0.0,445,0.0,2
0.03266999999868858,446,0.27148499999020714,2
0.0,447,0.0,2
0.02862000000095577,448,0.23590100000728853,2
0.0,449,0.0,2
0.0449849999986327,450,0.38012599998910446,2
0.0,451,0.0,2
0.01644000000123924,452,0.13012700002582278,2
0.0,453,0.0,2
0.037004999998316634,454,0.2839359999925364,2
0.0,455,0.0,2
0.02854500000103144,456,0.22656300001835916,2
0.0,457,0.0,2
0.032700000001568696,458,0.2521359999809647,2
0.0,459,0.0,2
0.049244999998336425,460,0.37670899998920504,2
0.0,461,0.0,2
0.01644000000123924,462,0.1208489999989979,2
0.0,463,0.0,2
0.03283499999815831,464,0.25024400000984315,2
0.0,465,0.0,2
0.032865000001038425,466,0.2882700000045588,2
0.0,467,0.0,2
0.028829999997469713,468,0.21716299999388866,2
0.0,469,0.0,2
0.04914000000098895,470,0.3728019999980461,2
0.0,471,0.0,2
0.016320000002451707,472,0.12731999999959953,2
0.0,473,0.0,2
0.03284999999959837,474,0.25103700000909157,2
0.0,475,0.0,2
0.03274499999861291,476,0.25927799999772105,2
0.0,477,0.0,2
0.03276000000005297,478,0.2586670000164304,2
0.0,479,0.0,2
0.045180000000982545,480,0.34222399997815955,2
0.0,481,0.0,2
0.020490000000791042,482,0.1608270000142511,2
0.0,483,0.0,2
0.03277499999967404,484,0.25390699999115895,2
0.0,485,0.0,2
0.03266999999868858,486,0.25652999999874737,2
0.0,487,0.0,2
0.02869499999906111,488,0.22351099998923019,2
0.0,489,0.0,2
0.049095000002125744,490,0.3795780000218656,2
0.0,491,0.0,2
0.020459999999729916,492,0.1605219999764813,2
0.0,493,0.0,2
0.02855999999883352,494,0.24560600002587307,2
0.0,495,0.0,2
0.03877499999907741,496,0.33782899999641813,2
0.0,497,0.0,2
0.03253500000027998,498,0.29663099999015685,2
0.0,499,0.0,2
0.0406200000015815,500,0.3457640000124229,2
0.0,501,0.0,2
0.024434999999357387,502,0.20428499998524785,2
0.0,503,0.0,2
0.032640000001265435,504,0.29504400001314934,2
0.0,505,0.0,2
0.03269999999974971,506,0.2774659999849973,2
0.0,507,0.0,2
0.02861999999913678,508,0.23028500001237262,2
0.0,509,0.0,2
0.04895999999826017,510,0.38708499998028856,2
0.0,511,0.0,2
0.020295000002079178,512,0.15515200000663754,2
0.0,513,0.0,2
0.02861999999913678,514,0.22381600001244806,2
0.0,515,0.0,2
0.032639999999446445,516,0.2966920000035316,2
0.0,517,0.0,2
0.10644000000138476,518,0.7982169999741018,2
0.0,519,0.0,2
0.024434999999357387,520,0.1643680000124732,2
0.0,521,0.0,2
0.004019999998490675,522,0.03747599999769591,2
0.0,523,0.0,2
0.016349999999874854,524,0.1322630000213394,2
0.0,525,0.0,2
0.034365000001344015,526,0.2887569999875268,2
0.0,527,0.0,2
0.036690000000817236,528,0.28832999999576714,2
0.0,529,0.0,2
0.04084499999771651,530,0.31012000000919215,2
0.0,531,0.0,2
0.024450000000797445,532,0.20538299999316223,2
0.0,533,0.0,2
0.028560000002471497,534,0.22857699998712633,2
0.0,535,0.0,2
0.03671999999824038,536,0.31738300001597963,2
0.0,537,0.0,2
0.02848499999890919,538,0.23211599998467136,2
0.0,539,0.0,2
0.0448500000002241,540,0.35833800002001226,2
0.0,541,0.0,2
0.02043000000230677,542,0.1482539999851724,2
0.0,543,0.0,2
0.03275999999823398,544,0.24462900000798982,2
0.0,545,0.0,2
0.03670500000225729,546,0.2825929999962682,2
0.0,547,0.0,2
0.028589999998075655,548,0.22833199999877252,2
0.0,549,0.0,2
0.05110500000046159,550,0.3912360000103945,2
0.0,551,0.0,2
0.02021999999851687,552,0.15185500000370666,2
0.0,553,0.0,2
0.026535000002695597,554,0.21490499998617452,2
0.0,555,0.0,2
0.032579999997324194,556,0.26037600000563543,2
0.0,557,0.0,2
0.03258000000278116,558,0.24194300000090152,2
0.0,559,0.0,2
0.049019999998563435,560,0.38751199998660013,2
0.0,561,0.0,2
0.01630500000101165,562,0.12951700000849087,2
0.0,563,0.0,2
0.03262499999982538,564,0.27288799999223556,2
0.0,565,0.0,2
0.032640000001265435,566,0.2818610000103945,2
0.0,567,0.0,2
0.02861999999731779,568,0.24084400001447648,2
0.0,569,0.0,2
0.052920000000085565,570,0.4150999999983469,2
0.0,571,0.0,2
0.02043000000048778,572,0.1684569999924861,2
0.0,573,0.0,2
0.03694499999801337,574,0.28497399999469053,2
0.0,575,0.0,2
0.036615000000892906,576,0.30340499999874737,2
0.0,577,0.0,2
0.0326550000008865,578,0.28234900000097696,2
0.0,579,0.0,2
0.040904999999838765,580,0.3336180000042077,2
0.0,581,0.0,2
0.024660000000949367,582,0.18243399998755194,2
0.0,583,0.0,2
0.028575000000273576,584,0.2180180000141263,2
0.0,585,0.0,2
0.036779999998543644,586,0.2861329999868758,2
0.0,587,0.0,2
0.02862000000095577,588,0.2180170000065118,2
0.0,589,0.0,2
0.04905000000144355,590,0.3712159999849973,2
0.0,591,0.0,2
0.018539999997301493,592,0.12738000001991168,2
0.0,593,0.0,2
0.03949500000089756,594,0.27362099998572376,2
0.0,595,0.0,2
0.028500000000349246,596,0.22985800000606105,2
0.0,597,0.0,2
0.03671999999824038,598,0.3022460000065621,2
0.0,599,0.0,2
0.040830000001733424,600,0.30609199998434633,2
0.0,601,0.0,2
0.02057999999851745,602,0.15100100000563543,2
0.0,603,0.0,2
0.03693000000203028,604,0.2764279999973951,2
0.0,605,0.0,2
0.034739999999146676,606,0.2525630000018282,2
0.0,607,0.0,2
0.028529999999591382,608,0.216736000002129,2
0.0,609,0.0,2
0.04523999999946682,610,0.33660900000541005,2
0.0,611,0.0,2
0.020459999999729916,612,0.15728799998760223,2
0.0,613,0.0,2
0.03688500000316708,614,0.27337599999736995,2
0.0,615,0.0,2
0.028574999998454587,616,0.22399900000891648,2
0.0,617,0.0,2
0.035639999998238636,618,0.2565310000209138,2
0.0,619,0.0,2
0.04267500000059954,620,0.3130489999894053,2
0.0,621,0.0,2
0.02448000000003958,622,0.1962889999995241,2
0.0,623,0.0,2
0.03254999999990105,624,0.2650759999960428,2
0.0,625,0.0,2
0.032550000001720036,626,0.27764899999601766,2
0.0,627,0.0,2
0.032789999999295105,628,0.26715100000728853,2
0.0,629,0.0,2
0.0408000000006723,630,0.3090819999924861,2
0.0,631,0.0,2
0.024359999999433057,632,0.19256599999789614,2
0.0,633,0.0,2
0.032639999999446445,634,0.25860600000305567,2
0.0,635,0.0,2
0.0348599999997532,636,0.26605199999175966,2
0.0,637,0.0,2
0.03277499999967404,638,0.25225800002226606,2
0.0,639,0.0,2
0.036840000000665896,640,0.3499149999843212,2
0.0,641,0.0,2
0.024540000002161833,642,0.21569799999997485,2
0.0,643,0.0,2
0.02863499999875785,644,0.2290039999934379,2
0.0,645,0.0,2
0.03671999999824038,646,0.29657000000588596,2
0.0,647,0.0,2
0.032865000001038425,648,0.25384499999927357,2
0.0,649,0.0,2
0.04102500000044529,650,0.3179320000053849,2
0.0,651,0.0,2
0.020459999999729916,652,0.15954599999531638,2
0.0,653,0.0,2
0.03702000000157568,654,0.2913819999957923,2
0.0,655,0.0,2
0.02863499999875785,656,0.23095700002158992,2
0.0,657,0.0,2
0.0368849999995291,658,0.29254099998797756,2
0.0,659,0.0,2
0.040980000001582084,660,0.3316039999917848,2
0.0,661,0.0,2
0.024554999998144922,662,0.19604500000423286,2
0.0,663,0.0,2
0.028830000001107692,664,0.22503700001107063,2
0.0,665,0.0,2
0.03680999999960477,666,0.3038939999823924,2
0.0,667,0.0,2
0.02464499999769032,668,0.22723400001996197,2
0.0,669,0.0,2
0.04498500000227068,670,0.3670039999851724,2
0.0,671,0.0,2
0.02254499999980908,672,0.17749100000946783,2
0.0,673,0.0,2
0.036630000000513974,674,0.2882689999823924,2
0.0,675,0.0,2
0.02861999999913678,676,0.24609300000884105,2
0.0,677,0.0,2
0.03671999999824038,678,0.3265990000072634,2
0.0,679,0.0,2
0.039630000001125154,680,0.341125999999349,2
0.0,681,0.0,2
0.024615000002086163,682,0.2309569999924861,2
0.0,683,0.0,2
0.03686999999808904,684,0.35681100000510924,2
0.0,685,0.0,2
0.030840000001262524,686,0.2487190000101691,2
0.0,687,0.0,2
0.03674999999930151,688,0.31420899998920504,2
0.0,689,0.0,2
0.03694499999801337,690,0.3186029999924358,2
0.0,691,0.0,2
0.020565000000715372,692,0.21209700001054443,2
0.0,693,0.0,2
0.03280500000255415,694,0.2798469999979716,2
0.0,695,0.0,2
0.03260999999838532,696,0.2947379999968689,2
0.0,697,0.0,2
0.03273000000081083,698,0.2957769999920856,2
0.0,699,0.0,2
0.04091999999945983,700,0.3580320000182837,2
0.0,701,0.0,2
0.02448000000185857,702,0.20489500000257976,2
0.0,703,0.0,2
0.036854999998467974,704,0.31964099998003803,2
0.0,705,0.0,2
0.028664999999818974,706,0.2439579999918351,2
0.0,707,0.0,2
0.03280500000073516,708,0.26733400001830887,2
0.0,709,0.0,2
0.04513500000030035,710,0.3686520000046585,2
0.0,711,0.0,2
0.024629999998069252,712,0.19946299998264294,2
0.0,713,0.0,2
0.028785000002244487,714,0.23736600001575425,2
0.0,715,0.0,2
0.03274499999861291,716,0.27801500000350643,2
0.0,717,0.0,2
0.03277499999967404,718,0.26989700000558514,2
0.0,719,0.0,2
0.04108499999892956,720,0.33453399999416433,2
0.0,721,0.0,2
0.02043000000230677,722,0.16607699998712633,2
0.0,723,0.0,2
0.036779999998543644,724,0.3085319999954663,2
0.0,725,0.0,2
0.032639999999446445,726,0.2791750000033062,2
0.0,727,0.0,2
0.0326550000008865,728,0.2583009999943897,2
0.0,729,0.0,2
0.04093500000089989,730,0.3292230000079144,2
0.0,731,0.0,2
0.020459999997910927,732,0.1644289999967441,2
0.0,733,0.0,2
0.03997500000150467,734,0.30047600000398234,2
0.0,735,0.0,2
0.03245999999853666,736,0.2874759999976959,2
0.0,737,0.0,2
0.03499500000179978,738,0.2708130000100937,2
0.0,739,0.0,2
0.04301999999916006,740,0.3403319999924861,2
0.0,741,0.0,2
0.020399999999426655,742,0.16632099999696948,2
0.0,743,0.0,2
0.043080000001282315,744,0.30389400001149625,2
0.0,745,0.0,2
0.03261000000020431,746,0.2778930000058608,2
0.0,747,0.0,2
0.032939999999143765,748,0.2690429999784101,2
0.0,749,0.0,2
0.040904999999838765,750,0.33648700002231635,2
0.0,751,0.0,2
0.016410000001997105,752,0.16656399998464622,2
0.0,753,0.0,2
0.03875999999945634,754,0.29986600000120234,2
0.0,755,0.0,2
0.036840000000665896,756,0.28479000001971144,2
0.0,757,0.0,2
0.0296699999980774,758,0.2399899999727495,2
0.0,759,0.0,2
0.051869999999325955,760,0.37207100000523496,2
0.0,761,0.0,2
0.02043000000048778,762,0.16931099999055732,2
0.0,763,0.0,2
0.036540000000968575,764,0.29986600001575425,2
0.0,765,0.0,2
0.05489999999917927,766,0.29052699999010656,2
0.0,767,0.0,2
0.06391500000063388,768,0.3200080000242451,2
0.0,769,0.0,2
0.0511049999986426,770,0.4342039999901317,2
0.0,771,0.0,2
0.03175500000179454,772,0.2304079999885289,2
0.0,773,0.0,2
0.037679999997635605,774,0.3184200000105193,2
0.0,775,0.0,2
0.03673500000331842,776,0.29864500000257976,2
0.0,777,0.0,2
0.03986999999870022,778,0.3035280000040075,2
0.0,779,0.0,2
0.04070999999930791,780,0.3547359999793116,2
0.0,781,0.0,2
0.026459999999133288,782,0.21514900001056958,2
0.0,783,0.0,2
0.0326550000008865,784,0.2819819999858737,2
0.0,785,0.0,2
0.03678000000218162,786,0.2941290000308072,2
0.0,787,0.0,2
0.03784499999892432,788,0.30145299999276176,2
0.0,789,0.0,2
0.05103000000053726,790,0.38067600000067614,2
0.0,791,0.0,2
0.03631499999755761,792,0.22979699999268632,2
0.0,793,0.0,2
0.047205000000758446,794,0.30010999999649357,2
0.0,795,0.0,2
0.047219999998560525,796,0.3306270000030054,2
0.0,797,0.0,2
0.04529999999977008,798,0.3291019999887794,2
0.0,799,0.0,2
0.04896000000371714,800,0.41052200000558514,2
0.0,801,0.0,2
0.03566999999748077,802,0.24041800000122748,2
0.0,803,0.0,2
0.04395000000113214,804,0.3167109999922104,2
0.0,805,0.0,2
0.030539999999746215,806,0.26440499999444,2
0.0,807,0.0,2
0.047069999998711864,808,0.3217770000046585,2
0.0,809,0.0,2
0.04716000000007625,810,0.3219600000156788,2
0.0,811,0.0,2
0.02944500000194239,812,0.2513430000108201,2
0.0,813,0.0,2
0.034604999997100094,814,0.2874149999843212,2
0.0,815,0.0,2
0.03678000000218162,816,0.2990719999943394,2
0.0,817,0.0,2
0.05116500000076485,818,0.2902829999948153,2
0.0,819,0.0,2
0.05612999999721069,820,0.32501200001570396,2
0.0,821,0.0,2
0.043005000001357985,822,0.2575079999951413,2
0.0,823,0.0,2
