method,hits
AWTGVTGlyphVector.computeGlyphLogicalBounds,4
AWTGVTGlyphVector.getGlyphOutline,2
AbstractCharacterData.setNodeValue,2
AbstractElement$NamedNodeHashMap.hashCode,2
AbstractGraphicsNode.fireGraphicsNodeChangeStarted,2
AbstractRed.copyBand,8
AbstractSVGPathSegList$SVGPathSegItem.<init>,2
Any2sRGBRed.copyData,10
AttributeInfo.read,4
AttributeValues.merge,2
Benchmark.fileFromInputStream,20
BidiAttributedCharacterIterator.<init>,2
ByteInterleavedRaster.setPixels,4
CSSEngine.findStyleSheetNodes,2
CSSEngine.getComputedStyle,2
CSSEngine.putAuthorProperty,2
CSSUtilities.getComputedStyle,2
ClassFile.getInnerAccessFlags,2
CodeAttribute.<init>,2
ColorManager.<clinit>,2
ComponentTransferRed.copyData,6
CompositeFont.getStyleMetrics,2
CompositeShapePainter.getPaintedBounds2D,2
DacapoClassLoader.loadClass,20
DisabledAlgorithmConstraints$Constraints.<init>,2
ExtendedGeneralPath.lineTo,2
FcFontManager.getFontPathNative,2
FieldInfo.read,2
Font2D.getStrike,2
FontFamily.<init>,2
GaussianBlurRed8Bit.boxFilterH,4
GaussianBlurRed8Bit.boxFilterV,4
GlyphLayout.getUnderlineShape,4
GlyphListLoopPipe.drawGlyphList,2
GraphicsPrimitiveMgr.initIDs,6
GraphicsUtil.<clinit>,2
GraphicsUtil.copyData,14
GraphicsUtil.divide_INT_PACK_Data,6
GraphicsUtil.mult_INT_PACK_Data,4
Handler.parseContextSpec,4
IOUtil.read,4
JPEGImageDecoderImpl.readJPEGStream,2
Launcher$AppClassLoader.loadClass,2
LocalizableSupport.lookupResourceBundle,2
MaskFill.MaskFill,2
MorphologyOp.filter,32
NamespaceSupport$Context.setParent,2
PNGEncodeParam.filterRow,30
PNGImageEncoder.encodePass,330
PNGRed.<clinit>,4
PNGRed.createRaster,2
PNGRed.decodePass,4
PNGRed.paethPredictor,2
PNGRed.processPixels,6
Parser2.maybeElement,2
Parser2.parseLiteral,2
PathStroker.endPath,4
Resource.getBytes,8
SVGAbstractTranscoder.createUserAgent,2
SVGAnimatedPathDataSupport.handlePathSegList,2
SVGComposite$OverCompositeContext_INT_PACK_UNPRE.precompose_INT_PACK,6
SVGDOMImplementation.<clinit>,2
SVGDOMImplementation.createElementNS,2
SVGDecoratedShapeElementBridge.createShapePainter,2
SVGOMAnimatedLengthList.getAnimVal,2
SVGStylableElement.getOverrideStyle,2
ScriptRun.init,2
StandardGlyphVector.<init>,2
StaticRenderer.updateWorkingBuffers,2
StrokingTextPainter.computeTextRuns,2
SunFontManager.addDirFonts,2
SunFontManager.getInstalledFontFamilyNames,4
SunFontManager.registerFontFile,4
SunGraphics2D.getRenderingHints,2
SunGraphics2D.intersectByArea,4
SunGraphics2D.transformShape,2
SunHints$Value.isCompatibleKey,2
SunLayoutEngine.nativeLayout,2
SurfaceData.<clinit>,2
T2KFontScaler.getGlyphImageNative,4
T2KFontScaler.getGlyphMetricsNative,16
TeeOutputStream.write,2
TestHarness.findClass,2
TrueTypeFont$1.run,2
Type1Font.getSimpleToken,2
Type1Font.nextTokenType,6
Type1Font.skip,4
URLClassPath$JarLoader$2.getCodeSourceURL,2
URLClassPath$JarLoader$2.getInputStream,2
URLUtil.urlNoFragString,2
UnicodeDecoder.decodeLoop,2
