method,package1,package2,dram1,dram2,energy
chappie,0.0,0.021616034616306054,0.0,0.004170635223388795,0.02578666983969485
javassist,0.0,0.03336584613093481,0.0,0.0034214009156446987,0.036787247046579506
javassist.bytecode,0.0,0.1074784649563055,0.0,0.011919346856518746,0.11939781181282424
org.apache.batik.bridge,0.0,0.14144135797656898,0.0,0.017998605055228066,0.15943996303179706
org.apache.batik.css.engine,0.0,0.02168311500668764,0.0,0.0023370882349516993,0.024020203241639337
org.apache.batik.dom.events,0.0,0.004438460528566464,0.0,0.00048799264242545704,0.004926453170991921
org.apache.batik.dom.svg,0.0,0.1611981714011182,0.0,0.016991728688283445,0.17818990008940164
org.apache.batik.ext.awt,0.0,0.036765441606693414,0.0,0.004514450135667777,0.04127989174236119
org.apache.batik.ext.awt.geom,0.0,0.08001893945549744,0.0,0.008590455199927493,0.08860939465542493
org.apache.batik.ext.awt.image,0.07548017647059169,0.3847624711929083,0.008058235294276312,0.060051350790062366,0.5283522337478387
org.apache.batik.ext.awt.image.codec.png,1.636652564756145,4.483308656834084,0.14956444092396848,0.5907259717034204,6.860251634217618
org.apache.batik.ext.awt.image.rendered,0.17888571428401126,1.3029426957997061,0.015017142858206559,0.17806745885714273,1.6749130117990667
org.apache.batik.gvt,0.0,0.09638200269340155,0.0,0.01072370163390253,0.10710570432730408
org.apache.batik.gvt.filter,0.0,0.09009234420060525,0.0,0.010574921304308416,0.10066726550491366
org.apache.batik.gvt.renderer,0.0,0.10400355800181409,0.0,0.012236546975591879,0.11624010497740597
org.apache.batik.parser,0.0,0.006399647410617978,0.0,0.0007492055152787147,0.0071488529258966925
org.apache.batik.util.io,0.0,0.024154877658136897,0.0,0.002883948054840467,0.027038825712977364
sun.awt,0.0,0.05194065269046591,0.0,0.005742815875145063,0.057683468565610976
sun.awt.geom,0.0,0.04707374939487388,0.0,0.004944960393001345,0.05201870978787523
sun.awt.image,0.10550342857355384,0.02324827243959084,0.011691428571274238,0.0030983845693971983,0.1435415141538161
sun.dc,0.0,0.09829799436800143,0.0,0.011451404125617808,0.10974939849361924
sun.dc.pr,0.10807845454286452,0.2526114311084019,0.012595227272344564,0.029235520193863343,0.4025206331174743
sun.font,0.0,0.5400294520944324,0.0,0.06756981364645213,0.6075992657408845
sun.java2d,0.0,0.05126860061747618,0.0,0.006102946098471414,0.057371546715947595
sun.java2d.loops,0.049140937501761066,0.17516391329937211,0.0051440624999941065,0.017543680890368115,0.2469925941914954
sun.java2d.pipe,0.0,0.04294854663694448,0.0,0.00563668978078432,0.0485852364177288
sun.misc,0.0,0.19504593170336224,0.0,0.02040278328216352,0.21544871498552576
sun.nio.cs,0.0,0.054796364365823635,0.0,0.0075315916563402545,0.06232795602216389
sun.reflect,0.0,0.019901131824380327,0.0,0.0025977323198277482,0.022498864144208076
sun.text.normalizer,0.0,0.05542218272168024,0.0,0.006387907977465729,0.06181009069914597
sun.util.resources,0.0,0.021616034616306054,0.0,0.004170635223388795,0.02578666983969485
