method,package1,package2,dram1,dram2,energy
javassist.bytecode,0.2587987690867002,0.1090033913003382,0.029930223633527018,0.010834782608836194,0.4085671666294016
org.apache.batik.bridge,0.05720503721526748,0.09653142857132477,0.006361763360061912,0.009304285714149176,0.16940251486080335
org.apache.batik.css.engine,0.05720503721526748,0.0,0.006361763360061912,0.0,0.06356680057532939
org.apache.batik.css.engine.value.svg,0.02439613131344121,0.0,0.0028657575759015426,0.0,0.02726188888934275
org.apache.batik.dom.svg,0.08527530952426512,0.07007699999875122,0.009107896825390097,0.007144285714145683,0.17160449206255213
org.apache.batik.ext.awt.image,0.37011836517485663,0.09154249999846797,0.042845274851751325,0.01099250000000514,0.5154986400250811
org.apache.batik.ext.awt.image.codec.png,5.146140521348827,1.480610867850591,0.5526464250239999,0.18876853535603494,7.368166349579453
org.apache.batik.ext.awt.image.renderable,0.036676566472354864,0.0,0.0044726329164602695,0.0,0.04114919938881513
org.apache.batik.ext.awt.image.rendered,1.0713023925055791,0.025182529412524995,0.12265806309036204,0.002911764705833561,1.2220547497142997
org.apache.batik.gvt,0.0,0.0456073508756705,0.0,0.005569473684278037,0.051176824559948535
org.apache.batik.gvt.font,0.0,0.027386231885284888,0.0,0.003565217391397986,0.030951449276682873
org.apache.batik.gvt.renderer,0.0,0.028788333334280956,0.0,0.0034399999995002872,0.032228333333781244
org.apache.batik.gvt.text,0.0,0.027386231885284888,0.0,0.003565217391397986,0.030951449276682873
org.apache.batik.i18n,0.05069606060604917,0.0,0.005072727273011079,0.0,0.05576878787906025
org.apache.batik.transcoder,0.08565266667089114,0.0,0.010304999999789288,0.0,0.09595766667068042
org.apache.batik.util.io,0.046488500001335815,0.0,0.005392499999895032,0.0,0.051881000001230845
org.apache.crimson.parser,0.058922848799924425,0.0,0.003676847325159839,0.0,0.06259969612508426
org.dacapo.harness,0.8844067252570333,0.13262751515360308,0.10037289479791868,0.015842272727185802,1.1332494079357411
org.dacapo.parser,0.02061006836443413,0.0,0.0018693903235218413,0.0,0.02247945868795597
org.xml.sax.helpers,0.0,0.0739746000006562,0.0,0.007542000000103144,0.08151660000075935
sun.awt,0.07046135790224517,0.0,0.008621395529750872,0.0,0.07908275343199604
sun.awt.image,0.04055915976009898,0.06950452940980219,0.0045701011852074215,0.008716764705883073,0.12335055506099167
sun.font,0.17775148863430076,0.20312598652032524,0.021603893543466604,0.021615257352512646,0.4240966260506052
sun.java2d,0.0544069084927663,0.06883799999884918,0.007132954711647353,0.007747105263325992,0.13812496846658884
sun.java2d.loops,0.0,0.18606410526646008,0.0,0.02225131578942589,0.20831542105588596
sun.misc,0.31652813323535584,0.0,0.0336773785201956,0.0,0.3502055117555514
sun.net,0.03702787878864911,0.0,0.003100000000510287,0.0,0.040127878789159396
sun.net.www.protocol.jar,0.04097563990522267,0.0,0.005055346695726525,0.0,0.046030986600949196
sun.nio.ch,0.11279026256232251,0.0,0.01331392903119243,0.0,0.12610419159351494
sun.nio.cs,0.032674568180730355,0.0,0.00397806818174021,0.0,0.03665263636247056
sun.reflect,0.04995842393752202,0.0,0.006488626108140878,0.0,0.056447050045662896
sun.text,0.0,0.05094257143355208,0.0,0.00528107142846628,0.056223642862018364
sun.text.normalizer,0.0,0.10141753519146318,0.0,0.012723027950250867,0.11414056314171404
