method,package1,package2,dram1,dram2,energy
AWTPathProducer.startPath,0.0,0.05014471428668392,0.0,0.005862857142866621,0.05600757142955054
AbstractDocument.getXBLManager,0.0,0.04301966666632021,0.0,0.006160000000515234,0.049179666666835445
AbstractNode.getPrefix,0.0,0.03205533333109795,0.0,0.004001666666378393,0.036056999997476344
AbstractNode.getXblParentNode,0.0,0.03484638461332697,0.0,0.004707692307559997,0.039554076920886964
AccessController.doPrivileged,0.0439656666664329,0.0,0.004309999999046946,0.0,0.04827566666547985
Any2sRGBRed.applyLut_INT,0.0,0.04011607017539637,0.0,0.0045810526315012545,0.044697122806897624
AttributeInfo.read,0.0,0.0,0.0,0.0,0.0
AttributedString.addAttributes,0.0,0.03768485714265677,0.0,0.0046971428569772145,0.04238199999963398
BandCombineOp.filter,0.0,0.07719240741102518,0.0,0.008730555555471423,0.0859229629664966
Buffer.position,0.0,0.029978851614515613,0.0,0.004101981791745367,0.03408083340626098
BufferedInputStream.read,0.05827634115283849,0.0,0.006662282479243969,0.0,0.06493862363208246
ByteInterleavedRaster.getPixels,0.0,0.009908033333097895,0.0,0.0009639999999611367,0.010872033333059031
ByteInterleavedRaster.setPixels,0.0,0.03956546296211416,0.0,0.0037833333335920882,0.04334879629570625
CRC.updateCRC,0.0,0.07968242592674127,0.0,0.010364444444348917,0.09004687037109019
CSSEngine.<init>,0.0,0.044870151510677365,0.0,0.004981818181366896,0.049851969692044265
CSSEngine.getComputedStyle,0.0,0.02054165177374443,0.0,0.0027689627914225037,0.023310614565166934
Class.forName0,0.06850719492557,0.0,0.00495434730239261,0.0,0.07346154222796261
ClassLoader.defineClass1,0.19309830769541292,0.0,0.01843115384615838,0.0,0.2115294615415713
ClassLoader.findBootstrapClass,0.04077721064184816,0.0,0.0040515496896545815,0.0,0.04482876033150274
ClassLoader.findLoadedClass0,0.07318099999489883,0.0,0.006660000000313933,0.0,0.07984099999521276
ClassPool.getCached,0.04621769230848608,0.0,0.004767692307583414,0.0,0.050985384616069496
ClassPoolTail.openClassfile,0.0,0.047708310298883415,0.0,0.005920258112232905,0.05362856841111632
ColorModel.getLinearRGB16TosRGB8LUT,0.0,0.09244777777348645,0.0,0.01096000000001772,0.10340777777350417
ConcreteTextLayoutFactory.createTextLayout,0.0,0.03537262400627272,0.0,0.0043208022463541475,0.03969342625262687
ConfigFile.<init>,0.06824917236217551,0.0,0.007027849146268093,0.0,0.0752770215084436
ConstPool.readOne,0.0,0.03840315751855695,0.0,0.00499762599552321,0.04340078351408016
DataBufferByte.setElem,0.0,0.009794133333101248,0.0,0.0010994999999941989,0.010893633333095447
DataBufferInt.getElem,0.0,0.035466285714406576,0.0,0.0045504761903199355,0.040016761904726514
DataInputStream.readFully,0.0,0.06267644444596954,0.0,0.007313333333311472,0.069989777779281
DataOutputStream.incCount,0.0,0.02997083333411865,0.0,0.003425000000068697,0.03339583333418735
Deflater.deflateBytes,0.0,5.156517021604847,0.0,0.6540497319396685,5.810566753544515
DrawGlyphListAA.DrawGlyphListAA,0.0,0.06292716666454604,0.0,0.007489999999961583,0.07041716666450762
ExtendedGeneralPath.closePath,0.0,0.03698728571388138,0.0,0.0046885714283624634,0.041675857142243845
FcFontConfiguration.<init>,0.0,0.022271538151393086,0.0,0.003072545077239686,0.025344083228632772
File.getCanonicalPath,0.0,0.04337566666880674,0.0,0.004539999999906286,0.047915666668713025
FileOutputStream.writeBytes,0.19254680583338185,0.04774051282042936,0.017437717730860308,0.005209615384536357,0.26293465176920783
FontConfiguration.setEncoding,0.0,0.015624894909725937,0.0,0.0021665789816903507,0.017791473891416287
GaussianBlurRed8Bit.boxFilterH,0.0,0.23714617543890576,0.0,0.02689263157854408,0.26403880701744986
GaussianBlurRed8Bit.boxFilterV,0.0,0.10162894737093887,0.0,0.014507894737011825,0.1161368421079507
GraphicsPrimitiveMgr.initIDs,0.0,0.067283090907784,0.0,0.00820909090907662,0.07549218181686063
GraphicsUtil.divide_INT_PACK_Data,0.0,0.0987753779876181,0.0,0.0103252631576044,0.1091006411452225
GraphicsUtil.mult_INT_PACK_Data,0.0,0.06509835406366596,0.0,0.007726602870901802,0.07282495693456777
ImagingLib.transformBI,0.0,0.019745543862594972,0.0,0.0022947368420876985,0.02204028070468267
Inflater.inflateBytes,0.4182180888326382,0.02588566666721211,0.038312731501451786,0.00320333333305219,0.4856198203343543
MaskFill.MaskFill,0.0,0.041124148149888407,0.0,0.005306666666540507,0.04643081481642891
MessageFormat.subformat,0.0842693333349113,0.0,0.008389999999053543,0.0,0.09265933333396484
MorphologyOp.filter,0.0,0.4430168681333708,0.0,0.05369705128270232,0.4967139194160731
MorphologyOp.isBetter,0.0,0.10847606349159918,0.0,0.013072380951988243,0.12154844444358742
PNGEncodeParam.filterRow,0.0,0.5170980111590704,0.0,0.06385834523814421,0.5809563563972147
PNGImageEncoder.encodePass,0.0,0.09688472079467678,0.0,0.012689871794674007,0.10957459258935079
Parser2.parseLiteral,0.0,0.050820065803656,0.0,0.0050971148098534775,0.055917180613509476
Path2D.append,0.0,0.034717043406508885,0.0,0.004500679070410401,0.039217722476919285
PathStroker.endPath,0.0,0.22356206588884087,0.0,0.0288478628600392,0.2524099287488801
Pattern.expr,0.053134210212250566,0.0,0.005851337615439411,0.0,0.05898554782768998
Rectangle2D$Double.getBounds2D,0.0,0.045055090907474296,0.0,0.005969999999995872,0.05102509090747017
Resource.getByteBuffer,0.10703533333435188,0.0,0.01148500000029647,0.0,0.11852033333464834
SVGComposite$OverCompositeContext_INT_PACK_UNPRE.precompose_INT_PACK,0.0,0.03806634666708608,0.0,0.004592000000023593,0.04265834666710967
SVGDOMImplementation.createElementNS,0.03735666666612722,0.0,0.002396153846254889,0.0,0.03975282051238211
SVGValueConstants.<clinit>,0.0,0.032520312500613116,0.0,0.003846874999832532,0.036367187500445645
SinglePixelPackedSampleModel.getPixels,0.0,0.14029838888737786,0.0,0.01701558333399791,0.15731397222137578
SinglePixelPackedSampleModel.getSamples,0.0,0.0790816048955259,0.0,0.008822377622289417,0.08790398251781532
SinglePixelPackedSampleModel.setPixels,0.0,0.16209122674247475,0.0,0.01788608424892059,0.17997731099139536
SinglePixelPackedSampleModel.setSamples,0.0,0.0608228170151988,0.0,0.007706013986567053,0.06852883100176585
StateTrackableDelegate.markDirty,0.0,0.04191818181954494,0.0,0.004585454545149608,0.046503636364694546
StringBuffer.append,0.0,0.050487611419801966,0.0,0.004900188489353061,0.05538779990915503
SunFontManager.addDirFonts,0.0,0.06662886248099625,0.0,0.008798711538979554,0.07542757401997581
SunFontManager.initIDs,0.0,0.051212279449968784,0.0,0.005901239743540203,0.05711351919350899
SunGraphics2D.<clinit>,0.0,0.067283090907784,0.0,0.00820909090907662,0.07549218181686063
SunGraphicsEnvironment$1.run,0.0,0.02343188588874857,0.0,0.0029097198638752663,0.026341605752623835
SunLayoutEngine.nativeLayout,0.0,0.03053138098199212,0.0,0.004105623165692185,0.03463700414768431
T2KFontScaler.getGlyphImageNative,0.0,0.014909999995974688,0.0,0.001750714285922835,0.016660714281897523
T2KFontScaler.getGlyphMetricsNative,0.0,0.08988404480056925,0.0,0.011411988219572322,0.10129603302014156
ThreadCoreMapInjector.isRunnable,0.04146630769201483,0.0,0.003766153846159936,0.0,0.04523246153817476
Timer.<init>,0.0,0.0,0.0,0.0,0.0
URLClassLoader.defineClass,0.07318099999489883,0.0,0.006660000000313933,0.0,0.07984099999521276
UTF_8$Decoder.decodeArrayLoop,0.06824917236217551,0.0,0.007027849146268093,0.0,0.0752770215084436
ZipFile$ZipFileInputStream.<init>,0.01754885333357379,0.0,0.0018216000000635785,0.0,0.019370453333637367
ZipFile.getEntry,0.005465493333370736,0.0,0.0005024000001139938,0.0,0.00596789333348473
ZipFile.open,0.053134210212250566,0.0,0.005851337615439411,0.0,0.05898554782768998
ZipFile.read,0.08153447263361396,0.0,0.007192796056598462,0.0,0.08872726869021243
