method,package1,package2,dram1,dram2,energy
Arrays.copyOf|ArrayList.grow|ArrayList.ensureExplicitCapacity,0.0,0.03741442857010822,0.0,0.004094999999454427,0.04150942856956265
BandCombineOp.filter|Any2sRGBRed.copyData|FormatRed.copyData,0.0,0.12383961065047766,0.0,0.014668734141432799,0.13850834479191046
BufferedInputStream.read|DataInputStream.readInt|AttributeInfo.<init>,0.0,0.031568121210897734,0.0,0.003452727272595053,0.03502084848349279
ByteInterleavedRaster.setPixels|GraphicsUtil.copyData_FALLBACK|GraphicsUtil.copyData,0.0,0.03609427429713544,0.0,0.004248594949846299,0.04034286924698174
ClassLoader.defineClass1|ClassLoader.defineClass|SecureClassLoader.defineClass,0.07648536363602475,0.10424238812330294,0.00949136363642262,0.010432408907169668,0.20065152430292
ClassLoader.findBootstrapClass|ClassLoader.findBootstrapClassOrNull|ClassLoader.loadClass,0.0,0.00790163218351509,0.0,0.0009812068964984272,0.008882839080013518
Collections.synchronizedList|CSSEngine.<init>|SVGCSSEngine.<init>,0.0,0.0338852063508793,0.0,0.004403809523662655,0.038289015874541955
ColorModel.getLinearRGB16TosRGB8LUT|ColorModel.getGray16TosRGB8LUT|ComponentColorModel.setupLUTs,0.0,0.0,0.0,0.0,0.0
ComponentSampleModel.getPixel|Raster.getPixel|BandCombineOp.filter,0.0,0.0410982690508948,0.0,0.004914649823240068,0.04601291887413487
ConfigFile.<init>|ConfigFile.<init>|Config.parse,0.0,0.08530700000119397,0.0,0.010920000000017657,0.09622700000121162
DataBuffer.<init>|DataBufferInt.<init>|SinglePixelPackedSampleModel.createDataBuffer,0.07102262555228421,0.0,0.006193547188637621,0.0,0.07721617274092184
DataBufferInt.setElem|SinglePixelPackedSampleModel.setPixel|WritableRaster.setPixel,0.0,0.04934263334472416,0.0,0.0058995561616617155,0.055242189506385875
DataBufferInt.setElem|SinglePixelPackedSampleModel.setSamples|WritableRaster.setSamples,0.08408740475992782,0.0,0.009355357143552585,0.0,0.0934427619034804
DataInputStream.readUnsignedShort|NameAndTypeInfo.<init>|ConstPool.readOne,0.0,0.0390314920639087,0.0,0.0042323809526380275,0.043263873016546724
Deflater.deflateBytes|Deflater.deflate|Deflater.deflate,7.277849979920177,0.0,0.7200551052714085,0.0,7.997905085191586
DestinationType.getTranscoder|SVGConverter.execute|Main.execute,0.0,0.01106657895051237,0.0,0.001618421052674086,0.012685000003186456
FileOutputStream.open0|FileOutputStream.open|FileOutputStream.<init>,0.0,0.052347833331926566,0.0,0.0069875000002260395,0.05933533333215261
FileOutputStream.writeBytes|FileOutputStream.write|BufferedOutputStream.flushBuffer,0.0,0.050232000001415145,0.0,0.006910000000364865,0.05714200000178001
FileOutputStream.writeBytes|FileOutputStream.write|BufferedOutputStream.write,0.0,0.10556722221776403,0.0,0.01473833333319716,0.12030555555096119
FileOutputStream.write|FileOutputStream.write|DataOutputStream.write,0.028613666667903694,0.0,0.003205416665979202,0.0,0.0318190833338829
FontConfiguration.setEncoding|FontConfiguration.<init>|MFontConfiguration.<init>,0.0,0.02347576470506907,0.0,0.003214117647182909,0.02668988235225198
GVTBuilder.buildComposite|GVTBuilder.buildGraphicsNode|GVTBuilder.buildComposite,0.0,0.026745290322709947,0.0,0.0037122580646199257,0.030457548387329874
GVTBuilder.buildGraphicsNode|GVTBuilder.buildComposite|GVTBuilder.buildGraphicsNode,0.0,0.06718157894507032,0.0,0.008589473684224412,0.07577105262929473
GaussianBlurRed8Bit.boxFilterH|GaussianBlurRed8Bit.copyData|PadRed.copyData,0.06525446296425932,0.0,0.005658611110481649,0.0,0.07091307407474097
GaussianBlurRed8Bit.boxFilterV|GaussianBlurRed8Bit.copyData|PadRed.copyData,0.19505801851833152,0.0,0.0174669444441625,0.0,0.212524962962494
GlyphLayout.done|ExtendedTextSourceLabel.createGV|ExtendedTextSourceLabel.getGV,0.038340166664662924,0.0,0.004837499999969926,0.0,0.04317766666463285
GraphicsUtil.copyData_INT_PACK|AbstractTiledRed.copyToRasterByBlocks|AbstractTiledRed.copyData,0.06053787036890518,0.0,0.0062002777774776184,0.0,0.06673814814638279
GraphicsUtil.copyData|GraphicsUtil.copyData|MorphologyOp.filter,0.05528422221929456,0.0,0.005229999999250543,0.0,0.060514222218545105
GraphicsUtil.divide_INT_PACK_Data|GraphicsUtil.divideAlpha|GraphicsUtil.coerceData,0.27525426190827385,0.0,0.024876428572454076,0.0,0.30013069048072794
HashMap.clone|RenderingHints.clone|SunGraphics2D.getRenderingHints,0.04990970970427954,0.0,0.005676830145485808,0.0,0.055586539849765346
HashTable.put|SVGDOMImplementation.<clinit>|SVGAbstractTranscoder.<init>,0.0,0.04683142857226941,0.0,0.004997142857454101,0.05182857142972351
Inflater.inflateBytes|Inflater.inflate|InflaterInputStream.read,0.0,0.4076811476335735,0.0,0.05532604971990868,0.46300719735348217
JarFile.getManifestFromReference|JarFile.getManifest|TestHarness.<init>,0.0,0.08530700000119397,0.0,0.010920000000017657,0.09622700000121162
LinkedList.listIterator|AbstractList.listIterator|AbstractSequentialList.iterator,0.0,0.06351699999747021,0.0,0.0081850000005943,0.07170199999806451
LongVector.addElement|ConstPool.addItem0|ConstPool.readOne,0.0,0.06766917284026189,0.0,0.007347407407176006,0.07501658024743789
LookupOp.byteFilter|LookupOp.filter|ComponentTransferRed.copyData,0.1553100714317268,0.0,0.013362142857399052,0.0,0.16867221428912585
Main.<clinit>|Class.forName0|Class.forName,0.0,0.02075821839138496,0.0,0.0029641379310880608,0.02372235632247302
Messages.<clinit>|Main.<clinit>|Class.forName0,0.0,0.00790163218351509,0.0,0.0009812068964984272,0.008882839080013518
MorphologyOp.filter|MorphologyOp.filter|MorphologyRable8Bit.createRendering,0.6046299523743708,0.0,0.055933809524475006,0.0,0.6605637618988458
MorphologyOp.isBetter|MorphologyOp.filter|MorphologyOp.filter,0.15580222222423695,0.0,0.016933333333225973,0.0,0.17273555555746292
PNGEncodeParam.filterRow|PNGImageEncoder.encodePass|PNGImageEncoder.writeIDAT,0.44688367210414803,0.0,0.04967599635907503,0.0,0.4965596684632231
PNGRed.processPixels|PNGRed.decodePass|PNGRed.decodeImage,0.0,0.09921488414732413,0.0,0.01158996013994397,0.1108048442872681
PaintServer.convertFillAndStroke|SVGShapeElementBridge.createShapePainter|SVGDecoratedShapeElementBridge.createFillStrokePainter,0.0,0.05148015000158921,0.0,0.005489999999917928,0.05697015000150714
ParsedURLDefaultProtocolHandler.constructParsedURLData|ParsedURLDefaultProtocolHandler.parseURL|ParsedURL.parseURL,0.0,0.016854298246152317,0.0,0.0017789473683175552,0.018633245614469874
Parser2.getc|Parser2.maybeComment|Parser2.maybeMisc,0.0,0.059556777776581124,0.0,0.006386666666609623,0.06594344444319075
Parser2.maybeElement|Parser2.content|Parser2.maybeElement,0.0374620000010408,0.0,0.0035099999998540925,0.0,0.0409720000008949
Parser2.parseLiteral|Parser2.maybeElement|Parser2.content,0.06806111111331523,0.0,0.00543666666635545,0.0,0.07349777777967068
Path2D$Double.getBounds2D|AbstractGraphicsNode.getTransformedPrimitiveBounds|AbstractGraphicsNode.getTransformedBounds,0.1083806862115136,0.0,0.009698401485659182,0.0,0.11807908769717279
Path2D$Float.moveTo|DuctusRenderingEngine$FillAdapter.beginSubpath|PathStroker.endPath,0.026367903987321317,0.0,0.002405078605284836,0.0,0.028772982592606154
PathStroker.endPath|DuctusRenderingEngine.feedConsumer|DuctusRenderingEngine.createStrokedShape,0.09525533333362546,0.0,0.010575000000244472,0.0,0.10583033333386993
PathStroker.endPath|Rasterizer.endPath|DuctusRenderingEngine.getAATileGenerator,0.14007311111911097,0.0,0.01684666666740129,0.0,0.15691977778651225
RGBColorValue.<init>|SVGValueConstants.<clinit>|AlignmentBaselineManager.<clinit>,0.0,0.05078895237769872,0.0,0.005946666666811021,0.05673561904450974
Raster.createInterleavedRaster|PNGRed.createRaster|PNGRed.parse_IEND_chunk,0.0,0.0,0.0,0.0,0.0
Raster.createWritableRaster|Raster.createWritableRaster|StaticRenderer.updateWorkingBuffers,0.04239657264481102,0.0,0.0040927682587625705,0.0,0.04648934090357359
Raster.getPixel|PNGRed.processPixels|PNGRed.decodePass,0.0,0.0,0.0,0.0,0.0
Rasterizer.<init>|DuctusRenderingEngine.getRasterizer|DuctusRenderingEngine.getAATileGenerator,0.04681503696069813,0.0,0.00614455924624881,0.0,0.05295959620694694
SVGAbstractTranscoder.<init>|ImageTranscoder.<init>|PNGTranscoder.<init>,0.0,0.047642285713144314,0.0,0.006458571428603525,0.05410085714174784
SVGCSSEngine.<clinit>|SVGDOMImplementation.createCSSEngine|ExtensibleDOMImplementation.createCSSEngine,0.0,0.0229569523842887,0.0,0.0025676190474307127,0.025524571431719413
SVGComposite$OverCompositeContext_INT_PACK_UNPRE.precompose_INT_PACK|SVGComposite$AlphaPreCompositeContext_INT_PACK.precompose|SVGComposite$OverCompositeContext_INT_PACK_UNPRE.compose,0.17445900000166148,0.0,0.018519999999019397,0.0,0.19297900000068088
SVGDOMImplementation.<clinit>|SVGAbstractTranscoder.<init>|ImageTranscoder.<init>,0.0,0.07824714286003394,0.0,0.009432857143110596,0.08768000000314453
SVGDOMImplementation.createCSSEngine|ExtensibleDOMImplementation.createCSSEngine|BridgeContext.initializeDocument,0.0,0.03403055555665761,0.0,0.003854999999829385,0.037885555556487
SVGFeGaussianBlurElementBridge.createFilter|SVGFilterElementBridge.buildLocalFilterPrimitives|SVGFilterElementBridge.buildFilterPrimitives,0.04173783333195994,0.0,0.003505000000586733,0.0,0.045242833332546674
SVGOMAnimatedPathData.getAnimatedPathSegList|SVGOMPathElement.getAnimatedPathSegList|SVGPathElementBridge.buildShape,0.0,0.05758664999957545,0.0,0.006414750000021741,0.06400139999959718
SVGPaintManager.computeValue|CSSEngine.getComputedStyle|CSSUtilities.getComputedStyle,0.0,0.058515096774264676,0.0,0.0073664516122305705,0.06588154838649525
SVGSVGElementBridge.createGraphicsNode|GVTBuilder.build|SVGAbstractTranscoder.transcode,0.0,0.024317939395338974,0.0,0.002956363636423537,0.02727430303176251
SVGStylableElement.getComputedStyleMap|CSSEngine.getComputedStyle|CSSUtilities.getComputedStyle,0.0,0.023771578947944044,0.0,0.0030447368424160104,0.026816315790360055
SVGTextElementBridge.addPaintAttributes|SVGTextElementBridge.computeLaidoutText|SVGTextElementBridge.buildGraphicsNode,0.13049333333037794,0.0,0.012724999999287926,0.0,0.14321833332966585
ShapeNode.getPrimitiveBounds|AbstractGraphicsNode.getBounds|AbstractGraphicsNode.paint,0.049032691621101236,0.0,0.005471460901662421,0.0,0.05450415252276366
SignatureFileVerifier.<clinit>|JarFile.initializeVerifier|JarFile.getInputStream,0.0,0.036987333332945134,0.0,0.0063374999999723505,0.043324833332917485
SinglePixelPackedSampleModel.getPixels|Raster.getPixels|GraphicsUtil.copyData,0.05612333333590955,0.06478997020077101,0.004049999999898275,0.007675206398875769,0.1326385099354546
SinglePixelPackedSampleModel.getPixels|Raster.getPixels|PNGImageEncoder.encodePass,0.051382153847207054,0.0,0.0034923076917691967,0.0,0.05487446153897625
SinglePixelPackedSampleModel.setPixels|WritableRaster.setPixels|GraphicsUtil.copyData,0.0,0.20278731718992643,0.0,0.023988956646793028,0.22677627383671944
SinglePixelPackedSampleModel.setPixel|WritableRaster.setPixel|BandCombineOp.filter,0.0,0.02925475576229424,0.0,0.003502643656254245,0.03275739941854848
SinglePixelPackedSampleModel.setSamples|WritableRaster.setSamples|AbstractRed.copyBand,0.11890369696211013,0.0,0.013936363636193246,0.0,0.1328400605983034
String.equals|ExitStopper.transform|TransformerManager.transform,0.0,0.07604966666743469,0.0,0.00953999999971226,0.08558966666714696
SunHints.<clinit>|RenderingHints.<clinit>|CSSUtilities.convertShapeRendering,0.0,0.05148015000158921,0.0,0.005489999999917928,0.05697015000150714
SurfaceType.<clinit>|NullSurfaceData.<init>|NullSurfaceData.<clinit>,0.026956813986031763,0.0,0.0024672595566893806,0.0,0.029424073542721144
T2KFontScaler.getGlyphMetricsNative|T2KFontScaler.getGlyphMetrics|FileFont.getGlyphMetrics,0.09582341618893038,0.0,0.009115078782539365,0.0,0.10493849497146975
Throwable.fillInStackTrace|Throwable.fillInStackTrace|Throwable.<init>,0.062494245041205584,0.0,0.006177726799378685,0.0,0.06867197184058427
Type1Font.initNames|Type1Font.verify|Type1Font.<init>,0.08207993901214136,0.0,0.007870880347630671,0.0,0.08995081935977203
Type1Font.nextTokenType|Type1Font.initNames|Type1Font.verify,0.11287663079896006,0.0,0.010576403219683863,0.0,0.12345303401864392
URLStreamHandler.setURL|Handler.parseURL|URL.<init>,0.0,0.04683142857226941,0.0,0.004997142857454101,0.05182857142972351
UnixFileSystem.canonicalize0|UnixFileSystem.canonicalize|File.getCanonicalPath,0.05484176431601926,0.0,0.004824955113580486,0.0,0.059666719429599745
WeakHashMap.put|SVGTextElementBridge.getAttributeMap|SVGTextElementBridge.fillAttributedStringBuffer,0.06453433333566258,0.0,0.006720000000010865,0.0,0.07125433333567345
WritableRaster.setPixel|BandCombineOp.filter|Any2sRGBRed.copyData,0.0,0.04934263334472416,0.0,0.0058995561616617155,0.055242189506385875
ZipFile.read|ZipFile.access$1400|ZipFile$ZipFileInputStream.read,0.0,0.053029222223105736,0.0,0.007569999999860657,0.06059922222296639
