method,package1,package2,dram1,dram2,energy
AWTGVTFont,0.0,0.027386231885284888,0.0,0.003565217391397986,0.030951449276682873
AccessController,0.038110000001104316,0.0,0.003813636363757365,0.0,0.04192363636486168
Any2sRGBRed,0.11468022900737974,0.0,0.010484258901142678,0.0,0.12516448790852241
Arrays,0.021279090909625997,0.0,0.00166590909044096,0.0,0.022945000000066957
Attributes$Name,0.0,0.0,0.0,0.0,0.0
BandCombineOp,0.0,0.025182529412524995,0.0,0.002911764705833561,0.028094294118358558
BufferedInputStream,0.15494553652332793,0.10141753519146318,0.01876577579461382,0.012723027950250867,0.2878518754596558
ByteInterleavedRaster,0.0,0.06950452940980219,0.0,0.008716764705883073,0.07822129411568526
CRC,0.0,0.036976999998538915,0.0,0.00476999999985613,0.04174699999839505
CSSEngine,0.05720503721526748,0.0,0.006361763360061912,0.0,0.06356680057532939
ClassLoader,0.31527152659719593,0.13262751515360308,0.03423954409911505,0.015842272727185802,0.49798085857709984
CodeIterator,0.0,0.1090033913003382,0.0,0.010834782608836194,0.1198381739091744
CodePointIterator,0.0,0.05094257143355208,0.0,0.00528107142846628,0.056223642862018364
ColorManager,0.02439613131344121,0.0,0.0028657575759015426,0.0,0.02726188888934275
ColorModel,0.0,0.0,0.0,0.0,0.0
ComponentSampleModel,0.0,0.06934250000793124,0.0,0.008016666667269115,0.07735916667520036
CompositeRable8Bit,0.036676566472354864,0.0,0.0044726329164602695,0.0,0.04114919938881513
CompositeShapePainter,0.0,0.0456073508756705,0.0,0.005569473684278037,0.051176824559948535
ConcreteTextLayoutFactory,0.0,0.027386231885284888,0.0,0.003565217391397986,0.030951449276682873
DataInputStream,0.049647836976897286,0.0,0.005113371238722362,0.0,0.054761208215619646
Deflater,5.015145152810284,0.9698378383873573,0.5405194633283902,0.1289048737377867,6.654407328263818
FileChannelImpl,0.042178164192380935,0.0,0.004540192330177768,0.0,0.0467183565225587
FileDispatcherImpl,0.07061209836994158,0.0,0.008773736701014662,0.0,0.07938583507095624
FileInputStream,0.0,0.0,0.0,0.0,0.0
FileOutputStream,0.18912422565285464,0.0,0.02179791654641568,0.0,0.21092214219927033
GaussianBlurRed8Bit,0.31964740709669226,0.0,0.0402370044977299,0.0,0.35988441159442214
GraphicsPrimitiveMgr,0.0,0.18606410526646008,0.0,0.02225131578942589,0.20831542105588596
GraphicsUtil,0.19572662417978087,0.04252116666611983,0.02436755379906489,0.005497499999970993,0.2681128446449366
Hashtable,0.0,0.0739746000006562,0.0,0.007542000000103144,0.08151660000075935
HeapByteBuffer,0.07061209836994158,0.0,0.008773736701014662,0.0,0.07938583507095624
ImagingLib,0.04055915976009898,0.0,0.0045701011852074215,0.0,0.0451292609453064
Inflater,0.5166125003938865,0.0,0.05979834173361476,0.0,0.5764108421275013
InvokeDynamicInfo,0.032926304676849004,0.0,0.004385167509749872,0.0,0.037311472186598874
LookupOp,0.1107718597665149,0.0,0.01420387922102585,0.0,0.12497573898754075
Math,0.05720503721526748,0.04544583333174362,0.006361763360061912,0.005141666666632874,0.11415430057370589
MessageFormat,0.05069606060604917,0.0,0.005072727273011079,0.0,0.05576878787906025
MethodAccessorGenerator,0.04995842393752202,0.0,0.006488626108140878,0.0,0.056447050045662896
MorphologyOp,0.4358698727528026,0.0,0.047580796029472676,0.0,0.4834506687822753
PNGEncodeParam,0.04037788274898597,0.16464382491520566,0.002690655066178147,0.01939919191994802,0.2271115546503178
PNGImageEncoder,0.054029751925591805,0.033262303028481474,0.005305861026359369,0.0039709090911359945,0.09656882507156864
PNGRed,0.0,0.06282374999904683,0.0,0.007412500000201464,0.0702362499992483
Point2D$Float,0.0,0.03622860784354784,0.0,0.0035329411766724657,0.039761549020220305
ProgressMonitor,0.03702787878864911,0.0,0.003100000000510287,0.0,0.040127878789159396
RandomAccessFile,0.041223097988949284,0.0,0.004516526340283138,0.0,0.045739624329232426
Raster,0.0,0.0,0.0,0.0,0.0
SAXSVGDocumentFactory,0.021530920634090542,0.0,0.002474285714376333,0.0,0.024005206348466875
SVGAbstractTranscoder,0.08565266667089114,0.0,0.010304999999789288,0.0,0.09595766667068042
SVGAnimatedPathDataSupport,0.0,0.07007699999875122,0.0,0.007144285714145683,0.07722128571289691
SVGComposite$OverCompositeContext_INT_PACK_UNPRE,0.11324263604841059,0.0,0.014290947104914735,0.0,0.12753358315332533
SVGDOMImplementation,0.06374438889017459,0.0,0.006633611111013765,0.0,0.07037800000118835
SVGDecoratedShapeElementBridge,0.0,0.044442285714986984,0.0,0.0040757142856559115,0.048518000000642894
SimpleCharStream,0.02061006836443413,0.0,0.0018693903235218413,0.0,0.02247945868795597
SinglePixelPackedSampleModel,0.18806986269282,0.1472991515146339,0.01846934399183474,0.016647727273238794,0.3704860854725275
StringNormalizingReader,0.046488500001335815,0.0,0.005392499999895032,0.0,0.051881000001230845
StrokingTextPainter,0.0,0.028788333334280956,0.0,0.0034399999995002872,0.032228333333781244
SunGraphics2D,0.0544069084927663,0.0,0.007132954711647353,0.0,0.06153986320441365
SurfaceData,0.0,0.06883799999884918,0.0,0.007747105263325992,0.07658510526217517
T2KFontScaler,0.0,0.13810904534249643,0.0,0.014642316176339893,0.15275136151883634
TeePrintStream,0.037828074876262906,0.0,0.0036696062661609853,0.0,0.041497681142423894
Thread,0.033541666665714176,0.0,0.0028636363635031912,0.0,0.036405303029217365
Type1Font,0.0659162922754099,0.0,0.008313630502168805,0.0,0.07422992277757871
UTF_8$Encoder,0.032674568180730355,0.0,0.00397806818174021,0.0,0.03665263636247056
UnixFileSystem,0.07046135790224517,0.0,0.008621395529750872,0.0,0.07908275343199604
Vector,0.0,0.08087747619061875,0.0,0.00866857142799355,0.08954604761861229
XmlReader$Utf8Reader,0.058922848799924425,0.0,0.003676847325159839,0.0,0.06259969612508426
ZipFile,0.1114225042105934,0.0,0.012922938641273782,0.0,0.12434544285186717
