method,package1,package2,dram1,dram2,energy
AAShapePipe.getAlphaTile,0.06572620441708697,0.0,0.006467958713852496,0.0,0.07219416313093947
AWTGVTFont.createGlyphVector,0.041987388369917465,0.0,0.004065956320980708,0.0,0.046053344690898175
AbstractParentNode.getFirstChild,0.043852925064941886,0.0,0.004322725824153301,0.0,0.04817565088909519
AbstractSVGPathSegList$PathSegListBuilder.movetoAbs,0.025493846154019523,0.0,0.002584615384246438,0.0,0.028078461538265962
AbstractSVGTransformList$SVGTransformItem.matrix,0.03734409676041783,0.0,0.003609364344372528,0.0,0.04095346110479036
Array.newArray,0.05229289986226979,0.0,0.0062168134998881385,0.0,0.05850971336215793
BandCombineOp.filter,0.24785423066628942,0.0,0.021713721494090545,0.0,0.26956795216038
BufImgSurfaceData.getSolidLoops,0.04744465905084611,0.0,0.004125657749691621,0.0,0.05157031680053773
BufferedInputStream.getBufIfOpen,0.038840606059900216,0.0,0.005009090909328678,0.0,0.04384969696922889
BufferedInputStream.read,0.08788948995790902,0.10410857143246434,0.010354489792072749,0.014112857142858303,0.21646540832530442
ByteInterleavedRaster.getPixels,0.03972298956999655,0.0,0.0023123560700722065,0.0,0.04203534564006876
ByteInterleavedRaster.setPixels,0.03457344406513789,0.0,0.0035138572907577963,0.0,0.038087301355895685
CSSEngine.<init>,0.007641599999624305,0.0,0.0008664999999988747,0.0,0.00850809999962318
CSSEngine.getComputedStyle,0.04812281481550868,0.0,0.004871111111478293,0.0,0.05299392592698697
CSSLexicalUnit$IntegerLexicalUnit.<init>,0.06849818836312505,0.0,0.006197862259632158,0.0,0.0746960506227572
Class.forName0,0.033615606060431506,0.0,0.0038681818174760947,0.0,0.0374837878779076
ClassLoader.defineClass1,0.040161076921951734,0.22003607103593492,0.003918461539097524,0.025167793622593693,0.2892834031195779
ClassPool.get,0.04632306317878854,0.0,0.0045331466337621825,0.0,0.05085620981255072
ColorModel.getLinearRGB16TosRGB8LUT,0.0957436905248413,0.0,0.011721344865931764,0.0,0.10746503539077307
ComponentSampleModel.setPixel,0.04247772701416461,0.0,0.0029775847952829555,0.0,0.04545531180944756
Config.parse,0.0,0.009915666666832596,0.0,0.001019999999925858,0.010935666666758454
DataBufferInt.setElem,0.11069160375811818,0.0,0.01073153614811951,0.0,0.12142313990623768
Deflater.deflateBytes,5.099393899299286,0.0,0.5835942322651055,0.0,5.682988131564391
DisabledAlgorithmConstraints$Constraints.<init>,0.0,0.04481633333186134,0.0,0.005980625000120199,0.050796958331981536
DoublyIndexedTable.get,0.0,0.1097350175402601,0.0,0.011818947368035942,0.12155396490829605
ExceptionTable.<init>,0.0,0.018644505747106868,0.0,0.0025958620689557755,0.021240367816062644
ExtensibleDOMImplementation.getDomExtensions,0.0,0.060564285713813386,0.0,0.00757714285698187,0.06814142857079526
FileOutputStream.write,0.02737626666785218,0.0,0.004297999999835156,0.0,0.031674266667687336
FileOutputStream.writeBytes,0.0,0.1524550606046074,0.0,0.020638181818192217,0.1730932424227996
FloatingDecimal$BinaryToASCIIBuffer.developLongDigits,0.06564810943810148,0.0,0.005423600155646501,0.0,0.07107170959374798
GaussianBlurRed8Bit.boxFilterH,0.10846961067844346,0.0,0.007448751365846891,0.0,0.11591836204429035
GaussianBlurRed8Bit.boxFilterV,0.05712873819907715,0.0,0.00417035600544907,0.0,0.06129909420452622
GraphicsPrimitiveMgr.initIDs,0.015679876307001343,0.0,0.002177160468717089,0.0,0.017857036775718434
GraphicsUtil.copyData,0.18893632201476943,0.0,0.01670972593615138,0.0,0.2056460479509208
GraphicsUtil.copyData_INT_PACK,0.06572620441708697,0.0,0.006467958713852496,0.0,0.07219416313093947
GraphicsUtil.divide_INT_PACK_Data,0.02292261915729972,0.0,0.001627493039934995,0.0,0.024550112197234714
GraphicsUtil.mult_INT_PACK_Data,0.060128497165042386,0.0,0.006218356788249928,0.0,0.06634685395329232
Handler.hostsEqual,0.0,0.026140571426367387,0.0,0.00289714285723416,0.029037714283601548
HashMap$EntryIterator.next,0.014578535518218262,0.0,0.001904433616945379,0.0,0.01648296913516364
HashMap.<init>,0.0,0.04481633333186134,0.0,0.005980625000120199,0.050796958331981536
HashMap.putVal,0.0,0.010518374999567945,0.0,0.0015450000000024982,0.012063374999570442
HeapByteBuffer.<init>,0.07082420512765215,0.0,0.008413461538461538,0.0,0.07923766666611369
IdentityTransfer.<clinit>,0.0371673489470461,0.0,0.004131062786619211,0.0,0.04129841173366531
Inflater.inflateBytes,0.0,0.3604826035332882,0.0,0.04997987121237706,0.4104624747456653
JRELocaleProviderAdapter.getCurrencyNameProvider,0.0,0.0,0.0,0.0,0.0
JarFile.initializeVerifier,0.0,0.032524041665359014,0.0,0.004803749999875132,0.037327791665234145
LengthParser.<init>,0.02648342857211236,0.0,0.0028019047620344074,0.0,0.02928533333414677
LookupOp.byteFilter,0.12450668523152031,0.0,0.010666052061147738,0.0,0.13517273729266804
Main.<clinit>,0.0,0.005974390803590074,0.0,0.0007531034483188957,0.00672749425190897
Manifest.<init>,0.0,0.0,0.0,0.0,0.0
Math.abs,0.06006230667638937,0.0,0.0056645270430356566,0.0,0.06572683371942503
MorphologyOp.filter,0.43144082237871606,0.0,0.04449167765407441,0.0,0.4759325000327905
MorphologyOp.isBetter,0.04378347463604936,0.0,0.004257485678348935,0.0,0.0480409603143983
NativeThreadSet.add,0.05970198098039081,0.0,0.006240500701535652,0.0,0.06594248168192646
NumberParser.parseFloat,0.05566039315957683,0.0,0.006348589743763899,0.0,0.06200898290334073
PNGEncodeParam.filterRow,0.35481196383019875,0.0,0.03344630303342442,0.0,0.3882582668636232
PNGImageEncoder.clamp,0.01392641760101443,0.0,0.0019165806128051816,0.0,0.015842998213819612
PNGImageEncoder.encodePass,0.1281450539764351,0.0,0.014169344549059888,0.0,0.142314398525495
PNGImageEncoder.writeIDAT,0.05326509228520708,0.0,0.006680477912177136,0.0,0.05994557019738422
PNGRed.decodePaethFilter,0.08609801756640541,0.0,0.00708843349410908,0.0,0.09318645106051449
PNGRed.processPixels,0.2654690779210514,0.0,0.025831258061997188,0.0,0.2913003359830486
ParsedURLDefaultProtocolHandler.constructParsedURLData,0.0,0.0129177777769251,0.0,0.001450666666722908,0.014368444443648008
PathStroker.appendLine,0.10100163153889108,0.0,0.009654824329824441,0.0,0.11065645586871552
PathStroker.endPath,0.5530571148548221,0.0,0.06072500668843477,0.0,0.6137821215432568
PrintStream.write,0.04297183152101695,0.0,0.002492396762267856,0.0,0.0454642282832848
Properties.loadConvert,0.0,0.018644505747106868,0.0,0.0025958620689557755,0.021240367816062644
Raster.getWidth,0.06764160153793665,0.0,0.006318008210834114,0.0,0.07395960974877076
SVGBridgeExtension.registerTags,0.007472637254549602,0.0,0.0008348529411830218,0.0,0.008307490195732624
SVGCSSEngine.<clinit>,0.01985674999984136,0.0,0.002257499999662589,0.0,0.022114249999503947
SVGComposite$OverCompositeContext_INT_PACK_UNPRE.precompose_INT_PACK,0.05549358818414569,0.0,0.005439810381048899,0.0,0.060933398565194585
SVGDOMImplementation$FeFloodElementFactory.<init>,0.0,0.026140571426367387,0.0,0.00289714285723416,0.029037714283601548
SVGDOMImplementation$FeMorphologyElementFactory.create,0.04388740007701136,0.0,0.006975155923975411,0.0,0.050862556000986776
SVGDOMImplementation.<clinit>,0.0,0.10410857143246434,0.0,0.014112857142858303,0.11822142857532264
SVGFeGaussianBlurElementBridge.createFilter,0.056737369725317635,0.0,0.00587003911322858,0.0,0.06260740883854621
SVGImageElementBridge.<clinit>,0.016800823529717717,0.0,0.0018529411763487517,0.0,0.01865376470606647
SVGOMAnimatedPathData.getAnimatedPathSegList,0.05587076922977128,0.0,0.005268461538295154,0.0,0.06113923076806643
SVGValueConstants.<clinit>,0.02580266666700481,0.0,0.002687500000016977,0.0,0.02849016666702179
SinglePixelPackedSampleModel.getPixels,0.08441875050442714,0.0,0.007552301315307226,0.0,0.09197105181973436
SinglePixelPackedSampleModel.getSamples,0.048226279644746566,0.0,0.005236426206921331,0.0,0.053462705851667895
SinglePixelPackedSampleModel.setPixels,0.28642233008150664,0.0,0.032084889355170176,0.0,0.3185072194366768
SinglePixelPackedSampleModel.setSamples,0.07039917496638552,0.0,0.004957523376122727,0.0,0.07535669834250824
StandardGlyphVector$GlyphStrike.create,0.03733626627594002,0.0,0.00406877624049486,0.0,0.041405042516434884
StateTrackableDelegate.markDirty,0.023143914027632943,0.0,0.0015213785916201575,0.0,0.0246652926192531
String.indexOf,0.05768592063372674,0.0,0.00627523809551291,0.0,0.06396115872923964
StringBuffer.append,0.1835019498809328,0.0,0.01638215592739168,0.0,0.19988410580832447
SunFontManager$FontRegistrationInfo.<init>,0.05010790909154545,0.0,0.0053979545455976295,0.0,0.05550586363714308
SunFontManager.initIDs,0.06419793939218807,0.0,0.008216590909686409,0.0,0.07241453030187447
SunLayoutEngine.nativeLayout,0.0383431513231091,0.0,0.00460195784172254,0.0,0.042945109164831644
T2KFontScaler.getGlyphMetricsNative,0.04963405530564753,0.0,0.00602460608185192,0.0,0.055658661387499454
Throwable.fillInStackTrace,0.0,0.024207911112656195,0.0,0.0025280000000040873,0.02673591111266028
TransformHelper.Transform,0.04063591032506328,0.0,0.004079639863742093,0.0,0.044715550188805374
TrueTypeFont.initNames,0.07082420512765215,0.0,0.008413461538461538,0.0,0.07923766666611369
Type1Font.nextTokenType,0.07497310648452388,0.0,0.008050972222345416,0.0,0.08302407870686929
URLClassPath$JarLoader$2.getCodeSourceURL,0.02465308333315382,0.0,0.0026712500002759047,0.0,0.027324333333429724
UnixFileSystem.canonicalize0,0.01828400000223878,0.0,0.002191538461025069,0.0,0.02047553846326385
WritableRaster.setPixel,0.07219316534196016,0.0,0.007152854154152305,0.0,0.07934601949611246
XMLReaderImpl.parse,0.0,0.057660622224729084,0.0,0.00712533333312927,0.06478595555785835
ZipFile.read,0.05900638731047745,0.05327636363323439,0.007021896826348089,0.006984090909375509,0.12628873867943544
ZipInputStream.<init>,0.0,0.042970666665827266,0.0,0.007019090908877181,0.049989757574704446
