method,package1,package2,dram1,dram2,energy
com.sun.jmx.mbeanserver,0.3830163333332166,0.0,0.05194000000119558,0.0,0.4349563333344122
com.yammer.metrics.core,0.07169600000391559,0.0,0.01231499999994412,0.0,0.0840110000038597
com.yammer.metrics.reporting,0.27242033333944465,0.0,0.035525000000537446,0.0,0.3079453333399821
com.yammer.metrics.stats,0.07427966666485493,0.0,0.010600000000219248,0.0,0.08487966666507418
edu.cmu.graphchi,3.3358598644926496,0.4093527181763558,0.46584451640784474,0.0881133780491797,4.2991704771260295
edu.cmu.graphchi.apps,0.01740798265047297,0.039285292157588365,0.0023885327745280845,0.005751752752746694,0.06483356033533612
edu.cmu.graphchi.datablocks,0.12590117575867363,0.17101036058008828,0.022514028719956954,0.03971562134586626,0.3591411864045851
edu.cmu.graphchi.engine,2.333140616547415,0.8863547229259258,0.3343811814224942,0.1981512252761532,3.7520277461719878
edu.cmu.graphchi.engine.auxdata,4.3504672218157046,0.662128666663193,0.599378236745711,0.15943749999920934,5.771411625223818
edu.cmu.graphchi.shards,0.01873766666782709,0.0,0.0027000000009138607,0.0,0.02143766666874095
edu.cmu.graphchi.vertexdata,0.0,0.1956586666735044,0.0,0.044990000000325374,0.24064866667382978
javassist.bytecode,0.1934813333306617,0.0,0.02478999999948428,0.0,0.21827133333014598
javax.management,0.5982256666660154,0.0,0.08240499999980481,0.0,0.6806306666658202
javax.management.openmbean,0.0687053333337341,0.0,0.009050000000570435,0.0,0.07775533333430454
org.slf4j.helpers,0.12284333333567095,0.0,0.022000000002056673,0.0,0.14484333333772761
sun.management,0.0842693333349113,0.0,0.010990000000068296,0.0,0.09525933333497959
sun.net.www.protocol.jar,0.13745133333335008,0.0,0.022079999997610383,0.0,0.15953133333096045
sun.nio.cs,0.06585699999898982,0.0,0.010979999999108259,0.0,0.07683699999809808
sun.util.locale.provider,0.19504799999898143,0.0,0.03158999999989949,0.0,0.2266379999988809
sun.util.resources,0.00939966666919645,0.0,0.0013799999990927365,0.0,0.010779666668289186
ucar.unidata.io,0.1671156923000056,0.09061022222966938,0.018845769227295812,0.019874166667351444,0.2964458504243222
