method,hits
AttributeInfo.<init>,2
CalendarProviderImpl.getInstance,2
Chaperone.main,4
Chaperone.retire,2
ChiLogger.getLogger,2
ChiPointer.<init>,10
ChiVertex.<init>,374
ChiVertex.getValue,12
ChiVertex.numInEdges,2
ChiVertex.numOutEdges,4
ChiVertex.setDataPtr,4
ChiVertex.setValue,8
ClassPool.makeClass,2
DataBlockManager.dereference,32
DataBlockManager.getRawBlock,40
DataBlockManager.writeValue,6
DateFormatProviderImpl.getInstance,4
DegreeData.getDegree,272
DegreeData.load,14
ExponentiallyDecayingSample.update,2
FloatConverter.getValue,8
FloatConverter.setValue,10
GraphChiContext.getIteration,2
GraphChiEngine$2.run,70
GraphChiEngine$3.run,152
GraphChiEngine.determineNextWindow,48
GraphChiEngine.execUpdates,2
GraphChiEngine.initVertices,254
ImmutableDescriptor.<init>,2
ImmutableDescriptor.makeMap,2
JRELocaleProviderAdapter.getNumberFormatProvider,2
JmxMBeanServer.<init>,2
JmxReporter.<init>,2
LocaleData$1.run,2
LongVector.addElement,2
MBeanServerDelegate.<init>,2
MXBeanMappingFactory.<clinit>,2
MemoryShard.loadAdj,2
MemoryShard.loadAdjChunk,4
MetaIndex.mayContain,2
NOPLoggerFactory.getLogger,2
NumberFormatProviderImpl.getInstance,2
Pagerank.main,2
Pagerank.update,36
RandomAccessFile.read_,30
RandomAccessFile.writeBytes,42
StandardMBeanSupport.getMBeanIntrospector,2
ThreadPools.newScheduledThreadPool,2
Toplist$1.callback,8
URLClassPath$FileLoader.getResource,2
URLClassPath$JarLoader$2.getInputStream,2
Utf8Info.<init>,2
VertexAggregator.foreach,10
VertexData$1.hasNext,4
VertexData$1.next,4
VertexData.getVertexValuePtr,90
ZoneInfo.getTimeZone,2
