method,package1,package2,dram1,dram2,energy
AttributeInfo.<init>,0.0,0.024613449758925883,0.0,0.0039031874858478774,0.02851663724477376
CalendarProviderImpl.getInstance,0.0,0.0,0.0,0.0,0.0
Chaperone.main,0.07249782661138805,0.0,0.01627169681200703,0.0,0.08876952342339509
Chaperone.retire,0.03998403215407395,0.0,0.008659032618750827,0.0,0.048643064772824776
ChiLogger$SingleLineFormatter.format,0.0,0.05588766666672503,0.0,0.005834999999933643,0.061722666666658675
ChiLogger.getLogger,0.0,0.0,0.0,0.0,0.0
ChiPointer.<init>,0.0985106666679106,0.009381042829180584,0.018549999999474192,0.00035538436114806776,0.12679709385771343
ChiVertex.<init>,1.7424669278355056,3.0294844477219667,0.3241035132177484,0.38433859935486137,5.480393488130082
ChiVertex.getValue,0.006157097561077624,0.0009835918215136477,0.0011158536584755382,0.000120163217029827,0.008376706258096637
ChiVertex.numOutEdges,0.020497997933903507,0.0,0.004746686143770419,0.0,0.025244684077673926
ChiVertex.setDataPtr,0.0,0.018687541035460102,0.0,0.0017828634515172207,0.020470404486977324
ChiVertex.setValue,0.009651239415334648,0.0,0.0021723703409342937,0.0,0.011823609756268942
ClassInfo.<init>,0.0,0.02784129908619126,0.0,0.003879339866441143,0.0317206389526324
CompositeType.<init>,0.0,0.058186052516010174,0.0,0.009150567892957696,0.06733662040896787
DataBlockManager.dereference,0.18226010251024063,0.04245348540252048,0.02963367751420103,0.007129026736722314,0.26147629216368445
DataBlockManager.getRawBlock,0.36517659656743257,0.035243293555780195,0.07585834372098076,0.007235645861153733,0.48351387970534726
DataBlockManager.writeValue,0.021936831997180817,0.0118139758957829,0.003701992355859404,0.0020100516054493223,0.039462851854272445
DateFormatProviderImpl.getInstance,0.0,0.0932153193486334,0.0,0.012271133779808423,0.10548645312844182
DegreeData.getDegree,0.8898844640883445,1.8164740681728588,0.157345444603818,0.23020564041113742,3.0939096172761587
DegreeData.load,0.0,1.9375532322714673,0.0,0.3287565755175176,2.2663098077889847
FloatConverter.getValue,0.15922099862433525,0.0,0.033674720163391604,0.0,0.19289571878772685
FloatConverter.setValue,0.0,0.002397721550689614,0.0,0.0002632247196778833,0.0026609462703674975
GraphChiContext.getIteration,0.0059858658611577405,0.0,0.0010451238377789096,0.0,0.00703098969893665
GraphChiEngine$2.run,0.3944288596286765,0.6338169775673016,0.08096354846502161,0.16441068872894765,1.2736200743899473
GraphChiEngine$3.run,0.4163230611834637,0.469990234510051,0.06787960610373134,0.08055735949823546,1.0347502612954815
GraphChiEngine.determineNextWindow,0.12707566666358616,0.585095416594109,0.024350000002110996,0.09161679931785811,0.8281378825776643
GraphChiEngine.initVertices,1.246373634733768,1.2721718754540354,0.2353873962198737,0.1372390721273732,2.8911719785350503
GraphChiEngine.run,0.0,0.0,0.0,0.0,0.0
Handler.parseURL,0.0,0.051941000002746776,0.0,0.00631000000066706,0.058251000003413836
ImmutableDescriptor.<init>,0.0,0.03174804463130556,0.0,0.0058190927396726926,0.03756713737097825
ImmutableDescriptor.makeMap,0.0,0.013797467001630802,0.0,0.0021366252466655665,0.01593409224829637
JRELocaleProviderAdapter.createLanguageTagSet,0.0,0.017977461784700045,0.0,0.0011389353517139743,0.01911639713641402
JmxMBeanServer.<init>,0.0,0.06009454811307586,0.0,0.008091228679209346,0.0681857767922852
JmxMBeanServer.newMBeanServerDelegate,0.0,0.0365444631389486,0.0,0.003202107382113414,0.039746570521062015
JmxReporter.<clinit>,0.0,0.05847084896488356,0.0,0.00983273563444129,0.06830358459932485
JmxReporter.<init>,0.0,0.02784129908619126,0.0,0.003879339866441143,0.0317206389526324
Launcher$AppClassLoader.loadClass,0.0,0.07447355373564687,0.0,0.011829085669017341,0.08630263940466422
LocaleData$1.run,0.0,0.0,0.0,0.0,0.0
LocaleData.getBundle,0.0,0.03500830384260594,0.0,0.0050740246316756,0.04008232847428154
MBeanServerBuilder.newMBeanServerDelegate,0.0,0.052511656975197184,0.0,0.005641884906153097,0.05815354188135028
MemoryPoolImpl.<init>,0.0,0.034543678009735915,0.0,0.005265348967913382,0.0398090269776493
MemoryShard.loadAdjChunk,0.0,0.0,0.0,0.0,0.0
NOPLoggerFactory.getLogger,0.0,0.052511656975197184,0.0,0.005641884906153097,0.05815354188135028
Pagerank.update,0.02570390788236506,0.013135795238062086,0.004542501242537168,0.0017707072327757271,0.04515291159574004
RandomAccessFile.read_,0.2200595729156034,0.15681508170637665,0.044185299739391025,0.017381602466340875,0.4384415568277119
RandomAccessFile.writeBytes,0.0,0.03290151148143998,0.0,0.00581900197698495,0.03872051345842493
ReflectionFactory.copyMethod,0.0,0.06797087635202068,0.0,0.010635401449862109,0.07860627780188278
SignatureParser.parseMethodTypeSignature,0.0,0.07751799990487943,0.0,0.012285590367599995,0.08980359027247942
TimerContext.stop,0.0,0.018886611507306385,0.0,0.0022422185172043803,0.021128830024510766
Toplist$1.callback,0.1544596666644793,0.0,0.021874999999757463,0.0,0.17633466666423675
Unsafe.park,47.424735603944704,0.0,5.0758940995783615,0.0,52.50062970352307
VertexAggregator.foreach,0.5134268502774165,0.0,0.09833773124965106,0.0,0.6117645815270676
VertexData$1.hasNext,0.18551100594537812,0.0,0.03875328674938435,0.0,0.22426429269476247
VertexData$1.next,0.11866826175382048,0.0,0.025775175917216706,0.0,0.14444343767103718
VertexData.getVertexValuePtr,0.07586666666126499,2.4240935411559192,0.017329999999977492,0.39283378952142506,2.910123997338587
