method,hits
AttributeInfo.read,2
ChiLogger.getLogger,2
ChiPointer.<init>,14
ChiVertex.<init>,418
ChiVertex.getValue,6
ChiVertex.numOutEdges,2
ChiVertex.setDataPtr,4
ChiVertex.setValue,2
ClassFile.read,2
DataBlockManager.dereference,22
DataBlockManager.getRawBlock,30
DataBlockManager.writeValue,14
DegreeData.getDegree,208
DegreeData.load,16
DiagnosticCommandImpl.getMBeanInfo,2
FieldInfo.read,2
FloatConverter.getValue,4
FloatConverter.setValue,2
GraphChiContext.getIteration,2
GraphChiEngine$2.run,98
GraphChiEngine$3.run,160
GraphChiEngine.determineNextWindow,62
GraphChiEngine.initVertices,194
ImmutableDescriptor.makeMap,2
JmxMBeanServer.<init>,2
JmxReporter.<init>,2
LongVector.addElement,2
MBeanInfo.<init>,2
ManagementFactory.createGarbageCollector,2
MemberrefInfo.<init>,2
MemoryShard.loadAdjChunk,2
MetricName.<init>,2
Pagerank.update,24
RandomAccessFile.read_,20
RandomAccessFile.writeBytes,36
Resource.getBytes,2
ShardIndex.sparserIndex,2
Toplist$1.callback,2
TypeChecker.atMethodCallCore,2
URLJarFile.getEntry,2
Util.newObjectName,2
VertexAggregator.foreach,4
VertexData$1.next,4
VertexData.getVertexValuePtr,70
