method,hits
Chaperone.retire,2
ChiVertex.<init>,368
ChiVertex.addOutEdge,2
ChiVertex.inEdge,8
ChiVertex.numOutEdges,2
ChiVertex.setDataPtr,2
ChiVertex.setValue,10
DataBlockManager.dereference,20
DataBlockManager.getRawBlock,20
DataBlockManager.writeValue,20
DefaultMBeanServerInterceptor.sendNotification,2
DegreeData.getDegree,178
FloatConverter.getValue,4
FloatConverter.setValue,6
GraphChiEngine$2.run,28
GraphChiEngine$3.run,190
GraphChiEngine.determineNextWindow,38
GraphChiEngine.initVertices,158
ImmutableDescriptor.makeMap,2
MBeanInfo.<init>,2
MBeanServerBuilder.newMBeanServerDelegate,2
MXBeanLookup.<clinit>,2
MXBeanSupport.getMBeanIntrospector,2
MemoryShard.loadAdjChunk,4
Pagerank.main,2
Pagerank.update,12
StreamEncoder.write,2
Unsafe.park,2
Util.newObjectName,2
VertexAggregator.foreach,6
VertexData.getVertexValuePtr,56
ZoneInfoFile$Checksum.update,2
