method,package1,package2,dram1,dram2,energy
com.sun.jmx.mbeanserver,0.0,0.13058509479963817,0.0,0.01752506246015879,0.14811015725979695
com.yammer.metrics,0.0,0.07036196301915364,0.0,0.010373375589074736,0.08073533860822837
com.yammer.metrics.core,0.00547524528352177,0.0,0.001449078928743177,0.0,0.006924324212264948
com.yammer.metrics.stats,0.0,0.08589696036097587,0.0,0.011833110881003578,0.09773007124197945
edu.cmu.graphchi,0.7133691333382551,6.029921986618381,0.13587640045453392,0.8242215557349223,7.703389076146093
edu.cmu.graphchi.apps,0.02795161931009177,4.144615547222299,0.003471413335948696,0.42233173327383144,4.598370313142172
edu.cmu.graphchi.datablocks,0.10347562205331087,0.03874668461382533,0.017790243476062305,0.008969092769565598,0.1689816429127641
edu.cmu.graphchi.engine,1.5625624883534992,7.052403565998619,0.2929755542508385,0.9541327271933144,9.862074335796272
edu.cmu.graphchi.engine.auxdata,1.3289792907400635,1.9257410825900942,0.22876250362377426,0.33104010532586536,3.8145229822797972
edu.cmu.graphchi.shards,0.0,0.0,0.0,0.0,0.0
edu.cmu.graphchi.vertexdata,0.0,0.2866871077821904,0.0,0.05324811826937706,0.33993522605156745
javax.management,0.0,0.032891387961491755,0.0,0.004772617895671671,0.037664005857163424
javax.management.openmbean,0.0,0.08030773427954274,0.0,0.010480201875064888,0.09078793615460763
org.slf4j,0.0,0.07036196301915364,0.0,0.010373375589074736,0.08073533860822837
org.slf4j.helpers,0.0,0.0619162493716442,0.0,0.008541815560056348,0.07045806493170055
sun.management,0.0,0.08466147496204271,0.0,0.011855926090472054,0.09651740105251476
sun.nio.cs,0.0,0.05235298605879584,0.0,0.011362039109753662,0.0637150251685495
sun.reflect.annotation,0.0,0.08842635262973722,0.0,0.010510033513785232,0.09893638614352246
sun.util.calendar,0.0,0.10742978847875936,0.0,0.012625564482353208,0.12005535296111257
sun.util.locale.provider,0.0,0.14221783682285455,0.0,0.01720783113802496,0.1594256679608795
sun.util.resources,0.0,0.022652961860833026,0.0,0.002568022984093937,0.025220984844926964
