method,package1,package2,dram1,dram2,energy
ChiPointer.<init>|VertexData.getVertexValuePtr|GraphChiEngine.initVertices,0.04470402348685133,0.0,0.008917506812417823,0.0,0.05362153029926915
ChiVertex.<init>|GraphChiEngine.initVertices|GraphChiEngine.run,1.940141797098183,1.097238671182441,0.3498052325074216,0.16996401986281529,3.5571497206508607
ChiVertex.getValue|Pagerank.update|GraphChiEngine$3.run,2.004856394346485,0.03899471812727357,0.19866392577640374,0.008651942378881564,2.2511669806290437
ChiVertex.numOutEdges|Pagerank.update|GraphChiEngine$3.run,0.0,0.0241153130430868,0.0,0.006051512075279777,0.030166825118366578
ChiVertex.setDataPtr|GraphChiEngine.initVertices|GraphChiEngine.run,0.03186033332895022,0.05839033333662276,0.006289999999959642,0.011020000000523092,0.10756066666605572
ChiVertex.setValue|Pagerank.update|GraphChiEngine$3.run,0.0029838888902246714,0.0,0.00047619047628748887,0.0,0.0034600793665121605
DataBlockManager.dereference|ChiVertex.getValue|Pagerank.update,0.04714845019097083,0.019444158705552148,0.006570687186549202,0.0028656956915790307,0.07602899177465121
DataBlockManager.dereference|VertexAggregator.foreach|Toplist.topListFloat,0.07517500000055102,0.0,0.013270000000678312,0.0,0.08844500000122933
DataBlockManager.getRawBlock|DataBlockManager.dereference|ChiVertex.getValue,0.011730257575094015,0.0,0.004179350649257008,0.0,0.015909608224351023
DataBlockManager.getRawBlock|DataBlockManager.dereference|VertexAggregator.foreach,0.12731911111040972,0.0,0.022904999999607552,0.0,0.15022411111001727
DataBlockManager.getRawBlock|DataBlockManager.writeValue|ChiVertex.setValue,0.017474675308698055,0.0,0.004755554224184459,0.0,0.022230229532882513
DataBlockManager.writeValue|ChiVertex.setValue|Pagerank.update,0.01744578238288889,4.528474969084968,0.0037192262142082353,0.6874393900662333,5.237079367748298
DegreeData.getDegree|GraphChiEngine.determineNextWindow|GraphChiEngine.run,0.38303092340452555,1.3435918182121465,0.06847947973778382,0.227430874090583,2.0225330954450387
DegreeData.getDegree|GraphChiEngine.initVertices|GraphChiEngine.run,78.83398677562123,0.21886595829176672,8.349286819312463,0.0262499922633657,87.42838954548883
DiagnosticCommandImpl.getMBeanInfo|DefaultMBeanServerInterceptor.getNewMBeanClassName|DefaultMBeanServerInterceptor.registerMBean,0.0,0.07519846154490295,0.0,0.01269230769256142,0.08789076923746438
FloatConverter.getValue|FloatConverter.getValue|DataBlockManager.dereference,0.0563557777818965,0.0,0.011699999999513641,0.0,0.06805577778141014
FloatConverter.setValue|FloatConverter.setValue|DataBlockManager.writeValue,0.8745586392528519,0.0,0.17549683161764676,0.0,1.0500554708704988
GraphChiContext.getIteration|Pagerank.update|GraphChiEngine$3.run,0.0,0.0,0.0,0.0,0.0
GraphChiEngine$2.run|Executors$RunnableAdapter.call|FutureTask.run,1.1655785825315939,1.2050931197018646,0.23179807065196928,0.3007511142416144,2.903220887127042
GraphChiEngine$3.run|Executors$RunnableAdapter.call|FutureTask.run,3.1616129149508136,0.2571389054392133,0.43951366467453634,0.0462154113215251,3.904480896386088
GraphChiEngine.determineNextWindow|GraphChiEngine.run|Pagerank.main,0.14851453851446847,0.4311088182728083,0.025034631198961235,0.07451690355767011,0.6791748915439081
GraphChiEngine.initVertices|GraphChiEngine.run|Pagerank.main,0.862558321145067,0.7420773362924459,0.1481325936287082,0.09261467081127572,1.8453829218774969
ImmutableDescriptor.makeMap|ImmutableDescriptor.makeMap|ImmutableDescriptor.<init>,0.0,0.04044586666859686,0.0,0.007712000000174158,0.04815786666877102
JmxMBeanServer.<init>|JmxMBeanServer.newMBeanServer|MBeanServerBuilder.newMBeanServer,0.0,0.03953466666086266,0.0,0.00771199999920403,0.04724666666006669
LongVector.addElement|ConstPool.addItem0|ConstPool.readOne,0.0,0.018066333335203428,0.0,0.002740000001116034,0.02080633333631946
MBeanInfo.<init>|MBeanInfo.<init>|MBeanServerDelegateImpl.<init>,0.0,0.04044586666859686,0.0,0.007712000000174158,0.04815786666877102
ManagementFactory.createGarbageCollector|MemoryImpl.getMemoryManagers0|MemoryImpl.getMemoryManagers,0.0,0.0678710000065621,0.0,0.01239499999792315,0.08026600000448525
MemoryShard.loadAdjChunk|MemoryShard.access$000|MemoryShard$1.run,0.0,0.0,0.0,0.0,0.0
Pagerank.update|GraphChiEngine$3.run|Executors$RunnableAdapter.call,0.01546287324227837,4.536445413044677,0.002778382924472025,0.690517795989696,5.245204465201124
ShardIndex.sparserIndex|MemoryShard.loadAdj|MemoryShard.loadVertices,0.014064270555888093,0.0,0.0030965869548144898,0.0,0.017160857510702583
Toplist$1.callback|VertexAggregator.foreach|Toplist.topListFloat,0.0,0.0,0.0,0.0,0.0
TypeChecker.atMethodCallCore|TypeChecker.atCallExpr|JvstTypeChecker.atCallExpr,0.0,0.0,0.0,0.0,0.0
Util.newObjectName|MBeanServerDelegate.<clinit>|JmxMBeanServer.newMBeanServerDelegate,0.0,0.07718106666579842,0.0,0.014280000000144353,0.09146106666594278
VertexAggregator.foreach|Toplist.topListFloat|Pagerank.main,0.05021166666119825,0.0,0.008159999997587875,0.0,0.058371666658786125
VertexData.getVertexValuePtr|GraphChiEngine.initVertices|GraphChiEngine.run,0.2570399388215784,0.3398921918998945,0.043909566856921455,0.05373176187813521,0.6945734594565296
VertexData.getVertexValuePtr|VertexAggregator.foreach|Toplist.topListFloat,0.04252624999935506,0.0,0.00721499999963271,0.0,0.04974124999898777
