method,package1,package2,dram1,dram2,energy
com.sun.jmx.interceptor,0.08747746373443853,0.0,0.011942362382329291,0.0,0.09941982611676782
com.sun.jmx.mbeanserver,0.4195360176247899,0.0,0.06601054481852772,0.0,0.4855465624433176
edu.cmu.graphchi,43.75502036638657,1.8472582553160202,4.74903754674314,0.3608373236854442,50.71215349213117
edu.cmu.graphchi.apps,0.007580602578264054,0.02674081348211207,0.0013241883800485669,0.005741473422849246,0.04138707786327394
edu.cmu.graphchi.datablocks,0.12151656498220782,0.3451143342237511,0.023765011570746022,0.05692415249578771,0.5473200632724926
edu.cmu.graphchi.engine,3.568549182260719,2.8866566254461583,0.5482879694567473,0.5158488768337747,7.519342653997398
edu.cmu.graphchi.engine.auxdata,1.2997198918429682,2.8214152854754153,0.205334914884444,0.5856617161321789,4.9121318083350065
edu.cmu.graphchi.vertexdata,0.0,0.281790761902119,0.0,0.05255357142977161,0.3343443333318906
javassist,0.0556323530292572,0.0,0.007609039563324854,0.0,0.06324139259258206
javax.management,0.10132917681154048,0.0,0.014197465642677435,0.0,0.11552664245421791
org.slf4j.helpers,0.0876117217399256,0.0,0.014295687269274219,0.0,0.10190740900919981
sun.reflect.annotation,0.0607919972315969,0.0,0.00906417411145074,0.0,0.06985617134304764
sun.util.locale.provider,0.0,0.026855466666165742,0.0,0.004104000000127901,0.030959466666293643
sun.util.resources,0.0,0.057096266665030274,0.0,0.007691999999709272,0.06478826666473955
