method,package1,package2,dram1,dram2,energy
com.sun.jmx.interceptor,0.06919366666988935,0.0,0.008885000000494376,0.0,0.07807866667038373
com.sun.jmx.mbeanserver,0.2082109999998162,0.0,0.034379999998539766,0.0,0.24259099999835598
edu.cmu.graphchi,0.04345105822200856,74.74821003349288,0.005457144570758251,9.199950967896426,83.99706920418207
edu.cmu.graphchi.apps,0.03674189715129318,0.025966693703291813,0.004243224914541469,0.005313704509715007,0.07226552027884148
edu.cmu.graphchi.datablocks,0.039343866691118286,0.23105239734941352,0.005757238587432776,0.05827607837941345,0.334429581007378
edu.cmu.graphchi.engine,0.9466722421251896,6.369432100423561,0.12700831047655972,1.4007174925688233,8.843830145594133
edu.cmu.graphchi.engine.auxdata,0.0,9.93816294191215,0.0,2.0650894110976696,12.00325235300982
edu.cmu.graphchi.util,0.0,0.0,0.0,0.0,0.0
edu.cmu.graphchi.vertexdata,0.003272361915877969,0.07412733332603239,0.0005712608672164227,0.012345000001611574,0.09031595611073837
javassist.bytecode,0.026163666669162918,0.0,0.004139999999703528,0.0,0.03030366666886645
sun.misc,0.12585466666981424,0.0,0.01854500000020683,0.0,0.14439966667002108
sun.net.www,0.05832019261460418,0.0,0.009698151953468966,0.0,0.06801834456807315
sun.reflect.generics.parser,0.06154366666548109,0.0,0.011020000000523092,0.0,0.07256366666600418
sun.util.calendar,0.06465633333330817,0.0,0.00960000000001552,0.0,0.07425633333332368
sun.util.locale.provider,0.06597900000148607,0.0,0.011020000000523092,0.0,0.07699900000200917
