method,package1,package2,dram1,dram2,energy
chappie,0.03998403215407395,0.0,0.008659032618750827,0.0,0.048643064772824776
com.sun.jmx.mbeanserver,0.0,0.09663901125202445,0.0,0.01129333606132276,0.10793234731334722
com.yammer.metrics.core,0.0,0.018886611507306385,0.0,0.0022422185172043803,0.021128830024510766
com.yammer.metrics.reporting,0.0,0.05847084896488356,0.0,0.00983273563444129,0.06830358459932485
edu.cmu.graphchi,1.7847591286069793,3.0491555805789403,0.3331835471987076,0.38624162602340845,5.553339882408036
edu.cmu.graphchi.apps,0.019718042021207322,0.013115117234975143,0.0034973774047582585,0.0017681450654332205,0.03809868172637394
edu.cmu.graphchi.datablocks,0.5734614592735127,0.06604622567817357,0.1054848167192968,0.009757687422997586,0.7547501890939805
edu.cmu.graphchi.engine,2.184201222209494,2.961074504125497,0.40858055079073763,0.47382391967241444,6.027680196798142
edu.cmu.graphchi.engine.auxdata,1.2374166039914942,4.240567609328778,0.23159124307714035,0.6230394299325624,6.332614886329976
edu.cmu.graphchi.shards,0.0,0.0,0.0,0.0,0.0
edu.cmu.graphchi.util,0.1544596666644793,0.0,0.021874999999757463,0.0,0.17633466666423675
edu.cmu.graphchi.vertexdata,0.5134268502774165,0.0,0.09833773124965106,0.0,0.6117645815270676
javax.management,0.0,0.06630912397682799,0.0,0.007778510152818663,0.07408763412964665
org.slf4j.helpers,0.0,0.052511656975197184,0.0,0.005641884906153097,0.05815354188135028
sun.management,0.0,0.034543678009735915,0.0,0.005265348967913382,0.0398090269776493
sun.misc,47.424735603944704,0.0,5.0758940995783615,0.0,52.50062970352307
sun.reflect.generics.parser,0.0,0.07751799990487943,0.0,0.012285590367599995,0.08980359027247942
sun.util.resources,0.0,0.03500830384260594,0.0,0.0050740246316756,0.04008232847428154
