method,package1,package2,dram1,dram2,energy
ArrayList.elementData,9.248504054019701,0.010965972006585032,0.9864292146885058,0.001937903406803945,10.247837144121595
ArrayList.rangeCheck,0.02639668055715116,12.234080030671622,0.008145821181488223,1.8698228776036325,14.138445410013894
Calendar$Builder.build,0.0,0.0,0.0,0.0,0.0
Character.toUpperCase,0.0,0.019002222219973598,0.0,0.003666666666605225,0.022668888886578822
CodeSource.matchCerts,0.0,0.019788999999743987,0.0,0.0036649999997785524,0.02345399999952254
Collections.singletonList,0.0,0.01973466667307851,0.0,0.002755000000130773,0.022489666673209285
ConcurrentHashMap.put,0.0,0.005018444444027005,0.0,0.0009183333333769244,0.005936777777403929
ConcurrentSkipListMap.doPut,0.0,0.04939766666696717,0.0,0.00959999999880286,0.05899766666577003
Currency.<clinit>,0.0,0.017198333335626453,0.0,0.003218333333481698,0.02041666666910815
DataInputStream.readUTF,0.0,0.06103533333710705,0.0,0.011014999998830412,0.07205033333593747
FileOutputStream.open0,0.0,0.0,0.0,0.0,0.0
Float.<init>,0.0020180565977527404,0.02643529731489333,0.00045162288930848974,0.003520116607114505,0.032425093409069065
Float.floatValue,0.014504346341354682,0.0007839695801936295,0.002783121951204787,0.00010550927333487288,0.01817694714608797
Float.valueOf,0.002998914902216392,0.04733680425755836,0.0005441102242750569,0.009486301282167469,0.06036613066621728
Logger.<init>,0.0,0.0,0.0,0.0,0.0
RandomAccessFile.readBytes,0.05543474093881326,0.20078566666537273,0.014716430313246407,0.03789499999887387,0.30883183791630625
RandomAccessFile.writeBytes,0.16037159562784586,0.04757561896285201,0.029286908001874366,0.011342954431513168,0.2485770770240854
ReentrantReadWriteLock$Sync.<init>,0.0,0.05122899999453996,0.0,0.009640000000217695,0.06086899999475766
System.arraycopy,0.13624039605410518,0.0,0.030018414512925376,0.0,0.16625881056703057
TreeMap$EntrySet.iterator,0.0,0.06518566666636616,0.0,0.012420000000323244,0.0776056666666894
ZipFile.getEntry,0.0,0.019002222219973598,0.0,0.003666666666605225,0.022668888886578822
