method,hits
AbstractQueuedSynchronizer$ConditionObject.addConditionWaiter,2
ArrayList.elementData,2
ArrayList.rangeCheck,4
BufferedInputStream.read,8
Class.getDeclaredConstructors0,2
ClassLoader.initSystemClassLoader,2
Collections.singleton,2
ConcurrentHashMap.keySet,2
DirectLongBufferU.ix,2
Float.<init>,8
Float.floatValue,2
Float.valueOf,6
Integer.valueOf,2
LogManager$LoggerContext.<clinit>,2
Object.wait,2
RandomAccessFile.readBytes,18
RandomAccessFile.writeBytes,28
ReentrantReadWriteLock.<init>,2
ReflectAccess.copyMethod,2
SimpleDateFormat.initializeCalendar,2
System.arraycopy,10
ThreadPoolExecutor$Worker.tryLock,2
TreeMap$EntrySet.<init>,2
TreeMap.size,2
TreeSet.size,2
