method,package1,package2,dram1,dram2,energy
ArrayList.rangeCheck|ArrayList.get|DataBlockManager.getRawBlock,0.014420236737748806,0.02066812108739019,0.004330138060943988,0.005400421617944192,0.04481891750402718
Arrays.copyOf|ArrayList.grow|ArrayList.ensureExplicitCapacity,0.0,0.05766971428446205,0.0,0.00944571428616265,0.06711542857062469
BufferedInputStream.<init>|BufferedInputStream.<init>|ClassPool.makeClass,0.0,0.04861885714178372,0.0,0.008262857142004316,0.056881714283788035
BufferedInputStream.<init>|BufferedInputStream.<init>|CtClassType.getClassFile3,0.0,0.09169228572032546,0.0,0.015347142857665724,0.10703942857799119
BufferedInputStream.read|DataInputStream.readFully|DataInputStream.readUTF,0.0,0.10150133333324143,0.0,0.016469999999875046,0.11797133333311648
ByteArrayInputStream.read|DataInputStream.readByte|ZoneInfoFile.readEpochSec,0.0,0.0,0.0,0.0,0.0
Class.forName0|Class.forName|CoreReflectionFactory.makeNamedType,0.0,0.07604966666743469,0.0,0.011030000000270471,0.08707966666770517
ClassLoader.defineClass1|ClassLoader.defineClass|SecureClassLoader.defineClass,0.0,0.0,0.0,0.0,0.0
Executors.newScheduledThreadPool|ThreadPools.newScheduledThreadPool|MetricsRegistry.newMeterTickThreadPool,0.0,0.05934666666629102,0.0,0.009619999999510279,0.0689666666658013
Float.<init>|Float.valueOf|Pagerank.update,0.0,0.002053685714296686,0.0,0.00031964285714950944,0.0023733285714461956
Float.floatValue|Pagerank.update|GraphChiEngine$3.run,0.0,0.010786186046167386,0.0,0.0018990697673532766,0.012685255813520662
Float.isNaN|WeakHashMap.<init>|WeakHashMap.<init>,0.0,0.05766971428446205,0.0,0.00944571428616265,0.06711542857062469
Float.valueOf|FloatConverter.getValue|FloatConverter.getValue,0.0,0.10394722452517793,0.0,0.02246242729805219,0.12640965182323013
Float.valueOf|Pagerank.update|GraphChiEngine$3.run,0.020155412547614448,0.00798196859634064,0.005692644328993792,0.0015352890804347207,0.035365314553383605
Integer.valueOf|VertexData$1.next|VertexData$1.next,0.0,0.0421956666590025,0.0,0.011525000000498643,0.05372066665950114
PlatformComponent.<clinit>|ManagementFactory.getPlatformMBeanServer|JmxReporter.<init>,0.0,0.042445428569668105,0.0,0.0070885714293191454,0.04953399999898725
RandomAccessFile.readBytes|RandomAccessFile.read|RandomAccessFile.read_,0.15753314865522716,0.254349166664421,0.026425533499413408,0.0519149999995534,0.49022284881861494
RandomAccessFile.writeBytes|RandomAccessFile.write|RandomAccessFile.writeBytes,0.08148126104160439,0.04298473414930333,0.008812195869770107,0.0069326831809991725,0.140210874241677
System.arraycopy|DataBlockManager.dereference|ChiVertex.getValue,0.0,0.0,0.0,0.0,0.0
System.arraycopy|DegreeData.load|GraphChiEngine.determineNextWindow,0.0899122033098893,0.043526857143401036,0.017585611633102793,0.008772857143152837,0.159797529229546
Thread.run,0.0,0.0,0.0,0.0,0.0
Throwable.getStackTraceElement|System$2.getStackTraceElement|LogRecord.inferCaller,0.0,0.0,0.0,0.0,0.0
TreeSet.size|Toplist$1.callback|Toplist$1.callback,0.0,0.06766766665775018,0.0,0.01606000000053124,0.08372766665828141
UnixFileSystem.getBooleanAttributes0|UnixFileSystem.getBooleanAttributes|File.exists,0.0,0.0663043333333917,0.0,0.010990000000068296,0.07729433333345999
