method,package1,package2,dram1,dram2,energy
ArrayList,0.03004523778971045,0.08531950000178767,0.008558877556644839,0.017553749999933643,0.1414773653480766
BufferedInputStream,0.0,0.07380373333192741,0.0,0.010419000000547384,0.08422273333247479
Chaperone,0.0,0.08998599999661867,0.0,0.011304999999993015,0.10129099999661169
ChiLogger$SingleLineFormatter,0.0,0.064758333338735,0.0,0.010260000000319751,0.07501833333905475
ChiPointer,0.0,0.16098916896893675,0.0,0.02746692423629219,0.18845609320522894
ChiVertex,0.035398669139748,2.6156520375106194,0.00703656255128042,0.43887963630034516,3.096966905501993
Class,0.0,0.09196474999771452,0.0,0.012375000000247384,0.1043397499979619
ClassLoader,0.0,0.0,0.0,0.0,0.0
DataBlockManager,0.12369998996597403,0.20733475188285194,0.021639091864081736,0.03503534548117194,0.38770917919407966
DataInputStream,0.0,0.06301260000327602,0.0,0.0075539999997999985,0.07056660000307602
DegreeData,0.0,3.441150080573327,0.0,0.4953584438782139,3.9365085244515408
Float,0.02450583476664208,0.18326529074981712,0.004983132197662914,0.03354467225192252,0.24629892996604463
FloatConverter,0.0026781056910361416,0.008714375871491662,0.00048085365853058477,0.000898056562759932,0.01277139178381832
GraphChiEngine,0.0,2.5971906282161603,0.0,0.4022256015541097,2.99941622977027
GraphChiEngine$2,0.2905257713850753,0.08531950000178767,0.05930409602689043,0.018432321428658076,0.45358168884241146
GraphChiEngine$3,0.23215113056441394,0.2656564015166452,0.051216408562297644,0.043012963973753156,0.59203690461711
Gregorian,0.0,0.12388099999710295,0.0,0.019280000000435397,0.14316099999753834
ImmutableDescriptor,0.0,0.04169261904843595,0.0,0.006874999999993071,0.04856761904842902
Inflater,0.0,0.07446266667102464,0.0,0.011579999999715556,0.08604266667074019
Integer,0.0,0.08072933332490112,0.0,0.012015000001459459,0.09274433332636058
JmxMBeanServer,0.0,0.039469523811324805,0.0,0.007882142856812737,0.047351666668137546
ManagementFactory,0.0,0.1111653333355207,0.0,0.01650000000032984,0.12766533333585053
ManagementFactoryHelper,0.0,0.07932533333466077,0.0,0.010980000000320915,0.09030533333498168
Math,0.0,0.12388099999710295,0.0,0.019280000000435397,0.14316099999753834
MemoryShard,0.0,0.0,0.0,0.0,0.0
NumberFormatProviderImpl,0.0,0.064758333338735,0.0,0.010260000000319751,0.07501833333905475
Pagerank,0.009479503552824491,0.004890500866683506,0.0017538638046650443,0.0008783989749617082,0.01700226719913475
PlatformComponent,0.0,0.05202523808942975,0.0,0.008871428571659462,0.06089666666108921
RandomAccessFile,0.17933747658348936,0.17425499999080785,0.031972455741625265,0.025439999998828476,0.41100493231475094
Repository,0.0,0.039469523811324805,0.0,0.007882142856812737,0.047351666668137546
SimpleDateFormat,0.0,0.0,0.0,0.0,0.0
StandardMBean,0.0,0.04514159999671392,0.0,0.0066030000001774175,0.051744599996891336
String,0.0,0.06301260000327602,0.0,0.0075539999997999985,0.07056660000307602
System,0.0,0.0,0.0,0.0,0.0
Thread,0.0,0.0,0.0,0.0,0.0
Toplist$1,0.0,0.2275361833361482,0.0,0.03707950000016354,0.26461568333631175
TreeMap,0.0,0.04169261904843595,0.0,0.006874999999993071,0.04856761904842902
URLClassLoader,0.0,0.07096366666761847,0.0,0.009590000000268144,0.08055366666788662
URLJarFile,0.0,0.0186156666604802,0.0,0.0027399999999033753,0.021355666660383577
Unsafe,0.0,0.0,0.0,0.0,0.0
VertexAggregator,0.0,0.41261766666624067,0.0,0.06702500000028522,0.4796426666665259
VertexData,0.0,0.5668119342455599,0.0,0.09258231986264041,0.6593942541082003
VertexData$1,0.0,0.0,0.0,0.0,0.0
ZoneInfoFile,0.0,0.0,0.0,0.0,0.0
