method,package1,package2,dram1,dram2,energy
ArrayList.elementData,0.0,0.012195121951219513,0.0,0.0029403658536022877,0.0151354878048218
ArrayList.rangeCheck,0.010917668853331673,0.05186224445379862,0.0012103872112367217,0.01602601346837807,0.08001631398674508
AttributeInfo.<init>,0.026163666669162918,0.0,0.004139999999703528,0.0,0.03030366666886645
BufferedInputStream.read,0.06597900000148607,0.0,0.011020000000523092,0.0,0.07699900000200917
ChiPointer.<init>,0.0,0.16367600001588772,0.0,0.041434999999182764,0.2051110000150705
ChiVertex.<init>,0.0,74.34287597425705,0.0,9.118961376722782,83.46183735097983
ChiVertex.getValue,0.00948251215790516,0.0,0.000983235112984598,0.0,0.010465747270889758
ChiVertex.numOutEdges,0.020945740202718607,0.03781459725933972,0.0028177973170469177,0.011502294587795,0.07308042936690025
ChiVertex.setDataPtr,0.0,0.3666131791475734,0.0,0.06924123597983033,0.43585441512740375
ChiVertex.setValue,0.013022805861384792,0.0009062828289137947,0.0016561121407267356,0.00024606060601813215,0.015831261437043453
Class.getDeclaredMethods0,0.06154366666548109,0.0,0.011020000000523092,0.0,0.07256366666600418
ClassLoader.findBootstrapClass,0.07267233333065329,0.0,0.01238999999986845,0.0,0.08506233333052174
Collections.singletonList,0.10941566666103122,0.0,0.017825000000205666,0.0,0.1272406666612369
ComparableTimSort.sort,0.06760477777869607,0.0,0.010243749999669186,0.0,0.07784852777836526
ConcurrentSkipListMap.doPut,0.0,0.05607066666319345,0.0,0.010604999999486608,0.06667566666268006
DataBlockManager.dereference,0.0045495778611893065,0.03024045527642589,0.0005852251407572621,0.006118107908945028,0.041493366187317485
DataBlockManager.getRawBlock,0.0,0.007728666666838706,0.0,0.0021403030302896485,0.009868969697128355
DataBlockManager.writeValue,0.026570851949029937,0.0,0.004304932226072695,0.0,0.030875784175102634
DefaultMBeanServerInterceptor.makeResourceContextFor,0.06919366666988935,0.0,0.008885000000494376,0.0,0.07807866667038373
DegreeData.getDegree,0.0,5.882740751745629,0.0,1.2168915335144121,7.099632285260041
FileInputStream.close0,0.0,0.0,0.0,0.0,0.0
FileOutputStream.writeBytes,0.0,0.0,0.0,0.0,0.0
Float.<init>,0.0,0.018262027240656037,0.0,0.004138963018768909,0.022400990259424946
Float.floatValue,0.01721368203655495,0.0,0.0019274305057193413,0.0,0.019141112542274293
Float.valueOf,0.008510632367926239,0.0020906402443825953,0.001279737457366484,0.000480114329215345,0.012361124398890663
FloatConverter.setValue,0.008223436880899042,0.029407275390261202,0.0008670812206028184,0.008582667440996006,0.04708046093275907
GraphChiEngine$2.run,0.6168157062290677,0.2236122547301037,0.08077301862266678,0.05982050859052533,0.9810214881723635
GraphChiEngine$3.run,0.32985653589612196,0.275402462510893,0.04623529185389293,0.06862848606054898,0.7201227763214568
GraphChiEngine.determineNextWindow,0.0,1.2911286087077718,0.0,0.2517900899179757,1.5429186986257475
GraphChiEngine.initVertices,0.0,4.579288774474793,0.0,1.0204784079997733,5.599767182474566
Introspector.getMXBeanInterface,0.019287000002805144,0.0,0.0027449999979580753,0.0,0.02203200000076322
JmxMBeanServer.<init>,0.05668099999699431,0.0,0.00961500000024292,0.0,0.06629599999723723
Logger.demandLogger,0.0,0.0,0.0,0.0,0.0
MBeanServerDelegateImpl.<clinit>,0.056660999999924876,0.0,0.009659999999712454,0.0,0.06632099999963734
MXBeanIntrospector.mFrom,0.07558200000009188,0.0,0.012360000000626314,0.0,0.0879420000007182
Method.getFactory,0.04040533332833244,0.0,0.006870000001072185,0.0,0.047275333329404624
NumberFormatProviderImpl.getInstance,0.06597900000148607,0.0,0.011020000000523092,0.0,0.07699900000200917
Object.<init>,0.05879733333131298,0.0,0.008239999999204883,0.0,0.06703733333051787
Pagerank.update,0.03674189715129318,0.025966693703291813,0.004243224914541469,0.005313704509715007,0.07226552027884148
ParseUtil.encodePath,0.05832019261460418,0.0,0.009698151953468966,0.0,0.06801834456807315
RandomAccessFile.readBytes,0.0,0.2741055261001014,0.0,0.06735409154370577,0.34145961764380717
RandomAccessFile.writeBytes,0.1459974800094303,0.042317666666349396,0.008625604558988245,0.010229999999864956,0.2071707512346329
ResourceBundle.putBundleInCache,0.11031099999672732,0.0,0.017839999999220403,0.0,0.12815099999594773
SignatureParser.parseTypeVariableSignature,0.06154366666548109,0.0,0.011020000000523092,0.0,0.07256366666600418
SimpleDateFormat.initialize,0.026163666669162918,0.0,0.004139999999703528,0.0,0.03030366666886645
String.charAt,0.032918333333024435,0.0,0.004079999998793936,0.0,0.03699833333181837
String.indexOf,0.11031099999672732,0.0,0.017839999999220403,0.0,0.12815099999594773
System.arraycopy,0.0,0.06481933334725909,0.0,0.023905000000619715,0.0887243333478788
Toplist$1.callback,0.0,0.0,0.0,0.0,0.0
TreeMap$KeyIterator.<init>,0.09891780555012196,0.0,0.015088333331227154,0.0,0.11400613888134911
URLClassPath$FileLoader.getResource,0.06919366666988935,0.0,0.008885000000494376,0.0,0.07807866667038373
Unsafe.compareAndSwapObject,0.056660999999924876,0.0,0.009659999999712454,0.0,0.06632099999963734
VertexAggregator.foreach,0.003272361915877969,0.07412733332603239,0.0005712608672164227,0.012345000001611574,0.09031595611073837
VertexData.getVertexValuePtr,0.0,4.055422190166522,0.0,0.8481978775832578,4.903620067749779
ZoneInfoFile.getZoneInfo,0.06465633333330817,0.0,0.00960000000001552,0.0,0.07425633333332368
