method,package1,package2,dram1,dram2,energy
AbsoluteTimeDateFormat.<init>,0.0,0.0,0.0,0.0,0.0
AbstractNameQuery.createURI,0.0,0.0,0.0,0.0,0.0
AbstractNameQuery.matches,0.003866495412886261,0.0,0.0005130275228587321,0.0,0.004379522935744993
AbstractRepository.contains,0.08442028220806547,0.0,0.010629097573022526,0.0,0.09504937978108799
AbstractSAXParser.startDocument,0.0,0.0,0.0,0.0,0.0
AbstractSinglePoolConnectionInterceptor.<init>,0.0007269640504681048,0.0,8.998651469860305e-05,0.0,0.0008169505651667079
AbstractSinglePoolConnectionInterceptor.getConnection,0.0,0.0,0.0,0.0,0.0
AbstractSinglePoolConnectionInterceptor.returnConnection,0.0,0.0,0.0,0.0,0.0
AccountDataBean.pcGetaccountID,0.0,0.0,0.0,0.0,0.0
AnnotationDeployer.<init>,0.0,0.0,0.0,0.0,0.0
Assembler.<init>,0.0,0.0,0.0,0.0,0.0
Assembler.createApplication,0.00467006158137151,0.0,0.0007104155588334211,0.0,0.005380477140204931
AttributeInfo.<init>,0.0,0.0,0.0,0.0,0.0
AxisServiceReference.createServiceInterfaceProxy,0.0,0.0,0.0,0.0,0.0
B2I.openScan,0.0,0.0,0.0,0.0,0.0
B2IFactory.readConglomerate,0.00012245503724537426,0.0,1.0467733620130153e-05,0.0,0.0001329227708655044
BCClass.newConstructorBuilder,0.0,0.0,0.0,0.0,0.0
BaseDataFileFactory.addContainer,0.0,0.0,0.0,0.0,0.0
BaseDataFileFactory.openContainer,0.0,0.0,0.0,0.0,0.0
BaseDataFileFactoryJ4.newRAFContainer,0.0,0.0,0.0,0.0,0.0
BaseIndex.compareRows,0.0,0.0,0.0,0.0,0.0
BaseIndex.compareValues,0.0,0.0,0.0,0.0,0.0
BaseIndex.getCostRangeIndex,0.0,0.0,0.0,0.0,0.0
BaseMonitor.classFromIdentifier,0.0,0.0,0.0,0.0,0.0
BaseMonitor.getImplementations,0.0008864584220479536,0.0,8.736043301897258e-05,0.0,0.0009738188550669261
BasicDependencyManager.<init>,0.0,0.0865023012741737,0.0,0.010540421315185705,0.0970427225893594
BasicKernel.loadGBean,0.06504333333214163,0.0,0.007040000001628263,0.0,0.07208333333376989
BasicLifecycleMonitor.addSource,0.0,0.0,0.0,0.0,0.0
BasicProxyManager$ManagedProxyFactory.<init>,0.04848479166563872,0.0,0.0034124999986791713,0.0,0.05189729166431789
BasicRegistry.listGBeans,4.076173913072917e-05,0.0,6.991304361018474e-06,0.0,4.775304349174764e-05
Benchmark.deleteTree,0.0055849534883448135,0.0,0.0007469767441543526,0.0,0.006331930232499166
Benchmark.fileFromInputStream,0.0,3.4998785958743377,0.0,0.3233926598631945,3.823271255737532
Benchmark.unpackZipStream,0.0,0.06736373702314805,0.0,0.010503146378340177,0.07786688340148823
ByteBufferPacket.write,0.0,0.0,0.0,0.0,0.0
CacheEntry.unlock,0.0,0.00028475760609638647,0.0,2.142037186313133e-05,0.0003061779779595178
CachedPage.readPage,0.0007003568951529821,0.0,1.414687760194975e-05,0.0,0.0007145037727549318
CalendarProviderImpl.getInstance,0.0,0.0,0.0,0.0,0.0
CalendarSystem.forName,0.0,0.0,0.0,0.0,0.0
Call.query,0.0,0.0,0.0,0.0,0.0
Chaperone.retire,0.0,0.0,0.0,0.0,0.0
ClassClassPath.find,0.0,9.416554560976466e-05,0.0,0.0,9.416554560976466e-05
ClassEmitter.begin_method,0.03588511143289766,0.0,0.004515593894081404,0.0,0.040400705326979064
ClassFile.addMethod2,0.0,0.0,0.0,0.0,0.0
ClassFile.read,0.0,0.0,0.0,0.0,0.0
ClassFileAssembler.emitByte,0.0011742652173700704,0.0,9.997826083512653e-05,0.0,0.0012742434782051968
ClassFileAssembler.opc_if_icmpeq,0.0,0.0,0.0,0.0,0.0
ClassPool.compress,0.0012690712278660252,0.0,0.00016722849691594422,0.0,0.0014362997247819695
ClassPool.makeClass,0.0,0.0,0.0,0.0,0.0
ClassRepository.parse,0.0,0.0,0.0,0.0,0.0
ClassWriter.get,0.004230000000002885,0.0,0.0007459565216381832,0.0,0.004975956521641068
CodeAttribute.<init>,0.0027773260201461557,0.0,0.00017151696517065163,0.0,0.0029488429853168074
ColumnDescriptor.assertAutoinc,0.0,0.0,0.0,0.0,0.0
Command.<init>,0.0,0.0,0.0,0.0,0.0
Command.executeQueryLocal,0.006136615768230988,0.0,0.0008946038279678369,0.0,0.007031219596198825
Command.executeUpdate,0.004853810577257081,0.0,0.0004814891833064694,0.0,0.0053352997605635505
CommandContainer.<init>,0.0,0.0,0.0,0.0,0.0
CommandContainer.query,0.0,0.015834969912622145,0.0,0.0023581343950161418,0.018193104307638288
CommandContainer.recompileIfRequired,0.0,0.0,0.0,0.0,0.0
CommandContainer.update,0.0,0.0,0.0,0.0,0.0
CompareMode.compareString,0.0,0.0,0.0,0.0,0.0
Comparison.createIndexConditions,0.0,0.0,0.0,0.0,0.0
ConcurrentLockSet$Entry.<init>,0.0,0.0,0.0,0.0,0.0
Config$1.<clinit>,0.0,0.017652596682102485,0.0,0.002553574982185551,0.020206171664288036
ConfigurationFactory.<init>,0.0,0.0007563381768541532,0.0,0.00010162939895901791,0.0008579675758131712
ConfigurationResolver.getChildDependencies,0.0396076589174004,0.0,0.004932431312229848,0.0,0.04454009022963025
ConnectionInfo.convertPasswords,0.0,0.0,0.0,0.0,0.0
ConnectionInfo.setTrace,0.0,0.0,0.0,0.0,0.0
ConnectionState.<init>,0.0,0.0,0.0,0.0,0.0
ConnectionTrackingCoordinator.handleReleased,0.0,0.0,0.0,0.0,0.0
ConnectionTrackingInterceptor.returnConnection,0.0,0.0,0.0,0.0,0.0
ConstPool.readOne,0.04285880000024918,0.0,0.005667000000539702,0.0,0.04852580000078888
ConstPool.write,0.0,0.0,0.0,0.0,0.0
ContextFactory.createContext,0.062195000001035325,0.0,0.006249999998544809,0.0,0.06844499999958013
ContextHandlerCollection.class$,0.033406120632342114,0.0,0.003911877624713428,0.0,0.03731799825705554
CoreContainerSystem.<init>,0.0,0.0,0.0,0.0,0.0
CtClassType.getClassFile3,0.0012575277663163555,0.0,9.149374205513784e-05,0.0,0.0013490215083714933
Cur$Locations.<clinit>,0.005738484498155509,0.0,0.0006981722662599794,0.0,0.006436656764415489
DaCapoDBBuilder.addUser,0.0,0.0,0.0,0.0,0.0
DaCapoTrader.doSell,0.0,0.0,0.0,0.0,0.0
DaCapoTrader.printReport,0.00044951755725663117,0.0,5.661068701466105e-05,0.0,0.0005061282442712922
DaCapoTrader.run,0.0,0.0,0.0,0.0,0.0
DataDictionaryImpl.locateSchemaRow,0.0,0.0,0.0,0.0,0.0
DataType.add,0.0016188256881373867,0.0,0.00013045871563826115,0.0,0.0017492844037756477
Database.checkPowerOff,0.0,0.0,0.0,0.0,0.0
Database.findSchema,0.0,0.0,0.0,0.0,0.0
Database.getSessionCount,0.0,0.0,0.0,0.0,0.0
Database.getTrace,0.0,0.0,0.0,0.0,0.0
Database.open,0.0016087522936027408,0.0,0.00013045871563826115,0.0,0.001739211009241002
DatabaseCloser.<init>,0.004009844036706096,0.0,0.000573165137603785,0.0,0.004583009174309881
DbObjectBase.getSQL,0.0020617614678785936,0.0,0.0002267889907704282,0.0,0.002288550458649022
DefaultMXBeanMappingFactory.<clinit>,0.0,0.0,0.0,0.0,0.0
DefaultMXBeanMappingFactory.makeCompositeMapping,0.0,0.0,0.0,0.0,0.0
DefaultMXBeanMappingFactory.makeEnumMapping,0.0,0.0,0.0,0.0,0.0
Delete.update,0.0,0.0,0.0,0.0,0.0
DerInputStream.readVector,0.003030221078438157,0.0,0.0004803121368253464,0.0,0.0035105332152635033
Descriptor.toJavaName,0.0,0.0,0.0,0.0,0.0
DiagnosticCommandImpl.getDiagnosticCommandInfo,0.0007907124027395299,0.0,6.968520466385987e-05,0.0,0.0008603976074033898
DisabledAlgorithmConstraints$Constraint$Operator.<init>,0.0,0.0,0.0,0.0,0.0
DiscoverNamesInFile.findResourceNames,0.0,0.0,0.0,0.0,0.0
DocumentBuilderImpl.newDocument,0.039894222222587636,0.0,0.002595555556817325,0.0,0.042489777779404964
Driver40.newEmbedDatabaseMetaData,0.0,0.0,0.0,0.0,0.0
EPollArrayWrapper.epollWait,0.0,0.0,0.0,0.0,0.0
EmbedPooledConnection.wrapStatement,0.00020870271634316717,0.0,3.163454623655477e-05,0.0,0.00024033726257972194
EmitUtils$9.processElement,0.037414666666639576,0.0,0.002960000002834325,0.0,0.0403746666694739
EnterpriseBeanBuilder.build,0.00043201168832790986,0.0,6.438984759323858e-05,0.0,0.0004964015359211484
Era.<init>,0.000335120443049376,0.0,5.4441590554013077e-05,0.0,0.0003895620336033891
Expression.getBooleanValue,0.0,0.0,0.0,0.0,0.0
ExpressionColumn.getAlias,0.0,0.0,0.0,0.0,0.0
ExpressionColumn.mapColumn,0.0,0.0,0.0,0.0,0.0
ExpressionColumn.mapColumns,0.0,0.0,0.0,0.0,0.0
ExpressionFactory.<clinit>,0.03232849212133601,0.0,0.003945245902342192,0.0,0.036273738023678205
ExpressionVisitor.getType,0.0,0.0,0.0,0.0,0.0
ExtendedPlatformComponent.isUnlockCommercialFeaturesEnabled,0.0,0.0,0.0,0.0,0.0
FieldInfo.read,0.0013908695652350182,0.0,0.00023955978260504628,0.0,0.0016304293478400646
FileChannelImpl.tryLock,0.0,0.0,0.0,0.0,0.0
FileContainer.readHeader,0.0001793730603936571,0.0,1.349194338618723e-05,0.0,0.00019286500377984432
FileDispatcherImpl.force0,0.0,0.0,0.0,0.0,0.0
FileLogger.redo,0.0004723607296757259,0.0,2.7342692642004024e-05,0.0,0.0004997034223177299
FormatableHashtable.readExternal,0.0,9.636048622152873e-05,0.0,6.783073045875454e-06,0.00010314355926740418
GBeanAttribute.<init>,0.0,0.0,0.0,0.0,0.0
GBeanData$V0Externalizable.readExternal,0.0041615963302586885,0.0,0.000599036697250761,0.0,0.00476063302750945
GBeanData.getGBeanInfo,0.0,0.0,0.0,0.0,0.0
GBeanData.getReferencesNames,0.001801935779757172,0.0,0.00018963302757191568,0.0,0.0019915688073290877
GBeanFormatBinding.format,0.0,0.0,0.0,0.0,0.0
GBeanInfoBuilder.addInterface,0.0,0.0,0.0,0.0,0.0
GBeanInstance.<init>,0.0370436274513172,0.0,0.0004473529423943117,0.0,0.037490980393711515
GBeanOperation.<init>,0.0,0.0,0.0,0.0,0.0
GLIBC.getCallSite,0.009064850554381516,0.0,0.0010956858666186034,0.0,0.01016053642100012
GeneratedMethodAccessor16.invoke,0.0032234991304373943,0.0,0.0005380173912778012,0.0,0.0037615165217151957
GeneratedMethodAccessor2.invoke,0.0,0.0,0.0,0.0,0.0
GeneratedMethodAccessor4.invoke,0.005555047491681312,0.0,0.0007480635450602041,0.0,0.006303111036741515
GenericLanguageConnectionContext.<init>,0.0031878295765889533,0.0,0.0002619277385248251,0.0,0.0034497573151137783
GenericLanguageConnectionFactory.newLanguageConnectionContext,0.0,0.0,0.0,0.0,0.0
GeronimoConnectionEventListener.connectionClosed,0.0,0.0,0.0,0.0,0.0
Handler.parseURL,0.0,0.0,0.0,0.0,0.0
Heap.openScan,0.0011707109540796898,0.0,8.38378276929734e-05,0.0,0.0012545487817726632
HttpConnection.getInputStream,0.0,0.0015353140096992235,0.0,0.00021764492754335735,0.0017529589372425808
IOUtil.close,0.0,0.0,0.0,0.0,0.0
IOUtil.drain,0.0,0.0,0.0,0.0,0.0
IdUtil.idChar,0.0,0.0,0.0,0.0,0.0
ImmutableDescriptor.<init>,0.0,0.0,0.0,0.0,0.0
IndexCondition.getCurrentValue,0.0,0.0,0.0,0.0,0.0
IndexCursor.find,0.0,0.0,0.0,0.0,0.0
IndexCursor.getSearchRow,0.0,0.0,0.0,0.0,0.0
IndexSetChanger.openIndexes,0.0,0.0,0.0,0.0,0.0
JMXManagementService$3.run,0.0,0.0,0.0,0.0,0.0
JdbcConnection.checkClosed,0.0,0.0,0.0,0.0,0.0
JdbcConnection.getAutoCommit,0.0,0.0,0.0,0.0,0.0
JdbcConnection.getInternalAutoCommit,0.0,0.0,0.0,0.0,0.0
JdbcConnection.getSession,0.0,0.0,0.0,0.0,0.0
JdbcConnection.prepareStatement,0.00042161185961515424,0.0,5.8838617032268055e-05,0.0,0.0004804504766474223
JdbcConnection.setAutoCommit,0.0,0.0,0.0,0.0,0.0
JdbcConnection.translateSQL,0.0,0.0,0.0,0.0,0.0
JdbcPreparedStatement.executeQuery,0.00024853076093533694,0.0,3.6433080846989065e-05,0.0,0.000284963841782326
JdbcResultSet.checkClosed,0.0,0.0,0.0,0.0,0.0
JdbcResultSet.getColumnIndex,0.0,0.0030161352058463977,0.0,0.0005213430139916938,0.0035374782198380915
JdbcResultSet.getInt,0.0044293407407638855,0.0,0.000532444444521658,0.0,0.004961785185285544
JdbcResultSet.getString,0.0,0.0,0.0,0.0,0.0
JdbcStatement.closeOldResultSet,0.0,0.0,0.0,0.0,0.0
JdbcStatement.executeQuery,0.0,0.0,0.0,0.0,0.0
JdbcStatement.setExecutingStatement,0.0,0.0,0.0,0.0,0.0
JdbcXAConnection$PooledJdbcConnection.checkClosed,0.0058011374046027615,0.0,0.0008383969465743409,0.0,0.006639534351177102
JdbcXAConnection.<init>,0.0018534495412754406,0.0,0.00024330275228840874,0.0,0.0020967522935638493
JsseJce$1.run,0.003030221078438157,0.0,0.0004803121368253464,0.0,0.0035105332152635033
JvstCodeGen.recordVariable,0.0,0.0,0.0,0.0,0.0
KeyFactory$Generator.generateClass,0.0,0.0,0.0,0.0,0.0
Label.<init>,0.0008073364548509929,0.0,0.00013119732440499134,0.0,0.0009385337792559843
Launcher$AppClassLoader.loadClass,0.03173898724997522,0.056066418241949266,0.002187663400270822,0.006782398021739564,0.09677546691393486
Launcher.addJars,0.0,0.06882467087516259,0.0,0.009062709559398922,0.0778873804345615
Launcher.initialize,0.0,0.0,0.0,0.0,0.0
Level2OptimizerFactoryImpl.getOptimizerImpl,0.0,0.0001230055938586441,0.0,2.0525812078347765e-05,0.00014353140593699186
Lex.readIdentifier,0.0,0.0,0.0,0.0,0.0
Lister$CollectionLister.startPacking,0.040158611166424336,0.0,0.004497634579362557,0.0,0.044656245745786895
LocalResult.close,0.0,0.0,0.0,0.0,0.0
LocalResult.getAlias,0.0,0.0,0.0,0.0,0.0
LocalResult.getColumnName,0.0,0.0,0.0,0.0,0.0
LocaleData$1.run,0.002555740451485749,0.0,0.000375196780450025,0.0,0.0029309372319357738
LocalizedResource.class$,0.001552003991773364,0.0,0.00012334724784005907,0.0,0.0016753512396134231
LockableHashtable.put,0.0,0.0,0.0,0.0,0.0
LogFactory.getContextClassLoader,0.0,0.034330947877401576,0.0,0.005329764895445932,0.03966071277284751
LogFileManager.initialize,0.0015639679999731016,0.0,0.00025223999994341287,0.0,0.0018162079999165144
Logger.<clinit>,0.0,0.05631435198902018,0.0,0.0058960642430269114,0.06221041623204709
LoginModuleControlFlag.<clinit>,0.036682448249374264,0.0,0.0045117063918121755,0.0,0.04119415464118644
LongVector.addElement,0.0,0.0,0.0,0.0,0.0
LongVector.elementAt,0.0004266880733591672,0.0,5.408256875944896e-05,0.0,0.00048077064211861614
MBeanFeatureInfo.getDescriptor,0.00010386840210594659,0.0,1.7667198116233893e-05,0.0,0.00012153560022218048
MBeanNotificationInfo.<init>,0.0,0.0,0.0,0.0,0.0
MXBeanIntrospector.getAnalyzer,0.0,0.0,0.0,0.0,0.0
MXBeanIntrospector.getMBeanOperationInfo,0.0,0.0,0.0,0.0,0.0
MXBeanMappingFactory.<clinit>,0.00022525570014040333,0.0,2.7895739552066606e-05,0.0,0.00025315143969246995
MXBeanSupport.getMBeanIntrospector,0.003958677611041182,0.0,0.00045661532178077694,0.0,0.004415292932821959
ManagedConnectionFactoryWrapper.<init>,0.0002077431192380214,0.0,2.669724773288781e-05,0.0,0.0002344403669709092
ManagedConnectionInfo.<init>,0.0,0.0,0.0,0.0,0.0
ManagedConnectionInfo.setLastUsed,0.0,0.0,0.0,0.0,0.0
ManagedXAConnection.localTransactionCommit,0.0,0.0,0.0,0.0,0.0
ManagementFactory.createGarbageCollector,0.0017099486675679898,0.0,0.00013775377624884735,0.0,0.0018477024438168371
ManagementFactory.createMemoryPool,0.001858133925338493,0.0,0.00017772273896588062,0.0,0.0020358566643043736
ManagementFactoryHelper.getBufferPoolMXBeans,0.0008666130571530866,0.0,0.00010090923131013289,0.0,0.0009675222884632195
ManagementFactoryHelper.getClassLoadingMXBean,0.001079321714893294,0.0,0.00013100029237309322,0.0,0.0012103220072663871
ManagementFactoryHelper.getCompilationMXBean,0.0016952660885710472,0.0,0.00013645405891809186,0.0,0.001831720147489139
ManifestDigester.<init>,0.007554213974630958,0.0,0.0010238095634177568,0.0,0.008578023538048716
MemberResolver.getInvalidNames,0.00020164963281232973,0.0,3.7442793504269485e-05,0.0,0.0002390924263165992
MemberResolver.lookupFieldByJvmName2,0.0,0.0,0.0,0.0,0.0
MessageContext.setProperty,0.11437592758776928,0.0,0.009835591742807395,0.0,0.12421151933057667
Messages.<clinit>,0.003001734782573413,0.0,0.0005099673913165411,0.0,0.003511702173889954
MetaIndex.mayContain,0.0,0.04028599647982234,0.0,0.00024306254514061754,0.040529059024962955
MethodAccessorGenerator.buildInternalSignature,0.00017078260868362596,0.0,2.7246376812224082e-05,0.0,0.00019802898549585004
MethodAccessorGenerator.emitInvoke,0.0,0.0,0.0,0.0,0.0
MultiParentClassLoader.checkParents,9.855045870249799e-05,0.0,1.8715596358118784e-05,0.0,0.00011726605506061678
MultiParentClassLoader.getResource,0.0,0.0,0.0,0.0,0.0
MultiParentClassLoader.loadClassInternal,0.0699505640755294,0.004477681877199136,0.008544019728503414,0.0006298867740485777,0.0836021524552805
MultiParentClassLoader.loadOptimizedClass,0.023866540724642393,0.005744508299884175,0.002458343297450669,0.0008599011948718138,0.032929293516849055
MultiVersionCursor.loadNext,0.0,0.0,0.0,0.0,0.0
MultiVersionCursor.next,0.00563703174598881,0.0,0.00037916666665946,0.0,0.006016198412648269
MultiVersionCursor.step,0.0,0.0,0.0,0.0,0.0
MultiVersionIndex.add,0.0,0.0,0.0,0.0,0.0
MultiVersionIndex.commit,0.0,0.0,0.0,0.0,0.0
MultiVersionIndex.find,0.0,0.0,0.0,0.0,0.0
MultiVersionIndex.removeIfExists,0.0,0.0,0.0,0.0,0.0
NameAndTypeInfo.<init>,0.0898165277770507,0.0,0.005917083331142849,0.0,0.09573361110819355
NameImpl.isA,0.0,0.0,0.0,0.0,0.0
NativeMethodAccessorImpl.invoke0,0.0,0.0,0.0,0.0,0.0
NetworkServerControl.<init>,0.0,0.0,0.0,0.0,0.0
NetworkServerControlImpl.blockingStart,0.0,0.0,0.0,0.0,0.0
New.hashMap,0.0,0.0,0.0,0.0,0.0
NodeFactoryImpl.getNode,0.0015091577371253335,0.0004086120080580356,0.00014687198484432133,5.693781678163856e-05,0.002121579546809329
NoneAuthenticationServiceImpl.boot,0.00022136206263812362,0.0,3.498304277190441e-05,0.0,0.00025634510541002804
NotFoundException.<init>,0.0,0.0,0.0,0.0,0.0
NotificationBroadcasterSupport.<clinit>,0.043125571428390685,0.0,0.005235000001058714,0.0,0.0483605714294494
ObjectArray$ObjectArrayIterator.<init>,0.0,0.0,0.0,0.0,0.0
ObjectArray$ObjectArrayIterator.hasNext,0.0,0.0,0.0,0.0,0.0
ObjectArray.<init>,0.0,0.0,0.0,0.0,0.0
ObjectArray.add,0.0,0.0,0.0,0.0,0.0
ObjectArray.createArray,0.0,0.0,0.0,0.0,0.0
ObjectArray.get,0.0,0.0,0.0,0.0,0.0
ObjectArray.iterator,0.0,0.0,0.0,0.0,0.0
ObjectArray.newInstance,0.0,0.0,0.0,0.0,0.0
ObjectArray.remove,0.0,0.0,0.0,0.0,0.0
ObjectTable.incrementKeepAliveCount,0.034697071075023365,0.0,0.003926005422137622,0.0,0.038623076497160985
OpenEjbSystemGBean.<init>,0.0,0.0,0.0,0.0,0.0
OpenJPAConfigurationImpl.<init>,0.0,0.0,0.0,0.0,0.0
OptimizedAccessorFactory.get,0.0,0.0,0.0,0.0,0.0
OptimizerFactoryImpl.getOptimizer,0.0,0.0,0.0,0.0,0.0
OptimizerImpl.getNumberOfJoinStrategies,0.0,0.0008566683271384503,0.0,0.00011510770814416406,0.0009717760352826144
OrderDataBean.pcSetorderFee,0.0,0.0,0.0,0.0,0.0
Parameter.getParamValue,0.0,0.0,0.0,0.0,0.0
ParseUtil.decode,0.0,0.0,0.0,0.0,0.0
Parser.addExpected,0.0,0.0,0.0,0.0,0.0
Parser.getKeywordOrIdentifier,0.0,0.0,0.0,0.0,0.0
Parser.getSaveTokenType,0.0,0.0,0.0,0.0,0.0
Parser.getSpecialType,0.0,0.0,0.0,0.0,0.0
Parser.initialize,0.0,0.00429098081648626,0.0,0.0006646818000463067,0.004955662616532567
Parser.parse,0.0,0.004696896236806521,0.0,0.0007711701739318835,0.005468066410738405
Parser.parseDeclarationOrExpression,0.0,0.0,0.0,0.0,0.0
Parser.parseJoinTableFilter,0.0,0.0,0.0,0.0,0.0
Parser.parseSelectSimpleSelectPart,0.0,0.0,0.0,0.0,0.0
Parser.parseSelectUnionExtension,0.0,0.0,0.0,0.0,0.0
Parser.parseUpdate,0.0,0.0,0.0,0.0,0.0
Parser.prepareCommand,0.0,0.0,0.0,0.0,0.0
Parser.read,0.0,0.0,0.0,0.0,0.0
Parser.readCondition,0.0,0.0,0.0,0.0,0.0
Parser.readFactor,0.0,0.0,0.0,0.0,0.0
Parser.readFunction,0.0016356330275361494,0.0,0.00014146788987232838,0.0,0.0017771009174084777
Parser.readIf,0.0,0.0,0.0,0.0,0.0
Parser.readTableFilter,0.000442357798127795,0.0,7.527522934192723e-05,0.0,0.0005176330274697222
Parser.setSQL,0.0,0.0,0.0,0.0,0.0
ParserImpl.getParser,0.0004696792757920123,0.0,6.958675864404744e-05,0.0,0.0005392660344360597
PatternParser$LiteralPatternConverter.format,0.020294166666493158,0.0,0.0014499999982338825,0.0,0.02174416666472704
PatternParser.finalizeConverter,0.0,0.07308107690750654,0.0,0.010690340954563785,0.08377141786207032
PerfCounter.add,0.0,0.0,0.0,0.0,0.0
PersistenceProductDerivation.loadGlobals,0.0,0.0,0.0,0.0,0.0
Plan.<init>,0.0,0.0,0.0,0.0,0.0
Plan.calculateCost,0.0,0.0,0.0,0.0,0.0
Prepared.needRecompile,0.0,0.0,0.0,0.0,0.0
Prepared.setParameterList,0.0,0.0,0.0,0.0,0.0
PreparedStatementHandle.executeUpdate,0.0,0.0,0.0,0.0,0.0
PropertiesAdapter.unmarshal,0.0,0.0004530542471344071,0.0,5.9909126722357764e-05,0.0005129633738567648
PropertySetter.introspect,0.0,0.026758237500158988,0.0,0.0026038226666561352,0.029362060166815123
ProxyGenerator$ConstantPool.getValue,0.0,0.0,0.0,0.0,0.0
RMIDirectSocketFactory.createSocket,0.02111133520431431,0.0,0.0026840485429528533,0.0,0.023795383747267165
ReflectGeneratedClass.getMethod,0.0,0.0,0.0,0.0,0.0
ReflectUtils.getConstructor,0.0009631878260836896,0.0,0.00016380000000303292,0.0,0.0011269878260867225
Reflection.getCallerClass,0.0,0.0,0.0,0.0,0.0
ReflectionFactory.generateConstructor,0.0016993120773009288,0.0,0.00027831884062790496,0.0,0.001977630917928834
ReflectionUtil.findStaticFactory,0.0,0.0008445203128702513,0.0,0.00013725976630108756,0.0009817800791713388
Resource.getBytes,0.0820460577878321,0.07827689845371838,0.004400697651005926,0.010368266887627956,0.17509192078018435
ResponseCorrelator.asyncRequest,0.0,0.0,0.0,0.0,0.0
Row.getValue,0.0015492857143036055,0.0,0.000246315789487759,0.0,0.0017956015037913645
Row.setValue,0.0,0.0,0.0,0.0,0.0
SAXParserFactoryImpl.newSAXParser,0.0,0.0026060393384057076,0.0,0.00042381959673111946,0.003029858935136827
SHA2.lf_S,0.0,0.0,0.0,0.0,0.0
SOAPPart.<init>,0.0,0.0,0.0,0.0,0.0
SQLTimestamp.setCalendar,0.0,0.0,0.0,0.0,0.0
SSLContextImpl.getApplicableCipherSuiteList,0.00810693568212887,0.0,0.0011288787735860859,0.0,0.009235814455714956
ScanIndex.add,0.0,0.0,0.0,0.0,0.0
ScanIndex.commit,0.0,0.0,0.0,0.0,0.0
ScanIndex.incrementRowCount,0.0,0.001004307780838405,0.0,0.00014533959945548826,0.0011496473802938933
ScanIndex.remove,0.0,0.0,0.0,0.0,0.0
Schema.findTableOrView,0.0,0.0,0.0,0.0,0.0
SecureRandom.engineNextBytes,0.0,0.0,0.0,0.0,0.0
Select.<init>,0.0,0.0,0.0,0.0,0.0
Select.expandColumnList,0.0,0.0,0.0,0.0,0.0
Select.isEverything,0.0,0.0,0.0,0.0,0.0
Select.prepare,0.0,0.0,0.0,0.0,0.0
Select.preparePlan,0.0,0.0,0.0,0.0,0.0
Select.queryFlat,0.0004767267175533325,0.0,8.70229007644252e-05,0.0,0.0005637496183177578
Select.setEvaluatable,0.0,0.0,0.0,0.0,0.0
SerializedConfigurationMarshaler.readConfigurationData,0.0016961009174554903,0.0,0.00012990825686981869,0.0,0.001826009174325309
Server.doStart,0.025520815343432063,0.0,0.0028330974717462967,0.0,0.02835391281517836
Session.<init>,0.0,0.0,0.0,0.0,0.0
Session.getTrace,0.0,0.0,0.0,0.0,0.0
Session.prepareLocal,0.0,0.0,0.0,0.0,0.0
SessionRemote.<init>,0.0014161284403649051,0.0,0.00018935779818769443,0.0,0.0016054862385525995
SinglePoolConnectionInterceptor.internalGetConnection,0.0,0.0,0.0,0.0,0.0
StandardMBean.<clinit>,0.0,0.0,0.0,0.0,0.0
StatementNode.generate,0.0,0.0005262603689429392,0.0,4.599677932952642e-05,0.0005722571482724657
StreamEncoder.implFlushBuffer,0.0,0.0,0.0,0.0,0.0
StringCache.get,0.0,0.0,0.0,0.0,0.0
StringCache.getNew,0.0,0.0,0.0,0.0,0.0
StringUtils.toUpperEnglish,0.0,0.0,0.0,0.0,0.0
Subquery.getValue,0.0,0.0,0.0,0.0,0.0
SymbolTable.hash,0.0,0.0012546086956348704,0.0,0.000187608695649182,0.0014422173912840524
Table.compareTypeSave,0.0,0.0,0.0,0.0,0.0
Table.getColumn,0.0,0.0,0.0,0.0,0.0
Table.validateConvertUpdateSequence,0.0,0.0,0.0,0.0,0.0
TableData.addRow,0.0,0.0,0.0,0.0,0.0
TableData.doLock,0.0,0.0,0.0,0.0,0.0
TableFilter.getColumns,0.0,0.0,0.0,0.0,0.0
TestHarness.main,0.0,0.0,0.0,0.0,0.0
ThreadPool.execute,0.0,0.0,0.0,0.0,0.0
TopicRegion.createSubscription,0.0,0.00026189587397460655,0.0,3.9284381093355344e-05,0.0003011802550679619
Trace.isEnabled,0.0,0.0,0.0,0.0,0.0
TraceSystem.getTrace,0.004852992366401315,0.0002191879208465585,0.0007143075245109081,4.342986099696384e-05,0.005829917672755746
TradeConfig.getActionTrace,0.0,0.0,0.0,0.0,0.0
TradeConfig.getOrderFee,0.0,0.0,0.0,0.0,0.0
TradeDirect.createHolding,0.0,0.0,0.0,0.0,0.0
TradeDirect.getAccountProfileData,0.0,0.0,0.0,0.0,0.0
TradeDirect.getOrderDataFromResultSet,0.0,0.0,0.0,0.0,0.0
TradeDirect.updateAccountProfile,0.0,0.0,0.0,0.0,0.0
TransactionManagerImpl.getTransaction,0.0,0.0,0.0,0.0,0.0
TransportConnector.<init>,0.0,0.0010231599815432248,0.0,0.0001548546593351566,0.0011780146408783814
TreeCursor.<init>,0.00027355769954203943,0.0,6.425220945838012e-05,0.0,0.00033780990900041954
TreeCursor.next,0.0,0.0,0.0,0.0,0.0
TreeIndex.add,0.0,0.0,0.0,0.0,0.0
TreeIndex.balance,0.0,0.0,0.0,0.0,0.0
TreeIndex.child,0.0,0.0,0.0,0.0,0.0
TreeIndex.find,0.0,0.0,0.0,0.0,0.0
TreeIndex.findFirstNode,0.005358264891609843,0.0,0.0007925309579379371,0.0,0.00615079584954778
TreeIndex.remove,0.0,0.0,0.0,0.0,0.0
TreeIndex.set,0.0,0.0,0.0,0.0,0.0
TxUtil.getTransactionIfActive,0.0,0.0,0.0,0.0,0.0
Type.<init>,0.0,0.0007771866159864621,0.0,3.824549559592689e-05,0.000815432111582389
Type.getDescriptor,0.002802149874180691,0.0,0.0002773662422315569,0.0,0.003079516116412248
TypeId.getApproximateLengthInBytes,0.0,0.0,0.0,0.0,0.0
TypeInfo.buildTypeDesc,0.0007451608695745286,0.0,4.372826086815305e-05,0.0,0.0007888891304426817
TypeMappingRegistryImpl.<init>,0.0,0.0,0.0,0.0,0.0
URLClassPath$FileLoader.getResource,0.0,0.051970703825239294,0.0,0.003911269006296614,0.055881972831535905
URLClassPath$JarLoader$2.getInputStream,0.018751273087222086,0.0,0.0025653721254582803,0.0,0.021316645212680365
URLClassPath$JarLoader.getClassPath,0.0,0.0,0.0,0.0,0.0
URLClassPath$JarLoader.getJarFile,0.0,0.0,0.0,0.0,0.0
URLClassPath$JarLoader.getResource,0.007587000556759956,0.0029388971914512734,0.0009791342898677385,0.0004447661519680554,0.011949798190047023
URLClassPath$Loader.getBaseURL,0.0004780961428820974,0.0,6.104978683851396e-05,0.0,0.0005391459297206114
URLClassPath.getLoader,0.0,0.00043008889571029534,0.0,5.12214346474743e-05,0.00048131033035776966
URLClassPath.getNextLoader,0.0008122319329215386,0.0,0.00012568570445007352,0.0,0.0009379176373716121
UTF_8$Encoder.encode,0.00045394154718848064,0.06303679979473209,7.519936226965729e-05,0.009611620240363088,0.07317756094455331
UndoLog.size,0.0,0.0,0.0,0.0,0.0
UndoLogRecord.commit,0.0,0.0,0.0,0.0,0.0
UnmarshallerImpl.unmarshal0,0.0,0.0,0.0,0.0,0.0
Unsafe.defineClass,4.0972173921308365e-05,0.0,7.095652171815544e-06,0.0,4.806782609312391e-05
Unsafe.park,0.0,0.003234166529861969,0.0,0.0004809386946744913,0.0037151052245364604
Unsafe.setMemory,0.0,0.0006642273215857035,0.0,0.00010305912145758293,0.0007672864430432864
Unsafe.unpark,0.0,0.0,0.0,0.0,0.0
Update.prepare,0.0,0.0,0.0,0.0,0.0
Update.setAssignment,0.0,0.0,0.0,0.0,0.0
Update.update,0.0,0.0,0.0,0.0,0.0
Utf8Info.<init>,0.04875480000046082,0.0,0.0052769999980228025,0.0,0.05403179999848362
Value.compareTo,0.0,0.0,0.0,0.0,0.0
Value.compareTypeSave,0.0,0.0,0.0,0.0,0.0
Value.convertTo,0.0,0.0,0.0,0.0,0.0
ValueInt.compareSecure,0.0,0.0,0.0,0.0,0.0
ValueString.get,0.0,0.0,0.0,0.0,0.0
ValueStringBase.getPrecision,0.0,0.0,0.0,0.0,0.0
ValueTimestamp.convertScale,0.0,0.0,0.0,0.0,0.0
ValueTimestamp.get,0.0,0.0,0.0,0.0,0.0
XAMCF.getUserName,0.0,0.0,0.0,0.0,0.0
XactFactory.<init>,0.0,0.0,0.0,0.0,0.0
XactFactory.startCommonTransaction,0.0,0.0,0.0,0.0,0.0
ZoneInfo.getLastRuleInstance,0.0,0.0,0.0,0.0,0.0
ZoneInfoFile.load,0.0,0.08336026635501319,0.0,0.011146432084011828,0.09450669843902501
