method,package1,package2,dram1,dram2,energy
AbsoluteTimeDateFormat.<init>|PatternParser.finalizeConverter|PatternParser.parse,0.03808256332616968,0.0,0.005317142495633476,0.0,0.04339970582180316
AbstractRepository.getReifier|MethodRepository.getReturnType|Method.getGenericReturnType,0.03326658868758156,0.0,0.0011449722106441605,0.0,0.034411560898225724
AdvisoryBroker.addDestination|BrokerFilter.addDestination|MutableBrokerFilter.addDestination,0.0,0.0,0.0,0.0,0.0
AnnotationDeployer.<init>|ConfigurationFactory.<init>|ConfigurationFactory.<init>,0.0,0.0002706708648901096,0.0,3.556432026313661e-05,0.0003062351851532462
ArrayInputStream.<init>|ArrayInputStream.<init>|FileLogger.<init>,0.0,0.0,0.0,0.0,0.0
AttributeInfo.read|MethodInfo.read|MethodInfo.<init>,0.0,0.0,0.0,0.0,0.0
B2I.openScan|RAMTransaction.openScan|RAMTransaction.openScan,0.0,0.0,0.0,0.0,0.0
BCMethod.<init>|BCClass.newConstructorBuilder|ExpressionClassBuilder.beginConstructor,0.0,0.0,0.0,0.0,0.0
BaseDataFileFactory.openContainer|BaseDataFileFactory.openDroppedContainer|Xact.openDroppedContainer,0.0,0.0,0.0,0.0,0.0
BaseIndex.compareRows|TreeIndex.add|MultiVersionIndex.add,0.0,0.0,0.0,0.0,0.0
BaseIndex.compareRows|TreeIndex.findFirstNode|TreeIndex.find,0.0,0.0,0.0,0.0,0.0
BaseIndex.compareRows|TreeIndex.findFirstNode|TreeIndex.remove,0.0,0.0,0.0,0.0,0.0
BaseIndex.compareValues|BaseIndex.compareRows|TreeCursor.next,0.0,0.0,0.0,0.0,0.0
BaseIndex.getCostRangeIndex|TreeIndex.getCost|MultiVersionIndex.getCost,0.0,0.0,0.0,0.0,0.0
BasicKernel.boot|DaCapoServerRunner.initialize|NativeMethodAccessorImpl.invoke0,0.0,0.0,0.0,0.0,0.0
BasicLifecycleMonitor.addSource|BasicLifecycleMonitor.access$000|BasicLifecycleMonitor$RawLifecycleBroadcaster.fireLoadedEvent,0.0,0.01242665459059133,0.0,0.002137101285284979,0.014563755875876308
BasicStreamReader.handleStartElem|BasicStreamReader.nextFromTree|BasicStreamReader.next,0.0,0.0,0.0,0.0,0.0
Cache$Kind.<clinit>|MethodFinder.<clinit>|Introspector.getPublicDeclaredMethods,0.020022821013257648,0.0,0.002786934589853978,0.0,0.022809755603111628
CacheObject.setPos|Row.setPos|ScanIndex.add,0.0,0.0,0.0,0.0,0.0
Call.query|CommandContainer.query|Command.executeQueryLocal,0.0036333893765328642,0.0,0.0005821964353243668,0.0,0.004215585811857231
ClassFileAssembler.emitByte|ClassFileAssembler.emitShort|ClassFileAssembler.emitConstantPoolMethodref,0.0,0.0004030738255218446,0.0,5.47651007037841e-05,0.0004578389262256287
ClassPool.compress|ClassPool.makeClass|ClassPool.makeClass,0.0,0.0,0.0,0.0,0.0
ClassPool.getCached|ClassPool.get0|ClassPool.get,0.0,0.0,0.0,0.0,0.0
Column.getName|ExpressionColumn.mapColumns|Select.init,0.0,0.0,0.0,0.0,0.0
Command.<init>|CommandContainer.<init>|Parser.prepareCommand,0.0,0.0,0.0,0.0,0.0
Command.executeQueryLocal|Command.executeQuery|JdbcConnection.getInternalAutoCommit,0.0002971605839523025,0.0,4.467153288661944e-05,0.0,0.0003418321168389219
Command.executeQueryLocal|Command.executeQuery|JdbcPreparedStatement.executeQuery,0.0,0.0,0.0,0.0,0.0
Command.executeUpdate|JdbcConnection.setAutoCommit|ManagedXAConnection.localTransactionCommit,0.0,0.0,0.0,0.0,0.0
Command.executeUpdate|JdbcPreparedStatement.executeUpdateInternal|JdbcPreparedStatement.executeUpdate,0.0,0.004986309782591136,0.0,0.000622826086960824,0.00560913586955196
Command.stop|Command.executeUpdate|JdbcConnection.setAutoCommit,0.0,0.0,0.0,0.0,0.0
CommandContainer.query|Command.executeQueryLocal|Command.executeQuery,0.0,0.0001700604639447475,0.0,2.0299786209513237e-05,0.00019036025015426074
CommandContainer.recompileIfRequired|CommandContainer.query|Command.executeQueryLocal,0.0,0.0,0.0,0.0,0.0
CompareMode.compareString|ValueString.compareSecure|Value.compareTypeSave,0.0,0.0,0.0,0.0,0.0
ConcurrentHashMap.<init>|ConcurrentHashMap.<init>|FactoryFinder.<init>,0.0,0.00014721592042632217,0.0,1.6298507449138372e-05,0.00016351442787546056
ConnectionTrackingInterceptor.returnConnection|GeronimoConnectionEventListener.connectionClosed|AbstractManagedConnection.connectionClosed,0.0,0.0,0.0,0.0,0.0
ConstInfo.<init>|ConstInfoPadding.<init>|ConstPool.addConstInfoPadding,0.0,0.003693618430829017,0.0,0.00045084937082881565,0.004144467801657833
ConstantPool.getUTF8At|AnnotationParser.parseConst|AnnotationParser.parseMemberValue,0.0,0.0,0.0,0.0,0.0
ConsumerInfo.createRemoveCommand|AdvisoryConsumer.dispose|ActiveMQConnection.cleanup,0.0,0.0,0.0,0.0,0.0
CoreDeploymentInfo.getBusinessLocalHome|JndiBuilder.bind|JndiBuilder.build,0.0017455235539990926,0.0,0.0002018962432501588,0.0,0.0019474197972492514
CredentialExtractor.matches|ManagedXAConnection.matches|AbstractXADataSourceMCF.matchManagedConnections,0.0,0.0,0.0,0.0,0.0
DMLModStatementNode.<init>|InsertNode.<init>|NativeConstructorAccessorImpl.newInstance0,0.0,0.0,0.0,0.0,0.0
DaCapoDBBuilder.addUser|DaCapoDBBuilder.populateUsers|DaCapoDBBuilder.reset,0.0,0.0,0.0,0.0,0.0
Database.findSchema|Database.getSchema|Parser.readTableOrView,0.0,0.0,0.0,0.0,0.0
Database.getLockMode|TableData.lock|Insert.update,0.0,0.00023751556943698822,0.0,3.286055152284088e-05,0.0002703761209598291
Database.getModificationMetaId|Prepared.needRecompile|CommandContainer.recompileIfRequired,0.0,0.0,0.0,0.0,0.0
Database.getNextModificationMetaId|DbObjectBase.setModified|TableData.addIndex,0.0,0.00013222105047158892,0.0,2.1144588474660816e-05,0.00015336563894624973
Database.getTrace|Command.<init>|CommandContainer.<init>,0.006206565217418255,0.0,0.0008742391304543203,0.0,0.007080804347872576
Database.open|Database.openDatabase|Database.<init>,0.0,0.0,0.0,0.0,0.0
DatatypeConstants.<clinit>|RuntimeBuiltinLeafInfoImpl.<clinit>|RuntimeTypeInfoSetImpl.<init>,0.03739245955948845,0.0,0.004023052144308397,0.0,0.04141551170379685
DbObjectBase.getSQL|SchemaObjectBase.getSQL|BaseIndex.getCreateSQL,0.0,8.176826644476845e-05,0.0,1.34630559685885e-05,9.523132241335695e-05
DefaultHandler.<init>|JettyContainerImpl.<init>|NativeConstructorAccessorImpl.newInstance0,0.0,0.0,0.0,0.0,0.0
DefaultMBeanServerInterceptor.registerDynamicMBean|DefaultMBeanServerInterceptor.registerObject|DefaultMBeanServerInterceptor.registerMBean,0.0,0.4439410588221268,0.0,0.058865294117233985,0.5028063529393608
DefaultMXBeanMappingFactory.<clinit>|MXBeanMappingFactory.<clinit>|ConvertingMethod.<init>,0.0,0.0,0.0,0.0,0.0
DefaultMXBeanMappingFactory.makeArrayOrCollectionMapping|DefaultMXBeanMappingFactory.makeParameterizedTypeMapping|DefaultMXBeanMappingFactory.makeMapping,0.0,0.0,0.0,0.0,0.0
DefaultTypeMappingImpl.initMappings|DefaultTypeMappingImpl.<init>|DefaultTypeMappingImpl.getSingletonDelegate,0.0,0.0,0.0,0.0,0.0
DelimitedTokenReplacementInputStream.<init>|DelimitedTokenReplacementInputStream.<init>|ReplaceVariablesInputStream.<init>,0.006205240310051987,0.0,0.0006409302326108784,0.0,0.006846170542662865
DerIndefLenConverter.isLongForm|DerIndefLenConverter.isIndefinite|DerInputStream.init,0.0,0.0,0.0,0.0,0.0
DiagnosticCommandImpl.getDiagnosticCommandInfo|DiagnosticCommandImpl.getMBeanInfo|DefaultMBeanServerInterceptor.getNewMBeanClassName,0.0,0.0008733592400445349,0.0,0.0001422279792944764,0.0010155872193390112
DocumentBuilderImpl.newDocument|SAX2DOM.createDocument|SAX2DOM.<init>,0.0,0.06023833333327072,0.0,0.008016666666258566,0.06825499999952929
Driver40.newEmbedDatabaseMetaData|EmbedConnection.getMetaData|BrokeredConnection.getMetaData,0.0,0.0,0.0,0.0,0.0
Driver40.newEmbedPreparedStatement|EmbedConnection.prepareStatement|EmbedConnection.prepareStatement,0.0,0.0,0.0,0.0,0.0
EjbDaemon.init|EjbServer.init|ServicePool.init,0.0,0.0,0.0,0.0,0.0
ExpressionColumn.getTableName|LocalResult.getTableName|JdbcResultSet.getColumnIndex,0.0,0.0,0.0,0.0,0.0
ExpressionColumn.getValue|Comparison.getValue|Expression.getBooleanValue,0.0,0.0,0.0,0.0,0.0
ExpressionColumn.mapColumn|ExpressionColumn.mapColumns|Select.init,0.0,0.0039382598039154285,0.0,0.0004801470588027573,0.004418406862718186
ExpressionFactory.<clinit>|JexlConditionParser.doEvaluate|JexlConditionParser.evaluate,0.0,0.0,0.0,0.0,0.0
ExpressionFactory.<clinit>|JexlExpressionParser.createExpression|JexlExpressionParser.evaluate,0.0,0.0,0.0,0.0,0.0
Function.getValue|Call.query|CommandContainer.query,0.0,0.0,0.0,0.0,0.0
GBeanInfoBuilder.<init>|GBeanInfoBuilder.createStatic|GBeanInfoBuilder.createStatic,0.0,0.048669400002108884,0.0,0.006554999999934807,0.05522440000204369
GBeanInstance.<init>|BasicKernel.loadGBean|ConfigurationUtil.startConfigurationGBeans,0.0,0.06416833333302444,0.0,0.009619999999510279,0.07378833333253472
GeneratedMethodAccessor2.invoke|DelegatingMethodAccessorImpl.invoke|Method.invoke,0.0,0.0,0.0,0.0,0.0
GenericResultSetFactory.getDistinctScanResultSet|ac40a68025x0167x1ae9xe70axffffb4291c903.fillResultSet|ac40a68025x0167x1ae9xe70axffffb4291c903.execute,0.0,0.00018717435902008446,0.0,1.784615388038592e-05,0.00020502051290047037
Handler.parseURL|URL.<init>|URL.<init>,0.0,0.0,0.0,0.0,0.0
HttpConnection.<init>|SelectChannelConnector.newConnection|SelectChannelConnector$1.newConnection,0.0,0.003495445595846097,0.0,0.0004132383419629042,0.003908683937809001
HttpFields.add|HttpFields.add|HttpConnection$RequestHandler.parsedHeader,0.0,0.0,0.0,0.0,0.0
IndexCondition.getCurrentValue|IndexCursor.find|TableFilter.next,0.0,0.0,0.0,0.0,0.0
IndexCondition.isEnd|IndexCursor.find|TableFilter.next,0.0,0.0,0.0,0.0,0.0
IndexCursor.getSearchRow|IndexCursor.find|TableFilter.next,0.0,0.0,0.0,0.0,0.0
IndexRowToBaseRowResultSet.openCore|ProjectRestrictResultSet.openCore|JoinResultSet.openCore,0.0,0.0,0.0,0.0,0.0
Init.getAll|LocatableAnnotation.<clinit>|RuntimeInlineAnnotationReader.getClassAnnotation,0.0,0.0,0.0,0.0,0.0
Insert.prepare|Parser.prepareCommand|Session.prepareLocal,0.0,0.0,0.0,0.0,0.0
InstanceFinder.find|Introspector.findExplicitBeanInfo|Introspector.<init>,0.0,0.0,0.0,0.0,0.0
InterningXmlVisitor.<init>|StAXStreamConnector.create|UnmarshallerImpl.unmarshal0,0.0,0.0,0.0,0.0,0.0
InterningXmlVisitor.endDocument|StAXConnector.handleEndDocument|StAXStreamConnector.bridge,0.0,0.0,0.0,0.0,0.0
JAXBContextImpl.<init>|ContextFactory.createContext|ContextFactory.createContext,0.067739355947531,0.0,0.005816645407072197,0.0,0.07355600135460319
JavaUtils.<clinit>|BeanSerializerFactory.init|BeanSerializerFactory.readObject,0.0,0.0,0.0,0.0,0.0
JceSecurity.getCodeBase|JceSecurity.getVerificationResult|JceSecurity.canUseProvider,0.0,0.0003825531614841041,0.0,4.577887671694017e-05,0.00042833203820104423
JdbcConnection.checkClosed|JdbcXAConnection$PooledJdbcConnection.checkClosed|JdbcConnection.checkClosed,0.0,0.0001013854748761937,0.0,1.5195530721765127e-05,0.00011658100559795882
JdbcConnection.checkJavaVersion|JdbcConnection.<init>|JdbcConnection.<init>,0.0,0.0,0.0,0.0,0.0
JdbcConnection.getInternalAutoCommit|JdbcConnection.getAutoCommit|ManagedXAConnection.cleanup,0.0,0.0,0.0,0.0,0.0
JdbcConnection.prepareCommand|JdbcConnection.setAutoCommit|ManagedXAConnection.localTransactionCommit,0.0,0.0,0.0,0.0,0.0
JdbcConnection.translateSQL|JdbcConnection.translateSQL|JdbcConnection.prepareStatement,0.0,0.0,0.0,0.0,0.0
JdbcPreparedStatement.setDouble|PreparedStatementHandle.setDouble|TradeDirect.createQuote,0.0,0.0002713937468458422,0.0,4.184993433566501e-05,0.0003132436811815072
JdbcResultSet.checkOnValidRow|JdbcResultSet.get|JdbcResultSet.get,0.0,0.0,0.0,0.0,0.0
JdbcResultSet.getColumnIndex|JdbcResultSet.get|JdbcResultSet.getInt,0.0,0.0,0.0,0.0,0.0
JdbcResultSet.getColumnIndex|JdbcResultSet.get|JdbcResultSet.getString,0.0,0.0010807318436115195,0.0,0.0001657960893787566,0.001246527932990276
JdbcResultSet.get|JdbcResultSet.getString|ResultSetHandle.getString,0.0,0.0,0.0,0.0,0.0
JdbcStatement.checkClosed|JdbcPreparedStatement.checkClosed|JdbcStatement.checkClosed,0.0,0.0,0.0,0.0,0.0
JdbcXAConnection$PooledJdbcConnection.checkClosed|JdbcConnection.checkClosed|JdbcResultSet.checkClosed,0.0,0.0,0.0,0.0,0.0
JdbcXAConnection$PooledJdbcConnection.checkClosed|JdbcStatement.checkClosed|JdbcPreparedStatement.checkClosed,0.0,0.0038360150754112453,0.0,0.00049138190953825,0.004327396984949495
JmxMBeanServer.<init>|JmxMBeanServer.newMBeanServer|MBeanServerBuilder.newMBeanServer,0.0,0.0,0.0,0.0,0.0
JournalImpl.read|JournalPersistenceAdapter.recover|JournalPersistenceAdapter.start,0.0,0.0,0.0,0.0,0.0
Level2OptimizerFactoryImpl.getOptimizerImpl|OptimizerFactoryImpl.getOptimizer|ResultSetNode.getOptimizer,0.0,0.0,0.0,0.0,0.0
LocalResult.addRow|Call.query|CommandContainer.query,0.0,0.0,0.0,0.0,0.0
LocalResult.close|Subquery.getValue|IndexCondition.getCurrentValue,0.0,0.0,0.0,0.0,0.0
LocalResult.getColumnName|JdbcResultSet.getColumnIndex|JdbcResultSet.get,0.0,0.0,0.0,0.0,0.0
LockControl.addLock|ConcurrentLockSet.lockObject|AbstractPool.lockObject,0.0,0.0009343756684494321,0.0,0.00012836229945926734,0.0010627379679086994
Log4jService.reconfigure|Log4jService.doStart|GBeanInstance.createInstance,0.0,0.0,0.0,0.0,0.0
LongVector.addElement|ConstPool.addItem0|ConstPool.readOne,0.0,0.002358508136085651,0.0,0.00031494682797495653,0.0026734549640606074
MBeanInfo.<init>|MBeanInfo.<init>|MBeanServerDelegateImpl.<init>,0.0,0.01838028571468645,0.0,0.0029142857144636627,0.02129457142915011
ManagementFactoryHelper.getCompilationMXBean|PlatformComponent$2.getMXBeans|PlatformComponent.getMXBeans,0.0,0.0007888373056875418,0.0,0.00011937823834216192,0.0009082155440297038
MergeInserter.initialize|MergeSort.open|RAMTransaction.openSort,0.0,0.0,0.0,0.0,0.0
MetaTable.<init>|Database.addMetaData|Database.open,0.0,0.0,0.0,0.0,0.0
MultiParentClassLoader.resolveClass|MultiParentClassLoader.loadClassInternal|MultiParentClassLoader.checkParents,0.0,0.0,0.0,0.0,0.0
MultiVersionCursor.loadNext|MultiVersionCursor.next|IndexCursor.next,0.0,0.0,0.0,0.0,0.0
MultiVersionCursor.next|IndexCursor.next|TableFilter.next,0.0,0.0,0.0,0.0,0.0
MultiVersionCursor.step|MultiVersionCursor.loadNext|MultiVersionCursor.next,0.0,0.0,0.0,0.0,0.0
MultiVersionIndex.add|TableData.addRow|Table.updateRows,0.0,0.0,0.0,0.0,0.0
MultiVersionIndex.commit|UndoLogRecord.commit|Session.commit,0.0,0.0,0.0,0.0,0.0
MultiVersionIndex.find|IndexCursor.find|TableFilter.next,0.0,0.0,0.0,0.0,0.0
MultiVersionIndex.removeIfExists|MultiVersionIndex.commit|UndoLogRecord.commit,0.0,0.0,0.0,0.0,0.0
NoOp.<clinit>|Class.forName0|Class.forName,0.0,0.035746333329977155,0.0,0.005789999998038789,0.04153633332801594
ObjectArray$ObjectArrayIterator.hasNext|IndexCursor.find|TableFilter.next,0.0,0.0,0.0,0.0,0.0
ObjectArray$ObjectArrayIterator.hasNext|Select.isEverything|Query.isEverything,0.0,0.0,0.0,0.0,0.0
ObjectArray$ObjectArrayIterator.next|IndexCursor.find|TableFilter.next,0.0,0.0,0.0,0.0,0.0
ObjectArray.<init>|ObjectArray.newInstance|LocalResult.<init>,0.0,0.0,0.0,0.0,0.0
ObjectArray.<init>|ObjectArray.newInstance|Parser.parse,0.0,0.0,0.0,0.0,0.0
ObjectArray.ensureCapacity|ObjectArray.add|ObjectArray.add,0.0,0.0,0.0,0.0,0.0
ObjectArray.ensureCapacity|ObjectArray.add|Select.expandColumnList,0.0,0.0,0.0,0.0,0.0
ObjectArray.get|ObjectArray$ObjectArrayIterator.next|IndexCursor.find,0.0,0.0,0.0,0.0,0.0
ObjectArray.get|Select.expandColumnList|Select.init,0.0,0.0,0.0,0.0,0.0
ObjectArray.newInstance|TableFilter.<init>|Parser.readSimpleTableFilter,0.0,0.0,0.0,0.0,0.0
ObjectUtils.arrayCopy|ObjectArray.toArray|Plan.<init>,0.0,0.0,0.0,0.0,0.0
OpenEjbSystemGBean.<init>|NativeConstructorAccessorImpl.newInstance0|NativeConstructorAccessorImpl.newInstance,0.0,0.0003544503228922616,0.0,4.60063898745115e-05,0.0004004567127667731
OrderDataBean.getOrderID|TradeDirect.sell|DaCapoTrader.doSell,0.0,0.0,0.0,0.0,0.0
Parameter.getParamValue|Parameter.getValue|Comparison.getValue,0.0,0.0,0.0,0.0,0.0
Parser.addExpected|Parser.readIf|Parser.parseSelectSimpleSelectPart,0.0,0.0,0.0,0.0,0.0
Parser.addExpected|Parser.readIf|Parser.readTerm,0.0,0.0,0.0,0.0,0.0
Parser.getKeywordOrIdentifier|Parser.getSaveTokenType|Parser.getTokenType,0.0,0.0,0.0,0.0,0.0
Parser.getSaveTokenType|Parser.getTokenType|Parser.read,0.0,0.0,0.0,0.0,0.0
Parser.initialize|Parser.parse|Parser.parse,0.0,0.0,0.0,0.0,0.0
Parser.isToken|Parser.readFromAlias|Parser.readTableFilter,0.0,0.0,0.0,0.0,0.0
Parser.parsePrepared|Parser.parse|Parser.parse,0.0,0.0,0.0,0.0,0.0
Parser.parseSelectSimpleSelectPart|Parser.parseSelectSimple|Parser.parseSelectSub,0.0,0.0,0.0,0.0,0.0
Parser.parseSet|Parser.parsePrepared|Parser.parse,0.0,0.0007462578451091903,0.0,7.848825339267579e-05,0.0008247460985018661
Parser.prepareCommand|Session.prepareLocal|Session.prepareCommand,0.0,0.0016230245310313255,0.0,0.00020051948051455512,0.0018235440115458806
Parser.readCondition|Parser.readAnd|Parser.readExpression,0.0,0.0,0.0,0.0,0.0
Parser.readIf|Parser.parseEndOfQuery|Parser.parseSelectUnionExtension,0.0,0.0,0.0,0.0,0.0
Parser.readIf|Parser.parseUpdate|Parser.parsePrepared,0.0,0.0,0.0,0.0,0.0
Parser.readIf|Parser.readConcat|Parser.readCondition,0.0,0.0,0.0,0.0,0.0
Parser.readIf|Parser.readCondition|Parser.readAnd,0.0,0.0,0.0,0.0,0.0
Parser.readIf|Parser.readFactor|Parser.readSum,0.0,0.0,0.0,0.0,0.0
Parser.readIf|Parser.readIdentifierWithSchema|Parser.readTableFilter,0.0,0.0,0.0,0.0,0.0
Parser.readSum|Parser.readConcat|Parser.readCondition,0.0,0.0,0.0,0.0,0.0
Parser.readTableFilter|Parser.parseSelectSimpleFromPart|Parser.parseSelectSimple,0.0,0.0008585214933444035,0.0,7.372873926563827e-05,0.0009322502326100418
Parser.readTerm|Parser.readFactor|Parser.readSum,0.0,0.0,0.0,0.0,0.0
Parser.read|Parser.readIdentifierWithSchema|Parser.readTableFilter,0.0,0.0,0.0,0.0,0.0
Parser.read|Parser.readIf|Parser.parseSelectSimple,0.0,0.0,0.0,0.0,0.0
Parser.read|Parser.readIf|Parser.readTerm,0.0,0.0,0.0,0.0,0.0
Parser.read|Parser.readTerm|Parser.readFactor,0.0,0.0,0.0,0.0,0.0
Parser.setSQL|Parser.parseSelectSimple|Parser.parseSelectSub,0.0,0.0,0.0,0.0,0.0
ParserConfigurationSettings.checkProperty|XML11Configuration.checkProperty|ParserConfigurationSettings.setProperty,0.0,0.0009226768503558141,0.0,3.6103076426313056e-05,0.0009587799267821272
ParserImpl.getParser|ParserImpl.parseStatement|GenericStatement.prepMinion,0.0,0.0,0.0,0.0,0.0
PiccoloLexer.yy_unpack|PiccoloLexer.yy_unpack|PiccoloLexer.<clinit>,0.0,0.0,0.0,0.0,0.0
PolicyFile.getPermissions|PolicyFile.getPermissions|Policy.initPolicy,0.0,0.0,0.0,0.0,0.0
Prepared.checkParameters|CommandContainer.query|Command.executeQueryLocal,0.0,0.0,0.0,0.0,0.0
Queue.<init>|DestinationFactoryImpl.createDestination|AbstractRegion.createDestination,0.0,0.0,0.0,0.0,0.0
ReflectUtils.getMethodInfo|Enhancer$2.transform|CollectionUtils.transform,0.0,0.05023200000384046,0.0,0.00030000000212263933,0.0505320000059631
Row.getValue|BaseIndex.compareRows|TreeCursor.next,0.0,0.0,0.0,0.0,0.0
Row.getValue|BaseIndex.compareRows|TreeIndex.findFirstNode,0.0,0.0,0.0,0.0,0.0
Row.setValue|IndexCursor.getSearchRow|IndexCursor.find,0.0,0.0,0.0,0.0,0.0
RuntimeBuiltinLeafInfoImpl.<clinit>|RuntimeTypeInfoSetImpl.<init>|RuntimeModelBuilder.createTypeInfoSet,0.0,0.030590800000936724,0.0,0.00492599999997765,0.035516800000914374
RuntimeInlineAnnotationReader.getPackageAnnotation|RuntimeInlineAnnotationReader.getPackageAnnotation|Util.calcSchemaType,0.0,0.07311999999607602,0.0,0.012420000001535906,0.08553999999761193
RuntimeInlineAnnotationReader.getPackageAnnotation|Util.calcSchemaType|PropertyInfoImpl.<init>,0.0,0.053524472225237534,0.0,0.006306666667417932,0.05983113889265547
SAX2DOM.createDocument|SAX2DOM.<init>|TransletOutputHandlerFactory.getSerializationHandler,0.0,0.04888916666823207,0.0,0.007564999998673253,0.05645416666690532
SAXParserImpl.<init>|SAXParserFactoryImpl.newSAXParser|JaxbOpenejb.parseServicesJar,0.0,0.000335606794947991,0.0,6.082207596071189e-05,0.0003964288709087029
SHA.implCompress|DigestBase.implCompressMultiBlock|DigestBase.engineUpdate,0.0,0.049682600001688115,0.0,0.00651299999881303,0.056195600000501146
SOAPPart.writeTo|SOAPPart.writeTo|SOAPPart.saveChanges,0.0,0.0016927236430760086,0.0,0.0001888373843338375,0.001881561027409846
ScanIndex.add|TableData.addRow|Table.updateRows,0.0,0.0,0.0,0.0,0.0
ScanIndex.incrementRowCount|ScanIndex.add|TableData.addRow,0.0,0.0,0.0,0.0,0.0
Schema.createTable|Database.open|Database.openDatabase,0.0,0.0,0.0,0.0,0.0
SchemaAttributeModelImpl.<init>|SchemaTypeSystemImpl$XsbReader.finishLoadingType|SchemaTypeSystemImpl.resolveHandle,0.0,0.05797471428481263,0.0,0.0069642857145351756,0.06493899999934781
Select.<init>|Parser.parseSelectSimple|Parser.parseSelectSub,0.0,0.0,0.0,0.0,0.0
Select.expandColumnList|Select.init|Parser.parseSelect,0.0,0.0,0.0,0.0,0.0
Select.init|Parser.parseSelect|Parser.parsePrepared,0.0,0.0,0.0,0.0,0.0
Select.isEverything|Query.isEverything|Query.query,0.0,0.0,0.0,0.0,0.0
Select.isEverything|Subquery.isEverything|Expression.isEverything,0.0,0.0,0.0,0.0,0.0
Select.prepare|Parser.prepareCommand|Session.prepareLocal,0.0,0.0,0.0,0.0,0.0
Select.queryWithoutCache|Query.query|CommandContainer.query,0.0,0.0,0.0,0.0,0.0
SelectChannelConnector$1.acceptChannel|SelectorManager$SelectSet.doSelect|SelectorManager.doSelect,0.0,0.0,0.0,0.0,0.0
ServerSocketChannelImpl.<init>|SelectorProviderImpl.openServerSocketChannel|ServerSocketChannel.open,0.0,0.0,0.0,0.0,0.0
ServiceImpl.buildDelegateService|ServiceImpl.<init>|ServiceImpl$$EnhancerByCGLIB$$3d6208f7.<init>,0.0,0.0,0.0,0.0,0.0
ServiceProvider.getProperties|JaxbOpenejb$1.endElement|AbstractSAXParser.endElement,0.0,0.0,0.0,0.0,0.0
Session.isReconnectNeeded|JdbcConnection.checkClosed|JdbcXAConnection$PooledJdbcConnection.checkClosed,0.0,0.0,0.0,0.0,0.0
SessionRemote.<init>|JdbcConnection.<init>|JdbcConnection.<init>,0.0,0.0018595277464442492,0.0,0.00029224904162167487,0.002151776788065924
SignatureParser.parseClassSignature|SignatureParser.parseClassSig|ClassRepository.parse,0.0,0.0,0.0,0.0,0.0
SinglePoolConnectionInterceptor.internalGetConnection|AbstractSinglePoolConnectionInterceptor.getConnection|TransactionEnlistingInterceptor.getConnection,0.0,0.0,0.0,0.0,0.0
StatementHandle.close|TradeDirect.creditAccountBalance|TradeDirect.buy,0.0,0.0,0.0,0.0,0.0
StringCache.getCache|StringCache.getNew|Parser.read,0.0,0.0,0.0,0.0,0.0
StringCache.getNew|Parser.read|Parser.parse,0.0,0.0,0.0,0.0,0.0
StringCache.getNew|Parser.read|Parser.readColumnIdentifier,0.0,0.0,0.0,0.0,0.0
StringCache.getNew|Parser.read|Parser.readIdentifierWithSchema,0.0,0.0,0.0,0.0,0.0
StringCache.getNew|Parser.read|Parser.readIf,0.0,0.0,0.0,0.0,0.0
StringCache.get|ValueString.get|JdbcPreparedStatement.setString,0.0,0.0,0.0,0.0,0.0
StringMap.getBestEntry|BufferCache.getBest|HttpParser.parseNext,0.0,0.0,0.0,0.0,0.0
StructureLoader.startElement|UnmarshallingContext._startElement|UnmarshallingContext.startElement,0.0,0.07055666666807761,0.0,0.011020000000523092,0.08157666666860071
SwitchingServiceRefBuilder.<clinit>|NativeConstructorAccessorImpl.newInstance0|NativeConstructorAccessorImpl.newInstance,0.0,0.00031275647280888034,0.0,4.9711069429387626e-05,0.00036246754223826796
Table.compareTypeSave|BaseIndex.compareValues|BaseIndex.compareRows,0.0,0.0,0.0,0.0,0.0
Table.getTemplateRow|IndexCursor.getSearchRow|IndexCursor.find,0.0,0.0,0.0,0.0,0.0
TableData.lock|Update.update|CommandContainer.update,0.0,0.0,0.0,0.0,0.0
TableFilter.getBestPlanItem|Plan.calculateCost|Optimizer.testPlan,0.0,0.0,0.0,0.0,0.0
TableFilter.next|Select.queryFlat|Select.queryWithoutCache,0.0,0.0,0.0,0.0,0.0
TeePrintStream.<init>|Benchmark.initialize|Benchmark.<init>,0.0,0.0,0.0,0.0,0.0
TraceSystem.getTrace|Database.getTrace|Command.<init>,0.0,0.0,0.0,0.0,0.0
TraceSystem.getTrace|Database.getTrace|Session.getTrace,0.0003136387042747353,0.0,4.4349642026158927e-05,0.0,0.0003579883463008942
TradeDirect.buy|DaCapoDBBuilder.addUser|DaCapoDBBuilder.populateUsers,0.0,0.0,0.0,0.0,0.0
TradeDirect.getAccountData|TradeDirect.buy|DaCapoDBBuilder.addUser,0.0,0.0,0.0,0.0,0.0
TradeDirect.getOrderDataFromResultSet|TradeDirect.getOrderData|TradeDirect.buy,0.0,0.0,0.0,0.0,0.0
TradeDirect.register|DaCapoDBBuilder.addUser|DaCapoDBBuilder.populateUsers,0.0,0.0,0.0,0.0,0.0
TradeDirect.releaseConn|TradeDirect.buy|DaCapoDBBuilder.addUser,0.0,0.0,0.0,0.0,0.0
TradeDirect.sell|DaCapoTrader.doSell|DaCapoTrader.runTradeSession,0.0,0.0,0.0,0.0,0.0
TransactionCachingInterceptor.getConnection|ConnectionHandleInterceptor.getConnection|TCCLInterceptor.getConnection,0.0,0.0,0.0,0.0,0.0
TransformerFactoryImpl.newTransformerHandler|JAXBContextImpl.createTransformerHandler|DomLoader$State.<init>,0.0,0.0,0.0,0.0,0.0
TreeCursor.next|MultiVersionIndex.removeIfExists|MultiVersionIndex.add,0.0,0.0,0.0,0.0,0.0
TreeCursor.next|MultiVersionIndex.removeIfExists|MultiVersionIndex.commit,0.0,0.0,0.0,0.0,0.0
TreeIndex.child|TreeIndex.balance|TreeIndex.add,0.0,0.0,0.0,0.0,0.0
TreeIndex.child|TreeIndex.remove|MultiVersionIndex.removeIfExists,0.0,0.0,0.0,0.0,0.0
TreeIndex.findFirstNode|TreeIndex.find|MultiVersionIndex.find,0.0,0.0,0.0,0.0,0.0
TreeIndex.findFirstNode|TreeIndex.remove|MultiVersionIndex.remove,0.0,0.0,0.0,0.0,0.0
TreeIndex.find|MultiVersionIndex.removeIfExists|MultiVersionIndex.commit,0.0,0.0,0.0,0.0,0.0
TreeIndex.next|TreeCursor.next|MultiVersionCursor.step,0.0,0.0,0.0,0.0,0.0
TxUtil.getTransactionIfActive|TransactionEnlistingInterceptor.returnConnection|TransactionCachingInterceptor.internalReturn,0.0,0.0,0.0,0.0,0.0
TypeInfo.buildTypeDesc|ReadOnlyServiceDesc.readExternal|ObjectInputStream.readExternalData,0.0,0.00010564173038703578,0.0,1.918253182118952e-05,0.0001248242622082253
URLClassPath$3.run|URLClassPath$3.run|AccessController.doPrivileged,0.0,0.10119633333427676,0.0,0.014159999996384915,0.11535633333066167
URLClassPath.getLoader|URLClassPath.getNextLoader|URLClassPath.getResource,0.0,0.0,0.0,0.0,0.0
URLClassPath.getLookupCache|URLClassPath.getResource|URLClassLoader$1.run,0.05057040108545647,0.0,0.0022465777463403507,0.0,0.05281697883179682
UTF8.encode|ClassFileAssembler.emitConstantPoolUTF8|AccessorGenerator.emitCommonConstantPoolEntries,0.0,0.0009317894749833988,0.0,0.00012910562112460638,0.001060895096108005
UTF_8$Encoder.encode|StringCoding$StringEncoder.encode|StringCoding.encode,0.0,0.0,0.0,0.0,0.0
UndoLog.size|Session.getLogId|Command.executeUpdate,0.0,0.0,0.0,0.0,0.0
Unsafe.park|LockSupport.parkNanos|AbstractQueuedSynchronizer.doAcquireSharedNanos,0.006209932587272354,0.0,0.0009855758270327789,0.0,0.0071955084143051325
Unsafe.unpark|LockSupport.unpark|AbstractQueuedSynchronizer.unparkSuccessor,0.0,0.0,0.0,0.0,0.0
Use.<clinit>|ObjectStreamClass.hasStaticInitializer|ObjectStreamClass.computeDefaultSUID,0.0,0.0,0.0,0.0,0.0
User.checkRight|Update.update|CommandContainer.update,0.0,0.0,0.0,0.0,0.0
Util.calcSchemaType|PropertyInfoImpl.<init>|ERPropertyInfoImpl.<init>,0.0,0.07995633332757279,0.0,0.00953000000299653,0.08948633333056932
Value.compareTo|Database.areEqual|Query.sameResultAsLast,0.0,0.0,0.0,0.0,0.0
Value.compareTypeSave|Table.compareTypeSave|BaseIndex.compareValues,0.0,0.0,0.0,0.0,0.0
ValueBoolean.getBoolean|Expression.getBooleanValue|Select.queryFlat,0.0,0.0,0.0,0.0,0.0
ValueInt.compareSecure|Value.compareTypeSave|Table.compareTypeSave,0.0,0.0,0.0,0.0,0.0
ValueInt.getType|Value.convertTo|Comparison.getValue,0.0,0.0,0.0,0.0,0.0
VirtualTopic.getVirtualDestination|VirtualDestinationInterceptor.setVirtualDestinations|BrokerService.createDefaultDestinationInterceptor,0.0,0.0,0.0,0.0,0.0
W3CDomHandler.marshal|W3CDomHandler.marshal|XMLSerializer.writeDom,0.0,0.0,0.0,0.0,0.0
WstxInputFactory.doCreateSR|WstxInputFactory.createSR|WstxInputFactory.createSR,0.0,0.10011897643141036,0.0,0.014700959596642008,0.11481993602805238
XAMCF.getPassword|CredentialExtractor.matches|ManagedXAConnection.matches,0.0,0.0,0.0,0.0,0.0
XMLDocumentFragmentScannerImpl$FragmentContentDriver.next|XMLDocumentScannerImpl.next|XMLNSDocumentScannerImpl.next,0.0,0.005396585782703554,0.0,0.0008092617908249509,0.006205847573528505
XMLNSDocumentScannerImpl.createContentDriver|XMLDocumentFragmentScannerImpl.<init>|XMLDocumentScannerImpl.<init>,0.0,0.07130944444118842,0.0,0.011466666668032605,0.08277611110922102
XMLSerializer.startElement|XMLSerializer.startElement|SingleElementNodeProperty.serializeBody,0.0,0.0,0.0,0.0,0.0
ZoneInfoFile.load|ZoneInfoFile.access$000|ZoneInfoFile$1.run,0.04984694301665868,0.0,0.006087938700927789,0.0,0.05593488171758647
