method,package1,package2,dram1,dram2,energy
com.sun.jmx.mbeanserver,0.0008845045371310158,0.0,0.00012710569836011547,0.0,0.0010116102354911314
com.sun.org.apache.xalan.internal.xsltc.runtime.output,0.0,0.0,0.0,0.0,0.0
com.sun.org.apache.xerces.internal.impl,0.07248933333297221,0.0,0.009354999999535114,0.0,0.08184433333250732
com.sun.org.apache.xerces.internal.jaxp,0.0,0.002908514685264522,0.0,0.0004581818182079994,0.0033666965034725212
com.sun.org.apache.xerces.internal.parsers,0.06351733333334171,0.0,0.005320000001423371,0.0,0.06883733333476508
com.sun.xml.bind.api.impl,0.051055833334127484,0.0,0.006020000000717118,0.0,0.0570758333348446
com.sun.xml.bind.v2.model.impl,0.14578075438524257,0.0,0.01810984962487014,0.0,0.1638906040101127
com.sun.xml.bind.v2.model.nav,0.049079916666566234,0.0,0.005608749999434318,0.0,0.05468866666600055
com.sun.xml.bind.v2.runtime,0.05621200000087912,0.0,0.008146666666854999,0.0,0.06435866666773413
com.sun.xml.bind.v2.runtime.output,0.0,0.0,0.0,0.0,0.0
com.sun.xml.bind.v2.runtime.unmarshaller,0.0,0.0,0.0,0.0,0.0
com.sun.xml.bind.v2.util,0.0,0.0,0.0,0.0,0.0
edu.emory.mathcs.backport.java.util.concurrent,0.002267764243620991,0.0,0.00031077638345367416,0.0,0.002578540627074665
javassist,0.0,0.0014268034447168965,0.0,0.00023376899693609415,0.0016605724416529906
javassist.bytecode,0.0,0.0,0.0,0.0,0.0
javax.management,0.0,0.03449858362038913,0.0,0.005576128198175751,0.04007471181856488
net.sf.cglib.asm,0.0001107468725145884,0.0,2.1902435315173958e-05,0.0,0.00013264930782976237
net.sf.cglib.core,0.0,0.0,0.0,0.0,0.0
net.sf.cglib.proxy,0.0,0.0,0.0,0.0,0.0
org.apache.activemq.filter,0.0,0.00044929836828523206,0.0,7.664335664065385e-05,0.0005259417249258859
org.apache.activemq.util,0.0,0.0,0.0,0.0,0.0
org.apache.axis.encoding,0.0,0.0,0.0,0.0,0.0
org.apache.commons.jexl,0.06069616666637658,0.0,0.007606666666106323,0.0,0.06830283333248291
org.apache.derby.catalog.types,0.0,0.0,0.0,0.0,0.0
org.apache.derby.drda,0.0,0.0,0.0,0.0,0.0
org.apache.derby.iapi.jdbc,0.0,0.00015616551722030572,0.0,2.8551724169339093e-05,0.0001847172413896448
org.apache.derby.iapi.services.context,0.0008692689026077591,0.0,0.00014803555845512473,0.0,0.0010173044610628837
org.apache.derby.iapi.sql.dictionary,0.0,0.0,0.0,0.0,0.0
org.apache.derby.iapi.types,0.0,0.0,0.0,0.0,0.0
org.apache.derby.impl.services.monitor,0.00099281481615272,0.0,8.925867057739252e-05,0.0,0.0010820734867301124
org.apache.derby.impl.sql.compile,0.0,0.006062972028023347,0.0,0.0008055944055957081,0.006868566433619055
org.apache.derby.impl.sql.execute,0.0,0.003776496503493176,0.0,0.0005582517482685511,0.004334748251761727
org.apache.derby.impl.store.access.btree.index,0.0,0.0028241747126502427,0.0,0.0004719310345117473,0.00329610574716199
org.apache.derby.impl.store.access.sort,0.0,0.0,0.0,0.0,0.0
org.apache.derby.jdbc,0.003283779227271255,0.0,0.0004531126891867714,0.0,0.0037368919164580262
org.apache.geronimo.client,0.0,0.0,0.0,0.0,0.0
org.apache.geronimo.connector.outbound,0.0001240511505369044,0.0,2.1822476351540687e-05,0.0,0.00014587362688844508
org.apache.geronimo.gbean,0.059465811110971524,0.0,0.008406499999627058,0.0,0.06787231111059858
org.apache.geronimo.kernel,0.0,0.0,0.0,0.0,0.0
org.apache.geronimo.kernel.basic,0.0,0.0,0.0,0.0,0.0
org.apache.geronimo.kernel.config,0.10719500833248885,0.0,0.014898125000460522,0.0,0.12209313333294937
org.apache.geronimo.kernel.log,0.0,0.0008205594405388603,0.0,0.00013594405591883533,0.0009565034964576956
org.apache.geronimo.kernel.repository,0.0,0.0,0.0,0.0,0.0
org.apache.geronimo.openejb,0.0,0.0,0.0,0.0,0.0
org.apache.geronimo.openejb.deployment,0.0,0.0,0.0,0.0,0.0
org.apache.geronimo.samples.daytrader,0.0,0.0,0.0,0.0,0.0
org.apache.geronimo.samples.daytrader.direct,0.0027911941448174158,0.0,0.00043955770556565764,0.0,0.0032307518503830734
org.apache.geronimo.system.configuration.condition,0.0,0.0,0.0,0.0,0.0
org.apache.geronimo.system.logging.log4j,0.0,0.0,0.0,0.0,0.0
org.apache.log4j,0.020009333333291583,0.0,0.0022449999996752013,0.0,0.022254333332966784
org.apache.openejb.assembler.classic,0.0,0.00017627972022262305,0.0,2.853146852303453e-05,0.0002048111887456576
org.apache.openejb.config,0.0,0.0,0.0,0.0,0.0
org.apache.openejb.core,0.0,0.0,0.0,0.0,0.0
org.apache.openjpa.lib.util.concurrent,0.0,0.0,0.0,0.0,0.0
org.apache.xbean.propertyeditor,0.0,0.0012261650350003446,0.0,0.00018327272728319976,0.0014094377622835444
org.apache.xbean.recipe,0.0,0.0,0.0,0.0,0.0
org.apache.xmlbeans.impl.piccolo.xml,0.0,0.000619763851477766,0.0,6.529473391883207e-05,0.0006850585853965981
org.apache.xmlbeans.impl.regex,0.0,0.0,0.0,0.0,0.0
org.apache.xmlbeans.impl.schema,0.0,0.0,0.0,0.0,0.0
org.apache.xmlbeans.impl.store,0.0,0.0013802519674048009,0.0,0.00017943743774248997,0.0015596894051472909
org.apache.xmlbeans.impl.values,0.0,0.0,0.0,0.0,0.0
org.dacapo.harness,0.0,0.0,0.0,0.0,0.0
org.h2.command,0.013173136011674101,0.010510365151483094,0.0018119753708979803,0.0014736711858024023,0.026969147719857575
org.h2.command.dml,0.002599837234050783,0.0,0.0004321196808729276,0.0,0.0030319569149237103
org.h2.engine,0.0,0.0040798455172676015,0.0,0.000676882758632238,0.004756728275899839
org.h2.expression,0.002413276723863439,0.0,0.00036894874574888443,0.0,0.0027822254696123236
org.h2.index,0.01112215992397678,0.005848970370371481,0.0015798442191633194,0.0006626666666879491,0.019213641180199532
org.h2.jdbc,0.007002617665838602,0.0,0.0010865085741456784,0.0,0.008089126239984281
org.h2.jdbcx,0.0,0.0,0.0,0.0,0.0
org.h2.log,0.0,0.0,0.0,0.0,0.0
org.h2.message,0.0,0.0,0.0,0.0,0.0
org.h2.result,0.00477595495213594,0.0030602006357465443,0.000746324794344867,0.00043367069293845514,0.009016151075165808
org.h2.table,0.0,0.007144582231954714,0.0,0.0009961393677997202,0.008140721599754434
org.h2.util,0.0,0.0011327634409060003,0.0,0.00015419354836452719,0.0012869569892705274
org.h2.value,0.0,0.0,0.0,0.0,0.0
org.slf4j.helpers,0.0,0.08526176395979837,0.0,0.012689513243803081,0.09795127720360144
org.tranql.connector.jdbc,0.0018853035187453527,0.0,0.0002690301088094591,0.0,0.002154333627554812
sun.management,0.0007976301741177358,0.0,9.279037594470142e-05,0.0,0.0008904205500624372
sun.misc,0.0035156861701986426,0.005275033448768501,0.0005471808510768088,0.0007353446063140637,0.010073245076358017
sun.net.www.protocol.file,0.0,0.0,0.0,0.0,0.0
sun.net.www.protocol.jar,0.08593766666672309,0.0,0.011479999998603793,0.0,0.09741766666532688
sun.nio.ch,0.0009751757595726539,0.007373910806131539,0.00012659194154157602,0.000817034095179822,0.009292712602425592
sun.nio.cs,0.02082966324005795,0.004367593103509942,0.0025790343619059328,0.0005638965517422987,0.028340187257216126
sun.reflect,0.0,0.0,0.0,0.0,0.0
sun.reflect.generics.tree,0.0,0.0,0.0,0.0,0.0
sun.security.ec,0.0,0.0,0.0,0.0,0.0
sun.security.provider,0.0,0.0013033024670386568,0.0,0.00014287880929083659,0.0014461812763294933
sun.security.ssl,0.0,0.0,0.0,0.0,0.0
sun.security.util,0.0,0.0,0.0,0.0,0.0
sun.security.x509,0.0,0.0004776913862526921,0.0,4.801746420956583e-05,0.0005257088504622579
sun.text.normalizer,0.0,0.008525129434826447,0.0,0.0009361073563859448,0.009461236791212392
sun.util.calendar,0.0005076615107881952,0.0,8.163936597621873e-05,0.0,0.000589300876764414
sun.util.locale.provider,0.0,0.0,0.0,0.0,0.0
sun.util.resources,0.0,0.0,0.0,0.0,0.0
