method,hits
AbstractClassGenerator.create,1
AbstractManagedConnection.localTransactionStart,1
AbstractSAXParser.startDocument,1
AbstractSinglePoolConnectionInterceptor.internalReturn,1
AbstractXADataSourceMCF.matchManagedConnections,1
AccessorInjector.prepare,1
ArrayInputStream.readUnsignedByte,1
Assembler.<init>,1
AtomicBoolean.compareAndSet,1
AxisWebServiceContainer.doService,1
BackgroundCleaner.<init>,1
BaseDataFileFactoryJ4.newRAFContainer,1
BaseIndex.compareRows,19
BaseLocale.getLanguage,1
BaseMonitor.runWithState,1
BasicBlock$Maker.makeMark,1
BasicUUID.equals,1
Benchmark.fileFromInputStream,1
BuiltinSchemaTypeSystem.fillInType,1
CONSTANT_Utf8_info.classFileSize,1
Cache.newTable,1
Call.query,32
ClassFileAssembler.cpi,1
ClassPool.compress,6
CodeEmitter.mark,1
CollatorProviderImpl.getInstance,1
CollectionUtils.bucket,1
Command.executeQuery,1
Command.executeQueryLocal,13
Command.executeUpdate,43
CommandContainer.<init>,14
CompareMode.compareString,2
Comparison.mapColumns,1
ConcurrentCache.find,1
ConcurrentCache.findCached,1
ConcurrentCache.settingIdentityComplete,1
ConcurrentLockSet.unlockReference,1
ConfigurationFactory.<init>,1
ConfigurationFactory.resolveServiceProvider,1
ConfigurationUtil.loadBootstrapConfiguration,1
ConnectionHandle.close,2
ConnectionInfo.getManagedConnectionInfo,2
ConnectionInfo.setTrace,1
ConnectionInputStream.registerRefs,1
ConnectionTrackingInterceptor.returnConnection,1
ConstInfo.<init>,1
ConstPool.readOne,1
ConsumerInfo.createRemoveCommand,1
DaCapoTrader.doLogout,1
DataSource$HandleFactory.newHandle,1
Database.areEqual,1
Database.open,1
DbObjectBase.getSQL,2
DocumentBuilderImpl.<init>,1
DocumentBuilderImpl.newDocument,4
Driver40.newEmbedDatabaseMetaData,2
Driver40.newEmbedPreparedStatement,2
Driver40.newEmbedResultSet,1
EPollArrayWrapper.epollWait,1
ElementImpl.setAttributeNS,1
EnterpriseNamingContext.createEnterpriseNamingContext,1
EnvelopeBuilder.<init>,2
ExceptionTable.<init>,1
ExpressionColumn.getAlias,1
ExpressionColumn.getTableName,1
ExpressionColumn.mapColumns,5
ExpressionFactory.<clinit>,1
ExpressionVisitor.<init>,1
FastClass.getMethod,1
FeaturePropertyBase.getSystemProperty,1
FileContainer.readHeader,1
FromTable.initAccessPaths,1
Function.getValueWithArgs,2
GBeanData$PriorityComparator.compare,1
GeneratedMethodAccessor1.invoke,1
GenericDeclRepository.getTypeParameters,1
IIOPHelper.<clinit>,1
IndexCondition.getCurrentValue,1
IndexCursor.find,1
IndexCursor.getSearchRow,3
Insert.prepare,1
InstrumentationImpl.transform,1
Introspector.getMXBeanInterface,1
JCAConnectionFactoryImpl.verifyObjectName,1
JarFileFactory.get,1
Javac.<init>,1
JdbcConnection.checkClosed,2
JdbcConnection.getInternalAutoCommit,2
JdbcConnection.prepareStatement,1
JdbcConnection.setExecutingStatement,1
JdbcPreparedStatement.setParameter,1
JdbcResultSet.getColumnIndex,4
JdbcResultSet.getInt,1
JdbcResultSet.getString,1
JdbcStatement.checkClosed,1
JdbcXAConnection$PooledJdbcConnection.checkClosed,13
JexlConditionParser.doEvaluate,1
JmxMBeanServer.cloneObjectName,1
KeyFactory.<clinit>,1
KeySequenceDirect.getNextID,1
KeyUsageExtension.<init>,1
Level2OptimizerFactoryImpl.getOptimizerImpl,1
Lister.getImplClass,1
LocalResult.close,4
LocalResult.currentRow,1
LocalResult.getAlias,1
LocalResult.next,3
LongVector.addElement,2
MBeanInfo.<init>,1
MBeanNotificationInfo.<init>,1
ManagedXAConnection.cleanup,1
MarketSummaryDataBean.getRandomInstance,1
MarshallerImpl.createWriter,1
MdbContainer.createActivationSpec,1
MimeTable.parse,1
MimeTypes.<clinit>,1
MultiVersionCursor.getSearchRow,1
MultiVersionCursor.loadNext,4
MultiVersionCursor.next,1
MultiVersionIndex.commit,1
MultiVersionIndex.find,1
New.hashMap,1
NsInputElementStack.<init>,1
ObjectArray$ObjectArrayIterator.hasNext,2
ObjectArray.<init>,1
ObjectArray.add,1
ObjectArray.ensureCapacity,1
ObjectArray.get,1
ObjectArray.newInstance,1
ObjectArray.set,1
ObjectUtils.arrayCopy,2
OpenEjbSystemGBean.<init>,1
OptimizerFactoryImpl.getOptimizer,1
Parameter.<init>,1
ParseUtil.encodePath,1
Parser.addExpected,3
Parser.checkLiterals,1
Parser.getKeywordOrIdentifier,1
Parser.getSaveTokenType,3
Parser.initialize,15
Parser.parse,3
Parser.parseSelectSimpleSelectPart,2
Parser.prepareCommand,22
Parser.read,7
Parser.readConcat,2
Parser.readIf,10
Parser.readTableFilter,2
Parser.readTerm,1
ParserImpl.getParser,3
ParserImpl.getTokenManager,2
Plan.<init>,1
Prepared.checkParameters,50
Query.<clinit>,1
RMIRegistryService.doStart,1
ReferencedTablesVisitor.visit,1
ReflectUtils.getMethodInfo,1
ReflectionFactory.newConstructor,1
Row.getValue,6
Row.getVersion,1
RowList.next,1
RuntimeClassInfoImpl$RuntimePropertySeed.getRawType,1
SAXParserFactoryImpl.newSAXParser,1
SAXParserImpl.<init>,2
SQLParser.jj_2_4,1
SQLParser.jj_3_25,1
SSLContextImpl$AbstractTLSContext.createSSLEngineImpl,1
SSLEngineImpl.init,1
SYSKEYSRowFactory.buildDescriptor,1
ScanIndex.add,1
ScanIndex.commit,1
ScanIndex.incrementRowCount,1
ScanIndex.remove,1
ScheduledThreadPoolExecutor.<init>,1
Select.expandColumnList,2
Select.init,1
Select.isEverything,1
Select.prepare,1
Select.preparePlan,1
Select.setEvaluatable,1
ServerSocketChannelImpl.<init>,1
Service.createCall,1
Session.getTrace,2
Session.isReconnectNeeded,1
Session.unlockAll,1
SharedSecrets.getJavaLangAccess,1
SignerInfo.verify,1
SimpleEncryption.<clinit>,1
SinglePoolConnectionInterceptor.internalGetConnection,2
StatelessContainer.<init>,1
StatementNode.generate,1
StreamRemoteCall.getOutputStream,1
StringCache.getNew,7
StringUtils.toUpperEnglish,1
Table.compareTypeSave,1
Table.getColumn,1
Table.getTemplateRow,1
Table.validateConvertUpdateSequence,1
TableData.lock,1
TableData.traceLock,1
TableFilter.<init>,1
TableFilter.getTableAlias,1
TableFilter.next,2
ThreadClassloaderHandler.lifecycleCommand,1
TopicRegion.createSubscription,1
Trace.isEnabled,3
TraceObject.getNextId,1
TraceObject.isDebugEnabled,1
TraceSystem.getTrace,12
TradeDirect.completeOrder,1
TradeDirect.getAccountData,1
TradeDirect.getQuote,1
TransactionCachingInterceptor.returnConnection,1
TransactionEnlistingInterceptor.returnConnection,1
TransactionManagerImpl.getTransaction,1
TransducedAccessor.get,1
TransletOutputHandlerFactory.getSerializationHandler,1
TreeIndex.add,4
TreeIndex.balance,3
TreeIndex.find,2
TreeIndex.findFirstNode,7
TreeNode.isFromLeft,2
TxUtil.getTransactionIfActive,2
Type.getType,1
TypeChecker.atExpr,1
TypeInfoImpl.reader,1
URLClassPath$FileLoader.getResource,1
URLClassPath.getLoader,2
URLClassPath.getResource,1
UndoLog.size,1
UnmarshallerImpl.unmarshal0,1
Unsafe.defineClass,1
Unsafe.park,25
Unsafe.setMemory,1
Unsafe.unpark,12
Update.update,1
User.checkRight,1
Value.<init>,1
Value.cache,1
Value.checkPrecision,1
Value.compareTypeSave,3
ValueDecimal.convertScale,1
ValueInt.compareSecure,4
WstxInputFactory.doCreateSR,1
XML11Configuration.<init>,1
XMLDTDValidator.<init>,1
XMLEntityManager.<clinit>,1
XMLEntityManager.setScannerVersion,1
XMLScanner.setProperty,1
ac40a68025x0167x1ae7x9589xffffb4291c904.e0,1
