method,package1,package2,dram1,dram2,energy
AbstractQueuedSynchronizer,0.0,0.0,0.0,0.0,0.0
AbstractQueuedSynchronizer$Node,0.0,0.0,0.0,0.0,0.0
AbstractStringBuilder,0.0,0.0,0.0,0.0,0.0
AccessController,0.0,0.0018645398228880493,0.0,0.000328805309782666,0.0021933451326707153
Arrays,0.045534053409398964,0.0,0.006217476733072348,0.0,0.05175153014247131
BigDecimal,0.0,0.0,0.0,0.0,0.0
BufferedInputStream,0.10700354593338565,0.003845533437634525,0.01282714962630642,0.0004911949627915764,0.12416742396011818
Calendar,0.0,0.0,0.0,0.0,0.0
Character,0.0,0.0,0.0,0.0,0.0
CharacterData00,0.0,0.0004927372263768266,0.0,7.226277370282863e-05,0.0005650000000796552
CharacterDataLatin1,0.0,0.0,0.0,0.0,0.0
Class,0.02473887490426774,0.00993557776346721,0.0029194156692710777,0.0011372042761144696,0.0387310726131205
Class$MethodArray,0.0,0.0,0.0,0.0,0.0
ClassLoader,0.2656612772804083,0.012602590830357101,0.03542788789777283,0.0012474941235888265,0.31493925013212704
Collections$UnmodifiableMap$UnmodifiableEntrySet,0.0,0.00033851260499844816,0.0,4.890756307369364e-05,0.0003874201680721418
Collections$UnmodifiableMap$UnmodifiableEntrySet$1,0.0,0.0,0.0,0.0,0.0
ConcurrentHashMap,0.00024363479824435474,0.0,2.978569142227735e-05,0.0,0.0002734204896666321
DataInputStream,0.0,0.0033434262295486405,0.0,0.00044569672130908986,0.0037891229508577305
FileDescriptor,0.05986775010318394,0.0,0.004358201992331322,0.0,0.06422595209551527
FileInputStream,0.04222044000001916,0.00189537754960248,0.0058860000006097845,0.00026764349102274137,0.05026946104125417
FileOutputStream,0.9689508779951703,0.0,0.07953589458327084,0.0,1.0484867725784413
Finalizer,0.0,0.0022542790697356,0.0,0.00032133720931371435,0.0025756162790493147
Formatter,0.0001404849304854717,0.0,2.020281246160879e-05,0.0,0.0001606877429470805
Formatter$FormatSpecifier,0.0,0.0,0.0,0.0,0.0
HashMap,0.0,0.0004639543556713087,0.0,5.727398282005434e-05,0.0005212283384913631
Hashtable,0.0,0.0,0.0,0.0,0.0
Hashtable$Enumerator,0.0,0.0,0.0,0.0,0.0
Inflater,1.891810266705598,0.0051565984282356155,0.16089433827706542,0.0005778759915254302,2.0584390794024245
InflaterInputStream,0.05494939238812089,0.0,0.00412644033651966,0.0,0.05907583272464055
Integer,0.0,0.0,0.0,0.0,0.0
JarFile,0.0,0.0,0.0,0.0,0.0
LinkedList,0.0,0.0,0.0,0.0,0.0
Logger,0.04973049372627239,0.0,0.003991388039201204,0.0,0.05372188176547359
Math,0.0,0.00042546715334152986,0.0,6.043795621775458e-05,0.00048590510955928446
Modifier,0.06674977158794891,0.0,0.008052495004895098,0.0,0.074802266592844
MutableBigInteger,0.001603998175992707,0.0,0.0002074965800409665,0.0,0.0018114947560336737
Object,0.0,0.0,0.0,0.0,0.0
ObjectStreamClass,0.0009329947596562355,0.0,0.00010407887459196004,0.0,0.0010370736342481955
PrintStream,0.0,0.0,0.0,0.0,0.0
Proxy,0.0,0.0,0.0,0.0,0.0
RandomAccessFile,0.0,0.0,0.0,0.0,0.0
Reference,0.0,0.0,0.0,0.0,0.0
ScheduledThreadPoolExecutor,0.03324244505495369,0.0,0.004500000001256582,0.0,0.03774244505621027
String,0.05247337204582794,0.0,0.007672204726575041,0.0,0.06014557677240298
StringBuffer,0.0,0.0,0.0,0.0,0.0
StringBuilder,0.0,0.0,0.0,0.0,0.0
StringCoding$StringEncoder,0.0,0.0,0.0,0.0,0.0
StringReader,0.0,0.0006371463414251321,0.0,6.31707317086516e-05,0.0007003170731337837
Thread,0.0,0.0,0.0,0.0,0.0
ThreadLocal$ThreadLocalMap,0.0,0.0,0.0,0.0,0.0
Throwable,0.13549952431364948,0.007451811524204601,0.018450968110894538,0.0009829195714534653,0.16238522352020207
URL,0.0,0.0,0.0,0.0,0.0
URLConnection,0.0,0.0,0.0,0.0,0.0
UnixFileSystem,0.13144303924869866,0.0,0.015773556520266713,0.0,0.14721659576896537
ZipCoder,0.032427529410650836,0.005795904873455866,0.005777647057959042,0.0008307352183702253,0.04483181656043597
ZipFile,0.2013791593672761,0.0042740016361946746,0.021162039525983015,0.0004332776827639263,0.22724847821221775
ZipInputStream,0.05120220980848362,0.0,0.004008026151437834,0.0,0.05521023595992145
