method,package1,package2,dram1,dram2,energy
AbstractPlainSocketImpl.getOutputStream|Socket$3.run|Socket$3.run,0.08895045964532687,0.0,0.010310606286221704,0.0,0.09926106593154857
AbstractQueuedSynchronizer.compareAndSetState|ReentrantReadWriteLock$Sync.tryAcquireShared|AbstractQueuedSynchronizer.acquireShared,0.0,0.0,0.0,0.0,0.0
AbstractQueuedSynchronizer.compareAndSetState|ReentrantReadWriteLock$Sync.tryReleaseShared|AbstractQueuedSynchronizer.releaseShared,0.0,0.0,0.0,0.0,0.0
AbstractQueuedSynchronizer.doAcquireSharedNanos|AbstractQueuedSynchronizer.tryAcquireSharedNanos|Semaphore.tryAcquire,0.0,0.0,0.0,0.0,0.0
AbstractQueuedSynchronizer.hasQueuedPredecessors|Semaphore$FairSync.tryAcquireShared|AbstractQueuedSynchronizer.doAcquireSharedNanos,0.0,0.003222843434328256,0.0,0.0004178030303040886,0.0036406464646323447
AbstractQueuedSynchronizer.setHeadAndPropagate|AbstractQueuedSynchronizer.doAcquireSharedNanos|AbstractQueuedSynchronizer.tryAcquireSharedNanos,0.0,0.0,0.0,0.0,0.0
AbstractStringBuilder.append|StringBuilder.append|JdbcResultSet.getColumnIndex,0.0,0.0,0.0,0.0,0.0
AbstractStringBuilder.newCapacity|AbstractStringBuilder.ensureCapacityInternal|AbstractStringBuilder.append,0.0,0.0,0.0,0.0,0.0
AccessController.doPrivileged|URLClassLoader.findClass|MultiParentClassLoader.loadClassInternal,0.001388826347280344,0.0,0.00012907185632711788,0.0,0.0015178982036074618
AccessController.doPrivileged|URLClassPath.getLoader|URLClassPath.getLoader,0.0,0.0,0.0,0.0,0.0
ArrayList.elementData|ArrayList.remove|SinglePoolConnectionInterceptor.internalGetConnection,0.0,0.0,0.0,0.0,0.0
ArrayList.readObject|GeneratedMethodAccessor16.invoke|DelegatingMethodAccessorImpl.invoke,0.0035204768211685666,0.0,0.0004739602649158841,0.0,0.00399443708608445
Arrays.copyOfRange|String.<init>|String.substring,0.0,0.0,0.0,0.0,0.0
Arrays.copyOfRange|String.<init>|String.toUpperCase,0.0,0.0,0.0,0.0,0.0
Arrays.copyOfRange|String.<init>|StringBuilder.toString,0.0,0.0,0.0,0.0,0.0
Arrays.copyOf|ZipCoder.getBytes|ZipFile.getInputStream,0.0,0.0,0.0,0.0,0.0
BigDecimal.<init>|BigDecimal.<init>|BigDecimal.<init>,0.0,0.0,0.0,0.0,0.0
BigDecimal.<init>|ValueTimestamp.convertScale|Column.validateConvertUpdateSequence,0.0,0.0,0.0,0.0,0.0
BigDecimal.setScale|MathUtils.setScale|ValueTimestamp.convertScale,0.0,0.0,0.0,0.0,0.0
Buffer.flip|StreamDecoder.<init>|StreamDecoder.<init>,0.0,0.09857166666188276,0.0,0.013679999998809459,0.11225166666069222
BufferedInputStream.<init>|BufferedInputStream.<init>|ClassPool.makeClass,0.001240915111385926,0.0,0.00016345574955876766,0.0,0.0014043708609446938
BufferedInputStream.<init>|BufferedInputStream.<init>|CtClassType.getClassFile3,0.0,0.0,0.0,0.0,0.0
BufferedInputStream.fill|BufferedInputStream.read|DataInputStream.readInt,0.0,0.03969816666419016,0.0,0.0020475000013296567,0.04174566666551982
BufferedInputStream.read|DataInputStream.readInt|CodeAttribute.<init>,0.001296979881659117,0.04391483333408056,0.00015578698225666567,0.0075849999993806705,0.05295260019737701
ByteArrayInputStream.read|ObjectInputStream$PeekInputStream.read|ObjectInputStream$PeekInputStream.readFully,0.0,0.0,0.0,0.0,0.0
CharacterData.of|Character.getType|Character.isLetter,0.0,0.0,0.0,0.0,0.0
CharacterDataLatin1.getProperties|CharacterDataLatin1.isJavaIdentifierPart|Character.isJavaIdentifierPart,0.0,0.0,0.0,0.0,0.0
CharacterDataLatin1.getProperties|CharacterDataLatin1.toUpperCaseEx|Character.toUpperCaseEx,0.0,0.0,0.0,0.0,0.0
CharacterDataLatin1.isWhitespace|Character.isWhitespace|Character.isWhitespace,0.004268869281029504,0.0,0.00037107843135482035,0.0,0.0046399477123843244
CharacterDataLatin1.toUpperCaseEx|Character.toUpperCaseEx|String.toUpperCase,0.0,0.0,0.0,0.0,0.0
Class.forName0|Class.forName|BaseMonitor.getImplementations,0.0,0.0,0.0,0.0,0.0
Class.forName0|Class.forName|JsseJce$1.run,0.0,0.0,0.0,0.0,0.0
Class.forName0|Class.forName|LocalizedResource.class$,0.0028408184012716584,0.0,0.0004032827141749079,0.0,0.0032441011154465665
Class.forName0|Class.forName|NodeFactoryImpl.getNode,0.0,0.0006734417177211105,0.0,0.00012625766869140163,0.0007996993864125121
Class.forName0|Class.forName|Policy.getPolicyNoCheck,0.0,0.0,0.0,0.0,0.0
Class.forName0|Class.forName|Provider$Service.getImplClass,0.0,0.0,0.0,0.0,0.0
Class.forName0|Class.forName|RMIConnector.<clinit>,0.06845885003349611,0.0,0.006550032191350016,0.0,0.07500888222484613
Class.forName0|Class.forName|Security.getSpiClass,0.002338472101504297,0.0,0.0003501155251359381,0.0,0.002688587626640235
Class.forName0|Class.forName|SelectNode.class$,0.0,0.00035223108388965374,0.0,6.248466258655266e-05,0.0004147157464762064
Class.getDeclaredConstructors0|Class.privateGetDeclaredConstructors|Class.getConstructor0,0.0,0.0317112444434315,0.0,0.0051146666664863005,0.0368259111099178
Class.getDeclaredConstructors0|Class.privateGetDeclaredConstructors|Class.getDeclaredConstructors,0.0,0.0,0.0,0.0,0.0
Class.getDeclaredFields0|Class.privateGetDeclaredFields|Class.getDeclaredField,0.03558888469527853,0.0,0.004427483297487605,0.0,0.04001636799276614
Class.getDeclaredMethods0|Class.privateGetDeclaredMethods|Class.privateGetMethodRecursive,0.0,0.03810411110990336,0.0,0.0053122222210125365,0.04341633333091589
Class.getDeclaredMethods0|Class.privateGetDeclaredMethods|Class.privateGetPublicMethods,0.0030157836025582275,0.0,0.00038293109540028434,0.0,0.003398714697958512
Class.getName|GBeanAttribute.<init>|GBeanAttribute.createSpecialAttribute,0.0,0.0,0.0,0.0,0.0
Class.getSuperclass|ObjectStreamClass.getClassDataLayout0|ObjectStreamClass.getClassDataLayout,0.08774345664729255,0.0,0.00988744469595107,0.0,0.09763090134324362
Class.isAssignableFrom|ObjectStreamClass.lookup|ObjectStreamClass.<init>,0.00031810596026133264,0.0,4.649006615898615e-05,0.0,0.0003645960264203188
ClassLoader.defineClass1|ClassLoader.defineClass|SecureClassLoader.defineClass,0.13328832838409874,0.0,0.016039867803990585,0.0,0.14932819618808932
ClassLoader.findBootstrapClass|ClassLoader.findBootstrapClassOrNull|ClassLoader.loadClass,0.0706494466264283,0.0,0.008997717159737292,0.0,0.0796471637861656
ClassLoader.findLoadedClass0|ClassLoader.findLoadedClass|ClassLoader.loadClass,0.08350195105660765,0.0,0.006049845418391005,0.0,0.08955179647499865
ClassLoader.findLoadedClass0|ClassLoader.findLoadedClass|MultiParentClassLoader.loadClassInternal,0.005454807673241836,0.0,0.0006367243748852242,0.0,0.006091532048127061
ClassLoader.findLoadedClass0|ClassLoader.findLoadedClass|MultiParentClassLoader.loadOptimizedClass,0.0,0.0,0.0,0.0,0.0
ClassLoader.loadClass|Launcher$AppClassLoader.loadClass|ClassLoader.loadClass,0.0,0.0,0.0,0.0,0.0
ClassLoader.loadClass|MultiParentClassLoader.checkParents|MultiParentClassLoader.loadOptimizedClass,0.0,0.0,0.0,0.0,0.0
CodeSource.getCertificates|ClassLoader.checkCerts|ClassLoader.preDefineClass,0.0,0.0,0.0,0.0,0.0
Collections$SynchronizedCollection.size|Database.getSessionCount|TableData.unlock,0.0,0.0,0.0,0.0,0.0
Collections$UnmodifiableCollection.isEmpty|QNameSet.forSets|QNameSet.forSpecification,0.0,0.0,0.0,0.0,0.0
ConcurrentHashMap$ValuesView.iterator|ConcurrentCache.cleanCache|ConcurrentCache.cleanAll,0.0,0.0,0.0,0.0,0.0
ConcurrentHashMap.putVal|ConcurrentHashMap.putIfAbsent|ClassLoader.getClassLoadingLock,0.0,0.0,0.0,0.0,0.0
Constructor.getSlot|ReflectAccess.getConstructorSlot|ReflectionFactory.generateConstructor,0.0,0.0,0.0,0.0,0.0
DataInputStream.readUTF|DataInputStream.readUTF|Utf8Info.<init>,0.12028018157780568,0.0,0.013903473461369185,0.0,0.13418365503917487
DataOutputStream.writeUTF|DataOutputStream.writeUTF|ObjectStreamClass.computeDefaultSUID,0.0,0.0,0.0,0.0,0.0
DataOutputStream.write|DataOutputStream.writeUTF|DataOutputStream.writeUTF,0.0,0.0,0.0,0.0,0.0
FileInputStream.read0|FileInputStream.read|FilterInputStream.read,0.0,0.0,0.0,0.0,0.0
FileInputStream.readBytes|FileInputStream.read|FilterInputStream.read,0.0,0.0,0.0,0.0,0.0
FileOutputStream.open0|FileOutputStream.open|FileOutputStream.<init>,0.0,0.033959166669066884,0.0,0.005716666667770672,0.03967583333683756
FileOutputStream.writeBytes|FileOutputStream.write|BufferedOutputStream.flushBuffer,0.0,0.497092944438649,0.0,0.08144138888841285,0.5785343333270618
FileOutputStream.writeBytes|FileOutputStream.write|BufferedOutputStream.write,0.0,0.4001670333248815,0.0,0.06906849999492502,0.46923553331980655
Float.isNaN|HashMap.<init>|HashMap.<init>,0.0,0.0,0.0,0.0,0.0
GregorianCalendar.computeFields|GregorianCalendar.computeFields|Calendar.setTimeInMillis,0.0,0.0,0.0,0.0,0.0
HashMap$EntryIterator.<init>|HashMap$EntrySet.iterator|BasicLifecycleMonitor.addLifecycleListener,0.0,0.0,0.0,0.0,0.0
HashMap$HashIterator.nextNode|HashMap$EntryIterator.next|HashMap$EntryIterator.next,0.0,0.0,0.0,0.0,0.0
HashMap$Node.<init>|HashMap.newNode|HashMap.putVal,0.0,0.0,0.0,0.0,0.0
HashMap$Node.equals|HashMap$EntrySet.contains|Collections$UnmodifiableMap$UnmodifiableEntrySet.contains,0.0,0.0,0.0,0.0,0.0
HashMap.getNode|HashMap.containsKey|KeySequenceDirect.getNextID,0.0,0.0,0.0,0.0,0.0
HashMap.getNode|HashMap.get|DataType.getTypeByName,0.0,0.0,0.0,0.0,0.0
HashMap.getNode|HashMap.get|Manifest.getAttributes,0.027932557308758963,0.0,0.0034401077623846953,0.0,0.03137266507114366
HashMap.getNode|HashMap.get|ScanIndex.incrementRowCount,0.0,0.0,0.0,0.0,0.0
HashMap.getNode|HashMap.get|Schema.findTableOrView,0.0,0.0,0.0,0.0,0.0
HashMap.getNode|HashMap.get|Table.getColumn,0.0,0.0,0.0,0.0,0.0
HashMap.getNode|LinkedHashMap.get|TraceSystem.getTrace,0.0,0.0,0.0,0.0,0.0
HashMap.hash|HashMap.putMapEntries|HashMap.<init>,0.0,0.0,0.0,0.0,0.0
HashMap.hash|HashMap.remove|HashSet.remove,0.0,0.0,0.0,0.0,0.0
HashMap.hash|LinkedHashMap.get|TraceSystem.getTrace,0.0,0.0,0.0,0.0,0.0
HashMap.putVal|HashMap.put|HashSet.add,0.0,0.0,0.0,0.0,0.0
HashMap.putVal|HashMap.put|JdbcResultSet.getColumnIndex,0.0,0.0,0.0,0.0,0.0
HashMap.resize|HashMap.putVal|HashMap.put,0.0,0.0,0.0,0.0,0.0
HashSet.remove|ScanIndex.commit|UndoLogRecord.commit,0.0,0.0,0.0,0.0,0.0
Hashtable$Enumerator.nextElement|ClassPool.compress|ClassPool.makeClass,0.0,0.0,0.0,0.0,0.0
Hashtable.addEntry|Hashtable.put|ClassPool.cacheCtClass,0.004719087771193769,0.0,0.00048772189349415517,0.0,0.005206809664687924
Inflater.inflateBytes|Inflater.inflate|InflaterInputStream.read,0.0024635496781827736,2.197203508597756,0.00025986502064737386,0.3649577020260897,2.5648846253226756
Inflater.inflate|InflaterInputStream.read|Resource.getBytes,0.0,0.0,0.0,0.0,0.0
Inflater.setInput|ZipFile$ZipFileInflaterInputStream.fill|InflaterInputStream.read,0.0,0.08172599999913169,0.0,0.012360000000626314,0.094085999999758
Integer.valueOf|JdbcResultSet.getColumnIndex|JdbcResultSet.get,0.0,0.0,0.0,0.0,0.0
LinkedHashMap.afterNodeAccess|LinkedHashMap.get|TraceSystem.getTrace,0.0,0.0,0.0,0.0,0.0
LinkedHashMap.get|TraceSystem.getTrace|Database.getTrace,0.0,0.0,0.0,0.0,0.0
LinkedHashMap.linkNodeLast|LinkedHashMap.newNode|HashMap.putVal,0.0,0.0,0.0,0.0,0.0
LockSupport.unpark|AbstractQueuedSynchronizer.unparkSuccessor|AbstractQueuedSynchronizer.doReleaseShared,0.0,0.0,0.0,0.0,0.0
Long.getChars|Long.toString|Long.toString,0.0,0.0,0.0,0.0,0.0
Method.getFactory|Method.getGenericInfo|Method.getGenericInfo,0.0,0.0,0.0,0.0,0.0
Object.<init>|Expression.<init>|Wildcard.<init>,0.0,0.0,0.0,0.0,0.0
Object.<init>|HashMap$Node.<init>|HashMap.newNode,0.0,0.0,0.0,0.0,0.0
Object.<init>|LinkedList$Node.<init>|LinkedList.linkLast,0.0009529393548220998,0.0,6.441290321339282e-05,0.0,0.0010173522580354927
Object.hashCode|ConcurrentHashMap.get|ConcurrentHashMap.containsKey,0.0,0.0,0.0,0.0,0.0
Object.hashCode|HashMap.hash|HashMap.remove,0.0,0.0,0.0,0.0,0.0
ObjectStreamClass$WeakClassKey.equals|ConcurrentHashMap.get|ObjectStreamClass.lookup,0.0,0.0,0.0,0.0,0.0
ObjectStreamClass.requireInitialized|ObjectStreamClass.isInstantiable|ObjectInputStream.readOrdinaryObject,0.0,0.0,0.0,0.0,0.0
Pattern.newSlice|Pattern.atom|Pattern.sequence,0.0,0.0,0.0,0.0,0.0
PrintStream.format|DaCapoTrader.printReport|DaCapoTrader.increaseSessionBound,0.0,0.001840990033245141,0.0,0.0002893853820554844,0.0021303754153006254
Proxy.defineClass0|Proxy.access$300|Proxy$ProxyClassFactory.apply,0.0,0.0,0.0,0.0,0.0
ReentrantReadWriteLock$Sync.tryReleaseShared|AbstractQueuedSynchronizer.releaseShared|ReentrantReadWriteLock$ReadLock.unlock,0.0,0.0,0.0,0.0,0.0
SecureClassLoader.defineClass|URLClassLoader.defineClass|URLClassLoader.access$100,0.0,0.0,0.0,0.0,0.0
SimpleDateFormat.<init>|FileURLConnection.initializeHeaders|FileURLConnection.getHeaderField,0.0,0.03247066666469133,0.0,0.005107666666380181,0.037578333331071516
String.<init>|StringBuilder.toString|JdbcResultSet.getColumnIndex,0.0,0.0,0.0,0.0,0.0
String.charAt|Lex.getc|Lex.readIdentifier,0.0,0.0,0.0,0.0,0.0
String.charAt|Parser.getSpecialType|Parser.read,0.0,0.0,0.0,0.0,0.0
String.equals|HashMap.getNode|HashMap.get,0.0,0.0,0.0,0.0,0.0
String.equals|URLStreamHandler.getHostAddress|URLStreamHandler.hostsEqual,0.0,0.1061606666626176,0.0,0.01787999999942258,0.12404066666204018
String.getChars|Parser.initialize|Parser.parse,0.0013777576489011382,0.0,0.0002130588941405556,0.0,0.0015908165430416937
String.hashCode|HashMap.hash|HashMap.get,0.0,0.0,0.0,0.0,0.0
String.hashCode|HashMap.hash|HashMap.put,0.0,0.004367025352073309,0.0,0.0008043380282019122,0.005171363380275221
String.indexOf|String.indexOf|JdbcConnection.translateSQL,0.0,0.0,0.0,0.0,0.0
String.indexOf|String.indexOf|String.indexOf,0.07555877561242579,0.0,0.010237253043409144,0.0,0.08579602865583492
String.length|String$CaseInsensitiveComparator.compare|String$CaseInsensitiveComparator.compare,0.0,0.0,0.0,0.0,0.0
String.substring|Parser.read|Parser.read,0.0,0.0,0.0,0.0,0.0
String.substring|Parser.read|Parser.readColumnIdentifier,0.0,0.0,0.0,0.0,0.0
String.substring|Parser.setSQL|Parser.parseSelectSimple,0.0,0.0,0.0,0.0,0.0
String.substring|Parser.setSQL|Parser.parseSelectUnionExtension,0.0005298140108298071,0.0,8.75161131367305e-05,0.0,0.0006173301239665376
String.toUpperCase|StringUtils.toUpperEnglish|JdbcResultSet.getColumnIndex,0.0,0.0,0.0,0.0,0.0
String.trim|Parser.setSQL|Parser.parseUpdate,0.0,0.0,0.0,0.0,0.0
StringBuilder.toString|JdbcResultSet.getColumnIndex|JdbcResultSet.get,0.0,0.0,0.0,0.0,0.0
Thread.currentThread|ReentrantReadWriteLock$Sync.tryAcquireShared|AbstractQueuedSynchronizer.acquireShared,0.0,0.0,0.0,0.0,0.0
ThreadLocal$ThreadLocalMap.getEntryAfterMiss|ThreadLocal$ThreadLocalMap.getEntry|ThreadLocal$ThreadLocalMap.access$000,0.0,0.0,0.0,0.0,0.0
ThreadLocal$ThreadLocalMap.getEntry|ThreadLocal$ThreadLocalMap.access$000|ThreadLocal.get,0.0003069999999975616,0.0,4.886227547822654e-05,0.0,0.00035586227547578815
ThreadLocal.get|ConnectionTrackingCoordinator.setEnvironment|ConnectionTrackingInterceptor.getConnection,0.0,0.0012501818181673036,0.0,0.0001617613636219837,0.0014119431817892873
ThreadLocal.get|TransactionManagerImpl.getTransaction|TransactionCachingInterceptor.returnConnection,0.0,0.0,0.0,0.0,0.0
Throwable.<init>|Exception.<init>|ConnectionInfo.setTrace,0.0,0.0,0.0,0.0,0.0
Throwable.fillInStackTrace|Throwable.<init>|Exception.<init>,0.03691421581435817,0.0,0.0057503549862957725,0.0,0.042664570800653945
Throwable.fillInStackTrace|Throwable.fillInStackTrace|Throwable.<init>,0.038165943623623994,0.004648085714267966,0.004427496681935167,0.000628799999997552,0.047870326019824674
TimeZone.getTimeZone|TimeZone.setDefaultZone|TimeZone.getDefaultRef,0.0,0.0,0.0,0.0,0.0
URI.appendSchemeSpecificPart|URI.toString|URI.<init>,0.0,0.0,0.0,0.0,0.0
URI.match|URI.quote|URI.appendSchemeSpecificPart,0.0,0.0,0.0,0.0,0.0
URL.<init>|URL.<init>|JarURLConnection.parseSpecs,0.0,0.0,0.0,0.0,0.0
URL.equals|CodeSource.equals|HashMap.getNode,0.0,0.0,0.0,0.0,0.0
URLStreamHandler.parseURL|Handler.parseURL|URL.<init>,0.0,0.0,0.0,0.0,0.0
UnixFileSystem.checkAccess|File.canRead|AbstractRepository.contains,0.0,0.0,0.0,0.0,0.0
UnixFileSystem.createDirectory|File.mkdir|Benchmark.unpackZipStream,0.0,0.035308833335875534,0.0,0.0054799999998067506,0.040788833335682284
UnixFileSystem.delete0|UnixFileSystem.delete|File.delete,0.0005016482100369181,0.0,2.531601435301843e-05,0.0,0.0005269642243899365
UnixFileSystem.getBooleanAttributes0|UnixFileSystem.getBooleanAttributes|File.exists,0.0001953161290598913,0.033345666665506236,1.8774193566998527e-05,0.005472499999693051,0.039032256987826176
UnixFileSystem.getBooleanAttributes0|UnixFileSystem.getBooleanAttributes|File.isDirectory,0.0002534023264177645,0.0,2.2017748954812315e-05,0.0,0.00027542007537257685
UnixFileSystem.list|File.list|File.listFiles,0.007368547942931991,0.0,0.0008464883171680512,0.0,0.008215036260100042
WeakHashMap.maskNull|WeakHashMap.get|Collections$SynchronizedMap.get,0.0,0.0,0.0,0.0,0.0
ZipCoder.getBytes|ZipFile.getEntry|JarFile.getEntry,0.0,0.0,0.0,0.0,0.0
ZipFile$ZipFileInputStream.read|ZipFile$ZipFileInflaterInputStream.fill|InflaterInputStream.read,0.07711586161162941,0.0,0.008701558175609053,0.0,0.08581741978723846
ZipFile.getEntry|ZipFile.getEntry|JarFile.getEntry,0.006040458255777671,0.0,0.0006990373491481079,0.0,0.006739495604925779
ZipFile.open|ZipFile.<init>|ZipFile.<init>,0.0,0.0,0.0,0.0,0.0
ZipFile.read|ZipFile.access$1400|ZipFile$ZipFileInputStream.read,0.0,0.23830166665720753,0.0,0.03986000000198449,0.278161666659192
