method,package1,package2,dram1,dram2,energy
AbsoluteTimeDateFormat.<init>,0.0,0.0,0.0,0.0,0.0
AbstractNameQuery.createURI,0.0,0.0,0.0,0.0,0.0
AbstractQueuedSynchronizer$ConditionObject.awaitNanos,0.0,0.0,0.0,0.0,0.0
AbstractQueuedSynchronizer.addWaiter,0.0,0.0,0.0,0.0,0.0
AbstractQueuedSynchronizer.compareAndSetState,0.0,0.0,0.0,0.0,0.0
AbstractQueuedSynchronizer.doAcquireSharedNanos,0.0,0.0,0.0,0.0,0.0
AbstractQueuedSynchronizer.doReleaseShared,0.0,0.0,0.0,0.0,0.0
AbstractQueuedSynchronizer.getState,0.0,0.0,0.0,0.0,0.0
AbstractQueuedSynchronizer.setHeadAndPropagate,0.0,0.0,0.0,0.0,0.0
AbstractQueuedSynchronizer.unparkSuccessor,0.0,0.0,0.0,0.0,0.0
AbstractStringBuilder.newCapacity,0.0,0.0,0.0,0.0,0.0
AbstractXMLDocumentParser.reset,0.0,0.0,0.0,0.0,0.0
AccessController.doPrivileged,0.07518474802487754,0.0,0.010742042595011549,0.0,0.08592679061988909
AccessController.getStackAccessControlContext,0.0,0.0,0.0,0.0,0.0
AccountDataBean.getAccountID,0.0,0.0,0.0,0.0,0.0
AnnotationDeployer.<init>,0.0,0.0,0.0,0.0,0.0
ArrayList.ensureExplicitCapacity,0.0,0.0,0.0,0.0,0.0
ArrayList.grow,0.0036380028364451076,0.0,0.0005905304051262244,0.0,0.004228533241571332
Arrays.copyOf,0.0,0.0,0.0,0.0,0.0
Arrays.copyOfRange,0.06474550805141877,0.0,0.007900885146240056,0.0,0.07264639319765882
Assembler.<init>,0.0,0.0,0.0,0.0,0.0
AttributePropertyInfoImpl.<init>,0.025013780278350432,0.0,0.0005658286088737214,0.0,0.025579608887224152
AxisWebServiceContainer.doService,0.0,0.0,0.0,0.0,0.0
B2IRowLocking3._lockScan,0.0,0.0,0.0,0.0,0.0
BCMethod.<init>,0.0,0.0006986683683885307,0.0,0.00011641699286772417,0.0008150853612562548
BaseDataFileFactoryJ4.newRAFContainer,0.0,0.0001831055900460884,0.0,2.5341614854148945e-05,0.00020844720490023735
BaseIndex.compareRows,0.0,0.0044969353342972605,0.0,0.0006441756754953106,0.0051411110097925716
BaseIndex.compareValues,0.0,0.0,0.0,0.0,0.0
BaseIndex.getCostRangeIndex,0.0,0.0,0.0,0.0,0.0
BasicUUIDFactory.createUUID,0.0,0.0,0.0,0.0,0.0
Benchmark.unpackZipStream,0.0,0.04359933333277392,0.0,0.001370000000558017,0.04496933333333193
BigDecimal.<init>,0.00023443589741826802,0.0,4.215384613370332e-05,0.0,0.00027658974355197134
BigDecimal.add,0.0,0.0,0.0,0.0,0.0
BigDecimal.setScale,0.0,0.0,0.0,0.0,0.0
BigInteger.<init>,0.0,0.0,0.0,0.0,0.0
BigInteger.smallToString,0.0,0.0,0.0,0.0,0.0
BrokerService.createTransportConnector,0.0,0.0,0.0,0.0,0.0
BrokerServiceGBeanImpl.doStart,0.0,0.0,0.0,0.0,0.0
BufferedInputStream.<init>,0.0,0.0,0.0,0.0,0.0
BufferedInputStream.read,0.08107693900938497,0.0,0.0061379171142929255,0.0,0.0872148561236779
BufferedInputStream.read1,0.0,0.15279133333145484,0.0,0.0201299999995778,0.17292133333103263
BufferedOutputStream.write,0.0,0.07061766666690042,0.0,0.009640000001430357,0.08025766666833077
BufferedReader.readLine,0.0054211478706558645,0.0,0.0009303768608247932,0.0,0.006351524731480658
BufferedWriter.ensureOpen,0.0,0.0,0.0,0.0,0.0
CacheEntry.setCacheable,0.0,0.0,0.0,0.0,0.0
CacheObject.setPos,0.0,0.0,0.0,0.0,0.0
CalendarSystem.<clinit>,0.0,0.0930583333344354,0.0,0.013679999998809459,0.10673833333324487
Character.isJavaIdentifierPart,0.0,0.0,0.0,0.0,0.0
Character.toUpperCaseEx,0.0,0.0,0.0,0.0,0.0
CharacterData.of,0.0,0.0,0.0,0.0,0.0
CharacterDataLatin1.getProperties,0.0,0.0,0.0,0.0,0.0
CharacterDataLatin1.toUpperCaseEx,0.0,0.0,0.0,0.0,0.0
Class.forName0,0.004068581871336907,0.10275715238333462,0.00043651754377707316,0.012761323964312855,0.12002357576276146
Class.getConstructor,0.0,0.0007095981308228607,0.0,0.0001155140187654418,0.0008251121495883025
Class.getDeclaredConstructors0,0.0,0.0,0.0,0.0,0.0
Class.getDeclaredFields0,0.04817356950483146,0.000116329969787578,0.006955497836111036,1.9588363604907386e-05,0.05526498567433497
Class.getDeclaredMethods0,0.053872815911965036,0.0703258393714551,0.007620150602572153,0.010409124563876522,0.1422279304498688
ClassBeanInfoImpl.<init>,0.0,0.0,0.0,0.0,0.0
ClassFileAssembler.emitConstantPoolNameAndType,0.0,0.0,0.0,0.0,0.0
ClassInspector.getClass,0.0,0.0,0.0,0.0,0.0
ClassLoader.defineClass1,0.227541771370175,0.01294815739523398,0.02789159041865977,0.0020484498469066784,0.27042996903097544
ClassLoader.findBootstrapClass,0.02610950854681054,0.0,0.003479166666809947,0.0,0.029588675213620488
ClassLoader.findLoadedClass0,0.002836810798192147,0.0001425349009439089,0.00032093740970253127,2.2046659231648473e-05,0.0033223297680702356
ClassMember.addAttribute,0.0,0.0,0.0,0.0,0.0
ClassNotFoundException.<init>,0.0,0.0,0.0,0.0,0.0
ClassPool.compress,0.0,0.0,0.0,0.0,0.0
ClassRepository.parse,0.0,0.05800366667002284,0.0,0.005499999999301508,0.06350366666932435
CodeWriter.visitMaxs,0.0378282222223384,0.0,0.004973333333812964,0.0,0.042801555556151366
Collections$SynchronizedCollection.size,0.0,0.0,0.0,0.0,0.0
Collections.nCopies,0.0,0.0015557785234265589,0.0,0.00024885906041529493,0.0018046375838418538
Column.validateConvertUpdateSequence,0.0,0.0,0.0,0.0,0.0
Command.<init>,0.0,0.0,0.0,0.0,0.0
Command.executeQuery,0.0,0.0,0.0,0.0,0.0
Command.executeQueryLocal,0.0,0.0,0.0,0.0,0.0
Command.executeUpdate,0.0,0.0,0.0,0.0,0.0
Command.start,0.0,0.0,0.0,0.0,0.0
Command.stop,0.0002910946745538434,0.0,3.443786985662452e-05,0.0,0.0003255325444104679
CommandContainer.query,0.0092443975046453,0.0025902384615619665,0.0013417602621459098,0.00034471153843556885,0.013521107766788745
CommandContainer.recompileIfRequired,0.0,0.0,0.0,0.0,0.0
CompareMode.compareString,0.0,0.0,0.0,0.0,0.0
Comparison.getValue,0.0,0.0,0.0,0.0,0.0
ConcurrentCache.getEntry,0.0,0.0,0.0,0.0,0.0
ConcurrentHashMap$HashIterator.advance,0.0,0.0012493962888526526,0.0,0.00018279069187654198,0.0014321869807291945
ConcurrentHashMap$ValuesView.iterator,0.0,0.0,0.0,0.0,0.0
Config.addSize,0.0,0.0,0.0,0.0,0.0
ConfigFile.<init>,0.0,0.010213333332406666,0.0,0.0013800000015180556,0.011593333333924722
ConfigurationFactory.<init>,0.0,0.0015668389262419018,0.0,0.00019308724830313051,0.0017599261745450323
Configurations.<clinit>,0.0,0.0,0.0,0.0,0.0
ConnectionHandle.prepareStatement,0.0,0.0,0.0,0.0,0.0
ConnectionInfo.<init>,0.0,0.0,0.0,0.0,0.0
ConnectionTrackingCoordinator.handleReleased,0.0,0.0,0.0,0.0,0.0
ConnectionTrackingInterceptor.returnConnection,0.0,0.0,0.0,0.0,0.0
CtBehavior.insertAfter,0.0,0.0006855756033661506,0.0,0.0001068460008718649,0.0007924216042380155
DGCClient$EndpointEntry.registerRefs,0.0,0.04919711666217202,0.0,0.007332383280455592,0.05652949994262761
DaCapoTrader.doPortfolio,0.0,0.0,0.0,0.0,0.0
DataDictionary.<clinit>,0.0,0.0,0.0,0.0,0.0
DataDictionaryImpl.getNonCoreTIByNumber,0.0,0.0022580939836283754,0.0,0.00034609089538071875,0.002604184879009094
DataDictionaryImpl.locateSchemaRow,0.0,0.0,0.0,0.0,0.0
DataInputStream.readUTF,0.025460060605782372,0.0,0.003480909090175181,0.0,0.028940969695957552
DataInputStream.readUnsignedShort,0.035792515987634985,0.01129166666457119,0.0005603398942817146,0.0013799999990927365,0.04902452254558063
DataOutputStream.incCount,0.0,0.00015556923922323634,0.0,2.6327201344550706e-05,0.00018189644056778705
DataSource.<init>,0.0,0.00015011504915528144,0.0,2.5664993354025203e-05,0.00017578004250930665
Database.checkPowerOff,0.0,0.0,0.0,0.0,0.0
Database.isReconnectNeeded,0.0,0.0,0.0,0.0,0.0
DerValue.toByteArray,0.0,0.0,0.0,0.0,0.0
DiagnosticCommandImpl.getDiagnosticCommandInfo,0.0,0.0,0.0,0.0,0.0
DiscoverClasses.findResourceClasses,0.0,0.0,0.0,0.0,0.0
Driver40.newEmbedDatabaseMetaData,0.0,0.0017985235848892393,0.0,0.00021275943398441598,0.0020112830188736552
Driver40.newEmbedPreparedStatement,0.0,0.0,0.0,0.0,0.0
EPollArrayWrapper.epollWait,0.0044795688401932585,0.0,0.000617421268060145,0.0,0.005096990108253404
ElementImpl.getDefaultAttributes,0.0,0.0,0.0,0.0,0.0
Enhancer.<clinit>,0.04623419999916223,0.0,0.004252500001166481,0.0,0.05048670000032871
Expression.isEverything,0.0,0.0,0.0,0.0,0.0
ExpressionColumn.getAlias,0.0,0.0,0.0,0.0,0.0
ExpressionColumn.getTableFilter,0.0,0.0,0.0,0.0,0.0
ExpressionColumn.getTableName,0.0,0.0,0.0,0.0,0.0
ExpressionColumn.isEverything,0.0,0.0,0.0,0.0,0.0
ExpressionColumn.mapColumns,0.00013914536017597568,0.0,1.87909793584743e-05,0.0,0.00015793633953445
ExpressionFactory.<clinit>,0.017211999999643818,0.0,0.002261666665920832,0.0,0.01947366666556465
FileContainer.readHeader,0.0,0.00035559627323654354,0.0,5.7484472032364524e-05,0.0004130807452689081
FileInputStream.read0,0.11079469393966193,0.0,0.014254787879495651,0.0,0.1250494818191576
FileOutputStream.open0,0.0,0.14293438889257637,0.0,0.015403333331455037,0.15833772222403142
FileOutputStream.writeBytes,0.0,0.8038435634887373,0.0,0.048871398809347336,0.8527149622980846
Formatter.parse,0.0,0.0,0.0,0.0,0.0
FromBaseTable.nextAccessPath,0.0,0.000725714417153909,0.0,0.00010965419073662916,0.0008353686078905381
GBeanOverride.<init>,0.01941497108113721,0.0,0.001522725960333892,0.0,0.020937697041471102
GenericConglomerateController.fetch,0.0,0.0,0.0,0.0,0.0
GenericResultSetFactory.getDistinctScanResultSet,0.0,0.0,0.0,0.0,0.0
GenericResultSetFactory.getScalarAggregateResultSet,0.0,0.0,0.0,0.0,0.0
GeronimoRMIServerSocketFactory.<init>,0.0,0.0,0.0,0.0,0.0
HashMap$HashIterator.nextNode,0.0038152670807316135,0.0,0.00043164596266347495,0.0,0.0042469130433950885
HashMap$Node.<init>,0.0,0.0,0.0,0.0,0.0
HashMap.<init>,0.0,0.0,0.0,0.0,0.0
HashMap.entrySet,0.0,0.0,0.0,0.0,0.0
HashMap.get,0.0,0.0,0.0,0.0,0.0
HashMap.getNode,0.0,0.0,0.0,0.0,0.0
HashMap.hash,0.0,0.0,0.0,0.0,0.0
HashMap.newNode,0.0,0.0,0.0,0.0,0.0
HashMap.put,0.0,0.0,0.0,0.0,0.0
HashMap.putVal,0.0,0.0,0.0,0.0,0.0
HashMap.removeNode,0.0,0.0,0.0,0.0,0.0
HashMap.resize,0.0,0.0,0.0,0.0,0.0
Hashtable$Enumerator.nextElement,0.0,0.0,0.0,0.0,0.0
Hashtable.get,0.0,0.0,0.0,0.0,0.0
HeapController.lockRow,0.0,0.0,0.0,0.0,0.0
Image.<clinit>,0.0,5.47975430028234e-05,0.0,6.014742012964037e-06,6.081228501578744e-05
IndexCondition.getCurrentValue,0.0,0.0,0.0,0.0,0.0
IndexCondition.getMask,0.0,0.0,0.0,0.0,0.0
IndexCursor.find,0.0,0.00032183873797415885,0.0,4.070113938499025e-05,0.0003625398773591491
IndexCursor.getSearchRow,0.0,0.0,0.0,0.0,0.0
Inflater.finished,0.0,0.0,0.0,0.0,0.0
Inflater.inflate,0.0,0.05686433332933422,0.0,0.006489999999757856,0.06335433332909207
Inflater.inflateBytes,0.03197261987135888,1.9953077808512425,0.004313024956312593,0.17088912719816146,2.202482552877076
Inflater.needsInput,0.0,0.0,0.0,0.0,0.0
InflaterInputStream.read,0.0,0.0,0.0,0.0,0.0
Insert.update,0.0,0.0,0.0,0.0,0.0
InstrumentationImpl.transform,0.030446758631897764,0.0,0.0037824767746682795,0.0,0.03422923540656604
Integer.reverseBytes,0.03713379999971949,0.0,0.0063239999988581996,0.0,0.04345779999857769
Introspector.<clinit>,0.0,0.04258233333045306,0.0,0.0055000000017268276,0.048082333332179886
Introspector.getBeanInfo,0.0,0.07639566666815274,0.0,0.012355000001358954,0.0887506666695117
Introspector.processPropertyDescriptors,0.0,0.0,0.0,0.0,0.0
JAXBContextImpl.getOrCreate,0.024082836944472483,0.0,0.0021554604041405393,0.0,0.02623829734861302
JceSecurity.getVerificationResult,0.0,0.0,0.0,0.0,0.0
JdbcConnection.checkClosed,0.0,0.0,0.0,0.0,0.0
JdbcConnection.createStatement,0.0,0.0011621062182712758,0.0,0.00018717031653758164,0.0013492765348088575
JdbcConnection.getInternalAutoCommit,0.0,0.0,0.0,0.0,0.0
JdbcConnection.setAutoCommit,0.0,0.0,0.0,0.0,0.0
JdbcResultSet.<init>,0.0,0.0,0.0,0.0,0.0
JdbcResultSet.closeInternal,0.0,0.0,0.0,0.0,0.0
JdbcResultSet.get,0.0,0.0,0.0,0.0,0.0
JdbcResultSet.getColumnIndex,0.0,0.0,0.0,0.0,0.0
JdbcResultSet.getInt,0.0,0.0,0.0,0.0,0.0
JdbcResultSet.getString,0.0,0.0,0.0,0.0,0.0
JdbcResultSet.nextRow,0.0,0.0032013670485449308,0.0,0.0005031219001554322,0.0037044889487003628
JdbcStatement.closeOldResultSet,0.0,0.0,0.0,0.0,0.0
JdbcXAConnection$PooledJdbcConnection.checkClosed,0.0,0.0,0.0,0.0,0.0
Label.<init>,0.0,0.0,0.0,0.0,0.0
Level2CostEstimateImpl.cloneMe,0.0,0.0015987494987623546,0.0,0.00023786643771782928,0.0018366159364801838
Level2OptimizerFactoryImpl.getOptimizerImpl,0.0,0.0,0.0,0.0,0.0
Lex.<init>,0.0,0.0,0.0,0.0,0.0
LinkedHashMap.afterNodeAccess,0.0,0.0,0.0,0.0,0.0
LinkedHashMap.afterNodeInsertion,0.0,0.18233233333254853,0.0,0.019200000000031043,0.20153233333257958
LinkedList.contains,0.3163017000002385,0.0,0.03435756521771312,0.0,0.3506592652179516
LocalResult.<init>,0.0,0.0036900756710870077,0.0,0.0005823397004246573,0.004272415371511665
LocalResult.close,0.0,0.0,0.0,0.0,0.0
LocalResult.next,0.0,0.0,0.0,0.0,0.0
Locale$PiccoloSaxLoader.newInstance,0.0,0.0,0.0,0.0,0.0
LocaleProviderAdapter.getAdapter,0.0,0.0,0.0,0.0,0.0
LogToFile.readControlFile,0.0,0.0,0.0,0.0,0.0
MBeanInfo.<init>,0.026855454545818846,0.0,0.0042564935064511745,0.0,0.031111948052270022
ManagedRegionBroker.registerSubscription,0.0,0.0001402897534734526,0.0,2.5345711112345555e-05,0.00016563546458579813
ManagedXAConnection.localTransactionStart,0.0,0.0,0.0,0.0,0.0
ManagedXAConnection.matches,0.0,0.0,0.0,0.0,0.0
MarshallerImpl.createWriter,0.0,0.0,0.0,0.0,0.0
MetaRecord.setRecord,0.0,0.0,0.0,0.0,0.0
MetaTable.createColumns,0.0,0.0003241256103285502,0.0,5.2652989708582677e-05,0.00037677860003713286
Method.getGenericInfo,0.0,0.0,0.0,0.0,0.0
MethodCache.getMethod,0.00014260383001052872,0.0,2.1183413253940888e-05,0.0,0.0001637872432644696
MultiException.ifExceptionThrowRuntime,0.0,0.0,0.0,0.0,0.0
MultiParentClassLoader.resolveClass,0.0,0.00018889932248586217,0.0,7.859796983111347e-05,0.00026749729231697564
MultiVersionCursor.loadNext,0.0,0.0,0.0,0.0,0.0
MultiVersionCursor.next,0.0,0.0,0.0,0.0,0.0
MultiVersionIndex.commit,0.0,0.0,0.0,0.0,0.0
MultiVersionIndex.removeIfExists,0.0,0.0,0.0,0.0,0.0
Object.<init>,0.0,0.0,0.0,0.0,0.0
Object.clone,0.0628352239227694,0.0,0.01110905220929508,0.0,0.07394427613206447
Object.hashCode,0.0,0.0,0.0,0.0,0.0
ObjectArray$ObjectArrayIterator.hasNext,0.0,0.0,0.0,0.0,0.0
ObjectArray$ObjectArrayIterator.next,0.0,0.0,0.0,0.0,0.0
ObjectArray.<init>,0.0,0.0,0.0,0.0,0.0
ObjectArray.add,0.0,0.0,0.0,0.0,0.0
ObjectArray.ensureCapacity,0.0,0.0,0.0,0.0,0.0
ObjectArray.get,0.0,0.0,0.0,0.0,0.0
ObjectArray.set,0.0,0.0,0.0,0.0,0.0
ObjectArray.toArray,0.0,0.0,0.0,0.0,0.0
ObjectInputStream$HandleTable.grow,0.0,0.0,0.0,0.0,0.0
ObjectStreamClass$FieldReflector.<init>,0.0,0.0,0.0,0.0,0.0
ObjectStreamClass.readNonProxy,0.0009640557452820767,0.0,0.00011215502687979568,0.0,0.0010762107721618724
ObjectStreamClass.setObjFieldValues,0.0,0.0,0.0,0.0,0.0
ObjectTable.incrementKeepAliveCount,0.02636367901269808,0.0,0.003932098765357364,0.0,0.030295777778055442
ObjectUtils.arrayCopy,0.0,0.0,0.0,0.0,0.0
Operation.getValue,0.0,0.0,0.0,0.0,0.0
Operation.mapColumns,0.0,0.0,0.0,0.0,0.0
Optimizer.<init>,0.0,0.0,0.0,0.0,0.0
Parser.<init>,0.0,0.0,0.0,0.0,0.0
Parser.addExpected,0.0,0.0,0.0,0.0,0.0
Parser.getKeywordOrIdentifier,0.0,0.0,0.0,0.0,0.0
Parser.getSaveTokenType,0.0,0.0,0.0,0.0,0.0
Parser.getSpecialType,0.0,0.0,0.0,0.0,0.0
Parser.getTokenType,0.0,0.0,0.0,0.0,0.0
Parser.initialize,0.0026833538461710892,0.0,0.0004616153845862031,0.0,0.0031449692307572922
Parser.parseCreateTable,0.0,0.0,0.0,0.0,0.0
Parser.parseSelectSimpleSelectPart,0.0,0.0,0.0,0.0,0.0
Parser.prepareCommand,0.004155790204694637,0.0,0.00039256578947864033,0.0,0.004548355994173277
Parser.read,0.0,0.0,0.0,0.0,0.0
Parser.readCondition,0.0,0.0,0.0,0.0,0.0
Parser.readFunction,0.0,0.0,0.0,0.0,0.0
Parser.readIf,0.0,0.0,0.0,0.0,0.0
Parser.readTerm,0.0,0.0008789917378436687,0.0,0.0001201708457374956,0.0009991625835811643
Parser.readTermObjectDot,0.0,0.0,0.0,0.0,0.0
ParserImpl.getParser,0.0,0.002309099378813382,0.0,0.0003309316770191686,0.0026400310558325505
ParserImpl.getTokenManager,0.0,0.00043672601788145984,0.0,4.496894409819624e-05,0.0004816949619796561
Pattern.RemoveQEQuoting,0.0,0.000381569536414386,0.0,5.473509931625392e-05,0.00043630463573063994
PersistenceProviderImpl.getBrokerFactory,0.0,0.0,0.0,0.0,0.0
PiccoloLexer.calcAsciiTables,0.0,0.0,0.0,0.0,0.0
PlainSocketImpl.socketConnect,0.0,0.0,0.0,0.0,0.0
Prepared.checkParameters,0.0,0.0,0.0,0.0,0.0
Prepared.needRecompile,0.0,0.0,0.0,0.0,0.0
PreparedStatementHandle.setDouble,0.0,0.0,0.0,0.0,0.0
PrintStream.format,0.0006965105663553008,0.0,0.00012436179203687461,0.0,0.0008208723583921754
Properties$LineReader.readLine,0.028508043955758237,0.0,0.004304175823862961,0.0,0.0328122197796212
Proxy.defineClass0,0.0,0.0,0.0,0.0,0.0
Query.query,0.0,0.0005431117441189517,0.0,6.477212971174827e-05,0.0006078838738306999
QuoteDataBean.getRandomInstance,0.0,0.0,0.0,0.0,0.0
RBTableBuilder.<init>,0.0,0.0022700134679864816,0.0,0.00032545454543976034,0.002595468013426242
RMIMasterSocketFactory.<clinit>,0.0378418000000238,0.0,0.002481000001716893,0.0,0.0403228000017407
RPCElement.updateOperationsByName,0.0004904909666835804,0.0,4.171237399066202e-05,0.0,0.0005322033406742425
ReentrantReadWriteLock$Sync.fullTryAcquireShared,0.0,0.0,0.0,0.0,0.0
ReentrantReadWriteLock.getThreadId,0.0,0.0,0.0,0.0,0.0
Resource.getBytes,0.06132187297570287,0.0,0.004796828512475975,0.0,0.06611870148817885
ResultSetHandle.getTimestamp,0.0,0.0,0.0,0.0,0.0
Row.getValue,0.0,0.004490317241467136,0.0,0.0006793563218494713,0.005169673563316607
Row.setValue,0.0,0.0,0.0,0.0,0.0
RowList.<init>,0.0,0.0,0.0,0.0,0.0
RuleBasedCollator.getCollationElementIterator,0.0,0.0,0.0,0.0,0.0
RuntimeModelBuilder.createElementInfo,0.0,0.0,0.0,0.0,0.0
SAX2EventRecorder.<init>,0.00014418800884544514,0.0,2.5403794210329268e-05,0.0,0.0001695918030557744
SHA.implCompress,0.04493419999926118,0.0,0.0071519999997690315,0.0,0.05208619999903021
SOAPDocumentImpl.createTextNode,0.0016372446005754745,0.0,0.00016980671266951427,0.0,0.0018070513132449888
SOAPPart.<init>,0.0012802200424679394,0.0,0.00013916892476017429,0.0,0.0014193889672281137
SOAPPart.getAsSOAPEnvelope,0.0,0.0,0.0,0.0,0.0
SSLContextImpl$AbstractTLSContext.createSSLEngineImpl,0.004851368607427921,0.0,0.0005628549387665001,0.0,0.005414223546194421
ScheduledThreadPoolExecutor.<clinit>,0.0,0.0,0.0,0.0,0.0
Select.expandColumnList,0.0,0.0,0.0,0.0,0.0
Select.init,0.0,0.0016721468085174596,0.0,0.0002620638297849701,0.0019342106383024296
Select.prepare,0.0,0.0,0.0,0.0,0.0
Select.preparePlan,0.0,0.0,0.0,0.0,0.0
Select.queryFlat,0.0,0.0,0.0,0.0,0.0
Select.queryWithoutCache,0.0,0.0,0.0,0.0,0.0
Session.addLock,0.0,0.0,0.0,0.0,0.0
Session.commit,0.0,0.0,0.0,0.0,0.0
Session.getTrace,0.0,0.0,0.0,0.0,0.0
Session.isReconnectNeeded,0.0,0.0,0.0,0.0,0.0
SimpleConfigurationManager.resolveParentIds,0.0074096915970794375,0.0,0.0007996901204034901,0.0,0.008209381717482927
SinglePoolConnectionInterceptor.internalGetConnection,0.0,0.0,0.0,0.0,0.0
StAXStreamConnector.<init>,0.022552730159077328,0.0,0.0033573015868169787,0.0,0.025910031745894305
Statements.getFindLastSequenceIdInMsgsStatement,0.0,0.0,0.0,0.0,0.0
String$CaseInsensitiveComparator.compare,0.0,0.0,0.0,0.0,0.0
String.<init>,0.0,0.0,0.0,0.0,0.0
String.charAt,0.02265077777782507,0.0,0.003186666665391789,0.0,0.025837444443216857
String.hashCode,0.00027076584954530754,0.0,4.12848689798061e-05,0.0,0.00031205071852511367
String.indexOf,0.0,0.0,0.0,0.0,0.0
String.split,0.0,0.0,0.0,0.0,0.0
String.startsWith,0.01850044444452376,0.0,0.002731666667386889,0.0,0.02123211111191065
String.substring,0.0,0.0,0.0,0.0,0.0
String.toCharArray,0.0,0.0012319745223599956,0.0,0.00020942675158497137,0.001441401273944967
String.toUpperCase,0.002438515638209787,0.0,0.0003432628909926562,0.0,0.0027817785292024435
StringBuffer.toString,0.0033649369812681408,0.0,0.0004251988756904573,0.0,0.003790135856958598
StringBuilder.toString,0.0,0.0,0.0,0.0,0.0
StringCache.getCache,0.0,0.0,0.0,0.0,0.0
StringCache.getNew,0.0,0.0,0.0,0.0,0.0
StringCoding$StringEncoder.encode,0.0,0.0,0.0,0.0,0.0
StringUtils.toUpperEnglish,0.0,0.0,0.0,0.0,0.0
Subquery.getValue,0.0,0.0,0.0,0.0,0.0
SymbolTable.addSymbol,0.0,0.000160167785205147,0.0,2.738255032747609e-05,0.0001875503355326231
System.getSecurityManager,0.0,0.0,0.0,0.0,0.0
System.nanoTime,0.0,0.0,0.0,0.0,0.0
TCCLInterceptor.getConnection,0.0,0.0,0.0,0.0,0.0
Table.compareTypeSave,0.0,0.0,0.0,0.0,0.0
Table.getBestPlanItem,0.0,0.0,0.0,0.0,0.0
Table.getColumns,0.0,0.0,0.0,0.0,0.0
Table.validateConvertUpdateSequence,0.0,0.0,0.0,0.0,0.0
TableData.lock,0.0,0.0,0.0,0.0,0.0
TableFilter.setFullCondition,0.00026954317835615506,0.0,3.157289099509231e-05,0.0,0.0003011160693512474
Thread.isInterrupted,0.0,0.0,0.0,0.0,0.0
ThreadLocal$ThreadLocalMap.access$000,0.0,0.0,0.0,0.0,0.0
ThreadLocal$ThreadLocalMap.getEntry,0.0,0.0,0.0,0.0,0.0
ThreadLocal$ThreadLocalMap.set,0.0,0.0,0.0,0.0,0.0
ThreadLocal.get,0.0,0.004429625000011583,0.0,0.0006322499999896537,0.005061875000001237
ThreadPool$ThreadPoolThreadFactory.getNextWorkerID,0.0,0.0014283784570555318,0.0,0.0002466614828773946,0.0016750399399329263
Throwable.fillInStackTrace,0.09946930028064069,0.008079971367517862,0.015421098932799063,0.0013126762917430132,0.12428304687270064
Throwable.getStackTraceElement,0.0,0.0013354526942255171,0.0,0.0002122716016882604,0.0015477242959137775
TimeZoneNameUtility.retrieveDisplayNamesImpl,0.0002898245614217063,0.0,2.0701754373588126e-05,0.0,0.00031052631579529447
Trace.isEnabled,0.0,0.0,0.0,0.0,0.0
TraceSystem.getTrace,0.0,0.0,0.0,0.0,0.0
TradeDirect.getStatement,0.0,0.0,0.0,0.0,0.0
TradeDirect.resetTrade,0.004908455621315781,0.0,0.0005847337277631617,0.0,0.005493189349078943
TransactionCachingInterceptor.getConnection,0.0,0.0,0.0,0.0,0.0
TransletOutputHandlerFactory.getSerializationHandler,0.0,0.0,0.0,0.0,0.0
TreeCursor.next,0.0,0.0,0.0,0.0,0.0
TreeIndex.add,0.0,0.0,0.0,0.0,0.0
TreeIndex.balance,0.0,0.0,0.0,0.0,0.0
TreeIndex.find,0.0,0.0,0.0,0.0,0.0
TreeIndex.findFirstNode,0.0,0.0,0.0,0.0,0.0
TreeIndex.next,0.0,0.0,0.0,0.0,0.0
TreeIndex.remove,0.0,0.0,0.0,0.0,0.0
TreeNode.isFromLeft,0.0,0.0,0.0,0.0,0.0
Trie.getBMPOffset,0.0,0.0009066902356996806,0.0,0.00013484848485942086,0.0010415387205591014
TypeVariableImpl.<clinit>,0.0,0.057087999996535174,0.0,0.009659999998499794,0.06674799999503497
UCompactIntArray.initPlane,0.0,0.0,0.0,0.0,0.0
URL.<init>,0.004339976954705526,0.0,0.0006845308641650152,0.0,0.005024507818870542
URLClassLoader$1.run,0.038998961038947975,0.0,0.005692207791567356,0.0,0.04469116883051533
URLClassLoader.getAndVerifyPackage,0.0,0.0,0.0,0.0,0.0
URLClassPath.getLoader,0.0,0.0,0.0,0.0,0.0
URLClassPath.getNextLoader,0.0,0.0,0.0,0.0,0.0
URLClassPath.getResource,0.0026070059621845533,0.0,0.00044524181950510286,0.0,0.0030522477816896563
URLStreamHandler.parseURL,0.0,0.0,0.0,0.0,0.0
UndoLog.getLast,0.0,0.0,0.0,0.0,0.0
UndoLog.size,0.0,0.0,0.0,0.0,0.0
UnixFileSystem.canonicalize0,0.0,0.0015686806760269725,0.0,0.00027238164481908065,0.0018410623208460531
UnixFileSystem.createDirectory,0.0,0.0,0.0,0.0,0.0
UnixFileSystem.delete0,0.0025567149700762323,0.0,0.000303538922096908,0.0,0.00286025389217314
UnixFileSystem.getBooleanAttributes,0.0,0.06286633333365899,0.0,0.004120000000208771,0.06698633333386776
UnixFileSystem.getBooleanAttributes0,0.031659009090997815,0.0006232847681651448,0.0030391363644660238,8.105960267323026e-05,0.035402489826302216
UnixFileSystem.getLastModifiedTime,0.09016120000160302,0.0,0.011600999998336192,0.0,0.10176219999993921
UnixFileSystem.list,0.018637668849835438,0.0,0.002371281479988822,0.0,0.02100895032982426
Unsafe.defineClass,0.0008657774834748075,0.0037922781060699545,0.00014783153940519552,0.000550808110422276,0.005356695239372234
Unsafe.park,0.0045757483818545785,0.0,0.0007028128936972307,0.0,0.005278561275551809
Unsafe.unpark,0.0,0.0,0.0,0.0,0.0
Update.update,0.0,0.0,0.0,0.0,0.0
Use$Type.<init>,0.0,0.0,0.0,0.0,0.0
Util.createSkeleton,0.0,0.0,0.0,0.0,0.0
VM.latestUserDefinedLoader0,0.0227317307693987,0.0,0.00306089743591858,0.0,0.02579262820531728
Value.compareTypeSave,0.0,0.0,0.0,0.0,0.0
ValueBoolean.get,0.0,0.0,0.0,0.0,0.0
ValueDecimal.convertScale,0.0,0.0,0.0,0.0,0.0
ValueDecimal.get,0.0,0.0,0.0,0.0,0.0
ValueInt.compareSecure,0.0,0.0,0.0,0.0,0.0
WeakHashMap.get,0.0,0.0,0.0,0.0,0.0
WstxInputFactory.doCreateSR,0.0,0.0,0.0,0.0,0.0
X509Factory.engineGenerateCertificate,0.0,0.007949326327529559,0.0,0.0011155862500159721,0.00906491257754553
XMLDocumentScannerImpl.<init>,0.046323362061298286,0.0,0.00047616956176952735,0.0,0.04679953162306781
XMLSecurityManager$Limit.equalsAPIPropertyName,0.0,0.0,0.0,0.0,0.0
XmlObjectBase.<clinit>,0.014373201646129078,0.0,0.0019351234562839227,0.0,0.016308325102413
ZipFile$ZipFileInflaterInputStream.<init>,0.0,0.0,0.0,0.0,0.0
ZipFile.close,0.0,0.0,0.0,0.0,0.0
ZipFile.getEntry,0.008246246207086243,0.0072516925769006675,0.0011762185361567008,0.001066105799669508,0.01774026311981312
ZipFile.getEntryBytes,0.0,0.0,0.0,0.0,0.0
ZipFile.getInflater,0.030500142856908493,0.0,0.004669285714044236,0.0,0.03516942857095273
ZipFile.open,0.08491200000062236,0.0,0.009222000000590924,0.0,0.09413400000121329
ZipFile.read,0.0,0.12367835790190385,0.0,0.009844933680025694,0.13352329158192955
ZoneInfo.getLastRuleInstance,0.00028340350878639387,0.0,3.4385964979706266e-05,0.0,0.00031778947376610015
rmiURLContext.getRootURLContext,0.03492624537062106,0.0,0.004764513889582572,0.0,0.039690759260203635
