method,Energy
Arithmetic$py,5.965904999164
Strings$py,4.853200094919072
PyFrame,3.1310069168662946
Lookups$py,2.182475817342379
PyObject,2.004299122892849
Dict$py,1.841704184350952
Unicode$py,1.6489352700295008
Numbers$py,1.6144934340199166
PyType,1.5083239081672968
Constructs$py,1.4303749418677927
PythonParser,1.1988931591337773
Lists$py,1.18504521720073
BaseParser,0.8026689503884634
Tuples$py,0.8005559419776833
Calls$py,0.7687511140527864
PyString,0.7393924186060147
PyStringMap,0.691957910028248
unicodedata$py,0.6526551904827178
PyList,0.5836654787930038
Exceptions$py,0.5531685215516992
Py,0.5326044172452434
PyTuple,0.528571520971468
PySequence,0.39295782174144134
PyInteger,0.3730785221835186
PyBaseCode,0.368779888792021
RewriteRuleElementStream,0.2741481626549027
imp,0.2525524588161547
PyTableCode,0.2352808593593218
CommonTokenStream,0.2351800211024842
PyUnicode,0.19582114631116165
PyFloat,0.18974275449143096
ThreadStateMapping,0.17299953684533242
PyDictionary,0.16931972463731218
PythonLexer,0.16809870036459051
SequenceIndexDelegate,0.16748881433781015
PyInstance,0.16566751150278497
PyLong,0.1542451889266444
__builtin__,0.14223320998610714
TextIOInputStream,0.1419754478661645
PyClass,0.13531010630020696
ClassWriter,0.13232690236494854
Module,0.127031152714181
PySequence$1,0.12527644265280763
ClassReader,0.12493661326217276
CachedJarsPackageManager,0.12051932790162947
Instances$py,0.11792533236822794
Frame,0.1115801218968559
PyComplex,0.10906787884536623
CodeCompiler,0.10857118774797347
PackageManager,0.09555775344736209
Imports$py,0.09165392554375563
ArgParser,0.0905893177770935
DFA,0.08506348941827943
PyList$list_append_exposer,0.0847269914459234
GrammarActions,0.08174737570820823
bisect$py,0.08170888076600884
MethodWriter,0.07562103296731013
PySlice,0.0748407341378866
PyJavaType,0.07479449539665044
PyArray$PyExposer,0.07141959152953449
CompilerFlags,0.07113930938340172
PyException,0.07057576024667205
Native,0.07035793975683752
PyFunction,0.06917340587703107
ANTLRStringStream,0.06740583573288955
PythonTree,0.06339179411577558
PyUnicode$PyExposer,0.06293734042504716
BuiltinFunctions,0.056839231031896024
POSIXFactory,0.05645188293516802
PyObjectDerived,0.05392354073616398
ClassFile,0.052470187162565914
PythonLexer$DFA44,0.05025380801034964
PyBaseString,0.04842167091456561
FloatingDecimal,0.047566546542380975
PyFastSequenceIter,0.046020475195703674
Item,0.045919538900350054
JRELocaleProviderAdapter,0.04586377376659571
PyXRange,0.04569492386385536
NewInstances$py,0.04254197613168912
Generic,0.04080642539533831
Time,0.04053051455162096
FloatingDecimal$BinaryToASCIIBuffer,0.03981128997235013
PythonTreeAdaptor,0.037114479734109904
US_ASCII$Decoder,0.03704680510006131
StringIO$py,0.03684475581722053
URLClassPath,0.03681180962978488
AnnotationReader,0.035680389024972566
PyInstance$PyExposer,0.0337400104485679
JavaImportHelper,0.03363652766105745
Yield$PyExposer,0.03208511647175868
PythonTokenSource,0.030921711081927608
arguments$PyExposer,0.030504928830083548
MethodAccessorGenerator,0.029697215763131907
ScopeInfo,0.02943548321294999
AttributeInfo,0.029347887820541974
ConstPool,0.02890885172694533
PySet$PyExposer,0.02826834674547857
PyString$str_find_exposer,0.028076715234320215
PyLong$PyExposer,0.026619221878539615
PyString$str_isupper_exposer,0.02659421119975771
PyDictionary$dict_get_exposer,0.02616172048326083
PyJavaPackage,0.02529023159623663
PySystemState,0.0250326071218269
ClassPool,0.02498255300163061
While$PyExposer,0.02496890616431365
UniversalIOWrapper,0.02490356331450326
Benchmark,0.024773741126859507
RuleBasedBreakIterator,0.022483092887552875
Subscript$PyExposer,0.022207518526851558
CommonToken,0.021875227943764175
Chaperone,0.02183609142907425
CtClassType,0.02152252899043162
PyString$str_title_exposer,0.021283220000258958
_sre,0.021282028883726215
PyBaseException$exposed___new__,0.021216127771190474
IfExp$PyExposer,0.02099162250956916
BaseLocale,0.020903108419256824
PyComplex$PyExposer,0.02051907860595004
BaseRecognizer,0.020512111976348908
operator$PyItemGetter,0.019955307541224782
PyFloat$exposed___new__,0.019781963575693298
PyList$PyExposer,0.019551298544595114
PyFile,0.01942808119243918
ByteVector,0.019157063201877794
PyMethodDescr,0.018932448284448844
FunctionDef$PyExposer,0.018854120719793616
PyFunction$PyExposer,0.01874512460023507
Delete$PyExposer,0.018731818007250323
ScopesCompiler,0.01872731189322018
Handler,0.0183663329917783
PyReflectedFunction,0.01816776594132302
UnsafeFieldAccessorFactory,0.01813583464679046
BaseTypeBuilder,0.018053935577345297
PySequenceIter,0.017944184973184972
LocaleProviderAdapter,0.01789598619552745
PyDictProxy$PyExposer,0.01784159813786671
PythonParser$DFA136,0.017763570791541707
NativeMethodAccessorImpl,0.017716406708329763
PyObject$object___setattr___exposer,0.017592439324419805
PyMethod$PyExposer,0.01758727039134855
ClassicPyObjectAdapter$9,0.017578367590162024
MinFunction,0.017413118997776294
If$PyExposer,0.01734561480145151
ImportFunction,0.01730201347928648
PyBaseExceptionDerived,0.01712298484630073
PyDictionary$dict_has_key_exposer,0.016552033077798168
PyFile$PyExposer,0.016494479147450166
os$py,0.01639857093104666
Index,0.016155483488275755
PyMethod,0.016153114327919264
TryExcept$PyExposer,0.01605878308548771
ProxyMaker,0.015955049955934737
Module$PyExposer,0.01586969484113114
PyObject$1$1,0.015791199385114852
BreakIteratorProviderImpl,0.01565635476665432
sre_parse$py,0.015612620796182357
Errno,0.015414714989503671
Visitor,0.015052530269768171
PyList$list_insert_exposer,0.014315752616571089
Resource,0.014250693981420008
VisitorBase,0.014135720201535423
AnnotationParser,0.014068131661521108
PySlice$PyExposer,0.01367933799250344
UTF_8$Decoder,0.013603917863131391
BaseParser$PyLexer,0.013493485775992674
Call$PyExposer,0.013480681155003376
Code,0.013451249237963077
keyword$PyExposer,0.013289510892441844
PyFloat$PyExposer,0.013284123623437552
PyBoolean,0.013138368452040848
_pyx1,0.013129389712818122
Library$Handler,0.013106658993437941
ExceptHandler$PyExposer,0.012814346681056205
FieldInfo,0.012803666613665573
PyDataDescr,0.012792413231902812
ASCIICaseInsensitiveComparator,0.012759225811658143
SyspathJavaLoader,0.01269101841497215
PyTuple$exposed___new__,0.012539243765809206
PyObject$exposed___new__,0.01245847602598825
Expr$PyExposer,0.012358009749751538
ConfigFile,0.012165210559954407
Compare,0.012122779658238006
ThreadCoreMapInjector,0.012080752431763219
CodeCompiler$ExceptionHandler,0.01203747649426567
Compare$PyExposer,0.01182758285345115
Parser,0.011753909903568288
pybench$py,0.011697092581003777
PyObject$object___init___exposer,0.011653687877586688
ZoneInfoFile,0.011567392710234384
PyUnicode$unicode_upper_exposer,0.011363771907576673
LineBufferedWriter,0.011248400604078291
StringFormatter,0.011205796811482644
PyUnicode$unicode_isalpha_exposer,0.010749013341184834
PyInteger$PyExposer,0.010641891184981973
PyString$str_islower_exposer,0.010574650273024342
LongVector,0.010441640575828226
Exec$PyExposer,0.01030719562057423
UTF_8$Encoder,0.010025711131293469
PySystemState$DefaultBuiltinsHolder,0.009978838760534129
PyList$exposed___new__,0.009874822152172277
Return,0.009862233027678038
PyArray,0.00958601688058968
ConfigFileTokenManager,0.009544727792820376
Return$PyExposer,0.009525411741514934
PyString$str_split_exposer,0.009504198594186181
Str,0.009470836718457123
FormattedFloatingDecimal,0.009461692975285645
For$PyExposer,0.009449265141221862
Lambda$PyExposer,0.0093986562617141
Errno$StringTable,0.009282673810607765
StringUtil,0.009216935817546531
PerfCounter,0.009195019740733711
ReflectedArgs,0.009186799255339212
Lexer,0.008978390340007128
aliases$py,0.008939717542013441
SignatureParser,0.008914911034175632
AugAssign$PyExposer,0.008884956137041735
Name,0.008825932466379737
stmt,0.00870091962671653
BaseTree,0.008545500406377981
Continue$PyExposer,0.008498060171342782
Call,0.00847321941420118
PyDictionary$PyExposer,0.008464746600848182
ThreadState,0.00846379288121508
PyFrozenSet$PyExposer,0.008450184413010993
FieldWriter,0.008433775859728331
comprehension$PyExposer,0.008385140467081604
ProxyGenerator$ConstantPool,0.008199932621470968
PyString$str_isdigit_exposer,0.008165917165579035
PyTimeTuple$PyExposer,0.008041191458444867
PySuper,0.008032848542046328
MakeProxies,0.008031352782872337
Attribute,0.007898960827149921
PyOverridableNew,0.007846290862988468
Gregorian,0.007770712633259576
ClassicPyObjectAdapter$NumberToPyInteger,0.007721326422612961
Attribute$PyExposer,0.007707288468493276
PythonLexer$DFA43,0.007555486090693489
Reflection,0.007499984772255407
BaseTreeAdaptor,0.007480634137177376
PyDictionary$dict_items_exposer,0.0073810075560711945
Import$PyExposer,0.0073289355157468775
PyUnicode$unicode_isspace_exposer,0.0072651313947932235
PyFloatConstant,0.00725896156089829
expr,0.00719382864085772
Config,0.0071885501598220785
PyString$str_startswith_exposer,0.0071339967397635075
Type,0.007027229017168272
PyString$str_rstrip_exposer,0.006981668205095734
PyBuiltinMethod,0.006899591168257625
Global$PyExposer,0.006897921126428738
PyString$str_isalnum_exposer,0.0068572098410000695
Label,0.006751078318373183
ClasspathPyImporter$ClasspathPyImporter_find_module_exposer,0.006751078318373183
ClassDef,0.006722772163094747
Index$PyExposer,0.006681265730091952
PyArray$array___add___exposer,0.006675472239723
ImportFrom$PyExposer,0.006630060846401328
PyString$str_istitle_exposer,0.006616012146019667
PyUnicode$unicode_istitle_exposer,0.006606537690463095
Assign,0.006604628441143515
JarFileFactory,0.006517424448843942
LocaleResources,0.006452471747649336
BoolOp,0.006382239115258152
ISO_8859_1$Encoder,0.006264290463285537
sre_constants$py,0.006248900636929866
PyUnicode$unicode_isdigit_exposer,0.00613521022354272
PySequenceList,0.006121736202969419
ProxyGenerator$ConstantPool$IndirectEntry,0.006073813076018311
PyModule$PyExposer,0.006061526180443362
PythonParser$subscript_return,0.005940734891075082
TimeFunctions,0.005937848047660182
PyIterator,0.005902420617613032
TestHarness,0.005901787914626371
Tuple$PyExposer,0.005826030952402537
Future,0.005824397053989987
PythonParser$DFA34,0.005724184583622299
LinuxPOSIX,0.005703080544665906
PyDescriptor,0.005675223229865959
PyBaseException,0.005652418491026004
URLClassPath$JarLoader,0.00547911313048758
TeeOutputStream,0.00545035298398928
PyProperty$PyExposer,0.005381770602172804
Print$PyExposer,0.00535062750570152
RewriteRuleTokenStream,0.00524628649887819
ProxyGenerator,0.005178052608530415
TryExcept,0.005150451021128992
CommandLine$py,0.005134441060728532
Pass$PyExposer,0.005086001834409939
Suite$PyExposer,0.005013616974340832
boolopType,0.004987518486631466
Launcher$AppClassLoader,0.004918406800264744
NativeLibrary,0.0048613366620126495
ParserFacade,0.004845027296978261
PythonParser$DFA51,0.004816016513433561
PyArray$array_insert_exposer,0.00479423957442708
PyString$str_upper_exposer,0.004785546825692142
Raise$PyExposer,0.00468974282067965
WrappedIterIterator,0.004580535718406095
PyDictionary$ItemsIter,0.004474703385134891
PyString$str_rindex_exposer,0.004474057879748669
PyBaseException$BaseException___init___exposer,0.004469436762056473
PythonParser$trailer_return,0.004369445650834588
Delete,0.004368146141557196
BinOp,0.0043281796234529305
BaseCalendar,0.0042806231603118115
FutureFeature,0.004219378263249634
cmpopType,0.004207170993147385
PyFrozenSet$frozenset___ne___exposer,0.004147014471033694
PyType$PyExposer,0.004071546032196666
Surrogate$Parser,0.003978889804084114
ExceptHandler,0.003977669446322767
TeePrintStream,0.003961829408469908
ThreadCallsiteInjector,0.003916422551491225
CommandLineArgs,0.003881680885235648
PyXRange$PyExposer,0.0038614391531410657
ReflectedCallData,0.003844185958225962
PythonParser$DFA129,0.003803088428146842
JarURLConnection,0.0037302439619970834
List,0.0037290532357073256
TimeZoneNameUtility,0.0036790810875506666
DacapoClassLoader,0.0036701924404379405
PySuper$__self_class___descriptor,0.0036622184484300267
PythonParser$atom_return,0.003630728494788097
Subscript$value_descriptor,0.003630728494788097
ExtensiblePyObjectAdapter,0.003539344801950177
PyString$str_isspace_exposer,0.0035112753910149564
PySuper$PyExposer,0.0034839553640260423
BoolOp$PyExposer,0.0034131583240871468
types$py,0.0034063529726302195
Expr,0.003405372276003614
slice$_fields_descriptor,0.003372675455123583
Linux64HeapFileStat,0.0032985548620281077
PythonParser$DFA30,0.0032947458755174753
Pass,0.0031610834985818367
zipimporter$PyExposer,0.0030901510578669284
SignatureFileVerifier,0.0030768041608329557
ArgListCompiler,0.00306233298740563
DisabledAlgorithmConstraints$Constraints,0.0030585588559074815
zipimporter$exposed___new__,0.0030343119896359414
exceptions,0.002942029235777576
PyBuiltinCallable$PyExposer,0.0028467184181255466
AugAssign,0.0028405021419172496
PyUnicode$unicode_isalnum_exposer,0.0027956003240108026
PyBaseException$PyExposer,0.0027658966455825643
PyMethod$instancemethod___cmp___exposer,0.0026890517370206798
URLUtil,0.0026659419248378784
PySlot,0.002629008221438106
Version,0.0026210006865731014
MethodInfo,0.002595170097725712
Utf8Info,0.0025371781577647667
PyFloat$float___long___exposer,0.0024572488250406248
InteractiveConsole,0.002409315099657842
Str$PyExposer,0.002224406595190306
Unsafe,0.002188623953893021
ParseUtil,0.002160331027185661
PyUnicode$unicode_title_exposer,0.002089256336449493
ListComp$PyExposer,0.002080517500257656
site$py,0.002026039687506969
PlatformUtil,0.0019848582233669733
UnsafeQualifiedObjectFieldAccessorImpl,0.001946179298050199
unaryopType,0.0019275803307057112
For,0.0018206425273981492
CodeAttribute,0.0016757354450947681
mod$PyExposer,0.0016406172127647728
Slice$PyExposer,0.0015910677786595225
MemberrefInfo,0.0015007926914981447
StringInfo,0.0014882703928744466
ClassDef$PyExposer,0.00140980415933715
NativeString,0.0013425668574088543
PyString$PyExposer,0.001308170799006443
ZoneInfo,0.0011133246711562178
PyFile$closed_descriptor,0.0010946351993751872
PyJavaType$19,0.0010717672607534385
DisabledAlgorithmConstraints,0.0007367597850758803
ProxyGenerator$MethodInfo,0.0
codecs$py,0.0
