dram,epoch,package,socket
0.0,0,0.0,1
0.0,1,0.0,1
0.1036350000067614,2,1.4499520000008488,1
0.0,3,0.0,1
0.001799999998183921,4,0.031004999998913263,1
0.0,5,0.0,1
0.0017399999996996485,6,0.03137300000162213,1
0.0,7,0.0,1
0.001799999998183921,8,0.030882999997629668,1
0.0,9,0.0,1
0.014220000004570466,10,0.21368400000028487,1
0.0,11,0.0,1
0.0017399999996996485,12,0.02844300000106159,1
0.0,13,0.0,1
0.0017399999924236909,14,0.02862500000082946,1
0.0,15,0.0,1
0.001860000003944151,16,0.021545999999943888,1
0.0,17,0.0,1
0.0,18,0.0,1
0.0,19,0.0,1
0.01246499999979278,20,0.18243400000028487,1
0.0,21,0.0,1
0.001799999998183921,22,0.029479999999239226,1
0.0,23,0.0,1
0.0072000000000116415,24,0.10101299999951152,1
0.0,25,0.0,1
0.012510000000474975,26,0.16729699999996228,1
0.0,27,0.0,1
0.01247999999759486,28,0.17944399999942107,1
0.0,29,0.0,1
0.01959000001079403,30,0.3018800000008923,1
0.0,31,0.0,1
0.00533999999606749,32,0.08636400000068534,1
0.0,33,0.0,1
0.012539999996079132,34,0.1785889999991923,1
0.0,35,0.0,1
0.01427999999577878,36,0.16760299999987183,1
0.0,37,0.0,1
0.007140000008803327,38,0.1403810000010708,1
0.0,39,0.0,1
0.02314499999192776,40,0.3470449999986158,1
0.0,41,0.0,1
0.00990000000456348,42,0.08050600000024133,1
0.0,43,0.0,1
0.011849999995320104,44,0.1184689999990951,1
0.0,45,0.0,1
0.008880000008502975,46,0.13671900000008463,1
0.0,47,0.0,1
0.01487999999517342,48,0.17126400000233843,1
0.0,49,0.0,1
0.023129999994125683,50,0.345153999998729,1
0.0,51,0.0,1
0.007140000008803327,52,0.10955800000192539,1
0.0,53,0.0,1
0.014219999997294508,54,0.2003789999980654,1
0.0,55,0.0,1
0.008880000008502975,56,0.1715089999997872,1
0.0,57,0.0,1
0.008939999992435332,58,0.16259700000045996,1
0.0,59,0.0,1
0.008910000004107133,60,0.19067400000130874,1
0.0,61,0.0,1
0.0035399999978835694,62,0.09521499999755179,1
0.0,63,0.0,1
0.05816999999660766,64,1.214233000000604,1
0.0,65,0.0,1
0.0,66,0.0,1
0.0,67,0.0,1
0.001799999998183921,68,0.026001000000178465,1
0.0,69,0.0,1
0.015780000008817296,70,0.17285200000151235,1
0.0,71,0.0,1
0.0017399999924236909,72,0.02807599999869126,1
0.0,73,0.0,1
0.0,74,0.0,1
0.0,75,0.0,1
0.010739999997895211,76,0.1338500000001659,1
0.0,77,0.0,1
0.003585000005841721,78,0.13989299999957439,1
0.0,79,0.0,1
0.012524999998277053,80,0.2657470000012836,1
0.0,81,0.0,1
0.007590000001073349,82,0.07611100000031001,1
0.0,83,0.0,1
0.007109999998647254,84,0.12457200000062585,1
0.0,85,0.0,1
0.0018149999959859997,86,0.07678299999861338,1
0.0,87,0.0,1
0.0035550000102375634,88,0.08483799999885377,1
0.0,89,0.0,1
0.02135999999154592,90,0.28857500000049185,1
0.0,91,0.0,1
0.0070800000030430965,92,0.11419600000044738,1
0.0,93,0.0,1
0.014310000005934853,94,0.18951500000002852,1
0.0,95,0.0,1
0.01421999999001855,96,0.18609600000127102,1
0.0,97,0.0,1
0.014220000004570466,98,0.19976799999676587,1
0.0,99,0.0,1
0.01954499999555992,100,0.3260500000014872,1
0.0,101,0.0,1
0.007109999998647254,102,0.13879399999859743,1
0.0,103,0.0,1
0.016080000008514617,104,0.32080000000132713,1
0.0,105,0.0,1
0.014264999997976702,106,0.26855500000056054,1
0.0,107,0.0,1
0.01421999999001855,108,0.2568969999992987,1
0.0,109,0.0,1
0.024900000003981404,110,0.5257569999994303,1
0.0,111,0.0,1
0.001799999998183921,112,0.043457000003400026,1
0.0,113,0.0,1
0.016080000008514617,114,0.3833009999980277,1
0.0,115,0.0,1
0.01247999999759486,116,0.2814940000007482,1
0.0,117,0.0,1
0.014280000003054738,118,0.30462599999736995,1
0.0,119,0.0,1
0.019500000002153683,120,0.40918000000237953,1
0.0,121,0.0,1
0.008925000001909211,122,0.18432599999869126,1
0.0,123,0.0,1
0.012479999990318902,124,0.27594000000135566,1
0.0,125,0.0,1
0.01434000000153901,126,0.25256399999852874,1
0.0,127,0.0,1
0.014295000000856817,128,0.239317999999912,1
0.0,129,0.0,1
0.019650000002002344,130,0.35968099999990955,1
0.0,131,0.0,1
0.010739999997895211,132,0.21173100000123668,1
0.0,133,0.0,1
0.012600000001839362,134,0.26055900000028487,1
0.0,135,0.0,1
0.014250000000174623,136,0.27392499999950815,1
0.0,137,0.0,1
0.016199999998207204,138,0.28881899999942107,1
0.0,139,0.0,1
0.0160799999939627,140,0.30743400000028487,1
0.0,141,0.0,1
0.007140000008803327,142,0.1343990000004851,1
0.0,143,0.0,1
0.014234999995096587,144,0.24371400000018184,1
0.0,145,0.0,1
0.017070000001695007,146,0.24792399999932968,1
0.0,147,0.0,1
0.014264999997976702,148,0.19964599999912025,1
0.0,149,0.0,1
0.014145000008284114,150,0.22222900000087975,1
0.0,151,0.0,1
0.01256999999168329,152,0.18988100000024133,1
0.0,153,0.0,1
0.014159999998810235,154,0.21740700000009383,1
0.0,155,0.0,1
0.014280000010330696,156,0.19818099999974947,1
0.0,157,0.0,1
0.014264999997976702,158,0.22082500000033178,1
0.0,159,0.0,1
0.015959999996994156,160,0.27459799999996903,1
0.0,161,0.0,1
0.01254000000335509,162,0.24102700000003097,1
0.0,163,0.0,1
0.014204999992216472,164,0.29724199999873235,1
0.0,165,0.0,1
0.014220000004570466,166,0.31707700000151817,1
0.0,167,0.0,1
0.01427999999577878,168,0.280640000000858,1
0.0,169,0.0,1
0.019574999998440035,170,0.37377899999773945,1
0.0,171,0.0,1
0.007140000001527369,172,0.1340940000009141,1
0.0,173,0.0,1
0.016020000002754387,174,0.2793580000015936,1
0.0,175,0.0,1
0.012420000006386545,176,0.21093799999835028,1
0.0,177,0.0,1
0.01601999998820247,178,0.29302999999890744,1
0.0,179,0.0,1
0.019680000012158416,180,0.31030200000168406,1
0.0,181,0.0,1
0.00881999998819083,182,0.11431899999843154,1
0.0,183,0.0,1
0.01254000000335509,184,0.19464100000004692,1
0.0,185,0.0,1
0.010620000000926666,186,0.16760299999987183,1
0.0,187,0.0,1
0.005370000006223563,188,0.12683100000140257,1
0.0,189,0.0,1
0.014339999994263053,190,0.23754899999948975,1
0.0,191,0.0,1
0.005279999997583218,192,0.11425799999960873,1
0.0,193,0.0,1
0.007110000005923212,194,0.1658320000024105,1
0.0,195,0.0,1
0.012479999990318902,196,0.1740719999997964,1
0.0,197,0.0,1
0.014235000002372544,198,0.17553699999734818,1
0.0,199,0.0,1
0.012524999998277053,200,0.21423399999912363,1
0.0,201,0.0,1
0.005325000005541369,202,0.10260000000016589,1
0.0,203,0.0,1
0.0070800000030430965,204,0.15960700000323413,1
0.0,205,0.0,1
0.014219999997294508,206,0.2141109999975015,1
0.0,207,0.0,1
0.014235000002372544,208,0.19793700000082026,1
0.0,209,0.0,1
0.021359999998821877,210,0.32446299999901385,1
0.0,211,0.0,1
0.008910000004107133,212,0.13256800000090152,1
0.0,213,0.0,1
0.01247999999759486,214,0.1781009999995149,1
0.0,215,0.0,1
0.014204999992216472,216,0.20642100000077335,1
0.0,217,0.0,1
0.014309999998658895,218,0.17578099999991537,1
0.0,219,0.0,1
0.017760000002454035,220,0.2365109999991546,1
0.0,221,0.0,1
0.010679999999410938,222,0.15533500000310596,1
0.0,223,0.0,1
0.014309999998658895,224,0.19518999999672815,1
0.0,225,0.0,1
0.014280000010330696,226,0.18176299999868206,1
0.0,227,0.0,1
0.014309999991382938,228,0.1790770000025077,1
0.0,229,0.0,1
0.019710000000486616,230,0.2563479999989795,1
0.0,231,0.0,1
0.008910000004107133,232,0.11737000000175613,1
0.0,233,0.0,1
0.014220000004570466,234,0.18298399999912363,1
0.0,235,0.0,1
0.014339999994263053,236,0.18469199999890407,1
0.0,237,0.0,1
0.01429499999358086,238,0.17810100000315288,1
0.0,239,0.0,1
0.015210000005026814,240,0.22674499999811815,1
0.0,241,0.0,1
0.010680000006686896,242,0.12463399999978719,1
0.0,243,0.0,1
0.01421999999001855,244,0.21936099999948055,1
0.0,245,0.0,1
0.01434000000153901,246,0.24487300000146206,1
0.0,247,0.0,1
0.012480000004870817,248,0.2232049999984156,1
0.0,249,0.0,1
0.021300000000337604,250,0.3353879999995115,1
0.0,251,0.0,1
0.007094999993569218,252,0.11175600000024133,1
0.0,253,0.0,1
0.013290000009874348,254,0.21655200000168406,1
0.0,255,0.0,1
0.015899999998509884,256,0.27539099999921746,1
0.0,257,0.0,1
0.01247999999759486,258,0.1876830000001064,1
0.0,259,0.0,1
0.019650000002002344,260,0.2957769999993616,1
0.0,261,0.0,1
0.010620000000926666,262,0.16137700000035693,1
0.0,263,0.0,1
0.01421999999001855,264,0.21270699999877252,1
0.0,265,0.0,1
0.014220000004570466,266,0.22125300000152492,1
0.0,267,0.0,1
0.01247999999759486,268,0.22656199999983073,1
0.0,269,0.0,1
0.019455000008747447,270,0.3282469999994646,1
0.0,271,0.0,1
0.00887999999395106,272,0.14807100000143691,1
0.0,273,0.0,1
0.016020000002754387,274,0.297973999997339,1
0.0,275,0.0,1
0.014219999997294508,276,0.27795400000286463,1
0.0,277,0.0,1
0.012464999992516823,278,0.27789299999676587,1
0.0,279,0.0,1
0.023145000006479677,280,0.5265500000004977,1
0.0,281,0.0,1
0.005279999997583218,282,0.12408500000310596,1
0.0,283,0.0,1
0.016080000008514617,284,0.34747299999799,1
0.0,285,0.0,1
0.012449999994714744,286,0.2473150000005262,1
0.0,287,0.0,1
0.01427999999577878,288,0.2825310000007448,1
0.0,289,0.0,1
0.017820000008214265,290,0.3342290000000503,1
0.0,291,0.0,1
0.01067999999213498,292,0.19158900000002177,1
0.0,293,0.0,1
0.014220000004570466,294,0.2435910000003787,1
0.0,295,0.0,1
0.01419000000169035,296,0.24639899999783665,1
0.0,297,0.0,1
0.015299999999115244,298,0.25122100000044156,1
0.0,299,0.0,1
0.01780499999586027,300,0.3050540000003821,1
0.0,301,0.0,1
0.010620000000926666,302,0.17889399999876332,1
0.0,303,0.0,1
0.01247999999759486,304,0.23736600000302133,1
0.0,305,0.0,1
0.014295000008132774,306,0.2366329999986192,1
0.0,307,0.0,1
0.014339999994263053,308,0.2322390000008454,1
0.0,309,0.0,1
0.017835000006016344,310,0.2950440000004164,1
0.0,311,0.0,1
0.013004999993427191,312,0.17748999999639636,1
0.0,313,0.0,1
0.014280000003054738,314,0.2354730000024574,1
0.0,315,0.0,1
0.014219999997294508,316,0.23522999999840977,1
0.0,317,0.0,1
0.012465000007068738,318,0.2095339999996213,1
0.0,319,0.0,1
0.0196799999976065,320,0.3134760000029928,1
0.0,321,0.0,1
0.010725000000093132,322,0.1652829999984533,1
0.0,323,0.0,1
0.013350000001082662,324,0.21405099999901722,1
0.0,325,0.0,1
0.012524999998277053,326,0.18383800000265182,1
0.0,327,0.0,1
0.008954999997513369,328,0.22045900000011898,1
0.0,329,0.0,1
0.012419999999110587,330,0.25555399999939254,1
0.0,331,0.0,1
0.010679999999410938,332,0.14697199999864097,1
0.0,333,0.0,1
0.012449999994714744,334,0.1687629999996716,1
0.0,335,0.0,1
0.016035000007832423,336,0.2081290000005538,1
0.0,337,0.0,1
0.010725000000093132,338,0.16143799999917974,1
0.0,339,0.0,1
0.017910000002302695,340,0.2637940000022354,1
0.0,341,0.0,1
0.008939999992435332,342,0.12365799999861338,1
0.0,343,0.0,1
0.016170000009879004,344,0.2149039999985689,1
0.0,345,0.0,1
0.008024999995541293,346,0.16650400000253285,1
0.0,347,0.0,1
0.010710000002291054,348,0.18310600000040722,1
0.0,349,0.0,1
0.010784999991301447,350,0.263610999998491,1
0.0,351,0.0,1
0.00712500000372529,352,0.14587400000164052,1
0.0,353,0.0,1
0.009840000006079208,354,0.16314699999929871,1
0.0,355,0.0,1
0.016034999993280508,356,0.20928899999853456,1
0.0,357,0.0,1
0.012480000004870817,358,0.15527400000064517,1
0.0,359,0.0,1
0.0196799999976065,360,0.25146399999903224,1
0.0,361,0.0,1
0.0,0,0.0,2
0.0,1,0.0,2
0.22540500000468455,2,1.4229130000021541,2
0.0,3,0.0,2
0.004079999998793937,4,0.02862499999901047,2
0.0,5,0.0,2
0.004079999998793937,6,0.027953999997407664,2
0.0,7,0.0,2
0.004080000006069895,8,0.02649000001110835,2
0.0,9,0.0,2
0.03274499999679392,10,0.22167899999476504,2
0.0,11,0.0,2
0.004079999998793937,12,0.05401599999458995,2
0.0,13,0.0,2
0.0,14,0.0,2
0.0,15,0.0,2
0.00413999999727821,16,0.027222000004258007,2
0.0,17,0.0,2
0.00413999999727821,18,0.025817999994615093,2
0.0,19,0.0,2
0.02454000000579981,20,0.17852800001128344,2
0.0,21,0.0,2
0.004079999998793937,22,0.025633999990532175,2
0.0,23,0.0,2
0.016500000005180482,24,0.10546900000190362,2
0.0,25,0.0,2
0.03281999999308027,26,0.20465100000001257,2
0.0,27,0.0,2
0.02890500000648899,28,0.2132570000103442,2
0.0,29,0.0,2
0.05333999999129446,30,0.35516399999323767,2
0.0,31,0.0,2
0.016320000002451707,32,0.1220089999915217,2
0.0,33,0.0,2
0.028785000002244487,34,0.199707000007038,2
0.0,35,0.0,2
0.0329249999995227,36,0.21618599999783328,2
0.0,37,0.0,2
0.03297000000020489,38,0.19866999999794643,2
0.0,39,0.0,2
0.06287999999767635,40,0.38977000000159023,2
0.0,41,0.0,2
0.02064000000245869,42,0.10900900000706315,2
0.0,43,0.0,2
0.020700000000942964,44,0.1260379999948782,2
0.0,45,0.0,2
0.033104999994975515,46,0.20581000000674976,2
0.0,47,0.0,2
0.028860000005806796,48,0.174682999990182,2
0.0,49,0.0,2
0.05339999999705469,50,0.3237300000109826,2
0.0,51,0.0,2
0.01643999999942025,52,0.10595699999248609,2
0.0,53,0.0,2
0.0328799999988405,54,0.21606499999325024,2
0.0,55,0.0,2
0.02885999999853084,56,0.19738700000016252,2
0.0,57,0.0,2
0.03306000000156928,58,0.19885300000896677,2
0.0,59,0.0,2
0.04125000000203727,60,0.25030499999411404,2
0.0,61,0.0,2
0.02051999999821419,62,0.12506100000609877,2
0.0,63,0.0,2
0.2345400000049267,64,1.4725340000004508,2
0.0,65,0.0,2
0.004020000000309665,66,0.025817999994615093,2
0.0,67,0.0,2
0.0,68,0.0,2
0.0,69,0.0,2
0.026579999997920822,70,0.1447150000021793,2
0.0,71,0.0,2
0.004079999998793937,72,0.02703800000017509,2
0.0,73,0.0,2
0.004079999998793937,74,0.028809000003093388,2
0.0,75,0.0,2
0.024599999997008126,76,0.15747099999862257,2
0.0,77,0.0,2
0.028860000005806796,78,0.17608600000676233,2
0.0,79,0.0,2
0.053384999999252614,80,0.33044399999198504,2
0.0,81,0.0,2
0.013349999993806705,82,0.07434099999227328,2
0.0,83,0.0,2
0.011235000005399343,84,0.1297610000037821,2
0.0,85,0.0,2
0.00413999999727821,86,0.09741200000280514,2
0.0,87,0.0,2
0.012405000001308508,88,0.11376900000323076,2
0.0,89,0.0,2
0.01750500000343891,90,0.23657300000195391,2
0.0,91,0.0,2
0.01631999999517575,92,0.09918199999083299,2
0.0,93,0.0,2
0.032940000004600734,94,0.2056880000018282,2
0.0,95,0.0,2
0.033000000003085006,96,0.2014770000023418,2
0.0,97,0.0,2
0.03283499999088235,98,0.1958009999943897,2
0.0,99,0.0,2
0.04303500000241911,100,0.2501830000037444,2
0.0,101,0.0,2
0.02149500000086846,102,0.12457300000096438,2
0.0,103,0.0,2
0.03899999999703141,104,0.22174100000120234,2
0.0,105,0.0,2
0.03265500000270549,106,0.201721000004909,2
0.0,107,0.0,2
0.03491999999823747,108,0.20941199999651872,2
0.0,109,0.0,2
0.07113000000390457,110,0.428526999996393,2
0.0,111,0.0,2
0.006239999995159451,112,0.02966300000116462,2
0.0,113,0.0,2
0.03882000000157859,114,0.26525900000706315,2
0.0,115,0.0,2
0.030899999997927807,116,0.18041999998968095,2
0.0,117,0.0,2
0.03286500000831438,118,0.20776399999886053,2
0.0,119,0.0,2
0.050369999997201376,120,0.2977290000053472,2
0.0,121,0.0,2
0.022635000001173466,122,0.1297610000037821,2
0.0,123,0.0,2
0.032654999995429534,124,0.207946999988053,2
0.0,125,0.0,2
0.0369600000049104,126,0.2620240000032936,2
0.0,127,0.0,2
0.028800000000046566,128,0.20770199999969918,2
0.0,129,0.0,2
0.04424999999901047,130,0.31793300000572344,2
0.0,131,0.0,2
0.02448000000003958,132,0.1609489999973448,2
0.0,133,0.0,2
0.03079499999876134,134,0.20697000000654953,2
0.0,135,0.0,2
0.034964999998919666,136,0.21643099999346305,2
0.0,137,0.0,2
0.03708000000187894,138,0.22857700000167824,2
0.0,139,0.0,2
0.04116000000067288,140,0.2636720000009518,2
0.0,141,0.0,2
0.020639999995182734,142,0.1269529999990482,2
0.0,143,0.0,2
0.03295500000240281,144,0.2025759999960428,2
0.0,145,0.0,2
0.03276000000187196,146,0.21038799999951152,2
0.0,147,0.0,2
0.033750000002328306,148,0.2267450000072131,2
0.0,149,0.0,2
0.03709499999968102,150,0.22729500000423286,2
0.0,151,0.0,2
0.028800000000046566,152,0.178710999985924,2
0.0,153,0.0,2
0.028679999995802063,154,0.20684800000162795,2
0.0,155,0.0,2
0.032939999997324776,156,0.20239300000685034,2
0.0,157,0.0,2
0.032939999997324776,158,0.2020870000051218,2
0.0,159,0.0,2
0.04869000000326196,160,0.27215599999180995,2
0.0,161,0.0,2
0.020445000001927838,162,0.14654500000324333,2
0.0,163,0.0,2
0.042105000000447035,164,0.29089399999793386,2
0.0,165,0.0,2
0.03689999999915017,166,0.2414550000030431,2
0.0,167,0.0,2
0.032639999997627456,168,0.24163799999951152,2
0.0,169,0.0,2
0.03689999999915017,170,0.3314819999941392,2
0.0,171,0.0,2
0.016260000003967434,172,0.12078900000051362,2
0.0,173,0.0,2
0.03695999999763444,174,0.26415999999881024,2
0.0,175,0.0,2
0.02448000000003958,176,0.20428500000707572,2
0.0,177,0.0,2
0.04200000000128057,178,0.29040499999246094,2
0.0,179,0.0,2
0.04910999999992782,180,0.35302700001193443,2
0.0,181,0.0,2
0.020475000004807953,182,0.16223199999512872,2
0.0,183,0.0,2
0.03269999999611173,184,0.2837519999957294,2
0.0,185,0.0,2
0.03289500000391854,186,0.2697139999945648,2
0.0,187,0.0,2
0.028604999999515712,188,0.22656300000380725,2
0.0,189,0.0,2
0.046169999994162936,190,0.37793000000237953,2
0.0,191,0.0,2
0.024660000002768356,192,0.1989130000001751,2
0.0,193,0.0,2
0.03289500000391854,194,0.26385499999742024,2
0.0,195,0.0,2
0.03065999999671476,196,0.25469999999768334,2
0.0,197,0.0,2
0.03282000000035623,198,0.2680660000114585,2
0.0,199,0.0,2
0.04517999999370659,200,0.3406990000003134,2
0.0,201,0.0,2
0.02058000000397442,202,0.14489699999103323,2
0.0,203,0.0,2
0.03276000000187196,204,0.23803700000280514,2
0.0,205,0.0,2
0.03259499999694526,206,0.2578129999965313,2
0.0,207,0.0,2
0.03276000000187196,208,0.24359100001311162,2
0.0,209,0.0,2
0.0489750000051572,210,0.3070679999946151,2
0.0,211,0.0,2
0.020579999989422504,212,0.12951599999360042,2
0.0,213,0.0,2
0.02874000000883825,214,0.1830450000052224,2
0.0,215,0.0,2
0.03305999999429332,216,0.2023919999919599,2
0.0,217,0.0,2
0.033015000000887085,218,0.19775400000798982,2
0.0,219,0.0,2
0.04128000000491738,220,0.24987800000235438,2
0.0,221,0.0,2
0.024779999992460944,222,0.15216099999815924,2
0.0,223,0.0,2
0.033000000003085006,224,0.201111000002129,2
0.0,225,0.0,2
0.033029999998689163,226,0.20263599998725113,2
0.0,227,0.0,2
0.03312000000005355,228,0.2065430000075139,2
0.0,229,0.0,2
0.04531500000302913,230,0.27624600000854116,2
0.0,231,0.0,2
0.02066999999806285,232,0.12451099998725113,2
0.0,233,0.0,2
0.03298500000528293,234,0.20221000000310596,2
0.0,235,0.0,2
0.03298499999800697,236,0.205138999997871,2
0.0,237,0.0,2
0.03306000000156928,238,0.20043900000018766,2
0.0,239,0.0,2
0.04126499999256339,240,0.2490239999970072,2
0.0,241,0.0,2
0.02478000000701286,242,0.154236000002129,2
0.0,243,0.0,2
0.032939999997324776,244,0.20202599999902304,2
0.0,245,0.0,2
0.033674999998766,246,0.201721000004909,2
0.0,247,0.0,2
0.02862000000459375,248,0.17541499999788357,2
0.0,249,0.0,2
0.04907999999704771,250,0.3017580000014277,2
0.0,251,0.0,2
0.017370000001392327,252,0.11846899999363814,2
0.0,253,0.0,2
0.0328799999988405,254,0.22045900000375696,2
0.0,255,0.0,2
0.03674999999930151,256,0.2703250000049593,2
0.0,257,0.0,2
0.028785000002244487,258,0.2092279999924358,2
0.0,259,0.0,2
0.04604999999719439,260,0.32531800001015654,2
0.0,261,0.0,2
0.02457000000140397,262,0.17565900000045076,2
0.0,263,0.0,2
0.03264000000490341,264,0.24365199999738252,2
0.0,265,0.0,2
0.03585000000020955,266,0.24938999999722,2
0.0,267,0.0,2
0.03301499999361113,268,0.2269289999967441,2
0.0,269,0.0,2
0.046080000000074506,270,0.36358600000676233,2
0.0,271,0.0,2
0.02043000000412576,272,0.15759300000354415,2
0.0,273,0.0,2
0.04195499999332242,274,0.30175799999415176,2
0.0,275,0.0,2
0.03899999999703141,276,0.25512699999671895,2
0.0,277,0.0,2
0.04311000000598142,278,0.2678830000004382,2
0.0,279,0.0,2
0.06053999999858206,280,0.39947500000562286,2
0.0,281,0.0,2
0.014385000002221204,282,0.10015900000144029,2
0.0,283,0.0,2
0.037680000001273584,284,0.2998659999939264,2
0.0,285,0.0,2
0.03290999999444466,286,0.2684929999959422,2
0.0,287,0.0,2
0.03272999999899184,288,0.2421270000122604,2
0.0,289,0.0,2
0.06283500000427011,290,0.3443599999882281,2
0.0,291,0.0,2
0.020400000001245644,292,0.15264900000329362,2
0.0,293,0.0,2
0.0348599999997532,294,0.24298100000305567,2
0.0,295,0.0,2
0.032804999995278195,296,0.2425539999967441,2
0.0,297,0.0,2
0.04121999999915715,298,0.23339800000394462,2
0.0,299,0.0,2
0.053475000000617,300,0.28009000000020023,2
0.0,301,0.0,2
0.02545500000269385,302,0.1632690000042203,2
0.0,303,0.0,2
0.03656999999657273,304,0.18420499999047024,2
0.0,305,0.0,2
0.014100000000325963,306,0.1486810000060359,2
0.0,307,0.0,2
0.02521500000875676,308,0.1464229999910458,2
0.0,309,0.0,2
0.031754999996337574,310,0.185486000002129,2
0.0,311,0.0,2
0.014925000003131572,312,0.11493000001064502,2
0.0,313,0.0,2
0.02015999999275664,314,0.14813199999480275,2
0.0,315,0.0,2
0.025740000004589092,316,0.15063499999814667,2
0.0,317,0.0,2
0.01043999999819789,318,0.1276849999994738,2
0.0,319,0.0,2
0.02470500000345055,320,0.205443999999261,2
0.0,321,0.0,2
0.012734999996609986,322,0.10949799999798415,2
0.0,323,0.0,2
0.01464000000123633,324,0.14434800000162795,2
0.0,325,0.0,2
0.013605000000097789,326,0.13397200000326848,2
0.0,327,0.0,2
0.00503999999637017,328,0.1596069999941392,2
0.0,329,0.0,2
0.0035250000000814907,330,0.17352300000493415,2
0.0,331,0.0,2
0.010560000002442393,332,0.108581000007689,2
0.0,333,0.0,2
0.013845000001310837,334,0.12756399999489076,2
0.0,335,0.0,2
0.015090000000782311,336,0.1636350000044331,2
0.0,337,0.0,2
0.0044400000042514876,338,0.12560999998822808,2
0.0,339,0.0,2
0.01909499999601394,340,0.19653400000242982,2
0.0,341,0.0,2
0.002639999998791609,342,0.09008700000413228,2
0.0,343,0.0,2
0.011549999995622784,344,0.16168299999844749,2
0.0,345,0.0,2
0.004110000001674052,346,0.12811200000578538,2
0.0,347,0.0,2
0.0,348,0.14392099998804042,2
0.0,349,0.0,2
0.005819999998493586,350,0.19751000000542263,2
0.0,351,0.0,2
0.004125000006752089,352,0.10711699999228586,2
0.0,353,0.0,2
0.0017399999924236909,354,0.12542700001358753,2
0.0,355,0.0,2
0.02680500000133179,356,0.20007299998542294,2
0.0,357,0.0,2
0.03282000000035623,358,0.17913800001406344,2
0.0,359,0.0,2
0.04626000000280328,360,0.2743530000007013,2
0.0,361,0.0,2
