method,package1,package2,dram1,dram2,energy
javassist.bytecode,0.0,0.0,0.0,0.0,0.0
org.apache.lucene.analysis,0.06320790827180242,0.0,0.004125061947796867,0.0,0.06733297021959929
org.apache.lucene.analysis.standard,0.06544368544455302,0.10162333333088704,0.004261248860911422,0.0109599999996135,0.18228826763596498
org.apache.lucene.demo,0.06400085865531667,0.0,0.004767388294320934,0.0,0.06876824694963761
org.apache.lucene.document,0.0,0.0,0.0,0.0,0.0
org.apache.lucene.index,0.1870354989806447,0.40171961538241396,0.014533483573048577,0.05180384615344407,0.6550924440895514
org.apache.lucene.store,0.0,0.3427098333352963,0.0,0.04111562499959595,0.38382545833489223
org.apache.lucene.util,0.0,0.0888316666684356,0.0,0.012821875000857592,0.10165354166929319
org.dacapo.harness,0.13256304390085047,0.8550654912351797,0.008827050415658788,0.12148868018988673,1.1179442657415757
org.dacapo.luindex,0.0,0.0434438918931158,0.0,0.0060194594584204045,0.049463351351536206
org.dacapo.parser,0.0,0.01760374658555883,0.0,0.002493676681093451,0.02009742326665228
sun.misc,0.0,0.12024814700829302,0.0,0.01585747328049134,0.13610562028878437
sun.nio.cs,0.0,0.0,0.0,0.0,0.0
sun.util.calendar,0.0,0.0,0.0,0.0,0.0
