method,package1,package2,dram1,dram2,energy
org.apache.lucene.analysis,0.0,0.1429594454069456,0.0,0.02038778468102275,0.16334723008796836
org.apache.lucene.analysis.standard,0.0,0.1530768583301937,0.0,0.021285759432418484,0.17436261776261217
org.apache.lucene.index,0.029605725490499956,0.330415047165051,0.002000588234902049,0.04759214195084423,0.4096135028412972
org.apache.lucene.store,0.0,0.0646577449493306,0.0,0.007734282623003514,0.07239202757233412
org.dacapo.harness,0.0,0.0,0.0,0.0,0.0
org.dacapo.luindex,0.0,0.0,0.0,0.0,0.0
sun.util.locale.provider,0.0,0.0,0.0,0.0,0.0
