method,package2,dram2,energy
AttributeInfo,0.0,0.0,0.0
BufferedIndexOutput,0.0,0.0,0.0
ByteBlockPool,0.0,0.0,0.0
ByteSliceReader,0.0,0.0,0.0
CalendarSystem,0.010064952381071636,0.0013771428573471935,0.01144209523841883
CharArraySet,0.09796133333535786,0.00960000000001552,0.10756133333537338
ConstPool,0.0,0.0,0.0
DisabledAlgorithmConstraints$Constraints,0.0,0.0,0.0
DocFieldConsumersPerThread,0.0,0.0,0.0
DocInverterPerField,0.0,0.0,0.0
DocumentsWriter,0.0,0.0,0.0
FreqProxTermsWriter,0.24275733333342941,0.023250000000795502,0.26600733333422494
IndexInput,0.2881198148132642,0.03098500000056379,0.319104814813828
IndexOutput,0.08449066666825845,0.010319999999073504,0.09481066666733196
IndexWriter,0.12175172221921254,0.011781111110462074,0.1335328333296746
LowerCaseFilter,0.0,0.0,0.0
MethodInfo,0.006672437545346197,0.0008620612728186452,0.007534498818164842
MultiLevelSkipListWriter,0.11016833333511993,0.01104499999928521,0.12121333333440514
RAMOutputStream,0.0,0.0,0.0
SegmentMerger,0.1190186111105302,0.016229166667471873,0.13524777777800207
StandardTokenizerImpl,0.357482999994924,0.041819999998551786,0.3993029999934758
TermInfosWriter,0.11761500000284285,0.0136599999993147,0.13127500000215755
TermsHashPerField,0.4086212592624684,0.050293333335031526,0.4589145925974999
TestHarness,0.0,0.0,0.0
Token,0.19413233333762037,0.026079999998425286,0.22021233333604565
URLClassPath$JarLoader$2,0.0890296666669504,0.01087999999920915,0.09990966666615955
UTF_8$Encoder,0.0,0.0,0.0
