method,package1,package2,dram1,dram2,energy
org.apache.commons.cli,0.0,0.0,0.0,0.0,0.0
org.apache.lucene.analysis,0.0,0.21700989008875288,0.0,0.02539653323122975,0.24240642331998263
org.apache.lucene.analysis.standard,0.0,0.37910512831292187,0.0,0.04620138426738277,0.4253065125803046
org.apache.lucene.index,0.0,2.0593980926866795,0.0,0.24526163668880122,2.304659729375481
org.apache.lucene.store,0.0,0.25413709217020286,0.0,0.03519907970101795,0.2893361718712208
org.dacapo.harness,0.0,0.0,0.0,0.0,0.0
org.dacapo.luindex,0.0,0.0,0.0,0.0,0.0
org.dacapo.parser,0.0,0.0,0.0,0.0,0.0
sun.nio.cs,0.0,0.07535622966490102,0.0,0.0071454242982386075,0.08250165396313963
sun.util.calendar,0.0,0.02852336874802064,0.0,0.004242220622460861,0.0327655893704815
sun.util.locale.provider,0.0,0.0,0.0,0.0,0.0
