method,hits
Arrays.copyOf,1
Arrays.fill,1
CharacterDataLatin1.getProperties,2
ClassLoader.defineClass1,3
ClassLoader.findBootstrapClass,1
FileInputStream.available0,1
FileInputStream.open0,1
FileOutputStream.open0,3
FileOutputStream.write,2
FileOutputStream.writeBytes,5
FilterOutputStream.close,1
Format$Field.<init>,1
Formatter.parse,1
GregorianCalendar.computeFields,1
Inflater.inflateBytes,18
String.format,1
String.indexOf,1
System.nanoTime,1
UnixFileSystem.delete0,3
UnixFileSystem.getBooleanAttributes0,2
UnixFileSystem.list,1
ZipInputStream.readEnd,1
