method,package1,package2,dram1,dram2,energy
BufferedInputStream,0.0,0.05068699999846461,0.0,0.0069745454542995,0.05766154545276411
ClassLoader,0.0,0.030734518517015707,0.0,0.004251111111241495,0.0349856296282572
Currency,0.0,0.0,0.0,0.0,0.0
ExpiringCache,0.0,0.024929481481969426,0.0,0.004266666666673565,0.029196148148642992
FileInputStream,0.0,0.0738726666677394,0.0,0.01238000000254639,0.08625266667028579
FileOutputStream,0.0,0.5040483333238323,0.0,0.0713449999942289,0.5753933333180612
Formatter,0.0,0.0,0.0,0.0,0.0
Inflater,0.0,0.4808519523808389,0.0,0.07265428571450425,0.5535062380953432
InflaterInputStream,0.0,0.14180223809740883,0.0,0.020107857144293598,0.1619100952417024
JarVerifier,0.0,0.1075846666669046,0.0,0.0164049999996981,0.12398966666660269
PrintStream,0.0,0.0,0.0,0.0,0.0
RandomAccessFile,0.0,0.0,0.0,0.0,0.0
SimpleDateFormat,0.0,0.07609066666433742,0.0,0.012379999997695752,0.08847066666203317
String,0.0,0.0,0.0,0.0,0.0
StringCoding$StringEncoder,0.0,0.0,0.0,0.0,0.0
System,0.0,0.0,0.0,0.0,0.0
UnixFileSystem,0.0,0.115458000000217,0.0,0.017825000000205666,0.13328300000042267
Vector,0.0,0.0,0.0,0.0,0.0
ZipFile,0.0,0.04002399999990303,0.0,0.003412500000194996,0.04343650000009803
ZipInputStream,0.0,0.059570333335917276,0.0,0.006735000000238263,0.06630533333615554
