method,package2,dram2,energy
AccessController.doPrivileged,0.005863387126056385,0.0008779493917346945,0.00674133651779108
Arrays.fill,0.12878433333389694,0.013650000000779984,0.14243433333467692
Attributes.read,0.0059640000001222465,0.0007828571428295357,0.0067468571429517826
BufferedInputStream.read,0.0,0.0,0.0
CharacterDataLatin1.toLowerCase,0.0,0.0,0.0
ClassLoader.defineClass1,0.015546523809635325,0.0023428571429186767,0.017889380952554
FileInputStream.close0,0.08411880000057864,0.01106999999974505,0.09518880000032369
FileOutputStream.close0,0.0,0.0,0.0
FileOutputStream.open0,0.05557517792175111,0.0074361034813816606,0.06301128140313277
FileOutputStream.write,0.3661457333320868,0.049438500002725046,0.4155842333348118
FileOutputStream.writeBytes,0.07477622861827113,0.010953893686474115,0.08573012230474525
GregorianCalendar.computeFields,0.07680266666526828,0.008255000000644941,0.08505766666591322
Inflater.inflateBytes,0.8099917995679939,0.11508978727982377,0.9250815868478177
JarFile.initializeVerifier,0.0467595220176904,0.0061046354129951005,0.0528641574306855
Math.floor,0.0,0.0,0.0
StringCoding$StringEncoder.encode,0.02973626666353084,0.004415999999037011,0.03415226666256785
UnixFileSystem.createDirectory,0.06762960571876099,0.010389657593571687,0.07801926331233268
UnixFileSystem.delete0,0.0,0.0,0.0
ZipFile$ZipFileInflaterInputStream.fill,0.0,0.0,0.0
ZipFile.getEntry,0.0,0.0,0.0
