method,package1,package2,dram1,dram2,energy
Arrays.copyOf|ArrayList.grow|ArrayList.ensureExplicitCapacity,0.0,0.0,0.0,0.0,0.0
BufferedInputStream.read|DataInputStream.readUnsignedShort|ExceptionTable.<init>,0.0,0.0,0.0,0.0,0.0
BufferedInputStream.read|DataInputStream.readUnsignedShort|FieldInfo.read,0.0,0.03841710754925296,0.0,0.0033052124950227442,0.04172232004427571
CharacterDataLatin1.getProperties|CharacterDataLatin1.toLowerCase|Character.toLowerCase,0.0,0.0,0.0,0.0,0.0
ClassLoader.defineClass1|ClassLoader.defineClass|SecureClassLoader.defineClass,0.0,0.25185803066733864,0.0,0.0355967603800365,0.28745479104737515
ClassLoader.findBootstrapClass|ClassLoader.findBootstrapClassOrNull|ClassLoader.loadClass,0.0,0.03497766027457034,0.0,0.0047551933793508255,0.039732853653921166
ConcurrentHashMap.get|LocaleProviderAdapter.getAdapter|Calendar.createCalendar,0.0,0.0,0.0,0.0,0.0
File.canRead|Index.indexDocs|Index.indexDocs,0.0,0.0,0.0,0.0,0.0
FileInputStream.readBytes|FileInputStream.read|StreamDecoder.readBytes,0.0,0.03375535510049638,0.0,0.0032783316449742275,0.03703368674547061
FileOutputStream.open0|FileOutputStream.open|FileOutputStream.<init>,0.0,0.015663801602525448,0.0,0.0019569039030623734,0.017620705505587822
FileOutputStream.writeBytes|FileOutputStream.write|BufferedOutputStream.flushBuffer,0.0,0.09474930438579268,0.0,0.014657565989022528,0.10940687037481521
FileOutputStream.write|FileOutputStream.write|TeeOutputStream.write,0.0,0.2938654443575991,0.0,0.045387200121075,0.3392526444786741
FilterInputStream.available|BufferedInputStream.read|Benchmark.fileFromInputStream,0.0,0.0,0.0,0.0,0.0
Formatter.parse|Formatter.format|Formatter.format,0.0,0.03621530964059201,0.0,0.00579542193766189,0.0420107315782539
HeapByteBuffer.<init>|ByteBuffer.allocate|StreamDecoder.<init>,0.0,0.023819257720225053,0.0,0.003466886453727541,0.027286144173952594
Inflater.inflateBytes|Inflater.inflate|InflaterInputStream.read,0.0,0.35964224388573357,0.0,0.051867323889417866,0.41150956777515146
JarFile.initializeVerifier|JarFile.getInputStream|URLClassPath$JarLoader$2.getInputStream,0.0,0.0,0.0,0.0,0.0
RandomAccessFile.writeBytes|RandomAccessFile.write|FSDirectory$FSIndexOutput.flushBuffer,0.0,0.0,0.0,0.0,0.0
String.format|Chaperone.main|end.end,0.0,0.0,0.0,0.0,0.0
String.indexOf|ClassLoader.checkName|ClassLoader.findLoadedClass,0.0,0.0,0.0,0.0,0.0
StringCoding$StringEncoder.encode|StringCoding.encode|String.getBytes,0.0,0.0,0.0,0.0,0.0
URLStreamHandler.toExternalForm|URL.toExternalForm|URL.toString,0.0,0.0,0.0,0.0,0.0
UnixFileSystem.delete0|UnixFileSystem.delete|File.delete,0.0,0.053375140420699116,0.0,0.006858881369326704,0.06023402179002582
ZipFile.entries|JarFile.access$001|JarFile$JarEntryIterator.<init>,0.0,0.0,0.0,0.0,0.0
ZipInputStream.<init>|ZipInputStream.<init>|Benchmark.unpackZipStream,0.0,0.030152022712690768,0.0,0.003726486939624215,0.03387850965231498
