method,hits
AbstractField.<init>,1
ArrayList.grow,1
Arrays.copyOf,1
Arrays.fill,2
Benchmark.fileFromInputStream,1
BufferedIndexOutput.writeByte,1
BufferedInputStream.read,1
ByteSliceReader.nextSlice,3
CharArraySet.getSlot,1
ClassLoader.defineClass1,2
CoderResult.isOverflow,1
ConfigFile.<init>,1
DateTools.<clinit>,1
DisabledAlgorithmConstraints.<init>,1
DocInverterPerField.processFields,1
DocInverterPerThread.<init>,1
Field.<init>,1
FileInputStream.open0,1
FileInputStream.readBytes,1
FileOutputStream.close0,1
FileOutputStream.open0,4
FileOutputStream.write,1
FileOutputStream.writeBytes,2
FilterOutputStream.close,1
Formatter.parse,1
FreqProxTermsWriter.appendPostings,8
FreqProxTermsWriterPerField.addTerm,3
HeapByteBuffer.<init>,1
Index.main,2
Inflater.inflateBytes,21
JarFile.getManifestFromReference,1
LowerCaseFilter.next,1
PriorityQueue.put,1
PushbackInputStream.read,1
RandomAccessFile.writeBytes,1
SegmentMerger.appendPostings,4
SegmentMerger.mergeTermInfos,1
SegmentReader.openNorms,1
SegmentTermEnum.next,1
StandardTokenizerImpl.getNextToken,9
TermBuffer.set,1
TermInfosWriter.writeTerm,1
TermsHashPerField.add,2
TermsHashPerField.comparePostings,2
TermsHashPerField.postingEquals,1
TermsHashPerField.quickSort,1
TermsHashPerField.start,1
TermsHashPerField.writeByte,5
Token.initTermBuffer,1
Token.setTermBuffer,1
Token.termBuffer,1
URLClassLoader$1.run,1
UTF_8$Decoder.decodeArrayLoop,2
UTF_8$Encoder.encodeArrayLoop,1
UnixFileSystem.checkAccess,2
UnixFileSystem.getBooleanAttributes0,1
UnixFileSystem.list,1
ZipFile.read,1
ZoneInfo.<clinit>,1
