method,package1,package2,dram1,dram2,energy
BaseCalendar.isLeapYear,0.0,0.06830511111184022,0.0,0.007280000000415991,0.07558511111225621
Buffer.remaining,0.0,0.0,0.0,0.0,0.0
BufferedInputStream.read,0.2619051552447283,0.06682666666488835,0.01935917351114544,0.007723333333463719,0.35581432875422575
ByteBlockPool.allocSlice,0.0,0.0,0.0,0.0,0.0
ByteSliceReader.nextSlice,0.0,0.0,0.0,0.0,0.0
Calendar$Builder.build,0.0,0.0,0.0,0.0,0.0
Calendar.internalGet,0.0,0.042370600000140264,0.0,0.0065940000000409785,0.04896460000018124
CharArraySet.getSlot,0.0,0.0,0.0,0.0,0.0
ClassLoader.defineClass1,0.0,0.10041014285663896,0.0,0.012698214287541174,0.11310835714418013
ConfigFile.<init>,0.0,0.0,0.0,0.0,0.0
DateTools.<clinit>,0.0,0.0,0.0,0.0,0.0
DocInverterPerField.processFields,0.0,0.16493157142637452,0.0,0.016125000000534954,0.18105657142690948
DocumentsWriter.<init>,0.0,0.0,0.0,0.0,0.0
DocumentsWriter.doBalanceRAM,0.0,0.0,0.0,0.0,0.0
File.getName,0.0,0.0,0.0,0.0,0.0
FileDocument.Document,0.0,0.0665284444468044,0.0,0.009100000000519987,0.07562844444732439
FileOutputStream.close0,0.051595076885781056,0.0,0.004021420138688608,0.0,0.05561649702446966
FileOutputStream.open0,0.04567465092898036,0.0,0.0032104377505213304,0.0,0.04888508867950169
FileOutputStream.write,0.0,0.10335266666758494,0.0,0.013735000000451691,0.11708766666803663
FileOutputStream.writeBytes,0.0,0.0,0.0,0.0,0.0
Float.floatToRawIntBits,0.0,0.0,0.0,0.0,0.0
Formatter.getZero,0.0,0.0,0.0,0.0,0.0
FreqProxTermsWriter.appendPostings,0.0,0.3411463333322899,0.0,0.038119999997434206,0.3792663333297241
FreqProxTermsWriter.flush,0.0,0.0,0.0,0.0,0.0
Hashtable.getEnumeration,0.027405461993775908,0.0,0.002150203823794145,0.0,0.02955566581757005
Index.main,0.0,0.0,0.0,0.0,0.0
IndexOutput.writeVInt,0.0,0.07134311111359339,0.0,0.00922999999925701,0.0805731111128504
Inflater.inflateBytes,0.42381963888246654,0.0,0.032096951565080335,0.0,0.4559165904475469
LongVector.addElement,0.0,0.0,0.0,0.0,0.0
LowerCaseFilter.next,0.0,0.0,0.0,0.0,0.0
Pattern.newSlice,0.05781646451884124,0.0,0.004796221035775503,0.0,0.06261268555461674
SegmentMergeInfo.getPositions,0.050898880163222616,0.0,0.006325018087479265,0.0,0.057223898250701885
SegmentMerger.mergeTermInfo,0.0,0.0,0.0,0.0,0.0
Similarity.<clinit>,0.0,0.0,0.0,0.0,0.0
SimpleFSLockFactory.makeLock,0.0,0.0,0.0,0.0,0.0
StandardTokenizerImpl.getNextToken,0.0,0.21860359999991485,0.0,0.028813000000081954,0.24741659999999682
StandardTokenizerImpl.yylength,0.0,0.06034333333567095,0.0,0.008199999999002708,0.06854333333467366
StopFilter.next,0.0,0.13044819047648898,0.0,0.010771428571821336,0.14121961904831032
String.regionMatches,0.0,0.0676946666660822,0.0,0.0063599999994039536,0.07405466666548616
StringCoding$StringEncoder.encode,0.0,0.0,0.0,0.0,0.0
System.nanoTime,0.0,0.018869999999878928,0.0,0.0027449999997770647,0.021614999999655993
TeeOutputStream.write,0.0,0.0,0.0,0.0,0.0
TermsHashPerField.add,0.0,0.0,0.0,0.0,0.0
TermsHashPerField.compactPostings,0.0,0.0,0.0,0.0,0.0
TermsHashPerField.comparePostings,0.0,0.032945555553952635,0.0,0.004580000001523229,0.03752555555547586
TermsHashPerField.initReader,0.0,0.10636366666585673,0.0,0.010915000001356626,0.11727866666721336
TermsHashPerField.quickSort,0.0,0.067206444443501,0.0,0.009143333332354408,0.07634977777585542
TermsHashPerField.writeByte,0.0,0.09098333333289096,0.0,0.010985000000800936,0.1019683333336919
TimeZone.getTimeZone,0.0,0.0,0.0,0.0,0.0
UTF_8$Decoder.decodeArrayLoop,0.0,0.07132966666540598,0.0,0.00960000000001552,0.0809296666654215
UnixFileSystem.checkAccess,0.0,0.08573400000022957,0.0,0.01372499999949165,0.09945899999972121
UnixFileSystem.createDirectory,0.0619184178755317,0.0,0.0045455457130477075,0.0,0.06646396358857941
UnixFileSystem.delete0,0.0,0.0,0.0,0.0,0.0
