method,package1,package2,dram1,dram2,energy
Arrays.fill,0.0,0.07950257143030674,0.0,0.009342857141746208,0.08884542857205295
Benchmark.initialize,0.0,0.0,0.0,0.0,0.0
BufferedIndexInput.readByte,0.0,0.07493066666696298,0.0,0.010994999996910336,0.08592566666387332
BufferedInputStream.read,0.04517980517707666,0.0,0.003614182784654755,0.0,0.048793987961731414
BufferedOutputStream.<init>,0.007690333333812305,0.0,0.0005999999993946402,0.0,0.008290333333206945
ByteSliceReader.nextSlice,0.0,0.0,0.0,0.0,0.0
CharArraySet.contains,0.0,0.056677199999103325,0.0,0.007388999999966472,0.0640661999990698
CharArraySet.equals,0.0,0.11910342857065967,0.0,0.01426660714319691,0.13337003571385658
CharArraySet.getSlot,0.0,0.07782000000103531,0.0,0.01104000000001785,0.08886000000105317
CharBuffer.arrayOffset,0.05968239421313664,0.0,0.004632750992164738,0.0,0.06431514520530138
Charset.defaultCharset,0.05197161845348685,0.0,0.004167044048389939,0.0,0.05613866250187679
ClassLoader.defineClass1,0.013688566859826294,0.053446666667393096,0.000880181760687268,0.006810000001375252,0.07482541528928192
ClassPool.cacheCtClass,0.0,0.0,0.0,0.0,0.0
ConfigFile.<init>,0.07625333333453455,0.0,0.005319999998998052,0.0,0.0815733333335326
DocInverterPerField.processFields,0.0,0.0,0.0,0.0,0.0
DocumentsWriter.updateDocument,0.0,0.1105346666687789,0.0,0.010974999999840898,0.1215096666686198
FSDirectory$FSIndexInput.<init>,0.06972008558381884,0.0,0.004759777056703629,0.0,0.07447986264052248
FileInputStream.available0,0.0,0.08376066666824045,0.0,0.009660000000925113,0.09342066666916556
FileInputStream.readBytes,0.05774987905368952,0.0,0.005176514321408671,0.0,0.0629263933750982
FileOutputStream$1.close,0.1089273333333646,0.0,0.008320000000821892,0.0,0.1172473333341865
FileOutputStream.open0,0.0,0.0,0.0,0.0,0.0
FileOutputStream.write,0.031781569536095025,0.0,0.0025458045136918434,0.0,0.03432737404978687
FileOutputStream.writeBytes,0.26023366666595393,0.0,0.02248000000448277,0.0,0.2827136666704367
FreqProxFieldMergeState.nextDoc,0.0,0.09019257142790592,0.0,0.010277142856336595,0.1004697142842425
FreqProxTermsWriter.appendPostings,0.0,0.20636000000376953,0.0,0.021960000000641834,0.22832000000441136
FreqProxTermsWriterPerField.addTerm,0.0,0.051350999999461536,0.0,0.008240000000417542,0.059590999999879074
GregorianCalendar.computeFields,0.0,0.06624366666558974,0.0,0.008199999999002708,0.07444366666459246
HashMap.get,0.0,0.0,0.0,0.0,0.0
Index.main,0.0,0.0,0.0,0.0,0.0
IndexInput.readVInt,0.0,0.09987366666367356,0.0,0.013704999999996895,0.11357866666367046
IndexOutput.writeVInt,0.05433098741738883,0.0,0.004152709166608211,0.0,0.05848369658399704
Inflater.inflateBytes,0.4050293333330046,0.0,0.03143499999957081,0.0,0.43646433333257545
MultiLevelSkipListWriter.bufferSkip,0.04430154748419072,0.0,0.003115089085430748,0.0,0.047416636569621466
MultiLevelSkipListWriter.writeSkip,0.055896518435990035,0.0,0.004201232145306403,0.0,0.06009775058129644
NormsWriter.flush,0.0,0.0,0.0,0.0,0.0
Pattern.newSlice,0.04458616666700739,0.0,0.0035500000000562673,0.0,0.048136166667063655
RAMFile.setLength,0.0,0.0,0.0,0.0,0.0
RAMOutputStream.flush,0.0,0.1447143333328616,0.0,0.017219999999118347,0.16193433333197996
RandomAccessFile.writeBytes,0.0,0.12538666666659992,0.0,0.01508000000224759,0.14046666666884752
SegmentMerger.appendPostings,0.0,0.0,0.0,0.0,0.0
SegmentMerger.mergeTermInfos,0.0,0.12923199999931967,0.0,0.017179999997703508,0.14641199999702317
SegmentTermDocs.doc,0.0,0.07198066666751401,0.0,0.008275000000139698,0.08025566666765371
SegmentTermDocs.next,0.0,0.0,0.0,0.0,0.0
SegmentTermPositions.next,0.0,0.13488766666462956,0.0,0.016094999999040738,0.1509826666636703
SegmentTermPositions.readDeltaPosition,0.0,0.23645033333256527,0.0,0.030995000000984874,0.26744533333355014
SimpleDateFormat.initializeCalendar,0.0,0.1205884166653656,0.0,0.015995833334980284,0.13658425000034588
SimpleDateFormat.zeroPaddingNumber,0.0,0.0,0.0,0.0,0.0
StandardAnalyzer.<clinit>,0.04703184804007084,0.0,0.0035990877072292118,0.0,0.05063093574730005
StandardFilter.next,0.0,0.0,0.0,0.0,0.0
StandardTokenizer.next,0.0,0.0,0.0,0.0,0.0
StandardTokenizerImpl.getNextToken,0.11505919839100334,0.2542113333377832,0.008905645948977296,0.03498499999962708,0.4131611776773909
StreamEncoder.writeBytes,0.0,0.0,0.0,0.0,0.0
String.intern,0.059109405483082925,0.0,0.004617922305537172,0.0,0.0637273277886201
String.replace,0.0,0.0,0.0,0.0,0.0
TermsHashPerField.add,0.0,0.2747544999983802,0.0,0.03128374999990532,0.3060382499982855
TermsHashPerField.comparePostings,0.0572164184237964,0.05609999999952768,0.004304114815684347,0.007041428570768662,0.12466196180977708
TermsHashPerField.postingEquals,0.0,0.05747466666313509,0.0,0.007560000000618553,0.06503466666375364
TermsHashPerField.rehashPostings,0.0,0.0,0.0,0.0,0.0
TermsHashPerField.writeByte,0.0,0.0,0.0,0.0,0.0
TestHarness.main,0.0,0.0,0.0,0.0,0.0
TestHarness.twoDecimalPlaces,0.0,0.0,0.0,0.0,0.0
Token.termBuffer,0.0,0.0,0.0,0.0,0.0
Token.termLength,0.0,0.06327824999971199,0.0,0.007477500001186855,0.07075575000089884
UTF_8$Decoder.decodeArrayLoop,0.0,0.0,0.0,0.0,0.0
UnicodeUtil$UTF16Result.setLength,0.0,0.0888266666685619,0.0,0.010940000000118744,0.09976666666868064
UnicodeUtil.UTF8toUTF16,0.0,0.08799266666998543,0.0,0.010620000000926666,0.09861266667091209
UnixFileSystem.delete0,0.0,0.1200356666643832,0.0,0.01658500000000155,0.13662066666438474
ZipEntry.<init>,0.0,0.0,0.0,0.0,0.0
ZipFile$ZipFileInflaterInputStream.close,0.0,0.01619127777788284,0.0,0.002111666666476392,0.01830294444435923
ZipFile.read,0.0,0.0,0.0,0.0,0.0
ZipInputStream.read,0.09739166666683256,0.0,0.0071000000001125345,0.0,0.1044916666669451
ZipInputStream.readFully,0.06020100000023376,0.0,0.004759999998592925,0.0,0.0649609999988267
