method,package1,package2,dram1,dram2,energy
AbstractField.setStoreTermVector,0.0,0.047421122456325376,0.0,0.007709416654034415,0.05513053911035979
Arrays.copyOf,0.0,0.0,0.0,0.0,0.0
BufferedIndexInput.seek,0.0,0.0,0.0,0.0,0.0
BufferedIndexOutput.writeByte,0.0,0.0998057633339874,0.0,0.010323058997553288,0.11012882233154069
BufferedInputStream.read,0.0,0.03841710754925296,0.0,0.0033052124950227442,0.04172232004427571
ByteBlockPool.allocSlice,0.0,0.08371462768919549,0.0,0.010416545614881523,0.09413117330407701
CharArraySet.contains,0.0,0.0666325439726832,0.0,0.009310483623358191,0.0759430275960414
CharArraySet.getSlot,0.0,0.0,0.0,0.0,0.0
CharacterDataLatin1.getProperties,0.0,0.0,0.0,0.0,0.0
ClassLoader.defineClass1,0.0,0.25185803066733864,0.0,0.0355967603800365,0.28745479104737515
ClassLoader.findBootstrapClass,0.0,0.03497766027457034,0.0,0.0047551933793508255,0.039732853653921166
ConcurrentHashMap.get,0.0,0.0,0.0,0.0,0.0
File.canRead,0.0,0.0,0.0,0.0,0.0
FileInputStream.readBytes,0.0,0.03375535510049638,0.0,0.0032783316449742275,0.03703368674547061
FileOutputStream.open0,0.0,0.015663801602525448,0.0,0.0019569039030623734,0.017620705505587822
FileOutputStream.write,0.0,0.2938654443575991,0.0,0.045387200121075,0.3392526444786741
FileOutputStream.writeBytes,0.0,0.09474930438579268,0.0,0.014657565989022528,0.10940687037481521
FilterInputStream.available,0.0,0.0,0.0,0.0,0.0
Formatter.parse,0.0,0.03621530964059201,0.0,0.00579542193766189,0.0420107315782539
FreqProxFieldMergeState.nextDoc,0.0,0.06815316268314811,0.0,0.009348072046113636,0.07750123472926175
FreqProxTermsWriter.appendPostings,0.0,0.4026982492348875,0.0,0.05775361509888115,0.46045186433376867
HeapByteBuffer.<init>,0.0,0.023819257720225053,0.0,0.003466886453727541,0.027286144173952594
Index.main,0.0,0.0,0.0,0.0,0.0
IndexInput.readVInt,0.11423733333382792,0.019597205118396452,0.007119999997181973,0.0022958525244080297,0.14325039097381437
IndexOutput.writeVInt,0.07259899999969223,0.0,0.004270476190117372,0.0,0.0768694761898096
Inflater.inflateBytes,0.0,0.35964224388573357,0.0,0.051867323889417866,0.41150956777515146
JarFile.initializeVerifier,0.0,0.0,0.0,0.0,0.0
LowerCaseFilter.next,0.0,0.0,0.0,0.0,0.0
RandomAccessFile.writeBytes,0.0,0.0,0.0,0.0,0.0
SegmentTermPositions.nextPosition,0.0,0.0,0.0,0.0,0.0
StandardFilter.next,0.0,0.09344847592514524,0.0,0.01093270415246709,0.10438118007761234
StandardTokenizer.next,0.0,0.07256058691597637,0.0,0.010946200685235122,0.0835067876012115
StandardTokenizerImpl.getNextToken,0.0,0.33404190034705933,0.0,0.04396410310931088,0.3780060034563702
StandardTokenizerImpl.getText,0.0,0.05647236219331351,0.0,0.009290875037585605,0.06576323723089911
String.format,0.0,0.0,0.0,0.0,0.0
String.indexOf,0.0,0.0,0.0,0.0,0.0
StringCoding$StringEncoder.encode,0.0,0.0,0.0,0.0,0.0
TermsHashPerField.add,0.0,0.0,0.0,0.0,0.0
TermsHashPerField.comparePostings,0.0,0.0,0.0,0.0,0.0
TermsHashPerField.postingEquals,0.0,0.0,0.0,0.0,0.0
TermsHashPerField.writeByte,0.0,0.13574361028951748,0.0,0.022579226617185963,0.15832283690670346
ThreadCallsiteInjector.transform,0.0,0.0,0.0,0.0,0.0
Token.growTermBuffer,0.0,0.054172661672166916,0.0,0.0093339373089388,0.06350659898110572
Token.initTermBuffer,0.0,0.09191224617631566,0.0,0.01314475209455139,0.10505699827086705
Token.setTermBuffer,0.0,0.0467407892611195,0.0,0.008026780706876669,0.05476756996799617
Token.setTermLength,0.0,0.07098924651201155,0.0,0.01107220410401958,0.08206145061603112
Token.termBuffer,0.0,0.07865869720115624,0.0,0.009829235619238291,0.08848793282039454
URLStreamHandler.toExternalForm,0.0,0.0,0.0,0.0,0.0
UTF_8$Encoder.encode,0.0,0.0,0.0,0.0,0.0
UnixFileSystem.delete0,0.0,0.053375140420699116,0.0,0.006858881369326704,0.06023402179002582
ZipFile.entries,0.0,0.0,0.0,0.0,0.0
ZipInputStream.<init>,0.0,0.030152022712690768,0.0,0.003726486939624215,0.03387850965231498
