time,sys_package,sys_dram,sock1_app_package,sock1_app_dram,sock2_app_package,sock2_app_dram
0,0.0,0.0,0.0,0.0,0.0,0.0
1,0.0,0.0,0.0,0.0,0.0,0.0
2,0.0,0.0,0.0,0.0,0.0,0.0
3,0.0,0.0,0.0,0.0,0.0,0.0
4,0.0,0.0,0.0,0.0,0.0,0.0
5,0.0,0.0,0.0,0.0,0.0,0.0
6,0.0,0.0,0.0,0.0,0.0,0.0
7,0.0,0.0,0.0,0.0,0.0,0.0
8,0.0,0.0,0.0,0.0,0.0,0.0
9,0.0,0.0,0.0,0.0,0.0,0.0
10,0.06744929765718377,0.006996285283993833,0.058634333331913986,0.004159999996772967,0.06994987796147628,0.00901847200281455
11,0.0,0.0,0.0,0.0,0.0,0.0
12,0.01030240747286287,0.0010216547669018195,0.007995666666829493,0.0006000000018199595,0.011552935047847265,0.0013224098018463385
13,0.0,0.0,0.0,0.0,0.0,0.0
14,0.010667105438173004,0.0010427194765180645,0.008768666667189487,0.0005799999974745634,0.009922940614927024,0.0011888367990102306
15,0.0,0.0,0.0,0.0,0.0,0.0
16,0.009349216359665067,0.001025981227975493,0.007710666666146911,0.0006000000018199595,0.009742740674308541,0.001287440376047412
17,0.0,0.0,0.0,0.0,0.0,0.0
18,0.0,0.0,0.0,0.0,0.0,0.0
19,0.0,0.0,0.0,0.0,0.0,0.0
20,0.10028334081053902,0.011513454028648047,0.07625333333453455,0.005319999998998052,0.011761493938422905,0.0016752802065619168
21,0.0,0.0,0.0,0.0,0.0,0.0
22,0.03391299936780629,0.003942149647178221,0.02366133333331769,0.0017650000033124038,0.010876458096102498,0.0015070034315960606
23,0.0,0.0,0.0,0.0,0.0,0.0
24,0.11932481580895643,0.016288260777203894,0.06231699999928726,0.0047649999978602855,0.008249690623192866,0.0013011570603562715
25,0.0,0.0,0.0,0.0,0.0,0.0
26,0.1071490595898294,0.013047924070732698,0.06272366666720093,0.004760000001018246,0.008188649749563253,0.0011526466672715356
27,0.0,0.0,0.0,0.0,0.0,0.0
28,0.10648399284233727,0.015340065443633605,0.054809666666187695,0.004159999999198286,0.019875395450129542,0.003332724399580609
29,0.0,0.0,0.0,0.0,0.0,0.0
30,0.12321001125644898,0.013314938927435373,0.1089273333333646,0.008320000000821892,0.00883737443333335,0.0011768716387061144
31,0.0,0.0,0.0,0.0,0.0,0.0
32,0.024768627732815483,0.002971520242066475,0.016255666667348127,0.0011799999992945231,0.005560396260648769,0.0007530948917907416
33,0.0,0.0,0.0,0.0,0.0,0.0
34,0.08932771146486967,0.01109800912228576,0.061279333333004615,0.004754999999325567,0.013713196959264292,0.001925256448044664
35,0.0,0.0,0.0,0.0,0.0,0.0
36,0.09008217232769375,0.012915402979843744,0.05839033333237845,0.004740000001523488,0.0059250889883165824,0.0009678418216321985
37,0.0,0.0,0.0,0.0,0.0,0.0
38,0.08063847110410047,0.009860720182969443,0.06020100000023376,0.004759999998592925,0.009712363493470409,0.0013508464955636187
39,0.0,0.0,0.0,0.0,0.0,0.0
40,0.17198797771050459,0.02446207599726451,0.13146966666681692,0.012435000001763305,0.012043987891115215,0.0020680559965276
41,0.0,0.0,0.0,0.0,0.0,0.0
42,0.011785660524813982,0.0012939930325550533,0.007690333333812305,0.0005999999993946402,0.013766180058885791,0.0017232539074342765
43,0.0,0.0,0.0,0.0,0.0,0.0
44,0.08651339747681035,0.012789131162091804,0.04671233333344086,0.0035399999978835686,0.005299829447998386,0.0009246687209168987
45,0.0,0.0,0.0,0.0,0.0,0.0
46,0.12019084981302253,0.016694619111579042,0.06042499999966821,0.004760000003443565,0.014832971739640427,0.0023597714468098397
47,0.0,0.0,0.0,0.0,0.0,0.0
48,0.10413238259670253,0.015127744323852704,0.050394666666761616,0.004549999997834675,0.007818554903676483,0.0012730705574426936
49,0.0,0.0,0.0,0.0,0.0,0.0
50,0.1259445212275147,0.013788859491110871,0.09739166666683256,0.0071000000001125345,0.0077517227927593295,0.0010274452893941216
51,0.0,0.0,0.0,0.0,0.0,0.0
52,0.05359255781299669,0.006139408552930576,0.031026333332799062,0.002380000000509123,0.006881073328242178,0.0008604946717082914
53,0.0,0.0,0.0,0.0,0.0,0.0
54,0.07937682561372816,0.010247054591364388,0.0602213333331747,0.004719999999603411,0.008165935179661932,0.0012188486611112628
55,0.0,0.0,0.0,0.0,0.0,0.0
56,0.07130338864626297,0.007198210459592727,0.058837666667386664,0.004739999999098169,0.006940144417293093,0.0007640348504544161
57,0.0,0.0,0.0,0.0,0.0,0.0
58,0.07705812734497908,0.00913320421039396,0.05987566666590283,0.004740000001523488,0.009707051213753834,0.0013076187403341286
59,0.0,0.0,0.0,0.0,0.0,0.0
60,0.08564130948315431,0.0101397963412874,0.04458616666700739,0.0035500000000562673,0.008906074789565975,0.0011759998084043231
61,0.0,0.0,0.0,0.0,0.0,0.0
62,0.764953119614467,0.08303293400534605,0.09884639999982027,0.006053999999858207,0.0014380325579886244,0.00018855241546409187
63,0.0,0.0,0.0,0.0,0.0,0.0
64,0.013292084255572111,0.002071443776306879,0.002270500000122411,0.00017700000025797636,0.005470164837096695,0.0011700085196933085
65,0.0,0.0,0.0,0.0,0.0,0.0
66,0.0,0.0,0.0,0.0,0.0,0.0
67,0.0,0.0,0.0,0.0,0.0,0.0
68,0.01906284191790531,0.002950001700366958,0.003268777777824046,0.0004533333323908866,0.007442059709698899,0.0012413811176543127
69,0.0,0.0,0.0,0.0,0.0,0.0
70,0.04022543845441977,0.006527880443757728,0.026606563999012078,0.003667143475059649,0.0,0.0
71,0.0,0.0,0.0,0.0,0.0,0.0
72,0.015080016993211287,0.0022687296835105456,0.008401980539187278,0.000902523860350876,0.0,0.0
73,0.0,0.0,0.0,0.0,0.0,0.0
74,0.031020283428368878,0.003647895759698992,0.014684385852845691,0.0009442134247451047,0.0,0.0
75,0.0,0.0,0.0,0.0,0.0,0.0
76,0.09361387523852124,0.011891251171295634,0.04919095633822455,0.0037643123466658953,0.0,0.0
77,0.0,0.0,0.0,0.0,0.0,0.0
78,0.08230307332445341,0.00559440846423242,0.04664104421343244,0.003731075386310818,0.0,0.0
79,0.0,0.0,0.0,0.0,0.0,0.0
80,0.14277054278725093,0.01662988852852644,0.07254013240423604,0.0049523011197803255,0.0,0.0
81,0.0,0.0,0.0,0.0,0.0,0.0
82,0.09653764991873964,0.014112273067341719,0.037169624254657134,0.0037708704101150703,0.0,0.0
83,0.0,0.0,0.0,0.0,0.0,0.0
84,0.05409135820089624,0.002069999998639105,0.02271965782676399,0.0,0.0,0.0
85,0.0,0.0,0.0,0.0,0.0,0.0
86,0.05431790378552909,0.0005809066377182404,0.021610395303281082,0.0011962206074557604,0.0,0.0
87,0.0,0.0,0.0,0.0,0.0,0.0
88,0.07582420766474339,0.002931254775149079,0.036056124152096185,0.0017801616225864088,0.0,0.0
89,0.0,0.0,0.0,0.0,0.0,0.0
90,0.07274763798653998,0.00654112828436171,0.005324320756236418,0.00045173343701649846,0.01619127777788284,0.002111666666476392
91,0.0,0.0,0.0,0.0,0.0,0.0
92,0.013383016403534462,0.0012392344814418626,0.004827861600485671,0.0003546398039993109,0.008544888888637716,0.001140000000305008
93,0.0,0.0,0.0,0.0,0.0,0.0
94,0.020325396533297013,0.0019629326075540593,0.007652165397835,0.0005479265249999741,0.01142716666638282,0.0018333333331005024
95,0.0,0.0,0.0,0.0,0.0,0.0
96,0.020528840993729997,0.001986467288436247,0.009149424363032779,0.0006700549757117616,0.011830611111185538,0.0018324999998892762
97,0.0,0.0,0.0,0.0,0.0,0.0
98,0.019939507196412604,0.0018487867796544689,0.009780276138174742,0.0007419775322044003,0.012285055555872127,0.0016041666664629395
99,0.0,0.0,0.0,0.0,0.0,0.0
100,0.1317542976484555,0.013286125004870478,0.005037049367867127,0.000372753053039803,0.1205884166653656,0.015995833334980284
101,0.0,0.0,0.0,0.0,0.0,0.0
102,0.0683384087540958,0.006136663615258921,0.003982748451516057,0.00029630408731134446,0.04589688889084047,0.005344166666165821
103,0.0,0.0,0.0,0.0,0.0,0.0
104,0.1390594261421026,0.011956029190238714,0.00582995994277549,0.0004365833335051007,0.099887333331531,0.01030791666582647
105,0.0,0.0,0.0,0.0,0.0,0.0
106,0.13688795338746862,0.011217222029189705,0.00648602409138942,0.00046262147775745185,0.09449763888996028,0.009405000000293106
107,0.0,0.0,0.0,0.0,0.0,0.0
108,0.13011728277481932,0.010473528058698032,0.0062016789312765155,0.0004103783848370932,0.08052916666545368,0.008745000001403644
109,0.0,0.0,0.0,0.0,0.0,0.0
110,0.11677800167268221,0.011226504072979211,0.006274900231982289,0.00039185800370914516,0.12613933333583796,0.015744999999393862
111,0.0,0.0,0.0,0.0,0.0,0.0
112,0.09844984572539259,0.008400785959339357,0.0026538145178002684,0.00018113391857081144,0.07688399999945733,0.008609999999559173
113,0.0,0.0,0.0,0.0,0.0,0.0
114,0.14189703018712754,0.01136035182743617,0.0052091908287999564,0.000344382728477969,0.11157199999919007,0.01133500000044781
115,0.0,0.0,0.0,0.0,0.0,0.0
116,0.16760430113394753,0.014003070415072701,0.00461349921286415,0.0003346915313152043,0.13332133333218127,0.01335999999961738
117,0.0,0.0,0.0,0.0,0.0,0.0
118,0.14461337971192137,0.011996546470315407,0.0054062914445757405,0.00039385964653150497,0.1105346666687789,0.010974999999840898
119,0.0,0.0,0.0,0.0,0.0,0.0
120,0.12288752177149269,0.011437073267267384,0.005084959652734737,0.0003455311635826247,0.11910342857065967,0.01426660714319691
121,0.0,0.0,0.0,0.0,0.0,0.0
122,0.08729484164631002,0.007243025618492922,0.0029335533669133306,0.00020329204653639758,0.0598953214264059,0.006537857141406025
123,0.0,0.0,0.0,0.0,0.0,0.0
124,0.13568848900403205,0.011568543832517491,0.007651353507561949,0.0005462924943454236,0.09459996428735654,0.01051553571700684
125,0.0,0.0,0.0,0.0,0.0,0.0
126,0.1445207808662243,0.013180739376073792,0.004705051574779785,0.00035474533859516434,0.0979942500000886,0.011957142856772407
127,0.0,0.0,0.0,0.0,0.0,0.0
128,0.11235479168806772,0.00976801375070252,0.004434012778217246,0.0003019504278910049,0.07398096428577056,0.009271607143091387
129,0.0,0.0,0.0,0.0,0.0,0.0
130,0.1333216936966058,0.012817858337864056,0.004095833174776624,0.00030106606502091184,0.1235150000017408,0.015114999999544429
131,0.0,0.0,0.0,0.0,0.0,0.0
132,0.097883907271234,0.008813010495812453,0.0033832116603014733,0.00024625572641767506,0.05747466666313509,0.007560000000618553
133,0.0,0.0,0.0,0.0,0.0,0.0
134,0.15202363218194614,0.01351925137133202,0.005002928607920999,0.00035692554053864804,0.09802233333660601,0.012339999998706237
135,0.0,0.0,0.0,0.0,0.0,0.0
136,0.12204566455343324,0.010636945704269218,0.003983247690652304,0.0002939929736893084,0.08626299999984137,0.00962499999877764
137,0.0,0.0,0.0,0.0,0.0,0.0
138,0.132414431357236,0.011472919462864495,0.005727647082814198,0.00042026484066236985,0.08376066666824045,0.009660000000925113
139,0.0,0.0,0.0,0.0,0.0,0.0
140,0.09950943324882795,0.00908380586976868,0.003089425625551664,0.0001984697230975933,0.07691949999934877,0.010323750000679864
141,0.0,0.0,0.0,0.0,0.0,0.0
142,0.07515300186645918,0.006481849486431608,0.003310726104821778,0.00021460177579741985,0.04588324999713223,0.006194999999934225
143,0.0,0.0,0.0,0.0,0.0,0.0
144,0.09695073646304024,0.008410017946724059,0.003729540334264312,0.00023874484583932506,0.060318000001643675,0.008268749999842841
145,0.0,0.0,0.0,0.0,0.0,0.0
146,0.10265751856486073,0.008510539247401883,0.0037555313317554416,0.00022841132468134125,0.06060799999977463,0.008219999999710126
147,0.0,0.0,0.0,0.0,0.0,0.0
148,0.09771952128525442,0.009080848537661574,0.0033563298956339827,0.00024359634384985,0.0585632500005886,0.008227500000430155
149,0.0,0.0,0.0,0.0,0.0,0.0
150,0.12188504154258498,0.011040515260346257,0.004393681979605545,0.00027325190177221546,0.08746333333207681,0.012359999998200994
151,0.0,0.0,0.0,0.0,0.0,0.0
152,0.09368856099091236,0.008257092546642683,0.004589716935074671,0.0002791829017194339,0.051350999999461536,0.008240000000417542
153,0.0,0.0,0.0,0.0,0.0,0.0
154,0.12432444185027319,0.010866730037179553,0.005194061206362032,0.00030712477895262173,0.0674640000021706,0.011020000000523092
155,0.0,0.0,0.0,0.0,0.0,0.0
156,0.12859371353757126,0.010935728254874356,0.005795581305239135,0.00034997762905062497,0.07782000000103531,0.01104000000001785
157,0.0,0.0,0.0,0.0,0.0,0.0
158,0.129889968996118,0.011597548407466532,0.005023968360183876,0.00034475230088175065,0.08148166666311832,0.0109599999996135
159,0.0,0.0,0.0,0.0,0.0,0.0
160,0.11095951621694211,0.011323298178176469,0.003933800314576569,0.000293343418289565,0.08351371428787907,0.012325714286167308
161,0.0,0.0,0.0,0.0,0.0,0.0
162,0.08591155828086175,0.00777477201465072,0.003860879519729886,0.00028385693110582387,0.05609999999952768,0.007041428570768662
163,0.0,0.0,0.0,0.0,0.0,0.0
164,0.10331790829899642,0.008208218286064575,0.004791765595819387,0.00022443601950085205,0.05817514285653098,0.009462857144951287
165,0.0,0.0,0.0,0.0,0.0,0.0
166,0.12194323437814256,0.01022701075983552,0.0056710897296971385,0.0003833247125396392,0.07950257143030674,0.009342857141746208
167,0.0,0.0,0.0,0.0,0.0,0.0
168,0.12441545580008954,0.010719877374675044,0.0072561337466411965,0.0005105789985547913,0.09019257142790592,0.010277142856336595
169,0.0,0.0,0.0,0.0,0.0,0.0
170,0.1207662812460469,0.011606626037902754,0.003622990753586339,0.0002242707499022585,0.1447143333328616,0.017219999999118347
171,0.0,0.0,0.0,0.0,0.0,0.0
172,0.11566618111438869,0.009277896939631346,0.002472712727845932,0.0001737655379233545,0.08852133333130041,0.008520000000620104
173,0.0,0.0,0.0,0.0,0.0,0.0
174,0.12656458829223396,0.01053282745471286,0.003234957451852512,0.00023484745062909765,0.09574400000322687,0.009640000001430357
175,0.0,0.0,0.0,0.0,0.0,0.0
176,0.15667787033485658,0.013583901199823863,0.0033095513183374727,0.0002423775617280862,0.11061600000054264,0.012319999999211479
177,0.0,0.0,0.0,0.0,0.0,0.0
178,0.13956923568169524,0.012045401311495736,0.004428894266168217,0.0003137651246133129,0.0940753333319056,0.010979999999108259
179,0.0,0.0,0.0,0.0,0.0,0.0
180,0.13498049561523887,0.012765078625384552,0.004101256093157534,0.000296448011908344,0.12538666666659992,0.01508000000224759
181,0.0,0.0,0.0,0.0,0.0,0.0
182,0.10047949315177265,0.009008934503093712,0.004080197771476185,0.000297359256181238,0.06624366666558974,0.008199999999002708
183,0.0,0.0,0.0,0.0,0.0,0.0
184,0.13264456328979268,0.01136541575651561,0.0061945908672177965,0.000402148169305908,0.08882633333269041,0.011275000001963536
185,0.0,0.0,0.0,0.0,0.0,0.0
186,0.16145847908001087,0.012801056569529255,0.007512707038816348,0.0004958408871517441,0.1001586666655688,0.010899999998703908
187,0.0,0.0,0.0,0.0,0.0,0.0
188,0.12069820717682034,0.010560215295834521,0.0040961934326694815,0.0002976395988990227,0.08209233333764132,0.009544999998373287
189,0.0,0.0,0.0,0.0,0.0,0.0
190,0.12094468178775898,0.010757080907734973,0.004279742565053519,0.0002959135516054109,0.07656259999930626,0.010083000001031905
191,0.0,0.0,0.0,0.0,0.0,0.0
192,0.09927719517145223,0.009026856669807317,0.003914489545401207,0.00027431529562210277,0.035107400000561034,0.004944000000250526
193,0.0,0.0,0.0,0.0,0.0,0.0
194,0.11515228536124145,0.01061377295715168,0.003950931954146954,0.0002858645387793418,0.041760200000135216,0.005760000000009313
195,0.0,0.0,0.0,0.0,0.0,0.0
196,0.15363855203016996,0.013576780217757975,0.0057105923747347576,0.0003981717860156986,0.056677199999103325,0.007388999999966472
197,0.0,0.0,0.0,0.0,0.0,0.0
198,0.1343281527779529,0.012096668844492509,0.004981100555637383,0.00035034057101891725,0.048645000001124566,0.006599999999161809
199,0.0,0.0,0.0,0.0,0.0,0.0
200,0.12149109856838525,0.011716794228445085,0.005033453594576612,0.00034381250725709124,0.09535733332935101,0.013350000001082662
201,0.0,0.0,0.0,0.0,0.0,0.0
202,0.11225432272513018,0.009906703900666874,0.005093530980323763,0.0003224575485810198,0.06941733333223965,0.009995000000344591
203,0.0,0.0,0.0,0.0,0.0,0.0
204,0.14185817610244017,0.013652322573802764,0.006059096886731441,0.00045664099578422175,0.09012866666792736,0.012714999999540549
205,0.0,0.0,0.0,0.0,0.0,0.0
206,0.112686550419128,0.010386674407109268,0.008756620467520636,0.0006342087898767467,0.07061766666932574,0.009565000000293368
207,0.0,0.0,0.0,0.0,0.0,0.0
208,0.13268940572954388,0.011300497923248968,0.008010803331122229,0.0005619904080241404,0.07948800000061358,0.009559999998600688
209,0.0,0.0,0.0,0.0,0.0,0.0
210,0.1028753846193775,0.010477239182368498,0.0047079147246954466,0.0003361240953770368,0.09262074999787727,0.012877499999376596
211,0.0,0.0,0.0,0.0,0.0,0.0
212,0.06777071231028849,0.006284283542531034,0.002717931007193735,0.00021449583940272185,0.043609749998722684,0.005126250000103028
213,0.0,0.0,0.0,0.0,0.0,0.0
214,0.12147687679280952,0.011702953114432207,0.00552055653531236,0.0004371639096508482,0.06913750000057918,0.009224999999787542
215,0.0,0.0,0.0,0.0,0.0,0.0
216,0.09919678866193662,0.009368177896840562,0.005934721944010433,0.000483176784766638,0.06327824999971199,0.007477500001186855
217,0.0,0.0,0.0,0.0,0.0,0.0
218,0.10499842220787586,0.010045617790194993,0.005356147323748824,0.00041127138074152896,0.06109625000135565,0.008261249999122809
219,0.0,0.0,0.0,0.0,0.0,0.0
220,0.20599699293965626,0.025934714886622707,0.06511050121309607,0.00467248932746532,0.0,0.0
221,0.0,0.0,0.0,0.0,0.0,0.0
222,0.08533082327210331,0.011739505109085337,0.038084618486369744,0.0027553030904645436,0.0,0.0
223,0.0,0.0,0.0,0.0,0.0,0.0
224,0.14360743265052817,0.021207885747331037,0.062266220490166384,0.00496950433599546,0.0,0.0
225,0.0,0.0,0.0,0.0,0.0,0.0
226,0.11263576130059046,0.016444756477242813,0.04971459538427954,0.003894729199837404,0.0,0.0
227,0.0,0.0,0.0,0.0,0.0,0.0
228,0.13626091248264016,0.018802634329365332,0.056928357543560563,0.004442691099693503,0.0,0.0
229,0.0,0.0,0.0,0.0,0.0,0.0
230,0.16667037157194295,0.023272479577663752,0.07121564424956166,0.005437947175366242,0.0,0.0
231,0.0,0.0,0.0,0.0,0.0,0.0
232,0.09298437941896179,0.013838097227716407,0.03868165435670775,0.002989866939334707,0.0,0.0
233,0.0,0.0,0.0,0.0,0.0,0.0
234,0.13218520274293774,0.01880896115431109,0.06098022036164802,0.004764079717993792,0.0,0.0
235,0.0,0.0,0.0,0.0,0.0,0.0
236,0.12863901493266536,0.01856199376285717,0.06061904680235571,0.004172960994429814,0.0,0.0
237,0.0,0.0,0.0,0.0,0.0,0.0
238,0.12614210903302958,0.01886769823917942,0.062399793656054615,0.004793268468506372,0.0,0.0
239,0.0,0.0,0.0,0.0,0.0,0.0
240,0.02887493952684476,0.0025882571607043353,0.05929680512410977,0.005315175823197206,0.0,0.0
241,0.0,0.0,0.0,0.0,0.0,0.0
242,0.08064953764054657,0.010552617435385079,0.036483746855027574,0.002669453870478322,0.0,0.0
243,0.0,0.0,0.0,0.0,0.0,0.0
244,0.12238603719239594,0.016977158558425753,0.05380468379502145,0.004284667631563666,0.0,0.0
245,0.0,0.0,0.0,0.0,0.0,0.0
246,0.11178910922569528,0.016960522024901142,0.05384088570895238,0.004316920446768971,0.0,0.0
247,0.0,0.0,0.0,0.0,0.0,0.0
248,0.11292381603272322,0.01695083578630821,0.053572348709702615,0.0042969578789509395,0.0,0.0
249,0.0,0.0,0.0,0.0,0.0,0.0
250,0.16189315504753354,0.022660742267560888,0.06403774810972186,0.004368382926344265,0.0,0.0
251,0.0,0.0,0.0,0.0,0.0,0.0
252,0.09496463286206858,0.012682015038515106,0.03297937375989219,0.0026417524308014356,0.0,0.0
253,0.0,0.0,0.0,0.0,0.0,0.0
254,0.22270927262499085,0.0236828849704779,0.0720698447276493,0.004795210749008386,0.0,0.0
255,0.0,0.0,0.0,0.0,0.0,0.0
256,0.1631026962753049,0.017949916794809152,0.05110387093142575,0.0037462317070579326,0.0,0.0
257,0.0,0.0,0.0,0.0,0.0,0.0
258,0.1952838467460477,0.022188422437709698,0.06124269239328284,0.004753866658475493,0.0,0.0
259,0.0,0.0,0.0,0.0,0.0,0.0
260,0.2116527092169513,0.024809557405718757,0.05867538722489938,0.004413865992102563,0.0,0.0
261,0.0,0.0,0.0,0.0,0.0,0.0
262,0.13786297082340465,0.015110605047786326,0.045461529237136485,0.003196653877251839,0.0,0.0
263,0.0,0.0,0.0,0.0,0.0,0.0
264,0.19227762135645843,0.02082901785876084,0.05736995076073142,0.004311976632080223,0.0,0.0
265,0.0,0.0,0.0,0.0,0.0,0.0
266,0.1753563818955377,0.01870206065049171,0.0567146464528321,0.004334900641438386,0.0,0.0
267,0.0,0.0,0.0,0.0,0.0,0.0
268,0.14037120794083918,0.01743752357816007,0.04946395646603474,0.003755745649656134,0.0,0.0
269,0.0,0.0,0.0,0.0,0.0,0.0
270,0.1333019525090265,0.013724133413398258,0.004110819102594373,0.000346084485431585,0.11832666666790223,0.014964999999695769
271,0.0,0.0,0.0,0.0,0.0,0.0
272,0.08240071407820466,0.006670073837154596,0.003894810698718192,0.00022840234832043115,0.053446666667393096,0.006810000001375252
273,0.0,0.0,0.0,0.0,0.0,0.0
274,0.14503820098838976,0.014019157619891125,0.007077314188096055,0.0005333328941983751,0.09987366666367356,0.013704999999996895
275,0.0,0.0,0.0,0.0,0.0,0.0
276,0.13382246640245032,0.011171603654911304,0.006172411053394045,0.00039361349577618184,0.0888266666685619,0.010940000000118744
277,0.0,0.0,0.0,0.0,0.0,0.0
278,0.16485189424360117,0.013933475581393245,0.006841361072226119,0.0004472338635906617,0.10687233333252756,0.013300000001133109
279,0.0,0.0,0.0,0.0,0.0,0.0
280,0.12535272373729497,0.0128200512281742,0.004376614727951358,0.00030481236673570686,0.12923199999931967,0.017179999997703508
281,0.0,0.0,0.0,0.0,0.0,0.0
282,0.1025785509211499,0.008230414596655914,0.004139882644989453,0.00025446222649814094,0.07198066666751401,0.008275000000139698
283,0.0,0.0,0.0,0.0,0.0,0.0
284,0.1797600121740706,0.015658304073033084,0.0066434698491057145,0.0004358211114166302,0.13389066666665408,0.01651500000055724
285,0.0,0.0,0.0,0.0,0.0,0.0
286,0.1398896937566053,0.012932933200284314,0.005748769648960463,0.0003693422090685272,0.1025596666659112,0.014480000000427632
287,0.0,0.0,0.0,0.0,0.0,0.0
288,0.17902115654782003,0.01534020995562744,0.006639805817430331,0.0004339786669542804,0.13488766666462956,0.016094999999040738
289,0.0,0.0,0.0,0.0,0.0,0.0
290,0.14635938854566352,0.013982137684142457,0.005495355654292847,0.0003513359031656915,0.13444000000163214,0.017845000002125744
291,0.0,0.0,0.0,0.0,0.0,0.0
292,0.11157572288494375,0.010394541787147105,0.005080615927601211,0.00033571525747385674,0.07493066666696298,0.010994999996910336
293,0.0,0.0,0.0,0.0,0.0,0.0
294,0.12702605827462382,0.011039660883482242,0.005509438941528198,0.00038019175438202353,0.08799266666998543,0.010620000000926666
295,0.0,0.0,0.0,0.0,0.0,0.0
296,0.16073390775440333,0.0155840958415081,0.006703195409320365,0.0004852948454535094,0.1200356666643832,0.01658500000000155
297,0.0,0.0,0.0,0.0,0.0,0.0
298,0.1714665880732752,0.024552895702261754,0.05432779459440854,0.004112792633233673,0.0,0.0
299,0.0,0.0,0.0,0.0,0.0,0.0
300,0.1023065290251748,0.009983333075284699,0.004261936297382314,0.00027628398580618944,0.0836254117620068,0.012123529412372805
301,0.0,0.0,0.0,0.0,0.0,0.0
302,0.06831607621115232,0.005533565375710332,0.0029543444337752282,4.3257956947965615e-05,0.059814352942767615,0.009942352941246046
303,0.0,0.0,0.0,0.0,0.0,0.0
304,0.06514742782995528,0.004931705169826867,0.005659080633443959,8.701738491218834e-05,0.058076705881189,0.00875294117619941
305,0.0,0.0,0.0,0.0,0.0,0.0
306,0.07566915431425611,0.007033021251012272,0.004440663882042395,0.00011997071403903721,0.06545858823536785,0.011745882352389506
307,0.0,0.0,0.0,0.0,0.0,0.0
308,0.07588203412031572,0.005092941175783327,0.0032604906757548327,0.0,0.06710988235564026,0.010185882351566656
309,0.0,0.0,0.0,0.0,0.0,0.0
310,0.07966398508197547,0.006189291692084748,0.002207195052099386,4.456105766859679e-05,0.07816577777622215,0.010740000001128968
311,0.0,0.0,0.0,0.0,0.0,0.0
312,0.06155557800560835,0.006770654979483447,0.002966135935583058,0.00024172815807462061,0.04300933333514776,0.007013333334018372
313,0.0,0.0,0.0,0.0,0.0,0.0
314,0.0799198599742397,0.008175409731192334,0.003415983341523691,0.00024533698641487006,0.053683777776313946,0.008726666666916572
315,0.0,0.0,0.0,0.0,0.0,0.0
316,0.08032671713069889,0.008475532532459529,0.00522577823914926,0.00042379115569614144,0.05315488888946775,0.00823333333311085
317,0.0,0.0,0.0,0.0,0.0,0.0
318,0.08111949839553151,0.008015493273740083,0.0036247545243250274,0.0002900210666620072,0.05299200000040905,0.00728999999895071
319,0.0,0.0,0.0,0.0,0.0,0.0
320,0.08364756968086773,0.007706982360992323,0.0040422474899842785,0.0003169985578976536,0.049387666666007135,0.0061675000009320975
321,0.0,0.0,0.0,0.0,0.0,0.0
322,0.04712233545066225,0.004533902393226972,0.003425853876922483,0.00026168272812903814,0.029469833332162423,0.004120000000208771
323,0.0,0.0,0.0,0.0,0.0,0.0
324,0.055226845371363686,0.005789895249083608,0.004620990631042041,0.0003709820671363156,0.039082833334153584,0.005849999998948381
325,0.0,0.0,0.0,0.0,0.0,0.0
326,0.06625909068204801,0.006561023948164614,0.004885925763203511,0.00039582283092711183,0.04010016666628265,0.005635000000135429
327,0.0,0.0,0.0,0.0,0.0,0.0
328,0.05418406922772119,0.005404269494581906,0.004401593592392516,0.00033961057972217316,0.03930650000014187,0.0054799999998067506
329,0.0,0.0,0.0,0.0,0.0,0.0
330,0.10077790209347205,0.010132353295435192,0.004243492414193366,0.0003158163266852522,0.07392900000195368,0.010766250001324806
331,0.0,0.0,0.0,0.0,0.0,0.0
332,0.08113479454297015,0.007934529187049209,0.003837937672269047,0.0002701409281131325,0.04215999999905762,0.006719999999404536
333,0.0,0.0,0.0,0.0,0.0,0.0
334,0.10639291514066786,0.010727078270689364,0.004750900171554482,0.00037437976350371217,0.053802500000529115,0.00819374999991851
335,0.0,0.0,0.0,0.0,0.0,0.0
336,0.10371208250736358,0.01059078229235706,0.004193359359133974,0.00033319910105946874,0.05354299999817158,0.008219999999710126
337,0.0,0.0,0.0,0.0,0.0,0.0
338,0.1144579834254055,0.011551938916553192,0.006414995081172503,0.0005236094845011887,0.05429075000029116,0.008160000001225853
339,0.0,0.0,0.0,0.0,0.0,0.0
340,0.08319121577191911,0.006946438222603885,0.0056538135590378,0.000384478240745405,0.01892091666619914,0.0038649999993746564
341,0.0,0.0,0.0,0.0,0.0,0.0
342,0.07640614557944211,0.0074705058885581686,0.003392151830774731,0.0002345157017418189,0.008728000000701286,0.0016975000004701235
343,0.0,0.0,0.0,0.0,0.0,0.0
