method,package1,package2,dram1,dram2,energy
Benchmark.fileFromInputStream|Benchmark.extractFileResource|Benchmark.prepareJars,0.0,0.08233666666880404,0.0,0.012334999999438878,0.09467166666824292
Benchmark.fileFromInputStream|Benchmark.unpackZipStream|Benchmark.unpackZipFileResource,0.0,0.36254866666664987,0.0,0.05620999999761503,0.41875866666426487
Benchmark.startIteration|Benchmark.run|TestHarness.runBenchmark,0.0,0.0,0.0,0.0,0.0
BufferedIndexInput.readBytes|BufferedIndexInput.readBytes|TermBuffer.read,0.11616982774551736,0.11037863118245174,0.00683991187168266,0.02409628014739358,0.2574846509470453
BufferedIndexInput.readBytes|CompoundFileReader$CSIndexInput.readInternal|BufferedIndexInput.refill,0.0,0.0,0.0,0.0,0.0
BufferedIndexInput.readBytes|IndexInput.readString|FieldInfos.read,0.01993910458507833,0.0,0.000995132565409042,0.0,0.02093423715048737
BufferedIndexInput.readBytes|TermBuffer.read|SegmentTermEnum.next,0.05771638720196685,0.0709472131139525,0.0025779494158606735,0.014639679101784788,0.1458812288335648
BufferedIndexInput.readByte|IndexInput.readVInt|TermBuffer.read,0.0,0.0,0.0,0.0,0.0
BufferedIndexInput.readByte|IndexInput.readVLong|SegmentTermEnum.next,0.0,0.0,0.0,0.0,0.0
CharArraySet.getHashCode|CharArraySet.getSlot|CharArraySet.contains,0.0,0.0,0.0,0.0,0.0
CommandLineArgs.<clinit>|TestHarness.main|Harness.main,0.0,0.0,0.0,0.0,0.0
CommandLineArgs.extractBenchmarkSet|CommandLineArgs.<init>|TestHarness.main,0.0,0.0,0.0,0.0,0.0
DacapoClassLoader.loadClass|ClassLoader.loadClass|CloseableThreadLocal.<init>,0.0,0.0,0.0,0.0,0.0
DacapoClassLoader.loadClass|ClassLoader.loadClass|SegmentReader.initialize,0.0,0.0,0.0,0.0,0.0
DacapoClassLoader.loadClass|ClassLoader.loadClass|TermBuffer.read,0.0,0.0,0.0,0.0,0.0
DisabledAlgorithmConstraints$Constraints.<init>|DisabledAlgorithmConstraints.<init>|DisabledAlgorithmConstraints.<init>,0.0,0.0,0.0,0.0,0.0
FSDirectory$FSIndexInput.<init>|FSDirectory.openInput|FSDirectory.openInput,0.0,0.0,0.0,0.0,0.0
FSDirectory$FSIndexInput.readInternal|BufferedIndexInput.readBytes|CompoundFileReader$CSIndexInput.readInternal,0.0,0.02006214704488279,0.0,0.005053015466259829,0.025115162511142618
FastCharStream.refill|FastCharStream.readChar|FastCharStream.BeginToken,0.01145879895207878,0.049992777204900765,0.000758695518124994,0.010255612250070874,0.07246588392517542
FastCharStream.refill|FastCharStream.readChar|QueryParserTokenManager.jjMoveNfa_3,0.0,0.0,0.0,0.0,0.0
FieldInfos.fieldInfo|FieldInfos.fieldName|TermBuffer.read,0.018745975943718057,0.012674962962962496,0.0008658312924625548,0.002658333333211313,0.034945103532354416
FieldInfos.fieldName|TermBuffer.read|SegmentTermEnum.next,0.0,0.0,0.0,0.0,0.0
HitQueue.<init>|TopDocCollector.<init>|IndexSearcher.search,0.0,0.0,0.0,0.0,0.0
IndexInput.readVInt|TermBuffer.read|SegmentTermEnum.next,0.0,0.0,0.0,0.0,0.0
IndexInput.readVLong|SegmentTermEnum.next|SegmentTermEnum.scanTo,0.0,0.0,0.0,0.0,0.0
IndexInput.readVLong|SegmentTermEnum.next|TermInfosReader.ensureIndexIsRead,0.0,0.0,0.0,0.0,0.0
IndexReader.ensureOpen|IndexReader.termDocs|TermQuery$TermWeight.scorer,0.0,0.0,0.0,0.0,0.0
IndexSearcher.search|IndexSearcher.search|Searcher.search,0.0,0.0,0.0,0.0,0.0
Launcher$AppClassLoader.loadClass|ClassLoader.loadClass|Harness.main,0.0,0.0,0.0,0.0,0.0
Launcher$AppClassLoader.loadClass|ClassLoader.loadClass|TestHarness.main,0.0,0.0,0.0,0.0,0.0
PriorityQueue.initialize|HitQueue.<init>|TopDocCollector.<init>,0.0,0.0,0.0,0.0,0.0
PriorityQueue.put|PriorityQueue.insertWithOverflow|TopDocCollector.collect,0.0,0.0,0.0,0.0,0.0
Query.getSimilarity|TermQuery$TermWeight.<init>|TermQuery.createWeight,0.0,0.02006214704488279,0.0,0.005053015466259829,0.025115162511142618
QueryParser.<init>|QueryParser.<init>|Search$QueryProcessor.run,0.0,0.0,0.0,0.0,0.0
QueryParser.Clause|QueryParser.Query|QueryParser.TopLevelQuery,0.0,0.029612971365770364,0.0,0.007319636867862236,0.0369326082336326
QueryParser.Query|QueryParser.TopLevelQuery|QueryParser.parse,0.0,0.006522438640593162,0.0,0.0015073479696329636,0.008029786610226125
QueryParser.ReInit|QueryParser.parse|Search$QueryProcessor.run,0.0,0.0,0.0,0.0,0.0
QueryParser.Term|QueryParser.Clause|QueryParser.Query,0.03568620320323602,0.0,0.0031960510508846837,0.0,0.0388822542541207
QueryParser.getFieldQuery|QueryParser.Term|QueryParser.Clause,0.04898200373240785,0.0,0.0020664751663852475,0.0,0.051048478898793104
QueryParserTokenManager.jjCheckNAddTwoStates|QueryParserTokenManager.jjMoveNfa_3|QueryParserTokenManager.jjMoveStringLiteralDfa0_3,0.0,0.0,0.0,0.0,0.0
QueryParserTokenManager.jjCheckNAdd|QueryParserTokenManager.jjCheckNAddTwoStates|QueryParserTokenManager.jjMoveNfa_3,0.0,0.0,0.0,0.0,0.0
QueryParserTokenManager.jjFillToken|QueryParserTokenManager.getNextToken|QueryParser.jj_scan_token,0.0,0.0,0.0,0.0,0.0
QueryParserTokenManager.jjMoveNfa_3|QueryParserTokenManager.jjMoveStringLiteralDfa0_3|QueryParserTokenManager.getNextToken,0.0,0.0315163076066658,0.0,0.00797013729135873,0.03948644489802453
Resource.getBytes|URLClassLoader.defineClass|URLClassLoader.access$100,0.0,0.11789966666644128,0.0,0.017740000000533957,0.13563966666697524
Search$QueryProcessor.doPagingSearch|Search$QueryProcessor.run|Search$QueryThread.run,0.005366000000018781,0.03920747486017773,0.0005099999998492422,0.008674196041806978,0.053757670901852725
Search$QueryProcessor.run|Search$QueryThread.run|end.end,0.0,0.020769362625504148,0.0,0.005520303330344585,0.026289665955848734
Search.main|NativeMethodAccessorImpl.invoke0|NativeMethodAccessorImpl.invoke,0.0,0.23948844444465875,0.0,0.041813333332861975,0.28130177777752075
Searcher.search|Search$QueryProcessor.doPagingSearch|Search$QueryProcessor.run,0.0019829024390119448,0.0,8.670731679048026e-05,0.0,0.002069609755802425
SegmentInfos.read|DirectoryIndexReader$1.doBody|SegmentInfos$FindSegmentsFile.run,0.011803897957953243,0.0,0.0007204466661550302,0.0,0.012524344624108273
SegmentTermDocs.<init>|SegmentReader.termDocs|IndexReader.termDocs,0.0,0.0,0.0,0.0,0.0
SegmentTermEnum.next|SegmentTermEnum.scanTo|TermInfosReader.get,0.06212827734907569,0.009977063741294043,0.0027404111627359158,0.0023853033972267685,0.07723105565033242
SegmentTermEnum.prev|TermInfosReader.get|TermInfosReader.get,0.0,0.0,0.0,0.0,0.0
SegmentTermEnum.scanTo|TermInfosReader.get|TermInfosReader.get,0.005414551278257264,0.05665989659395883,0.00025135468709898146,0.011383319206303205,0.07370912176561828
SegmentTermEnum.seek|TermInfosReader.seekEnum|TermInfosReader.get,0.02617096061541047,0.0,0.0013016319741986262,0.0,0.027472592589609095
SegmentTermEnum.termInfo|TermInfosReader.ensureIndexIsRead|TermInfosReader.get,0.0,0.0,0.0,0.0,0.0
SegmentTermEnum.term|TermInfosReader.get|TermInfosReader.get,0.0,0.0,0.0,0.0,0.0
SimpleCharStream.GetImage|ConfigFileTokenManager.jjFillToken|ConfigFileTokenManager.getNextToken,0.0,0.0091549999997369,0.0,0.0013599999995979788,0.01051499999933488
StandardAnalyzer.tokenStream|QueryParser.getFieldQuery|QueryParser.Term,0.0,0.011744355164288577,0.0,0.0022541762870729658,0.013998531451361543
StandardTokenizerImpl.<init>|StandardTokenizer.<init>|StandardAnalyzer.tokenStream,0.046082887906274295,0.1457895689409732,0.0032160067865832313,0.031877501944301743,0.22696596557813248
StandardTokenizerImpl.zzUnpackCMap|StandardTokenizerImpl.<clinit>|StandardTokenizer.<init>,0.0,0.011901750365657215,0.0,0.001467036483245335,0.01336878684890255
Term.<init>|TermBuffer.toTerm|SegmentTermEnum.term,0.0,0.0,0.0,0.0,0.0
Term.compareTo|TermInfosReader.get|TermInfosReader.get,0.0042597599617484475,0.09745272239765174,0.0003902816009964145,0.021028566795238568,0.12313133075563516
TermBuffer.read|SegmentTermEnum.next|SegmentTermEnum.scanTo,0.0,0.015279148148019209,0.0,0.0027188888887866155,0.017998037036805824
TermBuffer.set|SegmentTermEnum.next|SegmentTermEnum.scanTo,0.02617096061541047,0.004590544520300305,0.0013016319741986262,0.0008449383606778009,0.0329080754705872
TermBuffer.toTerm|SegmentTermEnum.term|TermInfosReader.ensureIndexIsRead,0.0,0.0,0.0,0.0,0.0
TermBuffer.toTerm|SegmentTermEnum.term|TermInfosReader.get,0.0,0.016691962962795515,0.0,0.003426666666874317,0.020118629629669833
TermInfosReader.ensureIndexIsRead|TermInfosReader.get|TermInfosReader.get,0.001555914037236149,0.0,0.00013204325719815254,0.0,0.0016879572944343017
TermInfosReader.get|SegmentTermDocs.seek|IndexReader.termDocs,0.0,0.0,0.0,0.0,0.0
TermQuery$TermWeight.scorer|IndexSearcher.search|Searcher.search,0.024016114624519174,0.0,0.0013645849798870663,0.0,0.02538069960440624
TermScorer.<init>|TermQuery$TermWeight.scorer|IndexSearcher.search,0.0,0.0,0.0,0.0,0.0
Token.clone|QueryParser.getFieldQuery|QueryParser.Term,0.0,0.0,0.0,0.0,0.0
Token.getPositionIncrement|QueryParser.getFieldQuery|QueryParser.Term,0.0,0.020769362625504148,0.0,0.005520303330344585,0.026289665955848734
Tokenizer.close|TokenFilter.close|TokenFilter.close,0.0,0.0,0.0,0.0,0.0
TopDocCollector.<init>|TopDocCollector.<init>|Search$QueryProcessor.doPagingSearch,0.0042597599617484475,0.0,0.0003902816009964145,0.0,0.004650041562744862
UTF8.utf8Length|UTF8.encode|ClassFileAssembler.emitConstantPoolUTF8,0.0,0.0,0.0,0.0,0.0
UnicodeUtil$UTF16Result.copyText|TermBuffer.set|SegmentTermEnum.next,0.0,0.023371371275711268,0.0,0.005623078852348887,0.028994450128060154
UnicodeUtil$UTF16Result.setLength|UnicodeUtil$UTF16Result.copyText|TermBuffer.set,0.02529013001887251,0.0,0.0014900965027636237,0.0,0.02678022652163613
UnicodeUtil$UTF8Result.setLength|TermBuffer.read|SegmentTermEnum.next,0.010707030303048228,0.0,0.0008004545454627298,0.0,0.011507484848510958
UnicodeUtil.UTF8toUTF16|TermBuffer.read|SegmentTermEnum.next,0.0,0.0,0.0,0.0,0.0
