method,package1,package2,dram1,dram2,energy
AlgorithmDecomposer.<clinit>|DisabledAlgorithmConstraints.<init>|SignatureFileVerifier.<clinit>,0.06055612575605609,0.0,0.004536111677007366,0.0,0.06509223743306346
AttributeInfo.read|FieldInfo.read|FieldInfo.<init>,0.0,0.0,0.0,0.0,0.0
AttributeInfo.writeAll|MethodInfo.write|ClassFile.write,0.11961410852898464,0.0,0.004790202046636687,0.0,0.12440431057562133
Benchmark.fileFromInputStream|Benchmark.extractFileResource|Benchmark.prepareJars,0.0,0.0,0.0,0.0,0.0
Benchmark.fileFromInputStream|Benchmark.unpackZipStream|Benchmark.unpackZipFileResource,0.3989777270744273,0.0,0.030665986421536864,0.0,0.42964371349596414
Benchmark.unpackZipStream|Benchmark.unpackZipFileResource|Benchmark.prepare,0.061953667562104235,0.0,0.004537561367133436,0.0,0.06649122892923767
BufferedIndexInput.readBytes|BufferedIndexInput.readBytes|IndexInput.readString,0.0,0.0,0.0,0.0,0.0
BufferedIndexInput.readBytes|BufferedIndexInput.readBytes|TermBuffer.read,0.0703640358528585,0.09841684133802386,0.005514436477476569,0.023124000195839742,0.19741931386419867
BufferedIndexInput.readByte|IndexInput.readVInt|SegmentTermEnum.next,0.0,0.0,0.0,0.0,0.0
BufferedIndexInput.readByte|IndexInput.readVInt|TermBuffer.read,0.0081772195121519,0.0,0.00064829268305358,0.0,0.008825512195205481
BufferedIndexInput.readByte|IndexInput.readVLong|SegmentTermEnum.next,0.0,0.012586566884497266,0.0,0.0027835983716918322,0.015370165256189098
BufferedIndexInput.refill|BufferedIndexInput.readByte|IndexInput.readVInt,0.0,0.0,0.0,0.0,0.0
BufferedIndexInput.refill|BufferedIndexInput.readByte|IndexInput.readVLong,0.0,0.0,0.0,0.0,0.0
ClassFile.addMethod2|ClassFile.read|ClassFile.<init>,0.0,0.0,0.0,0.0,0.0
ConfigFile.<init>|ConfigFile.<init>|Config.parse,0.0,0.0,0.0,0.0,0.0
Document.get|Search$QueryProcessor.doPagingSearch|Search$QueryProcessor.run,0.0,0.0,0.0,0.0,0.0
FSDirectory$FSIndexInput.readInternal|BufferedIndexInput.readBytes|CompoundFileReader$CSIndexInput.readInternal,0.0,0.0,0.0,0.0,0.0
FSDirectory.openInput|FSDirectory.openInput|SegmentInfos$FindSegmentsFile.run,0.0,0.0,0.0,0.0,0.0
FastCharStream.<init>|QueryParser.parse|Search$QueryProcessor.run,0.008802638888886981,0.0,0.0006870833333070753,0.0,0.009489722222194057
FastCharStream.refill|FastCharStream.readChar|FastCharStream.BeginToken,0.013575063188039128,0.10111292625084296,0.0013610100726111221,0.0241884411091383,0.1402374406206315
FastCharStream.refill|FastCharStream.readChar|QueryParserTokenManager.jjMoveNfa_3,0.06531929765833316,0.02355227366070183,0.004903216395775883,0.005284624548804049,0.09905941226361492
Field.<init>|FieldsReader.addField|FieldsReader.doc,0.0,0.0,0.0,0.0,0.0
FieldInfo.read|FieldInfo.<init>|ClassFile.read,0.0,0.0,0.0,0.0,0.0
FieldInfos.fieldInfo|FieldInfos.fieldName|TermBuffer.read,0.0,0.0,0.0,0.0,0.0
FieldInfos.fieldInfo|SegmentTermDocs.seek|SegmentTermDocs.seek,0.0009530769231134445,0.0,0.00010461538439789692,0.0,0.0010576923075113413
FieldsReader.doc|SegmentReader.document|IndexReader.document,0.0,0.02324023151878523,0.0,0.004738680167813461,0.02797891168659869
Handler.parseContextSpec|Handler.parseURL|URL.<init>,0.0633032312809782,0.0,0.004484156263440679,0.0,0.06778738754441888
HitQueue.<init>|TopDocCollector.<init>|IndexSearcher.search,0.0,0.0,0.0,0.0,0.0
IndexInput.clone|BufferedIndexInput.clone|CompoundFileReader$CSIndexInput.clone,0.0167509655172486,0.013994560942353877,0.0012589655174263593,0.003252217478486332,0.035256709455515164
IndexInput.readInt|IndexInput.readLong|SegmentInfos$FindSegmentsFile.run,0.0,0.0,0.0,0.0,0.0
IndexInput.readVInt|TermBuffer.read|SegmentTermEnum.next,0.009046967741948807,0.0,0.00043741935435044133,0.0,0.009484387096299248
IndexInput.readVLong|SegmentTermEnum.next|SegmentTermEnum.scanTo,0.010830586206919115,0.01735645505469323,0.0006124137931880701,0.00374559431765334,0.032545049372453755
LocaleData$1.run|LocaleData$1.run|AccessController.doPrivileged,0.0,0.0,0.0,0.0,0.0
MethodAccessorGenerator.generate|MethodAccessorGenerator.generateConstructor|NativeConstructorAccessorImpl.newInstance,0.0,0.0,0.0,0.0,0.0
NativeConstructorAccessorImpl.newInstance|DelegatingConstructorAccessorImpl.newInstance|Constructor.newInstance,0.0,0.0,0.0,0.0,0.0
ParseUtil.encodePath|URLClassPath$JarLoader.checkResource|URLClassPath$JarLoader.getResource,0.0,0.02504146666780192,0.0,0.00431600000069011,0.02935746666849203
PriorityQueue.initialize|HitQueue.<init>|TopDocCollector.<init>,0.008654683555974894,0.032374136129406234,0.0008741986478223197,0.0062919500214216545,0.048194968354625105
QueryParser.<init>|QueryParser.<init>|Search$QueryProcessor.run,0.0,0.012788164088907606,0.0,0.001907355562058976,0.014695519650966583
QueryParser.addClause|QueryParser.Query|QueryParser.TopLevelQuery,0.0,0.0,0.0,0.0,0.0
QueryParser.jj_3R_2|QueryParser.jj_3_1|QueryParser.jj_2_1,0.0,0.0,0.0,0.0,0.0
QueryParser.jj_save|QueryParser.jj_2_1|QueryParser.Clause,0.0,0.0,0.0,0.0,0.0
QueryParser.parse|Search$QueryProcessor.run|Search$QueryThread.run,0.007145921052573325,0.0,0.0005423684212330142,0.0,0.00768828947380634
QueryParserTokenManager.jjCheckNAdd|QueryParserTokenManager.jjCheckNAddStates|QueryParserTokenManager.jjMoveNfa_3,0.0,0.020255862420483186,0.0,0.00405683854718186,0.024312700967665045
QueryParserTokenManager.jjMoveNfa_3|QueryParserTokenManager.jjMoveStringLiteralDfa0_3|QueryParserTokenManager.getNextToken,0.0,0.0,0.0,0.0,0.0
Resource.getBytes|URLClassLoader.defineClass|URLClassLoader.access$100,0.0,0.0,0.0,0.0,0.0
Search$QueryProcessor.<init>,0.0,0.0,0.0,0.0,0.0
Search$QueryProcessor.doPagingSearch|Search$QueryProcessor.run|Search$QueryThread.run,0.0,0.01043495974579697,0.0,0.0022358385609009155,0.012670798306697886
Search$QueryProcessor.run|Search$QueryThread.run|end.end,0.0021413333333839546,0.0,0.0004950000008345038,0.0,0.0026363333342184583
Search$QueryThread.<init>|Search.main|NativeMethodAccessorImpl.invoke0,0.0,0.0,0.0,0.0,0.0
Searcher.<init>|IndexSearcher.<init>|IndexSearcher.<init>,0.0,0.0,0.0,0.0,0.0
SegmentReader.norms|TermQuery$TermWeight.scorer|IndexSearcher.search,0.0,0.0,0.0,0.0,0.0
SegmentTermDocs.seek|IndexReader.termDocs|TermQuery$TermWeight.scorer,0.0034633278141610394,0.0,0.00035030460475011263,0.0,0.003813632418911152
SegmentTermEnum.next|SegmentTermEnum.scanTo|TermInfosReader.get,0.09698843853816538,0.04958701090133539,0.005516279069917368,0.010739029083062963,0.16283075759248108
SegmentTermEnum.prev|TermInfosReader.get|TermInfosReader.get,0.0016887908001867607,0.0,0.00017040141600144776,0.0,0.0018591922161882086
SegmentTermEnum.scanTo|TermInfosReader.get|TermInfosReader.get,0.012931196256451696,0.04668894187073765,0.000694066931348507,0.010195512381988684,0.07050971744052653
SegmentTermEnum.term|TermInfosReader.get|TermInfosReader.get,0.016276787271212706,0.0,0.0016085523332278664,0.0,0.017885339604440574
StandardAnalyzer.<init>|StandardAnalyzer.<init>|Search$QueryProcessor.run,0.0,0.0,0.0,0.0,0.0
StandardAnalyzer.tokenStream|QueryParser.getFieldQuery|QueryParser.Term,0.0,0.0,0.0,0.0,0.0
StandardTokenizer.<init>|StandardAnalyzer.tokenStream|QueryParser.getFieldQuery,0.019997615384617792,0.0,0.0012784615386268485,0.0,0.021276076923244642
StandardTokenizerImpl.<init>|StandardTokenizer.<init>|StandardAnalyzer.tokenStream,0.07091527663975442,0.08328540233917728,0.0053513653897218705,0.01920780850092163,0.1787598528695752
StandardTokenizerImpl.zzRefill|StandardTokenizerImpl.getNextToken|StandardTokenizer.next,0.0,0.0,0.0,0.0,0.0
StandardTokenizerImpl.zzUnpackCMap|StandardTokenizerImpl.<clinit>|StandardTokenizer.<init>,0.0,0.0,0.0,0.0,0.0
StreamDecoder.readBytes|StreamDecoder.implRead|StreamDecoder.read,0.0,0.0,0.0,0.0,0.0
StringInfo.<init>|ConstPool.readOne|ConstPool.read,0.0,0.0,0.0,0.0,0.0
Term.compareTo|TermInfosReader.getIndexOffset|TermInfosReader.get,0.015050177141907662,0.0,0.0012524728355505176,0.0,0.01630264997745818
Term.compareTo|TermInfosReader.get|TermInfosReader.get,0.03425616487072015,0.013224632730122816,0.0027683081899371686,0.003432443438955015,0.05368154922973514
TermBuffer.read|SegmentTermEnum.next|SegmentTermEnum.scanTo,0.0,0.024306218126110796,0.0,0.004165575097987221,0.028471793224098017
TermBuffer.set|SegmentTermEnum.next|SegmentTermEnum.scanTo,0.0,0.0022803557918855554,0.0,0.0005080159364641936,0.002788371728349749
TermInfosReader.getThreadResources|TermInfosReader.get|TermInfosReader.get,0.0,0.015909861660541147,0.0,0.0036557653559542587,0.019565627016495404
TermInfosReader.get|TermInfosReader.get|SegmentReader.docFreq,0.0,0.011363028278885341,0.0,0.0023914379322864795,0.01375446621117182
TermInfosReader.get|TermInfosReader.get|SegmentTermDocs.seek,0.0,0.0,0.0,0.0,0.0
TermQuery$TermWeight.<init>|TermQuery.createWeight|Query.weight,0.0,0.0,0.0,0.0,0.0
TermQuery.access$000|TermQuery$TermWeight.scorer|IndexSearcher.search,0.0,0.0,0.0,0.0,0.0
TermQuery.createWeight|Query.weight|Searcher.createWeight,0.0,0.0,0.0,0.0,0.0
TermScorer.<init>|TermQuery$TermWeight.scorer|IndexSearcher.search,0.0,0.0,0.0,0.0,0.0
TermScorer.next|TermScorer.score|IndexSearcher.search,0.0,0.0,0.0,0.0,0.0
TestHarness.<init>|TestHarness.main|Harness.main,0.0,0.0,0.0,0.0,0.0
Token.getPositionIncrement|QueryParser.getFieldQuery|QueryParser.Term,0.0010454358974432882,0.0,0.00010500000028584439,0.0,0.0011504358977291326
Token.newToken|QueryParserTokenManager.jjFillToken|QueryParserTokenManager.getNextToken,0.0,0.03118247904103288,0.0,0.0070711054848972485,0.038253584525930126
TopDocCollector.<init>|IndexSearcher.search|Searcher.search,0.019728121457498905,0.0,0.00133671390032037,0.0,0.021064835357819275
TopDocCollector.<init>|TopDocCollector.<init>|IndexSearcher.search,0.0,0.0,0.0,0.0,0.0
UTF8.encode|ClassFileAssembler.emitConstantPoolUTF8|AccessorGenerator.emitBoxingContantPoolEntries,0.0,0.0,0.0,0.0,0.0
UTF8.utf8Length|UTF8.encode|ClassFileAssembler.emitConstantPoolUTF8,0.0,0.0,0.0,0.0,0.0
UnicodeUtil$UTF16Result.copyText|TermBuffer.set|SegmentTermEnum.next,0.0,0.05406412209724713,0.0,0.009405850764515306,0.06346997286176244
UnicodeUtil$UTF16Result.setLength|UnicodeUtil$UTF16Result.copyText|TermBuffer.set,0.011522999999967929,0.0008553125897927327,0.0008565517240765923,0.00022762000044602784,0.013462484314283282
UnicodeUtil.UTF8toUTF16|TermBuffer.read|SegmentTermEnum.next,0.02207833075981571,0.04861243625222159,0.0015359871561236294,0.008331150195974442,0.08055790436413537
