method,package1,package2,dram1,dram2,energy
chappie.util,0.0,0.0,0.0,0.0,0.0
javassist.bytecode,0.0,0.0,0.0,0.0,0.0
org.apache.lucene.analysis,0.0,0.0,0.0,0.0,0.0
org.apache.lucene.analysis.standard,0.0,0.010367443307404552,0.0,0.0019972816221136046,0.012364724929518157
org.apache.lucene.document,0.0,0.0,0.0,0.0,0.0
org.apache.lucene.index,0.17407132704369807,0.3537877976933933,0.014055479317590802,0.06851298333698796,0.6104275873916701
org.apache.lucene.queryParser,0.0506147082175211,0.1145830029491229,0.004205040829376029,0.024388884771603732,0.19379163676762376
org.apache.lucene.search,0.08183555083730984,0.051761485948273525,0.006787097125217958,0.013243469349805893,0.15362760326060723
org.apache.lucene.store,0.25070581235132505,0.13772994100201152,0.02028897035730478,0.026701395202024223,0.4354261189126656
org.apache.lucene.util,0.06979125974824506,0.025195189926719257,0.006078665964205146,0.0048853418061975224,0.10595045744536698
org.dacapo.harness,0.1289129631607901,0.0,0.009426639510468498,0.0,0.13833960267125858
org.dacapo.lusearch,0.03048210915177127,0.0,0.002578729704420327,0.0,0.0330608388561916
sun.misc,0.0,0.0,0.0,0.0,0.0
sun.net.www.protocol.jar,0.07010049980910242,0.0,0.007282324136353522,0.0,0.07738282394545594
sun.reflect,0.0031623912975410674,0.005558748299503052,0.00027691377265595993,0.0008677551021948329,0.009865808471894912
sun.security.util,0.0,0.0,0.0,0.0,0.0
