method,package1,package2,dram1,dram2,energy
AbstractField.setOmitNorms|FieldsReader.addField|FieldsReader.doc,0.0,0.04636159034891232,0.0,0.008651785995241695,0.055013376344154014
AttributeInfo.read|ClassFile.read|ClassFile.<init>,0.0,0.022414750830975032,0.0,0.0038980066443080282,0.026312757475283062
Benchmark.fileFromInputStream|Benchmark.unpackZipStream|Benchmark.unpackZipFileResource,0.0,0.47664366666867863,0.0,0.07716000000073109,0.5538036666694097
BufferedIndexInput.readBytes|BufferedIndexInput.readBytes|TermBuffer.read,0.017144345410264175,0.0,0.0012587610723204588,0.0,0.018403106482584634
BufferedIndexInput.readByte|IndexInput.readVInt|TermBuffer.read,0.0019211861846579648,0.0,0.00019011111896710008,0.0,0.002111297303625065
BufferedIndexInput.readByte|IndexInput.readVLong|SegmentTermEnum.next,0.0,0.0018806061249737013,0.0,0.000403449084258318,0.0022840552092320194
CharArraySet.contains|StopFilter.next|QueryParser.getFieldQuery,0.0,0.012958804878020069,0.0,0.002719390243838439,0.01567819512185851
ClassPool.compress|ClassPool.makeClass|ClassPool.makeClass,0.0043217084257517815,0.0,0.0001978208880541652,0.0,0.004519529313805947
ConfigFile.<init>|ConfigFile.<init>|Config.parse,0.0,0.0,0.0,0.0,0.0
ConfigFileTokenManager.getNextToken|ConfigFile.jj_ntk|ConfigFile.outputClause,0.0,0.0,0.0,0.0,0.0
ConfigFileTokenManager.jjCheckNAddStates|ConfigFileTokenManager.jjMoveNfa_0|ConfigFileTokenManager.jjMoveStringLiteralDfa0_0,0.0,0.11971033333490293,0.0,0.0184700000002825,0.13818033333518542
DacapoClassLoader.loadClass|ClassLoader.loadClass|Search$QueryProcessor.run,0.0,0.02666722916683284,0.0,0.00463750000062646,0.0313047291674593
Document.<init>|FieldsReader.doc|SegmentReader.document,0.0,0.0,0.0,0.0,0.0
FSDirectory$FSIndexInput.readInternal|BufferedIndexInput.readBytes|CompoundFileReader$CSIndexInput.readInternal,0.0,0.04312289986380014,0.0,0.010818831722924532,0.053941731586724675
FSDirectory.getDirectory|FSDirectory.getDirectory|IndexReader.open,0.0,0.0,0.0,0.0,0.0
FSDirectory.list|SegmentInfos$FindSegmentsFile.run|DirectoryIndexReader.open,0.0,0.0,0.0,0.0,0.0
FastCharStream.refill|FastCharStream.readChar|FastCharStream.BeginToken,0.06806947186209505,0.02855968481520988,0.005758383543460446,0.007808621017410139,0.11019616123817552
FastCharStream.refill|FastCharStream.readChar|QueryParserTokenManager.jjMoveNfa_3,0.06590886555494885,0.07500556662647855,0.004707836683029194,0.017465663484543814,0.1630879323490004
FieldInfos.fieldInfo|FieldInfos.fieldName|TermBuffer.read,0.001558179906967262,0.0,0.00012271947046152757,0.0,0.0016808993774287896
FieldInfos.fieldName|TermBuffer.read|SegmentTermEnum.next,0.0,0.0,0.0,0.0,0.0
FieldsReader.doc|SegmentReader.document|IndexReader.document,0.0,0.0062901770459575035,0.0,0.0017235460656093553,0.008013723111566859
FieldsReader.getIndexType|FieldsReader.addField|FieldsReader.doc,0.0,0.0,0.0,0.0,0.0
FieldsReader.getTermVectorType|FieldsReader.addField|FieldsReader.doc,0.01968881395344418,0.0,0.0014403488371605162,0.0,0.021129162790604696
IndexInput.clone|BufferedIndexInput.clone|CompoundFileReader$CSIndexInput.clone,0.00715698183475075,0.034184433962147404,0.0005371220812429819,0.007757380688025813,0.04963591856616694
IndexInput.readString|FieldsReader.addField|FieldsReader.doc,0.0,0.0,0.0,0.0,0.0
IndexInput.readVInt|IndexInput.readString|FieldsReader.addField,0.0,0.0,0.0,0.0,0.0
IndexInput.readVInt|TermBuffer.read|SegmentTermEnum.next,0.0,0.0,0.0,0.0,0.0
IndexInput.readVLong|SegmentTermEnum.next|SegmentTermEnum.scanTo,0.0,0.0,0.0,0.0,0.0
IndexReader.ensureOpen|SegmentReader.docFreq|IndexSearcher.docFreq,0.0,0.0,0.0,0.0,0.0
IndexReader.open|IndexReader.open|Search$QueryProcessor.<init>,0.0,0.0,0.0,0.0,0.0
IndexSearcher.search|Searcher.search|Searcher.search,0.0029579756097163914,0.0,0.00030292682942406206,0.0,0.0032609024391404536
JarURLConnection.<init>|Handler.openConnection|URL.openConnection,0.0,0.0,0.0,0.0,0.0
Label.add|ClassFileAssembler.opc_ifnull|MethodAccessorGenerator.emitInvoke,0.0,0.0,0.0,0.0,0.0
LowerCaseFilter.next|StopFilter.next|QueryParser.getFieldQuery,0.008066060539082832,0.0,0.0005919796729883374,0.0,0.00865804021207117
MethodAccessorGenerator.generate|MethodAccessorGenerator.generateConstructor|NativeConstructorAccessorImpl.newInstance,0.0,0.0,0.0,0.0,0.0
Query.<init>|TermQuery.<init>|QueryParser.newTermQuery,0.0,0.0,0.0,0.0,0.0
Query.getSimilarity|TermQuery$TermWeight.<init>|TermQuery.createWeight,0.05398176957877322,0.0,0.00471541456555499,0.0,0.058697184144328216
QueryParser.Modifiers|QueryParser.Query|QueryParser.TopLevelQuery,0.0,0.0,0.0,0.0,0.0
QueryParser.Term|QueryParser.Clause|QueryParser.Query,0.0010450487805029275,0.01701938864007393,0.00010024390230239256,0.004330317736526117,0.022494999059405368
QueryParser.addClause|QueryParser.Query|QueryParser.TopLevelQuery,0.0,0.0,0.0,0.0,0.0
QueryParser.getFieldQuery|QueryParser.Term|QueryParser.Clause,0.14397786252165806,0.10583455476497311,0.009684613652976213,0.021579939680288394,0.2810769706198958
QueryParser.jj_2_1|QueryParser.Clause|QueryParser.Query,0.0,0.0,0.0,0.0,0.0
QueryParser.jj_3_1|QueryParser.jj_2_1|QueryParser.Clause,0.0,0.0,0.0,0.0,0.0
QueryParser.jj_ntk|QueryParser.Term|QueryParser.Clause,0.0,0.0,0.0,0.0,0.0
QueryParserTokenManager.jjCheckNAdd|QueryParserTokenManager.jjCheckNAddTwoStates|QueryParserTokenManager.jjMoveNfa_3,0.016639865089301868,0.0,0.0015027708593517138,0.0,0.018142635948653583
QueryParserTokenManager.jjMoveNfa_3|QueryParserTokenManager.jjMoveStringLiteralDfa0_3|QueryParserTokenManager.getNextToken,0.0,0.04764892423883327,0.0,0.008951194097996218,0.056600118336829486
Resource.getBytes|URLClassLoader.defineClass|URLClassLoader.access$100,0.0,0.006914386718847254,0.0,0.0008744531249931242,0.007788839843840378
Search$QueryProcessor.run,0.01968881395344418,0.0,0.0014403488371605162,0.0,0.021129162790604696
Search$QueryThread.run,0.0,0.0,0.0,0.0,0.0
Searcher.createWeight|Searcher.search|Searcher.search,0.00197297674415939,0.0,0.00013569767450166562,0.0,0.0021086744186610555
SegmentReader.norms|TermQuery$TermWeight.scorer|IndexSearcher.search,0.0,0.0,0.0,0.0,0.0
SegmentReader.openNorms|SegmentReader.initialize|SegmentReader.get,0.0,0.0,0.0,0.0,0.0
SegmentTermDocs.<init>|SegmentReader.termDocs|IndexReader.termDocs,0.0,0.0,0.0,0.0,0.0
SegmentTermEnum.next|SegmentTermEnum.scanTo|TermInfosReader.get,0.0,0.0903450531980014,0.0,0.01784877893971041,0.1081938321377118
SegmentTermEnum.scanTo|TermInfosReader.get|TermInfosReader.get,0.041045402930101,0.010533235582948084,0.0032056651264052247,0.0021915021451167646,0.05697580578457107
SegmentTermEnum.term|TermInfosReader.get|TermInfosReader.get,0.02446428496906324,0.0,0.0014447814261720016,0.0,0.025909066395235242
StandardAnalyzer.tokenStream|QueryParser.getFieldQuery|QueryParser.Term,0.0,0.0,0.0,0.0,0.0
StandardTokenizerImpl.<init>|StandardTokenizer.<init>|StandardAnalyzer.tokenStream,0.023381438480117808,0.042696128959168134,0.0017268701730658832,0.008897584841714193,0.07670202245406603
Term.compareTo|TermInfosReader.get|TermInfosReader.get,0.0,0.0,0.0,0.0,0.0
TermBuffer.compareChars|TermBuffer.compareTo|SegmentTermEnum.scanTo,0.00715698183475075,0.0,0.0005371220812429819,0.0,0.007694103915993732
TermBuffer.set|SegmentTermEnum.next|SegmentTermEnum.scanTo,0.0,0.0,0.0,0.0,0.0
TermInfosReader.ensureIndexIsRead|TermInfosReader.get|TermInfosReader.get,0.019930507662882357,0.0,0.0017506626100671214,0.0,0.02168117027294948
TermInfosReader.getMaxSkipLevels|SegmentTermDocs.<init>|SegmentReader.termDocs,0.001620276276268639,0.0,0.00011536036049961125,0.0,0.0017356366367682501
TermInfosReader.get|SegmentTermDocs.seek|IndexReader.termDocs,0.0,0.026473414484560674,0.0,0.007327446717481064,0.03380086120204174
TermInfosReader.get|TermInfosReader.get|SegmentReader.docFreq,0.0,0.011892355555513252,0.0,0.0030919999998769965,0.014984355555390249
TestHarness.twoDecimalPlaces|TestHarness.<clinit>|Harness.main,0.0,0.0,0.0,0.0,0.0
Token.clone|QueryParser.getFieldQuery|QueryParser.Term,0.017300868015640517,0.0,0.0014996706121569055,0.0,0.018800538627797424
Tokenizer.close|TokenFilter.close|TokenFilter.close,0.011149697667243587,0.0,0.0009337702185394074,0.0,0.012083467885782994
TopDocCollector.<init>|Search$QueryProcessor.doPagingSearch|Search$QueryProcessor.run,0.0,0.0,0.0,0.0,0.0
TopDocCollector.<init>|TopDocCollector.<init>|IndexSearcher.search,0.0,0.0,0.0,0.0,0.0
TopDocCollector.getTotalHits|Search$QueryProcessor.doPagingSearch|Search$QueryProcessor.run,0.027225393939454192,0.0,0.0025986363636382693,0.0,0.029824030303092462
UTF8.utf8Length|UTF8.encode|ClassFileAssembler.emitConstantPoolUTF8,0.0,0.0,0.0,0.0,0.0
UnicodeUtil$UTF16Result.copyText|TermBuffer.set|SegmentTermEnum.next,0.012197248656568743,0.04764892423883327,0.0004859637232593735,0.008951194097996218,0.0692833307166576
UnicodeUtil$UTF16Result.setLength|UnicodeUtil$UTF16Result.copyText|TermBuffer.set,0.0,0.06373482773017736,0.0,0.013858172269236,0.07759299999941335
UnicodeUtil.UTF8toUTF16|TermBuffer.read|SegmentTermEnum.next,0.008615467071652337,0.024118802067596763,0.0007387715883042968,0.00512307567003574,0.03859611639758914
