method,hits
AttributeInfo.read,1
BooleanClause.<init>,2
BufferedIndexInput.readByte,1
BufferedIndexInput.readBytes,36
BufferedIndexInput.refill,1
ClassDefiner.defineClass,1
CompoundFileReader$CSIndexInput.length,1
DisabledAlgorithmConstraints$Constraints.<init>,1
FSDirectory$FSIndexInput.readInternal,1
FastCharStream.refill,7
FieldsReader.getTermVectorType,1
HitQueue.<init>,1
IndexInput.readVInt,1
IndexReader.ensureOpen,1
IndexReader.open,1
IndexSearcher.docFreq,1
QueryParser.Query,1
QueryParser.Term,3
QueryParser.addClause,1
QueryParser.getFieldQuery,1
QueryParser.jj_2_1,1
QueryParserTokenManager.getNextToken,1
QueryParserTokenManager.jjMoveNfa_3,3
Search$QueryProcessor.<init>,1
Search$QueryProcessor.doPagingSearch,2
Search$QueryProcessor.run,1
Searcher.createWeight,3
SegmentInfos$FindSegmentsFile.run,1
SegmentReader.docFreq,1
SegmentReader.initialize,1
SegmentTermDocs.<init>,1
SegmentTermEnum.next,26
SegmentTermEnum.scanTo,11
Similarity.idf,2
Similarity.tf,1
StandardTokenizerImpl.<init>,6
Term.<init>,1
Term.compareTo,4
TermBuffer.compareTo,1
TermBuffer.read,7
TermBuffer.set,6
TermInfo.set,1
TermInfosReader.get,2
TermInfosReader.seekEnum,1
TermQuery$TermWeight.<init>,1
TermQuery$TermWeight.scorer,1
TermScorer.<init>,2
Token.<init>,1
Token.term,1
TokenFilter.<init>,1
TopDocCollector.<init>,1
TopDocCollector.topDocs,1
UnicodeUtil$UTF16Result.copyText,9
UnicodeUtil$UTF16Result.setLength,3
UnicodeUtil$UTF8Result.setLength,1
UnicodeUtil.UTF8toUTF16,6
