method,package1,package2,dram1,dram2,energy
AttributeInfo.read,0.0,0.0,0.0,0.0,0.0
BufferedIndexInput.readByte,0.0,0.0,0.0,0.0,0.0
BufferedIndexInput.readBytes,0.03298094494199122,0.01821007277409149,0.0022432361121641833,0.003885205023784916,0.05731945885203181
BufferedIndexInput.refill,0.02721698935165725,0.02412208108128382,0.0022970467622895705,0.005272702702731712,0.05890881989796235
ClassFileAssembler.emitByte,0.0,0.0,0.0,0.0,0.0
CloseableThreadLocal.get,0.0,0.0,0.0,0.0,0.0
CommandLineArgs.<clinit>,0.0,0.0,0.0,0.0,0.0
CompoundFileReader$CSIndexInput.length,0.0,0.001192040816430544,0.0,0.00028653061213399454,0.0014785714285645386
ConfigFileTokenManager.jjMoveNfa_0,0.0,0.0,0.0,0.0,0.0
DirectoryIndexReader$1.doBody,0.0,0.07004800000140676,0.0,0.010269999998854471,0.08031800000026124
DisabledAlgorithmConstraints.<init>,0.0,0.0,0.0,0.0,0.0
FastCharStream.readChar,0.0,0.0,0.0,0.0,0.0
FastCharStream.refill,0.012319234615328105,0.0019669808375887823,0.0006927692313463642,0.0004357424171841524,0.015414727101447404
FieldInfos.fieldInfo,0.027118894736926642,0.0,0.001650789474201462,0.0,0.028769684211128105
FieldsReader.doc,0.0,0.0,0.0,0.0,0.0
HitQueue.<init>,0.0,0.0,0.0,0.0,0.0
IndexInput.clone,0.0,0.0,0.0,0.0,0.0
IndexInput.readLong,0.0,0.011014317916930621,0.0,0.002330975515009264,0.013345293431939884
IndexInput.readVInt,0.006428216919862069,0.026607557380239295,0.0003422394672093691,0.005750267151930442,0.03912828091924118
IndexInput.readVLong,0.0,0.0,0.0,0.0,0.0
MethodInfo.<init>,0.0,0.0,0.0,0.0,0.0
NativeConstructorAccessorImpl.newInstance,0.0,0.0,0.0,0.0,0.0
Query.getSimilarity,0.008665708928558722,0.0,0.0005635803574088121,0.0,0.009229289285967534
QueryParser.Term,0.0,0.00799578697324982,0.0,0.0020570459770776024,0.010052832950327422
QueryParser.addClause,0.0,0.023027461538545024,0.0,0.005481153845978089,0.028508615384523112
QueryParser.discardEscapeChar,0.0,0.0,0.0,0.0,0.0
QueryParser.getFieldQuery,0.0,0.013547522121904963,0.0,0.002698329713157857,0.01624585183506282
QueryParser.newTermQuery,0.0,0.0,0.0,0.0,0.0
QueryParser.parse,0.0,0.0,0.0,0.0,0.0
QueryParserTokenManager.jjMoveNfa_3,0.019270161053354308,0.0,0.0008971273509455168,0.0,0.020167288404299825
Search$QueryProcessor.run,0.0,0.0,0.0,0.0,0.0
Search$QueryThread.run,0.014830539620777112,0.0,0.0007985053303196816,0.0,0.015629044951096793
SegmentInfos.read,0.0,0.0,0.0,0.0,0.0
SegmentReader.norms,0.0,0.0,0.0,0.0,0.0
SegmentTermDocs.seek,0.0698128377545211,0.0,0.004716693135532758,0.0,0.07452953089005386
SegmentTermEnum.next,0.0029032048192478336,0.022709483164584002,0.00012867469870042148,0.004888038926237239,0.030629401608769494
SegmentTermEnum.scanTo,0.10853162625107238,0.08676813940067375,0.008712472610807372,0.017783118105023248,0.22179535636757675
SegmentTermEnum.seek,0.0,0.003093069230817491,0.0,0.0006763846151723275,0.0037694538459898184
SegmentTermEnum.term,0.012913907601005777,0.0,0.0007330362073537625,0.0,0.013646943808359539
StandardTokenizerImpl.<init>,0.11715403697429083,0.12313039145195603,0.006871294160710285,0.028117680283241086,0.27527340287019825
StandardTokenizerImpl.getNextToken,0.0,0.012159189189480606,0.0,0.002714999999994148,0.014874189189474753
Term.<init>,0.0,0.0035804832532106757,0.0,0.0007416361326858103,0.004322119385896486
Term.compareTo,0.0,0.0,0.0,0.0,0.0
TermBuffer.compareTo,0.006956695182877287,0.0,0.0005175686941952782,0.0,0.007474263877072565
TermBuffer.read,0.003789999999883417,0.012753263093072882,0.000391428571588005,0.0027114875480686736,0.019646179212612976
TermBuffer.set,0.06200303209097554,0.012486508711179223,0.004123565456545091,0.0024925627617823024,0.08110566902048216
TermBuffer.toTerm,0.0,0.01931845945973937,0.0,0.004179729729838909,0.02349818918957828
TermInfosReader.ensureIndexIsRead,0.023826137889257245,0.002276972419316128,0.0021462890302575586,0.00047095010877124227,0.028720349447602177
TermInfosReader.get,0.02463246363644099,0.0014912432432882615,0.0010687500004926485,0.0004390540542206853,0.027631510934442584
TermInfosReader.getThreadResources,0.0247683240105914,0.014346891497791501,0.001335726921474979,0.0032269122162740718,0.043677854646131956
TermQuery$TermWeight.scorer,0.0,0.0,0.0,0.0,0.0
TermScorer.<init>,0.003140923722800652,0.04483175462828498,0.0002248068424682564,0.009968886432574013,0.0581663716261279
TokenFilter.<init>,0.0,0.0,0.0,0.0,0.0
UnicodeUtil$UTF16Result.copyText,0.0,0.02964494737493837,0.0,0.0059067163159486485,0.03555166369088702
UnicodeUtil$UTF8Result.setLength,0.0,0.003093069230817491,0.0,0.0006763846151723275,0.0037694538459898184
UnicodeUtil.UTF8toUTF16,0.030533671232288714,0.0033008055891523514,0.0018648284604816038,0.0007531255902893468,0.03645243087221201
