method,package1,package2,dram1,dram2,energy
Benchmark,0.06800507287096838,0.0,0.004448628216800895,0.0,0.07245370108776927
BufferedIndexInput,0.09769477900219992,0.10404930524719795,0.007014707540712408,0.021362328285639477,0.23012112007574975
ByteVectorImpl,0.0,0.0,0.0,0.0,0.0
ClassFileAssembler,0.0,0.0,0.0,0.0,0.0
CloseableThreadLocal,0.0,0.001137093580347809,0.0,0.00026186511637586946,0.0013989586967236784
ConfigFileTokenManager,0.004750341718931652,0.0,0.00025151087111615017,0.0,0.0050018525900478025
FSDirectory$FSIndexInput,0.0,0.013891488876836241,0.0,0.0029274164874283264,0.01681890536426457
FastCharStream,0.029636013737294385,0.0,0.002307696969467662,0.0,0.031943710706762045
FormattedFloatingDecimal,0.09452971411107464,0.0,0.006099912331270214,0.0,0.10062962644234485
HitQueue,0.023057694814112576,0.0,0.0015243220240917395,0.0,0.024582016838204317
IndexInput,0.0,0.0,0.0,0.0,0.0
IndexReader,0.0,0.0,0.0,0.0,0.0
IndexSearcher,0.0,0.0,0.0,0.0,0.0
MethodAccessorGenerator,0.0,0.0,0.0,0.0,0.0
PriorityQueue,0.0,0.0,0.0,0.0,0.0
QueryParser,0.034014568551729414,0.02204055856395904,0.0026997901221599554,0.005749462479849983,0.0645043797176984
QueryParserTokenManager,0.0246324222222433,0.03879693970256759,0.0019103333332976843,0.01029934042960338,0.07563903568771195
Search$QueryProcessor,0.012457943055558949,0.0,0.0008213333333717147,0.0,0.013279276388930663
Search$QueryThread,0.0,0.0,0.0,0.0,0.0
Searcher,0.0017795111111303817,0.0,7.866666661963488e-05,0.0,0.0018581777777500167
SegmentInfo,0.0,0.0,0.0,0.0,0.0
SegmentTermDocs,0.0,0.0,0.0,0.0,0.0
SegmentTermEnum,0.06544170167703535,0.1524792248455564,0.0045253153062787075,0.03654615211715898,0.25899239394602946
StandardTokenizer,0.0,0.0,0.0,0.0,0.0
StandardTokenizerImpl,0.05301668790056528,0.04369868346431675,0.002866861142348822,0.011299593087738908,0.11088182559496977
Term,0.0039997127663881716,0.042899218418703984,0.0003214011940776528,0.009007564861921226,0.056227897241091035
TermBuffer,0.007499610985434543,0.0,0.000587284022146574,0.0,0.008086895007581116
TermInfosReader,0.0,0.0,0.0,0.0,0.0
TermQuery,0.0,0.002924720717802541,0.0,0.0007207124138638855,0.0036454331316664265
TermQuery$TermWeight,0.0,0.0,0.0,0.0,0.0
TermScorer,0.0,0.0,0.0,0.0,0.0
TestHarness,0.0,0.0,0.0,0.0,0.0
UnicodeUtil,0.0024181903089233337,0.0,0.00011342601932419285,0.0,0.0025316163282475264
UnicodeUtil$UTF16Result,0.032205320101891775,0.001123489487420679,0.002228639738273707,0.00023265875118017582,0.035790108078766335
