method,hits
Benchmark.startIteration,1
BufferedIndexInput.readByte,3
BufferedIndexInput.readBytes,40
CharArraySet.getHashCode,1
CommandLineArgs.<clinit>,1
CommandLineArgs.extractBenchmarkSet,1
DisabledAlgorithmConstraints$Constraints.<init>,1
FSDirectory$FSIndexInput.<init>,1
FastCharStream.refill,6
FieldInfos.fieldInfo,1
FieldInfos.fieldName,1
HitQueue.<init>,2
IndexInput.readVInt,1
IndexInput.readVLong,2
IndexReader.ensureOpen,1
IndexSearcher.search,1
PriorityQueue.initialize,2
PriorityQueue.put,1
Query.getSimilarity,2
QueryParser.<init>,1
QueryParser.Clause,1
QueryParser.ReInit,1
QueryParser.Term,1
QueryParser.getFieldQuery,1
QueryParserTokenManager.jjCheckNAdd,1
QueryParserTokenManager.jjCheckNAddTwoStates,1
QueryParserTokenManager.jjFillToken,1
QueryParserTokenManager.jjMoveNfa_3,1
Search$QueryProcessor.doPagingSearch,1
Search$QueryProcessor.run,1
Searcher.search,1
SegmentInfos.read,1
SegmentTermDocs.<init>,1
SegmentTermEnum.next,26
SegmentTermEnum.prev,1
SegmentTermEnum.scanTo,11
SegmentTermEnum.seek,1
SegmentTermEnum.term,1
SegmentTermEnum.termInfo,1
SimpleCharStream.GetImage,1
StandardAnalyzer.tokenStream,3
StandardTokenizerImpl.<init>,23
StandardTokenizerImpl.zzUnpackCMap,1
Term.<init>,1
Term.compareTo,5
TermBuffer.read,7
TermBuffer.set,5
TermBuffer.toTerm,2
TermInfosReader.ensureIndexIsRead,2
TermInfosReader.get,1
TermQuery$TermWeight.scorer,1
TermScorer.<init>,1
Token.getPositionIncrement,1
Tokenizer.close,1
TopDocCollector.<init>,1
UnicodeUtil$UTF16Result.copyText,12
UnicodeUtil$UTF16Result.setLength,3
UnicodeUtil$UTF8Result.setLength,1
UnicodeUtil.UTF8toUTF16,10
