method,package1,package2,dram1,dram2,energy
BufferedIndexInput.newBuffer,0.0,0.013457638834701195,0.0,0.0027441362231769525,0.01620177505787815
BufferedIndexInput.readByte,0.0,0.0,0.0,0.0,0.0
BufferedIndexInput.readBytes,0.06549350532908266,0.1189257956439217,0.003851405643055334,0.023082160982196228,0.21135286759825592
BufferedIndexInput.refill,0.0,0.034974717948688734,0.0,0.009426923076926658,0.04440164102561539
ConfigFile.<init>,0.0,0.0,0.0,0.0,0.0
FastCharStream.BeginToken,0.02225082229964286,0.0,0.0009633449478888597,0.0,0.023214167247531718
Field.<init>,0.0,0.0,0.0,0.0,0.0
FieldInfos.fieldInfo,0.004636975609756624,0.0,0.00018470383276400327,0.0,0.0048216794425206275
HitQueue.<init>,0.0,0.0,0.0,0.0,0.0
IndexInput.readVInt,0.0,0.0,0.0,0.0,0.0
IndexInput.readVLong,0.004760010451967478,0.0,0.0002065289270701464,0.0,0.004966539379037624
IndexReader.document,0.0,0.004078181893794119,0.0,0.0006907571966549905,0.004768939090449109
IndexReader.ensureOpen,0.013158625168191732,0.053689025641151834,0.0013328734461655035,0.014137307692204231,0.0823178319477133
IndexReader.open,0.0,0.023457460053712995,0.0,0.0035003119367852486,0.026957771990498244
IndexSearcher.search,0.0,0.0,0.0,0.0,0.0
LowerCaseFilter.next,0.0,0.0,0.0,0.0,0.0
MethodAccessorGenerator$1.run,0.002025858333324019,0.0,0.00010349999993195524,0.0,0.0021293583332559745
QueryParser.<init>,0.0,0.0,0.0,0.0,0.0
QueryParser.Query,0.01677462879859371,0.0,0.0017073810654518074,0.0,0.018482009864045516
QueryParser.addClause,0.0,0.0,0.0,0.0,0.0
QueryParser.getFieldQuery,0.0,0.0,0.0,0.0,0.0
QueryParser.jj_3R_2,0.0,0.0,0.0,0.0,0.0
QueryParser.jj_3_1,0.0,0.0,0.0,0.0,0.0
QueryParser.jj_consume_token,0.0,0.0,0.0,0.0,0.0
QueryParserTokenManager.jjCheckNAddTwoStates,0.0,0.0,0.0,0.0,0.0
QueryParserTokenManager.jjMoveNfa_3,0.0,0.0,0.0,0.0,0.0
Search$QueryProcessor.run,0.0,0.010817947368291482,0.0,0.001498552631586024,0.012316499999877505
Searcher.search,0.0,0.002380000887283216,0.0,0.0005138388287947089,0.002893839716077925
SegmentInfos$FindSegmentsFile.run,0.0,0.0,0.0,0.0,0.0
SegmentInfos.read,0.00475819791665799,0.0,0.0002768750000541331,0.0,0.0050350729167121236
SegmentReader.norms,0.0,0.0,0.0,0.0,0.0
SegmentReader.openNorms,0.0,0.0,0.0,0.0,0.0
SegmentTermEnum.next,0.07418967749062182,0.17247646981749915,0.005316581190604324,0.03931619947424538,0.29129892797297063
SegmentTermEnum.prev,0.0,0.04680069565232691,0.0,0.012905869565261324,0.059706565217588235
SegmentTermEnum.scanTo,0.022992431178080863,0.12144628140978524,0.0018660294974015496,0.023736125445241105,0.1700408675305088
SegmentTermEnum.term,0.0330931797078857,0.0,0.0028623606538481987,0.0,0.0359555403617339
Similarity.idf,0.0,0.0,0.0,0.0,0.0
SimpleCharStream.UpdateLineColumn,0.0,0.0,0.0,0.0,0.0
StandardTokenizer.<init>,0.0,0.0,0.0,0.0,0.0
StandardTokenizerImpl.<init>,0.06482987965607938,0.13673756697818815,0.005826502753268992,0.03204012275676033,0.23943407214429682
Term.compareTo,0.0330931797078857,0.0,0.0028623606538481987,0.0,0.0359555403617339
TermBuffer.compareChars,0.0,0.034974717948688734,0.0,0.009426923076926658,0.04440164102561539
TermBuffer.read,0.0384598471951801,0.0,0.0034736400413532755,0.0,0.041933487236533375
TermBuffer.set,0.0015604072174953266,0.01134402325565028,7.010983570167091e-05,0.002678372092960608,0.015652912401807887
TermInfosReader.ensureIndexIsRead,0.0,0.0,0.0,0.0,0.0
TermInfosReader.get,0.0,0.014435703933873703,0.0,0.003721447557895871,0.018157151491769573
TermQuery$TermWeight.scorer,0.0,0.0,0.0,0.0,0.0
TermScorer.<init>,0.0,0.005564245831173235,0.0,0.001167256359168273,0.0067315021903415085
TestHarness.main,0.07309966666616674,0.0,0.0041600000016236045,0.0,0.07725966666779034
Token.clone,0.0,0.0,0.0,0.0,0.0
TopDocCollector.<init>,0.03659177750879847,0.0,0.003400260250516966,0.0,0.03999203775931543
UTF8.encode,0.0,0.0,0.0,0.0,0.0
UnicodeUtil$UTF16Result.copyText,0.0,0.1416444336466714,0.0,0.028073964759358878,0.16971839840603029
UnicodeUtil$UTF16Result.setLength,0.0,0.0,0.0,0.0,0.0
UnicodeUtil$UTF8Result.setLength,0.0,0.0026734166667080647,0.0,0.000397587719269414,0.0030710043859774787
UnicodeUtil.UTF8toUTF16,0.12219786792371629,0.07201767154286502,0.011537518417017983,0.014641866692281683,0.22039492457588097
