method,package1,package2,dram1,dram2,energy
AbstractField.<init>,0.0,0.0,0.0,0.0,0.0
Benchmark.fileFromInputStream,0.08044433333391983,0.0,0.004759999998592925,0.0,0.08520433333251276
BufferedIndexInput.readByte,0.015357048780504381,0.0,0.000826463414740851,0.0,0.016183512195245234
BufferedIndexInput.readBytes,0.019209621148697127,0.034355876425297,0.001441378330353587,0.007551627036670753,0.06255850294101846
BufferedIndexInput.refill,0.010368247832739451,0.03467197140745741,0.0008956638868146223,0.00775417522004518,0.05369005834705666
CharArraySet.getSlot,0.0,0.0564460546788425,0.0,0.00983244379088587,0.06627849846972837
ConfigFile.jj_consume_token,0.0,0.0,0.0,0.0,0.0
DirectoryIndexReader$1.doBody,0.0,0.0,0.0,0.0,0.0
FSDirectory$FSIndexInput.<init>,0.0,0.0,0.0,0.0,0.0
FSDirectory$FSIndexInput.readInternal,0.03266156810135448,0.0,0.0022964904247675558,0.0,0.034958058526122035
FastCharStream.refill,0.0,0.0,0.0,0.0,0.0
FieldInfos.fieldName,0.0,0.003500990686284377,0.0,0.0005565816768649754,0.004057572363149352
HitQueue.<init>,0.0,0.0,0.0,0.0,0.0
IndexInput.readVInt,0.0,0.005604351012658082,0.0,0.0012567189399281845,0.006861069952586266
IndexReader.ensureOpen,0.0,0.0,0.0,0.0,0.0
Lusearch.iterate,0.0,0.0,0.0,0.0,0.0
MethodAccessorGenerator.generate,0.0,0.0,0.0,0.0,0.0
Query.weight,0.0,0.010535293470832699,0.0,0.002428598555321769,0.012963892026154469
QueryParser.<init>,0.0,0.0,0.0,0.0,0.0
QueryParser.Term,0.0,0.0,0.0,0.0,0.0
QueryParser.discardEscapeChar,0.0,0.018837002933487054,0.0,0.005060512507704384,0.02389751544119144
QueryParser.getFieldQuery,0.006290124390262664,0.0,0.0005610000000071921,0.0,0.006851124390269856
QueryParser.jj_2_1,0.0,0.00548001352685543,0.0,0.001543460569601758,0.007023474096457188
QueryParser.jj_3_1,0.0,0.01717342950014542,0.0,0.003605545799409289,0.02077897529955471
QueryParser.jj_ntk,0.0,0.015941769726532096,0.0,0.004092572671965322,0.02003434239849742
QueryParser.jj_save,0.0,0.0,0.0,0.0,0.0
QueryParser.parse,0.0,0.0,0.0,0.0,0.0
QueryParserTokenManager.jjMoveNfa_3,0.03960713076310415,0.0,0.0032989168293145305,0.0,0.04290604759241868
Search$QueryProcessor.run,0.0,0.0,0.0,0.0,0.0
SegmentReader.docFreq,0.012349852307714355,0.0,0.0007864769228334085,0.0,0.013136329230547764
SegmentReader.document,0.0,0.0,0.0,0.0,0.0
SegmentReader.norms,0.0,0.0,0.0,0.0,0.0
SegmentTermDocs.read,0.0,0.0,0.0,0.0,0.0
SegmentTermDocs.seek,0.033749893040295735,0.0039279555557489715,0.002642835164911731,0.0008006666667319628,0.0411213504276884
SegmentTermEnum.next,0.03199050029999387,0.023512358590368224,0.002354052441762214,0.005125221526740458,0.06298213285886477
SegmentTermEnum.prev,0.0,0.0,0.0,0.0,0.0
SegmentTermEnum.scanTo,0.07369610381495945,0.05392144900600209,0.0062469287054591075,0.011188833783554597,0.14505331530997526
Similarity.idf,0.0,0.0,0.0,0.0,0.0
SimpleCharStream.BeginToken,0.026448333332761344,0.0,0.0011800000041451615,0.0,0.027628333336906504
StandardAnalyzer.tokenStream,0.07702827472919442,0.0,0.004594478561611773,0.0,0.08162275329080619
StandardTokenizer.next,0.0,0.011478973876520698,0.0,0.003274714248509486,0.014753688125030185
StandardTokenizerImpl.<init>,0.1907226188893599,0.1899554813546696,0.011328697205769827,0.0454344635547778,0.43744126100457714
StandardTokenizerImpl.zzUnpackCMap,0.0,0.0,0.0,0.0,0.0
Term.<init>,0.03938397014123847,0.0,0.0025927949157671685,0.0,0.041976765057005636
Term.compareTo,0.0,0.07396372274779801,0.0,0.01895904746162653,0.09292277020942455
TermBuffer.compareChars,0.0,0.0,0.0,0.0,0.0
TermBuffer.read,0.0,0.0,0.0,0.0,0.0
TermBuffer.set,0.006290124390262664,0.0,0.0005610000000071921,0.0,0.006851124390269856
TermInfosReader.ensureIndexIsRead,0.0,0.0,0.0,0.0,0.0
TermInfosReader.get,0.04506644379667634,0.0,0.0027688682812285225,0.0,0.04783531207790486
TermQuery$TermWeight.<init>,0.0,0.0,0.0,0.0,0.0
TermQuery$TermWeight.scorer,0.0,0.0,0.0,0.0,0.0
TermQuery.access$000,0.0,0.0,0.0,0.0,0.0
TermScorer.<init>,0.0,0.0,0.0,0.0,0.0
Token.termBuffer,0.0,0.0,0.0,0.0,0.0
TopDocCollector.<init>,0.03938397014123847,0.0,0.0025927949157671685,0.0,0.041976765057005636
UTF8.encode,0.0,0.006065714285796275,0.0,0.0009332142858294814,0.006998928571625757
UnicodeUtil$UTF16Result.copyText,0.03453426995651964,0.01318558064503445,0.0027663498789122845,0.002898870967797965,0.05338507144826434
UnicodeUtil$UTF16Result.setLength,0.0,0.0,0.0,0.0,0.0
UnicodeUtil.UTF8toUTF16,0.040169242941400514,0.052855974834263436,0.0033004958372535526,0.012008093924537808,0.1083338075374553
