method,package1,package2,dram1,dram2,energy
AbstractField.setOmitNorms,0.0,0.04636159034891232,0.0,0.008651785995241695,0.055013376344154014
AttributeInfo.read,0.0,0.022414750830975032,0.0,0.0038980066443080282,0.026312757475283062
Benchmark.fileFromInputStream,0.0,0.0677896666675224,0.0,0.010980000001533577,0.07876966666905598
BufferedIndexInput.readByte,0.0019211861846579648,0.0018806061249737013,0.00019011111896710008,0.000403449084258318,0.004395352512857084
BufferedIndexInput.readBytes,0.017144345410264175,0.0,0.0012587610723204588,0.0,0.018403106482584634
CharArraySet.contains,0.0,0.012958804878020069,0.0,0.002719390243838439,0.01567819512185851
ConfigFile.<init>,0.0,0.0,0.0,0.0,0.0
ConfigFileTokenManager.jjCheckNAddStates,0.0,0.11971033333490293,0.0,0.0184700000002825,0.13818033333518542
FSDirectory$FSIndexInput.readInternal,0.0,0.0,0.0,0.0,0.0
FastCharStream.refill,0.0,0.02855968481520988,0.0,0.007808621017410139,0.03636830583262002
FieldInfos.fieldInfo,0.001558179906967262,0.0,0.00012271947046152757,0.0,0.0016808993774287896
FieldInfos.fieldName,0.0,0.0,0.0,0.0,0.0
FieldsReader.doc,0.0,0.0062901770459575035,0.0,0.0017235460656093553,0.008013723111566859
FieldsReader.getIndexType,0.0,0.0,0.0,0.0,0.0
FieldsReader.getTermVectorType,0.01968881395344418,0.0,0.0014403488371605162,0.0,0.021129162790604696
IndexInput.readString,0.0,0.0,0.0,0.0,0.0
IndexInput.readVInt,0.0,0.0,0.0,0.0,0.0
IndexInput.readVLong,0.0,0.0,0.0,0.0,0.0
IndexReader.ensureOpen,0.0,0.0,0.0,0.0,0.0
IndexReader.open,0.0,0.0,0.0,0.0,0.0
IndexSearcher.search,0.0029579756097163914,0.0,0.00030292682942406206,0.0,0.0032609024391404536
Label.add,0.0,0.0,0.0,0.0,0.0
LowerCaseFilter.next,0.008066060539082832,0.0,0.0005919796729883374,0.0,0.00865804021207117
MethodAccessorGenerator.generate,0.0,0.0,0.0,0.0,0.0
Query.<init>,0.0,0.0,0.0,0.0,0.0
Query.getSimilarity,0.05398176957877322,0.0,0.00471541456555499,0.0,0.058697184144328216
QueryParser.Modifiers,0.0,0.0,0.0,0.0,0.0
QueryParser.Term,0.0010450487805029275,0.01701938864007393,0.00010024390230239256,0.004330317736526117,0.022494999059405368
QueryParser.addClause,0.0,0.0,0.0,0.0,0.0
QueryParser.getFieldQuery,0.0,0.042696128959168134,0.0,0.008897584841714193,0.051593713800882325
QueryParser.jj_2_1,0.0,0.0,0.0,0.0,0.0
QueryParser.jj_3_1,0.0,0.0,0.0,0.0,0.0
QueryParser.jj_ntk,0.0,0.0,0.0,0.0,0.0
QueryParserTokenManager.jjCheckNAdd,0.016639865089301868,0.0,0.0015027708593517138,0.0,0.018142635948653583
QueryParserTokenManager.jjMoveNfa_3,0.0,0.04764892423883327,0.0,0.008951194097996218,0.056600118336829486
Search$QueryThread.run,0.0,0.0,0.0,0.0,0.0
Searcher.createWeight,0.00197297674415939,0.0,0.00013569767450166562,0.0,0.0021086744186610555
SegmentReader.norms,0.0,0.0,0.0,0.0,0.0
SegmentReader.openNorms,0.0,0.0,0.0,0.0,0.0
SegmentTermDocs.<init>,0.0,0.0,0.0,0.0,0.0
SegmentTermEnum.next,0.0,0.0903450531980014,0.0,0.01784877893971041,0.1081938321377118
SegmentTermEnum.scanTo,0.041045402930101,0.010533235582948084,0.0032056651264052247,0.0021915021451167646,0.05697580578457107
SegmentTermEnum.term,0.02446428496906324,0.0,0.0014447814261720016,0.0,0.025909066395235242
StandardAnalyzer.tokenStream,0.0,0.0,0.0,0.0,0.0
StandardTokenizerImpl.<init>,0.023381438480117808,0.042696128959168134,0.0017268701730658832,0.008897584841714193,0.07670202245406603
TermBuffer.compareChars,0.00715698183475075,0.0,0.0005371220812429819,0.0,0.007694103915993732
TermBuffer.set,0.0,0.0,0.0,0.0,0.0
TermInfosReader.ensureIndexIsRead,0.019930507662882357,0.0,0.0017506626100671214,0.0,0.02168117027294948
TermInfosReader.get,0.0,0.038365770040073924,0.0,0.01041944671735806,0.048785216757431984
TermInfosReader.getMaxSkipLevels,0.001620276276268639,0.0,0.00011536036049961125,0.0,0.0017356366367682501
TestHarness.twoDecimalPlaces,0.0,0.0,0.0,0.0,0.0
Token.clone,0.017300868015640517,0.0,0.0014996706121569055,0.0,0.018800538627797424
Tokenizer.close,0.011149697667243587,0.0,0.0009337702185394074,0.0,0.012083467885782994
TopDocCollector.<init>,0.0,0.0,0.0,0.0,0.0
TopDocCollector.getTotalHits,0.027225393939454192,0.0,0.0025986363636382693,0.0,0.029824030303092462
UTF8.utf8Length,0.0,0.0,0.0,0.0,0.0
UnicodeUtil$UTF16Result.copyText,0.012197248656568743,0.04764892423883327,0.0004859637232593735,0.008951194097996218,0.0692833307166576
UnicodeUtil$UTF16Result.setLength,0.0,0.06373482773017736,0.0,0.013858172269236,0.07759299999941335
UnicodeUtil.UTF8toUTF16,0.008615467071652337,0.024118802067596763,0.0007387715883042968,0.00512307567003574,0.03859611639758914
