method,hits
AccessController.doPrivileged,1
ArrayList.rangeCheck,1
Arrays.copyOf,1
BufferedReader.readLine,1
ClassLoader.defineClass1,1
FileOutputStream.writeBytes,3
Inflater.inflate,1
Inflater.inflateBytes,8
Inflater.setInput,1
JarFile.getManifestFromReference,1
JarFile.initializeVerifier,1
RandomAccessFile.readBytes,3
RandomAccessFile.seek0,3
String.intern,1
StringReader.read,2
ThreadLocal$ThreadLocalMap.access$000,1
ThreadLocal$ThreadLocalMap.getEntry,1
Throwable.fillInStackTrace,8
URLClassLoader.findClass,1
ZipInputStream.readLOC,1
