method,package1,package2,dram1,dram2,energy
java.io,0.009168814814849477,0.026789769231422376,0.0008277777777510452,0.006497307692860397,0.04328366951688329
java.lang,0.023073498023316395,0.07017652050577362,0.001568672281515498,0.014306974471104747,0.10912566528171026
java.util,0.07782345262661503,0.12339996803044895,0.005675716912617987,0.030959373147455067,0.237858510717137
java.util.zip,0.0,0.0,0.0,0.0,0.0
