method,package1,package2,dram1,dram2,energy
ArrayList,0.0,0.0023878460223648343,0.0,0.00035311800861377536,0.0027409640309786097
Arrays,0.02863360397838704,0.0,0.0023984088779410995,0.0,0.031032012856328138
BufferedInputStream,0.0,0.0,0.0,0.0,0.0
ClassLoader,0.0,0.0,0.0,0.0,0.0
CodeSource,0.0,0.0,0.0,0.0,0.0
FileOutputStream,0.0,0.0,0.0,0.0,0.0
Hashtable,0.0,0.0,0.0,0.0,0.0
Inflater,0.0,0.13899548484606025,0.0,0.022238636364460093,0.16123412121052033
JarURLConnection,0.0,0.009479409937903369,0.0,0.0017254658385309368,0.011204875776434305
Manifest,0.0,0.0,0.0,0.0,0.0
RandomAccessFile,0.0,0.0,0.0,0.0,0.0
String,0.013132950534097671,0.0,0.0012943878701245565,0.0,0.014427338404222228
StringBuilder,0.0,0.0,0.0,0.0,0.0
Throwable,0.002103145058219813,0.03505656718730087,0.00015081792662466348,0.008127470800838374,0.04543800097298372
