method,package1,package2,dram1,dram2,energy
java.io,0.052211288456845625,0.0008553125897927327,0.003430522529635569,0.00022762000044602784,0.05672474357671996
java.lang,0.12862252893931136,0.06346836183503184,0.009387372659216561,0.013243808248189848,0.21472207168174964
java.util,0.0,0.0,0.0,0.0,0.0
java.util.jar,0.0,0.0,0.0,0.0,0.0
java.util.regex,0.06055612575605609,0.0,0.004536111677007366,0.0,0.06509223743306346
java.util.zip,0.34676643861758166,0.0,0.027235463891901294,0.0,0.37400190250948295
javassist.bytecode,0.11961410852898464,0.0,0.004790202046636687,0.0,0.12440431057562133
org.apache.lucene.analysis,0.0010454358974432882,0.0,0.00010500000028584439,0.0,0.0011504358977291326
org.apache.lucene.analysis.standard,0.09091289202437221,0.08328540233917728,0.006629826928348719,0.01920780850092163,0.20003592979281984
org.apache.lucene.document,0.0,0.0,0.0,0.0,0.0
org.apache.lucene.index,0.18160795961591883,0.18660028087840394,0.012465000765130884,0.03982645939451228,0.42049970065396597
org.apache.lucene.queryParser,0.029523623129499438,0.15059735696415902,0.0025904618271512117,0.03361946478189954,0.2163309067027092
org.apache.lucene.search,0.019728121457498905,0.0,0.00133671390032037,0.0,0.021064835357819275
org.apache.lucene.store,0.11516977483112692,0.14235442421956823,0.008471527825495019,0.03290541036367125,0.2989011372398614
org.apache.lucene.util,0.04225601431575853,0.1359060070686677,0.003266737528022541,0.02425657098235743,0.2056853298948062
org.dacapo.harness,0.061953667562104235,0.0,0.004537561367133436,0.0,0.06649122892923767
org.dacapo.lusearch,0.0021413333333839546,0.00944710048658376,0.0004950000008345038,0.0019693107831360405,0.014052744603938258
org.dacapo.parser,0.0,0.0,0.0,0.0,0.0
sun.reflect,0.0,0.0,0.0,0.0,0.0
