method,hits
AbstractField.<init>,2
AbstractStringBuilder.append,1
ArrayList.<init>,1
Arrays.copyOf,1
Benchmark.fileFromInputStream,1
BufferedIndexInput.readByte,1
BufferedIndexInput.readBytes,17
BufferedIndexInput.refill,5
BufferedOutputStream.flush,1
BufferedReader.readLine,2
CharArraySet.getSlot,1
CodeSource.getCertificates,1
ConfigFile.jj_consume_token,1
DirectoryIndexReader$1.doBody,1
FSDirectory$FSIndexInput.<init>,1
FSDirectory$FSIndexInput.readInternal,2
FastCharStream.refill,2
FieldInfos.fieldName,1
FileOutputStream.open0,3
FileOutputStream.writeBytes,4
HashMap.getNode,1
Hashtable.get,1
HitQueue.<init>,2
IndexInput.readVInt,1
IndexReader.ensureOpen,1
Inflater.inflateBytes,9
Integer.stringSize,1
Lusearch.iterate,1
Math.min,1
MethodAccessorGenerator.generate,1
Object.clone,4
Query.weight,3
QueryParser.<init>,1
QueryParser.Term,1
QueryParser.discardEscapeChar,1
QueryParser.getFieldQuery,2
QueryParser.jj_2_1,1
QueryParser.jj_3_1,1
QueryParser.jj_ntk,1
QueryParser.jj_save,1
QueryParser.parse,1
QueryParserTokenManager.jjMoveNfa_3,2
RandomAccessFile.readBytes,9
RandomAccessFile.seek,1
RandomAccessFile.seek0,1
Search$QueryProcessor.run,3
SegmentReader.docFreq,2
SegmentReader.document,1
SegmentReader.norms,1
SegmentTermDocs.read,1
SegmentTermDocs.seek,2
SegmentTermEnum.next,19
SegmentTermEnum.prev,2
SegmentTermEnum.scanTo,20
Similarity.idf,1
SimpleCharStream.BeginToken,1
StandardAnalyzer.tokenStream,1
StandardTokenizer.next,1
StandardTokenizerImpl.<init>,23
StandardTokenizerImpl.zzUnpackCMap,1
String.<init>,1
String.compareTo,1
String.format,1
String.intern,2
String.replace,1
StringReader.read,3
Term.<init>,1
Term.compareTo,5
TermBuffer.compareChars,1
TermBuffer.read,1
TermBuffer.set,1
TermInfosReader.ensureIndexIsRead,2
TermInfosReader.get,4
TermQuery$TermWeight.<init>,1
TermQuery$TermWeight.scorer,1
TermQuery.access$000,1
TermScorer.<init>,1
Throwable.fillInStackTrace,9
Throwable.getStackTraceElement,1
Token.termBuffer,1
TopDocCollector.<init>,2
UTF8.encode,2
UnicodeUtil$UTF16Result.copyText,3
UnicodeUtil$UTF16Result.setLength,1
UnicodeUtil.UTF8toUTF16,15
ZipFile$ZipEntryIterator.hasNext,1
