method,package1,package2,dram1,dram2,energy
Chaperone.main,0.0534297003466445,0.0,0.011073527181199836,0.0,0.06450322752784433
ChiLogger$SingleLineFormatter.format|StreamHandler.publish|ConsoleHandler.publish,0.0,0.010498722063612749,0.0,0.0012968114954181452,0.011795533559030895
ChiPointer.<init>|VertexData.getVertexValuePtr|GraphChiEngine.initVertices,0.037028000000039654,0.042299448098651125,0.00817500000024059,0.008993412822218357,0.09649586092114971
ChiVertex.<init>|GraphChiEngine.initVertices|GraphChiEngine.run,1.1431333916645146,4.595552908662521,0.17256649999192933,1.1335476506659357,7.0448004509849005
ChiVertex.getValue|Pagerank.update|GraphChiEngine$3.run,0.012904276994095477,0.0005164367092013859,0.00231102534076318,8.332894455820479e-05,0.015815067988618245
ChiVertex.numOutEdges|Pagerank.update|GraphChiEngine$3.run,0.010210880186107439,0.0,0.001613447451664044,0.0,0.011824327637771482
ChiVertex.setValue|Pagerank.update|GraphChiEngine$3.run,0.0,0.017103616716236156,0.0,0.00500390980859231,0.022107526524828468
DataBlockManager.dereference|ChiVertex.getValue|Pagerank.update,0.02267659999991641,0.01712340587524236,0.005602999999973691,0.0038873195624596173,0.04929032543759207
DataBlockManager.getRawBlock|DataBlockManager.dereference|ChiVertex.getValue,0.010165728834225124,0.0,0.001893351456185253,0.0,0.012059080290410376
DataBlockManager.getRawBlock|DataBlockManager.dereference|VertexAggregator.foreach,0.031048223005395233,0.0,0.004510648217402374,0.0,0.035558871222797606
DataBlockManager.getRawBlock|DataBlockManager.writeValue|ChiVertex.setValue,0.07420191104850697,0.01372279205277195,0.016322951496011828,0.0042785929293380105,0.10852624752662876
DataBlockManager.writeValue|ChiVertex.setValue|Pagerank.update,0.01233468372409782,0.01067049999994832,0.0023721813498646226,0.001425000000005913,0.02680236507391668
DateFormatProviderImpl.getInstance|DateFormatProviderImpl.getTimeInstance|DateFormat.get,0.0,0.010539873285593724,0.0,0.001577972147693926,0.012117845433287651
DecimalFormatSymbolsProviderImpl.getInstance|DecimalFormatSymbols.getInstance|NumberFormatProviderImpl.getInstance,0.0,0.011363763978322557,0.0,0.0015797739193816962,0.012943537897704253
DefaultMBeanServerInterceptor.registerMBean|JmxMBeanServer$2.run|AccessController.doPrivileged,0.0,0.041985610170434645,0.0,0.005937383274878914,0.04792299344531356
DefaultMXBeanMappingFactory.getMapping|DefaultMXBeanMappingFactory.mappingForType|ConvertingMethod.<init>,0.0,0.049124609274374245,0.0,0.007140264556105278,0.056264873830479525
DegreeData.getDegree|GraphChiEngine.determineNextWindow|GraphChiEngine.run,0.6967935187128815,2.0327282161354225,0.10654813157672295,0.34475765648645446,3.1808275229114815
DegreeData.getDegree|GraphChiEngine.initVertices|GraphChiEngine.run,0.15077700000013766,1.192587588926719,0.02470999999786727,0.2806850667839035,1.6487596557086275
DegreeData.load|GraphChiEngine.determineNextWindow|GraphChiEngine.run,0.0,0.01519605074691021,0.0,0.0029608348299554866,0.018156885576865695
ExponentiallyDecayingSample.<init>|ExponentiallyDecayingSample.<init>|Histogram$SampleType$2.newSample,0.0,0.04468836878946125,0.0,0.006463807854532487,0.05115217664399374
ExponentiallyDecayingSample.update|ExponentiallyDecayingSample.update|Histogram.update,0.026997833333249822,0.0,0.0047349999998308094,0.0,0.031732833333080634
FloatConverter.getValue|FloatConverter.getValue|DataBlockManager.dereference,0.0,0.01757436312373576,0.0,0.002989261240332888,0.02056362436406865
FloatConverter.setValue|FloatConverter.setValue|DataBlockManager.writeValue,0.0,0.02078712329532673,0.0,0.005703692786704062,0.026490816082030792
GraphChiContext.getIteration|Pagerank.update|GraphChiEngine$3.run,0.0017895199998747555,0.0,0.0003222000002278946,0.0,0.00211172000010265
GraphChiEngine$2.run|Executors$RunnableAdapter.call|FutureTask.run,10.184054778330355,0.0,1.4293526032109984,0.0,11.613407381541354
GraphChiEngine$3.run|Executors$RunnableAdapter.call|FutureTask.run,0.23156107686844407,0.1396488104003665,0.043931115820059534,0.025925443958560557,0.44106644704743064
GraphChiEngine.createMemoryShard|GraphChiEngine.run|Pagerank.main,0.054775066666510004,0.0,0.007091499999781564,0.0,0.06186656666629157
GraphChiEngine.determineNextWindow|GraphChiEngine.run|Pagerank.main,0.14817299999989092,0.1428079510871878,0.02108999999957935,0.029827320496255222,0.3418982715829133
GraphChiEngine.execUpdates|GraphChiEngine.run|Pagerank.main,0.0,0.013387066666230869,0.0,0.003246999999828404,0.016634066666059273
GraphChiEngine.initVertices|GraphChiEngine.run|Pagerank.main,0.44598720833281125,1.852752365832902,0.07063150000043,0.40385650555504066,2.773227579721184
Handler.parseURL|URL.<init>|URL.<init>,0.0,0.05127805862641468,0.0,0.006422724943435836,0.05770078356985051
ImmutableDescriptor.makeMap|ImmutableDescriptor.makeMap|ImmutableDescriptor.<init>,0.0,0.049811436955207226,0.0,0.007519243990173931,0.05733068094538116
JarURLConnection.getInputStream|URL.openStream|ClassLoader.getSystemResourceAsStream,0.0,0.02434906636926391,0.0,0.0041409434049635725,0.028490009774227484
JmxReporter.<init>|JmxReporter.startDefault|Metrics.<clinit>,0.0,0.12672646098995966,0.0,0.017758382570508588,0.14448484356046826
Launcher$AppClassLoader.loadClass|ClassLoader.loadClass|Pagerank.main,0.0,0.010498722063612749,0.0,0.0012968114954181452,0.011795533559030895
LocaleData$1.run|LocaleData$1.run|AccessController.doPrivileged,0.0,0.007220444638663295,0.0,0.0008966072148078066,0.008117051853471101
MBeanInfo.<init>|MBeanInfo.<init>|MBeanServerDelegateImpl.<init>,0.0,0.049811436955207226,0.0,0.007519243990173931,0.05733068094538116
MBeanInstantiator.<clinit>|JmxMBeanServer.<init>|JmxMBeanServer.newMBeanServer,0.0,0.05034516670007855,0.0,0.007898779509750166,0.058243946209828715
MemberResolver.lookupMethod|TypeChecker.atMethodCallCore|TypeChecker.atCallExpr,0.0,0.0,0.0,0.0,0.0
MemoryShard.loadAdjChunk|MemoryShard.access$000|MemoryShard$1.run,0.0,0.0,0.0,0.0,0.0
MetaIndex.mayContain|URLClassPath$JarLoader.getResource|URLClassPath.getResource,0.0,0.02434906636926391,0.0,0.0041409434049635725,0.028490009774227484
NOPLoggerFactory.getLogger|LoggerFactory.getLogger|LoggerFactory.getLogger,0.0,0.05336868007634814,0.0,0.008136008695259102,0.06150468877160724
NumberFormatProviderImpl.getInstance|NumberFormatProviderImpl.getIntegerInstance|NumberFormat.getInstance,0.0,0.011363763978322557,0.0,0.0015797739193816962,0.012943537897704253
Pagerank.update|GraphChiEngine$3.run|Executors$RunnableAdapter.call,10.561506455503643,0.10180433097774065,1.4897867496290966,0.025683274011020947,12.178780810121502
ParseUtil.encodePath|URLClassPath$FileLoader.getResource|URLClassPath.getResource,0.0,0.03675856878982925,0.0,0.004511009353502531,0.04126957814333178
PerInterface$InitMaps.visitOperation|MBeanAnalyzer.visit|PerInterface.<init>,0.0,0.04472360553219498,0.0,0.005774587342435494,0.050498192874630476
RandomAccessFile.read_|RandomAccessFile.readBytes|RandomAccessFile.read,0.12591583333354114,0.03851349962693915,0.021890000002410183,0.012908813637834637,0.1992281466007251
RandomAccessFile.writeBytes|RandomAccessFile.write|VertexData.releaseAndCommit,0.03097619741894956,0.10453874938249008,0.004494265524455817,0.023262943163941372,0.1632721554898368
Repository.<init>|Repository.<init>|JmxMBeanServer.<init>,0.0,0.041985610170434645,0.0,0.005937383274878914,0.04792299344531356
Resource.getBytes|URLClassLoader.defineClass|URLClassLoader.access$100,0.0,0.10823428843673803,0.0,0.016525189644034773,0.12475947808077281
ThreadPools.newScheduledThreadPool|MetricsRegistry.newMeterTickThreadPool|MetricsRegistry.newTimer,0.0,0.043612360521677544,0.0,0.005346439171051965,0.04895879969272951
Toplist$1.callback|Toplist$1.callback|VertexAggregator.foreach,0.05065076200289436,0.0,0.011721391892238971,0.0,0.06237215389513333
Utf8Info.<init>|ConstPool.readOne|ConstPool.read,0.0,0.05336868007634814,0.0,0.008136008695259102,0.06150468877160724
Util.newObjectName|MBeanServerDelegate.<clinit>|JmxMBeanServer.newMBeanServerDelegate,0.0,0.05127805862641468,0.0,0.006422724943435836,0.05770078356985051
VertexAggregator.foreach|Toplist.topListFloat|Pagerank.main,0.048052442148923805,0.0,0.008652126581224691,0.0,0.056704568730148494
VertexData.getVertexValuePtr|GraphChiEngine.initVertices|GraphChiEngine.run,0.07067116666629165,0.30133706336621696,0.012339999999615733,0.06922905014321663,0.45357728017534094
VertexData.getVertexValuePtr|VertexAggregator.foreach|Toplist.topListFloat,0.20513475337915993,0.0,0.040974224024797404,0.0,0.24610897740395732
