method,hits
AnnotationParser.parseSig,2
AttributeInfo.<init>,2
Chaperone.main,2
ChiLogger$SingleLineFormatter.format,2
ChiPointer.<init>,4
ChiVertex.<init>,418
ChiVertex.getValue,6
ChiVertex.inEdge,24
ChiVertex.numInEdges,4
ChiVertex.numOutEdges,4
ChiVertex.setDataPtr,4
ChiVertex.setValue,10
CodeAttribute.<init>,4
DataBlockManager.<init>,2
DataBlockManager.dereference,14
DataBlockManager.getRawBlock,18
DataBlockManager.writeValue,4
DefaultMXBeanMappingFactory.<clinit>,2
DegreeData.getDegree,252
DegreeData.load,10
ExponentiallyDecayingSample.update,2
FileURLConnection.getPermission,2
FloatConverter.getValue,10
GraphChiContext.getIteration,4
GraphChiEngine$2.run,62
GraphChiEngine$3.run,132
GraphChiEngine.determineNextWindow,54
GraphChiEngine.initVertices,178
Introspector.getMXBeanInterface,2
JmxMBeanServer.<init>,2
JmxReporter.<init>,6
Launcher$AppClassLoader.loadClass,2
LocaleData.getBundle,2
LocaleProviderAdapter.<clinit>,2
LoggerFactory.<clinit>,2
MBeanNotificationInfo.<init>,2
MBeanServerBuilder.newMBeanServerDelegate,2
MXBeanSupport.getMBeanIntrospector,2
MemoryShard.loadAdjChunk,2
Meter.<init>,2
Metrics.<clinit>,2
NOPLoggerFactory.getLogger,2
NotificationBroadcasterSupport.<clinit>,2
NumberFormatProviderImpl.getInstance,2
ObjectName.construct,2
Pagerank.update,50
ParallelListResourceBundle.keySet,2
RandomAccessFile.read_,16
RandomAccessFile.writeBytes,32
Resource.getBytes,2
Toplist$1.callback,4
UTF_8$Encoder.encodeArrayLoop,1
Utf8Info.<init>,2
VertexAggregator.foreach,4
VertexData$1.next,2
VertexData.access$100,2
VertexData.getVertexValuePtr,52
