method,hits
AnnotationParser.parseSig,2
ChiPointer.<init>,4
ChiVertex.<init>,418
ChiVertex.getValue,6
ChiVertex.inEdge,24
ChiVertex.numInEdges,4
ChiVertex.numOutEdges,4
ChiVertex.setDataPtr,4
ChiVertex.setValue,10
DataBlockManager.dereference,12
DataBlockManager.getRawBlock,6
DataBlockManager.writeValue,4
DefaultMXBeanMappingFactory.<clinit>,2
DegreeData.getDegree,252
FileURLConnection.getPermission,2
GraphChiContext.getIteration,4
GraphChiEngine$2.run,62
GraphChiEngine$3.run,132
GraphChiEngine.determineNextWindow,54
GraphChiEngine.initVertices,178
Introspector.getMXBeanInterface,2
JmxMBeanServer.<init>,2
LocaleData.getBundle,2
LocaleProviderAdapter.<clinit>,2
LoggerFactory.<clinit>,2
MBeanNotificationInfo.<init>,2
MBeanServerBuilder.newMBeanServerDelegate,2
MXBeanSupport.getMBeanIntrospector,2
MemoryShard.loadAdjChunk,2
Metrics.<clinit>,2
NOPLoggerFactory.getLogger,2
NotificationBroadcasterSupport.<clinit>,2
NumberFormatProviderImpl.getInstance,2
ObjectName.construct,2
Pagerank.update,20
ParallelListResourceBundle.keySet,2
UTF_8$Encoder.encodeArrayLoop,1
VertexAggregator.foreach,4
VertexData.access$100,2
VertexData.getVertexValuePtr,52
