method,package1,package2,dram1,dram2,energy
ChiPointer,0.012664783997064246,0.029909637250324625,0.0024730302646328297,0.005522500000890931,0.05056995151291264
ChiVertex,1.8739657141790829,2.2406337146968562,0.29281266365469505,0.40497299542786214,4.812385087958496
ClassLoadingImpl,0.018062396455912778,0.0,0.0025369619824002747,0.0,0.02059935843831305
DataBlockManager,0.023851728822492042,0.13052393929192477,0.005821213709086349,0.03440374999933002,0.19460063182283316
DegreeData,1.253749657500034,0.9600688789297132,0.18858517957501575,0.15912253516449026,2.561526251169253
FloatConverter,0.0,0.01879944588698189,0.0,0.006278482295128931,0.02507792818211082
GraphChiEngine,1.127226674011046,1.3502706766333572,0.17154823401426836,0.24021746320082982,2.889263047859501
GraphChiEngine$2,0.07015490639347646,0.09187405196125448,0.012144304138740906,0.027681303419582824,0.20185456591305467
GraphChiEngine$3,0.01868489860406504,0.19674052280969567,0.0021531075503074216,0.04589538128099321,0.26347391024506134
ImmutableDescriptor,0.03205589332668679,0.0,0.00424609772501155,0.0,0.03630199105169834
JmxMBeanServer,0.0674683822433399,0.0,0.007650312020764686,0.0,0.07511869426410459
LocaleData$1,0.0,0.10410575000302438,0.0,0.013164374999026524,0.1172701250020509
MBeanAnalyzer,0.019986158461724062,0.0,0.002501307969541656,0.0,0.02248746643126572
MBeanNotificationInfo,0.0367723025171561,0.0,0.005701237292698314,0.0,0.04247353980985442
MBeanServerBuilder,0.0367723025171561,0.0,0.005701237292698314,0.0,0.04247353980985442
MXBeanIntrospector,0.021279450048373956,0.0,0.003034473878713039,0.0,0.024313923927086995
MemoryPoolImpl,0.03350277267352249,0.0,0.0038749654982100632,0.0,0.03737773817173255
MemoryShard,0.0,0.01295299999926808,0.0,0.0020550000004328057,0.015007999999700886
NOPLoggerFactory,0.015568061548891447,0.0,0.0024059318941881424,0.0,0.01797399344307959
NotificationBroadcasterSupport,0.03205589332668679,0.0,0.00424609772501155,0.0,0.03630199105169834
Pagerank,0.019742608993081414,0.04172072926685441,0.00391921410718725,0.008445091729428278,0.07382764409655136
Repository,0.014397315915105796,0.0,0.0017500575932090424,0.0,0.016147373508314838
VertexAggregator,0.0,0.05720333332849097,0.0,0.013599999999011441,0.07080333332750241
VertexData,1.1681049237914418,0.3319456666513967,0.16708505523605563,0.06755150000162757,1.7346871456805217
VertexData$1,0.0,0.05948900000172823,0.0,0.015740000000126503,0.07522900000185473
