method,hits
AuxLocaleProviderAdapter.<init>,2
ChiVertex.<init>,366
ChiVertex.getValue,6
ChiVertex.numOutEdges,2
ChiVertex.setDataPtr,4
ChiVertex.setValue,2
DataBlockManager.dereference,14
DataBlockManager.getRawBlock,16
DataBlockManager.writeValue,8
DefaultMXBeanMappingFactory.<clinit>,2
DefaultMXBeanMappingFactory.makeTabularMapping,2
DegreeData.getDegree,206
ExponentiallyDecayingSample.update,4
FloatConverter.setValue,8
GraphChiEngine$2.run,172
GraphChiEngine$3.run,76
GraphChiEngine.determineNextWindow,36
GraphChiEngine.execUpdates,2
GraphChiEngine.initVertices,204
Gregorian.newCalendarDate,2
JmxMBeanServer.<init>,2
LoggerFactory.<clinit>,2
MBeanNotificationInfo.<init>,2
MBeanServerBuilder.newMBeanServerDelegate,2
Metrics.<clinit>,2
NOPLoggerFactory.getLogger,2
NotificationBroadcasterSupport.<clinit>,2
Pagerank.main,2
Pagerank.update,12
ParseUtil.encodePath,2
ReflectionFactory.langReflectAccess,2
Repository.<init>,2
Toplist$1.callback,4
URLClassPath.getLoader,2
VertexAggregator.foreach,16
VertexData$1.hasNext,6
VertexData.getVertexValuePtr,78
