method,package1,package2,dram1,dram2,energy
ArrayList,0.11686036557445448,0.07688441711437326,0.025976960201637846,0.016341836710781054,0.2360635796012466
BufferedInputStream,0.1035156666681966,0.0,0.012234999999539769,0.0,0.11575066666773637
Class,0.06933599999926324,0.0,0.009000000000620881,0.0,0.07833599999988412
ClassLoader,0.07743333333322273,0.0,0.01089999999870391,0.0,0.08833333333192664
Collections,0.13205763333304882,0.0,0.015981249999822464,0.0,0.1480388833328713
ConcurrentHashMap,0.04947933333338976,0.0,0.006880000000819563,0.0,0.056359333334209324
Currency,0.07322166666563135,0.0,0.010969999998148218,0.0,0.08419166666377956
Executors,0.050290079365368,0.0,0.005701666665868649,0.0,0.05599174603123665
Float,0.06149401856778779,0.0528077685372292,0.014083551360379039,0.00947321993908995,0.13785855840448596
Integer,0.049957298724230645,0.0,0.009634477564104042,0.0,0.05959177628833469
LinkedBlockingQueue,0.0,0.013651323628855981,0.0,0.0031128726828929107,0.016764196311748893
ManagementFactory,0.06566666666714645,0.0,0.008985454546442874,0.0,0.07465212121358933
Matcher,0.00927510000184197,0.0,0.001522614364685075,0.0,0.010797714366527045
RandomAccessFile,0.3576369329777513,0.014188672593155883,0.0852494053190386,0.0019014421573865267,0.45897645304733226
System,0.07821342790835537,0.0,0.01720097457028383,0.0,0.0954144024786392
Thread,0.0,0.0,0.0,0.0,0.0
TreeSet,0.11876258583632962,0.0,0.0307697703670674,0.0,0.14953235620339703
