method,package1,package2,dram1,dram2,energy
AbstractOwnableSynchronizer.getExclusiveOwnerThread|ReentrantLock$Sync.tryRelease|AbstractQueuedSynchronizer.release,0.04170733333497385,0.0,0.00623500000074273,0.0,0.04794233333571658
AbstractQueuedSynchronizer.release|ThreadPoolExecutor$Worker.unlock|ThreadPoolExecutor.runWorker,0.013908530735825007,0.0,0.0010310909089186829,0.0,0.014939621644743691
ArrayList.elementData|ArrayList.get|DataBlockManager.getRawBlock,0.4605913333337715,0.027858632577855168,0.07390999999915947,0.009199727164009595,0.5715596930747957
ArrayList.rangeCheck|ArrayList.get|DataBlockManager.getRawBlock,0.05259841049134466,0.013399502009348212,0.006272383864767166,0.003048786265197465,0.0753190826306575
BufferedInputStream.read|DataInputStream.readUnsignedShort|ClassInfo.<init>,0.0,0.06373485394566528,0.0,0.006634939411431124,0.0703697933570964
ByteArrayOutputStream.<init>|ProxyGenerator$MethodInfo.<init>|ProxyGenerator$ProxyMethod.generateMethod,0.0,0.06745487444713756,0.0,0.009855923595458213,0.07731079804259577
Class.getConstantPool|Class.createAnnotationData|Class.annotationData,0.0,0.04738563431802682,0.0,0.007065474426542031,0.054451108744568856
ClassLoader.defineClass1|ClassLoader.defineClass|SecureClassLoader.defineClass,0.0,0.11341485501835188,0.0,0.017305698818845618,0.1307205538371975
ClassLoader.findLoadedClass0|ClassLoader.findLoadedClass|ClassLoader.loadClass,0.0,0.0692506286352614,0.0,0.007594976995858135,0.07684560563111953
DataInputStream.readInt|AttributeInfo.<init>|LineNumberAttribute.<init>,0.0,0.07620557865335414,0.0,0.010416565006103828,0.08662214365945797
FileInputStream.readBytes|FileInputStream.read|CompressedIO.readCompressed,0.0,0.0,0.0,0.0,0.0
Float.<init>|Float.valueOf|Pagerank.update,0.0010971993954491568,0.015229611093785686,0.000128662320292334,0.002704343985433523,0.0191598167949607
Float.floatValue|Pagerank.update|GraphChiEngine$3.run,7.525191986847205e-06,0.0,8.699531410649487e-07,0.0,8.395145127912153e-06
Float.valueOf|FloatConverter.getValue|FloatConverter.getValue,0.07426872319173437,0.010972994944325312,0.010606368300815835,0.0018935793731358684,0.09774166581001138
Float.valueOf|Pagerank.update|GraphChiEngine$3.run,0.00999275717068698,0.0,0.0015415622389537095,0.0,0.011534319409640689
Integer.valueOf|VertexData$1.next|VertexData$1.next,0.05885833333256111,0.0,0.009479999998196337,0.0,0.06833833333075745
LogRecord.isLoggerImplFrame|LogRecord.inferCaller|LogRecord.getSourceMethodName,0.0,0.0,0.0,0.0,0.0
Logger.<init>|Logger.<clinit>|ChiLogger.getLogger,0.0,0.0,0.0,0.0,0.0
ManagementFactory$2.run|ManagementFactory$2.run|AccessController.doPrivileged,0.0,0.04738563431802682,0.0,0.007065474426542031,0.054451108744568856
RandomAccessFile.readBytes|RandomAccessFile.read|RandomAccessFile.read_,0.19285066666634518,0.33061071345383203,0.030274999999771048,0.07213732945474313,0.6258737095746914
RandomAccessFile.writeBytes|RandomAccessFile.write|RandomAccessFile.writeBytes,0.02151624341927819,0.197258850694273,0.003213729782982311,0.03955411953971325,0.2615429434362468
ReentrantReadWriteLock.<init>|Repository.<init>|Repository.<init>,0.0,0.07180294344056874,0.0,0.0090405695244353,0.08084351296500404
ScheduledThreadPoolExecutor.<init>|Executors.newScheduledThreadPool|ThreadPools.newScheduledThreadPool,0.0,0.08165943164343883,0.0,0.010388534955653103,0.09204796659909194
System.arraycopy|DegreeData.load|GraphChiEngine.determineNextWindow,0.01854880552349538,0.09680174999448354,0.004030861878973216,0.025644999997894047,0.14502641739484617
Throwable.fillInStackTrace|Throwable.fillInStackTrace|Throwable.<init>,0.0,0.0429584441937476,0.0,0.005660672418423366,0.048619116612170964
TimeZone.getTimeZone|TimeZone.setDefaultZone|TimeZone.getDefaultRef,0.0,0.0,0.0,0.0,0.0
TreeMap$KeyIterator.<init>|TreeMap.keyIterator|TreeMap$KeySet.iterator,0.0,0.07125975690439382,0.0,0.008304390388171748,0.07956414729256557
URLClassLoader.findClass|ClassLoader.loadClass|Launcher$AppClassLoader.loadClass,0.0,0.060207336260757596,0.0,0.007286561006499527,0.06749389726725713
WeakHashMap.getTable|WeakHashMap.remove|ZipFile$ZipFileInputStream.close,0.0,0.02204087872692239,0.0,0.003426845003352723,0.025467723730275112
