method,package1,package2,dram1,dram2,energy
AbstractExecutorService.newTaskFor|AbstractExecutorService.submit|GraphChiEngine.execUpdates,0.0,0.013387066666230869,0.0,0.003246999999828404,0.016634066666059273
AbstractStringBuilder.<init>|StringBuffer.<init>|URLStreamHandler.toExternalForm,0.0,0.010498722063612749,0.0,0.0012968114954181452,0.011795533559030895
ArrayList.elementData|ArrayList.get|DataBlockManager.getRawBlock,0.03887935070783016,0.0009801222222449724,0.006207767463091984,0.00020337499999085494,0.04627061539315797
ArrayList.rangeCheck|ArrayList.get|DataBlockManager.getRawBlock,0.04664456007927524,0.012742669830526977,0.01030287119723622,0.0040752179293471556,0.0737653190363856
ConcurrentSkipListMap.doPut|ConcurrentSkipListMap.put|ExponentiallyDecayingSample.update,0.026997833333249822,0.0,0.0047349999998308094,0.0,0.031732833333080634
DataInputStream.readUnsignedShort|DataInputStream.readUTF|DataInputStream.readUTF,0.0,0.05336868007634814,0.0,0.008136008695259102,0.06150468877160724
Executors.newScheduledThreadPool|ThreadPools.newScheduledThreadPool|MetricsRegistry.newMeterTickThreadPool,0.0,0.043612360521677544,0.0,0.005346439171051965,0.04895879969272951
FileInputStream.open0|FileInputStream.open|FileInputStream.<init>,0.0,0.011363763978322557,0.0,0.0015797739193816962,0.012943537897704253
Float.<init>|Float.valueOf|Pagerank.update,0.7636766050179247,0.008321607409132526,0.13698586832931717,0.001849950410399646,0.910834031166774
Float.floatValue|Pagerank.update|GraphChiEngine$3.run,0.0011708597898282978,0.0007447610482170557,0.0002087138852643778,0.0001664998066664075,0.0022908345299761388
Float.valueOf|FloatConverter.getValue|FloatConverter.getValue,0.0,0.01757436312373576,0.0,0.002989261240332888,0.02056362436406865
Float.valueOf|Pagerank.update|GraphChiEngine$3.run,9.79038170843779,0.0014678109807998053,1.3514218045112818,0.0002104277043114363,11.143481751634186
FutureTask.set|FutureTask.run|ThreadPoolExecutor.runWorker,0.04693600000003546,0.0,0.004024999999577025,0.0,0.05096099999961249
HashSet.add|Collections$SynchronizedCollection.add|ClassLoader.checkPackageAccess,0.0,0.010498722063612749,0.0,0.0012968114954181452,0.011795533559030895
Inflater.inflateBytes|Inflater.inflate|InflaterInputStream.read,0.0,0.10823428843673803,0.0,0.016525189644034773,0.12475947808077281
ManagementFactory$2.run|ManagementFactory$2.run|AccessController.doPrivileged,0.0,0.05741061630244795,0.0,0.008045649171335477,0.06545626547378343
Pattern.closure|Pattern.sequence|Pattern.expr,0.0534297003466445,0.0,0.011073527181199836,0.0,0.06450322752784433
PlatformComponent.<clinit>|ManagementFactory.getPlatformMBeanServer|JmxReporter.<init>,0.0,0.06931584468751172,0.0,0.009712733399173112,0.07902857808668483
RandomAccessFile.readBytes|RandomAccessFile.read|RandomAccessFile.read_,0.12591583333354114,0.03851349962693915,0.021890000002410183,0.012908813637834637,0.1992281466007251
RandomAccessFile.writeBytes|RandomAccessFile.write|RandomAccessFile.writeBytes,0.03097619741894956,0.10453874938249008,0.004494265524455817,0.023262943163941372,0.1632721554898368
ReentrantReadWriteLock.<init>|Repository.<init>|Repository.<init>,0.0,0.041985610170434645,0.0,0.005937383274878914,0.04792299344531356
ResourceBundle$Control.<clinit>|LocaleData$1.run|LocaleData$1.run,0.0,0.007220444638663295,0.0,0.0008966072148078066,0.008117051853471101
SimpleDateFormat.initialize|SimpleDateFormat.<init>|DateFormatProviderImpl.getInstance,0.0,0.010539873285593724,0.0,0.001577972147693926,0.012117845433287651
String.indexOf|String.indexOf|URLStreamHandler.parseURL,0.0,0.05127805862641468,0.0,0.006422724943435836,0.05770078356985051
String.startsWith|String.startsWith|MetaIndex.mayContain,0.0,0.02434906636926391,0.0,0.0041409434049635725,0.028490009774227484
String.toUpperCase|JarFile.maybeInstantiateVerifier|JarFile.getInputStream,0.0,0.02434906636926391,0.0,0.0041409434049635725,0.028490009774227484
System.arraycopy|DegreeData.load|GraphChiEngine.determineNextWindow,0.0,0.01519605074691021,0.0,0.0029608348299554866,0.018156885576865695
Throwable.getStackTraceElement|System$2.getStackTraceElement|LogRecord.inferCaller,0.0,0.0,0.0,0.0,0.0
TimeZone.getSystemTimeZoneID|TimeZone.setDefaultZone|TimeZone.getDefaultRef,0.0,0.0,0.0,0.0,0.0
TreeMap.size|TreeSet.size|Toplist$1.callback,0.05065076200289436,0.0,0.011721391892238971,0.0,0.06237215389513333
