method,package1,package2,dram1,dram2,energy
AbstractStringBuilder.append|StringBuilder.append|ChiLogger$SingleLineFormatter.format,0.0,0.0009410603579638461,0.0,0.00013170136854295087,0.001072761726506797
ArrayList.elementData|ArrayList.get|DataBlockManager.getRawBlock,0.0,0.0,0.0,0.0,0.0
ArrayList.rangeCheck|ArrayList.get|DataBlockManager.getRawBlock,0.017289805241579404,0.053955117752630705,0.003532105199727109,0.014485825310295214,0.08926285350423242
BufferedInputStream.read|DataInputStream.readUnsignedShort|DataInputStream.readUTF,0.05172120000061113,0.0,0.007401000001118518,0.0,0.05912220000172965
BufferedInputStream.read|DataInputStream.readUnsignedShort|MemberrefInfo.<init>,0.05074066666646911,0.0,0.0072666666658026055,0.0,0.05800733333227172
Class.getDeclaredConstructors0|Class.privateGetDeclaredConstructors|Class.getConstructor0,0.05054919999965932,0.0,0.007386000000406057,0.0,0.05793520000006537
ExpiringCache.entryFor|ExpiringCache.get|UnixFileSystem.canonicalize,0.04771739999996498,0.0,0.006972000001405829,0.0,0.054689400001370805
Float.<init>|Float.valueOf|Pagerank.update,0.0,0.01566653271484207,0.0,0.002293329644118068,0.01795986235896014
Float.floatValue|Pagerank.update|GraphChiEngine$3.run,0.0,0.00033299066791322486,0.0,4.3375038357983054e-05,0.0003763657062712079
Float.valueOf|FloatConverter.getValue|FloatConverter.getValue,0.37902430074718513,0.0,0.05626071527461912,0.0,0.43528501602180425
Float.valueOf|Pagerank.update|GraphChiEngine$3.run,0.0,0.0021127486951491433,0.0,0.0005625350027276673,0.0026752836978768107
LogRecord.<init>|Logger.log|Logger.info,0.0,0.0008888125003068127,0.0,8.499999989908247e-05,0.0009738125002058952
Logger.<init>|Logger.<clinit>|ChiLogger.getLogger,0.0,0.0,0.0,0.0,0.0
ManagementFactory$2.run|ManagementFactory$2.run|AccessController.doPrivileged,0.04554749999988417,0.0,0.007668750000448199,0.0,0.053216250000332366
ManagementFactory.getPlatformMBeanServer|JmxReporter.<init>|JmxReporter.startDefault,0.06593833333317889,0.0,0.010994999999335656,0.0,0.07693333333251455
Pattern$Ctype.isSatisfiedBy|Pattern$BmpCharProperty.match|Pattern$Curly.match,0.0,0.029378333332715556,0.0,0.006219999998090012,0.035598333330805566
PlatformComponent.<clinit>|ManagementFactory.getPlatformMBeanServer|JmxReporter.<init>,0.05032350000055885,0.0,0.008249999998952262,0.0,0.058573499999511114
RandomAccessFile.readBytes|RandomAccessFile.read|RandomAccessFile.read_,0.16296966666562765,0.02256954945141508,0.02216727272697784,0.0033171106805216346,0.21102359952454217
RandomAccessFile.writeBytes|RandomAccessFile.write|RandomAccessFile.writeBytes,0.13826954915208667,0.007113145833197146,0.023580668030672318,0.0007249999999506447,0.16968836301590678
ReentrantReadWriteLock.<init>|Repository.<init>|Repository.<init>,0.04263299999911396,0.0,0.006135000001449953,0.0,0.048768000000563916
ResourceBundle.getBundleImpl|ResourceBundle.getBundle|LocaleData$1.run,0.03555919999998877,0.0,0.004928999999538063,0.0,0.04048819999952684
StringBuilder.append|Chaperone.retire|Chaperone.dismiss,0.0,0.0,0.0,0.0,0.0
System.arraycopy|DegreeData.load|GraphChiEngine.determineNextWindow,0.0,0.03688032919243219,0.0,0.010916914577756526,0.04779724377018872
UnixFileSystem.getBooleanAttributes0|UnixFileSystem.getBooleanAttributes|File.exists,0.06465666666675435,0.0,0.011020000000523092,0.0,0.07567666666727745
ZipFile.read|ZipFile.access$1400|ZipFile$ZipFileInputStream.read,0.027892999999797517,0.0,0.004139999999703528,0.0,0.032032999999501044
