method,package1,package2,dram1,dram2,energy
AbstractStringBuilder,0.0,0.0009410603579638461,0.0,0.00013170136854295087,0.001072761726506797
ArrayList,0.017289805241579404,0.053955117752630705,0.003532105199727109,0.014485825310295214,0.08926285350423242
BufferedInputStream,0.10246186666708024,0.0,0.014667666666921124,0.0,0.11712953333400136
Class,0.05054919999965932,0.0,0.007386000000406057,0.0,0.05793520000006537
ExpiringCache,0.04771739999996498,0.0,0.006972000001405829,0.0,0.054689400001370805
Float,0.37902430074718513,0.018112272077904442,0.05626071527461912,0.0028992396852037185,0.4562965277849124
LogRecord,0.0,0.0008888125003068127,0.0,8.499999989908247e-05,0.0009738125002058952
Logger,0.0,0.0,0.0,0.0,0.0
ManagementFactory,0.06593833333317889,0.0,0.010994999999335656,0.0,0.07693333333251455
ManagementFactory$2,0.04554749999988417,0.0,0.007668750000448199,0.0,0.053216250000332366
Pattern$Ctype,0.0,0.029378333332715556,0.0,0.006219999998090012,0.035598333330805566
PlatformComponent,0.05032350000055885,0.0,0.008249999998952262,0.0,0.058573499999511114
RandomAccessFile,0.3012392158177143,0.029682695284612225,0.04574794075765016,0.004042110680472279,0.3807119625404489
ReentrantReadWriteLock,0.04263299999911396,0.0,0.006135000001449953,0.0,0.048768000000563916
ResourceBundle,0.03555919999998877,0.0,0.004928999999538063,0.0,0.04048819999952684
StringBuilder,0.0,0.0,0.0,0.0,0.0
System,0.0,0.03688032919243219,0.0,0.010916914577756526,0.04779724377018872
UnixFileSystem,0.06465666666675435,0.0,0.011020000000523092,0.0,0.07567666666727745
ZipFile,0.027892999999797517,0.0,0.004139999999703528,0.0,0.032032999999501044
