method,Energy
org.h2.index,25.825165685445157
org.h2.table,8.301008331764919
org.h2.result,6.254744720943446
org.h2.value,4.984963012739797
org.h2.command.dml,4.9701060906592245
org.h2.expression,4.7109189099479245
org.h2.util,4.009401652057034
org.h2.jdbc,3.111143102378546
org.h2.command,2.0959714205267708
sun.util.calendar,2.038039099283146
org.h2.engine,1.9420599991110703
org.dacapo.h2,1.6777628836449725
org.h2.message,1.0241146594648796
org.apache.derbyTesting.system.oe.load,0.657984140325158
org.dacapo.harness,0.6194874600765425
org.apache.derbyTesting.system.oe.util,0.3134955143486445
org.h2.store,0.15208611925973822
org.h2.log,0.1299360070373604
org.apache.derbyTesting.system.oe.direct,0.1049730061247238
org.h2,0.05817211932669361
sun.security.util,0.05662582810966354
sun.reflect,0.050009007587512325
javassist.bytecode,0.04131655839041199
sun.misc,0.0396228674915711
org.h2.constraint,0.02971151909151608
org.dacapo.parser,0.02947723806787695
org.h2.constant,0.022705832661562623
org.h2.security,0.022121771823503857
sun.net.www.protocol.jar,0.021125953068993984
sun.util.locale.provider,0.01968790566341623
org.h2.schema,0.016369939145870694
org.apache.derbyTesting.system.oe.model,0.016256631399487655
org.h2.command.ddl,0.010614910372255712
org.apache.derbyTesting.system.oe.client,0.007069338296562916
javassist,0.0065248059108711344
chappie.util,0.005192857613224294
sun.net.util,0.004553671520553186
sun.net.www.protocol.file,0.004162000179630493
sun.nio.cs,0.0
