method,hits
AnnotationParser$1.run,2
AnnotationParser.parseSig,2
Chaperone.retire,2
ChiLogger$SingleLineFormatter.format,4
ChiPointer.<init>,10
ChiVertex.<init>,476
ChiVertex.getValue,12
ChiVertex.numOutEdges,4
ChiVertex.setDataPtr,4
ChiVertex.setValue,8
CodeAttribute.<init>,2
DataBlockManager.dereference,20
DataBlockManager.getRawBlock,26
DataBlockManager.writeValue,14
DateFormatProviderImpl.getInstance,4
DecimalFormatSymbolsProviderImpl.getInstance,2
DegreeData.getDegree,244
DegreeData.load,12
ExponentiallyDecayingSample.<init>,2
ExponentiallyDecayingSample.lockForRegularUsage,2
FloatConverter.getValue,6
FloatConverter.setValue,4
GraphChiEngine$2.run,32
GraphChiEngine$3.run,162
GraphChiEngine.determineNextWindow,52
GraphChiEngine.initVertices,210
Gregorian.newCalendarDate,2
ImmutableDescriptor.<init>,2
ImmutableDescriptor.makeMap,2
Introspector.getMXBeanInterface,2
JmxMBeanServer.<init>,2
JmxReporter.<init>,2
Launcher$AppClassLoader.loadClass,2
LocaleData$1.run,2
LoggerFactory.bind,2
MBeanAnalyzer.visit,2
MBeanInfo.<init>,2
MBeanIntrospector.getMethods,2
MBeanServerBuilder.newMBeanServerDelegate,2
MXBeanIntrospector.getMBeanAttributeInfo,2
MXBeanIntrospector.mFrom,2
ManagementFactoryHelper.getCompilationMXBean,2
MemoryShard.loadAdjChunk,2
Metrics.<clinit>,2
NumberFormatProviderImpl.getInstance,2
Pagerank.update,38
RandomAccessFile.read_,20
RandomAccessFile.writeBytes,28
Repository.addMBean,2
StringInfo.<init>,2
URLClassPath$FileLoader.getResource,6
Unsafe.park,2
VertexAggregator.foreach,4
VertexData$1.hasNext,2
VertexData.getVertexValuePtr,76
ZoneInfoFile.load,2
