method,hits
AnnotationParser.parseSig,2
AttributeInfo.read,2
CalendarDataUtility.retrieveFirstDayOfWeek,2
ChiLogger$SingleLineFormatter.format,2
ChiPointer.<init>,8
ChiVertex$Edge.<init>,4
ChiVertex.<init>,420
ChiVertex.getValue,10
ChiVertex.inEdge,40
ChiVertex.numInEdges,6
ChiVertex.numOutEdges,6
ChiVertex.setDataPtr,4
ChiVertex.setValue,12
ClassPool.getCached,1
CtClassType.getClassFile3,2
DataBlockManager.dereference,4
DataBlockManager.getRawBlock,28
DataBlockManager.writeValue,10
DegreeData.getDegree,254
DegreeData.load,18
ExceptionTable.<init>,2
FloatConverter.getValue,4
FloatingDecimal.getBinaryToASCIIConverter,2
GraphChiContext.getIteration,6
GraphChiEngine$2.run,60
GraphChiEngine$3.run,118
GraphChiEngine.determineNextWindow,40
GraphChiEngine.execUpdates,2
GraphChiEngine.initVertices,264
ImmutableDescriptor.makeMap,2
JarURLConnection.<init>,2
Launcher$AppClassLoader.loadClass,4
MBeanAnalyzer.eliminateCovariantMethods,2
MemoryShard.loadAdjChunk,2
MethodInfo.read,2
Metrics.<clinit>,2
MetricsRegistry.createName,2
NumberFormatProviderImpl.getInstance,4
ObjectName.<clinit>,2
Pagerank.update,56
RandomAccessFile.read_,18
RandomAccessFile.writeBytes,22
Repository.<init>,2
StreamEncoder.writeBytes,2
ThreadCoreMapInjector.transform,2
Utf8Info.<init>,4
VertexAggregator.foreach,8
VertexData$1.hasNext,2
VertexData$1.next,4
VertexData.getVertexValuePtr,102
