method,hits
ArrayList.elementData,6
ArrayList.rangeCheck,28
BufferedInputStream.read,2
Class.getDeclaredMethods0,2
DataInputStream.readUnsignedByte,2
Float.<init>,6
Float.floatValue,4
Float.valueOf,8
Integer.<init>,2
Integer.valueOf,4
JarFile.getMetaInfEntryNames,2
MessageFormat.subformat,2
RandomAccessFile.readBytes,16
RandomAccessFile.writeBytes,40
ScheduledThreadPoolExecutor$DelayedWorkQueue.<init>,2
System.arraycopy,6
TreeMap.navigableKeySet,2
TreeMap.size,2
TreeSet.size,6
UnixFileSystem.getBooleanAttributes0,2
