method,package1,package2,dram1,dram2,energy
AbstractQueuedSynchronizer.acquire,0.0,0.0,0.0,0.0,0.0
ArrayList.rangeCheck,0.04242992239665235,0.09177966286678742,0.006532907019839619,0.022420568181270497,0.16316306046454987
Class.createAnnotationData,0.0,0.05267087379828201,0.0,0.007651981063509786,0.0603228548617918
ClassLoader.defineClass1,0.0,0.03802542605926845,0.0,0.007656813726096785,0.04568223978536524
Currency.<clinit>,0.0,0.03574175404211679,0.0,0.0060737539310786685,0.04181550797319546
DataInputStream.readUnsignedShort,0.0,0.0971659906269422,0.0,0.014869853863618056,0.11203584449056025
DateFormatSymbols.getProviderInstance,0.0,0.02645180598846489,0.0,0.0048184719710924265,0.03127027795955732
FileOutputStream.writeBytes,0.0,0.04830687499634223,0.0,0.01165624999960831,0.05996312499595054
Float.<init>,0.018008212274597937,0.006536086366003712,0.0025833309711623684,0.0013784071071283196,0.028506036718892333
Float.floatValue,0.015427375730895497,0.005515602941587156,0.002218562148816364,0.001178823529431504,0.02434036435073052
Float.valueOf,0.008293825967750046,0.1300451242404102,0.0012201529311181298,0.02966347690900941,0.1692225800482878
Formatter$FormatSpecifier.conversion,0.0,0.04864999999578382,0.0,0.009078125000693639,0.05772812499647746
HashMap.get,0.0,0.0,0.0,0.0,0.0
Hashtable$Enumerator.nextElement,0.0,0.03250410218434245,0.0,0.007099769923789072,0.03960387210813152
Integer.valueOf,0.0,0.07836916665837634,0.0,0.018779999999727202,0.09714916665810355
Logger.<clinit>,0.0,0.0,0.0,0.0,0.0
Pattern.clazz,0.0,0.04864999999578382,0.0,0.009078125000693639,0.05772812499647746
RandomAccessFile.readBytes,0.06105080145551554,0.383036921821316,0.008495560017127543,0.09835123995042883,0.5509345232443879
RandomAccessFile.writeBytes,0.0858054088716574,0.08374069284424693,0.016112897462023344,0.016283190977456324,0.201942190155384
ResourceBundle.findBundle,0.0,0.033459141321705764,0.0,0.00657832544761256,0.040037466769318325
SimpleDateFormat.initialize,0.0,0.03574175404211679,0.0,0.0060737539310786685,0.04181550797319546
System.arraycopy,0.6378455097094052,0.0,0.09523665048553813,0.0,0.7330821601949433
TreeMap.navigableKeySet,0.0,0.03250410218434245,0.0,0.007099769923789072,0.03960387210813152
TreeSet.size,0.0,0.04272458332707174,0.0,0.01142812499968689,0.05415270832675863
