method,package1,package2,dram1,dram2,energy
ArrayList,0.05376708948632748,0.11393089778290472,0.007294653306663947,0.03266367379496703,0.20765631437086318
AtomicInteger,0.0005512834649986121,0.0,7.785908925518659e-05,0.0,0.0006291425542537986
BufferedInputStream,0.04968259999877773,0.0,0.007392000000254485,0.0,0.057074599999032215
ChiPointer,0.018307233334445977,0.0006390303030291926,0.002265166666658178,9.340909089201666e-05,0.021304839395025366
ChiVertex,6.945421894721348,0.30060427674412366,0.8643287598306245,0.04735041347175166,8.157705344767846
ClassLoader,0.03861599999914975,0.0,0.005153684210726121,0.0,0.04376968420987587
ConcurrentHashMap,0.03905233332867889,0.0,0.005460000000311993,0.0,0.044512333328990884
DataBlockManager,0.16677167872592938,0.14737616128833714,0.023723803355972583,0.032093464894222754,0.3699651082644619
DataInputStream,0.0,0.0,0.0,0.0,0.0
DefaultMXBeanMappingFactory,0.049780199996894224,0.0,0.006548999999358783,0.0,0.05632919999625301
DegreeData,1.8891932028291487,0.16367888221769172,0.26990267905233367,0.024375124782704555,2.3471498888818787
Float,0.032775568064034484,0.031081166346307164,0.0047045692837135635,0.005414956334803558,0.07397626002885876
GraphChiContext,0.0016064399993047118,0.0,0.00024180000007618217,0.0,0.001848239999380894
GraphChiEngine,2.358499215422986,0.24001134391050605,0.329438813782485,0.03485220516040419,2.962801578276381
GraphChiEngine$2,0.2036098485710258,0.10822794901939863,0.027770931107591327,0.03196125708687762,0.37156998578489336
GraphChiEngine$3,0.3535846038599452,0.3450646326983341,0.052801094652734595,0.06934261991420919,0.8207929511252231
ImmutableDescriptor,0.035268923079666614,0.0,0.005051538462374503,0.0,0.040320461542041115
Integer,0.025435581698803986,0.0,0.0030774153297855856,0.0,0.02851299702858957
JmxMBeanServer,0.04968259999877773,0.0,0.007392000000254485,0.0,0.057074599999032215
MBeanInfo,0.029155999999672465,0.0,0.005079230768807554,0.0,0.03423523076848002
ManagementFactory,0.04398199999704956,0.0,0.006582000000344123,0.0,0.05056399999739369
ManagementFactoryHelper,0.0414596363658678,0.0,0.005972727272654248,0.0,0.04743236363852205
MemoryShard,0.0,0.0,0.0,0.0,0.0
NOPLoggerFactory,0.032780615388988875,0.0,0.0050399999997283035,0.0,0.03782061538871718
Object,0.0,0.0,0.0,0.0,0.0
Pagerank,0.037200898855687885,0.0,0.005292374466352104,0.0,0.04249327332203999
RandomAccessFile,0.15885210509089315,0.06783176985662906,0.027685777669670918,0.01399488416157783,0.268364536778771
SimpleDateFormat,0.08658833334144825,0.0,0.012274999999741945,0.0,0.0988633333411902
StreamHandler,0.0,0.0021265789473545733,0.0,0.0003252631579112188,0.0024518421052657923
System,0.024978642659741028,0.0,0.004090286212238309,0.0,0.029068928871979337
Toplist$1,0.032893333333714664,0.0,0.004100645161596857,0.0,0.036993978495311525
TreeMap,0.0,0.0,0.0,0.0,0.0
TreeSet,0.0527789310375153,0.0,0.006831684270890779,0.0,0.05961061530840608
UnixFileSystem,0.02543753845832096,0.0,0.003803076923269635,0.0,0.029240615381590597
Unsafe,0.0,0.0,0.0,0.0,0.0
Util,0.029155999999672465,0.0,0.005079230768807554,0.0,0.03423523076848002
VertexAggregator,0.06928474602311359,0.0,0.008477180404036881,0.0,0.07776192642715046
VertexData,0.5785932394906127,0.026545047151954746,0.07939562769034077,0.0036731558439407784,0.688207070176849
VertexData$1,0.015876565656549477,0.0,0.0021436363637960055,0.0,0.01802020202034548
ZipFile,0.037851999998868756,0.0,0.0054525000001982935,0.0,0.04330449999906705
