method,hits
AccessController.doPrivileged,1
AnnotationParser.parseSig,4
ArrayList.elementData,2
ArrayList.rangeCheck,16
Arrays.copyOf,2
BufferedInputStream.<init>,2
BufferedInputStream.read,2
CharsetDecoder.reset,2
ChiLogger.getLogger,2
ChiPointer.<init>,14
ChiVertex.<init>,524
ChiVertex.getValue,4
ChiVertex.numOutEdges,4
ChiVertex.setDataPtr,8
ChiVertex.setValue,6
ClassLoader.defineClass1,2
ConcurrentHashMap.entrySet,2
CoreReflectionFactory.makeParameterizedType,2
DataBlockManager.dereference,14
DataBlockManager.getRawBlock,8
DataBlockManager.writeValue,4
DecimalFormatSymbols.initialize,2
DegreeData.getDegree,304
Float.<init>,2
Float.floatToIntBits,2
Float.valueOf,6
FloatConverter.getValue,2
FloatConverter.setValue,4
GraphChiContext.getIteration,4
GraphChiEngine$2.run,42
GraphChiEngine$3.run,70
GraphChiEngine.determineNextWindow,54
GraphChiEngine.initVertices,248
Handler.openConnection,2
Histogram.setMax,2
ImmutableDescriptor.makeMap,2
Integer.valueOf,4
JmxMBeanServer.<init>,2
Locale.toLanguageTag,2
MBeanAnalyzer.initMaps,2
MBeanFeatureInfo.getDescriptor,2
MBeanNotificationInfo.<init>,2
MBeanServerBuilder.newMBeanServerDelegate,2
MXBeanMappingFactory.<clinit>,2
ManagementFactory.createMemoryPool,2
MemoryShard.loadAdjChunk,4
Method.getGenericSignature,2
NumberFormatProviderImpl.getInstance,2
Pagerank.update,10
ProxyGenerator$PrimitiveTypeInfo.get,2
RandomAccessFile.readBuffer,2
RandomAccessFile.readBytes,20
RandomAccessFile.writeBytes,34
SimpleDateFormat.<clinit>,2
SimpleDateFormat.initialize,2
String.concat,2
Toplist$1.callback,2
TreeMap$KeySet.<init>,2
TreeMap.navigableKeySet,2
TreeSet.size,6
URLClassPath.getResources,2
VertexAggregator.foreach,22
VertexData$1.hasNext,2
VertexData.getVertexValuePtr,86
WeakHashMap.<init>,2
ZoneInfoFile.getZoneInfo,2
