method,package1,package2,dram1,dram2,energy
AbstractCalendar,0.11820533424044526,0.0,0.0032135318489997945,0.0,0.12141886608944505
BaseCalendar,0.13304116683855186,0.0,0.010612939714423852,0.0,0.1436541065529757
BaseCalendar$Date,0.05562356986503547,0.0,0.0023086294277615163,0.0,0.057932199292796985
BaseIndex,4.170081721241936,1.2088817116052997,0.40974824777027,0.1758216321112146,5.964533312728721
Benchmark,0.0,0.3929910074815907,0.0,0.0513514374787688,0.4443424449603595
CacheObject,0.0,0.1639678148235867,0.0,0.021525555555450004,0.18549337037903668
CalendarDate,0.08113028236743308,0.0,0.004183857580411729,0.0,0.08531413994784481
CalendarSystem,0.0,0.037742733165245866,0.0,0.005184294693538751,0.04292702785878462
Chaperone,0.02597281950030972,0.0,0.002895544479316644,0.0,0.028868363979626364
ClassPool,0.0,0.08258168775480777,0.0,0.010542568555065218,0.09312425630987299
Column,0.5446876086487163,0.7606320993235743,0.06908238679729883,0.11073308081286574,1.4851351755824551
Command,0.5539333062291929,0.8596697979174935,0.044077772727617995,0.13102695419510252,1.5887078310694072
CommandLineArgs,0.0,0.06648316667593547,0.0,0.007509227719947351,0.07399239439588282
CompareMode,0.03638264779363981,0.07871833333208794,0.0026163805017517605,0.009083333333263808,0.12680069496074334
Comparison,0.42685119528410304,0.9894632592762784,0.05215750767108532,0.15001277777547428,1.618484740006941
ConditionAndOr,0.20749617896813954,0.20223551772134307,0.021542916808040147,0.02773853631773102,0.4590131498152538
ConnectionInfo,0.0,0.06911400508074067,0.0,0.010114537661029328,0.07922854274176999
ConstraintReferential,0.062210154814127484,0.0,0.005517826300850768,0.0,0.06772798111497826
DacapoClassLoader,0.0,0.2549192464662636,0.0,0.035157679265238474,0.2900769257315021
Database,0.039600493304085146,0.09824633332512653,0.004722117565302164,0.012675000000551032,0.15524394419506485
Delete,0.11315703510667463,0.0,0.016363924284092477,0.0,0.1295209593907671
Driver,0.0,0.010451254743426449,0.0,0.0010530264103544944,0.011504281153780943
Expression,0.12023755880898788,0.0,0.008540932900922645,0.0,0.12877849170991054
ExpressionColumn,0.6546739893774317,0.13706466667160083,0.07681068060936824,0.02191499999995964,0.8904643366583603
ExpressionVisitor,0.0,0.09700177869343932,0.0,0.015316000660295502,0.11231777935373483
Gregorian,0.0,0.14712919083349937,0.0,0.01902316609790025,0.16615235693139963
IndexCondition,0.04361885279966205,0.0,0.007885731619160943,0.0,0.051504584418822996
IndexCursor,0.2584833289423905,0.2939845237934995,0.02901031497557637,0.04017928571461414,0.6216574534260805
Insert,0.07709633961846638,0.41577458100013803,0.011005126405547825,0.052937380237502114,0.5568134272616544
JdbcConnection,0.33085918733038744,0.20107811831724415,0.02163357427560688,0.029249313291359748,0.5828201932145981
JdbcPreparedStatement,0.010307811086345743,0.08145888145889643,0.0014275800167905376,0.011803332639765355,0.10499760520179806
JdbcResultSet,0.3193680532948301,0.3066406666669839,0.028433282642832458,0.04616500000095887,0.7006070026056054
JdbcSQLException,0.0,0.08403549999153861,0.0,0.012275000000348275,0.09631049999188689
JdbcStatement,0.2666626055074651,0.060689333331538364,0.027697366400529288,0.009519999999611171,0.36456930523914394
LocalResult,0.21162863233791065,0.5939533333585132,0.01902711407774728,0.08906999999696077,0.9136790797711318
MathUtils,0.5903822845122586,0.4474898888880421,0.056235164018635674,0.06252249999929685,1.156629837418233
Message,0.0,0.0,0.0,0.0,0.0
MultiVersionCursor,1.248585943330561,1.9870837198169018,0.14332301299330977,0.28686906951088287,3.6658617456516556
MultiVersionIndex,0.37734093922378,0.29881851236494217,0.04397197998491659,0.03962109141893164,0.7597525229925703
New,0.0,0.12528500000674586,0.0,0.014830000000074506,0.14011500000682037
OERandom,0.16169890926538452,1.084441681240847,0.021917475054284673,0.14346028900977809,1.4115183545702943
ObjectArray,0.8018098092125053,0.7722774873060892,0.0913980913962029,0.10233955669099641,1.7678249446057939
ObjectArray$ObjectArrayIterator,0.11605936395647011,0.05175800000627835,0.020284671167749072,0.008219999999710126,0.19632203513020766
ObjectUtils,0.06251901860001714,0.0,0.009093379816308884,0.0,0.07161239841632602
Parameter,0.07831777602097473,0.043196622225352456,0.005898344915970431,0.0057786666671745465,0.13319140982947217
Parser,0.0,0.19589622807462886,0.0,0.026867142858568772,0.22276337093319765
Prepared,0.024207501277330016,0.0,0.003771913248132285,0.0,0.0279794145254623
Query,0.04164969295436238,0.0,0.0055561582058821215,0.0,0.047205851160244505
RandomUtils,0.05294719217984352,0.0,0.004933867138457336,0.0,0.057881059318300856
Record,0.048951388951056884,0.0,0.003924367451324495,0.0,0.05287575640238138
Resource,0.0,0.1240537900511349,0.0,0.017683850951949805,0.1417376410030847
Row,2.1179647128112697,1.6584367677857117,0.23157170533586008,0.2536236862228087,4.26159687215565
ScanCursor,0.14848938507449636,0.0,0.014868109727086326,0.0,0.16335749480158268
ScanIndex,1.3851214259190665,1.1009787177685388,0.16591536080852845,0.14826881871961226,2.800284323215746
Schema,0.0,0.0,0.0,0.0,0.0
Select,1.454912547630467,0.9526413333214198,0.17567774763277755,0.14605700000053426,2.729288628585198
Session,0.30679905755338444,0.0,0.031089317684903493,0.0,0.3378883752382879
SimpleInsert,0.18441769861631585,0.37753892591421456,0.025359782070384987,0.05146444444485328,0.6387808510457688
Standard,0.02252200000293669,0.0,0.0017437500000596626,0.0,0.024265750002996352
StatementHelper,0.0,0.0,0.0,0.0,0.0
StringCache,0.06658974585929253,0.2267545221871649,0.007505573441467772,0.031372515850300736,0.3322223573382259
Submitter,0.05120866666644967,0.0327135067105649,0.0038699999992483454,0.0038374285239449564,0.09162960190020789
TPCC,0.0,1.9574443538941813,0.0,0.2500538370902579,2.207498190984439
TPCC$1,0.044560349323887916,0.0,0.006078007713413629,0.0,0.050638357037301546
TPCCSubmitter,0.06092681481364976,0.0,0.004102222222610617,0.0,0.06502903703626038
Table,0.6656603178189825,0.7378382055884105,0.07892123177191196,0.10844599606487015,1.5908657512441748
TableData,0.5103249397777334,0.47710691668423055,0.05415912778248562,0.06457000000167075,1.1061609842461202
TableData$1,0.5787150819776465,0.0,0.05173169430661032,0.0,0.6304467762842568
TableFilter,0.4264505851288331,0.6688639999968775,0.048753478979832295,0.0959300000007109,1.2399980641062538
TeeOutputStream,0.08848539363249193,0.0,0.006578244429036789,0.0,0.09506363806152872
Trace,0.04699548663254198,0.0,0.0,0.0,0.04699548663254198
TraceObject,0.0,0.14215100000728853,0.0,0.021804999999100495,0.16395600000638902
TraceSystem,0.048844210525490594,0.20867650189668654,0.007045263157794437,0.02908424006033964,0.2936502156403112
TreeCursor,0.5418958031258497,0.3650847764132745,0.05930756674565085,0.049209595553198496,1.0154977418379736
TreeIndex,1.7544208603477514,0.7221090994031731,0.17876747126924958,0.11486078826039324,2.770158219280567
URLClassPath$JarLoader$2,0.0,0.021586416387975618,0.0,0.0030206143721792753,0.024607030760154892
UndoLog,0.03295898571398408,0.10035296296269666,0.0050348571428912685,0.014108888888855555,0.15245569470842757
UndoLogRecord,0.12720674068876722,0.0,0.011460384979490628,0.0,0.13866712566825784
Update,0.22549206666194105,0.0,0.018500462582847117,0.0,0.24399252924478818
Utf8Info,0.0,0.07638032009394753,0.0,0.008664851198797674,0.0850451712927452
Value,0.5170591021518012,0.7910831857096718,0.055771730415640756,0.10507930027009137,1.468993318547205
ValueDecimal,0.2420368797907193,0.36880246611727957,0.024397973747082153,0.047465869217121065,0.682703188872202
ValueExpression,0.041537238819555636,0.0,0.006021005114516975,0.0,0.04755824393407261
ValueInt,1.0696916094792788,0.45240027165668806,0.09709989366293598,0.07046298019109544,1.6896547549899983
ValueShort,1.1298339186351902,1.4021281224618047,0.0949823719218328,0.21733811586187626,2.8442825288807043
ValueString,0.00411739189203709,0.04334371428454427,0.00043479729725191113,0.00705214285699185,0.05494804633082512
ValueStringFixed,0.07292800285228224,0.0,0.006700830200101219,0.0,0.07962883305238345
ValueTimestamp,3.1501356010037616,4.208425438105736,0.25849556208098057,0.6167580566070909,8.23381465779757
ZoneInfo,0.04726129729785817,0.0985313333318724,0.0040095107771898255,0.012219999999312371,0.16202214140623278
ZoneInfoFile,0.0,0.07546068575897613,0.0,0.010193368123247162,0.08565405388222329
