method,package1,package2,dram1,dram2,energy
javassist.bytecode,0.06571466666840327,0.2215554374262256,0.00930500000079822,0.02669214776840976,0.32326725186383687
org.apache.commons.cli,0.0,0.0,0.0,0.0,0.0
org.apache.derbyTesting.system.oe.client,0.0,0.0,0.0,0.0,0.0
org.apache.derbyTesting.system.oe.direct,0.0,0.0,0.0,0.0,0.0
org.apache.derbyTesting.system.oe.load,0.0903770862192187,0.5916250126947725,0.010426802415016612,0.07882195321426588,0.7712508545432737
org.apache.derbyTesting.system.oe.model,0.0,0.0,0.0,0.0,0.0
org.apache.derbyTesting.system.oe.util,0.8552826402240364,0.5791414635539187,0.09919162990378146,0.08964277026643841,1.6232585039481748
org.dacapo.h2,0.8573147172009122,0.0,0.09133586271994079,0.0,0.948650579920853
org.dacapo.harness,0.0455970742553664,0.7619210722835309,0.0036834145353383174,0.10579197402590478,0.9169935351001404
org.dacapo.parser,0.0,0.02646883333121271,0.0,0.004109999999855063,0.030578833331067774
org.h2,0.0,0.024601200001779944,0.0,0.0032879999998840503,0.027889200001663995
org.h2.command,0.1592787897549395,0.5578433515911313,0.017597802542990794,0.08138027526963293,0.8161002191586946
org.h2.command.dml,2.0379032471293312,0.7526045139316269,0.2543884573149177,0.09372070881258854,3.138616927188464
org.h2.constraint,0.0,0.0,0.0,0.0,0.0
org.h2.engine,0.8163601551485464,0.1724496809585404,0.0831016832551904,0.02377900000127978,1.095690519363557
org.h2.expression,2.1946545340560233,0.36243057953138214,0.2510380619861592,0.05199126768004392,2.8601144432536088
org.h2.index,7.973219134035822,3.2257587055421304,0.8457446329447614,0.4706125067805321,12.515334979303246
org.h2.jdbc,2.103685502322313,0.3697405931414031,0.21167961949584457,0.060909747391904884,2.746015462351466
org.h2.log,0.09493904723247812,0.06990410762273111,0.013143758831486146,0.011352876968391854,0.18933979065508721
org.h2.message,0.38753660470449536,0.12180804902998134,0.052085621355006585,0.017892317281303288,0.5793225923707865
org.h2.result,1.3339016644121429,1.0452674855473685,0.1597289013822032,0.15123803774604733,2.690136089087762
org.h2.store,0.21924878931022712,0.0,0.027837203832716963,0.0,0.24708599314294408
org.h2.table,1.70438357421539,0.9808186359614123,0.20123766843707572,0.13158016973631545,3.0180200483501936
org.h2.util,1.2256769342387446,0.8477065062123218,0.16313587536905994,0.11546135629629248,2.3519806721164187
org.h2.value,10.2866601551208,1.1255499008149707,1.109833683480538,0.16247890822498348,12.684522647641291
sun.misc,0.0,0.20731019567626677,0.0,0.024061363635638135,0.2313715593119049
sun.reflect,0.07417800000015025,0.0,0.007620000000315485,0.0,0.08179800000046573
sun.security.util,0.0,0.05036613333504647,0.0,0.007091999999829569,0.05745813333487604
sun.util.calendar,2.001445215918608,0.0,0.19656987506620668,0.0,2.1980150909848146
sun.util.locale,0.0,0.037652857142910806,0.0,0.005003571428633655,0.04265642857154446
