method,hits
AbstractCalendar.getCalendarDate,8
AbstractCalendar.setTimeOfDay,6
BaseCalendar.getCalendarDateFromFixedDate,6
BaseCalendar.getFixedDate,2
BaseCalendar.getGregorianYearFromFixedDate,4
BaseIndex.compareKeys,8
BaseIndex.compareRows,180
BaseIndex.compareValues,66
Benchmark.fileFromInputStream,26
CalendarDate.clone,2
CalendarDate.setMinutes,2
CalendarDate.setNormalized,6
ClassPool.makeClass,2
CodeAttribute.<init>,2
Column.convert,8
Column.getColumnId,24
Column.updateSequenceIfRequired,2
Column.validateConvertUpdateSequence,12
Command.executeQueryLocal,22
Command.executeUpdate,206
CommandContainer.isTransactional,2
CommandContainer.update,2
CompareMode.compareString,12
Comparison.compareNotNull,2
Comparison.getValue,20
Comparison.isEverything,2
ConditionAndOr.isEverything,8
ConditionAndOr.optimize,2
ConstraintReferential.checkRowOwnTable,2
DacapoClassLoader.loadClass,8
Database.getSessionCount,2
Database.isReconnectNeeded,8
Database.open,2
DbObjectBase.getSQL,4
Delete.update,2
Driver.connect,2
Driver.load,2
Expression.getBooleanValue,4
ExpressionColumn.getValue,28
ExpressionColumn.isEverything,8
ExpressionVisitor.get,56
Function.addFunction,2
Function.getSimpleValue,2
H2.prepare,2
IndexCondition.isAlwaysFalse,2
IndexCursor.find,8
IndexCursor.getSearchRow,12
IndexCursor.next,4
Insert.insertRows,22
JdbcConnection.checkClosed,24
JdbcPreparedStatement.executeQuery,2
JdbcPreparedStatement.setParameter,6
JdbcResultSet.checkClosed,6
JdbcResultSet.checkOnValidRow,6
JdbcResultSet.get,10
JdbcResultSet.getColumnIndex,6
JdbcResultSet.getString,4
JdbcResultSet.nextRow,2
JdbcSQLException.<init>,8
JdbcStatement.checkClosed,6
Launcher$AppClassLoader.loadClass,6
LocalResult.addRow,8
LocalResult.applyLimit,2
LocalResult.getList,4
LocalResult.next,6
MathUtils.compare,8
MathUtils.setScale,8
MetaIndex.mayContain,2
MultiVersionCursor.<init>,2
MultiVersionCursor.getSearchRow,56
MultiVersionCursor.loadNext,36
MultiVersionCursor.next,52
MultiVersionCursor.step,22
MultiVersionIndex.add,8
MultiVersionIndex.compareRows,8
MultiVersionIndex.find,6
MultiVersionIndex.getColumns,2
MultiVersionIndex.removeIfExists,4
OERandom.randomAString10_20,2
OERandom.randomAString26_50,4
OERandom.randomAString300_500,4
OERandom.randomCLast,4
OERandom.randomDecimalString,16
OERandom.randomInt,18
OERandom.randomIntPerm,2
ObjectArray$ObjectArrayIterator.<init>,2
ObjectArray$ObjectArrayIterator.hasNext,2
ObjectArray$ObjectArrayIterator.next,2
ObjectArray.add,4
ObjectArray.createArray,2
ObjectArray.get,28
ObjectArray.iterator,10
ObjectArray.sort,10
ObjectArray.swap,10
ObjectArray.toArray,2
ObjectUtils.arrayCopy,2
Parser.readIf,2
Prepared.checkCanceled,2
Prepared.checkParameters,2
Prepared.setSession,2
Query.getParameterValues,6
Query.query,14
Record.<init>,4
Record.setSessionId,2
Resource.getBytes,2
Resources.loadFromZip,2
Row.getValue,92
Row.setValue,4
ScanCursor.next,2
ScanIndex.add,12
ScanIndex.commit,14
ScanIndex.getNextRow,26
ScanIndex.incrementRowCount,6
Select.isEverything,12
Select.queryFlat,50
Select.queryGroup,2
Select.queryWithoutCache,2
Session.commit,2
Session.getDatabase,2
Session.getId,2
Session.hashCode,2
Session.isClosed,4
Session.isReconnectNeeded,14
Session.rollbackTo,2
SignatureFileVerifier.<clinit>,2
SimpleInsert.customerTable,6
SimpleInsert.orderTable,16
SimpleInsert.stockTable,14
Standard.getOrderStatusForCustomer,2
Standard.payment,6
Standard.sortOrderItems,2
Standard.stockLevel,2
StatementHelper.prepareStatement,2
StringCache.get,12
StringCache.getCache,2
StringUtils.toUpperEnglish,2
Submitter.runStockLevel,2
TPCC.calculateSumDB,32
TPCCSubmitter.runTransactions,2
Table.compareTypeSave,14
Table.fireConstraints,2
Table.getTemplateRow,16
Table.validateConvertUpdateSequence,4
TableData$1.compare,14
TableData.addIndex,18
TableData.addRowsToIndex,6
TableData.checkRowCount,2
TableData.doLock,10
TableData.lock,2
TableData.unlock,2
TableFilter.getValue,14
TableFilter.isOk,10
TableFilter.next,12
TableFilter.startQuery,2
TestHarness.main,2
ThreadCoreMapInjector.isRunnable,2
Trace.isEnabled,6
TraceObject.debugCodeCall,2
TraceObject.isDebugEnabled,2
TraceSystem.<init>,4
TraceSystem.getTrace,4
TreeCursor.<init>,2
TreeCursor.get,8
TreeCursor.next,10
TreeIndex.add,12
TreeIndex.balance,18
TreeIndex.child,6
TreeIndex.find,14
TreeIndex.findFirstNode,34
TreeIndex.next,48
TreeIndex.remove,4
TreeIndex.replace,8
TreeIndex.set,22
TreeNode.isFromLeft,2
URLClassPath$JarLoader$2.getInputStream,2
UndoLog.getLast,4
UndoLogRecord.commit,2
Update.update,6
Utf8Info.<init>,2
Value.<clinit>,4
Value.cache,14
Value.compareTypeSave,22
Value.convertScale,4
Value.convertTo,24
Value.getHigherOrder,2
ValueArray.<init>,2
ValueDecimal.equals,2
ValueDecimal.getPrecision,16
ValueDecimal.getString,8
ValueDecimal.subtract,2
ValueInt.compareSecure,16
ValueInt.get,4
ValueInt.getString,42
ValueNull.getString,2
ValueShort.compareSecure,14
ValueShort.equals,2
ValueShort.getPrecision,2
ValueShort.getString,60
ValueString.equals,2
ValueString.get,4
ValueString.hashCode,4
ValueStringBase.getPrecision,2
ValueStringBase.getString,2
ValueStringFixed.get,4
ValueTimestamp.convertScale,28
ValueTimestamp.getNoCopy,2
ValueTimestamp.getString,256
ZoneInfo.getOffsets,2
ZoneInfo.getTransitionIndex,2
ZoneInfoFile.addTrans,2
