method,package1,package2,dram1,dram2,energy
AbstractCalendar.getCalendarDate,0.181011863894147,0.0,0.012902957707556794,0.0,0.19391482160170379
AbstractCalendar.setTimeOfDay,0.1763112448405892,0.0,0.00618196793194404,0.0,0.18249321277253322
BaseCalendar$Date.<init>,0.2707536836331065,0.0,0.026212259044018832,0.0,0.2969659426771253
BaseCalendar.getCalendarDateFromFixedDate,0.24069499587269355,0.0,0.013076172301825109,0.0,0.25377116817451867
BaseCalendar.getGregorianYearFromFixedDate,0.0868310493717521,0.0,0.0011502679347500807,0.0,0.08798131730650217
BaseIndex.compareKeys,0.0,0.2676944926986965,0.0,0.038113928645936795,0.30580842134463326
BaseIndex.compareRows,1.5330265326073682,3.585783342912909,0.1297252286806237,0.5261608025478752,5.774695906748776
BaseIndex.compareValues,0.5734427582905068,1.2146589474149545,0.04945603093121008,0.16635353489485644,2.003911271531528
CacheObject.<init>,0.008331834314902288,0.0,0.0008921107865230316,0.0,0.00922394510142532
CacheObject.setPos,0.0,0.0351179607860817,0.0,0.002864705882601293,0.037982666668682996
CalendarDate.getMonth,0.054687666667935744,0.0,0.007910000001478084,0.0,0.06259766666941383
CalendarDate.setHours,0.24316294423333668,0.0,0.028406573123762206,0.0,0.2715695173570989
CalendarDate.setMinutes,0.11691173241278519,0.0,0.004552226630915378,0.0,0.12146395904370057
CalendarSystem.<clinit>,0.0,0.06990631187003628,0.0,0.007872309096767236,0.07777862096680352
Chaperone.retire,0.0,0.0,0.0,0.0,0.0
ClassPool.compress,0.0,0.06082071260744025,0.0,0.007262182222136705,0.06808289482957695
Column.convert,0.19483244429864827,0.20269697357368885,0.008747376004069388,0.02752964563446174,0.4338064395108682
Column.getColumnId,0.0,0.45485856069959435,0.0,0.07084395557771259,0.5257025162773069
Column.updateSequenceIfRequired,0.0,0.07786453332907209,0.0,0.008767999999690801,0.08663253332876289
Column.validateConvertUpdateSequence,0.11372896162365838,0.044515111114985004,0.01481066273207083,0.005466666666001804,0.17852140213671602
Command.checkCanceled,0.0,0.041543726492414446,0.0,0.004345000000152777,0.04588872649256722
Command.executeQueryLocal,0.08088392085526994,0.06777530000642097,0.006244401676079847,0.010221250000237584,0.16512487253800834
Command.executeUpdate,0.45230306115008284,0.4509765303107336,0.04561838468261445,0.06904974431734334,1.0179477204607743
Command.stop,0.0,0.0597940000006929,0.0,0.008215000000442766,0.06800900000113566
CommandContainer.recompileIfRequired,0.03908558326083169,0.0,0.002768787893781769,0.0,0.04185437115461346
CompareMode.compareString,0.0,0.0,0.0,0.0,0.0
Comparison.getValue,0.0996842378326168,0.1835110483176653,0.012178724958487586,0.029493212998850958,0.32486722410762064
ConditionAndOr.getValue,0.10580781392912791,0.19677832692479785,0.010824790451658675,0.030857291097580283,0.34426822240316474
ConditionAndOr.isEverything,0.0,0.07246933334196606,0.0,0.008160000001225853,0.08062933334319192
ConfigFile.<init>,0.0,0.044035499466337454,0.0,0.006556581909825589,0.05059208137616304
ConfigFileTokenManager.jjMoveNfa_0,0.0,0.06768421963597111,0.0,0.007291496688182263,0.07497571632415337
ConnectionInfo.readProperties,0.0,0.01924526753452877,0.0,0.002431229626569061,0.02167649716109783
Database.areEqual,0.07106938245719309,0.0,0.004593924881810567,0.0,0.07566330733900366
Database.checkPowerOff,0.0,0.0,0.0,0.0,0.0
Database.isReconnectNeeded,0.17126466666134849,0.0,0.01929999999993015,0.0,0.19056466666127864
Database.open,0.0,0.04080032520194924,0.0,0.004824878048633009,0.04562520325058225
Engine.openSession,0.0,0.10443458624005487,0.0,0.013495429574131378,0.11793001581418625
Expression.getBooleanValue,0.0,0.07626302247134162,0.0,0.01179360575683526,0.08805662822817688
ExpressionColumn.getValue,0.0,0.15403857115689856,0.0,0.021727354309708246,0.1757659254666068
ExpressionColumn.isEverything,0.0,0.0782729150728494,0.0,0.012086388576300641,0.09035930364915004
ExpressionVisitor.get,0.0,0.0844047555557659,0.0,0.013458666666216836,0.09786342222198274
ExpressionVisitor.getResolver,0.0,0.060541245013198665,0.0,0.009255227358277236,0.0697964723714759
ExpressionVisitor.getType,0.0,0.05242722878591437,0.0,0.007146894584138219,0.059574123370052585
IndexCondition.getCompareType,0.0,0.0,0.0,0.0,0.0
IndexCondition.getCurrentValue,0.0,0.0603138406565403,0.0,0.009392596457523484,0.06970643711406378
IndexCondition.isStart,0.3339904205334606,0.0,0.023964861744936377,0.0,0.357955282278397
IndexCursor.find,0.07421318957035089,0.5695096384966256,0.0005593107992691003,0.07906770000982707,0.7233498388760726
IndexCursor.getMax,0.046883444964662666,0.0,0.0024127064084294397,0.0,0.0492961513730921
IndexCursor.getSearchRow,0.040229734146274385,0.6624906089456102,0.0,0.11510292210566278,0.8178232651975473
Insert.insertRows,0.37750696196473893,0.43168993977480696,0.04395089873503143,0.05841192954289959,0.9115597300174769
JRELocaleProviderAdapter.getCalendarDataProvider,0.0,0.05408145513578848,0.0,0.00624923624868575,0.06033069138447423
JdbcConnection.checkClosed,0.6853387445830977,0.0,0.023711349815758346,0.0,0.7090500943988561
JdbcConnection.getSession,0.0,0.0,0.0,0.0,0.0
JdbcPreparedStatement.setParameter,0.04319807915503101,0.08540866666589864,0.0034221177320116216,0.010834999999739615,0.14286386355268088
JdbcResultSet.checkClosed,0.14617280066307686,0.0,0.008829614033483089,0.0,0.15500241469655995
JdbcResultSet.checkColumnIndex,0.059977333337883465,0.0,0.004085000000486616,0.0,0.06406233333837008
JdbcResultSet.checkOnValidRow,0.2323203333265459,0.0,0.031239999999039963,0.0,0.26356033332558587
JdbcResultSet.get,0.06272399999822179,0.0,0.004680000000613896,0.0,0.06740399999883569
JdbcResultSet.getInt,0.0,0.0,0.0,0.0,0.0
JdbcResultSet.getString,0.0393258730435807,0.0,0.0,0.0,0.0393258730435807
JdbcStatement.checkClosed,0.1975633931654942,0.049858888895768255,0.022565541905601838,0.006346666667215888,0.27633449063408017
JdbcStatement.closeOldResultSet,0.0,0.0,0.0,0.0,0.0
JdbcStatement.setExecutingStatement,0.009953630786129812,0.0,0.0012369275029533427,0.0,0.011190558289083155
LocalResult.addRow,0.05613199999788776,0.0,0.00683000000087001,0.0,0.06296199999875778
LocalResult.getList,0.0,0.09377033333294094,0.0,0.012200000001030277,0.10597033333397121
LocalResult.next,0.0,0.3965677176187579,0.0,0.05703237965826022,0.4536000972770181
LocaleData.getNumberFormatData,0.0,0.04320126983691894,0.0,0.004137142857034055,0.04733841269395299
MathUtils.compare,0.07484723333129525,0.2147012199639583,0.0042882089629217605,0.0278124454876404,0.32164910774581573
MultiVersionCursor.getSearchRow,0.04463822406177891,0.18030176777492102,0.003019496554450147,0.030222198017596864,0.25818168640874695
MultiVersionCursor.loadNext,0.10283261610488806,0.5518907800796603,0.010425220790495224,0.08360510280497882,0.7487537197800224
MultiVersionCursor.next,0.11086589616266003,0.1781042314089421,0.01082757698933608,0.02818315233916701,0.3279808569001052
MultiVersionCursor.step,0.0,0.46401033611238957,0.0,0.06677395873789191,0.5307842948502814
MultiVersionIndex.commit,0.0902334251810252,0.0,0.004873328561078846,0.0,0.09510675374210405
MultiVersionIndex.compareRows,0.0,0.19759970529304627,0.0,0.029770936775595867,0.22737064206864213
MultiVersionIndex.find,0.0,0.09995657777310246,0.0,0.013062000001082196,0.11301857777418466
MultiVersionIndex.removeIfExists,0.0,0.0,0.0,0.0,0.0
NativeConstructorAccessorImpl.newInstance,0.07647699999506585,0.0,0.010644999999688782,0.0,0.08712199999475463
OERandom.randomAString,0.02553841501533393,0.0,0.003390097100071608,0.0,0.02892851211540554
OERandom.randomZIP,0.0,0.011456871794787448,0.0,0.0015399999999636226,0.01299687179475107
OERandom.setSeed,0.0,0.0,0.0,0.0,0.0
ObjectArray$ObjectArrayIterator.hasNext,0.11537081933920536,0.0,0.014025173865043625,0.0,0.129395993204249
ObjectArray$ObjectArrayIterator.next,0.0,0.0,0.0,0.0,0.0
ObjectArray.add,0.0,0.060811333329183974,0.0,0.008239999999204883,0.06905133332838886
ObjectArray.createArray,0.12137109895335435,0.0,0.009940264850348341,0.0,0.1313113638037027
ObjectArray.get,0.06982433333178051,0.26322607438154655,0.010845000000699656,0.03753306417927919,0.3814284718933059
ObjectArray.iterator,0.0,0.06065789154235435,0.0,0.009331732502374051,0.0699896240447284
ObjectArray.size,0.027688667439782176,0.0,0.004084643610154554,0.0,0.031773311049936734
ObjectArray.sort,0.21403925303156954,0.13454787555031425,0.024205906644032493,0.020183482937013702,0.39297651816293
ObjectArray.swap,0.0,0.2054522188259498,0.0,0.02978775792771688,0.23523997675366667
ObjectUtils.arrayCopy,0.0,0.24150746425293318,0.0,0.035135131694013416,0.2766425959469466
Parameter.optimize,0.057679321022156976,0.0,0.005426555512834132,0.0,0.06310587653499111
Parser.initialize,0.0,0.0797933333281738,0.0,0.009619999999510279,0.08941333332768409
Parser.readFunction,0.0,0.038768000002684336,0.0,0.0041828571429793964,0.04295085714566373
Prepared.checkCanceled,0.06320986843513816,0.1601360000010269,0.004521774422234837,0.021725000002334124,0.24959264286073402
Prepared.checkParameters,0.0,0.1270888888846255,0.0,0.016293333334033377,0.14338222221865887
Query.getParameterValues,0.0,0.07620062035616035,0.0,0.010708603082539406,0.08690922343869975
Query.query,0.0,0.1336082885716845,0.0,0.020325101265805265,0.15393338983748978
Record.<init>,0.0,0.0,0.0,0.0,0.0
Row.<init>,0.022285997039195208,0.0,0.0018063676908088289,0.0,0.024092364730004038
Row.getValue,0.9640564442003885,2.144283589586166,0.10146036776352094,0.3054356380333668,3.5152360395834417
Row.isEmpty,0.035955555238568984,0.0,0.0,0.0,0.035955555238568984
Row.setValue,0.1403621760051998,0.15268966666189954,0.01488577159529626,0.020540000000134263,0.32847761426252986
ScanCursor.next,0.2572454165380411,0.0,0.025088076221831145,0.0,0.28233349275987224
ScanIndex.add,0.0,0.0,0.0,0.0,0.0
ScanIndex.getNextRow,1.8340812354367595,0.11293533333810045,0.1826038193743247,0.01493999999972099,2.1445603881489057
ScanIndex.incrementRowCount,0.0,0.08532699999826339,0.0,0.01118999999986651,0.0965169999981299
Schema.findTableOrView,0.0695393333347359,0.0,0.01081999999951222,0.0,0.08035933333424812
Select.getCurrentGroup,0.06256099999882281,0.0,0.0051099999994524605,0.0,0.06767099999827526
Select.getPlanSQL,0.0,0.06099433333535367,0.0,0.009560000001026006,0.07055433333637968
Select.isEverything,0.08762531766391589,0.26279726734990005,0.010470668486077942,0.03407703843814285,0.39497029193803673
Select.queryFlat,0.3024666666678968,0.6698539709778294,0.03834000000076938,0.09559633035371382,1.1062569680002092
Select.queryWithoutCache,0.0,0.06984075157515714,0.0,0.010714695909808572,0.08055544748496571
Session.<init>,0.0,0.05118616260077077,0.0,0.005569268293192277,0.056755430893963045
Session.isReconnectNeeded,0.2686836254642182,0.0,0.01485217587496801,0.0,0.2835358013391862
Session.rollback,0.0,0.0,0.0,0.0,0.0
Set.update,0.0,0.0,0.0,0.0,0.0
SimpleInsert.customerTable,0.08888414567608163,0.06251626667411378,0.010019788451669443,0.006592000000334035,0.1680122008021989
SimpleInsert.itemTable,0.0366868954465983,0.0,0.004438156478324854,0.0,0.04112505192492315
SimpleInsert.orderTable,0.0,0.004826020088912023,0.0,0.0007848341116000397,0.005610854200512063
SimpleInsert.stockTable,0.04747263691857602,0.04831202488383666,0.005126652558908489,0.006074302043315891,0.10698561640463707
Standard.getOrderStatusForCustomer,0.0,0.0,0.0,0.0,0.0
Standard.newOrder,0.0,0.0,0.0,0.0,0.0
StringCache.get,0.07183144242010896,0.1301879411741324,0.008333606556579061,0.016695294118107995,0.22704828426892842
TPCC.calculateSumDB,0.3489173333267293,0.0,0.02818000000115717,0.0,0.3770973333278865
TPCC.configure,0.0,0.06498512791714095,0.0,0.009166413861084114,0.07415154177822507
TPCCSubmitter.runTransactions,0.03736736183925783,0.0,0.003233897457878225,0.0,0.04060125929713606
Table.compareTypeSave,0.18596861431763956,0.302792847292094,0.020645399915539507,0.04379218127394879,0.5531990427992218
Table.fireBeforeRow,0.0,0.0,0.0,0.0,0.0
Table.getTemplateRow,0.11198940551405343,0.31758872141755556,0.012110193771506293,0.046885164380830235,0.48857348508394555
TableData$1.compare,0.09512097326881044,0.503258847930407,0.009842343082922037,0.07353532432637663,0.6817574886085161
TableData.addIndex,0.04203669591251665,0.5613593169584273,0.0031000364151686907,0.0751885974637619,0.6816846467498746
TableData.addRow,0.014281652581947963,0.0,0.0018022535211666805,0.0,0.016083906103114644
TableData.addRowsToIndex,0.183937907887449,0.12636665420059065,0.0190788939249409,0.018751350276716084,0.3481348062896966
TableData.doLock,0.0440920337667549,0.0,0.0035784480540840425,0.0,0.04767048182083894
TableData.lock,0.029895817724222347,0.0,0.003542573029372094,0.0,0.03343839075359444
TableFilter.getValue,0.4473530993880681,0.1520400678250593,0.04229989370185912,0.022480265127518335,0.6641733260425049
TableFilter.isOk,0.053095999997350624,0.1707475893656919,0.004542222221735519,0.024570731619156475,0.2529565432039345
TableFilter.next,0.0793481417947909,0.07348633333458565,0.0067399999995056215,0.009515000000343813,0.16908947512922595
TableFilter.startQuery,0.0,0.052857405776552485,0.0,0.008049748813645589,0.060907154590198076
Trace.isDebugEnabled,0.015790111262651146,0.0,0.0016904427504504456,0.0,0.01748055401310159
Trace.isEnabled,0.1593190326357333,0.012693955555247764,0.02124640854336597,0.0015120000000428664,0.19477139673438992
TraceObject.debugCodeCall,0.047916586945688316,0.0,0.004586553937317072,0.0,0.05250314088300539
TraceSystem.getTrace,0.018897058563906367,0.0741983333233899,0.0019510330763279624,0.009540000000318587,0.10458642496394281
TransactionCommand.update,0.0,0.09547933333669788,0.0,0.014985000000403184,0.11046433333710107
TreeCursor.<init>,0.058675337150271185,0.08000488983437047,0.005191606860185004,0.01213886197738952,0.1560106958222162
TreeCursor.get,0.0,0.0721173981855624,0.0,0.010784873428440641,0.08290227161400304
TreeCursor.next,0.06504370776833067,0.13246820435084514,0.006241917645435663,0.017493011217328654,0.2212468409819401
TreeIndex.add,0.2479008924334703,0.2125084852034621,0.0263145170429358,0.032489049721017585,0.5192129444008858
TreeIndex.balance,0.06198849399990829,0.400101725295107,0.006168431191693461,0.059108082891240366,0.5273667333779491
TreeIndex.child,0.0,0.07372209387879035,0.0,0.010803253570352844,0.0845253474491432
TreeIndex.find,0.33504136732760814,0.3330676397110917,0.03865083164532433,0.051218113961376016,0.7579779526454002
TreeIndex.findFirstNode,0.12616565526300563,0.40697744436306427,0.011007875643186608,0.059252846736555856,0.6034038220058123
TreeIndex.next,0.0480005314115781,0.9754135900957757,0.003932203837664736,0.14729645854852053,1.1746427838935392
TreeIndex.remove,0.0,0.0,0.0,0.0,0.0
TreeIndex.replace,0.0,0.1439881902542413,0.0,0.021850364324259783,0.1658385545785011
TreeIndex.set,0.040081300503282485,0.20414581761768938,0.005631356539820464,0.031061143653941435,0.2809196183147338
URLClassPath$FileLoader.getResource,0.0,0.03895700185766207,0.0,0.005038973666627754,0.043995975524289826
UndoLog.clear,0.0,0.0,0.0,0.0,0.0
UndoLog.getLast,0.05391412341500448,0.15004466667111652,0.006995170456610311,0.02002999999967869,0.23098396054241
UndoLog.size,0.020590040817018124,0.0,0.002993877551118055,0.0,0.02358391836813618
UndoLogRecord.commit,0.06140622018672204,0.0,0.0035623312611292725,0.0,0.06496855144785131
Update.update,0.07441822967016751,0.0,0.009027856011742991,0.0,0.0834460856819105
Value.cache,0.06313505568032957,0.07524035342155244,0.005940990971284364,0.010399834110630298,0.15471623418379668
Value.checkPrecision,0.05832176561837631,0.0,0.004570264851400735,0.0,0.06289203046977705
Value.compareTo,0.0,0.06150920955586984,0.0,0.009353623984658737,0.07086283354052858
Value.compareTypeSave,0.1547222112480316,0.40613958761231905,0.015240583257732324,0.06160814564651905,0.637710527764602
Value.convertTo,0.27953522925088975,0.32986507890907113,0.02951653026524017,0.0398914024238324,0.6788082408490334
ValueBoolean.getString,0.05777235009945493,0.0,0.0004535394243537116,0.0,0.058225889523808645
ValueExpression.getValue,0.12367549403075191,0.0,0.01146611401830356,0.0,0.13514160804905548
ValueExpression.isEverything,0.0,0.0694777068966464,0.0,0.010729645633949509,0.08020735253059591
ValueInt.compareSecure,0.25431527774233986,0.3983142840868405,0.024334285132678317,0.05460683829565213,0.7315706852575109
ValueInt.get,0.0,0.06656158286119927,0.0,0.00872841997826108,0.07529000283946036
ValueInt.subtract,0.0,0.0,0.0,0.0,0.0
ValueShort.compareSecure,0.21890738434563076,0.14177164441343804,0.02040133565709127,0.02145885531334174,0.4025392197295018
ValueShort.equals,0.02110521818612716,0.0,0.002031324619919235,0.0,0.023136542806046396
ValueString.get,0.03465542221034315,0.0,0.0038571395151075455,0.0,0.03851256172545069
ValueStringFixed.get,0.059144950249702635,0.0,0.008290298507713643,0.0,0.06743524875741627
ValueStringFixed.trimRight,0.054885707513432185,0.03600266666617245,0.008706547084344119,0.003808000000329533,0.10340292126427829
ValueTimestamp.convertScale,0.017539866390272052,0.0,0.0020247554150818092,0.0,0.01956462180535386
ZoneInfo.getOffsets,0.5454691119912223,0.0,0.0776288482775461,0.0,0.6230979602687684
ZoneInfo.getTransitionIndex,0.1838583333301358,0.0,0.023149999999683736,0.0,0.20700833332981952
ZoneInfoFile.load,0.0,0.06990631187003628,0.0,0.007872309096767236,0.07777862096680352
