method,package1,package2,dram1,dram2,energy
AbstractStringBuilder.<init>|StringBuffer.<init>|Timestamp.toString,0.0,0.6685144444274354,0.0,0.10559544444369277,0.7741098888711281
AbstractStringBuilder.<init>|StringBuilder.<init>|Timestamp.toString,0.0,0.09184153333771972,0.0,0.014740000000165308,0.10658153333788503
AbstractStringBuilder.append|StringBuffer.append|Timestamp.toString,0.0,0.3911130000002837,0.0,0.06400499999896661,0.4551179999992503
AbstractStringBuilder.append|StringBuilder.append|BigDecimal.layoutChars,0.0,0.06532799999695271,0.0,0.01088500000090183,0.07621299999785454
AbstractStringBuilder.ensureCapacityInternal|AbstractStringBuilder.append|StringBuffer.append,0.0,0.35133244908178884,0.0,0.05064473294546215,0.40197718202725097
AbstractStringBuilder.ensureCapacityInternal|AbstractStringBuilder.append|StringBuilder.append,0.0,0.061198000000634536,0.0,0.009565000000293368,0.0707630000009279
AbstractStringBuilder.newCapacity|AbstractStringBuilder.ensureCapacityInternal|AbstractStringBuilder.append,0.0,0.11313899999368003,0.0,0.019100000001344597,0.13223899999502464
ArrayList$Itr.next|Session.commit|TransactionCommand.update,0.0,0.09181733334359403,0.0,0.01239999999961583,0.10421733334320986
Arrays.copyOfRange|String.<init>|String.substring,0.0,0.06433133333727406,0.0,0.010890000000169191,0.07522133333744326
Arrays.copyOfRange|String.<init>|Timestamp.toString,0.0,0.1061483333449966,0.0,0.016934000001007612,0.12308233334600421
Arrays.copyOf|AbstractStringBuilder.ensureCapacityInternal|AbstractStringBuilder.append,0.0,0.46470010354100766,0.0,0.07382709019012372,0.5385271937311313
Arrays.copyOf|ArrayList.grow|ArrayList.ensureExplicitCapacity,0.0,0.06871549999535394,0.0,0.009625000000899792,0.07834049999625373
Arrays.copyOf|String.concat|OERandom.randomAString10_20,0.0,0.045536243574797235,0.0,0.005903052896723427,0.051439296471520665
Arrays.copyOf|String.concat|OERandom.randomAString300_500,0.0,0.07762430110074624,0.0,0.009289753334753641,0.08691405443549988
AtomicLong.compareAndSet|Random.next|Random.nextDouble,0.0,0.19241678818648203,0.0,0.028602787446080857,0.2210195756325629
BigDecimal.<init>|BigDecimal.<init>|BigDecimal.<init>,0.0,0.12304095091271419,0.0,0.017746336576743325,0.1407872874894575
BigDecimal.<init>|ValueTimestamp.convertScale|Column.validateConvertUpdateSequence,0.04088205128259416,0.0,0.004142564102513795,0.0,0.045024615385107956
BigDecimal.divideAndRound|BigDecimal.setScale|BigDecimal.toBigInteger,0.0,0.02249395833435604,0.0,0.0029843750000206146,0.025478333334376657
BigDecimal.equals|ValueDecimal.get|Value.convertTo,0.0,0.02746801770022767,0.0,0.002836215503946275,0.03030423320417394
BigDecimal.layoutChars|BigDecimal.toString|ValueDecimal.getString,0.0,0.07379166666457118,0.0,0.012250000000979828,0.086041666665551
BigDecimal.movePointLeft|ValueTimestamp.convertScale|Column.validateConvertUpdateSequence,0.0,0.030795448584768684,0.0,0.004024226204621664,0.03481967478939035
BigDecimal.setScale|MathUtils.setScale|ValueTimestamp.convertScale,0.0,0.0,0.0,0.0,0.0
BigDecimal.signum|BigDecimal.setScale|MathUtils.setScale,0.0,0.01367672119320497,0.0,0.0019165454124566504,0.015593266605661621
BigDecimal.valueOf|BigDecimal.divideAndRound|BigDecimal.setScale,0.0,0.026219272728529617,0.0,0.0034672727272140264,0.029686545455743642
BigDecimal.valueOf|BigDecimal.setScale|MathUtils.setScale,0.029249388889487214,0.0,0.003684166666668413,0.0,0.032933555556155625
BigInteger.<init>|BigInteger.<init>|ValueLong.<clinit>,0.0,0.13625066666281782,0.0,0.020229999999476903,0.1564806666622947
BigInteger.<init>|BigInteger.valueOf|BigDecimal.inflated,0.0037406612375758107,0.0,0.0004832178055302129,0.0,0.004223879043106024
BigInteger.equals|BigDecimal.equals|ValueDecimal.get,0.0,0.0,0.0,0.0,0.0
BigInteger.longValue|BigInteger.smallToString|BigInteger.toString,0.0,0.08574230415501674,0.0,0.01064811656181744,0.09639042071683418
BigInteger.smallToString|BigInteger.toString|BigInteger.toString,0.0,0.05023841958415684,0.0,0.0053184161566766424,0.055556835740833484
BigInteger.toString|BigInteger.toString|ValueDecimal.getPrecision,0.0,0.01414757315454674,0.0,0.0016466741679810695,0.01579424732252781
BigInteger.valueOf|BigDecimal.inflated|BigDecimal.toBigInteger,0.0,0.021079740740350204,0.0,0.0036472222223151393,0.024726962962665345
Boolean.equals|ConditionAndOr.getValue|ConditionAndOr.getValue,0.0,0.03968079999710122,0.0,0.005500000000271636,0.04518079999737285
Boolean.equals|Delete.update|CommandContainer.update,0.0,0.08900966666988097,0.0,0.012380000000121072,0.10138966667000204
BufferedInputStream.read1|BufferedInputStream.read|DataInputStream.readFully,0.0,0.1206791250090949,0.0,0.015561874998941978,0.13624100000803688
BufferedInputStream.read|DataInputStream.readInt|AttributeInfo.<init>,0.0,0.046679800003767015,0.0,0.005910000000585568,0.05258980000435258
BufferedInputStream.read|DataInputStream.readUnsignedShort|FieldInfo.read,0.0,0.04765203333518001,0.0,0.00769650000038382,0.05534853333556383
ByteArrayInputStream.read|DataInputStream.readByte|ZoneInfoFile.readEpochSec,0.0,0.06871549999535394,0.0,0.009625000000899792,0.07834049999625373
Calendar$Builder.build|CalendarProviderImpl.getInstance|Calendar.createCalendar,0.0,0.13795966666657478,0.0,0.01776999999977609,0.15572966666635085
CharacterDataLatin1.getProperties|CharacterDataLatin1.toUpperCaseEx|Character.toUpperCaseEx,0.0,0.0,0.0,0.0,0.0
ClassLoader.defineClass1|ClassLoader.defineClass|SecureClassLoader.defineClass,0.0,0.04739586666303997,0.0,0.005439999999847107,0.05283586666288708
ClassLoader.findBootstrapClass|ClassLoader.findBootstrapClassOrNull|ClassLoader.loadClass,0.0,0.008984399994369596,0.0,0.0012119999992137311,0.010196399993583327
Date.getHours|Timestamp.toString|ValueTimestamp.getString,0.0,0.13067633332684636,0.0,0.021764999998898322,0.1524413333257447
Date.getMinutes|Timestamp.toString|ValueTimestamp.getString,0.0,0.058545066664616265,0.0,0.009808000000581766,0.06835306666519803
Date.getMonth|Timestamp.toString|ValueTimestamp.getString,0.0,0.15287551497863403,0.0,0.01784155577365137,0.1707170707522854
Date.getSeconds|Timestamp.toString|ValueTimestamp.getString,0.0,0.04597973333050808,0.0,0.0076159999996889376,0.053595733330197015
Date.normalize|Date.getHours|Timestamp.toString,0.0,0.0813596666654727,0.0,0.01359500000035041,0.09495466666582311
Date.normalize|Date.getYear|Timestamp.toString,0.0,0.1295779166612192,0.0,0.020412499998504547,0.14999041665972376
FileOutputStream.writeBytes|FileOutputStream.write|BufferedOutputStream.write,0.0,0.13343696667094868,0.0,0.018609000000651573,0.15204596667160025
FileOutputStream.write|FileOutputStream.write|TeeOutputStream.write,0.0,0.016303111110270642,0.0,0.0027466666668058467,0.01904977777707649
Formatter.parse|Formatter.format|PrintStream.format,0.0,0.02311200000177551,0.0,0.0018083333335299453,0.024920333335305456
HashMap$Node.<init>|HashMap.newNode|HashMap.putVal,0.0,0.07168528981479662,0.0,0.01070131385323904,0.08238660366803566
HashMap.<init>|HashSet.<init>|IndexCursor.find,0.0,0.0,0.0,0.0,0.0
HashMap.getNode|HashMap.containsKey|HashSet.contains,0.0,0.07345933333272114,0.0,0.009993333333113695,0.08345266666583484
HashMap.getNode|LinkedHashMap.get|TraceSystem.getTrace,0.0,0.0,0.0,0.0,0.0
HashMap.hash|HashMap.containsKey|HashSet.contains,0.0,0.0,0.0,0.0,0.0
HashMap.hash|HashMap.remove|HashSet.remove,0.0,0.07558466576947914,0.0,0.009319914766326882,0.08490458053580602
HashMap.putVal|HashMap.put|JdbcResultSet.getColumnIndex,0.0,0.0,0.0,0.0,0.0
HashMap.putVal|HashMap.put|ScanIndex.incrementRowCount,0.010865635870407848,0.13341775195777245,0.0018324837591870075,0.018210198769228376,0.1643260703565957
HashMap.put|HashSet.add|ScanIndex.add,0.0,0.06219466667001445,0.0,0.009579999999308106,0.07177466666932256
HashMap.removeNode|HashMap.remove|HashSet.remove,0.0555957584202336,0.0,0.00587458952797199,0.0,0.06147034794820559
HashMap.resize|HashMap.putVal|HashMap.put,0.0,0.0,0.0,0.0,0.0
Hashtable.keySet|ConnectionInfo.readProperties|ConnectionInfo.<init>,0.0,0.045434599998407064,0.0,0.0065820000003441225,0.05201659999875119
Inflater.inflateBytes|Inflater.inflate|InflaterInputStream.read,0.0,0.46704949883853836,0.0,0.06491418965522971,0.5319636884937681
Inflater.setInput|ZipFile$ZipFileInflaterInputStream.fill|InflaterInputStream.read,0.0,0.03363453332955638,0.0,0.004372000000148546,0.03800653332970493
Integer.getChars|AbstractStringBuilder.append|StringBuffer.append,0.0,0.059387709067457065,0.0,0.006405433377905693,0.06579314244536276
Integer.getChars|Integer.toString|String.valueOf,0.0,0.42681900001480244,0.0,0.07164500000120218,0.4984640000160046
Integer.getChars|Integer.toString|Timestamp.toString,0.0,0.8797796629588696,0.0,0.13308045222370085,1.0128601151825705
Integer.stringSize|Integer.toString|Timestamp.toString,0.0,0.14312719999191661,0.0,0.022323999999692506,0.16545119999160912
Integer.toString|String.valueOf|ValueInt.getString,0.0,0.7414799333491828,0.0,0.11683699999921371,0.8583169333483965
Integer.toString|String.valueOf|ValueShort.getString,0.0,1.6066884368517844,0.0,0.25749509019112804,1.8641835270429126
Integer.toString|Timestamp.toString|ValueTimestamp.getString,0.0,2.9395244216128393,0.0,0.4644158290419859,3.4039402506548253
JarFile.getManifestFromReference|JarFile.getManifest|URLClassPath$JarLoader$2.getManifest,0.0,0.046679800003767015,0.0,0.005910000000585568,0.05258980000435258
LinkedHashMap.afterNodeAccess|LinkedHashMap.get|TraceSystem.getTrace,0.0,0.016051942029302033,0.0,0.001892173912905939,0.01794411594220797
MutableBigInteger.<init>|BigInteger.smallToString|BigInteger.toString,0.0,0.022518412698498837,0.0,0.003457936507681441,0.025976349206180277
MutableBigInteger.divadd|MutableBigInteger.divideMagnitude|MutableBigInteger.divideKnuth,0.0,0.0,0.0,0.0,0.0
MutableBigInteger.divideMagnitude|MutableBigInteger.divideKnuth|MutableBigInteger.divide,0.0,0.08663949999026954,0.0,0.01230000000032305,0.0989394999905926
Object.hashCode|HashMap.hash|HashMap.remove,0.05708545303385539,0.11135617132964665,0.006814095376860535,0.014020171486777032,0.18927589122713961
Object.wait|Command.executeUpdate|JdbcPreparedStatement.executeUpdateInternal,0.0,0.0,0.0,0.0,0.0
PrintStream.format|TPCC.report|TPCC.iteration,0.0,0.02311200000177551,0.0,0.0018083333335299453,0.024920333335305456
Random.nextDouble|OERandom.randomInt|OERandom.randomAString24,0.006799107359737722,0.0,0.0010797503691542813,0.0,0.007878857728892004
Random.nextDouble|OERandom.randomInt|SimpleInsert.orderTable,0.007448437018736772,0.013709989986628151,0.000930034306419358,0.0016254027313321359,0.023713864043116418
Random.next|Random.nextDouble|OERandom.randomAString,0.015630338797752892,0.0,0.0018511475408971413,0.0,0.017481486338650033
Random.next|Random.nextDouble|OERandom.randomInt,0.009065976592059216,0.10522962014038696,0.0015049465954194564,0.015083611068033149,0.1308841543958988
SimpleDateFormat.initializeCalendar|SimpleDateFormat.<init>|SimpleDateFormat.<init>,0.0,0.2073337500017563,0.0,0.027394999999614804,0.2347287500013711
SoftReference.get|StringCache.getCache|StringCache.get,0.005084428838114396,0.0,0.0006760123926686293,0.0,0.005760441230783025
SoftReference.get|Value.cache|ValueStringFixed.get,0.0,0.03769526666534754,0.0,0.005644000000271869,0.04333926666561941
String.<init>|String.substring|Timestamp.toString,0.0,0.18882266667787914,0.0,0.03127000000070741,0.22009266667858657
String.<init>|StringBuffer.toString|Timestamp.toString,0.0,0.13889566668270464,0.0,0.023119999998016283,0.16201566668072093
String.charAt|TPCC.calculateSumDB|TPCC.calculateSumDB,0.0,0.07417800000985153,0.0,0.01224000000001979,0.08641800000987132
String.concat|OERandom.randomAString8_16|SimpleInsert.customerTable,0.0,0.02480700952333531,0.0,0.003658285714308953,0.028465295237644263
String.equals|ValueString.equals|Value.cache,0.0,0.08820468721347996,0.0,0.008534908744599709,0.09673959595807967
String.getChars|AbstractStringBuilder.append|StringBuffer.append,0.0,0.22426366665361758,0.0,0.031595000001592176,0.25585866665520973
String.hashCode|StringCache.get|ValueString.get,0.0,0.05269377778232511,0.0,0.00545333333381374,0.05814711111613885
String.hashCode|ValueStringFixed.hashCode|Value.cache,0.002806206613795966,0.0,0.0004014025659939439,0.0,0.00320760917978991
String.length|AbstractStringBuilder.append|StringBuffer.append,0.0,0.10417073334101587,0.0,0.01740799999946224,0.12157873334047811
String.length|TPCC.calculateSumDB|TPCC.calculateSumDB,0.0,0.05703380850206821,0.0,0.008035119200062278,0.06506892770213049
String.length|ValueString.get|JdbcPreparedStatement.setString,0.0,0.026149791665375236,0.0,0.003410937500044989,0.029560729165420227
String.substring|Timestamp.toString|ValueTimestamp.getString,0.0,0.14640300000125228,0.0,0.023199999999633292,0.16960300000088557
String.toCharArray|BigDecimal.<init>|ValueTimestamp.convertScale,0.026858517237966208,0.014241555555835709,0.003884156101950402,0.002403888888996637,0.047388117784748954
StringBuffer.append|Timestamp.toString|ValueTimestamp.getString,0.0,0.5469977833214216,0.0,0.08756975000063297,0.6345675333220545
StringBuffer.toString|OERandom.randomDecimalString|SimpleInsert.orderTable,0.0,0.02593562111952342,0.0,0.0038972604087121826,0.029832881528235603
StringBuffer.toString|Timestamp.toString|ValueTimestamp.getString,0.0,0.0501506666575248,0.0,0.008160000000013193,0.05831066665753799
StringBuilder.toString|BigInteger.smallToString|BigInteger.toString,0.0,0.02746801770022767,0.0,0.002836215503946275,0.03030423320417394
StringBuilder.toString|Timestamp.toString|ValueTimestamp.getString,0.0,0.14526333331984156,0.0,0.023175000000871172,0.16843833332071273
Throwable.fillInStackTrace|Throwable.fillInStackTrace|Throwable.<init>,0.0,0.021056105273184262,0.0,0.002904753427643355,0.023960858700827616
TimeZone.getDefaultRef|Date.normalize|Date.getDate,0.0,0.12386066666416201,0.0,0.020420000001953063,0.14428066666611508
Timestamp.compareTo|ValueTimestamp.compareSecure|Value.compareTypeSave,0.0,0.0,0.0,0.0,0.0
Timestamp.getTime|ValueTimestamp.getString|JdbcResultSet.getString,0.0,0.13661700000132743,0.0,0.02184000000003531,0.15845700000136273
Timestamp.toString|ValueTimestamp.getString|JdbcResultSet.getString,0.0,0.18828759119252575,0.0,0.028344632707486606,0.21663222390001236
URL.<init>|URL.<init>|URLClassPath$JarLoader.checkResource,0.0,0.09775799999867256,0.0,0.010865000000194414,0.10862299999886697
URLClassLoader.findClass|DacapoClassLoader.loadClass|ClassLoader.loadClass,0.0,0.045434599998407064,0.0,0.0065820000003441225,0.05201659999875119
