method,package1,package2,dram1,dram2,energy
AbstractCalendar.getCalendarDate,0.13677837619879304,0.0,0.020006667423308522,0.0,0.15678504362210158
AbstractCalendar.setTimeOfDay,0.22199387700842632,0.0,0.03317082997414252,0.0,0.2551647069825688
AbstractStringBuilder.<init>,1.1771535396688702,0.0,0.1391576588079435,0.0,1.3163111984768137
AbstractStringBuilder.append,0.307567187189146,0.0,0.035122767839095896,0.0,0.3426899550282419
AbstractStringBuilder.ensureCapacityInternal,0.5958869482818913,0.0,0.060869432105119615,0.0,0.6567563803870109
AbstractStringBuilder.insert,0.0,0.020034055538922037,0.0,0.0023649364941721713,0.022398992033094207
AbstractStringBuilder.newCapacity,0.0689877059316868,0.0,0.005070972440861831,0.0,0.07405867837254862
ArrayList.add,0.0,0.1030272000003606,0.0,0.013128000000142493,0.1161552000005031
Arrays.copyOf,0.26324379948086796,0.04870977683680108,0.021898475931633257,0.006231532879797806,0.34008358512910014
Arrays.copyOfRange,0.47666955152104523,0.1658013777833225,0.06838627133285907,0.024290666666476883,0.7351478673037037
AtomicLong.compareAndSet,0.0,0.19968578851307522,0.0,0.02698703714120921,0.22667282565428443
AtomicReferenceFieldUpdater$AtomicReferenceFieldUpdaterImpl.accessCheck,0.0,0.0,0.0,0.0,0.0
BaseCalendar$Date.<init>,0.053139086075392084,0.0,0.006882872525890552,0.0,0.060021958601282635
BaseCalendar.getCalendarDateFromFixedDate,0.26274231089064065,0.0,0.032416908485013336,0.0,0.295159219375654
BaseCalendar.getGregorianYearFromFixedDate,0.09137114893319356,0.0,0.00846177704462101,0.0,0.09983292597781457
BaseIndex.compareKeys,0.0,0.3607379999981883,0.0,0.055990000000747386,0.41672799999893567
BaseIndex.compareRows,1.1077667294160207,2.2693214668035755,0.10362005141319447,0.34478780490487926,3.82549605253767
BaseIndex.compareValues,0.28515129256817795,1.2317131749075354,0.02371693929556014,0.18806869749101376,1.728650104262287
BaseIndex.initBaseIndex,0.0,0.07039624357890377,0.0,0.010102407972114156,0.08049865155101793
BigDecimal.<clinit>,0.0,0.06360666666490336,0.0,0.00879999999985254,0.0724066666647559
BigDecimal.<init>,0.0052617601714186465,0.4003680854473444,0.0005701428971314861,0.059683155014335305,0.46588314353022986
BigDecimal.divideAndRound,0.0,0.10320083702221937,0.0,0.01430332450726763,0.117504161529487
BigDecimal.equals,0.0,0.0,0.0,0.0,0.0
BigDecimal.layoutChars,0.10132213424447888,0.0,0.007011473746670983,0.0,0.10833360799114986
BigDecimal.movePointLeft,0.00864718918901499,0.0,0.0010186486486434675,0.0,0.009665837837658458
BigDecimal.movePointRight,0.014395118012361206,0.0,0.0014166821944909711,0.0,0.01581180020685218
BigDecimal.toString,0.0,0.0,0.0,0.0,0.0
BigInteger.abs,0.0,0.08805279016026661,0.0,0.012288285289599571,0.10034107544986619
BigInteger.implSquareToLenChecks,0.0,0.0,0.0,0.0,0.0
BigInteger.multiplyByInt,0.0,0.0,0.0,0.0,0.0
BigInteger.smallToString,0.0,0.05425489465439467,0.0,0.005323807293302378,0.059578701947697044
BigInteger.valueOf,0.0,0.04641346079869737,0.0,0.007207351607404695,0.053620812406102066
BitField.getLastSetBit,0.0,0.07161466666730121,0.0,0.010980000000320915,0.08259466666762212
Boolean.equals,0.03531174826100595,0.08378100000360669,0.0029115902960397816,0.012504999998782296,0.1345093385594347
BufferedInputStream.read,0.0,0.13810943434346523,0.0,0.0199626666659738,0.15807210100943903
CacheObject.setPos,0.0,0.0680133340971649,0.0,0.00913085294266644,0.07714418703983134
Calendar$Builder.build,0.0,0.1030272000003606,0.0,0.013128000000142493,0.1161552000005031
CalendarDate.getMinutes,0.07125342965571692,0.0,0.0062293421426083155,0.0,0.07748277179832523
CalendarDate.setNormalized,0.09849390286142162,0.0,0.009288155433255707,0.0,0.10778205829467732
Character.isLetter,0.0,0.0,0.0,0.0,0.0
ClassFile.read,0.0,0.033772727271725395,0.0,0.0049727272722300386,0.038745454543955435
ClassLoader.defineClass1,0.0,0.1138556100969612,0.0,0.015210848484628406,0.1290664585815896
ClassLoader.findLoadedClass0,0.0,0.05037444445123482,0.0,0.007266666666611046,0.05764111111784587
ClassPool.get0,0.0,0.026551583332548038,0.0,0.004195625000117312,0.03074720833266535
Column.convert,0.0,0.19600206138792348,0.0,0.028737183588604966,0.22473924497652845
Column.getColumnId,0.0,0.7936203333471591,0.0,0.1270299999996496,0.9206503333468087
Column.validateConvertUpdateSequence,0.0,0.008872979166577958,0.0,0.0010784375000033226,0.009951416666581281
Command.checkCanceled,0.018416968233271408,0.11343036759186388,0.001835271781834889,0.015620119311458094,0.1493027269184283
Command.executeQueryLocal,0.07127520295223821,0.2460814666604468,0.005222421404639664,0.03941599999961909,0.3619950910169438
Command.executeUpdate,0.2294364353438905,0.17059960714686895,0.015982521156666974,0.02628664285764119,0.4423052065050676
CommandContainer.isTransactional,0.0,0.016704562499702053,0.0,0.0019556249998610533,0.018660187499563108
CommandContainer.recompileIfRequired,0.22390184297877158,0.20732344999220612,0.019495695299524222,0.030619250000017927,0.4813402382705198
CompareMode.compareString,0.05476515266979698,0.0,0.005100884229468573,0.0,0.05986603689926555
Comparison.getValue,0.06167728585365341,0.5350539999878189,0.008303237514796872,0.08161500000035934,0.6866495233566285
Comparison.isEverything,0.0,0.2591553333428843,0.0,0.03664000000086769,0.295795333343752
ConditionAndOr.getValue,0.05422393832392411,0.053507333330344416,0.005959494936012807,0.008160000000013193,0.12185076659029452
ConditionAndOr.isEverything,0.0,0.2290609333179115,0.0,0.032659999999304995,0.26172093331721646
ConstraintReferential.checkRow,0.0,0.0,0.0,0.0,0.0
DataInputStream.readUnsignedShort,0.0,0.03121121212395585,0.0,0.0049999999999162156,0.036211212123872065
Database.beforeWriting,0.012398902563757313,0.0,0.001794153846145864,0.0,0.014193056409903176
Database.findSetting,0.0,0.06455093333497644,0.0,0.008784000000256734,0.07333493333523318
Database.isReconnectNeeded,0.11524589730522697,0.0044352083338405155,0.010944143613367149,0.0005159374999645174,0.13114118675239914
Database.open,0.0,0.06260599999546279,0.0,0.007780000000073212,0.070385999995536
Date.getHours,0.06276003553718844,0.0,0.004845282724904593,0.0,0.06760531826209303
Date.getMinutes,0.11244465352993066,0.0,0.010850549218642827,0.0,0.12329520274857349
Date.getSeconds,0.0608781765925963,0.0,0.004613489467443772,0.0,0.06549166606004007
Date.normalize,0.0444790989068428,0.0,0.004142952293686667,0.0,0.04862205120052947
DbObjectBase.getSQL,0.0,0.05353186666810265,0.0,0.006554000000081335,0.06008586666818398
Delete.update,0.0,0.0,0.0,0.0,0.0
Driver.connect,0.0,0.09210888889437127,0.0,0.013656666666469794,0.10576555556084107
Engine.openSession,0.0,0.013353787878507072,0.0,0.0018681818183915423,0.015221969696898614
Expr.oprand1,0.0,0.10125044444834604,0.0,0.015506666666220147,0.11675711111456619
ExpressionColumn.getValue,0.19500862365336574,0.2895507333431548,0.02380382302402025,0.043391999999827624,0.5517551800203684
ExpressionColumn.isEverything,0.0,0.28203913333903374,0.0,0.04191900000005262,0.32395813333908635
ExpressionColumn.mapColumns,0.0,0.0959376315816036,0.0,0.013843421052833468,0.10978105263443706
ExpressionVisitor.<init>,0.0,0.08369933333597146,0.0,0.012959999998808295,0.09665933333477976
ExpressionVisitor.get,0.0,0.10198966666939667,0.0,0.013624999999592545,0.11561466666898922
ExpressionVisitor.incrementQueryLevel,0.0,0.06398499999583387,0.0,0.009519999999611171,0.07350499999544505
FileOutputStream.write,0.0,0.0,0.0,0.0,0.0
FileOutputStream.writeBytes,0.0,0.17418204861435999,0.0,0.025733645832916506,0.1999156944472765
FilePermission.init,0.0,0.056216969696282766,0.0,0.008104545454857129,0.0643215151511399
Function.isEverything,0.0,0.0,0.0,0.0,0.0
HashBase.reset,0.0,0.0,0.0,0.0,0.0
HashMap$Node.<init>,0.02215278765241424,0.0,0.0021002227271547983,0.0,0.024253010379569038
HashMap.getNode,0.0,0.10118644350404102,0.0,0.012551532879403804,0.11373797638344482
HashMap.hash,0.0,0.0770387484527056,0.0,0.010319194002048816,0.08735794245475442
HashMap.putVal,0.0,0.08389936515675547,0.0,0.01153216142250163,0.0954315265792571
HashMap.remove,0.024185826086424004,0.0,0.0024293478261666755,0.0,0.02661517391259068
HashMap.removeNode,0.046449801946875625,0.3281867919821816,0.0059239474836419795,0.04416318382342477,0.424723725236124
HashMap.resize,0.09199958980388243,0.0,0.009547288712948118,0.0,0.10154687851683054
IndexCondition.getCurrentValue,0.0,0.0,0.0,0.0,0.0
IndexCursor.find,0.0,0.42266833332056797,0.0,0.06138999999893712,0.4840583333195051
IndexCursor.getSearchRow,0.0,0.07014966665883549,0.0,0.010920000000623986,0.08106966665945947
Inflater.inflateBytes,0.0,0.3691189513839263,0.0,0.051838020833227146,0.42095697221715345
Insert.insertRows,0.012598276923362836,0.15780120186411595,0.001934692307725364,0.022480768746310196,0.19481493984151435
Integer.getChars,1.6835292369891328,0.06468994253639368,0.20056339830613457,0.010569863343568776,1.9593524411752297
Integer.toString,4.742362156208581,0.0,0.5933672607753795,0.0,5.335729416983961
Integer.valueOf,0.0015362623654010515,0.14154050000070129,0.00016425806452878195,0.02290499999980966,0.16614602043044077
JdbcConnection.checkClosed,1.0778233669064385,0.0,0.14059399099633346,0.0,1.218417357902772
JdbcPreparedStatement.checkClosed,0.03243184457388963,0.0,0.002587296915518374,0.0,0.035019141489408004
JdbcPreparedStatement.executeUpdateInternal,0.0,0.008628428557236924,0.0,0.0010604437916937944,0.009688872348930719
JdbcPreparedStatement.setParameter,0.0,0.08703624952824973,0.0,0.011868843506669977,0.0989050930349197
JdbcResultSet.checkOnValidRow,0.06022967125120605,0.0,0.0050700987981742865,0.0,0.06529977004938034
JdbcResultSet.get,0.08552121235246182,0.0,0.006298822670769965,0.0,0.09182003502323179
JdbcResultSet.getColumnIndex,0.0,0.0,0.0,0.0,0.0
JdbcResultSet.getString,0.04384743732993589,0.0,0.0040336654440877055,0.0,0.04788110277402359
JdbcResultSet.nextRow,0.19995312026623294,0.0,0.028177734164528304,0.0,0.22813085443076125
JdbcStatement.checkClosed,0.27849306996935513,0.20076546631157677,0.02598787644008294,0.026790905326014757,0.5320373180470297
LinkedHashMap.afterNodeAccess,0.0,0.009888109270661987,0.0,0.0014206053827328811,0.011308714653394867
LocalResult.addRow,0.0,0.06396466667259422,0.0,0.009540000000318587,0.0735046666729128
LocalResult.close,0.0,0.04649363889054964,0.0,0.0062149999997321475,0.05270863889028179
LocalResult.getList,0.0,0.09169533332654584,0.0,0.01388999999956771,0.10558533332611354
LocalResult.getRowCount,0.07663598866714995,0.0,0.0049979780192701325,0.0,0.08163396668642008
LocalResult.next,0.0,0.21077433333266526,0.0,0.03125999999974737,0.24203433333241264
Long.getChars,0.01509519985632364,0.0,0.0015600498562240224,0.0,0.016655249712547664
Long.toString,0.0,0.07424338564312426,0.0,0.011926760098478031,0.08617014574160228
MathUtils.compare,0.0,0.2764469929998882,0.0,0.04086906239735168,0.31731605539723984
Message.getSQLException,0.0,0.0,0.0,0.0,0.0
MessageFormat.makeFormat,0.0,0.0,0.0,0.0,0.0
MultiVersionCursor.getSearchRow,0.038701885231879694,0.24751766667274447,0.0025773595768852965,0.038010000001425695,0.32680691148293517
MultiVersionCursor.loadNext,0.02856368329220425,0.40608699998119846,0.0020093238522600645,0.05858500000128212,0.4952450071269449
MultiVersionCursor.next,0.025848334605564485,0.892364694462837,0.002421154197370079,0.12930000000172487,1.0499341832674964
MultiVersionCursor.step,0.05885238202142841,0.3262815999895489,0.005394693828155199,0.04947100000208593,0.43999967584121846
MultiVersionIndex.add,0.0,0.08527288889227848,0.0,0.010413333333821759,0.09568622222610024
MultiVersionIndex.compareRows,0.0,0.33871702731044306,0.0,0.053389864043610874,0.39210689135405397
MultiVersionIndex.find,0.0,0.2772626666604386,0.0,0.043574999997266176,0.32083766665770475
MutableBigInteger.divideKnuth,0.0,0.0,0.0,0.0,0.0
OERandom.randomAString10_20,0.02742952380989057,0.0,0.002385714285645961,0.0,0.02981523809553653
OERandom.randomDecimalString,0.0,0.00939439393925678,0.0,0.0010603896103749198,0.010454783549631698
OERandom.randomInt,0.023306113775875853,0.0,0.001567983007931423,0.0,0.024874096783807274
Object.clone,0.0,0.05933934389748647,0.0,0.007192800365401946,0.06653214426288842
Object.hashCode,0.0,0.11775649691249931,0.0,0.016400302422048128,0.13415679933454744
Object.wait,0.06470921874137649,0.0,0.006172535052191071,0.0,0.07088175379356756
ObjectArray$ObjectArrayIterator.hasNext,0.0,0.028138726492488005,0.0,0.0048487179486454614,0.03298744444113347
ObjectArray.add,0.0,0.04324695442954362,0.0,0.0062032082102087575,0.049450162639752375
ObjectArray.createArray,0.0,0.08219399999749535,0.0,0.011210000000573928,0.09340399999806928
ObjectArray.get,0.12714914219075552,0.23105784444552327,0.012510920696770358,0.03433733333327432,0.4050552406663235
ObjectArray.iterator,0.0,0.0,0.0,0.0,0.0
ObjectArray.newInstance,0.0,0.08131933332576105,0.0,0.012215000000045013,0.09353433332580606
ObjectArray.size,0.00643783783789741,0.0,0.0008221621621716851,0.0,0.007260000000069096
ObjectArray.sort,0.0,0.3520724951320714,0.0,0.05000121127177703,0.40207370640384843
ObjectArray.swap,0.0,0.05458566666735957,0.0,0.008220000000922784,0.06280566666828236
ObjectArray.toArray,0.0,0.05596933333436027,0.0,0.00675999999900038,0.06272933333336066
ObjectUtils.arrayCopy,0.0,0.23000099998898801,0.0,0.033009999999194406,0.26301099998818245
Operation.getValue,0.0,0.0,0.0,0.0,0.0
Parameter.getParamValue,0.0,0.057739333336940035,0.0,0.008924999999483891,0.06666433333642392
Parameter.optimize,0.0,0.05694926709208244,0.0,0.006593145875426965,0.0635424129675094
Parser.parsePrepared,0.0,0.0,0.0,0.0,0.0
Prepared.checkCanceled,0.0,0.10621116666394906,0.0,0.012790000000071206,0.11900116666402026
Prepared.checkParameters,0.0,0.05797734885925281,0.0,0.007816397026963805,0.06579374588621661
Prepared.setCurrentRowNumber,0.10064984258800237,0.040771168676200065,0.0073947899299262555,0.005291485593871401,0.1541072867880001
Query.getParameterValues,0.0,0.12831633333310796,0.0,0.019034999999954984,0.14735133333306294
Query.isEverything,0.0,0.17464200000783117,0.0,0.02663499999956305,0.20127700000739424
Query.query,0.0,0.16262600001258154,0.0,0.02393700000223665,0.18656300001481818
Random.next,0.0,0.10761723430929826,0.0,0.013912188803471703,0.12152942311276996
Random.nextDouble,0.013403826086964131,0.10544405776173692,0.0013930434783422086,0.01382323454623835,0.1340641618732816
Row.<init>,0.0,0.16231266667212668,0.0,0.024520000000241755,0.18683266667236845
Row.getValue,0.3450435631784634,1.6240628574915017,0.03658939421719137,0.26828284030662164,2.2739786551937784
Row.isEmpty,0.06085166449875196,0.0,0.010847980802704826,0.0,0.07169964530145678
Row.setValue,0.0,0.05931188080972606,0.0,0.007634624707127064,0.06694650551685312
SHA256.rot,0.061798034342525225,0.0,0.0045976762435204176,0.0,0.06639571058604564
ScanIndex.getNextRow,0.9488866097330441,0.0,0.12370549201315256,0.0,1.0725921017461966
ScanIndex.remove,0.053603934879817884,0.0,0.004530114709967803,0.0,0.058134049589785686
Schema.findTableOrView,0.0,0.012929882353180835,0.0,0.0015244117647514439,0.01445429411793228
Select.isEverything,0.0,0.24652100000336455,0.0,0.037680000001273584,0.2842010000046381
Select.queryFlat,0.6712630234741437,0.8429565333004574,0.07981100303651538,0.13080199999773565,1.724832559808852
Select.queryWithoutCache,0.0,0.14660633333066167,0.0,0.021745000000616223,0.16835133333127789
Session.isReconnectNeeded,0.5613865328288218,0.0227836707516206,0.0761641852932809,0.002642314965161535,0.6629767038388847
Session.rollbackTo,0.0,0.0,0.0,0.0,0.0
SimpleDateFormat.initializeCalendar,0.0,0.07100424242459914,0.0,0.009934090908659115,0.08093833333325826
SimpleInsert.customerTable,0.02763655602933168,0.09085117005712832,0.0032233975202824536,0.010820567565024648,0.1325316911717671
SimpleInsert.orderTable,0.11527050236409923,0.012617440706976093,0.01573666464667502,0.0014307967203076152,0.14505540443805795
SimpleInsert.stockTable,0.027291428571819168,0.0384316856062864,0.0028750000001309672,0.004810097944181485,0.07340821212241802
SoftReference.get,0.02215278765241424,0.07554513523099914,0.0021002227271547983,0.01037175565766122,0.1101699012682294
Standard.<init>,0.052701641678281536,0.0,0.005128044088762224,0.0,0.05782968576704376
Standard.paymentById,0.0,0.07551556249381974,0.0,0.012534375000086584,0.08804993749390633
StatementHelper.prepareStatement,0.0,0.0,0.0,0.0,0.0
String.<init>,0.055087585772592665,0.0,0.004027270448412157,0.0,0.05911485622100482
String.charAt,0.08875545297941158,0.0,0.0069800180016347845,0.0,0.09573547098104636
String.getChars,0.37598496074526044,0.0,0.052435178896360006,0.0,0.42842013964162046
String.hashCode,0.02623359541360065,0.0,0.0005333748072239426,0.0,0.026766970220824592
String.length,0.0,0.01050441666666302,0.0,0.001171249999970314,0.011675666666633335
String.substring,0.057697451394715236,0.0,0.003897619292504039,0.0,0.061595070687219276
String.toCharArray,0.0301084804111589,0.0,0.004284523647524175,0.0,0.03439300405868308
String.toUpperCase,0.0,0.0,0.0,0.0,0.0
String.valueOf,0.0655669329740115,0.0,0.011846599247068323,0.0,0.07741353222107983
StringBuffer.append,0.5030927147395308,0.0,0.04787555351158302,0.0,0.5509682682511138
StringBuffer.length,0.0,0.0017275658700720894,0.0,0.0001871089280265154,0.0019146747980986049
StringBuffer.setLength,0.0,0.05394614395598728,0.0,0.006093261626586286,0.06003940558257356
StringBuffer.toString,0.2714659770283053,0.03265519115175045,0.02991824884969358,0.005361055086436203,0.33940047211618557
StringBuilder.<init>,0.04763269275329092,0.0,0.009263962507536644,0.0,0.056896655260827565
StringBuilder.append,0.13476483269812542,0.0,0.012156644317019471,0.0,0.14692147701514488
StringBuilder.toString,0.1301141317573419,0.0,0.00913291844497586,0.0,0.13924705020231776
StringCache.get,0.0,0.14525180338476845,0.0,0.01882225430183567,0.16407405768660413
StringTokenizer.skipDelimiters,0.0,0.0,0.0,0.0,0.0
System.nanoTime,0.0,0.0,0.0,0.0,0.0
TPCC.calculateSumDB,0.47492672024823657,0.0,0.03344381818775044,0.0,0.508370538435987
TPCC.getTestResource,0.0,0.04173444444313645,0.0,0.006389999999858749,0.0481244444429952
TPCC.runScript,0.0,0.03344733333344467,0.0,0.0038566666666560593,0.03730400000010073
TPCCSubmitter.runTransactions,0.03243184457388963,0.038635000004433095,0.002587296915518374,0.005755000000741953,0.07940914149458306
Table.compareTypeSave,0.0,0.3971919053287304,0.0,0.06001438843813251,0.4572062937668629
Table.getTemplateRow,0.03095836276804389,0.34737435501717,0.003756055633162083,0.047773334617279964,0.4298621080356559
TableData$1.compare,0.0,0.4540000000076058,0.0,0.0712600000006205,0.5252600000082264
TableData.addIndex,0.0,0.23384599999796285,0.0,0.036444999999124164,0.270290999997087
TableData.addRow,0.0,0.007924395833470044,0.0,0.0008784375000535267,0.008802833333523571
TableData.doLock,0.0,0.009726208332722308,0.0,0.0011578125000445045,0.010884020832766813
TableData.lock,0.0060548295524334465,0.049580157459416054,0.0008186824732328336,0.008049891204387528,0.06450356068946986
TableFilter.getValue,0.4747470799953035,0.07017033333734919,0.06085726530881315,0.010955000000346141,0.616729678641812
TableFilter.isOk,0.07349034830880705,0.0,0.005795013574231971,0.0,0.07928536188303902
TableFilter.next,0.19598683216826746,0.5675456666698058,0.01933422786245197,0.08473000000109701,0.8675967267016221
TableFilter.startQuery,0.0,0.06233699999089973,0.0,0.009494999999636395,0.07183199999053612
Throwable.fillInStackTrace,0.0,0.0,0.0,0.0,0.0
Timestamp.getTime,0.11332730260286539,0.0,0.013322656153102873,0.0,0.12664995875596827
Timestamp.toString,0.5879795358606235,0.0,0.05029319426857568,0.0,0.6382727301291992
Trace.isDebugEnabled,0.0016833591394461891,0.0,0.0001636451612441345,0.0,0.0018470043006903235
Trace.isEnabled,0.19931243474272176,0.14500205725234905,0.020004382559671886,0.018881431165026538,0.38320030571976926
TraceSystem.getTrace,0.10353821121621658,0.1620728520267737,0.008188256374655976,0.02449673100879323,0.2982960506264395
TreeCursor.get,0.0,0.21626800000861596,0.0,0.035134999999475745,0.2514030000080917
TreeCursor.next,0.0,0.27416966665866005,0.0,0.04197000000021944,0.3161396666588795
TreeIndex.<init>,0.0,0.08081033333049466,0.0,0.013094999999642216,0.09390533333013687
TreeIndex.add,0.053603934879817884,0.07261133333668113,0.004530114709967803,0.009245000001101287,0.1399903829275681
TreeIndex.balance,0.0,0.6588531223930595,0.0,0.10118905000218036,0.7600421723952399
TreeIndex.child,0.0,0.0,0.0,0.0,0.0
TreeIndex.find,0.05555326576685607,0.07191999999728674,0.005700398140991859,0.011354999998729907,0.14452866390386457
TreeIndex.findFirstNode,0.19280864050383537,0.9105229999695438,0.022578225033054018,0.13555500000196238,1.2614648655083953
TreeIndex.next,0.0708230217219387,0.8695479999926949,0.00844986693404982,0.13347750000260322,1.0822983886512867
TreeIndex.replace,0.0,0.2533973333290002,0.0,0.03922500000044238,0.2926223333294426
TreeIndex.set,0.0,0.07223306666904439,0.0,0.010976000000179434,0.08320906666922383
TreeNode.isFromLeft,0.0,0.0908609999945232,0.0,0.01720500000010361,0.10806599999462681
UndoLog.getLast,0.00643783783789741,0.06948139812606728,0.0008221621621716851,0.007926620196664071,0.08466801832280044
Update.update,0.0629101101218606,0.0,0.0051924520169944295,0.0,0.06810256213885503
User.checkRight,0.0,0.0,0.0,0.0,0.0
Value.cache,0.0026371531531441256,0.0400408852142291,0.00033972972970160127,0.005213183883712546,0.04823095198078737
Value.checkPrecision,0.0,0.08345050370511989,0.0,0.010159802304507361,0.09361030600962725
Value.compareTo,0.0,0.07352700000046752,0.0,0.010929999999158705,0.08445699999962623
Value.compareTypeSave,0.0,0.6128188665602012,0.0,0.09160829602961906,0.7044271625898203
Value.convertScale,0.0,0.05797734885925281,0.0,0.007816397026963805,0.06579374588621661
Value.convertTo,0.0797057910197588,0.26429661017340234,0.008954383228002696,0.04043942144121697,0.39339620586238083
ValueBoolean.getBoolean,0.0,0.0,0.0,0.0,0.0
ValueInt.compareSecure,0.0,0.5156096671744629,0.0,0.07737982430670808,0.592989491481171
ValueShort.compareSecure,0.0,0.3840614000044297,0.0,0.05721099999936996,0.44127240000379964
ValueString.compareSecure,0.0,0.07039624357890377,0.0,0.010102407972114156,0.08049865155101793
ValueString.get,0.0,0.05174879756683585,0.0,0.007150855269060569,0.05889965283589642
ValueStringBase.getPrecision,0.0,0.0,0.0,0.0,0.0
ValueStringBase.getString,0.056542412078282527,0.0,0.010573247007965605,0.0,0.06711565908624813
ValueTimestamp.convertScale,0.015621830910825226,0.0,0.0020640382712179763,0.0,0.017685869182043203
ViewCursor.next,0.0,0.432299087496843,0.0,0.06372600000280121,0.4960250874996442
ZipFile.getEntry,0.0,0.03188479999856403,0.0,0.004374000000340553,0.03625879999890458
ZoneInfo.getOffsets,0.10495098792754988,0.0,0.015637619851661837,0.0,0.12058860777921171
ZoneInfo.getTransitionIndex,0.154456266145921,0.04409199999645352,0.01175895030926645,0.005500000000271636,0.21580721645191261
