method,package1,package2,dram1,dram2,energy
AbstractCalendar,0.0,0.9694848888577393,0.0,0.15243511111122507,1.1219199999689644
AbstractStringBuilder,0.0,1.7424664268384948,0.0,0.27453517739082667,2.0170016042293213
ArrayList$Itr,0.0,0.09181733334359403,0.0,0.01239999999961583,0.10421733334320986
Arrays,0.0,0.8270558148941758,0.0,0.12646889642367737,0.9535247113178531
AtomicLong,0.0,0.19241678818648203,0.0,0.028602787446080857,0.2210195756325629
BaseCalendar,0.0,0.36259353332570754,0.0,0.05775399999862808,0.4203475333243356
BaseCalendar$Date,0.0,0.11305733333574607,0.0,0.016329999999773765,0.12938733333551983
BaseIndex,1.5772915049738778,2.076337443352817,0.19336077952011083,0.2719030752042504,4.118892803051056
Benchmark,0.0,0.03719880000377695,0.0,0.004366000000057587,0.041564800003834536
BigDecimal,0.07013144017208137,0.3174860361183724,0.007826730769182208,0.045224971425982384,0.4406691784856183
BigInteger,0.0037406612375758107,0.3074587042968883,0.0004832178055302129,0.04149042910826719,0.35317301244826155
BitField,0.0,0.06705959047803894,0.0,0.007963476090290914,0.07502306656832985
Boolean,0.0,0.1286904666669822,0.0,0.017880000000392707,0.1465704666673749
BufferedInputStream,0.0,0.21501095834804193,0.0,0.029168374999911366,0.2441793333479533
ByteArrayInputStream,0.0,0.06871549999535394,0.0,0.009625000000899792,0.07834049999625373
CacheObject,0.0,0.04521847017727036,0.0,0.006172681335052053,0.05139115151232242
Calendar$Builder,0.0,0.13795966666657478,0.0,0.01776999999977609,0.15572966666635085
CalendarDate,0.0,0.1452272666695838,0.0,0.022607000000910676,0.16783426667049448
CharacterDataLatin1,0.0,0.0,0.0,0.0,0.0
ClassLoader,0.0,0.05638026665740957,0.0,0.006651999999060838,0.06303226665647041
Column,0.6951710777856837,0.5840287592262209,0.09382400000310251,0.08613973779648149,1.4591635748114884
Command,0.21201919885079493,0.26820807594619306,0.02664782796971651,0.03832116162465235,0.5451962643913569
CommandContainer,0.04789414671554855,0.027967777775807508,0.006409262891979997,0.004576666666253004,0.08684785404958907
CompareMode,0.08347097037507656,0.01111858333266961,0.006786636970050582,0.0018600000000030075,0.10323619067779977
Comparison,0.7520022666610154,0.0740966666683865,0.10331049275262619,0.010899999999916568,0.9403094260819447
ConditionAndOr,0.21907533334160686,0.08540197199438318,0.02387000000332288,0.008658036863418423,0.3370053422027314
ConstPool,0.0,0.09619140000431796,0.0,0.013122000000294063,0.10931340000461202
ConstraintReferential,0.0,0.02435988889192231,0.0,0.003666666666605225,0.028026555558527535
ConstraintUnique,0.0,0.05258800606701652,0.0,0.007951727238741569,0.060539733305758084
Database,0.0,0.40240716057085707,0.0,0.06477764788704203,0.4671848084578991
Date,0.0,0.5990142316272966,0.0,0.09103805577167536,0.690052287398972
Delete,0.0,0.1666256666713808,0.0,0.02511999999963639,0.19174566667101717
Driver,0.0,0.09938959999708458,0.0,0.013181999999505931,0.11257159999659051
Engine,0.0,0.0194754583244503,0.0,0.002380000000357541,0.02185545832480784
Expression,0.0609129999987393,0.0,0.00923999999940861,0.0,0.07015299999814792
ExpressionColumn,0.6551290444382983,0.2551277659283956,0.07073716666378055,0.03823614917224927,1.0192301262027237
ExpressionVisitor,0.14471433334013756,0.16014455031415276,0.014384999999795884,0.01791766653474229,0.3371615501888285
FileOutputStream,0.0,0.1497400777812193,0.0,0.021355666667457418,0.17109574444867673
Formatter,0.0,0.02311200000177551,0.0,0.0018083333335299453,0.024920333335305456
Function,0.0,0.024208000002545305,0.0,0.0026531250000516593,0.026861125002596964
HashMap,0.06646139429064145,0.34465641772998723,0.007707073287158998,0.047103446867977065,0.46592833217576474
HashMap$Node,0.0,0.07168528981479662,0.0,0.01070131385323904,0.08238660366803566
Hashtable,0.0,0.045434599998407064,0.0,0.0065820000003441225,0.05201659999875119
IndexCondition,0.0,0.07039399999969949,0.0,0.009559999999813345,0.07995399999951283
IndexCursor,0.25932017996593726,0.09728053926615836,0.030399619991838395,0.009313052919044728,0.3963133921429787
Inflater,0.0,0.5006840321680948,0.0,0.06928618965537826,0.569970221823473
Insert,0.06095678924111579,0.20502411067685483,0.007224060590805986,0.02963145551475019,0.30283641602352684
Integer,0.0,6.796806363846852,0.0,1.0722028048348289,7.869009168681681
JarFile,0.0,0.046679800003767015,0.0,0.005910000000585568,0.05258980000435258
JdbcConnection,0.0,0.7432662584038505,0.0,0.11891100916917485,0.8621772675730254
JdbcPreparedStatement,0.08597109551195095,0.015394712693645347,0.009571569357323624,0.0022161294665477213,0.11315350702946764
JdbcResultSet,0.0,0.39262055010059094,0.0,0.052347559378012776,0.4449681094786037
JdbcStatement,0.0,0.21353714813961197,0.0,0.03412111111309194,0.2476582592527039
LinkedHashMap,0.0,0.016051942029302033,0.0,0.001892173912905939,0.01794411594220797
LocalResult,0.17730514999614871,0.24867444648630443,0.019532999999501043,0.03834685916146515,0.4838594556434193
MathUtils,0.0,0.19218169505820637,0.0,0.027619139164067698,0.21980083422227406
MultiVersionCursor,1.4671217220732324,0.4404109819637519,0.18176006409273518,0.05474517125173169,2.144037939381451
MultiVersionIndex,0.3855641111126816,0.22610381569277696,0.05404022222396128,0.027195554537955306,0.6929037035673752
MutableBigInteger,0.0,0.10915791268876837,0.0,0.015757936508004493,0.12491584919677287
OERandom,0.0,0.19977114959871287,0.0,0.028608724804048545,0.22837987440276142
Object,0.05708545303385539,0.11135617132964665,0.006814095376860535,0.014020171486777032,0.18927589122713961
ObjectArray,0.43495621252788413,1.4433569349329525,0.057138128205466356,0.20704717390300872,2.142498449569312
ObjectArray$ObjectArrayIterator,0.13090000000374857,0.14527875129568846,0.022695000002083056,0.016610942136258744,0.31548469343777885
ObjectUtils,0.07564299999891469,0.0,0.00848999999895265,0.0,0.08413299999786734
Parameter,0.0,0.025342815562424778,0.0,0.00293112373928707,0.028273939301711848
Parser,0.059288617924000475,0.00815180790811872,0.008848071982206175,0.0013677966101460109,0.07765629442447138
Prepared,0.06569563587378079,0.0,0.009037483759678666,0.0,0.07473311963345945
PrintStream,0.0,0.02311200000177551,0.0,0.0018083333335299453,0.024920333335305456
Query,0.3239095431895463,0.03136704000178725,0.04187324008654434,0.004608000000007451,0.40175782327788534
Random,0.038943859768286605,0.11893961012701511,0.005365878811890237,0.016709013799365284,0.17995836250655725
Record,0.027806323224145356,0.09456104619073094,0.0032820317283536967,0.014339263234045753,0.13998866437727575
Row,1.0915927576341071,1.0732062112732086,0.12849305252568982,0.14319485287313052,2.436486874306136
ScanCursor,0.0,0.24896090366079981,0.0,0.038638351796796616,0.28759925545759646
ScanIndex,0.02975172649583437,1.476288214121609,0.0030389743589429963,0.21305652155062277,1.7221354365270092
Select,1.3711236060335912,0.4454974104642541,0.19271127412948652,0.061404535397270275,2.0707368260246017
Session,0.02192252991486213,0.616941493870758,0.002218461538511766,0.09565174059183609,0.736734225915968
SimpleCharStream,0.0,0.03719880000377695,0.0,0.004366000000057587,0.041564800003834536
SimpleDateFormat,0.0,0.2073337500017563,0.0,0.027394999999614804,0.2347287500013711
SimpleInsert,0.06583631192773437,0.35408998082218057,0.008283527127632681,0.05040527858481389,0.4786150984623615
SoftReference,0.005084428838114396,0.03769526666534754,0.0006760123926686293,0.005644000000271869,0.04909970789640243
StatementHelper,0.0,0.0,0.0,0.0,0.0
String,0.029664723851762175,1.1398643636087407,0.004285558667944346,0.1703294733812575,1.3441441195097048
StringBuffer,0.0,0.6230840710984697,0.0,0.09962701040935835,0.7227110815078281
StringBuilder,0.0,0.17273135102006923,0.0,0.02601121550481745,0.19874256652488667
StringCache,0.034130835098670306,0.11990600552515429,0.0041687410333473476,0.01651459687217125,0.1747201785293432
TPCC,0.0,0.7127486737102952,0.0,0.09994121129091207,0.8126898850012072
TPCCSubmitter,0.0,0.0,0.0,0.0,0.0
Table,0.6746377912303402,0.7586632913691996,0.07194552243582719,0.09761789254068051,1.6028644975760475
TableData,0.0,0.6258126922902982,0.0,0.07460074995432191,0.7004134422446201
TableData$1,0.06424966666478818,0.301779908607121,0.005445000000084596,0.03504015593038305,0.4065147312023768
TableFilter,0.5163510431255727,0.4077594000128253,0.0908924901945759,0.060517500001151345,1.0755204333341253
Throwable,0.0,0.021056105273184262,0.0,0.002904753427643355,0.023960858700827616
TimeZone,0.0,0.12386066666416201,0.0,0.020420000001953063,0.14428066666611508
Timestamp,0.0,0.3249045911938532,0.0,0.050184632707521916,0.3750892239013751
Trace,0.008792284591927844,0.06990555555482085,0.0014530719816636794,0.010396666665959248,0.09054757879437161
TraceObject,0.0,0.074503666672778,0.0,0.012589999999666665,0.08709366667244466
TraceSystem,0.11269271770112682,0.22382720053941457,0.010668686370633531,0.03240690145148548,0.3795955060626604
TreeCursor,0.0,0.06486040001699551,0.0,0.00793380672044825,0.07279420673744376
TreeIndex,1.149438933543109,0.8432852586170967,0.13811109803167249,0.10695214587120214,2.2377874360630803
TreeNode,0.0,0.09441759546723724,0.0,0.011917443441389215,0.10633503890862646
URL,0.0,0.09775799999867256,0.0,0.010865000000194414,0.10862299999886697
URLClassLoader,0.0,0.045434599998407064,0.0,0.0065820000003441225,0.05201659999875119
UndoLog,0.008880647393476332,0.0,0.001329432002407469,0.0,0.0102100793958838
Update,0.0,0.07684299999770397,0.0,0.009559999999813345,0.08640299999751731
Value,0.3961000116303003,0.9924315374355457,0.04637908922144552,0.1314865094641802,1.5663971477514718
ValueBoolean,0.0,0.08127866666958046,0.0,0.012219999999312371,0.09349866666889284
ValueDecimal,0.0,0.0,0.0,0.0,0.0
ValueHashMap,0.0,0.0,0.0,0.0,0.0
ValueInt,0.1677776486681654,0.10628621945644032,0.019027102403143245,0.01409077261784737,0.3071817431455963
ValueShort,0.12083502222300956,0.5044592890319014,0.014199999999362733,0.06330217372637245,0.7027964849806462
ValueString,0.0,0.08954365287129788,0.0,0.014797930456563238,0.10434158332786111
ValueStringBase,0.0,0.06449400000080155,0.0,0.010935000000851385,0.07542900000165294
ValueTimestamp,0.01657616312524529,0.13105357575731236,0.0014911260628001455,0.022043181818210567,0.17116404676356836
ZoneInfo,0.0,0.12172433332307264,0.0,0.01912999999816141,0.14085433332123404
