method,package1,package2,dram1,dram2,energy
java.io,0.3886333528775873,0.0,0.027636931067936837,0.0,0.4162702839455242
java.lang,2.888330676060512,4.76366395262714,0.3926889442466749,0.7703446859817678,8.815028258916094
java.lang.ref,0.08438105263178983,0.007065973333600495,0.00965328947370979,0.0009320000000298023,0.10203231543912991
java.math,0.511130364464453,0.2734441547732324,0.05203971628366988,0.040106400948259846,0.8767206364696152
java.net,0.03219715110072648,0.0,0.002007019710888804,0.0,0.03420417081161529
java.sql,0.4237668398388578,0.0,0.06886916313868355,0.0,0.4926360029775414
java.util,1.5732388304651825,0.7901577970671969,0.19837712221547313,0.11559589520172137,2.6773696449495743
java.util.concurrent.atomic,0.6438954636689289,0.027239930575831513,0.0827022593335238,0.0034952500659215843,0.7573329036442058
java.util.jar,0.05655253165295287,0.0,0.005381568689749457,0.0,0.061934100342702324
java.util.zip,0.4305633468827345,0.0,0.03333856770321959,0.0,0.4639019145859541
javassist,0.017179469657732455,0.0,0.0013290625106343221,0.0,0.018508532168366777
javassist.bytecode,0.0624597935120588,0.0,0.005599650498793522,0.0,0.06805944401085232
org.apache.derbyTesting.system.oe.direct,0.0,0.0,0.0,0.0,0.0
org.apache.derbyTesting.system.oe.load,0.2630074861623447,0.1036190298707082,0.03173258876085245,0.014068474311633146,0.4124275791055385
org.apache.derbyTesting.system.oe.model,0.0,0.0,0.0,0.0,0.0
org.apache.derbyTesting.system.oe.util,0.09175614275179281,0.05704478241323501,0.011209126941993969,0.006735227610458217,0.16674527971748002
org.dacapo.h2,0.47413806441628914,0.01602971341115641,0.062162788978245745,0.0022191658347048933,0.5545497326403962
org.dacapo.harness,0.08886930802561797,0.0,0.009066633813721862,0.0,0.09793594183933983
org.h2.command,0.9060307216655823,0.7569788742410004,0.10302513783254649,0.1139057825414701,1.879940516280599
org.h2.command.dml,2.07381363466586,0.9678341005386866,0.22066744772883035,0.14770384004785772,3.410019022981235
org.h2.engine,0.38357008608889626,0.5414827916358085,0.04848536275569306,0.0873838913519534,1.0609221318323512
org.h2.expression,1.317402912050997,0.190324182641334,0.11942457482667672,0.027364855910785205,1.6545165254297929
org.h2.index,7.995045810908221,3.6624287460436946,0.8269702538075716,0.5296884600890416,13.014133270848527
org.h2.jdbc,0.5766082954514502,1.3051473594230998,0.08587808072195108,0.20704501099411385,2.1746787465906148
org.h2.log,0.09099464849669972,0.11556523951048209,0.012027301571869313,0.012736775127935418,0.23132396470698655
org.h2.message,0.23367329526220323,0.17671969115714609,0.022351473848062138,0.024770873232017925,0.45751533349942936
org.h2.result,1.914668397505394,0.7195540467350938,0.1765194427247538,0.1022883911147347,2.913030278079976
org.h2.store,0.029670942486853362,0.0,0.005204669821190053,0.0,0.03487561230804342
org.h2.table,2.283185916194796,0.7609129412682851,0.24705344232813953,0.1047654922610468,3.395917792052267
org.h2.util,1.7344035029969882,0.3502455128770055,0.22361185875002187,0.04922538115719062,2.357486255781206
org.h2.value,1.9571013979710616,0.9701595402448189,0.2177525517152016,0.1405797260544701,3.285593215985552
sun.reflect,0.08172599999913169,0.0,0.009690000000167249,0.0,0.09141599999929893
sun.security.util,0.017179469657732455,0.0,0.0013290625106343221,0.0,0.018508532168366777
sun.util.calendar,0.0,1.7092566770275546,0.0,0.2720591834841094,1.981315860511664
