method,hits
AbstractCalendar.getCalendarDate,10
AbstractCalendar.setTimeOfDay,16
AbstractStringBuilder.<init>,20
AbstractStringBuilder.append,16
AbstractStringBuilder.ensureCapacityInternal,4
ArrayList$Itr.checkForComodification,2
ArrayList.ensureExplicitCapacity,2
Arrays.copyOf,14
Arrays.copyOfRange,28
AtomicLong.compareAndSet,12
BaseCalendar$Date.<init>,2
BaseCalendar.getCalendarDateFromFixedDate,6
BaseCalendar.getGregorianYearFromFixedDate,2
BaseIndex.compareKeys,12
BaseIndex.compareRows,176
BaseIndex.compareValues,40
BaseIndex.initBaseIndex,2
BigDecimal.<init>,8
BigDecimal.divideAndRound,4
BigDecimal.layoutChars,2
BigDecimal.movePointLeft,2
BigDecimal.multiply,2
BigDecimal.valueOf,2
BigInteger.smallToString,6
BigInteger.valueOf,4
Boolean.equals,6
BufferedInputStream.<init>,2
BufferedInputStream.read,4
CalendarDate.setMinutes,2
CalendarUtils.isGregorianLeapYear,2
Character.toUpperCase,2
CharacterDataLatin1.getProperties,2
CharacterDataLatin1.toUpperCaseEx,2
ClassLoader.defineClass1,6
ClassLoader.findBootstrapClass,2
ClassLoader.getPackage,2
Column.convert,14
Column.getColumnId,34
Column.validateConvertUpdateSequence,8
Command.checkCanceled,2
Command.executeQueryLocal,36
Command.executeUpdate,188
Command.stop,4
CommandContainer.getParameters,2
CommandContainer.recompileIfRequired,2
CommandContainer.update,4
ComparableTimSort.binarySort,2
CompareMode.compareString,8
Comparison.getValue,20
ConditionAndOr.getValue,8
ConditionAndOr.isEverything,8
ConditionAndOr.optimize,2
ConnectionInfo.<clinit>,2
ConstraintReferential.checkRowOwnTable,2
DataType.getDataType,2
Database.isReconnectNeeded,14
Date.getHours,2
Date.getTimeImpl,4
Date.normalize,14
DirectLongBufferU.get,2
DriverManager.<clinit>,2
Expression.getBooleanValue,2
ExpressionColumn.getValue,20
ExpressionColumn.isEverything,18
ExpressionColumn.mapColumns,2
ExpressionVisitor.<init>,36
ExpressionVisitor.getQueryLevel,2
ExpressionVisitor.getType,2
FileOutputStream.write,4
FileOutputStream.writeBytes,10
FilePermission.init,2
Formatter$FormatSpecifier.print,2
Formatter.parse,2
HashMap$Node.<init>,2
HashMap.<init>,2
HashMap.getNode,6
HashMap.hash,2
HashMap.putVal,4
HashMap.removeNode,16
HashSet.<init>,4
IdentityHashMap.hash,2
IndexCursor.find,16
IndexCursor.getMax,2
IndexCursor.getSearchRow,6
IndexCursor.next,4
Inflater.inflateBytes,18
Inflater.setInput,2
Insert.insertRows,30
Integer.getChars,40
Integer.toString,200
Integer.valueOf,2
JarURLConnection.getEntryName,2
JdbcConnection.checkClosed,30
JdbcConnection.createStatement,2
JdbcConnection.setTransactionIsolation,2
JdbcPreparedStatement.<init>,2
JdbcPreparedStatement.executeUpdateInternal,6
JdbcPreparedStatement.setParameter,8
JdbcResultSet.checkClosed,2
JdbcResultSet.get,4
JdbcResultSet.getColumnIndex,2
JdbcResultSet.getString,8
JdbcResultSet.next,2
JdbcResultSet.nextRow,4
JdbcStatement.checkClosed,4
LocalResult.<init>,6
LocalResult.getList,2
LocalResult.next,2
Long.getChars,2
MathUtils.compare,26
MultiVersionCursor.get,2
MultiVersionCursor.getSearchRow,42
MultiVersionCursor.loadNext,28
MultiVersionCursor.next,54
MultiVersionCursor.step,6
MultiVersionIndex.add,10
MultiVersionIndex.commit,2
MultiVersionIndex.compareRows,18
MultiVersionIndex.find,8
MultiVersionIndex.removeIfExists,6
OERandom.randomAString,4
OERandom.randomAString24,2
OERandom.randomInt,4
Object.<init>,2
Object.hashCode,8
Object.wait,104
ObjectArray$ObjectArrayIterator.hasNext,6
ObjectArray.add,6
ObjectArray.createArray,4
ObjectArray.get,20
ObjectArray.iterator,2
ObjectArray.newInstance,2
ObjectArray.size,2
ObjectArray.sort,12
ObjectArray.swap,2
ObjectUtils.arrayCopy,2
Parameter.getParamValue,68
Parameter.isEverything,2
Parameter.setValue,2
ParseUtil.encodePath,2
Parser.initialize,4
Parser.parsePrepared,2
Parser.readIf,2
PlanItem.getIndex,2
Prepared.checkCanceled,2
PrintWriter.write,1
Query.getParameterValues,2
Query.query,18
Random.next,10
Random.nextDouble,6
Record.<init>,8
Record.setSessionId,2
Row.getValue,126
Row.isEmpty,2
Row.setValue,10
RowList.next,2
ScanIndex.add,2
ScanIndex.getNextRow,86
Select.isEverything,20
Select.queryFlat,72
Select.queryWithoutCache,6
Session.checkCanceled,2
Session.getCurrentCommand,8
Session.getCurrentSchemaName,2
Session.getDatabase,2
Session.isClosed,8
Session.isReconnectNeeded,18
SimpleDateFormat.initializeCalendar,2
SimpleInsert.customerTable,4
SimpleInsert.orderTable,12
SimpleInsert.stockTable,8
SoftReference.get,2
Standard.newOrder,2
Standard.payment,4
String.<init>,6
String.charAt,10
String.equals,2
String.getChars,10
String.hashCode,10
String.length,12
String.substring,2
String.toCharArray,4
String.toUpperCase,2
String.valueOf,4
StringBuffer.append,24
StringBuffer.toString,16
StringBuilder.append,4
StringBuilder.toString,4
StringCache.get,4
System.nanoTime,2
TPCC.calculateSumDB,36
Table.compareTypeSave,18
Table.getTemplateRow,16
Table.validateConvertUpdateSequence,6
TableData$1.compare,20
TableData.addIndex,16
TableData.addRow,2
TableData.addRowsToIndex,8
TableData.doLock,2
TableData.lock,2
TableData.traceLock,2
TableFilter.getValue,16
TableFilter.lock,6
TableFilter.next,22
TableFilter.startQuery,2
Throwable.fillInStackTrace,10
TimeZone.getDefaultRef,4
Timestamp.toString,12
Trace.isEnabled,4
TraceObject.debugCodeCall,2
TraceSystem.getTrace,4
TreeCursor.<init>,6
TreeCursor.get,2
TreeCursor.next,22
TreeIndex.add,14
TreeIndex.balance,16
TreeIndex.child,2
TreeIndex.find,14
TreeIndex.findFirstNode,30
TreeIndex.next,62
TreeIndex.remove,2
TreeIndex.replace,4
TreeIndex.set,6
TreeNode.<init>,6
UndoLog.getLast,4
UndoLogRecord.commit,4
Update.update,2
Value.cache,4
Value.checkPrecision,4
Value.compareTo,4
Value.compareTypeSave,18
Value.convertScale,2
Value.convertTo,18
ValueBoolean.compareSecure,2
ValueBoolean.get,4
ValueBoolean.getString,2
ValueInt.compareSecure,24
ValueInt.equals,2
ValueInt.get,8
ValueInt.getInt,4
ValueInt.getType,2
ValueShort.compareSecure,22
ValueShort.equals,2
ValueShort.get,2
ValueShort.getType,2
ValueString.get,6
ValueStringBase.getPrecision,6
ValueTimestamp.convertScale,4
ValueTimestamp.getNoCopy,4
ValueTimestamp.getTimestamp,2
ValueTimestamp.getType,2
ViewCursor.next,12
ZoneInfo.getTransitionIndex,4
