method,package1,package2,dram1,dram2,energy
chappie,0.064339199999813,0.0,0.008220000000437723,0.0,0.07255920000025072
com.sun.jmx.mbeanserver,0.0,0.23093666666924642,0.0,0.03297500000068491,0.2639116666699313
com.yammer.metrics.reporting,0.0,0.23295066666711742,0.0,0.032944999999017455,0.26589566666613484
com.yammer.metrics.stats,0.0,0.07537629629519801,0.0,0.009782222222485062,0.08515851851768308
edu.cmu.graphchi,0.034249220528307166,0.09773726357700295,0.005150106707274026,0.012310232557541358,0.1494468233701255
edu.cmu.graphchi.apps,1.7941708633367537,2.1219799671888375,0.28385691937461427,0.2183024044649991,4.418310154365204
edu.cmu.graphchi.engine,0.041894400003366174,0.0,0.004553999999188818,0.0,0.04644840000255499
edu.cmu.graphchi.engine.auxdata,0.09715881957868162,0.0,0.017358561619218314,0.0,0.11451738119789993
edu.cmu.graphchi.io,0.022247143829837755,0.0,0.0034148151134551267,0.0,0.02566195894329288
edu.cmu.graphchi.shards,0.0,0.0,0.0,0.0,0.0
edu.cmu.graphchi.util,3.379646530120664,0.01030355694304144,0.5337152511148151,0.001094864157987694,3.924760202336508
javassist.bytecode,0.0,0.28312166667698563,0.0,0.03457499999907061,0.3176966666760562
javax.management,0.0,0.04532899999564203,0.0,0.006135000000843623,0.051463999996485654
org.apache.commons.math.linear,0.10260964278090098,0.1193644124953382,0.01634849602307712,0.012194279877066658,0.25051683117638296
org.slf4j,0.0,0.07678199999888116,0.0,0.010999999999815676,0.08778199999869683
sun.misc,0.11243100001011043,0.23642762961443856,0.013523999999839966,0.031782222222116414,0.39416485184650535
sun.nio.cs,0.0512206666637212,0.03566466666719255,0.005990000000262322,0.005499999999301508,0.09837533333047759
sun.util.calendar,0.0072248121643325395,0.0,0.0008924064444394203,0.0,0.008117218608771959
sun.util.locale.provider,0.0,0.021239999992152057,0.0,0.0027199999991959576,0.023959999991348013
sun.util.resources,0.0072248121643325395,0.308797333331313,0.0008924064444394203,0.044010000002648056,0.360924551942733
