method,hits
ALSMatrixFactorization.update,812
ArrayRealVector.getEntry,2
ArrayRealVector.setEntry,8
AttributeInfo.read,2
BlockRealMatrix.blockWidth,10
BlockRealMatrix.createBlocksLayout,2
BlockRealMatrix.getEntry,4
BlockRealMatrix.setEntry,10
ChiLogger$SingleLineFormatter.format,4
ChiPointer.<init>,2
ChiVertex.edge,2
ChiVertex.inEdge,2
ChiVertex.outEdge,2
CholeskyDecompositionImpl.<init>,34
ClassPool.makeClass,2
ConstPool.readOne,2
DataBlockManager.dereference,2
DateFormatProviderImpl.getInstance,2
DecimalFormatSymbolsProviderImpl.getInstance,2
FloatConverter.getValue,2
GraphChiEngine.run,2
HugeDoubleMatrix.randomize,126
JRELocaleProviderAdapter.getLocaleResources,2
JarURLConnection.<init>,2
JmxMBeanServer.<init>,2
JmxReporter.<clinit>,2
JmxReporter.<init>,2
Launcher$AppClassLoader.loadClass,4
LocaleServiceProviderPool.<clinit>,2
MBeanAnalyzer.eliminateCovariantMethods,2
MBeanNotificationInfo.<init>,2
NotificationBroadcasterSupport.<clinit>,2
NotificationBroadcasterSupport.sendNotification,2
NumberFormatProviderImpl.getInstance,2
Repository.<init>,2
