method,package1,package2,dram1,dram2,energy
com.sun.jmx.mbeanserver,0.2102053333170867,0.0,0.024410000000595268,0.0,0.23461533331768197
com.yammer.metrics.reporting,0.06587733334163204,0.0,0.007849999999355834,0.0,0.07372733334098787
edu.cmu.graphchi,0.016267458603429968,0.0019257321453268052,0.00263999279087181,0.0002021486781148428,0.021035332217743424
edu.cmu.graphchi.apps,2.824666530723888,3.3528543224097205,0.45836696599520305,0.33793142828409867,6.97381924741291
edu.cmu.graphchi.shards,0.0,0.0,0.0,0.0,0.0
edu.cmu.graphchi.util,4.881430349134131,0.0,0.7490434347920861,0.0,5.630473783926218
javassist,0.0,0.04084667642518758,0.0,0.0058751524459643815,0.04672182887115196
javassist.bytecode,0.08445228572097783,0.005674435540515421,0.009999285715041748,0.0008523875037613501,0.10097839448029634
javassist.compiler,0.08396400000007513,0.0,0.010404999998475734,0.0,0.09436899999855086
javax.management,0.06858333334093912,0.0,0.008249999998952262,0.0,0.07683333333989138
org.apache.commons.math.linear,0.16713368916745014,0.22823735523054586,0.027353696371451568,0.023361900249214036,0.4460866410186616
org.slf4j.helpers,0.06587733334163204,0.0,0.007849999999355834,0.0,0.07372733334098787
sun.misc,0.25738281580843625,0.0,0.03247743478881551,0.0,0.28986025059725173
sun.util.locale.provider,0.019632999998672556,0.0,0.0019500000004579,0.0,0.021582999999130457
