method,package1,package2,dram1,dram2,energy
com.sun.jmx.interceptor,0.0,0.059692333326286935,0.0,0.006880000000819564,0.06657233332710649
com.yammer.metrics.core,0.0,0.04250066666281782,0.0,0.0054750000005393895,0.04797566666335721
com.yammer.metrics.stats,0.0,0.12121599999954925,0.0,0.01643000000088553,0.13764600000043478
edu.cmu.graphchi,0.0069694584939442115,0.0,0.0005519380037707748,0.0,0.007521396497714986
edu.cmu.graphchi.apps,3.3049933816813777,2.93264539847366,0.25607948089757937,0.45023417699372004,6.943952438046337
edu.cmu.graphchi.datablocks,0.0,0.006235367536819535,0.0,0.0009644738226522876,0.007199841359471823
edu.cmu.graphchi.util,0.10767386823044106,0.0,0.009093587355702842,0.0,0.1167674555861439
javassist,0.0,0.0,0.0,0.0,0.0
javassist.bytecode,0.01938292660743134,0.010213333337257305,0.001806224010197823,0.0013699999993453578,0.03277248395423183
javax.management,0.0,0.06217433333707353,0.0,0.006879999999606904,0.06905433333668043
org.apache.commons.math.linear,0.3237934291144833,0.2555924427719648,0.02690803770260287,0.03902813590878563,0.6453220454978366
org.slf4j.helpers,0.0,0.12923166667072414,0.0,0.017894999998437314,0.14712666666916147
sun.misc,0.14135321914052562,0.0,0.01960144291382094,0.0,0.16095466205434655
sun.reflect.generics.factory,0.0,0.1218869999963014,0.0,0.01644500000111293,0.13833199999741433
sun.util.calendar,0.0,0.1078693333256524,0.0,0.015090000000782313,0.12295933332643472
sun.util.locale.provider,0.0,0.0,0.0,0.0,0.0
