method,package1,package2,dram1,dram2,energy
com.sun.jmx.mbeanserver,0.0,0.1073000000033062,0.0,0.007499999999708962,0.11480000000301516
com.yammer.metrics.reporting,0.0,0.058146000005460025,0.0,0.007494999999228942,0.06564100000468896
edu.cmu.graphchi,0.02453622363745635,0.014911842105089147,0.0037489610839694155,0.0017368421052340538,0.04493386893174897
edu.cmu.graphchi.apps,3.210589648703496,3.7668231501457465,0.47855594637614546,0.4042790600845845,7.860247805309972
edu.cmu.graphchi.datablocks,0.04234263609603554,0.003102906250205706,0.0063309028863531855,0.00034685461961366263,0.05212329985220809
edu.cmu.graphchi.engine,0.025633150009258858,0.0,0.004115807730297437,0.0,0.029748957739556294
edu.cmu.graphchi.util,0.15515968573578948,0.1375937333427525,0.026315678002083107,0.020877000002413597,0.3399460970830387
javassist.bytecode,0.0,0.0605266666583096,0.0,0.006900000000314321,0.06742666665862393
javax.management,0.0,0.08524566666649966,0.0,0.008194999998522688,0.09344066666502235
org.apache.commons.math.linear,0.38582913539502856,0.2499929811028336,0.056286174156598076,0.026430213521634917,0.7185385041760951
sun.util.locale.provider,0.0,0.13527433334578137,0.0,0.016460000001340326,0.1517343333471217
