method,package1,package2,dram1,dram2,energy
AtomicLong.compareAndSet,0.5510189380518374,0.25757084355330656,0.07130579646227514,0.029340114385225807,0.9092356924526449
BufferedInputStream.read,0.06530766666401178,0.0,0.00862499999978657,0.0,0.07393266666379834
BufferedWriter.write,0.06569595403512356,0.0,0.007555775474529344,0.0,0.0732517295096529
Calendar$Builder.build,0.0,0.0,0.0,0.0,0.0
Character.getType,0.05747259259051471,0.0,0.007000000000482908,0.0,0.06447259259099762
Class.getDeclaredMethods0,0.04811781818385828,0.0,0.004152727272770734,0.0,0.052270545456629014
ClassLoader.defineClass1,0.24110293805349894,0.0,0.032040796460417936,0.0,0.2731437345139169
DataInputStream.readUnsignedShort,0.07324233333929442,0.0,0.007849999999355834,0.0,0.08109233333865025
Math.min,0.0,0.0010517906982365044,0.0,0.00014162790703690112,0.0011934186052734055
PlatformComponent.<clinit>,0.06146233332886671,0.0,0.008244999999684902,0.0,0.06970733332855161
Random.next,0.6951137407428449,0.6070082823369509,0.08766111111967971,0.06847441813582707,1.4582575523353025
Random.nextDouble,0.11629233333709027,0.0,0.015794999999343414,0.0,0.1320873333364337
ThreadLocal$ThreadLocalMap.getEntry,0.058278743430807564,0.0,0.006967283968991421,0.0,0.06524602739979898
ZipFile.read,0.060241666661264986,0.0,0.007869999998850592,0.0,0.06811166666011557
