method,package1,package2,dram1,dram2,energy
java.io,0.0,0.18926999999611221,0.0,0.022823333333993407,0.21209333333010563
java.lang,0.0,0.09081768514650755,0.0,0.01097063666883186,0.10178832181533941
java.lang.management,0.0,0.08699533332967094,0.0,0.010443333335084995,0.09743866666475594
java.net,0.0,0.1154376666624254,0.0,0.016504999999597203,0.1319426666620226
java.util,0.42185628046963625,1.0134765333213889,0.07394406177306674,0.15286949999669255,1.6621463755607844
java.util.concurrent,0.0,0.05171733334039648,0.0,0.0013799999990927365,0.05309733333948922
java.util.concurrent.atomic,1.402041435622674,0.7438022000038471,0.2364152921126227,0.11862574999856104,2.500884677737705
