method,package1,package2,dram1,dram2,energy
AbstractStringBuilder,0.032869466665821766,0.0,0.0031620000003992274,0.0,0.03603146666622099
ArrayList,0.06687400000131068,0.0,0.00788500000150331,0.0,0.07475900000281399
AtomicLong,1.986999000005501,0.0,0.3105450000051253,0.0,2.2975440000106264
BufferedInputStream,0.0,0.005674435540515421,0.0,0.0008523875037613501,0.006526823044276771
BufferedWriter,0.027685466664843263,0.0,0.0037900000005417203,0.0,0.031475466665384984
ClassLoader,0.15332201580741106,0.0,0.018533434786003843,0.0,0.1718554505934149
Currency,0.019632999998672556,0.0,0.0019500000004579,0.0,0.021582999999130457
Hashtable,0.0,0.04084667642518758,0.0,0.0058751524459643815,0.04672182887115196
Logger,0.0,0.0,0.0,0.0,0.0
Random,2.7688210158045314,0.0,0.4234834347873155,0.0,3.192304450591847
System,0.0,0.0,0.0,0.0,0.0
