method,package1,package2,dram1,dram2,energy
ALSMatrixFactorization.update|GraphChiEngine$3.run|Executors$RunnableAdapter.call,1.9549163625893462,3.127987326199196,0.17886189337279268,0.4557306725646684,5.717496254726004
ArrayRealVector.getEntry|ALSMatrixFactorization.update|GraphChiEngine$3.run,0.0019511906759561602,0.0,0.0002454825174682154,0.0,0.0021966731934243756
ArrayRealVector.setEntry|ALSMatrixFactorization.update|GraphChiEngine$3.run,0.1638284850352339,0.049776882610831255,0.01599818464225193,0.00731520904295143,0.23691876133126852
AtomicLong.compareAndSet|Random.next|Random.nextDouble,0.5510189380518374,0.25757084355330656,0.07130579646227514,0.029340114385225807,0.9092356924526449
BlockRealMatrix.blockWidth|BlockRealMatrix.getEntry|ALSMatrixFactorization.update,0.01719966373343027,0.011679423116069787,0.001640295336447858,0.0017031516227150475,0.03222253380866296
BlockRealMatrix.blockWidth|BlockRealMatrix.setEntry|ALSMatrixFactorization.update,0.0019511906759561602,0.0,0.0002454825174682154,0.0,0.0021966731934243756
BlockRealMatrix.getEntry|ALSMatrixFactorization.update|GraphChiEngine$3.run,0.0011909304436510885,0.021288707408338266,8.844219974239484e-05,0.003250721816952218,0.025818801868683967
BlockRealMatrix.setEntry|ALSMatrixFactorization.update|GraphChiEngine$3.run,0.02670713108726177,0.02286709311638553,0.002327762065149906,0.003295571560572496,0.0551975578293697
BufferedInputStream.read|DataInputStream.readUnsignedShort|DataInputStream.readUTF,0.06530766666401178,0.0,0.00862499999978657,0.0,0.07393266666379834
BufferedWriter.write|Writer.write|ALSMatrixFactorization.writeOutputMatrices,0.06569595403512356,0.0,0.007555775474529344,0.0,0.0732517295096529
Calendar$Builder.build|CalendarProviderImpl.getInstance|Calendar.createCalendar,0.0,0.0,0.0,0.0,0.0
Character.getType|Character.isUpperCase|DefaultMXBeanMappingFactory.decapitalize,0.05747259259051471,0.0,0.007000000000482908,0.0,0.06447259259099762
ChiVertex$Edge.getValue|ALSMatrixFactorization.update|GraphChiEngine$3.run,0.0,0.0,0.0,0.0,0.0
CholeskyDecompositionImpl$Solver.solve|CholeskyDecompositionImpl$Solver.solve|CholeskyDecompositionImpl$Solver.solve,0.023106941371301818,0.011943173284030547,0.0027494907243415983,0.0017998501454604319,0.0395994555251344
CholeskyDecompositionImpl.<init>|CholeskyDecompositionImpl.<init>|ALSMatrixFactorization.update,0.004359288586546169,0.1287916253234978,0.0003650307337603262,0.019169817930479015,0.1526857625742833
Class.getDeclaredMethods0|Class.privateGetDeclaredMethods|Class.privateGetPublicMethods,0.04811781818385828,0.0,0.004152727272770734,0.0,0.052270545456629014
ClassLoader.defineClass1|ClassLoader.defineClass|SecureClassLoader.defineClass,0.24110293805349894,0.0,0.032040796460417936,0.0,0.2731437345139169
ConstPool.getItem|ConstPool.getUtf8Info|AttributeInfo.read,0.0,0.0,0.0,0.0,0.0
DataBlockManager.dereference|ChiVertex$Edge.getValue|ALSMatrixFactorization.update,0.006653595662142723,0.009241470589425744,0.0007301270046621012,0.0014505882350289649,0.018075781491259532
DataInputStream.readUnsignedShort|CodeAttribute.<init>|AttributeInfo.read,0.07324233333929442,0.0,0.007849999999355834,0.0,0.08109233333865025
FloatingDecimal$BinaryToASCIIBuffer.estimateDecExp|FloatingDecimal$BinaryToASCIIBuffer.dtoa|FloatingDecimal$BinaryToASCIIBuffer.access$100,0.0345680640201329,0.0,0.0051197592005486296,0.0,0.039687823220681526
HugeDoubleMatrix.randomize|ALSMatrixFactorization.beginIteration|GraphChiEngine.run,0.10043688888954758,0.04205038210945628,0.013946111111888764,0.005276261558829857,0.16170964366972246
JmxMBeanServer.<init>|JmxMBeanServer.newMBeanServer|MBeanServerBuilder.newMBeanServer,0.0998129999982969,0.0,0.012790000000677535,0.0,0.11260299999897444
LocaleData$1.run|LocaleData$1.run|AccessController.doPrivileged,0.0,0.0,0.0,0.0,0.0
MXBeanLookup.<clinit>|MXBeanSupport.register|StandardMBean.preRegister,0.029548363633115183,0.0,0.003847272727977146,0.0,0.03339563636109233
ManagementFactory.createGarbageCollector|MemoryImpl.getMemoryManagers0|MemoryImpl.getMemoryManagers,0.04811781818385828,0.0,0.004152727272770734,0.0,0.052270545456629014
Math.min|BlockRealMatrix.createBlocksLayout|BlockRealMatrix.<init>,0.0,0.0010517906982365044,0.0,0.00014162790703690112,0.0011934186052734055
NotificationBroadcasterSupport.<clinit>|MBeanServerDelegate.<init>|MBeanServerDelegateImpl.<init>,0.04119866667315364,0.0,0.0060599999997066325,0.0,0.04725866667286027
ParseUtil.encodePath|URLClassPath$FileLoader.getResource|URLClassPath.getResource,0.011763151516347672,0.0,0.0017090909091304195,0.0,0.013472242425478093
PlatformComponent.<clinit>|ManagementFactory.getPlatformMBeanServer|JmxReporter.<init>,0.06146233332886671,0.0,0.008244999999684902,0.0,0.06970733332855161
Random.nextDouble|HugeDoubleMatrix.randomize|ALSMatrixFactorization.beginIteration,0.11629233333709027,0.0,0.015794999999343414,0.0,0.1320873333364337
Random.next|Random.nextDouble|HugeDoubleMatrix.randomize,0.6951137407428449,0.6070082823369509,0.08766111111967971,0.06847441813582707,1.4582575523353025
ThreadLocal$ThreadLocalMap.getEntry|ThreadLocal$ThreadLocalMap.access$000|ThreadLocal.get,0.058278743430807564,0.0,0.006967283968991421,0.0,0.06524602739979898
ZipFile.read|ZipFile.access$1400|ZipFile$ZipFileInputStream.read,0.060241666661264986,0.0,0.007869999998850592,0.0,0.06811166666011557
