method,package1,package2,dram1,dram2,energy
com.sun.jmx.mbeanserver,0.14939366667143378,0.0,0.02222000000134964,0.0,0.1716136666727834
edu.cmu.graphchi,0.034477202878577105,0.0,0.0038665843876237627,0.0,0.03834378726620087
edu.cmu.graphchi.apps,3.033780531006211,3.5995932975819267,0.33260296963041286,0.36920329591029116,7.335180094128842
edu.cmu.graphchi.engine,0.0,0.0009439379590624631,0.0,9.754600994652504e-05,0.001041483969008988
edu.cmu.graphchi.shards,0.0,0.0,0.0,0.0,0.0
java.io,0.10310866666259244,0.0,0.013895000001260389,0.0,0.11700366666385283
java.lang,0.053364999999757856,0.0,0.007880000002235949,0.0,0.0612450000019938
java.lang.management,0.11332199999984975,0.0,0.01802500000000388,0.0,0.13134699999985364
java.security,0.17780735285722976,0.0,0.011352640294241212,0.0,0.18915999315147097
java.text,0.0,0.0,0.0,0.0,0.0
java.util,0.7234498372449252,0.0,0.038371506950119816,0.0,0.761821344195045
java.util.concurrent.atomic,0.3441545960138981,0.0,0.005876196825805945,0.0,0.350030792839704
javassist.bytecode,0.022505310986678618,0.0,0.0033770599624897376,0.0,0.025882370949168357
javax.management,0.02604166666666666,0.0,0.005499999999301508,0.0,0.031541666665968165
org.apache.commons.math.linear,0.18982478365148966,0.1027557772990906,0.02150553274518525,0.010439319499158797,0.3245254131949243
org.slf4j.helpers,0.0525310000036067,0.0,0.007869999998850592,0.0,0.060401000002457295
sun.misc,0.1171248357752469,0.0,0.012417508312111494,0.0,0.1295423440873584
sun.util.calendar,0.0,0.0,0.0,0.0,0.0
sun.util.resources,0.0,0.0071882486870059655,0.0,0.0008722477734769419,0.008060496460482907
