method,package1,package2,dram1,dram2,energy
com.sun.jmx.mbeanserver,0.0,0.1480759931432994,0.0,0.02119612020293438,0.16927211334623377
com.yammer.metrics,0.0,0.0757105990042034,0.0,0.010559479126305895,0.0862700781305093
edu.cmu.graphchi,0.002522766666758495,0.0017813373978806887,0.00040899999997539763,0.00019073170727548075,0.004903835771890062
edu.cmu.graphchi.apps,3.760656772687419,4.218623887361044,0.5741515022509729,0.44697353953511115,9.000405701834548
edu.cmu.graphchi.util,0.043802999998054766,0.0,0.0059250000000853715,0.0,0.049727999998140135
java.io,0.0,0.035015307693706386,0.0,0.0035688461539393757,0.03858415384764576
java.lang,0.34726648651572395,0.0783959767724865,0.044282902828870846,0.009740327145378813,0.4796856932624601
java.text,0.0,0.027372991964887662,0.0,0.003892700609357001,0.03126569257424466
java.util,0.5515339999886539,0.5754197318569952,0.0646150000053846,0.07481285878093645,1.2663815906319704
java.util.concurrent,0.0,0.09262801294074145,0.0,0.013642800593683944,0.1062708135344254
java.util.concurrent.atomic,0.7178882787046178,0.8926712919832547,0.08525221310925896,0.11519071358082442,1.8110024973779557
java.util.logging,0.0,0.0757105990042034,0.0,0.010559479126305895,0.0862700781305093
java.util.zip,0.0,0.12243723756746036,0.0,0.01704768038290494,0.1394849179503653
javassist.bytecode,0.0014463032786180949,0.0,0.00023409836058653735,0.0,0.0016804016392046321
javax.management,0.0,0.1980006054951018,0.0,0.028374916823873227,0.226375522318975
org.apache.commons.math.linear,0.290507165105789,0.34104281392597663,0.0441174483517295,0.0383026009519667,0.7139700283354617
sun.misc,0.1339385280811123,0.03987484615152845,0.013491112289053914,0.0027623076922072163,0.1900667942139019
sun.net.www.protocol.jar,0.0,0.14072521733696144,0.0,0.018169656670482676,0.15889487400744412
sun.util.locale.provider,0.06368000000171982,0.0,0.00802999999965929,0.0,0.07171000000137912
