method,package1,package2,dram1,dram2,energy
ALSMatrixFactorization.update|GraphChiEngine$3.run|Executors$RunnableAdapter.call,2.796981064059045,3.3528543224097205,0.45457696599466135,0.33793142828409867,6.942343780747526
AbstractRealMatrix.<init>|BlockRealMatrix.<init>|ALSMatrixFactorization.update,0.01220579019121429,0.0,0.0016914239755854794,0.0,0.01389721416679977
AbstractStringBuilder.append|StringBuilder.append|FloatingDecimal$BinaryToASCIIBuffer.appendTo,0.032869466665821766,0.0,0.0031620000003992274,0.0,0.03603146666622099
ArrayList.ensureExplicitCapacity|ArrayList.ensureCapacityInternal|ArrayList.add,0.06687400000131068,0.0,0.00788500000150331,0.0,0.07475900000281399
ArrayRealVector.getEntry|ALSMatrixFactorization.update|GraphChiEngine$3.run,0.003646016643084643,0.003990175000217277,0.0006292639739292943,0.00041250000003856263,0.008677955617269776
ArrayRealVector.setEntry|ALSMatrixFactorization.update|GraphChiEngine$3.run,0.02269720768017486,0.057154703677584906,0.003980637460028702,0.005592631473378831,0.0894251802911673
AtomicLong.compareAndSet|Random.next|Random.nextDouble,1.986999000005501,0.0,0.3105450000051253,0.0,2.2975440000106264
AttributeInfo.read|MethodInfo.read|MethodInfo.<init>,0.017578285719667158,0.0,0.002114285713538439,0.0,0.019692571433205595
BlockRealMatrix.blockWidth|BlockRealMatrix.getEntry|ALSMatrixFactorization.update,0.015470647530787654,0.008786725376150252,0.002536889505767893,0.001057472058275191,0.02785173447098099
BlockRealMatrix.blockWidth|BlockRealMatrix.setEntry|ALSMatrixFactorization.update,0.0,0.004236962790817542,0.0,0.0006318837209830742,0.004868846511800616
BlockRealMatrix.getEntry|ALSMatrixFactorization.update|GraphChiEngine$3.run,0.029448931860293417,0.023860629798201582,0.004837017755394988,0.0023778118408214178,0.06052439125471141
BlockRealMatrix.setEntry|ALSMatrixFactorization.update|GraphChiEngine$3.run,0.022605703035541536,0.11536057132719481,0.003891626056472628,0.011406702267776913,0.15326460268698588
BufferedInputStream.read|DataInputStream.readUnsignedShort|ClassFile.read,0.0,0.005674435540515421,0.0,0.0008523875037613501,0.006526823044276771
BufferedWriter.write|Writer.write|ALSMatrixFactorization.writeOutputMatrices,0.027685466664843263,0.0,0.0037900000005417203,0.0,0.031475466665384984
ChiVertex.getId|ALSMatrixFactorization.update|GraphChiEngine$3.run,0.0,0.0019257321453268052,0.0,0.0002021486781148428,0.0021278808234416477
ChiVertex.outEdge|ChiVertex.edge|ALSMatrixFactorization.update,0.016267458603429968,0.0,0.00263999279087181,0.0,0.018907451394301777
CholeskyDecompositionImpl$Solver.solve|CholeskyDecompositionImpl$Solver.solve|CholeskyDecompositionImpl$Solver.solve,0.003791699061088146,0.0,0.00047892386191325813,0.0,0.004270622923001404
CholeskyDecompositionImpl.<init>|CholeskyDecompositionImpl.<init>|ALSMatrixFactorization.update,0.0572676931652656,0.014847587260379502,0.009307913782359326,0.001882898887940048,0.08330609309594449
ClassLoader.checkCerts|ClassLoader.preDefineClass|ClassLoader.defineClass,0.15332201580741106,0.0,0.018533434786003843,0.0,0.1718554505934149
ConstPool.getUtf8Info|AttributeInfo.getName|AttributeInfo.lookup,0.0,0.0,0.0,0.0,0.0
Currency.getInstance|DecimalFormatSymbols.initialize|DecimalFormatSymbols.<init>,0.019632999998672556,0.0,0.0019500000004579,0.0,0.021582999999130457
DateFormatProviderImpl.getInstance|DateFormatProviderImpl.getTimeInstance|DateFormat.get,0.0,0.0,0.0,0.0,0.0
FloatingDecimal$BinaryToASCIIBuffer.dtoa|FloatingDecimal$BinaryToASCIIBuffer.access$100|FloatingDecimal.getBinaryToASCIIConverter,0.04943840000002335,0.0,0.007286000001477079,0.0,0.056724400001500426
FloatingDecimal$BinaryToASCIIBuffer.getChars|FloatingDecimal$BinaryToASCIIBuffer.appendTo|FloatingDecimal.appendTo,0.021752933335180084,0.0,0.0034960000009353585,0.0,0.025248933336115442
Hashtable.get|ClassPool.getCached|ClassPool.get0,0.0,0.04084667642518758,0.0,0.0058751524459643815,0.04672182887115196
HugeDoubleMatrix.randomize|ALSMatrixFactorization.beginIteration|GraphChiEngine.run,0.12561033332409954,0.0,0.015014999999645319,0.0,0.14062533332374486
JmxMBeanServer.<init>|JmxMBeanServer.newMBeanServer|MBeanServerBuilder.newMBeanServer,0.06781033332420823,0.0,0.007889999998345349,0.0,0.07570033332255358
JmxMBeanServer.newMBeanServerDelegate|MBeanServerBuilder.newMBeanServerDelegate|MBeanServerFactory.newMBeanServer,0.11149099999844717,0.0,0.012560000000424528,0.0,0.12405099999887169
JmxReporter.<clinit>|Metrics.<clinit>|GraphChiEngine.<init>,0.06587733334163204,0.0,0.007849999999355834,0.0,0.07372733334098787
Logger.demandLogger|Logger.getLogger|ChiLogger.getLogger,0.0,0.0,0.0,0.0,0.0
MBeanInfo.<init>|MBeanInfo.<init>|MBeanServerDelegateImpl.<init>,0.06858333334093912,0.0,0.008249999998952262,0.0,0.07683333333989138
MemberResolver.lookupFieldByJvmName2|TypeChecker.fieldAccess2|TypeChecker.fieldAccess,0.08396400000007513,0.0,0.010404999998475734,0.0,0.09436899999855086
MemoryShard.loadAdjChunk|MemoryShard.access$000|MemoryShard$1.run,0.0,0.0,0.0,0.0,0.0
NOPLoggerFactory.getLogger|LoggerFactory.getLogger|LoggerFactory.getLogger,0.06587733334163204,0.0,0.007849999999355834,0.0,0.07372733334098787
Random.nextDouble|HugeDoubleMatrix.randomize|ALSMatrixFactorization.beginIteration,0.24855533331477392,0.0,0.03854999999991075,0.0,0.2871053333146847
Random.next|Random.nextDouble|HugeDoubleMatrix.randomize,2.5202656824897574,0.0,0.3849334347874047,0.0,2.905199117277162
System.getSecurityManager|Class.checkMemberAccess|Class.getDeclaredField,0.0,0.0,0.0,0.0,0.0
Util.newObjectName|MBeanServerDelegate.<clinit>|JmxMBeanServer.newMBeanServerDelegate,0.030903999994431313,0.0,0.003960000001825392,0.0,0.03486399999625671
