time,sys_package,sys_dram,sock1_app_package,sock1_app_dram,sock2_app_package,sock2_app_dram
0,0.0,0.0,0.0,0.0,0.0,0.0
1,0.0,0.0,0.0,0.0,0.0,0.0
2,0.0,0.0,0.0,0.0,0.0,0.0
3,0.0,0.0,0.0,0.0,0.0,0.0
4,0.0,0.0,0.0,0.0,0.0,0.0
5,0.0,0.0,0.0,0.0,0.0,0.0
6,0.0,0.0,0.0,0.0,0.0,0.0
7,0.0,0.0,0.0,0.0,0.0,0.0
8,0.0,0.0,0.0,0.0,0.0,0.0
9,0.0,0.0,0.0,0.0,0.0,0.0
10,0.13737475022492524,0.01631341641127225,0.06628473435638016,0.007246478632959465,0.0,0.0
11,0.13737475022492524,0.01631341641127225,0.07076876518918537,0.007736688542299272,0.0,0.0
12,0.039948107944787106,0.0049880215617204154,0.019632405468209768,0.0031033108932302,0.0,0.0
13,0.039948107944787106,0.0049880215617204154,0.021260378620901785,0.0033606459827492195,0.0,0.0
14,0.019096412943093624,0.0023456669667808582,0.010187362773119032,0.001162823562861604,0.0,0.0
15,0.019096412943093624,0.0023456669667808582,0.010213811371701178,0.0011658425044975239,0.0,0.0
16,0.0,0.0,0.0,0.0,0.0,0.0
17,0.0,0.0,0.0,0.0,0.0,0.0
18,0.022205175496822542,0.0023786080240687244,0.01147859312834193,0.0013380350095003118,0.0,0.0
19,0.022205175496822542,0.0023786080240687244,0.007161055845928928,0.0008347489382807185,0.0,0.0
20,0.21141363808156974,0.03039774876749299,0.0861478332887874,0.010364425037921083,0.0,0.0
21,0.21141363808156974,0.03039774876749299,0.1544768905560378,0.01858507743186131,0.0,0.0
22,0.04960577600088331,0.007576906046391463,0.024044173193838954,0.0030030956791893544,0.0,0.0
23,0.04960577600088331,0.007576906046391463,0.024204274840911578,0.0030230922313967765,0.0,0.0
24,0.13703120078222752,0.020482917265693987,0.06302380287797159,0.008285702428521257,0.0,0.0
25,0.13703120078222752,0.020482917265693987,0.06544079552684164,0.008603463035561051,0.0,0.0
26,0.11785992511076111,0.01613166650796567,0.05510443942116226,0.006950564545216635,0.0,0.0
27,0.11785992511076111,0.01613166650796567,0.05609971036953824,0.007076102433621494,0.0,0.0
28,0.1220918786634824,0.01613928096976402,0.05793500394183125,0.007810544489097777,0.0,0.0
29,0.1220918786634824,0.01613928096976402,0.062017238749537955,0.008360893577061072,0.0,0.0
30,0.09508852431271698,0.01034321757537744,0.0793991121166766,0.012477652603159133,0.0,0.0
31,0.20969219097899128,0.019153217574734826,0.15075250590795858,0.0236909122486285,0.0,0.0
32,0.055136869103279126,0.0077856954544384,0.024298494043236505,0.0034211208902133433,0.0,0.0
33,0.055136869103279126,0.0077856954544384,0.02448576774038726,0.0034474882015524703,0.0,0.0
34,0.1320778782146478,0.020261650555638368,0.06059539318959557,0.008083590962439676,0.0,0.0
35,0.1320778782146478,0.020261650555638368,0.06044185037572388,0.0080631079316806,0.0,0.0
36,0.10418221913098469,0.011555366500545249,0.05178061014178078,0.006916644918240649,0.0,0.0
37,0.10418221913098469,0.011555366500545249,0.05369695159945548,0.007172622075878362,0.0,0.0
38,0.1170312556587674,0.014074496675972737,0.057908388970442204,0.006915187947907595,0.0,0.0
39,0.1170312556587674,0.014074496675972737,0.05971409974257966,0.007130818698320379,0.0,0.0
40,0.24827641825862737,0.034342374354784065,0.08970154169637157,0.012324872456759946,0.0,0.0
41,0.24827641825862737,0.034342374354784065,0.16215862178026236,0.022280378836415832,0.0,0.0
42,0.0408852345023726,0.005417862871393581,0.018130582569701303,0.002889643987968002,0.0,0.0
43,0.0408852345023726,0.005417862871393581,0.017408948427006354,0.002774630267149363,0.0,0.0
44,0.1464681575420232,0.020574505770253645,0.06034139662725815,0.0086689816523566,0.0,0.0
45,0.1464681575420232,0.020574505770253645,0.06304228824894663,0.009057006809580825,0.0,0.0
46,0.14132743121786656,0.02025681217006233,0.0621932549734423,0.008175339648982679,0.0,0.0
47,0.14132743121786656,0.02025681217006233,0.060486882608482465,0.007951036006133602,0.0,0.0
48,0.1391784411187132,0.020255238322924255,0.06131199740968544,0.007944982838739434,0.0,0.0
49,0.1391784411187132,0.020255238322924255,0.06200312036012641,0.008034540514442315,0.0,0.0
50,0.2262556449175402,0.030723490974084975,0.06512813327654482,0.00824517129065548,0.0,0.0
51,0.23250527389987102,0.03151468916862805,0.12445057690169123,0.015755346762639073,0.0,0.0
52,0.060009921289016235,0.007579311353503048,0.020890842777495543,0.002593614610328484,0.0,0.0
53,0.060009921289016235,0.007579311353503048,0.019727621729644186,0.002449199799644117,0.0,0.0
54,0.13582030915351107,0.01850121925991147,0.058229015666568865,0.007330111247479071,0.0,0.0
55,0.13582030915351107,0.01850121925991147,0.05806546906566153,0.007309523319534995,0.0,0.0
56,0.14466456627940413,0.02032575483842176,0.05083423725890385,0.006571989862289632,0.0,0.0
57,0.14466456627940413,0.02032575483842176,0.05280481894480251,0.006826752076908507,0.0,0.0
58,0.16049516729237856,0.020100391449047857,0.054809075152423135,0.0066943772402016655,0.0,0.0
59,0.16049516729237856,0.020100391449047857,0.05499814603283188,0.0067174703464997244,0.0,0.0
60,0.19683675202159592,0.02714126878477447,0.06649329529559773,0.009521078616821492,0.0,0.0
61,0.19683675202159592,0.02714126878477447,0.1256482006888614,0.017991383815505024,0.0,0.0
62,0.05989577539427922,0.007143188733815897,0.03344119720464787,0.004276815689082645,0.0,0.0
63,0.05989577539427922,0.007143188733815897,0.03512225198337559,0.0044918068393059035,0.0,0.0
64,0.1773189266086214,0.02035002982840909,0.06743965070645219,0.00890603744875007,0.0,0.0
65,0.1773189266086214,0.02035002982840909,0.06632549607204702,0.008758902895208238,0.0,0.0
66,0.14844754565764404,0.018024602950029448,0.04530282963904685,0.007761033084608831,0.0,0.0
67,0.14844754565764404,0.018024602950029448,0.04555807905666025,0.007804761019281089,0.0,0.0
68,0.1874345181738302,0.02247443170916118,0.05854753637878062,0.008888561936877325,0.0,0.0
69,0.1874345181738302,0.02247443170916118,0.06084642727406005,0.009237574643007524,0.0,0.0
70,0.23178487633369135,0.03731006968056438,0.06007062477201672,0.010087066115893483,0.0,0.0
71,0.23178487633369135,0.03731006968056438,0.11423762256924133,0.019182794521478336,0.0,0.0
72,0.08060029650185527,0.014342145337740258,0.025839484746155546,0.003940680388439711,0.0,0.0
73,0.08060029650185527,0.014342145337740258,0.026949922239414403,0.004110028937579198,0.0,0.0
74,0.15532563946248262,0.025450752124484274,0.04933725416565556,0.00787937329262256,0.0,0.0
75,0.15532563946248262,0.025450752124484274,0.052059466907700934,0.008314122464201719,0.0,0.0
76,0.1532869084955237,0.022773135144673485,0.05070523435026174,0.007943207780856325,0.0,0.0
77,0.1532869084955237,0.022773135144673485,0.051900948646518466,0.00813052191564759,0.0,0.0
78,0.13489169693588454,0.019598570332992317,0.042022471638916765,0.006986052666059426,0.0,0.0
79,0.13489169693588454,0.019598570332992317,0.0428691344989068,0.007126806674560182,0.0,0.0
80,0.2536126982255996,0.04206623599971444,0.06778921800484221,0.013708723584352697,0.0,0.0
81,0.2536126982255996,0.04206623599971444,0.12945338555477864,0.02617880441550947,0.0,0.0
82,0.08715563768905672,0.011248056618284152,0.02600971087434471,0.00552397070975017,0.0,0.0
83,0.08715563768905672,0.011248056618284152,0.02648501373902584,0.005624916049567411,0.0,0.0
84,0.16193937828093286,0.02196645605530097,0.053600971172178116,0.009554479921995542,0.0,0.0
85,0.16193937828093286,0.02196645605530097,0.054039272271166026,0.009632607966291914,0.0,0.0
86,0.13442451761021454,0.017639549947253145,0.044918375589972845,0.007002755622607308,0.0,0.0
87,0.13442451761021454,0.017639549947253145,0.04524158919666123,0.007053144486225197,0.0,0.0
88,0.14894691795215448,0.020122107226730836,0.05091313760661629,0.008058670218228644,0.0,0.0
89,0.14894691795215448,0.020122107226730836,0.05115602649255608,0.008097115333251515,0.0,0.0
90,0.24046255732584776,0.0286636607634698,0.05623432442989454,0.008785573640739645,0.0,0.0
91,0.2442400655174139,0.029253826587136364,0.10535793587419715,0.01646022982658992,0.0,0.0
92,0.08982971903961401,0.008007340098547814,0.021979551710130135,0.003488676826181225,0.0,0.0
93,0.08982971903961401,0.008007340098547814,0.02237206502520282,0.003550978010678565,0.0,0.0
94,0.1737446081733166,0.01967346195400695,0.03735463266201994,0.006096740562991335,0.0,0.0
95,0.1737446081733166,0.01967346195400695,0.03814630302658884,0.006225951011072994,0.0,0.0
96,0.1751717229158698,0.020120525040151594,0.043381758502831616,0.007015750046231646,0.0,0.0
97,0.1751717229158698,0.020120525040151594,0.043722351365928246,0.007070831132786964,0.0,0.0
98,0.18942835255357413,0.01681683225412378,0.04281390498483645,0.0008662590374342713,0.0,0.0
99,0.18942835255357413,0.01681683225412378,0.04460060306359034,0.0009024095207512024,0.0,0.0
100,0.21249043308681004,0.024324449814036253,0.04210828619587979,0.0035681115148682094,0.0,0.0
101,0.21506655972238667,0.02454274193519741,0.07931384761993979,0.006720782975225922,0.0,0.0
102,0.09955249225324093,0.010101176469641574,0.022718018762437907,0.0,0.0,0.0
103,0.09955249225324093,0.010101176469641574,0.02397277620498811,0.0,0.0,0.0
104,0.14113443396163247,0.016661638491219165,0.04131669901402515,0.005883707137558583,0.0,0.0
105,0.14113443396163247,0.016661638491219165,0.0422127408455421,0.006011308031276102,0.0,0.0
106,0.16096155251857677,0.019054644722240836,0.0452458192365181,0.004875692598765211,0.0,0.0
107,0.16096155251857677,0.019054644722240836,0.04808559817013271,0.005181707372337462,0.0,0.0
108,0.15049739459549288,0.016668428071876535,0.03587454389957034,0.0004874753525633015,0.0,0.0
109,0.15049739459549288,0.016668428071876535,0.03646631985594495,0.000495516603032709,0.0,0.0
110,0.20387238383363465,0.022500000000945874,0.043499715556731766,0.0,0.0,0.0
111,0.20387238383363465,0.022500000000945874,0.08366751677880406,0.0,0.0,0.0
112,0.10079412765679352,0.006149999999252032,0.026330529890653463,0.0,0.0,0.0
113,0.10079412765679352,0.006149999999252032,0.027391214774394955,0.0,0.0,0.0
114,0.15293503678462322,0.016319999998813728,0.04129481406036645,0.0,0.0,0.0
115,0.15293503678462322,0.016319999998813728,0.042606112357764,0.0,0.0,0.0
116,0.16778623296038378,0.01841249999961292,0.04551114590853793,0.0,0.0,0.0
117,0.16778623296038378,0.01841249999961292,0.04738338819043114,0.0,0.0,0.0
118,0.13060128165368948,0.014310000002296874,0.03453655856473787,0.0,0.0,0.0
119,0.13060128165368948,0.014310000002296874,0.035253878138377374,0.0,0.0,0.0
120,0.14284328711677258,0.01878557209825807,0.05372600805415765,0.005800041712472831,0.0,0.0
121,0.1370990257819149,0.01816544496512108,0.08604263989993857,0.009288814087357143,0.0,0.0
122,0.09174388918753736,0.012154388618524619,0.04196006361383977,0.0071551051661580605,0.0,0.0
123,0.09174388918753736,0.012154388618524619,0.04225707851179253,0.00720575267828592,0.0,0.0
124,0.11066005755170374,0.01615647832148867,0.05445252038712126,0.008956544617392256,0.0,0.0
125,0.11066005755170374,0.01615647832148867,0.056013045904791024,0.009213225416117856,0.0,0.0
126,0.09861674158712216,0.016601385979081427,0.05407132820205406,0.01016952698983225,0.0,0.0
127,0.09861674158712216,0.016601385979081427,0.055196764836864656,0.01038119477410202,0.0,0.0
128,0.09799097634146234,0.015729374359428047,0.054692559459182104,0.007834050811380095,0.0,0.0
129,0.09799097634146234,0.015729374359428047,0.05636764426610943,0.00807398654707433,0.0,0.0
130,0.12461698275494726,0.01979790566417488,0.04882014278356028,0.006937706960832813,0.0,0.0
131,0.1230360639044351,0.01957324528654478,0.08162572026279975,0.011599624568097586,0.0,0.0
132,0.07823395784586022,0.012145801356476827,0.035027815065593625,0.005078177504058852,0.0,0.0
133,0.07823395784586022,0.012145801356476827,0.03562741811890788,0.005165105299326798,0.0,0.0
134,0.10336916358554629,0.016137032915459436,0.04764276158790169,0.006733565202991907,0.0,0.0
135,0.10336916358554629,0.016137032915459436,0.04919388789317467,0.006952792841493949,0.0,0.0
136,0.10076109031951073,0.016129942397409062,0.044491406182006976,0.006690778371576175,0.0,0.0
137,0.10076109031951073,0.016129942397409062,0.04679025740371293,0.007036487922106902,0.0,0.0
138,0.10539045864237091,0.01612991659187776,0.04824370883059751,0.006792373144530865,0.0,0.0
139,0.10539045864237091,0.01612991659187776,0.048708451226703114,0.006857805588406957,0.0,0.0
140,0.14458818849343405,0.022801545729745517,0.06090917368702351,0.00895249478169411,0.0,0.0
141,0.13865879079414212,0.021930036583450704,0.10104984931612498,0.014852413748740731,0.0,0.0
142,0.05465380871028041,0.008043178750886285,0.029299828323497926,0.003984020504360761,0.0,0.0
143,0.05465380871028041,0.008043178750886285,0.029439649903431113,0.004003032630822921,0.0,0.0
144,0.11700873039580359,0.018146485905640598,0.06380682791797981,0.008846307460869103,0.0,0.0
145,0.11700873039580359,0.018146485905640598,0.06554634609251125,0.009087477773009611,0.0,0.0
146,0.09254553319329532,0.012940243141988664,0.05469271657704813,0.007921394461618566,0.0,0.0
147,0.09254553319329532,0.012940243141988664,0.055739450462154706,0.00807299768265424,0.0,0.0
148,0.1130676660729651,0.017758113400105628,0.0555938497478127,0.007872945156346723,0.0,0.0
149,0.1130676660729651,0.017758113400105628,0.05724498508575423,0.008106771344320531,0.0,0.0
150,0.14928135793882016,0.02367478966742895,0.046128648577716445,0.006740758282888811,0.0,0.0
151,0.128127607941306,0.020273539667707674,0.07689863551364415,0.011237162376611404,0.0,0.0
152,0.07436227294194449,0.012618411447551454,0.03420785195343526,0.004914809360772867,0.0,0.0
153,0.07436227294194449,0.012618411447551454,0.03496343550151942,0.005023367743802148,0.0,0.0
154,0.08266620320869328,0.014743873908536908,0.03951919389187599,0.00579210049681228,0.0,0.0
155,0.08266620320869328,0.014743873908536908,0.04005173301094228,0.005870151686433077,0.0,0.0
156,0.10646464347742665,0.01897106712512694,0.05171638303731743,0.007404300341074934,0.0,0.0
157,0.10646464347742665,0.01897106712512694,0.05258433000839273,0.007528565412925193,0.0,0.0
158,0.08408675227306764,0.014686953058294795,0.040587709223715324,0.005760340634357971,0.0,0.0
159,0.08408675227306764,0.014686953058294795,0.04133045288176749,0.005865753247097634,0.0,0.0
160,0.03038730715025843,0.0043361203730625745,0.06244445127194221,0.008910518329449241,0.0,0.0
161,0.0,0.0,0.1042589344136903,0.014877240926600251,0.0,0.0
162,0.0,0.0,0.04128287207435701,0.005894603471277891,0.0,0.0
163,0.0,0.0,0.042511272126539934,0.006070001423209949,0.0,0.0
164,0.0,0.0,0.05083868044725354,0.006917704436474977,0.0,0.0
165,0.0,0.0,0.051658795913846645,0.007029298922243724,0.0,0.0
166,0.0,0.0,0.06665269801885858,0.008852212584279224,0.0,0.0
167,0.0,0.0,0.06863467489956673,0.009115440948721291,0.0,0.0
168,0.0,0.0,0.05146586733720166,0.0069131608499787695,0.0,0.0
169,0.0,0.0,0.05254089342873765,0.00705756390142293,0.0,0.0
170,0.44233601772041553,0.059796451700276754,0.4076708958964853,0.05446098881563501,0.0,0.0
171,1.127714391321282,0.1646508126333167,0.7909358456301541,0.10566157328455983,0.0,0.0
172,0.0083166621097363,0.0009907052462373436,0.0034233608392755252,0.0006409964305111378,0.0,0.0
173,0.0083166621097363,0.0009907052462373436,0.003487927617599811,0.0006530860337924064,0.0,0.0
174,0.0,0.0,0.0,0.0,0.0,0.0
175,0.0,0.0,0.0,0.0,0.0,0.0
176,0.0,0.0,0.0,0.0,0.0,0.0
177,0.0,0.0,0.0,0.0,0.0,0.0
178,0.007775347772810071,0.000989945046569546,0.0035491478444053225,0.0006377680343596349,0.0,0.0
179,0.007775347772810071,0.000989945046569546,0.0036608185824791827,0.0006578348307398202,0.0,0.0
180,0.05430074210856705,0.0071578756003370025,0.027001506418093475,0.0038133598611083635,0.0,0.0
181,0.05430074210856705,0.0071578756003370025,0.028825009383005862,0.004070888937647197,0.0,0.0
182,0.017887599118166377,0.0024372973873437206,0.009021554012179227,0.0016298959564978312,0.0,0.0
183,0.017887599118166377,0.0024372973873437206,0.008914247708308173,0.0016105092620824293,0.0,0.0
184,0.0,0.0,0.0,0.0,0.0,0.0
185,0.0,0.0,0.0,0.0,0.0,0.0
186,0.01657667731969185,0.0023755872171995823,0.008358783811851386,0.001143813099817875,0.0,0.0
187,0.01657667731969185,0.0023755872171995823,0.008659861566247696,0.0011850124761020155,0.0,0.0
188,0.0,0.0,0.0,0.0,0.0,0.0
189,0.0,0.0,0.0,0.0,0.0,0.0
190,0.009969838391846671,0.0012004169704404092,0.03723433151524895,0.004483194378603164,0.0,0.0
191,0.0,0.0,0.039748991705665884,0.0047859716803833035,0.0,0.0
192,0.0,0.0,0.0,0.0,0.0,0.0
193,0.0,0.0,0.0,0.0,0.0,0.0
194,0.0,0.0,0.008635025106617579,0.0011683452436996081,0.0,0.0
195,0.0,0.0,0.00858687517583355,0.0011618304111517712,0.0,0.0
196,0.0,0.0,0.0,0.0,0.0,0.0
197,0.0,0.0,0.0,0.0,0.0,0.0
198,0.0,0.0,0.011400792312193096,0.0014376294001998994,0.0,0.0
199,0.0,0.0,0.005717000011483355,0.0007209084309571652,0.0,0.0
200,0.05683301126743631,0.005303390322211983,0.03640582168446925,0.004602850236847268,0.0,0.0
201,0.05683301126743631,0.005303390322211983,0.03761215578474106,0.004755369118230509,0.0,0.0
202,0.016265499987639487,0.0020399999975779792,0.0,0.0,0.0,0.0
203,0.016265499987639487,0.0020399999975779792,0.0,0.0,0.0,0.0
204,0.022190330816462597,0.00030347843981530634,0.008761612416917516,0.0011444605488295087,0.0,0.0
205,0.022190330816462597,0.00030347843981530634,0.008869725930470992,0.0011585825671486926,0.0,0.0
206,0.0,0.0,0.0,0.0,0.0,0.0
207,0.0,0.0,0.0,0.0,0.0,0.0
208,0.021900717797763206,0.002351829793957134,0.00902487706226315,0.0011592598118434858,0.0,0.0
209,0.021900717797763206,0.002351829793957134,0.009124687411012834,0.0011720806098791075,0.0,0.0
210,0.017283869789773393,0.0023432514064277367,0.019677683869067646,0.002960174767768881,0.02553299999999581,0.002813750000010865
211,0.011833559894886173,0.0015233444532152265,0.021672076551066198,0.003260197419497493,0.012766499999997905,0.0014068750000054324
212,0.0038945546572454895,0.00031445082949136836,0.005751419030797188,0.0007613562808286727,0.0047505555541849575,0.00022666666659966318
213,0.0038945546572454895,0.00031445082949136836,0.005810473446461768,0.0007691737342321094,0.0047505555541849575,0.00022666666659966318
214,0.001614146384721086,0.0002013316586976316,0.0027010837034787327,0.00032056817581818816,0.0017734444457649567,0.00022999999984878945
215,0.001614146384721086,0.0002013316586976316,0.002730886319139697,0.0003241051895452124,0.0017734444457649567,0.00022999999984878945
216,0.0,0.0,0.0,0.0,0.0,0.0
217,0.0,0.0,0.0,0.0,0.0,0.0
218,0.0017662227687770368,0.0001971313564236465,0.0030141323271873736,0.00031445613848508555,0.0019260000004174395,0.0002266666668017731
219,0.0017662227687770368,0.0001971313564236465,0.003070643252607712,0.0003203517679601459,0.0019260000004174395,0.0002266666668017731
220,0.012052768724963787,0.0015418102006560003,0.08005300001241267,0.009490434782175882,0.15423284867280368,0.020080563117432434
221,0.007203634362664433,0.0009104703177129395,0.023545000003650784,0.0027913043476987896,0.0775296138556322,0.010094077350545027
222,0.00040189848790110307,5.473076946877188e-05,0.007168414893849913,0.0009982978720453246,0.014686647059348114,0.0019713620214951836
223,0.00040189848790110307,5.473076946877188e-05,0.007168414893849913,0.0009982978720453246,0.01472509943108032,0.0019765234136742815
224,0.0005160218215260291,5.9906349044533625e-05,0.008945531909666122,0.0012368617024820076,0.01921954869145924,0.0019735178601705166
225,0.0005160218215260291,5.9906349044533625e-05,0.008945531909666122,0.0012368617024820076,0.01922823635326575,0.001974409933965459
226,0.000502111711705433,6.393760064085974e-05,0.008086416663900309,0.001469843749039986,0.01950211541846742,0.0019115127780923048
227,0.000502111711705433,6.393760064085974e-05,0.008437999997113366,0.0015337499989982464,0.02081860439222047,0.0020405493180547132
228,0.0005236761400373478,6.212342077159651e-05,0.009865224499217399,0.0015024489803923942,0.020280501871738604,0.0019647729399029706
229,0.0005236761400373478,6.212342077159651e-05,0.009865224499217399,0.0015024489803923942,0.02056089562048326,0.0019919374575039462
230,0.022900591385791216,0.002767677176124952,0.4885861775569799,0.06584944390214799,0.4281170742767851,0.044928963732328735
231,0.020910257068734325,0.0024994288834432107,0.4885861775569799,0.06584944390214799,0.4487808018254433,0.04709752911173278
232,0.0010728759152442901,0.0001317590222236295,0.025609865366685698,0.0037074731712842873,0.02248535689981302,0.0022686218731715227
233,0.0010728759152442901,0.0001317590222236295,0.025609865366685698,0.0037074731712842873,0.02249185773527056,0.002269277763917601
234,0.0003622679235030477,4.096505859202552e-05,0.00866978341758978,0.0010948682928503283,0.0075648204304040985,0.000755200490791216
235,0.0003622679235030477,4.096505859202552e-05,0.00866978341758978,0.0010948682928503283,0.007568497377258218,0.0007555675625669959
236,0.0006812784479313231,8.22392730020712e-05,0.015859418535923087,0.0021995707321912058,0.014620903095482666,0.001515252239232473
237,0.0006812784479313231,8.22392730020712e-05,0.015859418535923087,0.0021995707321912058,0.014640924155935849,0.0015173271423000454
238,0.0005146890970537078,6.386384898283925e-05,0.016366204875634945,0.002186458535810434,0.007211581792888646,0.0007583811365178631
239,0.0005146890970537078,6.386384898283925e-05,0.016366204875634945,0.002186458535810434,0.007207009535232456,0.0007579003108048174
240,0.017966489830961455,0.002073117045845032,0.3398917073088629,0.046514634145196625,0.39675868052953367,0.038139459588803104
241,0.017966489830961455,0.002073117045845032,0.3398917073088629,0.046514634145196625,0.39759692513719375,0.0382200380308342
242,0.002807997473669129,0.0003276341864991328,0.05519951220953885,0.007339024390292742,0.05976318606107491,0.0060331355134232685
243,0.002807997473669129,0.0003276341864991328,0.05519951220953885,0.007339024390292742,0.059816794607173034,0.006038547333719412
244,0.001386093611089637,0.00017086574525937876,0.03581707316121405,0.0049024390265425075,0.02051295623004498,0.002019443053109836
245,0.001386093611089637,0.00017086574525937876,0.03581707316121405,0.0049024390265425075,0.020558710217783473,0.0020239474049767426
246,0.0014188391609361636,0.00015780207764874948,0.018459512190552564,0.0024439024393980552,0.040031209109382446,0.004043655136049485
247,0.0014188391609361636,0.00015780207764874948,0.018459512190552564,0.0024439024393980552,0.04002408817754642,0.004042935832455294
248,0.0018445930446519265,0.00021862433506036308,0.036323414646974986,0.004880487803148287,0.039194404192589336,0.00404337876920334
249,0.0018445930446519265,0.00021862433506036308,0.036323414646974986,0.004880487803148287,0.039194580453586626,0.0040433969526657235
250,0.0175308801162122,0.002072382549445861,0.34117170731627905,0.04638292682967602,0.3768883860422411,0.03821850935214831
251,0.0175308801162122,0.002072382549445861,0.34117170731627905,0.04638292682967602,0.3779964390979361,0.03833087189140418
252,0.002801557451674118,0.00032728101120730094,0.055050731696211185,0.007324390246095589,0.05965327000694732,0.006034064560936505
253,0.002801557451674118,0.00032728101120730094,0.055050731696211185,0.007324390246095589,0.05968815168433297,0.006037592922304025
254,0.000925610889069696,0.00010940309599118237,0.018280487814236704,0.0024439024358488084,0.019616742651512885,0.0020221935385511185
255,0.000925610889069696,0.00010940309599118237,0.018280487814236704,0.0024439024358488084,0.019607059943677334,0.002021195395813123
256,0.0019045362810941398,0.00021797621259247774,0.037276097559142955,0.004880487806697536,0.04072458070251577,0.004018053046214378
257,0.0019045362810941398,0.00021797621259247774,0.037276097559142955,0.004880487806697536,0.04064315159424292,0.004010018918645668
258,0.0009498979950880234,0.00010966232725011737,0.017566341458161067,0.0024439024393980552,0.021342822799146257,0.002029428475042049
259,0.0009498979950880234,0.00010966232725011737,0.017566341458161067,0.0024439024393980552,0.020543698315770388,0.0019534419948595335
260,0.020924672070410058,0.0024084444351114777,0.3963527544993963,0.05193375622577451,0.46106818602772354,0.046414883719228583
261,0.020570549039666798,0.002372795522884728,0.39780546476205014,0.05212410358627825,0.46106818602772354,0.046414883719228583
262,0.0017196769435016278,0.00021243981149856879,0.034163758439859554,0.00475428239915183,0.03743860466124186,0.004043720931127442
263,0.0017196769435016278,0.00021243981149856879,0.03411507221399342,0.004747507147326889,0.03743860466124186,0.004043720931127442
264,0.0009189602966667939,0.00010525967443743474,0.018023253867525124,0.002363287843617479,0.02023960466274645,0.001992558138945876
265,0.0009189602966667939,0.00010525967443743474,0.01804701006991126,0.0023664028607349387,0.02023960466274645,0.001992558138945876
266,0.014430924242895538,0.0017884578219064164,0.2730127138720477,0.0398630906472409,0.31500927905002496,0.032166627907213835
267,0.014430924242895538,0.0017884578219064164,0.28558489753074695,0.04169877840592663,0.31500927905002496,0.032166627907213835
268,0.00126413231504362,0.00010669784783873418,0.03480395236529132,0.0023649184389039116,0.01690109304171381,0.0020511627904048766
269,0.00126413231504362,0.00010669784783873418,0.03479921584647758,0.0023645965938283503,0.01690109304171381,0.0020511627904048766
270,0.020972620057333184,0.0024507420509571384,0.387951491516404,0.05285745161962508,0.45450073737030144,0.04565555870488695
271,0.021106296744795035,0.002464170156458576,0.4035583052348651,0.054983842209942416,0.45450073737030144,0.04565555870488695
272,0.0018382104926937966,0.00021770906223359115,0.03559438027960679,0.004911875145669285,0.03902044809509625,0.003963131030027321
273,0.0018382104926937966,0.00021770906223359115,0.03564017436353241,0.004918194537126194,0.03902044809509625,0.003963131030027321
274,0.0009379393376516996,0.00010918466098028813,0.01830384781341139,0.002454351841508378,0.019775155985494668,0.0019960294938664094
275,0.0009379393376516996,0.00010918466098028813,0.018295663745338704,0.002453254444788848,0.019775155985494668,0.0019960294938664094
276,0.01937428526452279,0.0022882202507463366,0.37342317066976277,0.051532435585992874,0.41327308564851906,0.041793675554015704
277,0.01937428526452279,0.0022882202507463366,0.37460401489399636,0.05169539220920741,0.41327308564851906,0.041793675554015704
278,0.0013122621268316355,0.00016806616176958858,0.03533023434570986,0.004904134723167667,0.01839191719329156,0.0019960294938664094
279,0.0013122621268316355,0.00016806616176958858,0.035485656033257706,0.004925708565197087,0.01839191719329156,0.0019960294938664094
280,0.040142071772704235,0.004619164080173346,0.6835589084225919,0.09346822179866465,0.8342589999956541,0.08450250000169036
281,0.03745833418080645,0.00434732699377085,0.5929561787376125,0.0810794197079973,0.7851849411723804,0.07953176470747328
282,0.0019422814590724627,0.00022968553571628924,0.031478168169705376,0.004365762666657216,0.039917000001878485,0.0041099999980360735
283,0.0019422814590724627,0.00022968553571628924,0.03149275816736769,0.004367786179167772,0.03742218750176108,0.003853124998158819
284,0.001038963624733744,0.00011681674268343933,0.016694347334316465,0.0021751451227987255,0.02017112904145652,0.0020032258051346182
285,0.001038963624733744,0.00011681674268343933,0.01667169871014608,0.0021721941811766446,0.02017112904145652,0.0020032258051346182
286,0.0014593605045358973,0.0001732020010953066,0.03300331160344584,0.0043418557819981584,0.019816935471739742,0.00197419354956383
287,0.0014593605045358973,0.0001732020010953066,0.03298662918406146,0.004339661073178264,0.019816935471739742,0.00197419354956383
288,0.0014990990582132812,0.00017579434832432403,0.014782921179486513,0.0021876830853172395,0.037359193553246794,0.003977419354698448
289,0.0014990990582132812,0.00017579434832432403,0.014769098430785138,0.002185637495466666,0.037359193553246794,0.003977419354698448
290,0.022337627406183294,0.002608018144133953,0.33543472268410984,0.044212283532728325,0.33689596295934515,0.03566333333448575
291,0.022337627406183294,0.002608018144133953,0.31884009659167123,0.0420250135087796,0.33689596295934515,0.03566333333448575
292,0.0016867556630689787,0.00022102693318452172,0.033285414426777196,0.004879016915850803,0.0182495926015286,0.0019933333337744607
293,0.0016867556630689787,0.00022102693318452172,0.03340988906146012,0.004897262560637601,0.0182495926015286,0.0019933333337744607
294,0.0018676698239585216,0.0002257118845379558,0.016161715353849856,0.002456032682249442,0.03617611110719197,0.0039866666657973025
295,0.0018676698239585216,0.0002257118845379558,0.016149722773580403,0.002454210216722646,0.03617611110719197,0.0039866666657973025
296,0.001281393679942914,0.00014998294944316122,0.01790183647304486,0.0024255980767983313,0.019591999996919185,0.0020400000012159576
297,0.001281393679942914,0.00014998294944316122,0.017907453091762577,0.002426359097019933,0.01808492307407925,0.0018830769241993455
298,0.0012494525655475624,0.000154797223223164,0.017831133524899866,0.0024426543262370216,0.017373119993135334,0.001987199998693541
299,0.0012494525655475624,0.000154797223223164,0.01779972131971403,0.002438351225775871,0.017373119993135334,0.001987199998693541
300,0.028613593933849636,0.0033229908268038013,0.36746081512661477,0.04631380726251375,0.37845786957768723,0.0414652173912264
301,0.028613593933849636,0.0033229908268038013,0.36508825788294674,0.0460147763063432,0.37845786957768723,0.0414652173912264
302,0.0014729689023493685,0.00016464295708010592,0.018495884667434383,0.00242186656357081,0.019645043475421797,0.0019513043489891772
303,0.0014729689023493685,0.00016464295708010592,0.018491090584937666,0.002421238822410516,0.019645043475421797,0.0019513043489891772
304,0.0014420898586716443,0.00016702801039359118,0.01799514500842342,0.0025006311154915136,0.019324608688728644,0.0019513043472492747
305,0.0014420898586716443,0.00016702801039359118,0.017254457864466544,0.0023977041694648983,0.019324608688728644,0.0019513043472492747
306,0.008899289651956792,0.0010747166291992737,0.09757444413785513,0.01460246861619828,0.11335095238228815,0.011821428571628137
307,0.008899289651956792,0.0010747166291992737,0.09792707181121225,0.014655240984812808,0.11335095238228815,0.011821428571628137
308,0.011382477640854647,0.0013380700880367261,0.12731549910188233,0.01666810785597531,0.1434323809614094,0.01573571428577582
309,0.011382477640854647,0.0013380700880367261,0.12732478369616923,0.016669323392340205,0.1434323809614094,0.01573571428577582
310,0.03638970617277462,0.0041619433973987124,0.3225440597806817,0.039877910141700584,0.3495729999946585,0.03850000000020373
311,0.03638970617277462,0.0041619433973987124,0.3197155278859048,0.039528203063512436,0.3495729999946585,0.03850000000020373
312,0.0037044306482413615,0.00040788616069114625,0.033148764163781,0.003736567897217494,0.035233333322685204,0.0038359999998647254
313,0.0037044306482413615,0.00040788616069114625,0.03314070787042154,0.0037356597823028992,0.035233333322685204,0.0038359999998647254
314,0.0037524533504573456,0.00046002661863296375,0.032711190466643204,0.0048713036262724154,0.0352338000064871,0.0038639999991573843
315,0.0037524533504573456,0.00046002661863296375,0.03250530284346249,0.004840643136357578,0.0352338000064871,0.0038639999991573843
316,0.014824399917939005,0.001692719301281659,0.12640886557742095,0.015489880348333441,0.13993746667401866,0.015414000001085998
317,0.014824399917939005,0.001692719301281659,0.12687240126188162,0.015546681050219977,0.13993746667401866,0.015414000001085998
318,0.012970405832748638,0.0015033427473393735,0.10975242581723738,0.014209133419610706,0.1230464666635574,0.013467999999314391
319,0.012970405832748638,0.0015033427473393735,0.10966782916375133,0.014198181086418203,0.1230464666635574,0.013467999999314391
320,0.03757574813049967,0.003982556621513555,0.3485850143883016,0.037793379031203625,0.3709214117569739,0.038752941175035256
321,0.03757574813049967,0.003982556621513555,0.3741546658276094,0.04056562536611077,0.3709214117569739,0.038752941175035256
322,0.0029258020239064948,0.00031372152006687725,0.017737849974355017,0.0018620772964747037,0.035845647059271436,0.0038682352939812354
323,0.0029258020239064948,0.00031372152006687725,0.017756251862094265,0.0018640090828761597,0.035845647059271436,0.0038682352939812354
324,0.003596294716444011,0.0003943464533863562,0.034326778319372864,0.0037437651620990864,0.0351562352905817,0.0038682352974052157
325,0.003596294716444011,0.0003943464533863562,0.033981161647565566,0.0037060713347519814,0.0351562352905817,0.0038682352974052157
326,0.01483646448462242,0.0016923665218944663,0.1324066757313264,0.01595881951517225,0.1418028235408094,0.01555764705613803
327,0.01483646448462242,0.0016923665218944663,0.13317274824040198,0.016051153325687063,0.1418028235408094,0.01555764705613803
328,0.013359720685480768,0.001465271747327935,0.12313065441021546,0.013700914564587056,0.1251148235271959,0.013581176471608853
329,0.013359720685480768,0.001465271747327935,0.11194425716044888,0.01245618900263253,0.1251148235271959,0.013581176471608853
330,0.046402823525861614,0.0051933235280808045,0.2395480680191079,0.025710966050633943,0.25253300000622403,0.028807499998947605
331,0.046402823525861614,0.0051933235280808045,0.23724953495281578,0.025464261887572264,0.18939975000466802,0.021605624999210704
332,0.022785091838569492,0.0028824534447894215,0.07774254711753527,0.00830234032674997,0.06070933333830907,0.008279999999407057
333,0.022785091838569492,0.0028824534447894215,0.016599935870948684,0.0017727527861221169,0.0,0.0
334,0.010785060391503964,0.0015525974106952946,0.01102524999622829,0.001495777291980978,0.0,0.0
335,0.010785060391503964,0.0015525974106952946,0.2213002762707548,0.030023439656075977,0.17756235292729214,0.02695058823754902
336,0.007644220011712316,0.0009467524649305591,0.13744431595960174,0.017610118546456065,0.14923619999566912,0.018010285715198342
337,0.007644220011712316,0.0009467524649305591,0.13772284403758248,0.017645805089311715,0.14923619999566912,0.018010285715198342
338,0.006904570574970535,0.0008009051494226225,0.12989488283635275,0.017201138839932028,0.13497660000991477,0.014017714283233671
339,0.006904570574970535,0.0008009051494226225,0.12986077601428928,0.017196622294176782,0.13497660000991477,0.014017714283233671
340,0.020940380913726346,0.002459431903604481,0.40571445788583016,0.054122417725817926,0.4237876621568954,0.04450864864958097
341,0.021127236143954252,0.002479056528229516,0.4217239466894833,0.056258087835094506,0.4237876621568954,0.04450864864958097
342,0.0011186551666705273,9.768672286134179e-05,0.022203833060013542,0.0014609501261644976,0.022482486490893325,0.0023327027026204417
343,0.0011186551666705273,9.768672286134179e-05,0.022219709455427852,0.0014619947485871615,0.022482486490893325,0.0023327027026204417
344,0.0005511110774037416,6.498659558581065e-05,0.01076452606743539,0.0014619960468464763,0.011223932430840326,0.001174864864092465
345,0.0005511110774037416,6.498659558581065e-05,0.01075721976118985,0.001461003732760272,0.011223932430840326,0.001174864864092465
346,0.0005428956712636569,6.507947951882465e-05,0.010408118581157115,0.0014659934647150727,0.011206337834418928,0.0011748648661572638
347,0.0005428956712636569,6.507947951882465e-05,0.01040610208314771,0.0014657094390402741,0.011206337834418928,0.0011748648661572638
348,0.0005663652729909178,6.523353759962773e-05,0.011662202200933999,0.0014727303971805137,0.011068135136549638,0.001174864864092465
349,0.0005663652729909178,6.523353759962773e-05,0.01133964983102678,0.0014319977232257668,0.011068135136549638,0.001174864864092465
350,0.0326157036298628,0.0037917235531503063,0.6291681988438653,0.08253153700388681,0.6621408486533894,0.06933691216351223
351,0.03284852390013474,0.0038161036207183486,0.6542149965832196,0.08581706656220348,0.6621408486533894,0.06933691216351223
352,0.0009922995443139256,0.00016230569681629158,0.019539391797062485,0.004919480106813933,0.020143879046942887,0.0019600540534746554
353,0.0009922995443139256,0.00016230569681629158,0.01952627940061026,0.004916178766927342,0.020143879046942887,0.0019600540534746554
354,0.0013173355746112757,0.00010987285152269453,0.036852620749886156,0.0024734123494000127,0.01826741553434387,0.0019888783770708168
355,0.0013173355746112757,0.00010987285152269453,0.03685741081306341,0.0024737338408211368,0.01826741553434387,0.0019888783770708168
356,0.000979742321733934,0.000108536249988623,0.018961971186826146,0.0024511565857366514,0.02014387906092452,0.0019600540552223594
357,0.000979742321733934,0.000108536249988623,0.018968814442441487,0.002452041192664072,0.02014387906092452,0.0019600540552223594
358,0.0014384070583996623,0.0001661223913667891,0.017787496374873597,0.002497951508423714,0.03735584392231209,0.003970550674116444
359,0.0014384070583996623,0.0001661223913667891,0.017326284094697133,0.0024331820835035347,0.03735584392231209,0.003970550674116444
360,0.02539397619220893,0.0029787745567765042,0.488052641811695,0.06513024897579155,0.517010594592304,0.054233513515076055
361,0.02539397619220893,0.0029787745567765042,0.5074602166136185,0.06772017487840201,0.517010594592304,0.054233513515076055
362,0.0009353435131446626,0.00010951170222424856,0.018099141457395156,0.002458923021567751,0.019478432425121605,0.0020140540544997683
363,0.0009353435131446626,0.00010951170222424856,0.018099306650543427,0.002458945464468495,0.019478432425121605,0.0020140540544997683
364,0.0009619896990214925,0.00010920033391090489,0.020197598474197092,0.0024451528015018735,0.01879540542172067,0.0020140540527299397
365,0.0009619896990214925,0.00010920033391090489,0.020182611316002193,0.002443338432734536,0.01879540542172067,0.0020140540527299397
366,0.0009033526120367562,0.00011058188139733891,0.018822954635384193,0.0025075648736330326,0.0177562702604494,0.0020140540544997683
367,0.0009033526120367562,0.00011058188139733891,0.018076799592443286,0.002408163254057033,0.0177562702604494,0.0020140540544997683
368,0.014038276199667563,0.0016510965550357148,0.2734446324387375,0.0373864794466907,0.2906922162164354,0.030086756758612096
369,0.014038276199667563,0.0016510965550357148,0.2737103827510972,0.03742281392691938,0.2906922162164354,0.030086756758612096
370,0.013896306593251955,0.0016291828392649655,0.2776538720722126,0.03681022792999481,0.28774671796007817,0.030049230766916207
371,0.013896306593251955,0.0016291828392649655,0.27824007883805824,0.03688794485324115,0.28774671796007817,0.030049230766916207
372,0.008732995652635607,0.001036460178977055,0.18281307613529196,0.024564882290665963,0.1735635384550103,0.018115769231278528
373,0.008732995652635607,0.001036460178977055,0.18281885562692485,0.02456565889010109,0.1735635384550103,0.018115769231278528
374,0.0009578082835266892,0.00010810631418233332,0.018865356341092807,0.002450236824534131,0.020071307691978287,0.001987692308877087
375,0.0009578082835266892,0.00010810631418233332,0.01884941171283137,0.0024481659325449575,0.020071307691978287,0.001987692308877087
376,0.0013861081205764785,0.00016285857536012968,0.017946355594012506,0.0025064603908394917,0.03713915384604406,0.004019230768720334
377,0.0013861081205764785,0.00016285857536012968,0.0174301204873235,0.0024343609141240915,0.03713915384604406,0.004019230768720334
378,0.004697111844070182,0.0005539353704468972,0.0913040752161133,0.012219394188233187,0.09634120512129858,0.010055384614810092
379,0.004697111844070182,0.0005539353704468972,0.09132329082046349,0.012221965848299448,0.09634120512129858,0.010055384614810092
380,0.01927507047565842,0.0022643453281877305,0.36160327080321575,0.04835236630285961,0.40714867981675906,0.04254657211612865
381,0.018718476244876797,0.0022061818666482516,0.3766046411300567,0.05035829880307474,0.40714867981675906,0.04254657211612865
382,0.0008623004975806743,9.962580279421771e-05,0.017009239236291746,0.002247268875188145,0.019032129475164816,0.0019412884602621867
383,0.0008623004975806743,9.962580279421771e-05,0.017024952408791236,0.002249344907102213,0.019032129475164816,0.0019412884602621867
384,0.004194083191557184,0.0004964021590618634,0.08394914469232732,0.011206526907314331,0.09161240352330377,0.009685341346276126
385,0.004194083191557184,0.0004964021590618634,0.0837738786398289,0.011183130317147022,0.09161240352330377,0.009685341346276126
386,0.013658268986695019,0.0016089108241181412,0.26468678539511525,0.03513692034281569,0.2952155814205094,0.031004346153611955
387,0.013658268986695019,0.0016089108241181412,0.2761082500405496,0.03665310896872628,0.2952155814205094,0.031004346153611955
388,0.0008459199964341299,9.93452541677004e-05,0.016849043449418472,0.0022342899232471146,0.018517266023562302,0.0019412884636739573
389,0.0008459199964341299,9.93452541677004e-05,0.016858243793725854,0.002235509947199103,0.018517266023562302,0.0019412884636739573
390,0.015286831215587899,0.0017985141381822282,0.30528896495726565,0.04041382644389677,0.3067472051382841,0.03205153846003948
391,0.015377012919881996,0.0018104522956792302,0.3173980117547953,0.04201680909918171,0.3067472051382841,0.03205153846003948
392,0.0014357134239620607,0.00010891481740520028,0.01876368249095593,0.0024178510616337,0.03809061536986309,0.0020169230755970767
393,0.0014357134239620607,0.00010891481740520028,0.018780359375125552,0.002420000011985727,0.03809061536986309,0.0020169230755970767
394,0.0009015967231556499,0.00010975915966651134,0.016908788001767656,0.002491878468734819,0.019446743597748145,0.001987692308877087
395,0.0009015967231556499,0.00010975915966651134,0.01619868793066235,0.00238722974538165,0.019446743597748145,0.001987692308877087
396,0.014837642664486787,0.001740435095384823,0.2915946556582403,0.03871090503384826,0.3079066923132931,0.03216115384808897
397,0.014837642664486787,0.001740435095384823,0.292132090067756,0.038782252611675845,0.3079066923132931,0.03216115384808897
398,0.000991635432929793,5.6578229558687414e-05,0.020760313957141868,0.0024516577613320754,0.01947646153171379,0.0
399,0.000991635432929793,5.6578229558687414e-05,0.020068136447793046,0.0023699161091336627,0.01947646153171379,0.0
400,0.02625676628198652,0.003150532423201808,0.34205075519359984,0.047971106957871296,0.3587985600018875,0.03755519999773243
401,0.02625676628198652,0.003150532423201808,0.3617755922702354,0.05073742819751982,0.3587985600018875,0.03755519999773243
402,0.002137200665929272,0.0002418545278253879,0.01679821614927251,0.002449376448361072,0.03864287999924271,0.003960000001243317
403,0.002137200665929272,0.0002418545278253879,0.016815622497215937,0.00245191449753997,0.03864287999924271,0.003960000001243317
404,0.002659714243358122,0.0003257250211821499,0.03498783291786818,0.004893658205117587,0.036357120000757276,0.003974399999133312
405,0.002659714243358122,0.0003257250211821499,0.03468349860422005,0.0048510917473841494,0.036357120000757276,0.003974399999133312
406,0.010530244540079475,0.001308109181294988,0.12889806522594618,0.0195315471937157,0.15026351999491455,0.015868799999007022
407,0.010530244540079475,0.001308109181294988,0.12934740570020828,0.019599634442843235,0.15026351999491455,0.015868799999007022
408,0.009214206526090184,0.0011427144541701789,0.11267984466270071,0.017084291429204288,0.1317191999964416,0.01386720000242349
409,0.009214206526090184,0.0011427144541701789,0.11265734228632543,0.017080879664154416,0.1317191999964416,0.01386720000242349
410,0.02877137208283157,0.003260036958259435,0.35195632486720424,0.05040536493836935,0.3929070869610016,0.03734021739016853
411,0.02877137208283157,0.003260036958259435,0.3491197570478843,0.049999126362718804,0.3929070869610016,0.03734021739016853
412,0.002773822977585839,0.00033284823320631326,0.03339852195154847,0.004914612206929471,0.037977260875303044,0.003931304347687453
413,0.002773822977585839,0.00033284823320631326,0.033415310348835374,0.004917082629493698,0.037977260875303044,0.003931304347687453
414,0.00294528018157681,0.00026385827666844933,0.03545478867960184,0.0024292736781327063,0.037451652172224036,0.003931304347687453
415,0.00294528018157681,0.00026385827666844933,0.03517934659563965,0.0024104010736316294,0.037451652172224036,0.003931304347687453
416,0.01151967689267835,0.0013674098900155764,0.13220624472495815,0.018363852840938718,0.150273869553095,0.01575391304567861
417,0.01151967689267835,0.0013674098900155764,0.13270766237457884,0.018433501290213105,0.150273869553095,0.01575391304567861
418,0.010427802367070048,0.0012304562744666742,0.126464071131278,0.017067290743011117,0.13089091305332462,0.01377391304350053
419,0.010427802367070048,0.0012304562744666742,0.11732549806136895,0.015833970621610932,0.13089091305332462,0.01377391304350053
420,0.020018378967231645,0.00224592553771729,0.2407268163303302,0.029033602953117604,0.2378463822110797,0.024980232556728318
421,0.02027578847178909,0.002272960421436693,0.2393328241107434,0.028865476205793862,0.2378463822110797,0.024980232556728318
422,0.00559048578581833,0.0006323840560901195,0.05359124954120419,0.006696865929019617,0.07256249544104558,0.007644721941119432
423,0.00559048578581833,0.0006323840560901195,0.053615431061020215,0.006699887698385964,0.07256249544104558,0.007644721941119432
424,0.011540672949606753,0.0013132419294474376,0.13337081490965402,0.016564517629985207,0.1291016724024908,0.013453589484349356
425,0.011540672949606753,0.0013132419294474376,0.11148379570940954,0.013846172423383103,0.1291016724024908,0.013453589484349356
426,0.013638046488274647,0.0017147961707600805,0.1240990483518266,0.018060324962519338,0.1459807886754297,0.015443599596284135
427,0.013638046488274647,0.0017147961707600805,0.12411381519173528,0.018062474003394047,0.1459807886754297,0.015443599596284135
428,0.01384917569589077,0.0017799903112304888,0.1264781572617087,0.019255879060179757,0.14743499089256296,0.015387542971449997
429,0.01384917569589077,0.0017799903112304888,0.12694079569623276,0.019326314224137383,0.14743499089256296,0.015387542971449997
430,0.023555313440104576,0.0028313070065221773,0.16045382911989822,0.02295192812554757,0.2446479473744005,0.025308947368390178
431,0.023555313440104576,0.0028313070065221773,0.179298649257829,0.025647563123584648,0.2446479473744005,0.025308947368390178
432,0.00662208267950092,0.0006972167556804779,0.03585633263577465,0.004432334325935562,0.0736430624856439,0.006918750001204899
433,0.00662208267950092,0.0006972167556804779,0.03067606451181843,0.0037919821611842627,0.049095374990429264,0.004612500000803266
434,0.012233598261843627,0.0014093473711266863,0.008358083414668946,0.0010323622659220134,0.0,0.0
435,0.012233598261843627,0.0014093473711266863,0.18379260894258925,0.022701443000040355,0.2802091111144465,0.031152499994681837
436,0.015179963635994298,0.0018229936906623014,0.29870010269325087,0.03932365627358882,0.30425337143325515,0.034089857144863345
437,0.015179963635994298,0.0018229936906623014,0.2986392271696526,0.039315642054163144,0.30425337143325515,0.034089857144863345
438,0.0009267020925377276,0.00011160568944576274,0.018404152743222,0.0025119679870888906,0.01843917143331575,0.0020108571415351295
439,0.0009267020925377276,0.00011160568944576274,0.0177531002155149,0.002423106351873662,0.01843917143331575,0.0020108571415351295
440,0.02355914845160325,0.002687977956199798,0.4579113822939607,0.06043449343484933,0.48893809169426106,0.04936165540553724
441,0.022987633405433083,0.002630279590604319,0.45894098055608057,0.06057037835018142,0.48893809169426106,0.04936165540553724
442,0.0010195010152630373,0.00011050572545737837,0.012884325756722145,0.001650142490990004,0.02775096138699633,0.002800077220497869
443,0.0010195010152630373,0.00011050572545737837,0.0129055436498235,0.0016528599437800782,0.02775096138699633,0.002800077220497869
444,0.0006442205070518328,7.321632586006365e-05,0.012695107750264284,0.001651742938259709,0.013822979260305472,0.0014000386108731148
445,0.0006442205070518328,7.321632586006365e-05,0.012691944303139725,0.0016513313465228495,0.013822979260305472,0.0014000386108731148
446,0.000630764518501113,7.399649467204321e-05,0.012628920234503717,0.001660917195026887,0.013362133194147783,0.0014206274121934394
447,0.000630764518501113,7.399649467204321e-05,0.012636869927937413,0.0016619627145387722,0.013362133194147783,0.0014206274121934394
448,0.0008911764945388586,0.00011048936421471545,0.024224044070913973,0.0033359942847745695,0.013655523655094587,0.0014206274146901607
449,0.0008911764945388586,0.00011048936421471545,0.02425004924507989,0.0033395755659239145,0.013655523655094587,0.0014206274146901607
450,0.01989869311491941,0.0023622165226379077,0.3813653658626873,0.051409756096091316,0.41535750933557236,0.043159450057602564
451,0.01989869311491941,0.0023622165226379077,0.3813653658626873,0.051409756096091316,0.4352513727249182,0.04522660469934412
452,0.0009435770987492927,0.00010849265456377074,0.019322926840154322,0.00243658536729948,0.019275588555859407,0.0019915016787411324
453,0.0009435770987492927,0.00010849265456377074,0.019322926840154322,0.00243658536729948,0.019293403584216624,0.0019933422792902367
454,0.0009413872853921128,0.00010902872673346465,0.01810195120392231,0.0024585365835952046,0.02047384208824739,0.001992160353898759
455,0.0009413872853921128,0.00010902872673346465,0.01810195120392231,0.0024585365835952046,0.020479480886362044,0.0019927090242459872
456,0.004616921055744441,0.0005537868340861732,0.09012390244695381,0.012234146341187427,0.09501783974734528,0.009966088752898295
457,0.004616921055744441,0.0005537868340861732,0.09012390244695381,0.012234146341187427,0.09532251326441496,0.009998044892080664
458,0.007535198181536568,0.0008878110550947708,0.14669268292647494,0.019587804879226563,0.15549374857420156,0.016004767745573547
459,0.007535198181536568,0.0008878110550947708,0.14669268292647494,0.019587804879226563,0.15592348922760835,0.01604900038779662
460,0.02076933063864933,0.0024542625780875423,0.4082860924296471,0.054921460111506185,0.4226971832520487,0.04386839840133229
461,0.02076933063864933,0.0024542625780875423,0.4082860924296471,0.054921460111506185,0.4418669579373929,0.045857877741342486
462,0.0016044547483922943,0.00018683839907595426,0.03186663762479992,0.004212116574091178,0.03372764722196552,0.003451622968198221
463,0.0016044547483922943,0.00018683839907595426,0.03186663762479992,0.004212116574091178,0.03371882626152472,0.0034507202479622475
464,0.0007711891539395985,9.388195659428708e-05,0.016061531945274567,0.002112363849854353,0.015485254670548542,0.0017361467368634444
465,0.0007711891539395985,9.388195659428708e-05,0.016061531945274567,0.002112363849854353,0.015521606939982285,0.0017402224124204635
466,0.014273631829870959,0.0017351785889590209,0.205663216872463,0.027709569618349528,0.2203112767017116,0.024406138072706685
467,0.014273631829870959,0.0017351785889590209,0.16710136370887618,0.02251402531490899,0.17215206892555857,0.019071049047516404
468,0.0012665153706844586,0.00018629294754975184,0.030396368896427,0.004471030741194044,0.0,0.0
469,0.0012665153706844586,0.00018629294754975184,0.002533030741368917,0.00037258589509950367,0.0,0.0
470,0.03597226091578928,0.005109700118694565,0.05504329862123532,0.008157040531170633,0.0,0.0
471,0.03597226091578928,0.005109700118694565,0.23258197955783566,0.03446705923509545,0.41484420000342653,0.05749650000288967
472,0.002268218170305605,0.0003364021413521265,0.04060313776617229,0.00644868516670269,0.033682390239668965,0.004491219513732998
473,0.002268218170305605,0.0003364021413521265,0.04541566978297229,0.007213022741048379,0.0411673658484843,0.0054892682945625534
474,0.013627130684623076,0.0017007028799485985,0.24744673509419843,0.035859659068051025,0.29672328889395816,0.030939333331641828
475,0.013627130684623076,0.0017007028799485985,0.2472094257510434,0.03582526850664005,0.29672328889395816,0.030939333331641828
476,0.003279798356515353,0.0004076923971049667,0.07032184285430915,0.009708562054626219,0.058305866663188974,0.006064666667306381
477,0.003279798356515353,0.0004076923971049667,0.07103282711985716,0.009806719818725723,0.058305866663188974,0.006064666667306381
478,0.006455631408795421,0.0007889991115650721,0.12384157118393214,0.017161912795419287,0.13556057777928399,0.014138666665207389
479,0.006455631408795421,0.0007889991115650721,0.12355901043637753,0.01712275564598569,0.13556057777928399,0.014138666665207389
480,0.022093823049128797,0.002645715086776982,0.41880052184523725,0.05842898977765249,0.46748046517318925,0.048625729862227456
481,0.022233619838953316,0.0026602562739367393,0.43079987807135656,0.06010308096355943,0.46748046517318925,0.048625729862227456
482,0.0038894717938729216,0.0005676608318128819,0.0619480298428413,0.013576689407963657,0.09308783201700646,0.00970185342146769
483,0.0038894717938729216,0.0005676608318128819,0.06209160402233214,0.013608155494082869,0.09308783201700646,0.00970185342146769
484,0.0018556152289273035,0.0001524791416537164,0.04985769658007057,0.0034267340859373712,0.027032523321449634,0.002795105996984401
485,0.0018556152289273035,0.0001524791416537164,0.04988292637434067,0.003428468137085676,0.027032523321449634,0.002795105996984401
486,0.0025634939635085056,0.00030480322676147383,0.05076066653300688,0.006885399484800227,0.05295173026051227,0.005569957600746289
487,0.0025634939635085056,0.00030480322676147383,0.050697239747578254,0.0068767959973848524,0.05295173026051227,0.005569957600746289
488,0.0028376600758668862,0.00034358719813943234,0.06110691129628269,0.008628453243299573,0.054352996573925824,0.005529448819213601
489,0.0028376600758668862,0.00034358719813943234,0.0611783855455466,0.008638545591362845,0.054352996573925824,0.005529448819213601
490,0.028812155517515932,0.0033212864990278565,0.5486879147967344,0.07411889884651422,0.6200654871839409,0.062071538460235734
491,0.028812155517515932,0.0033212864990278565,0.5497357998033823,0.07426045123124149,0.6200654871839409,0.062071538460235734
492,0.001873149580164208,0.00022855384383569359,0.03750450356731792,0.005440819656054094,0.03871517947827202,0.003975384617754174
493,0.001873149580164208,0.00022855384383569359,0.037507838316986786,0.0054413034318628786,0.03871517947827202,0.003975384617754174
494,0.0013129176883858091,0.0001651781557855821,0.03526446419181478,0.0049198385435585065,0.019357102570117996,0.0020169230755970767
495,0.0013129176883858091,0.0001651781557855821,0.035272495308734886,0.004920958985892649,0.019357102570117996,0.0020169230755970767
496,0.0014402892917004034,0.00016149151314632834,0.017301569519101587,0.0024632743031005196,0.03975579487488201,0.004004615382701817
497,0.0014402892917004034,0.00016149151314632834,0.017310262147457955,0.0024645118976455117,0.03975579487488201,0.004004615382701817
498,0.0009560750537184503,0.0001080839423809944,0.017715872013997897,0.0024481180207307543,0.020993051267652895,0.001987692308877087
499,0.0009560750537184503,0.0001080839423809944,0.01773187529822625,0.002450329479951015,0.020993051267652895,0.001987692308877087
500,0.021553566029858542,0.0025921215846307685,0.40831557143878955,0.05801881262336292,0.47255696477381065,0.04832743902509383
501,0.02078642810003093,0.0025136679498497716,0.40903366422530674,0.05812084863115053,0.47255696477381065,0.04832743902509383
502,0.002069904847207421,0.0002461084992537467,0.040632988399748285,0.005568779283383481,0.04708059621343217,0.004845121951763432
503,0.002069904847207421,0.0002461084992537467,0.039952580427441126,0.005475528898175373,0.04708059621343217,0.004845121951763432
504,0.001046259229380992,0.00011974616745542637,0.013063870757044646,0.0018535529680412223,0.031419024379358576,0.003230081300699101
505,0.001046259229380992,0.00011974616745542637,0.013069383367747137,0.0018543351187620377,0.031419024379358576,0.003230081300699101
506,0.0013847493090896569,0.00016344774372300223,0.02728464138091423,0.0036866165049556122,0.03139505420155572,0.003230081300699101
507,0.0013847493090896569,0.00016344774372300223,0.027272953424494335,0.0036850372643694807,0.03139505420155572,0.003230081300699101
508,0.03613021077619427,0.005209320549977413,0.33270939915831804,0.050232527937651754,0.43339732804890924,0.06018075396838033
509,0.03613021077619427,0.005209320549977413,0.333173617755186,0.05030261574910325,0.43339732804890924,0.06018075396838033
510,0.038009840867474394,0.004519492769002748,0.7093037473689815,0.10342755285390122,0.8429775111174115,0.08209334407242723
511,0.037049765576278565,0.004425995860513338,0.7093037473689815,0.10342755285390122,0.8448201760433969,0.08227279195067325
512,0.001742921972791292,0.00020711218880302033,0.033972849890135125,0.004657071880978323,0.03905619722975312,0.004023747183886537
513,0.001742921972791292,0.00020711218880302033,0.033972849890135125,0.004657071880978323,0.03906475698144607,0.004024629048461488
514,0.00039224048652063484,5.577431288051265e-05,0.016474100433866663,0.0023425211409815326,0.0,0.0
515,0.00039224048652063484,5.577431288051265e-05,0.016474100433866663,0.0023425211409815326,0.0,0.0
516,0.0009049508386280025,0.0001032166906569475,0.017640932328788862,0.0023285359421850896,0.020265238590424398,0.001996539206585016
517,0.0009049508386280025,0.0001032166906569475,0.017640932328788862,0.0023285359421850896,0.020283720441158476,0.0019983600457247177
518,0.0004918829115158418,4.758351377959079e-05,0.0,0.0,0.02057409032361045,0.001990285670626583
519,0.0004918829115158418,4.758351377959079e-05,0.0,0.0,0.020571297849888207,0.00199001553375309
520,0.02481371793934306,0.002916027876289618,0.4749395498163288,0.06554842763065433,0.5388735035637316,0.05407837857560928
521,0.024007411466512814,0.002835111397009576,0.4749395498163288,0.06554842763065433,0.5401942295865867,0.054210919369295146
522,0.0013412703915920681,0.00014939484156616887,0.017657756338263546,0.0023075581388773293,0.03907755651372052,0.004008254591493029
523,0.0013412703915920681,0.00014939484156616887,0.017657756338263546,0.0023075581388773293,0.03910281523866894,0.004010845423911485
524,0.0009032091277466122,0.00010182690250928764,0.01746167128876601,0.0023075581388773293,0.02068478236623208,0.001989530916436322
525,0.0009032091277466122,0.00010182690250928764,0.01746167128876601,0.0023075581388773293,0.02069740848586898,0.0019907453384654
526,0.0008264251375981301,0.00010282989813085585,0.016480786889056142,0.0023213346067046093,0.01842615347635536,0.0020191174247777906
527,0.0008264251375981301,0.00010282989813085585,0.016480786889056142,0.0023213346067046093,0.018431681273100565,0.0020197231546032366
528,0.0008828145287210913,0.00010218404178500618,0.018049926410528744,0.0022937816743912823,0.019228369086762016,0.0020189568077666866
529,0.0008828145287210913,0.00010218404178500618,0.018049926410528744,0.0022937816743912823,0.01923699144337911,0.002019862145370335
530,0.012129704424143128,0.0014512060219942237,0.23761947368161354,0.03338684210336252,0.24697507602092092,0.02460226497448441
531,0.012129704424143128,0.0014512060219942237,0.20197655262937153,0.028378815787858138,0.23515348881066594,0.023424665090109716
532,0.0010548185643518885,0.0001241786684489236,0.0174614285667693,0.002426142858582482,0.020511960553757716,0.0020018083728475353
533,0.0010548185643518885,0.0001241786684489236,0.0174614285667693,0.002426142858582482,0.020519545185177113,0.00200254857408966
534,0.0010310387272740805,0.0001247980349179269,0.016779485719078894,0.0024334285682665975,0.02036141410972616,0.0020162226902824564
535,0.0010310387272740805,0.0001247980349179269,0.016779485719078894,0.0024334285682665975,0.02037253699498815,0.0020173240977547366
536,0.0011025946583230507,0.00014550384062158103,0.017550314279339674,0.002987142857663068,0.021054807559015495,0.0020697844728908
537,0.0011025946583230507,0.00014550384062158103,0.017550314279339674,0.002987142857663068,0.01988637456330467,0.001954922132527114
538,0.001148511394733211,0.00015051590158832648,0.017609571435189403,0.002994428574415256,0.02010271804232376,0.0019907038165156827
539,0.001148511394733211,0.00015051590158832648,0.017609571435189403,0.002994428574415256,0.02014011630489414,0.0019944072393002616
540,0.01462292203919842,0.0017106517289868384,0.1987370431655804,0.02789487603175667,0.21798952968120616,0.021739299079636103
541,0.014113080254939389,0.0016598070712295994,0.1987370431655804,0.02789487603175667,0.2186766914602864,0.02180782721240177
542,0.0019763675806528077,0.00021473914104662434,0.016178982548716695,0.002281873275271871,0.04056921672012084,0.003956328882990107
543,0.0019763675806528077,0.00021473914104662434,0.016178982548716695,0.002281873275271871,0.04058945715879819,0.003958302739983601
544,0.0012198246829698712,0.00014581415758662403,0.016679537193071445,0.0022818732818997408,0.01926803218739964,0.0020549655624076037
545,0.0012198246829698712,0.00014581415758662403,0.016679537193071445,0.0022818732818997408,0.018062648987201828,0.0019264095717480584
546,0.010079406570121218,0.0011833067650959365,0.1276546409370718,0.018309641871374717,0.15687292958455085,0.015741657119046626
547,0.010079406570121218,0.0011833067650959365,0.1276546409370718,0.018309641871374717,0.15767584021124398,0.015822226429609735
548,0.01024163165932261,0.0012457283302112496,0.12837522728571485,0.01891704545425564,0.15354015220225523,0.015841082999383145
549,0.01024163165932261,0.0012457283302112496,0.11981687880000053,0.017655909090638598,0.15420058362220673,0.01590922119508502
550,0.026800228122731494,0.003388242863162684,0.2859818260868728,0.04325869565376629,0.334595839553306,0.034473794833288746
551,0.026800228122731494,0.003388242863162684,0.2859818260868728,0.04325869565376629,0.3587490520216497,0.036962328140547215
552,0.0015054908947247972,0.0001907107291374115,0.015777499997057017,0.0025275000007241037,0.020417347150500337,0.001963808112869841
553,0.0015054908947247972,0.0001907107291374115,0.01434318181550638,0.002297727273385549,0.020424989246484556,0.0019645431549878264
554,0.006346499924464511,0.0008589531410863284,0.058285421053082424,0.00955657894634274,0.07535014688233171,0.00795171124947408
555,0.006346499924464511,0.0008589531410863284,0.058285421053082424,0.00955657894634274,0.07535501115819158,0.007952224577167202
556,0.014079540790433416,0.001929350099853774,0.12732584211105286,0.021493421053348446,0.16989352537536542,0.017830416246073035
557,0.014079540790433416,0.001929350099853774,0.12732584211105286,0.021493421053348446,0.1699757088511664,0.01783904144576115
558,0.013561077594246185,0.0018694912167044372,0.11684282352764377,0.019468235293649796,0.15174507338891727,0.01582641162386619
559,0.013561077594246185,0.0018694912167044372,0.11684282352764377,0.019468235293649796,0.15214512434015295,0.015868135357516164
560,0.027722162719193186,0.0037974072576902424,0.2688144188147316,0.04433926091804366,0.28383026109055726,0.029610679166513117
561,0.030203584388687747,0.00405628233552697,0.2688144188147316,0.04433926091804366,0.3068486002621853,0.032012074470657924
562,0.0031107014599556187,0.00042029318058424555,0.02843758118035655,0.004659238520508824,0.03065490914788842,0.0032329598056931993
563,0.0031107014599556187,0.00042029318058424555,0.02843758118035655,0.004659238520508824,0.0306678533487782,0.003234324940425505
564,0.005024234931740614,0.000647646097286792,0.0453304501659991,0.006995811870463468,0.04687355754258564,0.0048445231507024365
565,0.005024234931740614,0.000647646097286792,0.0453304501659991,0.006995811870463468,0.046834881542690665,0.004840525869789898
566,0.011893700349713519,0.0013944141510321927,0.11004425980573601,0.0142141545337513,0.10769888555819535,0.011267861004991357
567,0.011893700349713519,0.0013944141510321927,0.11004425980573601,0.0142141545337513,0.10789982693988683,0.011288884245364882
568,0.014522532013752275,0.0018648657368999003,0.14238679283010444,0.02105697648815366,0.12320373122070437,0.012950505713351983
569,0.014522532013752275,0.0018648657368999003,0.14238679283010444,0.02105697648815366,0.12351938824254716,0.012983685861585575
570,0.04245862472681096,0.005026262480673387,0.351867500008666,0.04595999999946798,0.41331990758400816,0.04349425900112697
571,0.04245862472681096,0.005026262480673387,0.30788406250758277,0.040214999999534484,0.40927128045684047,0.04306821604109309
572,0.002071908343794874,0.0002645566901920791,0.015950666660986223,0.0023379999969620254,0.01855456006487093,0.001940992896905789
573,0.002071908343794874,0.0002645566901920791,0.015950666660986223,0.0023379999969620254,0.018582289918378937,0.0019438937174320156
574,0.006429401876651279,0.0008730026392360601,0.038598600000841546,0.006066000001737847,0.05252748409865392,0.00600836570518157
575,0.006429401876651279,0.0008730026392360601,0.019299300000420773,0.003033000000868923,0.013433812170174185,0.0015366290184683298
576,0.1475380221606411,0.019313826221668516,0.07757566666502194,0.01142499999938688,0.011638440466637518,0.0014556133392278404
577,0.1475380221606411,0.019313826221668516,0.07757566666502194,0.01142499999938688,0.017444181877202845,0.0021817342199035236
578,0.146153192566804,0.019155481594382164,0.07173666666494682,0.009204999999686455,0.012761232338227698,0.0016839481015908284
579,0.146153192566804,0.019155481594382164,0.07173666666494682,0.009204999999686455,0.01618004916581031,0.0021350887088540035
580,0.07703735599527091,0.009650700363127747,0.07276352941213796,0.008011764706073638,0.0037506187585401654,0.000520753963866602
581,0.06876877310752796,0.008740272555619379,0.07276352941213796,0.008011764706073638,0.04241865321546663,0.005889610015291152
582,0.05928004383513859,0.007811062551520415,0.042006470589423736,0.004823529412604722,0.0041418686170148775,0.0005722021544720772
583,0.05928004383513859,0.007811062551520415,0.042006470589423736,0.004823529412604722,0.004861225528369816,0.0006715818336875747
584,0.06875552060517046,0.008567155593147096,0.05258607843037073,0.0048294117646839685,0.003974923026331482,0.0005499162718304674
585,0.06875552060517046,0.008567155593147096,0.05258607843037073,0.0048294117646839685,0.00737509636935406,0.0010203179968414776
586,0.06737810744713701,0.008815341946641533,0.04771509804128322,0.005170588235213312,0.003035494795458965,0.0004228377621652941
587,0.06737810744713701,0.008815341946641533,0.04771509804128322,0.005170588235213312,0.006223593333856904,0.0008669328907602372
