time,sys_package,sys_dram,sock1_app_package,sock1_app_dram,sock2_app_package,sock2_app_dram
0,0.0,0.0,0.0,0.0,0.0,0.0
1,0.0,0.0,0.0,0.0,0.0,0.0
2,0.0,0.0,0.0,0.0,0.0,0.0
3,0.0,0.0,0.0,0.0,0.0,0.0
4,0.0,0.0,0.0,0.0,0.0,0.0
5,0.0,0.0,0.0,0.0,0.0,0.0
6,0.0,0.0,0.0,0.0,0.0,0.0
7,0.0,0.0,0.0,0.0,0.0,0.0
8,0.0,0.0,0.0,0.0,0.0,0.0
9,0.0,0.0,0.0,0.0,0.0,0.0
10,0.12362346594595927,0.01416242831676552,0.0,0.0,0.0884719583546175,0.012826497480921812
11,0.12362346594595927,0.01416242831676552,0.0,0.0,0.0918321097541401,0.013313645886620498
12,0.031065518377165327,0.003954436255867415,0.0,0.0,0.009720150724912743,0.0016002475031843936
13,0.031065518377165327,0.003954436255867415,0.0,0.0,0.010118812520030166,0.0016658799774439317
14,0.002987256367118939,0.000428000546752052,0.0,0.0,0.011181683243941476,0.0016020608725426683
15,0.002987256367118939,0.000428000546752052,0.0,0.0,0.011529803997826054,0.0016519380356272801
16,0.013458500005071984,0.0014700000028824436,0.0,0.0,0.0,0.0
17,0.013458500005071984,0.0014700000028824436,0.0,0.0,0.0,0.0
18,0.0029624233172653477,0.000424959114600757,0.0,0.0,0.011177880562230097,0.0016034650413240853
19,0.0029624233172653477,0.000424959114600757,0.0,0.0,0.011339272813057216,0.0016266167319063172
20,0.05310830203854412,0.006618858478535496,0.06788624999899184,0.007934999999633874,0.00278284241964528,0.00038498537369267166
21,0.0342510103721575,0.004414691811970532,0.06788624999899184,0.007934999999633874,0.03811047017221439,0.00527229766848371
22,0.012962432616905927,0.0010831073918468885,0.0192109999989043,0.002212499999586725,0.00138692577322957,9.435799477192327e-05
23,0.012962432616905927,0.0010831073918468885,0.0192109999989043,0.002212499999586725,0.0015104312130491042,0.00010276055377669179
24,0.032761487405927645,0.0011508333332636133,0.04281600000103936,0.005178749999686261,0.0019999487213496294,0.0
25,0.032761487405927645,0.0011508333332636133,0.04281600000103936,0.005178749999686261,0.004729076460060361,0.0
26,0.03325375396856686,0.002918367371572043,0.05165100000158418,0.005895000000236904,0.0022677802199336373,0.0001674993075712713
27,0.03325375396856686,0.002918367371572043,0.05165100000158418,0.005895000000236904,0.0031920451847261013,0.0002357659501031712
28,0.03512182917567698,0.004112991111862388,0.0497285000019474,0.005895000000236904,0.00727624119256287,0.0008472932508583448
29,0.03512182917567698,0.004112991111862388,0.0497285000019474,0.005895000000236904,0.0063696560042974075,0.0007417245250537911
30,0.1343862108365121,0.014646482471112526,0.11171466666079746,0.01350500000019868,0.006205759464653752,0.0006238234645527338
31,0.1343862108365121,0.014646482471112526,0.11171466666079746,0.01350500000019868,0.10980748552637537,0.011038211591191541
32,0.03989383381375295,0.005609472069682021,0.04266366667191808,0.004934999999629023,0.03249082564426939,0.005499690985535537
33,0.03989383381375295,0.005609472069682021,0.04266366667191808,0.004934999999629023,0.003139173393580693,0.0005313648783115421
34,0.11197297183267628,0.018004564809428657,0.06683333332572752,0.006885000000086922,0.007529480413308744,0.001395747693613936
35,0.11197297183267628,0.018004564809428657,0.06683333332572752,0.006885000000086922,0.013702909269157204,0.00254012268554698
36,0.10794387589228219,0.016850171411589936,0.053161666670348495,0.007895000000038028,0.006263289288201735,0.0009932416623254583
37,0.10794387589228219,0.016850171411589936,0.053161666670348495,0.007895000000038028,0.013566625582779959,0.0021514155144279267
38,0.11606270263946324,0.018889502796883034,0.058613999998973064,0.007904999998572748,0.006627852774646479,0.0011411383047381868
39,0.11606270263946324,0.018889502796883034,0.058613999998973064,0.007904999998572748,0.011876741960828413,0.0020448561016377627
40,0.10095748078994785,0.0116291008574698,0.06876999999671665,0.008528181818705474,0.007737520176667957,0.0008560130612124562
41,0.11700381412251508,0.01361900994850108,0.06876999999671665,0.008528181818705474,0.13245751824279792,0.014653967044057503
42,0.027734703439833686,0.0035919283963480463,0.010431454548696902,0.001281818181847815,0.005991123309670719,0.0007910407607501053
43,0.027734703439833686,0.0035919283963480463,0.010431454548696902,0.001281818181847815,0.003643736462567989,0.0004811024434549815
44,0.11277838279486699,0.016399032768439143,0.036554545455146574,0.004914545455407774,0.00785708241075725,0.0011693569866117464
45,0.11277838279486699,0.016399032768439143,0.036554545455146574,0.004914545455407774,0.01951628534690829,0.0029045774792778537
46,0.09838910251358915,0.014457152380940487,0.03558909090828489,0.004276363635488616,0.0072751208951099015,0.0011393312446158744
47,0.09838910251358915,0.014457152380940487,0.03558909090828489,0.004276363635488616,0.016796007408700724,0.0026303639900190773
48,0.09742883991969965,0.01409532407444875,0.0365543636355803,0.003864545454482801,0.005577490880639731,0.000889378092629977
49,0.09742883991969965,0.01409532407444875,0.0365543636355803,0.003864545454482801,0.019340295939688185,0.003083973758423474
50,0.12053677724713596,0.015459459276827785,0.09493033333759134,0.010605000000699269,0.00637841719864135,0.0008866004625083703
51,0.12053677724713596,0.015459459276827785,0.09493033333759134,0.010605000000699269,0.14478036166554156,0.020124480982858947
52,0.06780574213388404,0.00896725819045851,0.03552233332690472,0.003914999998717879,0.008327999344147408,0.0011665052819281227
53,0.06780574213388404,0.00896725819045851,0.03552233332690472,0.003914999998717879,0.009380849707024559,0.0013139783374152415
54,0.13024496022287568,0.01865971343441979,0.06941733333709027,0.008220000000922784,0.01077182201831102,0.0016404961684943287
55,0.13024496022287568,0.01865971343441979,0.06941733333709027,0.008220000000922784,0.01513559087044808,0.00230507696735608
56,0.12886592080655707,0.01834904294383427,0.06593833334045485,0.00787500000054327,0.00995883928362958,0.0014966329287853766
57,0.12886592080655707,0.01834904294383427,0.06593833334045485,0.00787500000054327,0.01803465242369884,0.002710281179140537
58,0.1312535848840592,0.0181669063883539,0.07012933332589455,0.00864000000001397,0.01864880179122821,0.002684594207249296
59,0.1312535848840592,0.0181669063883539,0.07012933332589455,0.00864000000001397,0.01779436176351739,0.002561593020657601
60,0.08728123028933643,0.011171726732473079,0.0787612121255899,0.008549090908755632,0.005377963273743885,0.0007743696080143628
61,0.10034503689657502,0.013052776171953606,0.0787612121255899,0.008549090908755632,0.09514478829182192,0.013699839263286205
62,0.04723463444042398,0.00672561545624298,0.025597818181708903,0.002858181817414747,0.002826512812284939,0.00043474311466415
63,0.04723463444042398,0.00672561545624298,0.025597818181708903,0.002858181817414747,0.004583633064816129,0.0007050040270169008
64,0.10210873938314224,0.013678993999929476,0.04933115151343923,0.0063854545446564315,0.0074878340386995874,0.0010138974347766163
65,0.10210873938314224,0.013678993999929476,0.04933115151343923,0.0063854545446564315,0.009383194530532005,0.0012705405615758814
66,0.09109855822690996,0.013112658081668935,0.048842909089712935,0.0052945454566118615,0.003918271036590067,0.0006149969637609381
67,0.09109855822690996,0.013112658081668935,0.048842909089712935,0.0052945454566118615,0.011664566052287306,0.0018308260553584878
68,0.09388164789623855,0.013539087957809205,0.051506424245114125,0.006254545453526645,0.004064447637709985,0.0006211544025563131
69,0.09388164789623855,0.013539087957809205,0.051506424245114125,0.006254545453526645,0.012097724710276307,0.0018488502336657785
70,0.09481737505875995,0.013506831432652314,0.10100906665902584,0.014192000000427168,0.008617893303068721,0.001246768636646742
71,0.07587817506019262,0.010845831432572218,0.10100906665902584,0.014192000000427168,0.08757092323515615,0.012669068498784302
72,0.0172141040348167,0.0015196794859690965,0.01790346667015304,0.002176000001297022,0.003456508902058533,0.00024978844985759223
73,0.0172141040348167,0.0015196794859690965,0.01790346667015304,0.002176000001297022,0.0015339497003472205,0.0001108525765928323
74,0.07317382208521192,0.010644897180299918,0.0637207999980698,0.0076919999982540815,0.00416025699969569,0.0006437213691341763
75,0.07317382208521192,0.010644897180299918,0.0637207999980698,0.0076919999982540815,0.0095260988254806,0.0014739842704175224
76,0.06401102282522997,0.009824573538711544,0.05169280000651877,0.0080800000015491,0.0040434895330683385,0.0006167485450720756
77,0.06401102282522997,0.009824573538711544,0.05169280000651877,0.0080800000015491,0.008762964833219417,0.001336604377779775
78,0.06165689545138317,0.007925382019651098,0.044693866667027266,0.0076159999977486815,0.003542221950319403,0.00041188820150474617
79,0.06165689545138317,0.007925382019651098,0.044693866667027266,0.0076159999977486815,0.007889153808170882,0.0009173477605345481
80,0.12272202572737828,0.019113827021100205,0.10137933332589456,0.016015000001061708,0.007507467156927145,0.0011575406723308256
81,0.12272202572737828,0.019113827021100205,0.10137933332589456,0.016015000001061708,0.1431058147198714,0.02206480528289017
82,0.08044958603765738,0.01255990152874661,0.0423790000010437,0.006720000000010865,0.004324500948087955,0.0006713622193937696
83,0.08044958603765738,0.01255990152874661,0.0423790000010437,0.006720000000010865,0.0103953269732079,0.0016138347226267807
84,0.12261169569956983,0.01970798999368287,0.054097333340905614,0.009430000000672104,0.0071488597991844465,0.0011215925711223985
85,0.12261169569956983,0.01970798999368287,0.054097333340905614,0.009430000000672104,0.012540082141128636,0.0019674274451932992
86,0.11354112722436795,0.018296754031980916,0.06131999999828015,0.010824999999992237,0.008126998384269366,0.0012633794351747689
87,0.11354112722436795,0.018296754031980916,0.06131999999828015,0.010824999999992237,0.012145747185912995,0.0018881124978707398
88,0.13854883777885718,0.02163487379348639,0.07696533333122109,0.011989999999059364,0.010630588108315872,0.0016615111232889752
89,0.13854883777885718,0.02163487379348639,0.07696533333122109,0.011989999999059364,0.0271520696412466,0.004243741293481
90,0.08501683421070008,0.01087784340237391,0.13073733332566914,0.015720000000631746,0.00205064732227727,0.0003149674124269535
91,0.14396133685429663,0.019931373608548023,0.13073733332566914,0.015720000000631746,0.03892951757911763,0.00597934578302216
92,0.0678979711889271,0.009369367570443585,0.042338000008991614,0.004289999999552189,0.0012249596744682515,0.00018938056463250902
93,0.0678979711889271,0.009369367570443585,0.042338000008991614,0.004289999999552189,0.0020678047373799287,0.00031968564914986315
94,0.1420000729235974,0.018273134827834887,0.08778900000227925,0.01080000000123012,0.0018664409068260784,0.0002449090783007948
95,0.1420000729235974,0.018273134827834887,0.08778900000227925,0.01080000000123012,0.0041802726259026115,0.0005485235091620568
96,0.1352084793229253,0.019542784117721618,0.08253966665749128,0.009519999999611171,0.002346553949346699,0.00036926868688723466
97,0.1352084793229253,0.019542784117721618,0.08253966665749128,0.009519999999611171,0.003204873056731822,0.0005043392527280795
98,0.11424999506239675,0.018401632488675025,0.0840660000006513,0.010899999998703908,0.0017476549926938275,0.00031343017199824075
99,0.11424999506239675,0.018401632488675025,0.0840660000006513,0.010899999998703908,0.002457597479676936,0.00044075358350349845
100,0.11191990304434224,0.018003207397440067,0.08856526315579878,0.01178684210715705,0.008374408530516547,0.0014993552498799565
101,0.12372860479844876,0.01957478634506101,0.08856526315579878,0.01178684210715705,0.13332804853794994,0.023871072064750868
102,0.08684230253786646,0.012504132351993174,0.0450213157914971,0.00531315789358862,0.005062620479926013,0.0007932266154206827
103,0.08684230253786646,0.012504132351993174,0.0450213157914971,0.00531315789358862,0.009627774442245624,0.0015085086794749936
104,0.1256522982548432,0.01928498963680568,0.06770078947547037,0.008589473683586172,0.006555149740175791,0.0010964160187120634
105,0.1256522982548432,0.01928498963680568,0.06770078947547037,0.008589473683586172,0.02528158707862017,0.004228604707772811
106,0.1135799925689546,0.018681990219543067,0.07025473684495265,0.008605263156871506,0.004944582969712706,0.0009470415409548377
107,0.1135799925689546,0.018681990219543067,0.07025473684495265,0.008605263156871506,0.008191765251234025,0.0015689780178003
108,0.1328046843214773,0.022880279973901643,0.07020657894348628,0.009678947368995165,0.005666606964958954,0.0010744475545333484
109,0.1328046843214773,0.022880279973901643,0.07020657894348628,0.009678947368995165,0.014002357704297341,0.00265499250011818
110,0.1038000912317408,0.017020562328165866,0.10174566667410544,0.013585000000603031,0.003954584220833704,0.0007642136679734437
111,0.1038000912317408,0.017020562328165866,0.10174566667410544,0.013585000000603031,0.10442389999585118,0.020179661674545813
112,0.07432337606164151,0.012895813883259605,0.05015033333135458,0.006800000000415214,0.002951826085980493,0.0005691575688009809
113,0.07432337606164151,0.012895813883259605,0.05015033333135458,0.006800000000415214,0.005363755134814813,0.0010342146668715193
114,0.11622790083405325,0.020574495240166545,0.07651766666094773,0.01088500000090183,0.006381672706254289,0.001238535282059515
115,0.11622790083405325,0.020574495240166545,0.07651766666094773,0.01088500000090183,0.008334192273412441,0.0016174742349247958
116,0.1147610111408951,0.020390933945685405,0.07838966666410366,0.010899999998703908,0.004707541695515989,0.0009307744755893142
117,0.1147610111408951,0.020390933945685405,0.07838966666410366,0.010899999998703908,0.011518102692858474,0.002277357628917214
118,0.11647493139887322,0.02071521969080129,0.07729066666797735,0.010940000000118744,0.004817276085940333,0.000943605441465756
119,0.11647493139887322,0.02071521969080129,0.07729066666797735,0.010940000000118744,0.008530527773796402,0.0016709551793018713
120,0.1138800537043414,0.017764209994338462,0.10900899999736187,0.014975000000655806,0.003985596714533471,0.0006898263516225031
121,0.1138800537043414,0.017764209994338462,0.10900899999736187,0.014975000000655806,0.11645929585458407,0.02015675366224231
122,0.07609506358620628,0.01255419650453523,0.05206300001009368,0.006760000001425699,0.004842435938744628,0.0008873810748049418
123,0.07609506358620628,0.01255419650453523,0.05206300001009368,0.006760000001425699,0.007335436915867931,0.0013442259178867394
124,0.11659222962068913,0.0200841429188646,0.07159433332465899,0.00951999999718585,0.0045448722594812795,0.0008620114832333707
125,0.11659222962068913,0.0200841429188646,0.07159433332465899,0.00951999999718585,0.008487001815158657,0.0016097026726388589
126,0.12075610997405743,0.02057758895318529,0.06742333333628872,0.010945000001811422,0.004966182035743818,0.0008617967851145687
127,0.12075610997405743,0.02057758895318529,0.06742333333628872,0.010945000001811422,0.011801931361121131,0.0020480253103798357
128,0.10194542062743411,0.018143566221022468,0.06766766666745146,0.009560000001026006,0.003864081214711034,0.0007581368640191339
129,0.10194542062743411,0.018143566221022468,0.06766766666745146,0.009560000001026006,0.00700674418324484,0.0013747306971307535
130,0.09808738520786478,0.017668748229528318,0.07714844444180252,0.012124444442128554,0.00446011495134393,0.0008698317747764841
131,0.10290916298547745,0.018426526007161353,0.07714844444180252,0.012124444442128554,0.08879455908935636,0.017317116210181362
132,0.08421971498996733,0.015265381749783723,0.047580148153765885,0.0072577777792941075,0.00477214059666855,0.0009288219490508797
133,0.08421971498996733,0.015265381749783723,0.047580148153765885,0.0072577777792941075,0.00794009608248248,0.001545414551308715
134,0.11271257343951127,0.020376912945714417,0.061885333326817664,0.009688888887736807,0.0043695813791308795,0.0008372609094404826
135,0.11271257343951127,0.020376912945714417,0.061885333326817664,0.009688888887736807,0.012128271755379944,0.002323913198721679
136,0.10921848806539536,0.019964340448314133,0.05280651852350544,0.008511111112225248,0.006158740985686681,0.0011755070018077392
137,0.10921848806539536,0.019964340448314133,0.05280651852350544,0.008511111112225248,0.008334616198296509,0.0015908121028709518
138,0.11908435871784566,0.02140873245670179,0.0695893333327991,0.010915555555752856,0.004708968864962936,0.0008994203541047423
139,0.11908435871784566,0.02140873245670179,0.0695893333327991,0.010915555555752856,0.008262313716627931,0.001578114729962746
140,0.1043413653756585,0.01662150121862506,0.08762600000288026,0.012289999998756684,0.004660115528523401,0.0008065921773133035
141,0.1043413653756585,0.01662150121862506,0.08762600000288026,0.012289999998756684,0.08955415371670314,0.015500405385163002
142,0.08451841304989346,0.015387768049720224,0.05226633332980176,0.008164999999280553,0.003376141828456919,0.0006537300210075552
143,0.08451841304989346,0.015387768049720224,0.05226633332980176,0.008164999999280553,0.007905365387031151,0.001530733880009514
144,0.10963671868068468,0.020093737443318178,0.06024200000683778,0.009575000001253406,0.004798020166452621,0.0009235863945419246
145,0.10963671868068468,0.020093737443318178,0.06024200000683778,0.009575000001253406,0.008228542504588024,0.0015839387164906945
146,0.11609832477187812,0.0212138332024846,0.0777179999956085,0.012220000001737692,0.004470961448646557,0.0008742781758998313
147,0.11609832477187812,0.0212138332024846,0.0777179999956085,0.012220000001737692,0.010422389007137768,0.0020380554281981683
148,0.11269921547699369,0.02000452060347517,0.06785066666391988,0.009499999997691095,0.004508708380738249,0.0008731089927446718
149,0.11269921547699369,0.02000452060347517,0.06785066666391988,0.009499999997691095,0.008354527328343046,0.00161784979744311
150,0.037099270832792776,0.005936875000164339,0.07419854166558555,0.01187375000032868,0.0,0.0
151,0.0,0.0,0.07419854166558555,0.01187375000032868,0.0,0.0
152,0.0,0.0,0.039430999996208506,0.007140000000011543,0.0,0.0
153,0.0,0.0,0.039430999996208506,0.007140000000011543,0.0,0.0
154,0.0,0.0,0.04482537500371109,0.008347499999217689,0.0,0.0
155,0.0,0.0,0.04482537500371109,0.008347499999217689,0.0,0.0
156,0.0,0.0,0.05589791667322667,0.010762499999752132,0.0,0.0
157,0.0,0.0,0.05589791667322667,0.010762499999752132,0.0,0.0
158,0.0,0.0,0.042831541665994635,0.008347500001339842,0.0,0.0
159,0.0,0.0,0.042831541665994635,0.008347500001339842,0.0,0.0
160,0.03964233332953882,0.007492499999595262,0.07928466665907763,0.014984999999190524,0.0,0.0
161,0.12275158417804,0.01928865541289895,0.07928466665907763,0.014984999999190524,0.0,0.0
162,0.07839264872431086,0.012825859046458377,0.037679000010636315,0.006800000000415214,0.0,0.0
163,0.07839264872431086,0.012825859046458377,0.037679000010636315,0.006800000000415214,0.0,0.0
164,0.11503001194439767,0.022538885342748612,0.056477999993755176,0.01089499999943655,0.0,0.0
165,0.11503001194439767,0.022538885342748612,0.056477999993755176,0.01089499999943655,0.0,0.0
166,0.09882043399124163,0.018756414877833034,0.056498000000525885,0.010910000002089266,0.0,0.0
167,0.09882043399124163,0.018756414877833034,0.056498000000525885,0.010910000002089266,0.0,0.0
168,0.11952603753741228,0.02311798834172884,0.06268333333233991,0.012259999998301888,0.0,0.0
169,0.11952603753741228,0.02311798834172884,0.06268333333233991,0.012259999998301888,0.0,0.0
170,0.5563697259162053,0.07599542201957743,0.4073514176661229,0.052342966194303314,0.0041305192489087825,0.0006556034974327082
171,0.13985164683638254,0.020222466979723262,0.4073514176661229,0.052342966194303314,0.14897132449939798,0.023644998479256583
172,0.000913418714883836,0.0001321076033580738,0.002189821883729178,0.00026240458011934676,0.0010380396637803939,0.00016621785920115136
173,0.000913418714883836,0.0001321076033580738,0.002189821883729178,0.00026240458011934676,0.0009691024979891248,0.00015517917877588797
174,0.0003120204082177001,2.969387750621239e-05,0.0019451653947413878,0.0001851145035374564,0.0,0.0
175,0.0003120204082177001,2.969387750621239e-05,0.0019451653947413878,0.0001851145035374564,0.0,0.0
176,0.0002866448201155759,4.497945721971095e-05,0.0,0.0,0.00048923868171385,7.676988666846709e-05
177,0.0002866448201155759,4.497945721971095e-05,0.0,0.0,0.0005293696366927645,8.306711740835078e-05
178,0.0003219897958583065,2.969387758045685e-05,0.0020073155212540733,0.00018511450400030357,0.0,0.0
179,0.0003219897958583065,2.969387758045685e-05,0.0020073155212540733,0.00018511450400030357,0.0,0.0
180,0.026842364971360718,0.003205043859288141,0.028767999998914693,0.0029350000016468885,0.0213368013200425,0.002975802055609325
181,0.026842364971360718,0.003205043859288141,0.028767999998914693,0.0029350000016468885,0.0247304687270089,0.0034491102283867843
182,0.008841900185893346,0.0012531258194938553,0.008809333327614391,0.0009899999980310288,0.007604756483380074,0.0012993145886516105
183,0.008841900185893346,0.0012531258194938553,0.008809333327614391,0.0009899999980310288,0.007751776490055209,0.0013244337676699175
184,0.004077766914880984,0.0003267265436105473,0.0,0.0,0.006480879787913793,0.0005192732926772329
185,0.004077766914880984,0.0003267265436105473,0.0,0.0,0.007641586400883634,0.0006122736204835147
186,0.00457766666659154,0.000487500000114475,0.00915533333318308,0.00097500000022895,0.0,0.0
187,0.00457766666659154,0.000487500000114475,0.00915533333318308,0.00097500000022895,0.0,0.0
188,0.0,0.0,0.0,0.0,0.0,0.0
189,0.0,0.0,0.0,0.0,0.0,0.0
190,0.0,0.0,0.0,0.0,0.0,0.0
191,0.0,0.0,0.0,0.0,0.0,0.0
192,0.0,0.0,0.0,0.0,0.0,0.0
193,0.0,0.0,0.0,0.0,0.0,0.0
194,0.0,0.0,0.0,0.0,0.0,0.0
195,0.0,0.0,0.0,0.0,0.0,0.0
196,0.0,0.0,0.0,0.0,0.0,0.0
197,0.0,0.0,0.0,0.0,0.0,0.0
198,0.0,0.0,0.0,0.0,0.0,0.0
199,0.0,0.0,0.0,0.0,0.0,0.0
200,0.01446256594824256,0.0017945826253501392,0.0,0.0,0.027969671823112777,0.0039652347637929575
201,0.02145112844807038,0.002529582625427119,0.013977124999655643,0.0014700000001539593,0.014852321264942391,0.0021055999861287144
202,0.0021514999995512576,0.00024249999963406782,0.0021514999995512576,0.00024249999963406782,0.0,0.0
203,0.0021514999995512576,0.00024249999963406782,0.0021514999995512576,0.00024249999963406782,0.0,0.0
204,0.0030661490211061557,0.00038096927280937664,0.0,0.0,0.004826587676717674,0.0005997039232902206
205,0.0030661490211061557,0.00038096927280937664,0.0,0.0,0.005459614284125683,0.0006783575323069841
206,0.002248083333446023,0.0002437500000572375,0.002248083333446023,0.0002437500000572375,0.0,0.0
207,0.002248083333446023,0.0002437500000572375,0.002248083333446023,0.0002437500000572375,0.0,0.0
208,0.0,0.0,0.0,0.0,0.0,0.0
209,0.0,0.0,0.0,0.0,0.0,0.0
210,0.05315963032893299,0.006314928611464109,0.04801433333583797,0.0052800000000085365,0.04652443306102665,0.005864820626345925
211,0.05315963032893299,0.006314928611464109,0.04801433333583797,0.0052800000000085365,0.0579516396087553,0.007305322148948581
212,0.010519051352254803,0.0011975449354842882,0.010315000001961986,0.0009700000009615907,0.009866506869286494,0.001311249120875617
213,0.010519051352254803,0.0011975449354842882,0.010315000001961986,0.0009700000009615907,0.010110390431146116,0.0013436610079113347
214,0.006419306648460315,0.0007199816129206501,0.0,0.0,0.0116177210312241,0.0013030294367584296
215,0.006419306648460315,0.0007199816129206501,0.0,0.0,0.011920665683126129,0.0013370073398321866
216,0.004842166667610096,0.00048749999890181545,0.009684333335220192,0.0009749999978036307,0.0,0.0
217,0.004842166667610096,0.00048749999890181545,0.009684333335220192,0.0009749999978036307,0.0,0.0
218,0.004308344578293456,0.0005323454236384466,0.0,0.0,0.007741830941595808,0.0009565920732304844
219,0.004308344578293456,0.0005323454236384466,0.0,0.0,0.00804479074781013,0.0009940262346476447
220,0.15411270870281174,0.01836997688636069,0.0,0.0,0.09817587849857978,0.010441198626957906
221,0.15411270870281174,0.01836997688636069,0.0,0.0,0.10135070407167732,0.010778847598595438
222,0.018119554124665357,0.0024636820396204844,0.0,0.0,0.012100468013381813,0.0016350382693843864
223,0.018119554124665357,0.0024636820396204844,0.0,0.0,0.01226742375855144,0.0016575976474467926
224,0.002593814497558395,0.0003453904423067977,0.0,0.0,0.010094886965198358,0.0013442277684965758
225,0.002593814497558395,0.0003453904423067977,0.0,0.0,0.015357484051456774,0.0020449913493217455
226,0.014190999994752929,0.0020400000030349474,0.0,0.0,0.0,0.0
227,0.014190999994752929,0.0020400000030349474,0.0,0.0,0.0,0.0
228,0.003342646868257661,0.0004145540524169963,0.0,0.0,0.013066381838777372,0.001620488719024168
229,0.003342646868257661,0.0004145540524169963,0.0,0.0,0.013146324429641455,0.0016304031749357767
230,0.01073086693355707,0.0015152921336569957,0.012662733334582298,0.001907999999821186,0.017113432412371468,0.0021833468378483845
231,0.01073086693355707,0.0015152921336569957,0.16461553334956985,0.024803999997675415,0.1671415670290234,0.02132406889818503
232,0.0007440830113731634,0.00010188595161844253,0.013050181805297278,0.0019781818175970615,0.01677688117397875,0.001999055962042169
233,0.0007440830113731634,0.00010188595161844253,0.013050181805297278,0.0019781818175970615,0.016791589152756428,0.0020008084971147016
234,0.0002902246714178292,4.067330621525244e-05,0.0,0.0,0.014475053456311534,0.002028594877322133
235,0.0002902246714178292,4.067330621525244e-05,0.0,0.0,0.014485497226199667,0.0020300585111635515
236,0.00216674999925696,0.00034250000013950427,0.0043334999985139185,0.0006850000002790085,0.0,0.0
237,0.00216674999925696,0.00034250000013950427,0.017333999994055674,0.002740000001116034,0.0,0.0
238,0.00031159335619544844,4.068162857285211e-05,0.0,0.0,0.015529248985452345,0.0020274987469413204
239,0.00031159335619544844,4.068162857285211e-05,0.0,0.0,0.015097564302156771,0.001971137994706911
240,0.0020248386268271043,0.00023966216531858355,0.03365806572279196,0.0030334098672990637,0.03967231430887106,0.005748089330034109
241,0.001992213368349415,0.00023493511817217395,0.035303148568123444,0.0031816718196243207,0.03967231430887106,0.005748089330034109
242,0.00019320657343636298,1.7063695278201226e-05,0.002311249825014552,0.00017350811286164164,0.005459071596443982,0.0005154996066384258
243,0.00019320657343636298,1.7063695278201226e-05,0.002312260807100276,0.00017358400841907228,0.005459071596443982,0.0005154996066384258
244,0.0004669139443220101,4.650221964955562e-05,0.008611090915647398,0.0007008489154329898,0.010488531132443865,0.001222190547595901
245,0.0004669139443220101,4.650221964955562e-05,0.008608677128749492,0.0007006524594965638,0.010488531132443865,0.001222190547595901
246,0.0010059770776990264,0.0001127900443515345,0.019070618697205603,0.0016112034573458462,0.021961683422010544,0.0030606751687302816
247,0.0010059770776990264,0.0001127900443515345,0.019145540516599686,0.0016175333146176544,0.021961683422010544,0.0030606751687302816
248,0.0016372110826124455,0.0002002442744926032,0.029306225550755953,0.0024620628857105194,0.03759248912301605,0.005876534133748253
249,0.0016372110826124455,0.0002002442744926032,0.030707529613159742,0.0025797886814689828,0.03759248912301605,0.005876534133748253
250,0.03790413197340223,0.004402309900967788,0.7407633147873859,0.05763786242720479,0.8090268261237894,0.12107084185729247
251,0.03734291097910675,0.004358642000823804,0.7424171303036325,0.05776654373377403,0.8090268261237894,0.12107084185729247
252,0.0026109066418485106,0.00025795797362778095,0.044957179047583916,0.0034865592969316604,0.06280417938846403,0.0070896302114241225
253,0.0026109066418485106,0.00025795797362778095,0.0450290447332132,0.0034921326887607154,0.06280417938846403,0.0070896302114241225
254,0.001047451005298242,0.00012407882387720565,0.029329869979022167,0.0027975158066820245,0.01474021084992806,0.002372808812079324
255,0.001047451005298242,0.00012407882387720565,0.029352646559726994,0.0027996882624272937,0.01474021084992806,0.002372808812079324
256,0.0014629725680501441,0.0001463649720478469,0.02889261045870369,0.0011784804382479674,0.031753787566064305,0.004762895358488242
257,0.0014629725680501441,0.0001463649720478469,0.028916804926344186,0.0011794672894315564,0.031753787566064305,0.004762895358488242
258,0.001463957636992646,0.0001835372309486498,0.029874200949233654,0.002798622258241133,0.03090986625469465,0.004751376868003981
259,0.001463957636992646,0.0001835372309486498,0.029873896949539232,0.002798593779477375,0.03090986625469465,0.004751376868003981
260,0.04812261768789126,0.005482986762648206,0.9108992282650782,0.06964787664425283,1.0533747702732126,0.15268179239915694
261,0.048725624427415376,0.0055290930032803574,0.9149824480957053,0.06996008197086896,1.0533747702732126,0.15268179239915694
262,0.002510005518390712,0.0003043404000993881,0.04683946019806769,0.003885240358831986,0.05429855926200659,0.0083495745865658
263,0.002510005518390712,0.0003043404000993881,0.04701414784294855,0.0038997303526365785,0.05429855926200659,0.0083495745865658
264,0.0017085568110447825,0.0002025178109177291,0.031657272591181534,0.002588969650619338,0.03721556817017206,0.005555133298426937
265,0.0017085568110447825,0.0002025178109177291,0.03169699793007931,0.0025922184363910967,0.03721556817017206,0.005555133298426937
266,0.0012934852719527444,0.00018377525122242858,0.015466929514121359,0.0018019468319236895,0.0365563320027651,0.00558213272561873
267,0.0012934852719527444,0.00018377525122242858,0.015461227042829278,0.0018012824757520575,0.0365563320027651,0.00558213272561873
268,0.0017362360010316964,0.00022733990608132755,0.03286743666931531,0.0035987682600172512,0.03713276990779405,0.005555133298426937
269,0.0017362360010316964,0.00022733990608132755,0.03294860715078024,0.0036076558941605928,0.03713276990779405,0.005555133298426937
270,0.02519940276487761,0.0029437972301939175,0.47997028383935203,0.039938288486681434,0.5259193902503042,0.07933390243798807
271,0.02519940276487761,0.0029437972301939175,0.4055636911396907,0.033746921927945255,0.47583182927408474,0.07177829268198921
272,0.0036311622528277573,0.00039225379154225244,0.0539904161293223,0.004108590093296061,0.06402549998892935,0.009277499999370773
273,0.0036311622528277573,0.00039225379154225244,0.05033202250798257,0.0038301917984207108,0.060655736831617284,0.00878921052571968
274,0.0012715031184003542,0.00015974745317692807,0.018135424520583247,0.0019648034195382186,0.020577405412631058,0.00302108107909491
275,0.0012715031184003542,0.00015974745317692807,0.01812375845547483,0.001963539510629356,0.020577405412631058,0.00302108107909491
276,0.000665480370659303,7.702879009776958e-05,0.017201501592164426,0.001991059261742869,0.0,0.0
277,0.000665480370659303,7.702879009776958e-05,0.017234537631352086,0.001994883155339801,0.0,0.0
278,0.0012483333119895062,0.00013806474034115825,0.017413992176370578,0.0014000861265057488,0.020695621608693558,0.003021081082634565
279,0.0012483333119895062,0.00013806474034115825,0.017433097970491383,0.0014016222336208487,0.020695621608693558,0.003021081082634565
280,0.010332135808913194,0.0012603357342707813,0.14147115950877473,0.014034008186603582,0.16536337143791438,0.024407142857255943
281,0.010332135808913194,0.0012603357342707813,0.14214682601720613,0.014101034634564179,0.16536337143791438,0.024407142857255943
282,0.001310102354084696,0.00019583056529800868,0.01674062346049045,0.0019886425374579376,0.022471571434289225,0.004036285716574638
283,0.001310102354084696,0.00019583056529800868,0.01681202897851597,0.001997124900787469,0.022471571434289225,0.004036285716574638
284,0.000585942857183649,0.00010242857138759323,0.0,0.0,0.019922057144244075,0.0034825714271781694
285,0.000585942857183649,0.00010242857138759323,0.0,0.0,0.019922057144244075,0.0034825714271781694
286,0.0007167325074005664,7.58073527033995e-05,0.018570527388852724,0.0019641672522439663,0.0,0.0
287,0.0007167325074005664,7.58073527033995e-05,0.01857100758046709,0.0019642180411431715,0.0,0.0
288,0.000605114285385103,8.635714283237966e-05,0.0,0.0,0.020573885703093504,0.0029361428563009074
289,0.000605114285385103,8.635714283237966e-05,0.0,0.0,0.020573885703093504,0.0029361428563009074
290,0.013280294684654928,0.0016281919755211651,0.18946959848383813,0.01994060547837269,0.1904298989995938,0.027418181819328577
291,0.012058734627835323,0.0014996296765766404,0.19052468083006865,0.02005164693822554,0.1904298989995938,0.027418181819328577
292,0.0011031782125888582,0.00016808310313419912,0.01770383530201811,0.0027995957325593103,0.01704040403252072,0.0024909090904537768
293,0.0011031782125888582,0.00016808310313419912,0.01773056732234204,0.0028038230001962297,0.01704040403252072,0.0024909090904537768
294,0.0011360706529715105,7.803030303425704e-05,0.018424511286654857,0.0,0.017361212121981266,0.0024969696970962253
295,0.0011360706529715105,7.803030303425704e-05,0.01744401002748577,0.0,0.017361212121981266,0.0024969696970962253
296,0.006682230539965528,0.0007805084526055987,0.09955189442846976,0.009031925906286577,0.10387070706311728,0.014999999999564915
297,0.006682230539965528,0.0007805084526055987,0.10002505531724347,0.009074853809504206,0.10387070706311728,0.014999999999564915
298,0.009025964545895673,0.001028536458381862,0.13263729495308282,0.011854718379700915,0.14231676768483312,0.019818181818765067
299,0.009025964545895673,0.001028536458381862,0.13329114772327405,0.011913157753446786,0.14231676768483312,0.019818181818765067
300,0.021475832615583293,0.00248898762128355,0.2640792308379348,0.024107735480234562,0.3068059210572596,0.04491907894733137
301,0.021824475707693813,0.0025400320291782447,0.2852644739833522,0.026041731713916456,0.2876305509911809,0.042111636513123156
302,0.001437021658040057,0.0001846640158361684,0.017673759644436387,0.0020527820924447935,0.020175848881536555,0.002857385398136671
303,0.001437021658040057,0.0001846640158361684,0.016490164769068512,0.001915309227941431,0.020175848881536555,0.002857385398136671
304,0.010209314726084277,0.001210590061379781,0.12042848963465874,0.01148979200144758,0.1380957555241649,0.020022707979128057
305,0.010209314726084277,0.001210590061379781,0.11002704221660664,0.010497414967491837,0.1380957555241649,0.020022707979128057
306,0.013440839860995351,0.0014772387882452135,0.12649007162288298,0.011106204835455933,0.16231816639640081,0.022852079797328013
307,0.013440839860995351,0.0014772387882452135,0.12725295834148834,0.01117318856037895,0.16231816639640081,0.022852079797328013
308,0.013611411039634877,0.0013273490824310986,0.12687177004753916,0.007777407030249251,0.15534947972686394,0.02284147005275345
309,0.013611411039634877,0.0013273490824310986,0.12754630441072498,0.007818756877393501,0.15534947972686394,0.02284147005275345
310,0.045977830696973546,0.0050447093069799585,0.40656539450246404,0.028587668093132068,0.4729380989787429,0.06949018067678928
311,0.04873663627434955,0.00545006869426123,0.4018617540125588,0.0282569313531806,0.3783504791829943,0.05559214454143142
312,0.0029507257387077685,0.0003356335432464179,0.03338023180614848,0.002767650604553025,0.015536154525500055,0.0025917471470711943
313,0.0029507257387077685,0.0003356335432464179,0.03344290497287483,0.0027728470162731943,0.015536154525500055,0.0025917471470711943
314,0.002189080231361033,0.00028353128198395903,0.015525452256007653,0.0014068401685761204,0.016579761190701328,0.0025701492541789347
315,0.002189080231361033,0.00028353128198395903,0.01551725392559068,0.0014060972761723647,0.016579761190701328,0.0025701492541789347
316,0.11104609274769317,0.015655835588389986,0.05771748410792017,0.005006347125325566,0.0,0.0
317,0.11104609274769317,0.015655835588389986,0.058935330383068245,0.0051119816881085856,0.0,0.0
318,0.01895919888110737,0.00228219303995908,0.32179013840129295,0.02762523208771167,0.3755646631640643,0.053344332390892105
319,0.01895919888110737,0.00228219303995908,0.3355873827526495,0.02880970616535345,0.3755646631640643,0.053344332390892105
320,0.01882363215126233,0.002001553794918466,0.3643173917034623,0.024283116336125208,0.4046349308597167,0.056845964294333626
321,0.018872115773930272,0.0020083651156247283,0.36570131503323344,0.024375360000529967,0.4046349308597167,0.056845964294333626
322,0.0012977372164804605,0.00013039977885523636,0.02414326678519429,0.001181677165740417,0.02870576816470719,0.004067538345971084
323,0.0012977372164804605,0.00013039977885523636,0.02415147729955393,0.0011820790242554262,0.02870576816470719,0.004067538345971084
324,0.0006548678224524524,8.342953361774837e-05,0.012641663374395333,0.0013630185929397413,0.014059311043010244,0.0020263012322135412
325,0.0006548678224524524,8.342953361774837e-05,0.012625823468073435,0.0013613107411968369,0.014059311043010244,0.0020263012322135412
326,0.0006319523776516787,7.471443525510453e-05,0.01215749765025494,0.0009809276871254598,0.013592979631700256,0.0020412371137575433
327,0.0006319523776516787,7.471443525510453e-05,0.012173197899938806,0.000982194461757274,0.013592979631700256,0.0020412371137575433
328,0.0006758260900290129,7.446419779434576e-05,0.012995400271005443,0.000981137537958132,0.01454522503916477,0.002031279858589891
329,0.0006758260900290129,7.446419779434576e-05,0.013006623013334068,0.0009819848418924338,0.01454522503916477,0.002031279858589891
330,0.036492126759895674,0.003862887528411173,0.6867562051254792,0.039977787233703356,0.8037887804959782,0.11633414634228009
331,0.036492126759895674,0.003862887528411173,0.688651980378577,0.04008814502755455,0.8037887804959782,0.11633414634228009
332,0.0014789013623026873,0.00016936714855710243,0.01760384562788366,0.0008491542261193339,0.042337560969427604,0.005963414635228153
333,0.0014789013623026873,0.00016936714855710243,0.01762722971313916,0.0008502822009515596,0.042337560969427604,0.005963414635228153
334,0.01595000499666309,0.0015858604542655812,0.3005123536996639,0.016519567568265742,0.351770731702833,0.04769999999730429
335,0.01595000499666309,0.0015858604542655812,0.2996781728743187,0.016473711528276737,0.351770731702833,0.04769999999730429
336,0.000975488651545713,9.455882566795473e-05,0.018005499539857535,0.000849845902410663,0.0218239024412114,0.0029707317085789025
337,0.000975488651545713,9.455882566795473e-05,0.01799971828096495,0.0008495730313820219,0.0218239024412114,0.0029707317085789025
338,0.000947764295322341,9.50993190787983e-05,0.01799429514634331,0.0008493170635469606,0.02072195122132033,0.0029926829266492512
339,0.000947764295322341,9.50993190787983e-05,0.018011273825931342,0.0008501184443275544,0.02072195122132033,0.0029926829266492512
340,0.0300480838156437,0.0033602087964924696,0.600645487505037,0.04827279456686044,0.6286964372157959,0.0902297354666104
341,0.0313357365288353,0.0035450111220769256,0.6031343121002422,0.04847281691098282,0.6286964372157959,0.0902297354666104
342,0.0012199597763859632,0.00014989022022732617,0.015334123070866993,0.0012069263989286346,0.03231836511884806,0.0046270203482996555
343,0.0012199597763859632,0.00014989022022732617,0.015336086658189018,0.001207080950014771,0.03231836511884806,0.0046270203482996555
344,0.0007748138839147865,9.030427265155947e-05,0.01505107872223445,0.0012063184002712403,0.015362464528067882,0.002322026161274089
345,0.0007748138839147865,9.030427265155947e-05,0.015067784768689831,0.001207657361524904,0.015362464528067882,0.002322026161274089
346,0.0007993696487639914,9.016104727516816e-05,0.014247692804680684,0.0012184528071070503,0.01709480581253153,0.0023049941884024975
347,0.0007993696487639914,9.016104727516816e-05,0.01426787274801245,0.0012201785818648956,0.01709480581253153,0.0023049941884024975
348,0.0008120897607285891,8.968367907638531e-05,0.015938216450719217,0.0011947811584901839,0.015962747096653955,0.0023106715090212065
349,0.0008120897607285891,8.968367907638531e-05,0.015935780779365066,0.0011945985725495792,0.015962747096653955,0.0023106715090212065
350,0.04136452554641275,0.004620129509363252,0.6184230030562636,0.04983355565604308,0.7031248484907503,0.0978400000021793
351,0.04136452554641275,0.004620129509363252,0.620503248876423,0.05000118532917111,0.7031248484907503,0.0978400000021793
352,0.002324698127130697,0.00027620010194875233,0.03460891461045487,0.0028642461988951156,0.03965430301755214,0.005963636364674928
353,0.002324698127130697,0.00027620010194875233,0.03463108308560239,0.0028660808698575337,0.03965430301755214,0.005963636364674928
354,0.0011799063250311395,0.0001378727258208904,0.01721993807881838,0.0014397617288039945,0.020478545462317536,0.00296727272639559
355,0.0011799063250311395,0.0001378727258208904,0.0172221583535474,0.0014399473663229939,0.020478545462317536,0.00296727272639559
356,0.0012933391871067454,0.00013789749900893243,0.019904457650818323,0.0014391566873862556,0.021395393943583422,0.00296727272639559
357,0.0012933391871067454,0.00013789749900893243,0.019923076098120406,0.0014405028613646475,0.021395393943583422,0.00296727272639559
358,0.0011494520259916338,0.00013810988810482056,0.016679001772910772,0.0014390145000416855,0.020034424240954897,0.002974545456130395
359,0.0011494520259916338,0.00013810988810482056,0.016698245702388318,0.0014406748088499107,0.020034424240954897,0.002974545456130395
360,0.0219255302429942,0.0026633873818557533,0.265379501484395,0.02389248606651593,0.3474428894730724,0.05058400530432318
361,0.022727316613821984,0.0027355733253298076,0.24740128727234587,0.022273882405873056,0.3474428894730724,0.05058400530432318
362,0.001906459466415226,0.0002040466057686291,0.028557287159508487,0.002482601506043866,0.019903382843596634,0.002802970821452599
363,0.001906459466415226,0.0002040466057686291,0.028571020581214506,0.0024837954084345262,0.019903382843596634,0.002802970821452599
364,0.001294838111896482,0.00015189781144341492,0.01520674754865311,0.0012267585739287427,0.01844968523859614,0.002816710875822094
365,0.001294838111896482,0.00015189781144341492,0.015183236429390009,0.0012248618851695987,0.01844968523859614,0.002816710875822094
366,0.0012949869786246168,0.00015242742055807693,0.01465039532407287,0.0012443782156331333,0.019092719712441628,0.0028098408486373467
367,0.0012949869786246168,0.00015242742055807693,0.014659926113088922,0.0012451877437016274,0.019092719712441628,0.0028098408486373467
368,0.0012990188987614215,0.00015189612775539922,0.014605310946000531,0.0012259563541531912,0.01926034836975115,0.002816710875822094
369,0.0012990188987614215,0.00015189612775539922,0.014601866339244433,0.001225667217033426,0.01926034836975115,0.002816710875822094
370,0.011326390807887625,0.0013646071202825542,0.13198834216397748,0.011790207145322132,0.16192414814658052,0.02363833333260522
371,0.011326390807887625,0.0013646071202825542,0.1325335799029167,0.011838911945913945,0.16192414814658052,0.02363833333260522
372,0.0007663333332554126,0.00011416666664579814,0.0,0.0,0.01992466666464073,0.002968333332790752
373,0.0007663333332554126,0.00011416666664579814,0.0,0.0,0.01992466666464073,0.002968333332790752
374,0.0021844829316630793,0.00022940324182436239,0.03444083151835565,0.0028165862525450958,0.019983407418260834,0.0029538888904628233
375,0.0021844829316630793,0.00022940324182436239,0.034260387813705516,0.002801829487523177,0.019983407418260834,0.0029538888904628233
376,0.012791856915123379,0.0015781409717885771,0.12349496809534237,0.011263881386322724,0.17301078259681713,0.025653913042649787
377,0.012791856915123379,0.0015781409717885771,0.12370088328402479,0.011282662752857192,0.1441756521640143,0.021378260868874822
378,0.013388468464039564,0.001681665423828799,0.1217032285234132,0.011309481840129447,0.15787761903733813,0.02342142857135816
379,0.013388468464039564,0.001681665423828799,0.12170159644092039,0.01130933017605662,0.15787761903733813,0.02342142857135816
380,0.022664176011125813,0.0029967967621837193,0.1927576990890118,0.019752159038933216,0.25132642106894454,0.037892368421077995
381,0.022664176011125813,0.0029967967621837193,0.2087851068050729,0.021394510590573575,0.25132642106894454,0.037892368421077995
382,0.005238264495872769,0.0007016449780424522,0.04613178971306134,0.004781959649259825,0.05689752630822016,0.008753684211689306
383,0.005238264495872769,0.0007016449780424522,0.04608762864887226,0.004777381972383769,0.05689752630822016,0.008753684211689306
384,0.013899645768648687,0.0018046184429093524,0.12106012592565776,0.011291317174687104,0.1516405263192658,0.023291052630826776
385,0.013899645768648687,0.0018046184429093524,0.12128552991572042,0.011312340677882535,0.1516405263192658,0.023291052630826776
386,0.014904273344333967,0.0018594356777351284,0.13162862638109596,0.010887747587989492,0.16131599999789614,0.024622499999168213
387,0.014904273344333967,0.0018594356777351284,0.10782982691171866,0.00891921438481256,0.1433919999981299,0.0218866666659273
388,0.03547925919152377,0.0046492651194270295,0.1512835439179573,0.015398459740022937,0.2762794285663403,0.040577142854869755
389,0.03547925919152377,0.0046492651194270295,0.027173509151113603,0.00276586716454426,0.0,0.0
390,0.02753115347921501,0.0032070794214311845,0.440062360803868,0.035250009839147334,0.66220860077449,0.09311525765625718
391,0.030094612790562206,0.0034124184233448604,0.4609768479941468,0.03692530848975523,0.66220860077449,0.09311525765625718
392,0.0010863034343785284,6.546144171562372e-05,0.01636367024055303,0.0007902458648415928,0.024176875107395447,0.001687603155126246
393,0.0010863034343785284,6.546144171562372e-05,0.016364981978160754,0.0007903092121961301,0.024176875107395447,0.001687603155126246
394,0.000534870965835873,5.352592692196171e-05,0.008256805500493316,0.000388429490593264,0.011668531085150525,0.0016834769846481488
395,0.000534870965835873,5.352592692196171e-05,0.008257297690463355,0.00038845264495960164,0.011668531085150525,0.0016834769846481488
396,0.0005447100078618025,5.3520280038138995e-05,0.00865576581853162,0.0003885915815542225,0.011601412069390967,0.001683476985648878
397,0.0005447100078618025,5.3520280038138995e-05,0.00864926445284179,0.00038829970952017736,0.011601412069390967,0.001683476985648878
398,0.0005106041327288311,5.381202127640981e-05,0.007820563701374676,0.00040181008871640516,0.01121547772076771,0.00167935081617151
399,0.0005106041327288311,5.381202127640981e-05,0.007821720352391683,0.0004018695158965297,0.01121547772076771,0.00167935081617151
400,0.04444149784881056,0.004935874731417594,0.8294029914330727,0.054966816490128655,0.9701068718016197,0.13993500000166628
401,0.04444149784881056,0.004935874731417594,0.8321132692794673,0.05514643405427878,0.9701068718016197,0.13993500000166628
402,0.0015795338071276487,0.00020209387297612854,0.018108806538544377,0.00202360340703092,0.04433479486182571,0.0059265384598126206
403,0.0015795338071276487,0.00020209387297612854,0.018113536101407635,0.002024131921127279,0.04433479486182571,0.0059265384598126206
404,0.0008865531237159747,0.0001251953307210447,0.01801024852250959,0.0020152522772503376,0.01807923077154929,0.003010769230921793
405,0.0008865531237159747,0.0001251953307210447,0.01803318366446844,0.0020178185992532714,0.01807923077154929,0.003010769230921793
406,0.0013725511573219992,0.0001433691860837765,0.035565721663154935,0.0028670995060128706,0.021379384621888257,0.0029669230764109394
407,0.0013725511573219992,0.0001433691860837765,0.03556840681431585,0.0028673159671222487,0.021379384621888257,0.0029669230764109394
408,0.0005571410255446935,7.807692311008651e-05,0.0,0.0,0.021171358970698356,0.002966923078183287
409,0.0005571410255446935,7.807692311008651e-05,0.0,0.0,0.021171358970698356,0.002966923078183287
410,0.040122491024195184,0.004934195139500746,0.7690736317871124,0.07460512425102425,0.8704804877960687,0.1261243902422948
411,0.040122491024195184,0.004934195139500746,0.7711104105487409,0.0748027049849132,0.8704804877960687,0.1261243902422948
412,0.0009370328648157113,0.00010875438599312731,0.018483186375126463,0.00142137026755615,0.01982878048892883,0.0029926829266492512
413,0.0009370328648157113,0.00010875438599312731,0.01847518690270681,0.001420755102398873,0.01982878048892883,0.0029926829266492512
414,0.0009881256768224202,0.00012216712253843064,0.017859203053408528,0.0020150222240622145,0.022479024397709026,0.0029634146347057035
415,0.0009881256768224202,0.00012216712253843064,0.017848496849675207,0.0020138142620723396,0.022479024397709026,0.0029634146347057035
416,0.0009778182069092,0.00012182558884657065,0.018418505536104527,0.0019922455630181843,0.021525853662751615,0.002970731706804279
417,0.0009778182069092,0.00012182558884657065,0.018422150697097968,0.001992639843422826,0.021525853662751615,0.002970731706804279
418,0.0009685705534707777,0.00012184313147166077,0.018178685085260573,0.0019920776535087667,0.021377073163620943,0.0029707317085789025
419,0.0009685705534707777,0.00012184313147166077,0.01818502749748743,0.0019927726750467497,0.021377073163620943,0.0029707317085789025
420,0.014045797176966265,0.0018091991471784327,0.26681261537715983,0.02999076922815921,0.30819842918562984,0.04475145062437673
421,0.014045797176966265,0.0018091991471784327,0.26681261537715983,0.02999076922815921,0.3090397456873334,0.044873612615873394
422,0.0019326703188695014,0.00023995018456962093,0.03678253845413191,0.003975384617754174,0.04232794805795371,0.005938003774234516
423,0.0019326703188695014,0.00023995018456962093,0.03678253845413191,0.003975384617754174,0.04235163440080252,0.005941326628275102
424,0.0008774094379961829,0.00012161412126748445,0.017781564106908034,0.0020169230755970767,0.01795964009407071,0.0030060633755347285
425,0.0008774094379961829,0.00012161412126748445,0.017781564106908034,0.0020169230755970767,0.01796441280014122,0.0030068622254474
426,0.0010071885523018995,0.00010445582994204517,0.01825705127721916,0.0014176923090977098,0.02311980066641626,0.0029472833735915
427,0.0010071885523018995,0.00010445582994204517,0.01825705127721916,0.0014176923090977098,0.023128719656382683,0.0029484203553162367
428,0.0009732739656849259,0.00012314313569661704,0.017340810823166193,0.001984864864278132,0.021574088693231,0.0029846543414092184
429,0.0009732739656849259,0.00012314313569661704,0.017340810823166193,0.001984864864278132,0.021571741770719237,0.002984329657824049
430,0.020934640673625448,0.002644014073171762,0.32486981818113814,0.035709090908340194,0.30061139919794483,0.04260306327193298
431,0.01894834423094186,0.0024256840336506604,0.32486981818113814,0.035709090908340194,0.30185120482592454,0.04277877024031357
432,0.0016437605755134895,0.00022081289511078852,0.01876169697127559,0.0019781818175970615,0.032679068314604806,0.0047698308622077445
433,0.0016437605755134895,0.00022081289511078852,0.01876169697127559,0.0019781818175970615,0.032676137143275975,0.004769403028974187
434,0.0015011541275895142,0.00017606236059969528,0.03423903030202246,0.00341818181826084,0.01656929479359013,0.002331851648962956
435,0.0015011541275895142,0.00017606236059969528,0.03423903030202246,0.00341818181826084,0.01661354385842592,0.0023380789661836213
436,0.0006807744989979957,9.105500969583161e-05,0.0,0.0,0.017631871041338933,0.0023582995411664145
437,0.0006807744989979957,9.105500969583161e-05,0.0,0.0,0.017630145192762865,0.0023580687053183346
438,0.001086948950179719,0.00014447106074622589,0.01833967742465076,0.001974193547803518,0.015404153282274539,0.0023689764564417196
439,0.001086948950179719,0.00014447106074622589,0.01833967742465076,0.001974193547803518,0.015414402526039931,0.002370552668826239
440,0.025528568311390047,0.0032110411411723303,0.30072241379469944,0.030833793106059354,0.3584589097002964,0.051140399508259216
441,0.025528568311390047,0.0032110411411723303,0.30072241379469944,0.030833793106059354,0.3844251260767545,0.05484493200354642
442,0.0013589612260447763,0.0001646728219133902,0.015793448265898843,0.0014193103440981033,0.02059856442863666,0.0029536564825901907
443,0.0013589612260447763,0.0001646728219133902,0.015793448265898843,0.0014193103440981033,0.02059661659376252,0.0029533771798687337
444,0.0015102106860017603,0.00017221885345710113,0.017679103451443773,0.0014048275875995447,0.022744981460767144,0.003158738461822951
445,0.0015102106860017603,0.00017221885345710113,0.017679103451443773,0.0014048275875995447,0.01956539025923255,0.002717168657139434
446,0.010778986067311501,0.0013318913195616566,0.11361699999542911,0.010327499996492405,0.149424251987502,0.02141024781108019
447,0.010778986067311501,0.0013318913195616566,0.1055014999957556,0.009589821425314376,0.1363272758695335,0.01953364812574291
448,0.014307304258883265,0.0017931088225349946,0.12887549999868494,0.012389999999868445,0.16251944109416835,0.023218413822637483
449,0.014307304258883265,0.0017931088225349946,0.11813587499879452,0.011357499999879409,0.16335557538795542,0.023337868528571386
450,0.03672857074373968,0.004196213065431036,0.3249514782649424,0.021571956523985133,0.3991841186453026,0.05845893821029565
451,0.03672857074373968,0.004196213065431036,0.3249514782649424,0.021571956523985133,0.43910178335381395,0.064304722613276
452,0.0017532545573383425,0.00023511166453569587,0.015763000001796805,0.0019513043472492747,0.020631348592790918,0.00291366917077887
453,0.0017532545573383425,0.00023511166453569587,0.015763000001796805,0.0019513043472492747,0.02063014228753621,0.0029134988099119886
454,0.0034124107654667814,0.00044796378049892586,0.028402478254460933,0.00282652173906251,0.03911399933539441,0.005890648177075308
455,0.0034124107654667814,0.00044796378049892586,0.028402478254460933,0.00282652173906251,0.03861422261823837,0.005815380782846053
456,0.014397188233407694,0.0017915710469797474,0.12385617391808647,0.011263043477336632,0.1598364713464704,0.023328461513706288
457,0.014397188233407694,0.0017915710469797474,0.12385617391808647,0.011263043477336632,0.15972580434252628,0.02331230943702067
458,0.014638116305153454,0.0018145026657506356,0.1299439999856986,0.011797500003012832,0.15918786243531197,0.023304204129771734
459,0.014638116305153454,0.0018145026657506356,0.11813090907790784,0.010725000002738938,0.1595299958827598,0.023354290534457187
460,0.1675321291717197,0.020580237674924555,0.17233250000572298,0.01979249999567401,0.012348034539160406,0.0016213952359422714
461,0.1675321291717197,0.020580237674924555,0.0,0.0,0.3250422071207688,0.04268062940983723
462,0.004503700978591027,0.0005942482756780685,0.07082930232701432,0.009432558141524232,0.08235269622495922,0.010800722257632964
463,0.004503700978591027,0.0005942482756780685,0.07791223255971574,0.010375813955676655,0.09894936691923195,0.012977409103204727
464,0.007807513997584795,0.0009407379696403925,0.14385604443701194,0.013178000000577103,0.17194920465625754,0.02429681333486647
465,0.007807513997584795,0.0009407379696403925,0.14385604443701194,0.013178000000577103,0.16461667845957156,0.02326071072171365
466,0.00687876123189946,0.0008572347433198943,0.1249673333484679,0.012407999999575424,0.1463791821089178,0.02084942915073968
467,0.00687876123189946,0.0008572347433198943,0.1249673333484679,0.012407999999575424,0.14662962875351498,0.02088510136517168
468,0.007788731810687321,0.0009802992725123074,0.14230431111193156,0.014336666668209033,0.16477877520390738,0.02367791844690061
469,0.007788731810687321,0.0009802992725123074,0.14230431111193156,0.014336666668209033,0.16516313896974033,0.02373314967367769
470,0.020889232686485286,0.0026382668030343827,0.3764062127972684,0.039198667419576304,0.455517312820993,0.0651152380783751
471,0.020714173709568205,0.002613242491907503,0.3764062127972684,0.039198667419576304,0.4770614180883486,0.06819492243764055
472,0.0014245870079592172,0.00014486905835606805,0.027236572136214523,0.0014850833495072895,0.03140617311344669,0.004431516917623643
473,0.0014245870079592172,0.00014486905835606805,0.027236572136214523,0.0014850833495072895,0.03144516563140702,0.004437018893377828
474,0.0007001105702731723,8.978914652190353e-05,0.013180294094944228,0.001463560405552547,0.015638752973003715,0.0022242945032841075
475,0.0007001105702731723,8.978914652190353e-05,0.013180294094944228,0.001463560405552547,0.01565331413827215,0.002226365532855576
476,0.0003065226383310886,3.535912736922118e-05,0.012873950809905721,0.0014850833495072895,0.0,0.0
477,0.0003065226383310886,3.535912736922118e-05,0.012873950809905721,0.0014850833495072895,0.0,0.0
478,0.004680904289948087,0.0005452055337809024,0.07866601296183032,0.008469279688551499,0.1088583784265407,0.013319170171073313
479,0.004680904289948087,0.0005452055337809024,0.07866601296183032,0.008469279688551499,0.10843296085290088,0.013267118972635727
480,0.03283382527847322,0.0042035023312852835,0.6324335581394248,0.06677999999729492,0.7087820557237798,0.10420880422607012
481,0.03283382527847322,0.0042035023312852835,0.6324335581394248,0.06677999999729492,0.7109271774066114,0.10452419111218283
482,0.01636308794241467,0.0020479532861255537,0.2995689069888781,0.029580697675132696,0.3691917224176337,0.05374195173771461
483,0.01636308794241467,0.0020479532861255537,0.2995689069888781,0.029580697675132696,0.36808428777322927,0.053580746337922536
484,0.0009387435361891605,0.00010877933379620232,0.017408023239790217,0.0014358139527504065,0.020915056772685,0.002975818536377892
485,0.0009387435361891605,0.00010877933379620232,0.017408023239790217,0.0014358139527504065,0.020944409616522722,0.0029799948930446245
486,0.0003967209303545831,4.813953485207221e-05,0.01666227907489249,0.002021860463787033,0.0,0.0
487,0.0003967209303545831,4.813953485207221e-05,0.01666227907489249,0.002021860463787033,0.0,0.0
488,0.0009719473359273442,0.00012244887053081051,0.019196441860024827,0.0019925581424992517,0.02052958673420999,0.0029906685324261103
489,0.0009719473359273442,0.00012244887053081051,0.019196441860024827,0.0019925581424992517,0.020554634883753937,0.0029943174472146263
490,0.013726094933979954,0.0017981972687817502,0.24078519147935237,0.026929105020800086,0.3128620784192648,0.044962634454519465
491,0.013047708285880765,0.0017007036670278334,0.24078519147935237,0.026929105020800086,0.31357451313564016,0.04506502123749726
492,0.0014035915242305505,0.00018446236969352274,0.0168157150674593,0.0018037990901617065,0.042188950889612276,0.005925811258695833
493,0.0014035915242305505,0.00018446236969352274,0.0168157150674593,0.0018037990901617065,0.04219427655510951,0.005926559295513486
494,0.0008885497530996052,0.00011359289999369244,0.017499992084055796,0.0018307214573812798,0.020274261825053805,0.0029734869667119032
495,0.0008885497530996052,0.00011359289999369244,0.017499992084055796,0.0018307214573812798,0.020282184309299817,0.0029746489031539187
496,0.0009068956758040142,0.0001261754024278178,0.01643207123582117,0.001830721463910815,0.02202535552537536,0.0034917593285232027
497,0.0009068956758040142,0.0001261754024278178,0.01643207123582117,0.001830721463910815,0.022039224041964883,0.0034939579546529125
498,0.012669714155117664,0.001577714988619317,0.24492091690395693,0.024021488584071625,0.279037390316185,0.04053070851802909
499,0.012669714155117664,0.001577714988619317,0.24492091690395693,0.024021488584071625,0.29349671217261364,0.04263095235584312
500,0.014159330685379716,0.0016425792287919079,0.26543902323735596,0.021984069765515635,0.31286667675690416,0.04466495962151808
501,0.014159330685379716,0.0016425792287919079,0.26543902323735596,0.021984069765515635,0.31354461536829514,0.044761742382205545
502,0.007449023763873418,0.0009766477464284284,0.14346516279836705,0.015413023257319443,0.1607877176766777,0.024305250366308612
503,0.007449023763873418,0.0009766477464284284,0.14346516279836705,0.015413023257319443,0.16128490921241634,0.024380407629131615
504,0.00051949255197348,0.0001220988137018347,0.0,0.001992558138945876,0.02072040760733406,0.0029777568440596943
505,0.00051949255197348,0.0001220988137018347,0.0,0.001992558138945876,0.02072160730004013,0.002977929253465627
506,0.0009431959022201399,7.647128629363655e-05,0.01824950000445824,0.0,0.020293027738480806,0.0030506836111063437
507,0.0009431959022201399,7.647128629363655e-05,0.017380476194722133,0.0,0.01939960423883811,0.00291637381449729
508,0.00848375804036713,0.0010111910979134014,0.1634215000085532,0.014970000000175782,0.17569854129543888,0.025444295203493214
509,0.00848375804036713,0.0010111910979134014,0.15525042500812555,0.014221500000166993,0.1532740176294643,0.022196822596447785
510,0.043978572220763026,0.005396331814927141,0.4958925721183882,0.04460209494149035,0.5285631111107282,0.07635587301724601
511,0.04307818047415195,0.005315347826811881,0.49135120991116144,0.04419363093190631,0.5285631111107282,0.07635587301724601
512,0.0022990461368189103,0.0003046252615604026,0.017377137315303468,0.0017391737766476478,0.03416421163455144,0.0049098412686910875
513,0.0022990461368189103,0.0003046252615604026,0.01739647657172555,0.0017411093271942576,0.03416421163455144,0.0049098412686910875
514,0.002120170766417366,0.00025043212302358067,0.034745894360184354,0.003477241208200982,0.01688567196294941,0.002454920635076989
515,0.002120170766417366,0.00025043212302358067,0.03487508496167096,0.003490170128048164,0.01688567196294941,0.002454920635076989
516,0.0014000325688931078,0.0001876363020731038,0.016884216351224036,0.0017471746642176533,0.015633883597772742,0.0024730158734465484
517,0.0014000325688931078,0.0001876363020731038,0.016907483243998607,0.0017495823167094937,0.015633883597772742,0.0024730158734465484
518,0.003017494844387401,0.0003796999384717224,0.03329404599294726,0.003510387441690037,0.03460613757842491,0.004879682540025674
519,0.003017494844387401,0.0003796999384717224,0.032880636969936164,0.0034667992925366746,0.03460613757842491,0.004879682540025674
520,0.09030222226504714,0.011649836672123163,0.6593095302267806,0.06567641302633029,0.8092034999826866,0.11777062499959357
521,0.09030222226504714,0.011649836672123163,0.1299345252584847,0.012943288631549279,0.0,0.0
522,0.01922649999323767,0.003097499999057618,0.0,0.0,0.0,0.0
523,0.01922649999323767,0.003097499999057618,0.0,0.0,0.0,0.0
524,0.004768425825404039,0.000558786053800441,0.008399407064904357,0.0009023595629254274,0.0,0.0
525,0.004768425825404039,0.000558786053800441,0.05864274128478023,0.006300068324535449,0.02528899999742862,0.0037400000022292552
526,0.006973871535765928,0.0008967471520135224,0.12827762959808958,0.014808855489512334,0.128572942862021,0.017959285713836183
527,0.006973871535765928,0.0008967471520135224,0.12858274162557196,0.014844078777760294,0.128572942862021,0.017959285713836183
528,0.008962895754423893,0.001126298171631655,0.1616098131274374,0.014320196665175967,0.1846892432391493,0.028320810809492353
529,0.008962895754423893,0.001126298171631655,0.16183990885603677,0.01434058537809875,0.1846892432391493,0.028320810809492353
530,0.033718601296844446,0.004558508190659762,0.6332117011731679,0.07304251428333815,0.7026183640352698,0.10536865617866902
531,0.03400706188825444,0.004591782823502471,0.6332117011731679,0.07304251428333815,0.7343707367088942,0.11013042303584177
532,0.0010148360840000021,0.00013512260965786287,0.026111862847739187,0.002887517462038589,0.015519012787160832,0.002583984680066913
533,0.0010148360840000021,0.00013512260965786287,0.026111862847739187,0.002887517462038589,0.015521896351612434,0.0025844648063783685
534,0.0006644278522185948,8.190647935775833e-05,0.012310874075899831,0.0010509714290558821,0.014359747999091337,0.002180025373792339
535,0.0006644278522185948,8.190647935775833e-05,0.012310874075899831,0.0010509714290558821,0.014353627855215717,0.0021790962440512767
536,0.0007154094036659742,8.178612301449053e-05,0.01380134264726646,0.001029739683560495,0.014990756082542531,0.0021953742377243874
537,0.0007154094036659742,8.178612301449053e-05,0.01380134264726646,0.001029739683560495,0.01499658566422207,0.0021962279714097
538,0.00040951915551567993,8.16673162430757e-05,0.0,0.0010297396809858072,0.015521826370425096,0.002190580335548898
539,0.00040951915551567993,8.16673162430757e-05,0.0,0.0010297396809858072,0.015519023167808892,0.002190184722276267
540,0.014551602154553138,0.0016915961604898498,0.2832656444360813,0.02268933333462983,0.30744932241274564,0.04455878941403451
541,0.014551602154553138,0.0016915961604898498,0.2832656444360813,0.02268933333462983,0.30828118437244834,0.04467935159837452
542,0.0014926075719546516,0.0001892475365591345,0.01853035556462904,0.0014226666645198646,0.04059259605412251,0.0059447261472329125
543,0.0014926075719546516,0.0001892475365591345,0.01853035556462904,0.0014226666645198646,0.04063847770018601,0.0059514454469955635
544,0.000945784695347277,0.00011103857938504492,0.017664533337422954,0.0014373333325945878,0.020596444520822862,0.002965514033824963
545,0.000945784695347277,0.00011103857938504492,0.017664533337422954,0.0014373333325945878,0.020611919429240046,0.0029677421396534683
546,0.0009172321387964727,0.0001112793500728018,0.01757555555086583,0.001452000000669311,0.019616929226761733,0.0029656951805358037
547,0.0009172321387964727,0.0001112793500728018,0.01757555555086583,0.001452000000669311,0.01963049536458445,0.002967746114659807
548,0.00428489523245239,0.0004926136982208208,0.0892794222144099,0.007230666667197104,0.0815796798021213,0.01187197438970806
549,0.00428489523245239,0.0004926136982208208,0.0892794222144099,0.007230666667197104,0.08181668532035896,0.01190646488353645
550,0.022262236912005733,0.0025114112483424736,0.4138145335735218,0.033187226553676806,0.4792771421190878,0.06763645040275909
551,0.02207584996097099,0.002496463329724869,0.4138145335735218,0.033187226553676806,0.5004778554044957,0.07062833310822579
552,0.000891574111829172,8.958398354341857e-05,0.023140638670585488,0.0018286648202051235,0.013540072515250804,0.0018706497713496016
553,0.000891574111829172,8.958398354341857e-05,0.023140638670585488,0.0018286648202051235,0.013548614501806363,0.0018718299027838334
554,0.0006010412711576641,6.706548325203733e-05,0.011855921544884454,0.0009119939655146326,0.012988675077011923,0.0018719955943032112
555,0.0006010412711576641,6.706548325203733e-05,0.011855921544884454,0.0009119939655146326,0.012978390269079078,0.0018705132941436967
556,0.0005739935932821448,6.742962118998759e-05,0.011094835311277893,0.0009260246421165741,0.012623401815881513,0.0018706215861540266
557,0.0005739935932821448,6.742962118998759e-05,0.011094835311277893,0.0009260246421165741,0.012631677417251342,0.0018718479210823287
558,0.000305640394997774,4.5357932061002536e-05,0.0,0.0,0.012800932217874062,0.001899695928151313
559,0.000305640394997774,4.5357932061002536e-05,0.0,0.0,0.012408446585180265,0.0018414499078149814
560,0.03091258455560078,0.0036375040350357982,0.574474634145523,0.04977073170821092,0.6647512836646903,0.09612310863804194
561,0.03091258455560078,0.0036375040350357982,0.574474634145523,0.04977073170821092,0.6950922789018801,0.10051041988217009
562,0.001372249704346559,0.0001425161584474596,0.03543024390038647,0.002882926829199011,0.0203833350975547,0.002951453017551789
563,0.001372249704346559,0.0001425161584474596,0.03543024390038647,0.002882926829199011,0.02039167770660447,0.00295266100527982
564,0.0009260960219975229,0.00010705599559801908,0.017596097555147804,0.0014341463407263073,0.020353265565050627,0.0029807058870303512
565,0.0009260960219975229,0.00010705599559801908,0.017596097555147804,0.0014341463407263073,0.020361347258618052,0.0029818894391987548
566,0.0009401568667773558,0.0001073979511344131,0.0175960975693448,0.0014487804884727048,0.02096241117890024,0.002982625683282405
567,0.0009401568667773558,0.0001073979511344131,0.0175960975693448,0.0014487804884727048,0.020944079961478613,0.0029800174356232516
568,0.0010357944807305977,0.0001173280429582465,0.017638999997870997,0.0014850000006845225,0.024904180051697845,0.003357978490327823
569,0.0010357944807305977,0.0001173280429582465,0.016757049997977447,0.0014107500006502963,0.019072181012081364,0.0025716154263766564
570,0.041193828798908406,0.004757403346385544,0.5567817273002865,0.04554670573727314,0.6432294073952276,0.08869611110990432
571,0.041193828798908406,0.004757403346385544,0.5264598002732461,0.043066265342104,0.6432294073952276,0.08869611110990432
572,0.0021099125110989737,0.000272380421765092,0.016737129019330402,0.0014389299287299257,0.04120085185341951,0.005907777777422407
573,0.0021099125110989737,0.000272380421765092,0.01675834226475683,0.0014407536808020002,0.04120085185341951,0.005907777777422407
574,0.0013136504596951868,0.00015773857792680018,0.01663214816125419,0.0014255711366732557,0.02060066666928361,0.0029394444446316573
575,0.0013136504596951868,0.00015773857792680018,0.016626217593185964,0.001425062817087585,0.02060066666928361,0.0029394444446316573
576,0.0013664435144663258,0.00016056503341590036,0.017484768412265445,0.0015066449521441293,0.021276185188778773,0.0029466666657956206
577,0.0013664435144663258,0.00016056503341590036,0.015537974177712757,0.001338891646112662,0.021276185188778773,0.0029466666657956206
578,0.008306021749231573,0.0010103088601338774,0.0977744209152308,0.008529694414945598,0.12582400000246707,0.01840500000071188
579,0.008306021749231573,0.0010103088601338774,0.09835630481844229,0.00858045709738248,0.11614523077150807,0.01698923076988789
580,0.025922733425846136,0.003080895855103721,0.2583127100393692,0.023329219751960232,0.3209285714269971,0.04377857143048287
581,0.025922733425846136,0.003080895855103721,0.27650068025779984,0.02497184567618676,0.3209285714269971,0.04377857143048287
582,0.0016764942529814229,0.00020583928633462125,0.016426652388270527,0.0014747788039534407,0.021758999995654452,0.003059999999095453
583,0.0016764942529814229,0.00020583928633462125,0.015477259106734656,0.001389542624655906,0.019583099996089006,0.0027539999991859077
584,0.011978508053519684,0.0015467714247111356,0.08781797895249478,0.008471788913689467,0.1500550000055227,0.02151749999757158
585,0.011978508053519684,0.0015467714247111356,0.08806378272138672,0.008495501571041423,0.13338222222713128,0.01912666666450807
586,0.014776135465040153,0.0018537309827525038,0.11104241696938968,0.009909193874423431,0.16271247058723337,0.023082352941855785
587,0.014776135465040153,0.0018537309827525038,0.11137237090347121,0.009938638275866383,0.16271247058723337,0.023082352941855785
588,0.013505569604192292,0.0017340152743249026,0.11302382530584769,0.011322296719331175,0.14108470587662472,0.02023058823782348
589,0.013505569604192292,0.0017340152743249026,0.11313562373469747,0.011333496260496649,0.14108470587662472,0.02023058823782348
590,0.024614604467293626,0.0032125968651484046,0.17197872206311485,0.016493658034437846,0.2526620108137109,0.036158594592140894
591,0.02511591798081289,0.003284340108386779,0.18384464195296835,0.017631661751289822,0.2526620108137109,0.036158594592140894
592,0.00909124961679916,0.0011816370898544873,0.06476680826811604,0.00612379640790046,0.09007873596611923,0.012903866943808389
593,0.00909124961679916,0.0011816370898544873,0.054970538650312734,0.005197544793833184,0.06434195426151373,0.009217047817005993
594,0.0383655871373855,0.0037814429810091033,0.14818216018758368,0.014002061934856508,0.28381297296397645,0.02833783783874399
595,0.0383655871373855,0.0037814429810091033,0.020742998901764738,0.001960052107281312,0.0,0.0
596,0.18240409651970807,0.021442919793340856,0.06649094258684353,0.006437133495985226,0.0,0.0
597,0.18240409651970807,0.021442919793340856,0.06473386437682113,0.006267026913633378,0.0,0.0
598,0.15583434646433353,0.01861247859811148,0.07024778872370627,0.008647119202977933,0.0,0.0
599,0.15583434646433353,0.01861247859811148,0.07151351831263683,0.00880292360384337,0.0,0.0
600,0.15287137380151394,0.014749013398862441,0.026257047225247607,0.0038941489657845266,0.0,0.0
601,0.10281035197508395,0.010154221732146992,0.04231217740647275,0.0062752647117560074,0.0,0.0
602,0.05713086244941276,0.00617720449337443,0.019014691507761253,0.002777715833402518,0.0,0.0
603,0.05713086244941276,0.00617720449337443,0.019367833591720673,0.0028293037520208376,0.0,0.0
604,0.06915081268278267,0.007789896197553559,0.022122264627660093,0.002699546509101025,0.0,0.0
605,0.06915081268278267,0.007789896197553559,0.022361145730004528,0.002728696808890759,0.0,0.0
606,0.06380170360560797,0.00815307290755906,0.02737849734176084,0.003441771060232167,0.0,0.0
607,0.06380170360560797,0.00815307290755906,0.028258845438738318,0.0035524402677231826,0.0,0.0
