method,package1,package2,dram1,dram2,energy
avrora.arch.legacy,0.3797875720914285,0.07388010320049809,0.0439316969423386,0.013933848689269127,0.5115332209235344
avrora.monitors,0.0,0.0,0.0,0.0,0.0
avrora.sim,0.09699327887976517,0.131763223385303,0.009719581530867747,0.022733724427811786,0.2612098082237477
avrora.sim.clock,0.5516192810258939,1.09441765761368,0.068465309173351,0.15965135748480463,1.8741536052977292
avrora.sim.mcu,0.0,0.0,0.0,0.0,0.0
avrora.sim.output,0.0,0.017640739225929424,0.0,0.002145105089441761,0.019785844315371184
avrora.sim.radio,0.0,0.02228800000011688,0.0,0.0034449999999803067,0.02573300000009719
cck.elf,0.04947294871761607,0.0,0.0058369230767148575,0.0,0.05530987179433093
cck.text,0.010854083333470044,0.04354581818033969,0.0013650000000779985,0.0074054545455675734,0.0631703560594553
cck.util,0.06230996584559025,0.0,0.00818304644860849,0.0,0.07049301229419874
chappie,0.04196831515735884,0.0,0.005394199411774885,0.0,0.04736251456913373
javassist.bytecode,0.029846000000058364,0.0,0.004084999999880286,0.0,0.03393099999993865
org.dacapo.harness,1.228067162621401,0.41089737508335805,0.15530334048950387,0.06543158968282813,1.859699467877091
org.dacapo.parser,0.06880700000086411,0.0,0.008230000000063834,0.0,0.07703700000092795
sun.misc,0.17891554629750317,0.0,0.025493611111212684,0.0,0.20440915740871585
sun.net.www.protocol.file,0.01802066666641622,0.0,0.002442499999991317,0.0,0.020463166666407535
sun.net.www.protocol.jar,0.02452696296434927,0.0,0.0039511111103315176,0.0,0.02847807407468079
sun.nio.cs,0.0,0.0,0.0,0.0,0.0
sun.security.util,0.04818725000041013,0.0,0.007203749999462161,0.0,0.05539099999987229
