method,package1,package2,dram1,dram2,energy
ATMegaFamily$PortRegister.write|AtmelInterpreter$IORegBehavior.write|AtmelInterpreter.writeVolatile,0.0,0.0,0.0,0.0,0.0
Arithmetic.setBit|AtmelInterpreter.setIORegBit|LegacyInterpreter.visit,0.01088771584686757,0.0,0.0012905464481047042,0.0,0.012178262294972274
Arithmetic.uword|AtmelInterpreter.getSP|AtmelInterpreter.pushByte,0.0,0.0,0.0,0.0,0.0
AtmelInterpreter$IORegBehavior.read|AtmelInterpreter.readVolatile|AtmelInterpreter.readSRAM,0.0,0.0,0.0,0.0,0.0
AtmelInterpreter$SREGBehavior.write|AtmelInterpreter.writeVolatile|AtmelInterpreter.writeSRAM,0.0,0.0,0.0,0.0,0.0
AtmelInterpreter.commit|LegacyInterpreter.fastLoop|LegacyInterpreter.runLoop,0.0,0.0,0.0,0.0,0.0
AtmelInterpreter.getRegisterByte|LegacyInterpreter.visit|LegacyInstr$ANDI.accept,0.0,0.07274528571620716,0.0,0.012310714285766671,0.08505600000197383
AtmelInterpreter.getRegisterByte|LegacyInterpreter.visit|LegacyInstr$MOV.accept,0.0,0.0,0.0,0.0,0.0
AtmelInterpreter.getRegisterByte|LegacyInterpreter.visit|LegacyInstr$PUSH.accept,0.0,0.0,0.0,0.0,0.0
AtmelInterpreter.getRegisterUnsigned|LegacyInterpreter.visit|LegacyInstr$ADD.accept,0.0,0.05901793766909585,0.0,0.010423010142045115,0.06944094781114096
AtmelInterpreter.getSP|AtmelInterpreter.pushByte|LegacyInterpreter.visit,0.0,0.0,0.0,0.0,0.0
AtmelInterpreter.pushByte|LegacyInterpreter.visit|LegacyInstr$PUSH.accept,0.04752444554629205,0.0,0.0048845815305315005,0.0,0.05240902707682355
AtmelInterpreter.readSRAM|AtmelInterpreter.getDataByte|AtmelInterpreter.popByte,0.0,0.0,0.0,0.0,0.0
AtmelInterpreter.readSRAM|AtmelInterpreter.getDataByte|LegacyInterpreter.visit,0.0,0.0,0.0,0.0,0.0
AtmelInterpreter.readVolatile|AtmelInterpreter.readSRAM|AtmelInterpreter.setIORegBit,0.0,0.0,0.0,0.0,0.0
AtmelInterpreter.setSP|AtmelInterpreter.popByte|LegacyInterpreter.visit,0.0,0.0,0.0,0.0,0.0
AtmelInterpreter.writeRegisterByte|LegacyInterpreter.visit|LegacyInstr$ANDI.accept,0.0,0.0,0.0,0.0,0.0
ConfigFile.<init>|ConfigFile.<init>|Config.parse,0.06880700000086411,0.0,0.008230000000063834,0.0,0.07703700000092795
DeltaQueue$EventList.<init>|DeltaQueue.newEventList|DeltaQueue.access$000,0.05493155555612045,0.0,0.005850000000161041,0.0,0.06078155555628149
DeltaQueue$Link.fire|DeltaQueue.skipAhead|MainClock.skipAhead,0.0,0.0,0.0,0.0,0.0
DeltaQueue.advance|MainClock.advance|AtmelInterpreter.commit,0.06530766666886241,0.06391123885815797,0.006635000000339156,0.013374898221759591,0.1492288037491191
DeltaQueue.free|DeltaQueue.skipAhead|MainClock.skipAhead,0.0,0.0,0.0,0.0,0.0
DeltaQueue.insertEvent|MainClock.insertEvent|CC1000Radio$SPITicker.fire,0.008522727272727272,0.0,0.0011127272726959992,0.0,0.00963545454542327
DeltaQueue.newEventList|DeltaQueue.access$000|DeltaQueue$Link.add,0.0,0.0,0.0,0.0,0.0
DeltaQueue.skipAhead|MainClock.skipAhead|LegacyInterpreter.sleepLoop,0.0,0.0,0.0,0.0,0.0
DerivedClock.insertEvent|Timer8Bit.tickerFinish|Timer8Bit.access$100,0.0,0.0,0.0,0.0,0.0
ExceptionTable.<init>|CodeAttribute.<init>|AttributeInfo.read,0.029846000000058364,0.0,0.004084999999880286,0.0,0.03393099999993865
InterruptTable.beforeInvoke|LegacyInterpreter.invokeInterrupt|LegacyInterpreter.runLoop,0.0,0.0,0.0,0.0,0.0
LegacyInstr$AND.accept|LegacyInterpreter.fastLoop|LegacyInterpreter.runLoop,0.04539947826212839,0.0,0.004933043477965682,0.0,0.05033252174009407
LegacyInstr$CALL.<init>|LegacyDisassembler.decode_CALL_0|LegacyDisassembler.decode_20,0.06333097435913843,0.0,0.008394615384438506,0.0,0.07172558974357693
LegacyInstr$CPI.accept|LegacyInterpreter.fastLoop|LegacyInterpreter.runLoop,0.0,0.0,0.0,0.0,0.0
LegacyInstr$CPSE.<clinit>|LegacyDisassembler.decode_CPSE_0|LegacyDisassembler.decode_26,0.056238259258895626,0.0,0.006976666666795845,0.0,0.06321492592569147
LegacyInstr$OR.accept|LegacyInterpreter.fastLoop|LegacyInterpreter.runLoop,0.07464775757574843,0.0,0.00653636363638339,0.0,0.08118412121213182
LegacyInstr$POP.accept|LegacyInterpreter.fastLoop|LegacyInterpreter.runLoop,0.0,0.0,0.0,0.0,0.0
LegacyInstr$PUSH.accept|LegacyInterpreter.fastLoop|LegacyInterpreter.runLoop,0.0,0.0,0.0,0.0,0.0
LegacyInterpreter.fastLoop|LegacyInterpreter.runLoop|AtmelInterpreter.start,0.046066153916899645,0.0,0.005831584699690493,0.0,0.05189773861659014
LegacyInterpreter.runLoop|AtmelInterpreter.start|Simulator.start,0.04463200000100187,0.0,0.005422500000349828,0.0,0.0500545000013517
LegacyInterpreter.visit|LegacyInstr$ADC.accept|LegacyInterpreter.fastLoop,0.0,0.030990559380576207,0.0,0.005476199470513157,0.03646675885108937
LegacyInterpreter.visit|LegacyInstr$ADIW.accept|LegacyInterpreter.fastLoop,0.0,0.0,0.0,0.0,0.0
LegacyInterpreter.visit|LegacyInstr$AND.accept|LegacyInterpreter.fastLoop,0.0,0.0,0.0,0.0,0.0
LegacyInterpreter.visit|LegacyInstr$CP.accept|LegacyInterpreter.fastLoop,0.0,0.04288954381992189,0.0,0.00845764921875597,0.05134719303867786
LegacyInterpreter.visit|LegacyInstr$CPC.accept|LegacyInterpreter.fastLoop,0.0,0.0,0.0,0.0,0.0
LegacyInterpreter.visit|LegacyInstr$CPSE.accept|LegacyInterpreter.fastLoop,0.0,0.0,0.0,0.0,0.0
LegacyInterpreter.visit|LegacyInstr$DEC.accept|LegacyInterpreter.fastLoop,0.0,0.0,0.0,0.0,0.0
LegacyInterpreter.visit|LegacyInstr$JMP.accept|LegacyInterpreter.fastLoop,0.0,0.0,0.0,0.0,0.0
LegacyInterpreter.visit|LegacyInstr$ORI.accept|LegacyInterpreter.fastLoop,0.0,0.0,0.0,0.0,0.0
LegacyInterpreter.visit|LegacyInstr$PUSH.accept|LegacyInterpreter.fastLoop,0.0,0.0,0.0,0.0,0.0
LegacyRegister$Set.contains|LegacyInstr.checkReg|LegacyInstr.GPR,0.04947294871761607,0.0,0.0058369230767148575,0.0,0.05530987179433093
MainClock.advance|AtmelInterpreter.commit|LegacyInterpreter.fastLoop,0.006327404371629857,0.028908750320050323,0.0006530874316692291,0.003419563319255173,0.03930880544260458
MainClock.skipAhead|LegacyInterpreter.sleepLoop|LegacyInterpreter.runLoop,0.0,0.0,0.0,0.0,0.0
Medium$Receiver$Ticker.deliverByte|Medium$Receiver$Ticker.fireLocked|Medium$Receiver$Ticker.fire,0.0,0.0,0.0,0.0,0.0
Medium$Receiver$Ticker.fireUnlocked|Medium$Receiver$Ticker.fire|DeltaQueue$Link.fire,0.0,0.0,0.0,0.0,0.0
Medium$Receiver.earliestNewTransmission|Medium$Receiver.access$100|Medium$Receiver$Ticker.fireUnlocked,0.0,0.02228800000011688,0.0,0.0034449999999803067,0.02573300000009719
Medium$Receiver.getIntersection|Medium$Receiver.access$200|Medium$Receiver$Ticker.deliverByte,0.0,0.0,0.0,0.0,0.0
Option$List.parseString|Option$List.<init>|Options.newOptionList,0.051422249998722684,0.0,0.0068925000005037864,0.0,0.05831474999922647
PacketMonitor$Mon.clear|PacketMonitor$Mon.fireAfterReceiveEnd|Medium$Probe$List.fireAfterReceiveEnd,0.0,0.0,0.0,0.0,0.0
RippleSynchronizer$NotifyEvent.access$100|RippleSynchronizer.waitForNeighbors|Medium$Receiver.waitForNeighbors,0.0,0.0,0.0,0.0,0.0
RippleSynchronizer$NotifyEvent.currentWaitLink|RippleSynchronizer$NotifyEvent.access$100|RippleSynchronizer.waitForNeighbors,0.0,0.0,0.0,0.0,0.0
RippleSynchronizer.advance|RippleSynchronizer.waitForNeighbors|Medium$Receiver.waitForNeighbors,0.0,0.014322844445188013,0.0,0.002186666666724098,0.01650951111191211
RippleSynchronizer.waitForNeighbors|Medium$Receiver.waitForNeighbors|Medium$Receiver.access$000,0.0,0.0,0.0,0.0,0.0
SPI$SPDReg$TransmitRegister.write|SPI$SPDReg.write|AtmelInterpreter$IORegBehavior.write,0.0,0.0,0.0,0.0,0.0
StringUtil.toList|Option$List.parseString|Option$List.<init>,0.010854083333470044,0.0,0.0013650000000779985,0.0,0.012219083333548042
TestHarness.main|Harness.main|NativeMethodAccessorImpl.invoke0,0.07312033333437283,0.0,0.010565000000497092,0.0,0.08368533333486992
Timer8Bit$Mode_CTC.fire|DeltaQueue$Link.fire|DeltaQueue.skipAhead,0.0,0.0,0.0,0.0,0.0
UTF_8$Encoder.encodeArrayLoop|UTF_8$Encoder.encodeLoop|CharsetEncoder.encode,0.0,0.0,0.0,0.0,0.0
