method,package1,package2,dram1,dram2,energy
ATMegaFamily$PortRegister,0.0,0.0,0.0,0.0,0.0
AtmelInterpreter,0.19048862483792653,0.04514486453885716,0.02516703185460902,0.0060684647116428375,0.26686898594303554
AtmelInterpreter$IORegBehavior,0.0,0.10590804281282812,0.0,0.015780856790016902,0.12168889960284501
AtmelInterpreter$SREGBehavior,0.0,0.026822284938802336,0.0,0.0040257204949118615,0.030848005433714198
ClassPool,0.0,0.2468721193411515,0.0,0.032833333333292844,0.27970545267444435
Clock,0.0,0.0,0.0,0.0,0.0
CommandLineArgs,0.0,0.0,0.0,0.0,0.0
ConstPool,0.0,0.02364066666632425,0.0,0.0034599999999045394,0.02710066666622879
DeltaQueue,0.05104591291304006,0.0,0.006421692406677591,0.0,0.057467605319717646
DeltaQueue$Link,0.0,0.06196763770022571,0.0,0.012795336857318887,0.0747629745575446
DisabledAlgorithmConstraints$KeySizeConstraint,0.0,0.06892900000093505,0.0,0.01096000000021983,0.07988900000115488
LegacyArchitecture,0.0,0.04226340740677659,0.0,0.005493333333611693,0.047756740740388284
LegacyDisassembler,0.0,0.06689451851761312,0.0,0.008831111111147845,0.07572562962876096
LegacyInstr$IN,0.0,0.0,0.0,0.0,0.0
LegacyInstr$SBIW,0.014148523809646056,0.0,0.0018657142856162478,0.0,0.016014238095262305
LegacyInterpreter,0.074672267997698,0.006421174109675288,0.009686283216131951,0.0008458966652924022,0.09162562198879763
MainClock,0.042388499998196494,0.0,0.004379999999400752,0.0,0.046768499997597246
Medium$Probe$List,0.0,0.0,0.0,0.0,0.0
Medium$Receiver,0.0,0.0,0.0,0.0,0.0
Medium$Receiver$Ticker,0.0,0.0,0.0,0.0,0.0
MetaIndex,0.0,0.02825001208941157,0.0,0.004669753887338865,0.032919765976750434
MulticastFSMProbe,0.0,0.0,0.0,0.0,0.0
Options,0.0,0.06892900000093505,0.0,0.01096000000021983,0.07988900000115488
RippleSynchronizer,0.0,0.03755899654656027,0.0,0.005431490847812786,0.042990487394373056
RippleSynchronizer$NotifyEvent,0.0,0.0,0.0,0.0,0.0
SPI$SPSReg,0.0,0.0,0.0,0.0,0.0
StreamEncoder,0.0,0.03774200165754493,0.0,0.005687845824032158,0.04342984748157709
