method,hits
ATMegaFamily$PortRegister.write,4
Arithmetic.uword,2
AtmelInterpreter$IORegBehavior.read,2
AtmelInterpreter$SREGBehavior.read,2
AtmelInterpreter.commit,14
AtmelInterpreter.getRegisterByte,6
AtmelInterpreter.readSRAM,4
AtmelInterpreter.setSP,2
AtmelInterpreter.toSRAM,2
AtmelInterpreter.writeRegisterByte,2
AtmelInterpreter.writeSRAM,2
CC1000Radio$SPITicker.fire,4
ConfigFile.sizeClause,2
DeltaQueue.advance,4
DeltaQueue.insertEvent,2
DeltaQueue.newLink,4
DisabledAlgorithmConstraints$Constraint$Operator.<clinit>,2
ExceptionTable.<init>,2
FiniteStateMachine.fireAfter,2
FiniteStateMachine.fireBefore,2
FiniteStateMachine.transition,2
InterruptTable.disableAll,2
LegacyArchitecture.getDisassembler,4
LegacyDisassembler.<clinit>,2
LegacyDisassembler.decode_LDPI_1,2
LegacyDisassembler.decode_SUBI_0,2
LegacyInstr$CALL.accept,2
LegacyInstr$POP.accept,2
LegacyInstr$PUSH.accept,4
LegacyInterpreter.fastLoop,30
LegacyInterpreter.runLoop,2
LegacyInterpreter.visit,16
LegacyRegister.nextRegister,2
MainClock.advance,2
Medium$Receiver$Ticker.deliverByte,2
Medium$Receiver$Ticker.fireLocked,2
Medium$Receiver$Ticker.fireUnlocked,2
Medium$Receiver.earliestNewTransmission,8
Medium.newTransmission,2
MulticastFSMProbe.fireAfterTransition,2
MulticastFSMProbe.fireBeforeTransition,2
RegisterUtil$BoolView.getValue,2
RippleSynchronizer.advance,18
RippleSynchronizer.waitForNeighbors,14
SPI.postSPIInterrupt,2
SimUtil.toIDTimeString,2
Simulator.getClock,2
StringUtil.appendFract,2
StringUtil.space,2
