method,package1,package2,dram1,dram2,energy
avrora.arch.legacy,0.09599611897723398,0.11041400492166778,0.011304649982781106,0.015206814239753608,0.23292158812143648
avrora.core,0.0,0.051602940230631555,0.0,0.006981242638061918,0.05858418286869348
avrora.monitors,0.0,0.0,0.0,0.0,0.0
avrora.sim,0.16977188541220076,0.2064470935038767,0.02081530079683565,0.035036109755067935,0.43207038946798104
avrora.sim.clock,0.037285849244603916,0.32239886816259195,0.005144565270381641,0.04561360458735084,0.4104428872649284
avrora.sim.mcu,0.0,0.11409300000887015,0.0,0.01863000000003012,0.13272300000890028
avrora.sim.platform,0.013284555555202087,0.038961219640994416,0.0017396666667962794,0.005160605770612893,0.059146047633605675
avrora.sim.radio,0.0,0.04875171741807535,0.0,0.008798656949070676,0.05755037436714603
avrora.sim.util,0.0,0.0,0.0,0.0,0.0
avrora.syntax.elf,0.0,0.03234432107465556,0.0,0.004644782307799234,0.0369891033824548
cck.text,0.0,0.0,0.0,0.0,0.0
org.dacapo.harness,0.0,0.06764733332965989,0.0,0.010979999999714588,0.07862733332937448
org.dacapo.parser,0.0,0.07257066667079927,0.0,0.010940000000118744,0.08351066667091801
sun.nio.cs,0.0,0.0,0.0,0.0,0.0
sun.security.util,0.0,0.027905156863305497,0.0,0.0045211764707203785,0.03242633333402588
