method,package1,package2,dram1,dram2,energy
AbstractSequentialList.iterator|Medium$Receiver$Ticker.deliverByte|Medium$Receiver$Ticker.fireLocked,0.0,0.0,0.0,0.0,0.0
AbstractStringBuilder.<init>|StringBuffer.<init>|URLStreamHandler.toExternalForm,0.0,0.010802194932124521,0.0,0.0016648866098630426,0.012467081541987564
Buffer.remaining|StreamEncoder.implWrite|StreamEncoder.write,0.0,0.0,0.0,0.0,0.0
BufferedWriter.flushBuffer|PrintStream.write|PrintStream.print,0.0,0.0079567272720548,0.0,0.0009909090909015065,0.008947636362956308
Class.isAssignableFrom|Defaults.addSubCategories|Defaults.addMonitors,0.0,0.027153124399067426,0.0,0.0036914145532759702,0.030844538952343396
ClassLoader.defineClass1|ClassLoader.defineClass|SecureClassLoader.defineClass,0.0,0.036866078780897635,0.0,0.005214477327152882,0.04208055610805052
ClassLoader.findBootstrapClass|ClassLoader.findBootstrapClassOrNull|ClassLoader.loadClass,0.0,0.0,0.0,0.0,0.0
ClassLoader.findLoadedClass0|ClassLoader.findLoadedClass|ClassLoader.loadClass,0.0,0.018978727956158258,0.0,0.0028895586672662648,0.02186828662342452
FileOutputStream.writeBytes|FileOutputStream.write|BufferedOutputStream.flushBuffer,0.0,0.07467060805445674,0.0,0.010713856711268805,0.08538446476572555
FileOutputStream.write|FileOutputStream.write|TeeOutputStream.write,1.1563270079491497,0.7139247471062667,0.14365137762253485,0.09581028165741293,2.1097134143353644
HashMap.getNode|HashMap.get|RippleSynchronizer.waitForNeighbors,0.0,0.0,0.0,0.0,0.0
Inflater.inflateBytes|Inflater.inflate|InflaterInputStream.read,0.0,0.06944403776716104,0.0,0.011103015397631305,0.08054705316479235
LinkedList$ListItr.hasNext|LinkedList$ListItr.next|Medium$Receiver$Ticker.deliverByte,0.0,0.0,0.0,0.0,0.0
LinkedList.unlink|LinkedList$ListItr.remove|Medium$Receiver.earliestNewTransmission,0.0,0.0,0.0,0.0,0.0
Object.notifyAll|RippleSynchronizer.notifyLink|RippleSynchronizer.advance,0.0,0.08390808333024324,0.0,0.010426249999909487,0.09433433333015273
Object.wait|Object.wait|RippleSynchronizer.waitForLink,0.16529156007859927,0.2831220997753151,0.020918970622663104,0.03649960812371247,0.5058322386002899
Object.wait|RippleSynchronizer.waitForLink|RippleSynchronizer.waitFor,0.0,0.0,0.0,0.0,0.0
Pattern.newSlice|Pattern.atom|Pattern.sequence,0.0,0.020938587299629902,0.0,0.003471617458656889,0.024410204758286792
RandomAccessFile.read0|RandomAccessFile.read|ELFDataInputStream.read_1,0.0,0.03659395668704138,0.0,0.005809234518352632,0.042403191205394014
ReferenceQueue.poll|WeakHashMap.expungeStaleEntries|WeakHashMap.getTable,0.0,0.006524594183425812,0.0,0.0009223736821687901,0.007446967865594602
String.replace|CommandLineArgs.extractBenchmarkSet|CommandLineArgs.<init>,0.0,0.0,0.0,0.0,0.0
StringBuffer.append|PacketMonitor$Mon.renderPacket|PacketMonitor$Mon.fireAfterReceiveEnd,0.0,0.0,0.0,0.0,0.0
URLStreamHandler.getHostAddress|URLStreamHandler.hostsEqual|Handler.hostsEqual,0.0,0.03436064816517801,0.0,0.004000662428382885,0.0383613105935609
ZipFile.getEntry|ZipFile.getInputStream|JarFile.getInputStream,0.0,0.010802194932124521,0.0,0.0016648866098630426,0.012467081541987564
