method,hits
AbstractStringBuilder.<init>,2
ArrayList.<init>,2
Buffer.flip,2
BufferedInputStream.read,6
BufferedOutputStream.<init>,2
ClassLoader.defineClass1,4
DataInputStream.readUTF,2
FileOutputStream.open0,2
FileOutputStream.write,296
FileOutputStream.writeBytes,4
HashMap.getNode,10
Inflater.inflateBytes,18
JarFile.entries,2
JarVerifier.<clinit>,2
LinkedList$ListItr.hasNext,2
LinkedList.listIterator,2
Object.hashCode,2
Object.notifyAll,16
Object.wait,204
PrintStream.write,2
RandomAccessFile.read0,4
String.charAt,2
StringBuffer.toString,2
System.nanoTime,2
Throwable.fillInStackTrace,2
URLClassLoader.findClass,2
UnixFileSystem.delete0,6
UnixFileSystem.getBooleanAttributes0,2
