method,package1,package2,dram1,dram2,energy
avrora.arch.legacy,0.10663064668942027,0.30331987385040954,0.013408194753435673,0.04147538963499246,0.464834104928258
avrora.monitors,0.0,0.0,0.0,0.0,0.0
avrora.sim,0.21301274999950692,0.1286385848369249,0.02689124999960768,0.01869969998726043,0.3872422848233
avrora.sim.clock,0.07260626519409001,0.09272234098851688,0.009370980212687584,0.014259703004416252,0.18895928939971074
avrora.sim.mcu,0.0,0.0,0.0,0.0,0.0
avrora.sim.radio,0.028776133334031333,0.0,0.0040579999998347676,0.0,0.0328341333338661
avrora.sim.state,0.0,0.0,0.0,0.0,0.0
avrora.sim.util,0.07272722925767543,0.0,0.009434371595147043,0.0,0.08216160085282247
java.io,0.5413317484921325,1.2414393333230682,0.07219644742491907,0.17489398665592246,2.0298615158960422
java.lang,0.5213302070155106,1.07688885787495,0.06474022413454689,0.14875018330939205,1.8117094723343996
java.nio,0.0,0.0,0.0,0.0,0.0
java.util,0.0,0.100708015061009,0.0,0.014347278358633895,0.11505529341964289
java.util.zip,0.0,0.8344711209102422,0.0,0.1186394187059907,0.9531105396162329
javassist.bytecode,0.0,0.0932616666686954,0.0,0.010940000000118744,0.10420166666881414
org.dacapo.harness,0.0369645606504298,0.065058923075692,0.004709312776271823,0.009245769231011551,0.11597856573340518
sun.nio.cs,0.0,0.0,0.0,0.0,0.0
