method,hits
ATMegaFamily$PortRegister.write,2
Arithmetic.setBit,2
Arithmetic.uword,2
ArrayList.rangeCheck,2
Arrays.fill,2
AtmelInterpreter$IORegBehavior.read,2
AtmelInterpreter$SREGBehavior.write,2
AtmelInterpreter.commit,6
AtmelInterpreter.getRegisterByte,8
AtmelInterpreter.getRegisterUnsigned,2
AtmelInterpreter.getSP,2
AtmelInterpreter.pushByte,2
AtmelInterpreter.readSRAM,4
AtmelInterpreter.readVolatile,2
AtmelInterpreter.setSP,2
AtmelInterpreter.writeRegisterByte,2
BufferedInputStream.read1,2
Character.digit,2
ClassLoader.defineClass1,10
ConfigFile.<init>,2
DeltaQueue$EventList.<init>,2
DeltaQueue$Link.fire,4
DeltaQueue.advance,16
DeltaQueue.free,2
DeltaQueue.insertEvent,2
DeltaQueue.newEventList,2
DeltaQueue.skipAhead,2
DerivedClock.insertEvent,2
ExceptionTable.<init>,2
FileOutputStream.open0,6
FileOutputStream.write,196
FileOutputStream.writeBytes,2
Formatter.parse,2
HashMap.getNode,32
Inflater.inflateBytes,10
InterruptTable.beforeInvoke,2
LegacyInstr$AND.accept,2
LegacyInstr$CALL.<init>,2
LegacyInstr$CPI.accept,2
LegacyInstr$CPSE.<clinit>,2
LegacyInstr$OR.accept,2
LegacyInstr$POP.accept,2
LegacyInstr$PUSH.accept,2
LegacyInterpreter.fastLoop,14
LegacyInterpreter.runLoop,2
LegacyInterpreter.visit,26
LegacyRegister$Set.contains,2
LinkedList.isPositionIndex,2
Long.getChars,2
MainClock.advance,12
MainClock.skipAhead,2
Medium$Receiver$Ticker.deliverByte,4
Medium$Receiver$Ticker.fireUnlocked,2
Medium$Receiver.earliestNewTransmission,10
Medium$Receiver.getIntersection,2
Object.notifyAll,34
Object.wait,224
Option$List.parseString,2
PacketMonitor$Mon.clear,2
Pattern$Branch.<init>,2
PrintStream.write,2
RandomAccessFile.read0,2
RippleSynchronizer$NotifyEvent.access$100,2
RippleSynchronizer$NotifyEvent.currentWaitLink,2
RippleSynchronizer.advance,6
RippleSynchronizer.waitForNeighbors,14
SPI$SPDReg$TransmitRegister.write,2
String.format,2
String.replace,2
StringBuffer.toString,2
StringUtil.toList,2
TestHarness.main,2
Timer8Bit$Mode_CTC.fire,2
URL.set,2
URLClassLoader.getAndVerifyPackage,2
URLClassLoader.isSealed,2
URLStreamHandler.hostsEqual,2
URLStreamHandler.sameFile,2
UTF_8$Encoder.encodeArrayLoop,2
UnixFileSystem.delete0,2
UnixFileSystem.getBooleanAttributes0,2
ZipFile.read,2
