method,package1,package2,dram1,dram2,energy
ATMegaFamily$PortRegister.write,0.0,0.0,0.0,0.0,0.0
Arithmetic.setBit,0.01088771584686757,0.0,0.0012905464481047042,0.0,0.012178262294972274
Arithmetic.uword,0.0,0.0,0.0,0.0,0.0
ArrayList.rangeCheck,0.02452696296434927,0.0,0.0039511111103315176,0.0,0.02847807407468079
Arrays.fill,0.049468833333473114,0.0,0.004835000000336246,0.0,0.05430383333380936
AtmelInterpreter$IORegBehavior.read,0.0,0.0,0.0,0.0,0.0
AtmelInterpreter$SREGBehavior.write,0.0,0.0,0.0,0.0,0.0
AtmelInterpreter.commit,0.0,0.0,0.0,0.0,0.0
AtmelInterpreter.getRegisterByte,0.0,0.07274528571620716,0.0,0.012310714285766671,0.08505600000197383
AtmelInterpreter.getRegisterUnsigned,0.0,0.05901793766909585,0.0,0.010423010142045115,0.06944094781114096
AtmelInterpreter.getSP,0.0,0.0,0.0,0.0,0.0
AtmelInterpreter.pushByte,0.04752444554629205,0.0,0.0048845815305315005,0.0,0.05240902707682355
AtmelInterpreter.readSRAM,0.0,0.0,0.0,0.0,0.0
AtmelInterpreter.readVolatile,0.0,0.0,0.0,0.0,0.0
AtmelInterpreter.setSP,0.0,0.0,0.0,0.0,0.0
AtmelInterpreter.writeRegisterByte,0.0,0.0,0.0,0.0,0.0
BufferedInputStream.read1,0.020002095238721398,0.0,0.002231428571533234,0.0,0.022233523810254632
Character.digit,0.06880700000086411,0.0,0.008230000000063834,0.0,0.07703700000092795
ClassLoader.defineClass1,0.27308804629683436,0.0,0.03610527777913443,0.0,0.3091933240759688
ConfigFile.<init>,0.06880700000086411,0.0,0.008230000000063834,0.0,0.07703700000092795
DeltaQueue$EventList.<init>,0.05493155555612045,0.0,0.005850000000161041,0.0,0.06078155555628149
DeltaQueue$Link.fire,0.0,0.0,0.0,0.0,0.0
DeltaQueue.advance,0.06530766666886241,0.06391123885815797,0.006635000000339156,0.013374898221759591,0.1492288037491191
DeltaQueue.free,0.0,0.0,0.0,0.0,0.0
DeltaQueue.insertEvent,0.008522727272727272,0.0,0.0011127272726959992,0.0,0.00963545454542327
DeltaQueue.newEventList,0.0,0.0,0.0,0.0,0.0
DeltaQueue.skipAhead,0.0,0.0,0.0,0.0,0.0
DerivedClock.insertEvent,0.0,0.0,0.0,0.0,0.0
ExceptionTable.<init>,0.029846000000058364,0.0,0.004084999999880286,0.0,0.03393099999993865
FileOutputStream.open0,0.04873582142906907,0.0,0.006381428571785363,0.0,0.055117250000854434
FileOutputStream.write,0.26282348333990474,0.41089737508335805,0.03189365337088059,0.06543158968282813,0.7710461014769715
FileOutputStream.writeBytes,0.01999047618994068,0.0,0.003130000000098897,0.0,0.02312047619003958
Formatter.parse,0.02490512655357064,0.0,0.0034410934908338186,0.0,0.028346220044404458
HashMap.getNode,0.03680399999817988,0.05877342032000345,0.0050699999998566146,0.008927966424127375,0.10957538674216732
Inflater.inflateBytes,0.3520257261875702,0.0,0.044131785713099295,0.0,0.3961575119006695
InterruptTable.beforeInvoke,0.0,0.0,0.0,0.0,0.0
LegacyInstr$AND.accept,0.04539947826212839,0.0,0.004933043477965682,0.0,0.05033252174009407
LegacyInstr$CALL.<init>,0.06333097435913843,0.0,0.008394615384438506,0.0,0.07172558974357693
LegacyInstr$CPI.accept,0.0,0.0,0.0,0.0,0.0
LegacyInstr$CPSE.<clinit>,0.056238259258895626,0.0,0.006976666666795845,0.0,0.06321492592569147
LegacyInstr$OR.accept,0.07464775757574843,0.0,0.00653636363638339,0.0,0.08118412121213182
LegacyInstr$POP.accept,0.0,0.0,0.0,0.0,0.0
LegacyInstr$PUSH.accept,0.0,0.0,0.0,0.0,0.0
LegacyInterpreter.fastLoop,0.046066153916899645,0.0,0.005831584699690493,0.0,0.05189773861659014
LegacyInterpreter.runLoop,0.04463200000100187,0.0,0.005422500000349828,0.0,0.0500545000013517
LegacyInterpreter.visit,0.0,0.07388010320049809,0.0,0.013933848689269127,0.08781395188976722
LegacyRegister$Set.contains,0.04947294871761607,0.0,0.0058369230767148575,0.0,0.05530987179433093
LinkedList.isPositionIndex,0.0,0.0,0.0,0.0,0.0
Long.getChars,0.0,0.0,0.0,0.0,0.0
MainClock.advance,0.006327404371629857,0.028908750320050323,0.0006530874316692291,0.003419563319255173,0.03930880544260458
MainClock.skipAhead,0.0,0.0,0.0,0.0,0.0
Medium$Receiver$Ticker.deliverByte,0.0,0.0,0.0,0.0,0.0
Medium$Receiver$Ticker.fireUnlocked,0.0,0.0,0.0,0.0,0.0
Medium$Receiver.earliestNewTransmission,0.0,0.02228800000011688,0.0,0.0034449999999803067,0.02573300000009719
Medium$Receiver.getIntersection,0.0,0.0,0.0,0.0,0.0
Object.notifyAll,0.0,0.0,0.0,0.0,0.0
Object.wait,0.379725927158374,0.9285014036702801,0.04914449446862895,0.13174226285293839,1.4891140881502214
Option$List.parseString,0.051422249998722684,0.0,0.0068925000005037864,0.0,0.05831474999922647
PacketMonitor$Mon.clear,0.0,0.0,0.0,0.0,0.0
Pattern$Branch.<init>,0.04818725000041013,0.0,0.007203749999462161,0.0,0.05539099999987229
PrintStream.write,0.0,0.04354581818033969,0.0,0.0074054545455675734,0.050951272725907264
RandomAccessFile.read0,0.04947294871761607,0.0,0.0058369230767148575,0.0,0.05530987179433093
RippleSynchronizer$NotifyEvent.access$100,0.0,0.0,0.0,0.0,0.0
RippleSynchronizer$NotifyEvent.currentWaitLink,0.0,0.0,0.0,0.0,0.0
RippleSynchronizer.advance,0.0,0.014322844445188013,0.0,0.002186666666724098,0.01650951111191211
RippleSynchronizer.waitForNeighbors,0.0,0.0,0.0,0.0,0.0
SPI$SPDReg$TransmitRegister.write,0.0,0.0,0.0,0.0,0.0
String.format,0.017063188603788196,0.0,0.0019531059209410664,0.0,0.019016294524729263
String.replace,0.04818725000041013,0.0,0.007203749999462161,0.0,0.05539099999987229
StringBuffer.toString,0.0,0.017640739225929424,0.0,0.002145105089441761,0.019785844315371184
StringUtil.toList,0.010854083333470044,0.0,0.0013650000000779985,0.0,0.012219083333548042
TestHarness.main,0.07312033333437283,0.0,0.010565000000497092,0.0,0.08368533333486992
Timer8Bit$Mode_CTC.fire,0.0,0.0,0.0,0.0,0.0
URL.set,0.02452696296434927,0.0,0.0039511111103315176,0.0,0.02847807407468079
URLClassLoader.getAndVerifyPackage,0.05101651851604132,0.0,0.005950000000127517,0.0,0.05696651851616884
URLClassLoader.isSealed,0.010854083333470044,0.0,0.0013650000000779985,0.0,0.012219083333548042
URLStreamHandler.hostsEqual,0.01802066666641622,0.0,0.002442499999991317,0.0,0.020463166666407535
URLStreamHandler.sameFile,0.024079102564055342,0.0,0.0029292307693443336,0.0,0.027008333333399675
UTF_8$Encoder.encodeArrayLoop,0.0,0.0,0.0,0.0,0.0
UnixFileSystem.delete0,0.06406666666589445,0.0,0.008130000000164728,0.0,0.07219666666605917
UnixFileSystem.getBooleanAttributes0,0.029846000000058364,0.0,0.004084999999880286,0.0,0.03393099999993865
ZipFile.read,0.03581314285734801,0.0,0.004514285714235267,0.0,0.04032742857158328
