method,package1,package2,dram1,dram2,energy
ADC$ControlRegister$ConversionEvent.fire,0.0,0.0,0.0,0.0,0.0
Arrays.fill,0.0,0.02098973684233466,0.0,0.00292736842091376,0.023917105263248417
AtmelInterpreter$SREGBehavior.read,0.0,0.0,0.0,0.0,0.0
AtmelInterpreter$SREGBehavior.write,0.0,0.0,0.0,0.0,0.0
AtmelInterpreter.commit,0.10763550000046962,0.1034726350162134,0.01227749999907246,0.015386097836777473,0.23877173285253295
AtmelInterpreter.getRegisterByte,0.0,0.0,0.0,0.0,0.0
AtmelInterpreter.getSP,0.0,0.0,0.0,0.0,0.0
AtmelInterpreter.pushByte,0.0,0.0,0.0,0.0,0.0
AtmelInterpreter.readSRAM,0.1053772499990373,0.0,0.01461375000053522,0.0,0.11999099999957252
AtmelInterpreter.writeRegisterByte,0.0,0.0251659498207115,0.0,0.0033136021504829565,0.028479551971194457
Benchmark.fileFromInputStream,0.0,0.065058923075692,0.0,0.009245769231011551,0.07430469230670356
BufferedInputStream.read,0.0,0.0932616666686954,0.0,0.010940000000118744,0.10420166666881414
ByteArrayInputStream.read,0.0,0.09808333333057816,0.0,0.0174550000004577,0.11553833333103586
CC1000Radio$Receiver.nextByte,0.0,0.0,0.0,0.0,0.0
CharBuffer.wrap,0.0,0.0,0.0,0.0,0.0
ClassLoader.defineClass1,0.0,0.33115309848155006,0.0,0.049409985795471054,0.3805630842770211
CommandLineArgs.makeOption,0.0,0.0,0.0,0.0,0.0
ConstPool.readOne,0.0,0.0932616666686954,0.0,0.010940000000118744,0.10420166666881414
DeltaQueue$Link.fire,0.0,0.0,0.0,0.0,0.0
DeltaQueue.advance,0.0,0.02580755208327901,0.0,0.004243489583346772,0.030051041666625783
DeltaQueue.free,0.0,0.0,0.0,0.0,0.0
DeltaQueue.newLink,0.025960993252884926,0.0,0.0034627935669354825,0.0,0.02942378681982041
DerivedClock.insertEvent,0.0,0.0508695728562417,0.0,0.007086815272957533,0.05795638812919923
FileOutputStream.close0,0.0,0.0512836153860777,0.0,0.0075876923074247316,0.058871307693502434
FileOutputStream.open0,0.0,0.20599663141332805,0.0,0.029917644230846023,0.23591427564417408
FileOutputStream.write,0.5413317484921325,0.6812939746821346,0.07219644742491907,0.09337440669633992,1.388196577295526
FileOutputStream.writeBytes,0.0,0.0451100416691285,0.0,0.007231874999812739,0.05234191666894124
Formatter.parse,0.0,0.031943846089433736,0.0,0.0046649164876245795,0.036608762577058314
HashMap.getNode,0.0,0.04777443212924061,0.0,0.0067549934500955545,0.05452942557933616
HashMap.hash,0.0,0.0,0.0,0.0,0.0
Inflater.inflateBytes,0.0,0.7390700696304326,0.0,0.10541672639801078,0.8444867960284435
LegacyArchitecture.getDisassembler,0.0,0.03743672727167987,0.0,0.005415000000125887,0.04285172727180576
LegacyDisassembler.decode_JMP_0,0.0,0.020069454545261,0.0,0.002979545454681184,0.023048999999942185
LegacyDisassembler.getReg,0.0,0.058815315790094524,0.0,0.00861157894723874,0.06742689473733326
LegacyInstr$LPM.accept,0.0,0.0,0.0,0.0,0.0
LegacyInstr$PUSH.accept,0.0,0.0,0.0,0.0,0.0
LegacyInstr$SBIW.accept,0.0,0.036051311728420216,0.0,0.005451388888862614,0.04150270061728283
LegacyInterpreter.fastLoop,0.05595385645440921,0.056796114696177236,0.00653972754725711,0.005931774193547384,0.12522147289139093
LegacyInterpreter.runLoop,0.0,0.0,0.0,0.0,0.0
LegacyInterpreter.sleepLoop,0.0,0.0,0.0,0.0,0.0
LegacyInterpreter.visit,0.050676790235011065,0.09415094981877667,0.006868467206178562,0.013086102150536651,0.16478230941050295
LinkedList.isPositionIndex,0.0,0.0,0.0,0.0,0.0
LinkedList.listIterator,0.0,0.0,0.0,0.0,0.0
Long.toString,0.0,0.0,0.0,0.0,0.0
MainClock.advance,0.019020560187820803,0.016045216048996173,0.002711937121525713,0.002929398148111948,0.04070711150645463
MainClock.skipAhead,0.0,0.0,0.0,0.0,0.0
Medium$Receiver.earliestNewTransmission,0.028776133334031333,0.0,0.0040579999998347676,0.0,0.0328341333338661
Medium$Receiver.getIntersection,0.0,0.0,0.0,0.0,0.0
MulticastFSMProbe.fireAfterTransition,0.0,0.0,0.0,0.0,0.0
MulticastFSMProbe.fireBeforeTransition,0.07272722925767543,0.0,0.009434371595147043,0.0,0.08216160085282247
Object.hashCode,0.016336498280877697,0.0,0.0020623761837673233,0.0,0.01839887446464502
Object.notifyAll,0.034522904946044874,0.06706895237965951,0.00438006093927978,0.008588571428845171,0.11456048969382934
Object.wait,0.470470803788588,0.6467229609243069,0.05829778701149978,0.08608670959745127,1.261578261321846
PacketMonitor$Mon.append,0.0,0.0,0.0,0.0,0.0
RandomAccessFile.read0,0.0,0.02098973684233466,0.0,0.00292736842091376,0.023917105263248417
RegisterUtil$BoolView.setValue,0.0,0.0,0.0,0.0,0.0
RippleSynchronizer$NotifyEvent.currentWaitLink,0.027624711753384282,0.0,0.003196249524226387,0.0,0.030820961277610668
RippleSynchronizer.advance,0.0,0.0,0.0,0.0,0.0
RippleSynchronizer.notifyLink,0.0,0.0,0.0,0.0,0.0
RippleSynchronizer.waitForLink,0.0,0.0,0.0,0.0,0.0
RippleSynchronizer.waitForNeighbors,0.0,0.0,0.0,0.0,0.0
SPI$SPSReg.clearSPIF,0.0,0.0,0.0,0.0,0.0
StreamEncoder.flushBuffer,0.0,0.0,0.0,0.0,0.0
String.format,0.0,0.031943846089433736,0.0,0.0046649164876245795,0.036608762577058314
StringBuffer.append,0.0,0.0,0.0,0.0,0.0
TeeOutputStream.write,0.0369645606504298,0.0,0.004709312776271823,0.0,0.041673873426701626
UnixFileSystem.list,0.0,0.04542033333079113,0.0,0.0054600000000088285,0.05088033333079996
ZipFile$ZipFileInflaterInputStream.fill,0.0,0.04697666666712999,0.0,0.005635000000135429,0.05261166666726542
ZipInputStream.ensureOpen,0.0,0.048424384612679616,0.0,0.0075876923078444965,0.05601207692052411
