method,package1,package2,dram1,dram2,energy
AbstractStringBuilder,0.0,0.0659705802782506,0.0,0.010171462358121641,0.07614204263637224
ArrayList,0.0,0.020649436493133104,0.0,0.003067954137935482,0.023717390631068584
AtmelInterpreter,0.1109509943189964,0.10269721346455822,0.013145241477605976,0.014495597057211177,0.24128904631837178
AtmelInterpreter$SREGBehavior,0.0,0.0,0.0,0.0,0.0
Avrora,0.0,0.05011094448955735,0.0,0.007581023227181999,0.05769196771673935
Benchmark,0.0,0.06248842738944165,0.0,0.008967552052915835,0.07145597944235749
Buffer,0.0,0.03908389252557692,0.0,0.0053576040216262895,0.04444149654720321
BufferedInputStream,0.0,0.1906617643649451,0.0,0.024671397265896875,0.21533316163084198
BufferedOutputStream,0.0,0.05226826753430519,0.0,0.007475252088140652,0.05974351962244584
Chaperone,0.0,0.007763333333261672,0.0,0.0013145833333712488,0.00907791666663292
ClassLoader,0.0,0.09702969526907274,0.0,0.013756052827583671,0.11078574809665641
ClassPool,0.0,0.021787118144730184,0.0,0.002526245092229621,0.024313363236959804
CommandLineArgs,0.0,0.0,0.0,0.0,0.0
ConfigFileTokenManager,0.0,0.0209554426766174,0.0,0.003281329968868145,0.024236772645485544
CtClassType,0.0,0.0393400295261815,0.0,0.006643872412984458,0.04598390193916596
DataInputStream,0.0,0.04365452860284442,0.0,0.0059710528277984575,0.04962558143064288
Defaults,0.0,0.22231056815352868,0.0,0.033162725268086286,0.25547329342161496
DeltaQueue,0.0,0.056113979872606586,0.0,0.00774458612629447,0.06385856599890105
DerivedClock,0.0,0.0,0.0,0.0,0.0
DisabledAlgorithmConstraints$Constraints,0.0,0.0393400295261815,0.0,0.006643872412984458,0.04598390193916596
ELFLoader,0.0,0.049674624410578634,0.0,0.007374570315517981,0.05704919472609662
FileOutputStream,0.6850897812714924,1.1699218578770225,0.07676091242737836,0.16562852293452948,2.097401074510423
Harness,0.0,0.0,0.0,0.0,0.0
HashMap,0.09181981396994106,0.0,0.011288418650594802,0.0,0.10310823262053587
Inflater,0.0,0.560863147243665,0.0,0.07552645305287614,0.6363896002965412
JarFile,0.0,0.0514619565888397,0.0,0.005267911436053411,0.05672986802489311
JarVerifier,0.0,0.02531494118408343,0.0,0.003924961459289289,0.029239902643372718
LegacyDisassembler,0.0,0.039114923077786204,0.0,0.0048111538460664,0.04392607692385261
LegacyInstr$LDS,0.0,0.029691706103361287,0.0,0.0042181223038694525,0.03390982840723074
LegacyInstr$NOP,0.0,0.012471127273006873,0.0,0.0015376363636857026,0.014008763636692576
LegacyInterpreter,0.16078913823585028,0.19326247954547726,0.020159289215748118,0.027341586431563744,0.4015524934286394
LinkedList,0.04998111111086069,0.0,0.006827777777760747,0.0,0.056808888888621435
LinkedList$ListItr,0.0,0.0,0.0,0.0,0.0
MainClock,0.0,0.014234967741950025,0.0,0.0021106451612497275,0.016345612903199754
Medium$Probe$List,0.0,0.0,0.0,0.0,0.0
Medium$Receiver,0.0,0.09613033333152997,0.0,0.010899999999916568,0.10703033333144654
Mica2,0.0,0.09682199999709458,0.0,0.01207999999981742,0.108901999996912
MulticastFSMProbe,0.0,0.0,0.0,0.0,0.0
Object,0.2824016443574643,0.42089598299476416,0.03479509657386431,0.0600386673065923,0.7981313912326851
PrintStream,0.0,0.0,0.0,0.0,0.0
RWRegister,0.0,0.0,0.0,0.0,0.0
RandomAccessFile,0.0,0.03540671794661857,0.0,0.004986153846216322,0.04039287179283489
RegisterUtil$BoolView,0.0,0.0,0.0,0.0,0.0
RippleSynchronizer,0.10109733333428589,0.0,0.012185080645619847,0.0,0.11328241397990574
RippleSynchronizer$NotifyEvent,0.0,0.0,0.0,0.0,0.0
SPI,0.0,0.07127466999250445,0.0,0.009438898609914651,0.0807135686024191
SimAction,0.0,0.0640778251590726,0.0,0.010336653566311095,0.07441447872538369
StreamDecoder,0.0,0.02531494118408343,0.0,0.003924961459289289,0.029239902643372718
String,0.0,0.06030332592215752,0.0,0.007014482871325457,0.06731780879348298
StringBuffer,0.0,0.0,0.0,0.0,0.0
System,0.0,0.0,0.0,0.0,0.0
Throwable,0.0,0.05011094448955735,0.0,0.007581023227181999,0.05769196771673935
Timer8Bit$BufferedRegister,0.0,0.0,0.0,0.0,0.0
URLClassLoader,0.0,0.0640778251590726,0.0,0.010336653566311095,0.07441447872538369
UnixFileSystem,0.0,0.03299348602979483,0.0,0.004304034921961065,0.0372975209517559
