method,package1,package2,dram1,dram2,energy
AtmelInterpreter$IORegBehavior.read,0.0,0.0,0.0,0.0,0.0
AtmelInterpreter$SREGBehavior.write,0.0,0.0,0.0,0.0,0.0
AtmelInterpreter.commit,0.0,0.023735709524217302,0.0,0.0040773571428871945,0.027813066667104498
AtmelInterpreter.fireBeforeWrite,0.0,0.0,0.0,0.0,0.0
AtmelInterpreter.getRegisterByte,0.0,0.0,0.0,0.0,0.0
AtmelInterpreter.readSRAM,0.0,0.0,0.0,0.0,0.0
AtmelInterpreter.readVolatile,0.0,0.0,0.0,0.0,0.0
AtmelInterpreter.setSP,0.0607401666657097,0.0,0.005989374999899154,0.0,0.06672954166560885
AtmelInterpreter.writeRegisterByte,0.0,0.0,0.0,0.0,0.0
AtmelInterpreter.writeSRAM,0.0,0.0,0.0,0.0,0.0
AttributeInfo.<init>,0.0,0.010718633941684371,0.0,0.0012636757441459596,0.01198230968583033
Benchmark.fileFromInputStream,0.0,0.5952075861463642,0.0,0.08955401599119223,0.6847616021375564
Benchmark.unpackZipStream,0.0,0.05597404863256837,0.0,0.008186696378594975,0.06416074501116334
CC1000Radio$Receiver.nextByte,0.0,0.021634224673726467,0.0,0.00293256659378484,0.02456679126751131
CC1000Radio.getPower,0.0,0.0,0.0,0.0,0.0
Chaperone.<init>,0.0,0.0,0.0,0.0,0.0
Chaperone.main,0.0,0.0698172452230543,0.0,0.012835385691264358,0.08265263091431865
ClassPool.makeClass,0.0,0.029161960855008176,0.0,0.004584105092089128,0.0337460659470973
CodeAttribute.<init>,0.0,0.08692558728633323,0.0,0.013407720863973776,0.10033330815030701
CodeSegment.load,0.0,0.05867511110975303,0.0,0.006369999999959771,0.0650451111097128
ConfigFile.<init>,0.0,0.07368337585578813,0.0,0.010506038778006474,0.0841894146337946
ConstPool.read,0.0,0.07368337585578813,0.0,0.010506038778006474,0.0841894146337946
DacapoClassLoader.loadClass,0.0,0.23540195508674183,0.0,0.0309240520664451,0.26632600715318694
DefaultMCU$Pin.write,0.0,0.017951567346653045,0.0,0.0030650816326298663,0.02101664897928291
DeltaQueue$EventList.<init>,0.0,0.0,0.0,0.0,0.0
DeltaQueue.advance,0.0,0.0,0.0,0.0,0.0
DeltaQueue.free,0.0,0.0,0.0,0.0,0.0
DeltaQueue.newEventList,0.0860113939393848,0.0,0.009083636363467314,0.0,0.09509503030285212
DeltaQueue.skipAhead,0.0,0.0,0.0,0.0,0.0
DerivedClock.insertEvent,0.0,0.0,0.0,0.0,0.0
ELFDataInputStream.read_1,0.0,0.07704383907469736,0.0,0.008896864527517699,0.08594070360221506
ELFStringTable.getString,0.0,0.05147367187952556,0.0,0.006946918913979596,0.05842059079350516
Launcher$AppClassLoader.loadClass,0.0,0.08790970551740902,0.0,0.01182542699311581,0.09973513251052483
LegacyArchitecture.getDisassembler,0.0,0.0703257934020959,0.0,0.010516744400400277,0.08084253780249617
LegacyDisassembler.decode_BRMI_0,0.0,0.05377269539788116,0.0,0.00724561882336414,0.061018314221245304
LegacyDisassembler.decode_STD_0,0.0,0.05377269539788116,0.0,0.00724561882336414,0.061018314221245304
LegacyInstr$DEC.accept,0.0,0.0,0.0,0.0,0.0
LegacyInstr$POP.accept,0.0,0.0,0.0,0.0,0.0
LegacyInstr$PUSH.accept,0.0,0.0,0.0,0.0,0.0
LegacyInterpreter.fastLoop,0.1058971719177689,0.02294111976503086,0.011604079659134,0.00383597304169003,0.1442783443836238
LegacyInterpreter.low,0.0,0.0,0.0,0.0,0.0
LegacyInterpreter.runLoop,0.052226980392565465,0.0,0.005068235293911843,0.0,0.05729521568647731
LegacyInterpreter.visit,0.1053900995321093,0.0,0.011455490146890457,0.0,0.11684558967899976
LegacyRegister.getNumber,0.0,0.0,0.0,0.0,0.0
MainClock.advance,0.0,0.0,0.0,0.0,0.0
MainClock.getCount,0.0,0.0,0.0,0.0,0.0
Medium$Receiver$Ticker.deliverByte,0.0,0.0,0.0,0.0,0.0
Medium$Receiver.earliestNewTransmission,0.050638806401699855,0.03794969963218839,0.006158855668850378,0.00519193933065104,0.09993930103338966
Medium$Receiver.waitForNeighbors,0.0,0.0675689523812339,0.0,0.008588571428498695,0.07615752380973259
MulticastFSMProbe.fireBeforeTransition,0.0,0.0,0.0,0.0,0.0
NativeConstructorAccessorImpl.newInstance0,0.0,0.03980831692746452,0.0,0.005833521737026742,0.04564183866449126
PacketMonitor$Mon.fireAfterReceiveEnd,0.0,0.0,0.0,0.0,0.0
PacketMonitor$Mon.renderPacket,0.0,0.0,0.0,0.0,0.0
RegisterUtil$BoolView.setValue,0.07904227429687148,0.0,0.010585839666361648,0.0,0.08962811396323313
Resource.getByteBuffer,0.0,0.035921560763209195,0.0,0.004664310828236156,0.040585871591445354
Resource.getBytes,0.0,0.1076503353335731,0.0,0.014858875068995763,0.12250921040256886
RippleSynchronizer$NotifyEvent.currentWaitLink,0.0,0.0,0.0,0.0,0.0
RippleSynchronizer.advance,0.036474651561240086,0.0,0.004907469104540023,0.0,0.041382120665780106
RippleSynchronizer.notifyLink,0.0800634517310426,0.0,0.009243613008059082,0.0,0.08930706473910167
RippleSynchronizer.waitForLink,0.734074588877401,0.711485579963853,0.08740014523408611,0.09530477425468623,1.628265088330026
RippleSynchronizer.waitForNeighbors,0.0,0.02705930115307686,0.0,0.003508861292852213,0.030568162445929074
SPI$SPDReg$TransmitRegister.write,0.0,0.0,0.0,0.0,0.0
SPI$SPSReg.clearSPIF,0.0,0.0,0.0,0.0,0.0
SPI.receive,0.0,0.0,0.0,0.0,0.0
SimPrinter.printBuffer,0.0,0.0,0.0,0.0,0.0
StringUtil.readDecimalString,0.0,0.06790001886066474,0.0,0.010522092407289548,0.07842211126795429
StringUtil.to0xHex,0.0,0.06320755707197237,0.0,0.008735401174712202,0.07194295824668458
StringUtil.toHex,0.0,0.0,0.0,0.0,0.0
TeeOutputStream.write,0.5548265440764463,0.4304040397765788,0.06516754690366694,0.060914849250630954,1.1113129800073231
TestHarness.rmdir,0.0,0.007367404757966844,0.0,0.0008955884456728412,0.008262993203639685
Timer8Bit$Mode_CTC.fire,0.0,0.0,0.0,0.0,0.0
USART$Transmitter.<init>,0.0,0.10373266666687816,0.0,0.01184333333367249,0.11557600000055065
