method,package1,package2,dram1,dram2,energy
avrora.arch.legacy,0.08489412307292452,0.3184355209998245,0.011418862842712086,0.048105164872545896,0.46285367178800696
avrora.sim,0.08981854017497204,0.24984819312102102,0.01046818707561252,0.03657589285647566,0.38671081322808126
avrora.sim.clock,0.10535829024199363,0.2744765427399752,0.01309222955922823,0.04009955128244616,0.43302661382364316
avrora.sim.mcu,0.0,0.022498276014227474,0.0,0.0034853961399844186,0.025983672154211893
avrora.sim.output,0.05304391923160405,0.0,0.008436337342380662,0.0,0.06148025657398471
avrora.sim.radio,0.06068563407249559,0.0,0.006759989079750365,0.0,0.06744562315224595
avrora.sim.util,0.04907783888835066,0.0,0.005085586032046592,0.0,0.05416342492039725
cck.text,0.0,0.012163428571684995,0.0,0.0017764285714206164,0.01393985714310561
cck.util,0.0,0.04364020833539446,0.0,0.006843749999916327,0.05048395833531079
chappie,0.0,0.0,0.0,0.0,0.0
javassist,0.0,0.009707476190496457,0.0,0.0012235714284976153,0.010931047618994072
javassist.bytecode,0.0,0.06709011594057959,0.0,0.009144347826198402,0.07623446376677799
org.dacapo.harness,0.0,0.0,0.0,0.0,0.0
org.dacapo.parser,0.0,0.14367700000002515,0.0,0.02192500000031335,0.1656020000003385
sun.misc,0.0,0.047094347827057216,0.0,0.005241739130249936,0.052336086957307154
sun.nio.cs,0.0,0.0,0.0,0.0,0.0
