method,package1,package2,dram1,dram2,energy
avrora.arch.legacy,0.23305741103232686,0.1767561082507132,0.02686833795364702,0.02613501305459799,0.46281687029128504
avrora.monitors,0.0,0.0,0.0,0.0,0.0
avrora.sim,0.11464556660674978,0.19850296667909856,0.014153103821332226,0.032040816320979784,0.35934245342816035
avrora.sim.clock,0.017358333333201394,0.01949640693716339,0.0019219999998313145,0.002922750579415461,0.04169949084961156
avrora.sim.mcu,0.0,0.0,0.0,0.0,0.0
avrora.sim.radio,0.02444268749979983,0.0472838170442571,0.002805000000421387,0.0071145402604745325,0.08164604480495286
avrora.sim.state,0.0,0.0,0.0,0.0,0.0
javassist.bytecode,0.02629933333325122,0.0,0.0036400000004101047,0.0,0.029939333333661323
org.dacapo.harness,0.09187827777794963,0.0,0.012038750000657374,0.0,0.10391702777860701
sun.net.www,0.03412883333415569,0.0,0.00548499999968044,0.0,0.039613833333836126
sun.nio.cs,0.02828136111020285,0.0,0.003173333333102669,0.0,0.03145469444330552
sun.security.util,0.02715107843031029,0.0,0.003936470588158437,0.0,0.031087549018468726
