method,package1,package2,dram1,dram2,energy
Arrays.copyOfRange|String.<init>|DataInputStream.readUTF,0.06998606913591543,0.0,0.00795355555574919,0.0,0.07793962469166463
BufferedInputStream.read|DataInputStream.readFully|DataInputStream.readFully,0.046209177778412894,0.0,0.004923333333459191,0.0,0.051132511111872087
ClassLoader.defineClass1|ClassLoader.defineClass|SecureClassLoader.defineClass,0.1075616158736444,0.0,0.012081071428208759,0.0,0.11964268730185317
FileOutputStream.close0|FileOutputStream.access$000|FileOutputStream$1.close,0.08088013888825824,0.0,0.010435833333202835,0.0,0.09131597222146107
FileOutputStream.open0|FileOutputStream.open|FileOutputStream.<init>,0.14577526111073288,0.0,0.020733916667197462,0.0,0.16650917777793034
FileOutputStream.writeBytes|FileOutputStream.write|BufferedOutputStream.flushBuffer,0.08088013888825824,0.0,0.010435833333202835,0.0,0.09131597222146107
FileOutputStream.writeBytes|FileOutputStream.write|BufferedOutputStream.write,0.04093955555646163,0.0,0.0058373333333292966,0.0,0.046776888889790924
FileOutputStream.write|FileOutputStream.write|TeeOutputStream.write,0.5354407210951624,0.3301473084439628,0.0697618404456406,0.04859754771642199,0.9839474177011878
HashMap.getNode|HashMap.get|RippleSynchronizer.waitForNeighbors,0.050824304410016174,0.0,0.006595141502949412,0.0,0.057419445912965585
Inflater.inflateBytes|Inflater.inflate|InflaterInputStream.read,0.23595230555450444,0.0,0.029844583333488117,0.0,0.2657968888879926
JarFile.initializeVerifier|JarFile.getInputStream|URLClassPath$JarLoader$2.getInputStream,0.05684758333316293,0.0,0.006976666666913742,0.0,0.06382425000007667
LinkedList.isPositionIndex|LinkedList.checkPositionIndex|LinkedList.listIterator,0.0,0.0,0.0,0.0,0.0
LinkedList.listIterator|AbstractList.listIterator|AbstractSequentialList.iterator,0.07330333333084127,0.0,0.009554999999333328,0.0,0.0828583333301746
Object.notifyAll|RippleSynchronizer.notifyLink|RippleSynchronizer.advance,0.047226622596624045,0.015588912313476288,0.00634471153836977,0.002104364214808406,0.07126461066327851
Object.wait|Object.wait|RippleSynchronizer.waitForLink,0.4502041998819328,0.287071646987937,0.056881852310502495,0.04243955738306422,0.8365972565634365
RandomAccessFile.read0|RandomAccessFile.read|ELFDataInputStream.read_1,0.019317583333759103,0.0,0.002035000000129609,0.0,0.021352583333888713
String.indexOf|String.indexOf|String.indexOf,0.04750465439130345,0.0,0.006613142694529697,0.0,0.05411779708583314
StringBuffer.append|StringUtil.space|StringUtil.justify,0.0,0.0,0.0,0.0,0.0
System.nanoTime|ClassLoader.loadClass|Launcher$AppClassLoader.loadClass,0.0,0.0,0.0,0.0,0.0
URLStreamHandler.getHostAddress|URLStreamHandler.hostsEqual|Handler.hostsEqual,0.029309238095915388,0.0,0.00368107142847813,0.0,0.03299030952439352
UnixFileSystem.delete0|UnixFileSystem.delete|File.delete,0.07314066666731378,0.0,0.010940000000725071,0.0,0.08408066666803884
UnixFileSystem.getBooleanAttributes0|UnixFileSystem.getBooleanAttributes|File.exists,0.02113439999941167,0.0,0.0022913333334549355,0.0,0.023425733332866606
UnixFileSystem.getBooleanAttributes0|UnixFileSystem.getBooleanAttributes|File.isDirectory,0.07314066666731378,0.0,0.010940000000725071,0.0,0.08408066666803884
ZipFile$ZipFileInputStream.read|ZipFile$ZipFileInflaterInputStream.fill|InflaterInputStream.read,0.015697654761381616,0.0,0.002695000000044057,0.0,0.018392654761425674
