method,package1,package2,dram1,dram2,energy
avrora.arch.legacy,0.26351425184244365,0.20081230396288907,0.0281278050999363,0.028843955088818585,0.5212983159940876
avrora.monitors,0.0,0.0,0.0,0.0,0.0
avrora.sim,0.0607401666657097,0.08241082063397033,0.005989374999899154,0.010447357142846964,0.15958771944242617
avrora.sim.clock,0.12248604550062489,0.08261867028990008,0.013991105468007338,0.010654387039351522,0.2297502082978838
avrora.sim.mcu,0.0,0.1216842340135312,0.0,0.014908414966302356,0.13659264897983356
avrora.sim.output,0.0,0.0,0.0,0.0,0.0
avrora.sim.radio,0.050638806401699855,0.12715287668714875,0.006158855668850378,0.016713077352934574,0.20066361611063355
avrora.sim.state,0.07904227429687148,0.0,0.010585839666361648,0.0,0.08962811396323313
avrora.sim.util,0.0,0.0,0.0,0.0,0.0
cck.text,0.0,0.06320755707197237,0.0,0.008735401174712202,0.07194295824668458
java.io,0.5548265440764463,1.0370890780291522,0.06516754690366694,0.14908758491095195,1.8061707539202172
java.lang,0.8141380406084435,1.0715522610182941,0.09664375824214519,0.14486887759616474,2.1272029374650474
java.util,0.0,0.08099349219027249,0.0,0.012812182595168621,0.0938056747854411
java.util.regex,0.0,0.03490862261152715,0.0,0.006417692845632179,0.04132631545715933
java.util.zip,0.0,0.3443387893499538,0.0,0.05058917799517716,0.39492796734513097
javassist.bytecode,0.0,0.07368337585578813,0.0,0.010506038778006474,0.0841894146337946
org.dacapo.harness,0.0,0.0,0.0,0.0,0.0
org.dacapo.parser,0.0,0.07368337585578813,0.0,0.010506038778006474,0.0841894146337946
sun.misc,0.0,0.035921560763209195,0.0,0.004664310828236156,0.040585871591445354
sun.reflect,0.0,0.03980831692746452,0.0,0.005833521737026742,0.04564183866449126
