method,package1,package2,dram1,dram2,energy
Arithmetic,0.0,0.0,0.0,0.0,0.0
AtmelInterpreter,0.08737954440703244,0.170047213336026,0.009766796820173573,0.024625800000091354,0.29181935456332336
AttributeInfo,0.0,0.03381284993188603,0.0,0.00490418847046475,0.03871703840235078
BufferedInputStream,0.0,0.02768560000113212,0.0,0.004121999999915716,0.031807600001047834
CC1000Radio$SPITicker,0.0,0.0,0.0,0.0,0.0
ClassLoader,0.0,0.1412301483003139,0.0,0.021592202918478208,0.16282235121879213
Clock,0.0,0.0,0.0,0.0,0.0
ClockCycleTimeout,0.0,0.0,0.0,0.0,0.0
CommandLineArgs,0.0,0.0,0.0,0.0,0.0
CtMember$Cache,0.0,0.0,0.0,0.0,0.0
DefaultMCU$Pin,0.012358518518373815,0.0,0.001409999999951752,0.0,0.013768518518325567
Defaults,0.0,0.13386908884662288,0.0,0.01892582426675566,0.15279491311337853
DeltaQueue,0.030033500914695574,0.0,0.004755276990954896,0.0,0.03478877790565047
DeltaQueue$EventList,0.0,0.0,0.0,0.0,0.0
DerivedClock,0.0,0.025942394154928952,0.0,0.004007782708796885,0.029950176863725836
ELFParser,0.0,0.0,0.0,0.0,0.0
FileOutputStream,0.5584875198805199,1.2754496082237134,0.06949647866003072,0.18937462821198325,2.092808234976247
FiniteStateMachine,0.0,0.0,0.0,0.0,0.0
Float,0.0,0.0366959620131601,0.0,0.007718996045627601,0.0444149580587877
HashMap,0.14222642727280882,0.0,0.01928331818243433,0.0,0.16150974545524316
Inflater,0.0,0.37743999999495115,0.0,0.049344666666729604,0.42678466666168074
JarFile,0.0,0.02578933333279565,0.0,0.0038160000001274358,0.029605333332923086
JarFile$JarFileEntry,0.0,0.015543555556279088,0.0,0.001813333333201525,0.01735688888948061
LegacyDisassembler,0.0,0.06419059438285167,0.0,0.007529996862302666,0.07172059124515434
LegacyInstr$PUSH,0.0,0.0,0.0,0.0,0.0
LegacyInstr$SBIW,0.008366370370452016,0.0,0.0009311111110340181,0.0,0.009297481481486035
LegacyInterpreter,0.16333155599543578,0.1049776973683795,0.018602702579705418,0.018632379736370462,0.30554433567989114
LinkedList,0.0,0.0,0.0,0.0,0.0
Long,0.0,0.0,0.0,0.0,0.0
Main,0.0,0.02578933333279565,0.0,0.0038160000001274358,0.029605333332923086
MainClock,0.0,0.0,0.0,0.0,0.0
Medium$Receiver,0.11149786051891197,0.0,0.014662081255084378,0.0,0.12615994177399636
Medium$Receiver$Ticker,0.0583002016870265,0.0,0.006349370098089771,0.0,0.06464957178511627
MulticastFSMProbe,0.0,0.0,0.0,0.0,0.0
Object,0.507754605089081,0.5210743419165307,0.06180534072011761,0.06945283577868962,1.1600871235044188
PacketMonitor$Mon,0.0,0.0,0.0,0.0,0.0
RegisterUtil$BoolView,0.0,0.0,0.0,0.0,0.0
RippleSynchronizer,0.11263401964944891,0.03173669302006345,0.013838637910141774,0.004707440207685269,0.1629167907873394
RippleSynchronizer$NotifyEvent,0.0,0.0,0.0,0.0,0.0
SPI,0.0,0.0,0.0,0.0,0.0
SimPrinter,0.0,0.0,0.0,0.0,0.0
String,0.0,0.03842565309928955,0.0,0.006132593080126486,0.04455824617941604
TeeOutputStream,0.0,0.0,0.0,0.0,0.0
TestHarness,0.0,0.0,0.0,0.0,0.0
Timer8Bit$Mode_CTC,0.047628425844240416,0.0,0.00530872515490544,0.0,0.05293715099914586
URLClassLoader,0.0,0.05075804331259216,0.0,0.007871014385822411,0.058629057698414574
USART$ControlRegisterA,0.0,0.0342195943611409,0.0,0.004092650876603592,0.03831224523774449
UnixFileSystem,0.0,0.16144488889323028,0.0,0.019516666666782433,0.1809615555600127
Version,0.0,0.13386908884662288,0.0,0.01892582426675566,0.15279491311337853
WeakHashMap,0.0,0.026489333333059528,0.0,0.004381999999895925,0.030871333332955452
ZipFile,0.0,0.059651777775595986,0.0,0.008456666666461388,0.06810844444205738
ZipFile$ZipEntryIterator,0.0,0.09246799999770396,0.0,0.012435000000550644,0.1049029999982546
