method,package1,package2,dram1,dram2,energy
avrora.arch.legacy,0.14374103826589849,0.5270050017267631,0.01849589251816231,0.07558342878097589,0.7648253612917998
avrora.sim,0.12332149999929246,0.08809042296322611,0.013815000001159206,0.013127100925747374,0.23835402388942514
avrora.sim.clock,0.1422764923053601,0.1377766971484253,0.014578747252537955,0.020198687590072293,0.3148306242963957
avrora.sim.mcu,0.0,0.0,0.0,0.0,0.0
avrora.sim.output,0.0,0.0,0.0,0.0,0.0
avrora.sim.radio,0.0,0.02381423225733377,0.0,0.003289451612973579,0.02710368387030735
avrora.sim.util,0.10168095435980276,0.0,0.012264581861274793,0.0,0.11394553622107756
avrora.syntax.elf,0.0,0.06711611111111576,0.0,0.007633333333514102,0.07474944444462986
cck.elf,0.0,0.05297833333271696,0.0,0.006961818181893746,0.059940151514610705
cck.util,0.0,0.0,0.0,0.0,0.0
chappie,0.0,0.07503762699755456,0.0,0.012948105277698086,0.08798573227525265
java.io,0.47564847424216555,1.5605756884455626,0.05743875136168408,0.22863920866159335,2.3223021227110054
java.lang,0.5485947363669588,0.9268911261250941,0.06379495121166119,0.13298000838226465,1.6722608220859785
java.security,0.0,0.0025589182394858355,0.0,0.00028226415085995794,0.0028411823903457933
java.util,0.047824874999605534,0.07806454179983745,0.006091874999924586,0.010990363197785612,0.1429716549971532
java.util.concurrent,0.0,0.025001791508338762,0.0,0.0037483579555424224,0.028750149463881186
java.util.regex,0.0,0.05094452009986255,0.0,0.0072394391581319705,0.05818395925799452
java.util.zip,0.0,0.3153438259965587,0.0,0.043459729022698394,0.3588035550192571
org.dacapo.harness,0.0,0.02630704864789529,0.0,0.004164222192054596,0.030471270839949886
