method,package1,package2,dram1,dram2,energy
Arithmetic.roundup|Medium$Transmission.<init>|Medium.newTransmission,0.0,0.0,0.0,0.0,0.0
AtmelInterpreter.commit|LegacyInterpreter.fastLoop|LegacyInterpreter.runLoop,0.07502102588865862,0.1180550533341011,0.00835679682022182,0.015198799999998298,0.21663167604297984
AtmelInterpreter.getRegisterByte|AtmelInterpreter.getRegisterWord|LegacyInterpreter.visit,0.0,0.0,0.0,0.0,0.0
AtmelInterpreter.getSP|AtmelInterpreter.pushByte|LegacyInterpreter.visit,0.0,0.051992160001924886,0.0,0.009427000000093055,0.06141916000201794
AtmelInterpreter.pushByte|LegacyInterpreter.visit|LegacyInstr$PUSH.accept,0.0,0.0,0.0,0.0,0.0
AtmelInterpreter.readVolatile|AtmelInterpreter.readSRAM|AtmelInterpreter.getIORegisterByte,0.0,0.0,0.0,0.0,0.0
AtmelInterpreter.setIORegBit|LegacyInterpreter.visit|LegacyInstr$CBI.accept,0.012358518518373815,0.0,0.001409999999951752,0.0,0.013768518518325567
AtmelInterpreter.setSP|AtmelInterpreter.popByte|LegacyInterpreter.visit,0.0,0.0,0.0,0.0,0.0
AtmelInterpreter.writeRegisterByte|LegacyInterpreter.visit|LegacyInstr$AND.accept,0.0,0.0,0.0,0.0,0.0
AtmelInterpreter.writeRegisterByte|LegacyInterpreter.visit|LegacyInstr$POP.accept,0.0,0.0,0.0,0.0,0.0
AttributeInfo.read|ClassFile.read|ClassFile.<init>,0.0,0.03381284993188603,0.0,0.00490418847046475,0.03871703840235078
BufferedInputStream.read|DataInputStream.readUnsignedShort|ClassInfo.<init>,0.0,0.02768560000113212,0.0,0.004121999999915716,0.031807600001047834
BufferedInputStream.read|DataInputStream.readUnsignedShort|FieldInfo.read,0.0,0.0,0.0,0.0,0.0
CC1000Radio$SPITicker.fire|DeltaQueue$Link.fire|DeltaQueue.skipAhead,0.0,0.0,0.0,0.0,0.0
ClassLoader.defineClass1|ClassLoader.defineClass|SecureClassLoader.defineClass,0.0,0.1412301483003139,0.0,0.021592202918478208,0.16282235121879213
Clock.cyclesToMillis|Medium$Receiver$Ticker.deliverByte|Medium$Receiver$Ticker.fireLocked,0.0,0.0,0.0,0.0,0.0
ClockCycleTimeout.fire|DeltaQueue$Link.fire|DeltaQueue.skipAhead,0.0,0.0,0.0,0.0,0.0
CommandLineArgs.<clinit>|TestHarness.main|Harness.main,0.0,0.0,0.0,0.0,0.0
CtMember$Cache.addField|CtClassType.makeFieldCache|CtClassType.getMembers,0.0,0.0,0.0,0.0,0.0
DefaultMCU$Pin.write|ATMegaFamily$PortRegister.write|AtmelInterpreter$IORegBehavior.write,0.012358518518373815,0.0,0.001409999999951752,0.0,0.013768518518325567
Defaults.addActions|Defaults.getAction|Main.runAction,0.0,0.13386908884662288,0.0,0.01892582426675566,0.15279491311337853
DeltaQueue$EventList.<init>|DeltaQueue.newEventList|DeltaQueue.access$000,0.0,0.0,0.0,0.0,0.0
DeltaQueue.advance|MainClock.advance|AtmelInterpreter.commit,0.030033500914695574,0.0,0.004755276990954896,0.0,0.03478877790565047
DeltaQueue.free|DeltaQueue.skipAhead|MainClock.skipAhead,0.0,0.0,0.0,0.0,0.0
DeltaQueue.insertEvent|MainClock.insertEvent|CC1000Radio$SPITicker.fire,0.0,0.0,0.0,0.0,0.0
DeltaQueue.newEventList|DeltaQueue.access$000|DeltaQueue$Link.add,0.0,0.0,0.0,0.0,0.0
DeltaQueue.newLink|DeltaQueue.insertAfter|DeltaQueue.insertEvent,0.0,0.0,0.0,0.0,0.0
DeltaQueue.skipAhead|MainClock.skipAhead|LegacyInterpreter.sleepLoop,0.0,0.0,0.0,0.0,0.0
DerivedClock.insertEvent|Timer8Bit.tickerFinish|Timer8Bit.access$100,0.0,0.025942394154928952,0.0,0.004007782708796885,0.029950176863725836
ELFParser.read|Defaults$AutoProgramReader.read|Main.loadProgram,0.0,0.0,0.0,0.0,0.0
FileOutputStream.<init>|FileOutputStream.<init>|Benchmark.fileFromInputStream,0.0,0.08203133333396788,0.0,0.010954999999739812,0.09298633333370769
FileOutputStream.open0|FileOutputStream.open|FileOutputStream.<init>,0.0,0.32263173332709505,0.0,0.04340700000041882,0.36603873332751385
FileOutputStream.writeBytes|FileOutputStream.write|BufferedOutputStream.flushBuffer,0.0,0.08009833333683976,0.0,0.0109599999996135,0.09105833333645326
FileOutputStream.writeBytes|FileOutputStream.write|BufferedOutputStream.write,0.0,0.04869266666678918,0.0,0.007306666666409002,0.05599933333319818
FileOutputStream.write|FileOutputStream.write|TeeOutputStream.write,0.5584875198805199,0.7419955415590216,0.06949647866003072,0.11674596154580212,1.4867255016453744
FiniteStateMachine.transition|AtmelMicrocontroller.wakeup|LegacyInterpreter.leaveSleepMode,0.0,0.0,0.0,0.0,0.0
Float.isInfinite|StringUtil.toFixedFloat|PacketMonitor$Mon.appendTime,0.0,0.0366959620131601,0.0,0.007718996045627601,0.0444149580587877
HashMap.getNode|HashMap.get|RippleSynchronizer.waitForNeighbors,0.14222642727280882,0.0,0.01928331818243433,0.0,0.16150974545524316
HashMap.hash|HashMap.get|RippleSynchronizer.waitForNeighbors,0.0,0.0,0.0,0.0,0.0
Inflater.inflateBytes|Inflater.inflate|InflaterInputStream.read,0.0,0.37743999999495115,0.0,0.049344666666729604,0.42678466666168074
JarFile$JarFileEntry.getCodeSigners|URLClassPath$JarLoader$2.getCodeSigners|URLClassLoader.defineClass,0.0,0.015543555556279088,0.0,0.001813333333201525,0.01735688888948061
JarFile.initializeVerifier|JarFile.getInputStream|URLClassPath$JarLoader$2.getInputStream,0.0,0.02578933333279565,0.0,0.0038160000001274358,0.029605333332923086
LegacyDisassembler.getReg|LegacyDisassembler.decode_MOVW_0|LegacyDisassembler.decode_30,0.0,0.06419059438285167,0.0,0.007529996862302666,0.07172059124515434
LegacyInstr$PUSH.accept|LegacyInterpreter.fastLoop|LegacyInterpreter.runLoop,0.0,0.0,0.0,0.0,0.0
LegacyInstr$SBIW.accept|LegacyInterpreter.fastLoop|LegacyInterpreter.runLoop,0.008366370370452016,0.0,0.0009311111110340181,0.0,0.009297481481486035
LegacyInterpreter.fastLoop|LegacyInterpreter.runLoop|AtmelInterpreter.start,0.16333155599543578,0.028051700000651183,0.018602702579705418,0.005706000000100176,0.21569195857589257
LegacyInterpreter.runLoop|AtmelInterpreter.start|Simulator.start,0.0,0.0,0.0,0.0,0.0
LegacyInterpreter.sleepLoop|LegacyInterpreter.runLoop|AtmelInterpreter.start,0.0,0.0,0.0,0.0,0.0
LegacyInterpreter.visit|LegacyInstr$AND.accept|LegacyInterpreter.fastLoop,0.0,0.0,0.0,0.0,0.0
LegacyInterpreter.visit|LegacyInstr$EOR.accept|LegacyInterpreter.fastLoop,0.0,0.0,0.0,0.0,0.0
LegacyInterpreter.visit|LegacyInstr$NOP.accept|LegacyInterpreter.fastLoop,0.0,0.0,0.0,0.0,0.0
LegacyInterpreter.visit|LegacyInstr$ORI.accept|LegacyInterpreter.fastLoop,0.0,0.07692599736772832,0.0,0.012926379736270288,0.0898523771039986
LegacyInterpreter.visit|LegacyInstr$PUSH.accept|LegacyInterpreter.fastLoop,0.0,0.0,0.0,0.0,0.0
LegacyInterpreter.visit|LegacyInstr$SUB.accept|LegacyInterpreter.fastLoop,0.0,0.0,0.0,0.0,0.0
LinkedList.listIterator|AbstractList.listIterator|AbstractSequentialList.iterator,0.0,0.0,0.0,0.0,0.0
Long.getChars|Long.toString|StringUtil.justify,0.0,0.0,0.0,0.0,0.0
Main.<clinit>|Class.forName0|Class.forName,0.0,0.02578933333279565,0.0,0.0038160000001274358,0.029605333332923086
MainClock.advance|AtmelInterpreter.commit|LegacyInterpreter.fastLoop,0.0,0.0,0.0,0.0,0.0
MainClock.skipAhead|LegacyInterpreter.sleepLoop|LegacyInterpreter.runLoop,0.0,0.0,0.0,0.0,0.0
Medium$Receiver$Ticker.deliverByte|Medium$Receiver$Ticker.fireLocked|Medium$Receiver$Ticker.fire,0.0,0.0,0.0,0.0,0.0
Medium$Receiver$Ticker.fire|DeltaQueue$Link.fire|DeltaQueue.skipAhead,0.0583002016870265,0.0,0.006349370098089771,0.0,0.06464957178511627
Medium$Receiver.earliestNewTransmission|Medium$Receiver.access$100|Medium$Receiver$Ticker.fireUnlocked,0.05656283274030331,0.0,0.006934164588655749,0.0,0.06349699732895905
Medium$Receiver.getIntersection|Medium$Receiver.access$200|Medium$Receiver$Ticker.deliverByte,0.054935027778608654,0.0,0.00772791666642863,0.0,0.06266294444503728
MulticastFSMProbe.fireBeforeTransition|FiniteStateMachine.fireBefore|FiniteStateMachine.transition,0.0,0.0,0.0,0.0,0.0
Object.notifyAll|RippleSynchronizer.notifyLink|RippleSynchronizer.advance,0.025890884203582768,0.0,0.002815401892200613,0.0,0.028706286095783382
Object.wait|Object.wait|RippleSynchronizer.waitForLink,0.4818637208854982,0.5210743419165307,0.058989938827917,0.06945283577868962,1.1313808374086354
PacketMonitor$Mon.append|PacketMonitor$Mon.fireAfterReceive|Medium$Probe$List.fireAfterReceive,0.0,0.0,0.0,0.0,0.0
RegisterUtil$BoolView.getValue|SPI.receive|SPI.exchange,0.0,0.0,0.0,0.0,0.0
RippleSynchronizer$NotifyEvent.fire|DeltaQueue$Link.fire|DeltaQueue.skipAhead,0.0,0.0,0.0,0.0,0.0
RippleSynchronizer.advance|RippleSynchronizer.waitForNeighbors|Medium$Receiver.waitForNeighbors,0.09445514465002774,0.0,0.011535200409839621,0.0,0.10599034505986736
RippleSynchronizer.notifyLink|RippleSynchronizer.advance|RippleSynchronizer.waitForNeighbors,0.0,0.026596864179732598,0.0,0.0037507264410201256,0.030347590620752724
RippleSynchronizer.waitForLink|RippleSynchronizer.waitFor|RippleSynchronizer.waitForNeighbors,0.0,0.0,0.0,0.0,0.0
RippleSynchronizer.waitForNeighbors|Medium$Receiver.waitForNeighbors|Medium$Receiver.access$000,0.01817887499942117,0.00513982884033085,0.0023034375003021523,0.0009567137666651439,0.026578855106719312
SPI.receive|SPI.exchange|CC1000Radio$SPITicker.fire,0.0,0.0,0.0,0.0,0.0
SimPrinter.printBuffer|LEDMonitor$Mon.fireAfterTransition|MulticastFSMProbe.fireAfterTransition,0.0,0.0,0.0,0.0,0.0
String.format|Chaperone.main|end.end,0.0,0.0,0.0,0.0,0.0
String.length|Writer.write|BufferedWriter.newLine,0.0,0.03842565309928955,0.0,0.006132593080126486,0.04455824617941604
TeeOutputStream.write|FilterOutputStream.write|PrintStream.write,0.0,0.0,0.0,0.0,0.0
TestHarness.twoDecimalPlaces|TestHarness.<clinit>|Harness.main,0.0,0.0,0.0,0.0,0.0
Timer8Bit$Mode_CTC.fire|DeltaQueue$Link.fire|DeltaQueue.skipAhead,0.047628425844240416,0.0,0.00530872515490544,0.0,0.05293715099914586
URLClassLoader.defineClass|URLClassLoader.access$100|URLClassLoader$1.run,0.0,0.05075804331259216,0.0,0.007871014385822411,0.058629057698414574
USART$ControlRegisterA.<init>|USART.<init>|ATMega128.installDevices,0.0,0.0342195943611409,0.0,0.004092650876603592,0.03831224523774449
UnixFileSystem.delete0|UnixFileSystem.delete|File.delete,0.0,0.16144488889323028,0.0,0.019516666666782433,0.1809615555600127
Version.<clinit>|Main.title|Main.banner,0.0,0.13386908884662288,0.0,0.01892582426675566,0.15279491311337853
WeakHashMap.remove|ZipFile$ZipFileInflaterInputStream.close|Resource.getBytes,0.0,0.026489333333059528,0.0,0.004381999999895925,0.030871333332955452
ZipFile$ZipEntryIterator.nextElement|ZipFile$ZipEntryIterator.nextElement|JarFile$JarEntryIterator.next,0.0,0.09246799999770396,0.0,0.012435000000550644,0.1049029999982546
ZipFile.releaseInflater|ZipFile.access$100|ZipFile$ZipFileInflaterInputStream.close,0.0,0.059651777775595986,0.0,0.008456666666461388,0.06810844444205738
