method,package1,package2,dram1,dram2,energy
Arithmetic,0.0,0.12424078332862355,0.0,0.01822466110581308,0.14246544443443662
AtmelInterpreter,0.05962586669460576,0.07850197714402196,0.00816913793785343,0.010745529333359486,0.15704251110984063
AtmelInterpreter$IORegBehavior,0.0,0.0,0.0,0.0,0.0
AtmelInterpreter$SREGBehavior,0.0,0.0,0.0,0.0,0.0
Benchmark,0.0,0.07210144438271295,0.0,0.009490481619046176,0.08159192600175912
BufferedInputStream,0.0,0.09065705786585897,0.0,0.011743714707500186,0.10240077257335915
CC1000Radio$MainRegister,0.017172564444190356,0.0,0.002904733333408432,0.0,0.02007729777759879
Chaperone,0.0,0.09971777777860147,0.0,0.02210000000033889,0.12181777777894036
ClassLoader,0.0,0.09128511217834227,0.0,0.011025853442224384,0.10231096562056666
CodeSource,0.0,0.05497989473607096,0.0,0.007287631578947185,0.06226752631501815
ConcurrentHashMap,0.0,0.04987860767167258,0.0,0.006966086898751697,0.05684469457042427
Currency,0.0,0.0,0.0,0.0,0.0
DacapoClassLoader,0.0,0.02955685185076652,0.0,0.004044444444338701,0.03360129629510522
DefaultMCU$Pin,0.0,0.03987677957754086,0.0,0.005854592727785261,0.045731372305326125
DeltaQueue,0.0,0.07709287499938001,0.0,0.01131890625003962,0.08841178124941963
DeltaQueue$Link,0.0,0.0,0.0,0.0,0.0
ELFParser,0.0,0.006383568627700465,0.0,0.0007835294118016393,0.007167098039502104
ExternalFlash,0.0,0.048018790124505925,0.0,0.005435925925813074,0.053454716050319
FileOutputStream,0.4233099896567538,0.9450282877461538,0.05567010336841537,0.1280799421902586,1.5520883229615814
HashMap,0.04181771428557113,0.29807470455059293,0.006930000000076168,0.04123420454487986,0.38805662338112007
Inflater,0.0,0.5846234392715193,0.0,0.08405645740992579,0.6686798966814451
InterruptTable,0.0,0.0,0.0,0.0,0.0
LegacyArchitecture,0.0,0.022252105262228532,0.0,0.003237631579299647,0.02548973684152818
LegacyInstr,0.0,0.034587631578018,0.0,0.0052105263157021615,0.03979815789372016
LegacyInstr$SBIW,0.016423635555741688,0.0,0.002355466666655653,0.0,0.018779102222397343
LegacyInterpreter,0.20274475117486268,0.1296160769471943,0.0231370414386696,0.018184583964616096,0.3736824535253427
LegacyRegister,0.017172564444190356,0.0,0.002904733333408432,0.0,0.02007729777759879
MainClock,0.017700921212066657,0.015571564102490797,0.0027855757574816557,0.0018793406594380898,0.0379374017314772
Medium,0.0,0.0,0.0,0.0,0.0
Medium$Receiver,0.13077070062588328,0.0274266428574005,0.015604222733183265,0.003497142857278439,0.1772987090737455
Medium$Receiver$Ticker,0.0,0.0,0.0,0.0,0.0
Medium$TXRX,0.0,0.0,0.0,0.0,0.0
MulticastFSMProbe,0.071015442985642,0.0,0.00886187758453156,0.0,0.07987732057017355
Object,0.7747956259658402,0.2912897809527561,0.10182497110900804,0.03790197619078205,1.2058123542183863
Option$List,0.0,0.04987860767167258,0.0,0.006966086898751697,0.05684469457042427
Pattern,0.0,0.07682362516233887,0.0,0.011008684684504664,0.08783230984684354
Program,0.0,0.04293347368595852,0.0,0.005163157894697321,0.048096631580655844
RandomAccessFile,0.0,0.07264743589658815,0.0,0.011576923076902928,0.08422435897349108
Reference,0.0,0.0771146559041756,0.0,0.010407066394325594,0.08752172229850119
RippleSynchronizer,0.11997656354893625,0.0,0.01589386831508817,0.0,0.13587043186402442
RippleSynchronizer$NotifyEvent,0.0,0.0,0.0,0.0,0.0
SecureClassLoader,0.0,0.0054512745095873436,0.0,0.000721470588199308,0.0061727450977866515
SimPrinter,0.0,0.0,0.0,0.0,0.0
StringUtil,0.0,0.0,0.0,0.0,0.0
TeeOutputStream,0.0,0.0,0.0,0.0,0.0
Thread,0.0,0.05497989473607096,0.0,0.007287631578947185,0.06226752631501815
Throwable,0.0,0.002849509804018809,0.0,0.0004417647058860394,0.0032912745099048487
URLClassLoader,0.0,0.005301666666591522,0.0,0.0006408823529080322,0.005942549019499554
UTF_8$Encoder,0.0,0.0,0.0,0.0,0.0
UnixFileSystem,0.0,0.15599720832542585,0.0,0.021681325659365674,0.17767853398479153
Version,0.0,0.03862046236009629,0.0,0.006101896490580071,0.04472235885067636
ZipFile,0.0,0.03654394736804534,0.0,0.005186842105199742,0.04173078947324508
