method,dram1,package1,dram2,package2,energy
GraphChiEngine.initVertices,10.7760044519211,94.32469737775168,10.541570456115275,95.40427363392064,211.04654591970868
ChiVertex.<init>,10.087765150848139,73.56643118437447,9.681654170632553,69.20866622411447,162.54451672996967
GraphChiEngine$3.run,1.5743886658028052,12.230085368643744,8.891547378510468,73.79615806389407,96.49217947685109
