method,package1,package2,dram1,dram2,energy
chappie,0.0,0.0,0.0,0.0,0.0
com.sun.jmx.mbeanserver,0.0,0.13724477430328005,0.0,0.017090262926688707,0.15433503722996877
com.yammer.metrics.core,0.0,0.04121793268980116,0.0,0.005432826386511812,0.04665075907631297
com.yammer.metrics.reporting,0.0,0.0744026459796921,0.0,0.009448648376817692,0.08385129435650979
com.yammer.metrics.stats,0.0,0.08968563485284878,0.0,0.015065840010307655,0.10475147486315643
edu.cmu.graphchi,0.983578859844305,35.347766273711265,0.19081973437955288,4.701092846995013,41.223257714930135
edu.cmu.graphchi.apps,0.41276865169857024,0.14309196944936686,0.05740455160877218,0.024754642093719734,0.638019814850429
edu.cmu.graphchi.datablocks,0.4984838640326528,0.9353702278145594,0.06648889797587298,0.15804067692709176,1.6583836667501768
edu.cmu.graphchi.engine,6.251456167024351,2.980979996900413,0.7763458476528748,0.4889451858404603,10.497727197418099
edu.cmu.graphchi.engine.auxdata,3.848943171828729,3.0867885452815904,0.6314285747729739,0.5152133405344359,8.08237363241773
edu.cmu.graphchi.shards,0.0,0.006894886591053882,0.0,0.0012097673848976778,0.00810465397595156
javassist.bytecode,0.0,0.29860107888881393,0.0,0.03724308726167405,0.33584416615048795
javax.management,0.0,0.20834780894103624,0.0,0.027253644084048366,0.23560145302508462
org.slf4j.helpers,0.0,0.05970831740143549,0.0,0.008852783480315391,0.06856110088175088
sun.management,0.0,0.029894276870371578,0.0,0.003387217900279206,0.03328149477065078
sun.misc,0.0,0.04879428292861428,0.0,0.007802300507176252,0.05659658343579053
sun.reflect.annotation,0.0,0.10250014385999412,0.0,0.010925442597940462,0.11342558645793457
sun.reflect.generics.factory,0.0,0.10613971275947445,0.0,0.01176090060989231,0.11790061336936676
sun.util.locale.provider,0.0,0.11669703633663399,0.0,0.01699946836610955,0.13369650470274352
sun.util.resources,0.0,0.05392184126871677,0.0,0.007818193154001583,0.06174003442271835
ucar.unidata.io,0.005503499999273723,0.18712230777259947,0.0010000000002037268,0.034192024435080084,0.227817832207157
