method,package1,package2,dram1,dram2,energy
AnnotationParser$1,0.07083703703635061,0.0,0.007693333331392042,0.0,0.07853037036774266
BitsetScheduler,21.51268330989338,0.010953447519191698,2.366595469711178,0.0018622330732334619,23.892094460196983
Chaperone,0.0,0.0,0.0,0.0,0.0
ChiLogger,0.0,0.0,0.0,0.0,0.0
ChiPointer,0.005863336966610635,0.0,0.000717254550242333,0.0,0.006580591516852968
ChiVertex,3.3145260791573783,0.01336026622958963,0.4836428560393336,0.0018502828546974011,3.813379484280999
ConnectedComponents,0.6677127081364155,1.5176006342249075,0.105791307718143,0.21100874783403897,2.502113397913505
ConstPool,0.0,0.0,0.0,0.0,0.0
DataBlockManager,0.09313305985464704,0.2233878037102594,0.027330788156257037,0.03141285007285954,0.37526450179402304
DegreeData,1.6058248551235441,0.0,0.22491205257815236,0.0,1.8307369077016964
ExponentiallyDecayingSample,0.06972266666707581,0.0,0.010629999999461385,0.0,0.0803526666665372
GraphChiEngine,1.4171544030336478,0.0,0.2220409513046369,0.0,1.6391953543382847
GraphChiEngine$2,0.0,0.01141040381408931,0.0,0.0020423503089266044,0.013452754123015914
GraphChiEngine$3,0.11287713808060629,0.21814011124640786,0.022785484033655042,0.027761289590128597,0.3815640229507978
ImmutableDescriptor,0.12455233333215193,0.0,0.022040000001046185,0.0,0.14659233333319813
IntConverter,0.05295028775342556,0.049391434421247264,0.00787957124042105,0.007625322938158218,0.1178466163532521
Introspector,0.08722162963089498,0.0,0.009702222223428113,0.0,0.09692385185432309
JmxMBeanServer,0.054707999998451357,0.0,0.009660000000925113,0.0,0.06436799999937647
LocaleServiceProviderPool,0.09464533333327077,0.0,0.010835000000952277,0.0,0.10548033333422305
MBeanServerBuilder,0.0669963333348278,0.0,0.010999999998603016,0.0,0.07799633333343081
MBeanServerDelegate,0.13684066666852837,0.0,0.023379999998724088,0.0,0.16022066666725246
MXBeanSupport,0.0694231428580159,0.0,0.009342857141746208,0.0,0.07876599999976211
MemberrefInfo,0.0,0.0,0.0,0.0,0.0
NOPLoggerFactory,0.05224599999928613,0.0,0.00729000000137603,0.0,0.059536000000662156
ParallelListResourceBundle,0.07244866666587768,0.0,0.012380000000121072,0.0,0.08482866666599875
RandomAccessFile,0.3197946028383676,0.012107756757615712,0.056121843718838695,0.0017200193577110302,0.38974422267253306
SignatureParser,0.0745623703696765,0.0,0.008515555556018458,0.0,0.08307792592569496
URLClassPath$FileLoader,0.08607999999852231,0.0,0.009600000000015521,0.0,0.09567999999853784
Utf8Info,0.0667315555555332,0.0,0.00853333333334713,0.0,0.07526488888888033
Util,0.09547933333427258,0.0,0.010940000000118744,0.0,0.10641933333439133
VertexAggregator,0.0,0.023490949195604148,0.0,0.0037400690801790114,0.02723101827578316
VertexData,1.909143523381609,0.0,0.25333769096278147,0.0,2.1624812143443903
VertexData$1,0.0,0.02230192997529396,0.0,0.0033172799469983858,0.025619209922292344
