method,hits
AttributeInfo.<init>,2
AttributeInfo.remove,2
BitsetScheduler.addTask,38
BitsetScheduler.isScheduled,50
BitsetScheduler.removeTasks,20
ChiPointer.<init>,6
ChiVertex$Edge.<init>,4
ChiVertex.<init>,246
ChiVertex.edge,2
ChiVertex.getValue,18
ChiVertex.inEdge,62
ChiVertex.numEdges,2
ChiVertex.numOutEdges,6
ChiVertex.outEdge,2
ChiVertex.setDataPtr,4
ChiVertex.setValue,22
ClassPool.makeClass,2
ConnectedComponents.update,172
CurrencyNames_en_US.getContents,2
DataBlockManager.dereference,28
DataBlockManager.getRawBlock,98
DataBlockManager.writeValue,4
DateFormatProviderImpl.getInstance,4
DegreeData.getDegree,130
DegreeData.load,4
DiagnosticCommandImpl.getMBeanInfo,2
FieldInfo.read,2
GLIBC.getCallSite,2
GraphChiContext.getScheduler,4
GraphChiEngine$2.run,8
GraphChiEngine$3.run,98
GraphChiEngine.determineNextWindow,26
GraphChiEngine.initVertices,142
ImmutableDescriptor.<init>,2
ImmutableDescriptor.makeMap,2
IntConverter.getValue,26
IntConverter.setValue,18
JmxReporter.<init>,4
LabelAnalysis$1.callback,2
Lex.getNextNonWhiteChar,2
LocaleData$1.run,2
MBeanNotificationInfo.<init>,2
MBeanServerBuilder.newMBeanServerDelegate,2
MXBeanIntrospector.getAnalyzer,2
MemoryShard.loadAdjChunk,6
NotificationBroadcasterSupport.<clinit>,2
ParallelListResourceBundle.handleKeySet,2
RandomAccessFile.read_,10
RandomAccessFile.writeBytes,10
Repository.<init>,2
VertexAggregator.foreach,4
VertexData$1.hasNext,2
VertexData$1.next,4
VertexData.getVertexValuePtr,38
