method,hits
BitsetScheduler.addTask,70
BitsetScheduler.isScheduled,38
BitsetScheduler.removeTasks,14
ChiLogger.getLogger,2
ChiPointer.<init>,4
ChiVertex.<init>,304
ChiVertex.inEdge,16
ChiVertex.numEdges,6
ChiVertex.outEdge,2
ChiVertex.setValue,18
ClassPool.compress,2
CodeAttribute.<init>,2
ConnectedComponents.update,78
ConstPool.getUtf8Info,2
DataBlockManager.dereference,2
DataBlockManager.getRawBlock,14
DataBlockManager.writeValue,10
DateFormatProviderImpl.getInstance,2
DegreeData.getDegree,134
DegreeData.load,4
Descriptor.toJavaName,2
DiagnosticCommandImpl.getMBeanInfo,2
ExponentiallyDecayingSample.<init>,2
GenericDeclRepository.getTypeParameters,2
GraphChiContext.getIteration,2
GraphChiContext.getScheduler,8
GraphChiEngine$2.run,20
GraphChiEngine$3.run,60
GraphChiEngine.determineNextWindow,28
GraphChiEngine.initVertices,160
ImmutableDescriptor.<init>,2
ImmutableDescriptor.makeMap,2
IntConverter.getValue,38
IntConverter.setValue,18
JMX.isMXBeanInterface,2
JRELocaleProviderAdapter.getDateFormatSymbolsProvider,2
JmxReporter.<init>,4
LabelAnalysis$1.callback,2
LocaleProviderAdapter.<clinit>,2
MBeanNotificationInfo.<init>,2
MBeanServerBuilder.newMBeanServerDelegate,2
ManagementFactoryHelper.createBufferPoolMXBean,2
ManagementFactoryHelper.getDiagnosticCommandMBean,2
MemoryShard.loadAdjChunk,2
NOPLoggerFactory.getLogger,2
NotificationBroadcasterSupport.<clinit>,2
NumberFormatProviderImpl.getInstance,2
RandomAccessFile.<clinit>,2
RandomAccessFile.read_,10
RandomAccessFile.writeBytes,14
SignatureParser.parsePackageNameAndSimpleClassTypeSignature,2
ThreadPools.newScheduledThreadPool,2
TypeData$TypeVar.getName,2
URLClassPath$FileLoader.getResource,4
Utf8Info.<init>,2
VertexAggregator.foreach,6
VertexData$1.hasNext,2
VertexData.getVertexValuePtr,56
