method,package1,package2,dram1,dram2,energy
chappie,0.01684489073219409,0.0,0.002397526842234778,0.0,0.01924241757442887
com.sun.jmx.interceptor,0.0767470787309076,0.0,0.00883310135741066,0.0,0.08558018008831825
com.sun.jmx.mbeanserver,0.08447534254407699,0.0,0.013620381235523341,0.0,0.09809572377960032
com.yammer.metrics.core,0.04038235424286057,0.0,0.005427286809953861,0.0,0.04580964105281443
com.yammer.metrics.reporting,0.1128820436923481,0.0,0.01578343972746773,0.0,0.12866548341981582
com.yammer.metrics.stats,0.07519540664427744,0.0,0.010538233069907605,0.0,0.08573363971418504
edu.cmu.graphchi,13.319864559176752,0.3516574736914833,1.5890691513548476,0.056954750400074264,15.317545934623157
edu.cmu.graphchi.apps,0.4435456703701506,0.5667981238484099,0.07051978679791526,0.08273060391464551,1.1635941849311213
edu.cmu.graphchi.datablocks,1.4084156315864889,0.28945464979604524,0.21647912202018543,0.041371783339330434,1.9557211867420499
edu.cmu.graphchi.engine,1.8604183098521443,0.45227924877643333,0.26888256088007856,0.07300263949058439,2.6545827589992403
edu.cmu.graphchi.engine.auxdata,2.9207573827959328,0.0432532607510044,0.4197655940257783,0.008968550525426618,3.392744788098142
edu.cmu.graphchi.shards,0.012146311739586557,0.0,0.0012634742593179806,0.0,0.013409785998904538
edu.cmu.graphchi.vertexdata,0.19957786788735551,0.0,0.05013573177251917,0.0,0.2497135996598747
javassist,0.014365366804420465,0.0,0.001749674106546941,0.0,0.016115040910967406
javassist.bytecode,0.08808623474092708,0.0,0.0134330360243494,0.0,0.10151927076527648
javax.management,0.4069876255499971,0.0,0.06533385472040686,0.0,0.472321480270404
org.slf4j.helpers,0.0727269693866773,0.0,0.00988418433498,0.0,0.08261115372165731
sun.misc,0.07455206620069982,0.0,0.008866028702492972,0.0,0.0834180949031928
sun.net.www.protocol.jar,0.02572529464464038,0.0,0.0036533204137121317,0.0,0.02937861505835251
sun.util.calendar,0.0,0.0,0.0,0.0,0.0
sun.util.locale.provider,0.0,0.0,0.0,0.0,0.0
ucar.unidata.io,0.17731781100516886,0.08648735057332561,0.034598159487542295,0.02388081818524923,0.322284139251286
