method,package1,package2,dram1,dram2,energy
AttributeInfo.<init>|LineNumberAttribute.<init>|AttributeInfo.read,0.06602457234052331,0.0,0.010306913808212987,0.0,0.07633148614873629
BitsetScheduler.addTask|ConnectedComponents.update|GraphChiEngine$3.run,0.0641388346666529,0.7066214438733903,0.010569001743070055,0.13061063160247496,0.9119399118855883
BitsetScheduler.isScheduled|GraphChiEngine.determineNextWindow|GraphChiEngine.run,0.2667114227941396,0.0,0.03621198004313677,0.0,0.30292340283727637
BitsetScheduler.isScheduled|GraphChiEngine.initVertices|GraphChiEngine.run,0.038245943084560724,0.14740706319927724,0.00631731292702176,0.025603805840032603,0.21757412505089233
BitsetScheduler.removeTasks|GraphChiEngine.run|ConnectedComponents.main,0.0,0.10766391111246776,0.0,0.015474500001154311,0.12313841111362207
Chaperone.retire|Chaperone.dismiss|Chaperone.main,0.0,0.0,0.0,0.0,0.0
ChiLogger$SingleLineFormatter.format|StreamHandler.publish|ConsoleHandler.publish,0.06602457234052331,0.0,0.010306913808212987,0.0,0.07633148614873629
ChiVertex$Edge.<init>|ChiVertex.inEdge|ChiVertex.edge,0.00618261815390038,0.0008012296118227216,0.0012149274456247341,0.00012198271273543401,0.00832075792408327
ChiVertex.<init>|GraphChiEngine.initVertices|GraphChiEngine.run,0.15953157522079237,1.5891617141162009,0.029560274279624023,0.269922618236901,2.0481761818535182
ChiVertex.getId|ConnectedComponents.update|GraphChiEngine$3.run,0.012326966613711658,0.0,0.002315675675638934,0.0,0.014642642289350591
ChiVertex.getValue|ConnectedComponents.update|GraphChiEngine$3.run,0.4522824279394282,0.06150776547377026,0.05095352097071752,0.0109806132477091,0.575724327631625
ChiVertex.inEdge|ChiVertex.edge|ConnectedComponents.update,0.09729814525490539,0.09846968557301453,0.017427795922594098,0.01968680788213627,0.23288243463265032
ChiVertex.numEdges|ConnectedComponents.update|GraphChiEngine$3.run,0.011216648648720316,0.022541047224665628,0.001833243243389596,0.0045766476550553915,0.04016758677183094
ChiVertex.outEdge|ConnectedComponents.update|GraphChiEngine$3.run,0.0015991191722085575,0.02188879909143699,0.0002791041551737465,0.004948737280414972,0.028715759699234268
ChiVertex.setDataPtr|GraphChiEngine.initVertices|GraphChiEngine.run,0.011138888889036021,0.0,0.0016775000003690368,0.0,0.012816388889405058
ChiVertex.setValue|ConnectedComponents.update|GraphChiEngine$3.run,0.011486552631622876,0.02028234766185257,0.0015073380567034137,0.0039047640226618258,0.03718100237284069
CompressedIO.writeCompressed|MemoryShard.commitAndRelease|GraphChiEngine.run,0.010650030315214313,0.0,0.00215247702718599,0.0,0.012802507342400302
ConnectedComponents.update|GraphChiEngine$3.run|Executors$RunnableAdapter.call,1.7855334449688374,0.5018204129366948,0.21863453530929294,0.0926944884993413,2.5986828817141663
DataBlockManager.dereference|ChiVertex.getValue|ConnectedComponents.update,0.04788526829610713,0.016835196480930723,0.006278916276900315,0.0027877199386221654,0.07378710099256033
DataBlockManager.dereference|VertexAggregator.foreach|LabelAnalysis.computeLabels,0.021427303591191587,0.0,0.002747264617544408,0.0,0.024174568208735994
DataBlockManager.getRawBlock|DataBlockManager.dereference|ChiVertex.getValue,0.027124180686946393,0.07154045546397204,0.0030936409295041,0.023172398785015542,0.12493067586543807
DataBlockManager.getRawBlock|DataBlockManager.writeValue|ChiVertex.setValue,0.11409236108747692,0.12308106905565269,0.016783628142796884,0.021239131167809507,0.27519618945373603
DataBlockManager.writeValue|ChiVertex.setValue|ConnectedComponents.update,0.0,0.06600949999847217,0.0,0.022119999999631546,0.08812949999810371
DateFormatSymbolsProviderImpl.getInstance|DateFormatSymbols.getProviderInstance|DateFormatSymbols.getInstance,0.012594196751107345,0.0,0.003671715407539653,0.0,0.016265912158647
DefaultMBeanServerInterceptor.registerDynamicMBean|DefaultMBeanServerInterceptor.registerObject|DefaultMBeanServerInterceptor.registerMBean,0.02757074538319636,0.0,0.0037853041425339696,0.0,0.03135604952573033
DegreeData.getDegree|GraphChiEngine.determineNextWindow|GraphChiEngine.run,1.1801884971363668,0.0,0.1723960134682925,0.0,1.3525845106046592
DegreeData.getDegree|GraphChiEngine.initVertices|GraphChiEngine.run,0.10272068293457715,3.5948407048698745,0.013753386450387314,0.49522923821200543,4.2065440124668445
DegreeData.load|GraphChiEngine.determineNextWindow|GraphChiEngine.run,0.08663452220732354,0.0,0.01875356662364721,0.0,0.10538808883097076
ExponentiallyDecayingSample.update|ExponentiallyDecayingSample.update|Histogram.update,0.056927544848427596,0.0,0.01086524286483396,0.0,0.06779278771326155
GraphChiContext.getScheduler|ConnectedComponents.update|GraphChiEngine$3.run,0.0038549693572400975,0.0,0.000394843912500816,0.0,0.0042498132697409135
GraphChiEngine$2.run|Executors$RunnableAdapter.call|FutureTask.run,0.06591593774815685,0.0,0.010294604773016755,0.0,0.07621054252117361
GraphChiEngine$3.run|Executors$RunnableAdapter.call|FutureTask.run,0.3024865111094057,0.17996242408162116,0.052670695798867434,0.029953095855199282,0.5650727268450936
GraphChiEngine.determineNextWindow|GraphChiEngine.run|ConnectedComponents.main,0.19359168283506642,0.0,0.03622028579423612,0.0,0.22981196862930253
GraphChiEngine.initVertices|GraphChiEngine.run|ConnectedComponents.main,0.13019630368693122,0.8310452791295885,0.020931655572623855,0.12591819073364205,1.1080914291227857
ImmutableDescriptor.findNonEmpty|ImmutableDescriptor.union|MBeanAttributeInfo.<init>,0.05456364125373425,0.0,0.008273349077724142,0.0,0.0628369903314584
ImmutableDescriptor.makeMap|ImmutableDescriptor.makeMap|ImmutableDescriptor.<init>,0.05960966084320003,0.0,0.010452525983547345,0.0,0.07006218682674738
IntConverter.getValue|IntConverter.getValue|DataBlockManager.dereference,0.04635135475075937,0.0014143116155185907,0.005887525925524149,0.0002590925459779862,0.05391228483778009
IntConverter.setValue|IntConverter.setValue|DataBlockManager.writeValue,0.047509940363820065,0.006965931173805656,0.008176813036100936,0.0012297570849577933,0.06388244165868445
JMX.isMXBeanInterface|MXBeanSupport.findMXBeanInterface|Introspector.getMXBeanInterface,0.033205337579275476,0.0,0.004520844638542182,0.0,0.03772618221781766
JRELocaleProviderAdapter.getNumberFormatProvider|JRELocaleProviderAdapter.getLocaleServiceProvider|LocaleProviderAdapter.findAdapter,0.06355704753031687,0.0,0.01037377109420795,0.0,0.07393081862452482
JmxMBeanServer.<init>|JmxMBeanServer.newMBeanServer|MBeanServerBuilder.newMBeanServer,0.06244998467695418,0.0,0.010425415555829267,0.0,0.07287540023278345
JmxMBeanServer.newMBeanServerDelegate|MBeanServerBuilder.newMBeanServerDelegate|MBeanServerFactory.newMBeanServer,0.05416732532330136,0.0,0.009105077750734505,0.0,0.06327240307403587
JmxReporter.<init>|JmxReporter.startDefault|Metrics.<clinit>,0.02757074538319636,0.0,0.0037853041425339696,0.0,0.03135604952573033
LoggerFactory.<clinit>|JmxReporter.<clinit>|Metrics.<clinit>,0.07474480312138475,0.0,0.01022480747080974,0.0,0.08496961059219449
MXBeanIntrospector.<init>|MXBeanIntrospector.<clinit>|MXBeanSupport.getMBeanIntrospector,0.030379915875639856,0.0,0.005105979492036592,0.0,0.03548589536767645
MemoryShard.loadAdjChunk|MemoryShard.access$000|MemoryShard$1.run,0.006856934625325695,0.0,0.0012263992770830622,0.0,0.008083333902408757
MethodInfo.read|MethodInfo.<init>|ClassFile.read,0.04125141170760483,0.0,0.005175670251454854,0.0,0.04642708195905969
Metrics.<clinit>|GraphChiEngine.<init>|ConnectedComponents.main,0.05870236968958886,0.0,0.008752865669633226,0.0,0.06745523535922208
RandomAccessFile.read_|RandomAccessFile.readBuffer|RandomAccessFile.seek,0.1195254118149808,0.0,0.024957754025857398,0.0,0.1444831658408382
RandomAccessFile.read_|RandomAccessFile.readBytes|RandomAccessFile.read,0.17968390352986632,0.0056606153845607955,0.027059871857958155,0.0008130769231520856,0.21321746769553737
RandomAccessFile.writeBytes|RandomAccessFile.write|VertexData.releaseAndCommit,0.031176819072166705,0.0,0.007003792359222027,0.0,0.038180611431388733
Reflection.filterFields|Class.privateGetDeclaredFields|Class.getDeclaredField,0.05001468595655398,0.0,0.011490990602468765,0.0,0.06150567655902274
StandardMBean.<clinit>|ManagementFactory$2.run|ManagementFactory$2.run,0.033205337579275476,0.0,0.004520844638542182,0.0,0.03772618221781766
TypeData$TypeVar.fixTypes|TypeData$TypeVar.dfs|MapMaker.fixTypes,0.0,0.024020888887914933,0.0,0.0025366666660475955,0.02655755555396253
Unsafe.compareAndSwapObject|AtomicReferenceFieldUpdater$AtomicReferenceFieldUpdaterImpl.compareAndSet|BufferedInputStream.close,0.06473267760828642,0.0,0.009038313335006548,0.0,0.07377099094329297
Unsafe.park|LockSupport.park|AbstractQueuedSynchronizer.parkAndCheckInterrupt,0.0,0.0,0.0,0.0,0.0
Utf8Info.<init>|ConstPool.readOne|ConstPool.read,0.030379915875639856,0.0,0.005105979492036592,0.0,0.03548589536767645
Util.newObjectName|MBeanServerDelegate.<clinit>|JmxMBeanServer.newMBeanServerDelegate,0.05416732532330136,0.0,0.009105077750734505,0.0,0.06327240307403587
VertexAggregator.foreach|LabelAnalysis.computeLabels|ConnectedComponents.main,0.036126798396028566,0.0,0.004416506259481699,0.0,0.040543304655510266
VertexData$1.next|VertexData$1.next|VertexAggregator.foreach,0.0,0.0,0.0,0.0,0.0
VertexData.getVertexValuePtr|GraphChiEngine.initVertices|GraphChiEngine.run,0.008400795756280003,0.48444952132970787,0.0016378656213651057,0.08347981427155013,0.5779679969789031
VertexData.getVertexValuePtr|VertexAggregator.foreach|LabelAnalysis.computeLabels,0.0024984909433069732,0.0,0.00044627005106855587,0.0,0.0029447609943755292
