method,package1,package2,dram1,dram2,energy
edu.cmu.graphchi,4.151676270070986,0.11492805115709927,0.6045358992404963,0.016494799510009844,4.887635019978592
edu.cmu.graphchi.apps,0.06479528184083488,0.036294800737998595,0.010521899195482643,0.005396633194877982,0.11700861496919411
edu.cmu.graphchi.datablocks,0.2739673246474882,0.08405590152895524,0.03900802305336645,0.0131613536037155,0.41019260283352543
edu.cmu.graphchi.engine,2.825782458700189,0.3613100274686294,0.3874948819905023,0.054787688069766076,3.629375056229087
edu.cmu.graphchi.engine.auxdata,2.867673941816237,0.046668093657339815,0.4081620978126813,0.008135062994943838,3.3306391962812016
edu.cmu.graphchi.shards,0.00515102347421368,0.0,0.0006030985914463694,0.0,0.005754122065660049
edu.cmu.graphchi.util,0.004174954987086272,0.0,0.0004470671262017792,0.0,0.004622022113288051
edu.cmu.graphchi.vertexdata,0.012327739595686903,0.00541321428629869,0.0012670888500295485,0.0008482142857246798,0.019856257017739822
javassist.bytecode,0.07247470302978823,0.0,0.008996363634930341,0.0,0.08147106666471857
javassist.bytecode.stackmap,0.0,0.0058641268700059725,0.0,0.0008287870917337845,0.006692913961739757
javax.management,0.12634039215752668,0.0,0.01985882352763677,0.0,0.14619921568516345
org.slf4j.helpers,0.010301803921203256,0.0,0.001270588235153506,0.0,0.011572392156356762
sun.management,0.18502647058830557,0.0,0.015089411763291732,0.0,0.2001158823515973
sun.reflect.generics.parser,0.04891709091007766,0.0,0.005963636364674929,0.0,0.05488072727475259
sun.reflect.generics.repository,0.062307636362895595,0.0,0.007956363634686128,0.0,0.07026399999758172
sun.util.locale.provider,0.016335777777648115,0.0,0.0023759999998017316,0.0,0.018711777777449846
ucar.unidata.io,0.0537892666681728,0.0,0.005964749999717848,0.0,0.059754016667890646
