method,package1,package2,dram1,dram2,energy
AbstractQueuedSynchronizer.releaseShared|ReentrantReadWriteLock$ReadLock.unlock|Repository.contains,0.0,0.04801799999867481,0.0,0.005980909091621552,0.05399890909029636
ArrayList.elementData|ArrayList.get|DataBlockManager.getRawBlock,0.07596232712631468,0.12519483793748315,0.011316208479464351,0.02303374232736267,0.23550711587062484
ArrayList.get|DataBlockManager.getRawBlock|DataBlockManager.writeValue,0.0,0.0007917549915532338,0.0,7.817720690597916e-05,0.000869932198459213
ArrayList.rangeCheck|ArrayList.get|DataBlockManager.getRawBlock,0.0,0.00454357610535534,0.0,0.0009113342055669317,0.005454910310922271
Arrays.copyOf|ArrayList.grow|ArrayList.ensureExplicitCapacity,0.0,0.034708666666119825,0.0,0.005497500000274157,0.04020616666639398
BitSet.checkInvariants|BitSet.set|BitSet.set,0.03319227023516336,0.0544151864193996,0.0050294278620071605,0.008788592944177168,0.10142547746074729
BitSet.clear|BitSet.set|BitsetScheduler.removeTasks,0.0,0.0,0.0,0.0,0.0
BitSet.get|BitsetScheduler.isScheduled|GraphChiEngine.determineNextWindow,0.023382342202164272,0.08097333332989365,0.0025170588421796866,0.016510000001289882,0.12338273437552749
BitSet.get|BitsetScheduler.isScheduled|GraphChiEngine.initVertices,0.02688707969071642,0.013888448043258207,0.0044458412258100806,0.0020820242916007605,0.04730339325138546
BitSet.recalculateWordsInUse|BitSet.clear|BitSet.set,0.0058240838644829035,0.0113008339393936,0.0008239627650864145,0.0016734081064309454,0.019622288675393864
BitSet.set|BitSet.set|BitsetScheduler.addTask,0.010752782608545638,2.3881523221088585,0.001570434782479424,0.35823680405875397,2.7587123435586376
BitSet.set|BitsetScheduler.addTask|ConnectedComponents.update,0.003034375821661663,0.001353017423096997,0.000789811416093339,0.0002213212044133165,0.0053985258652653155
BitSet.set|BitsetScheduler.removeTasks|GraphChiEngine.run,0.0,0.0,0.0,0.0,0.0
BitSet.wordIndex|BitSet.get|BitsetScheduler.isScheduled,0.0,0.14106390476878178,0.0,0.02244571428603931,0.1635096190548211
BufferedInputStream.<init>|BufferedInputStream.<init>|ClassPool.makeClass,0.0,0.10811882788553318,0.0,0.01374797385586943,0.1218668017414026
BufferedInputStream.read|DataInputStream.readUnsignedShort|ExceptionTable.<init>,0.0,0.03891999999905238,0.0,0.006360000000616613,0.045279999999668995
BufferedInputStream.read|DataInputStream.readUnsignedShort|NameAndTypeInfo.<init>,0.0,0.015943722222194385,0.0,0.0018150000002303077,0.017758722222424694
Class.createAnnotationData|Class.annotationData|Class.getAnnotation,0.0,0.08331525925960806,0.0,0.009671111112563973,0.09298637037217203
ClassLoader.defineClass1|ClassLoader.defineClass|SecureClassLoader.defineClass,0.0,0.012776666666872591,0.0,0.0027599999998023524,0.015536666666674944
DataInputStream.readInt|AttributeInfo.<init>|SignatureAttribute.<init>,0.0,0.08089214814740611,0.0,0.009706666665065481,0.09059881481247159
DataOutputStream.writeUTF|DataOutputStream.writeUTF|ProxyGenerator$ConstantPool$ValueEntry.write,0.0,0.050470545454035426,0.0,0.006567272726732136,0.057037818180767565
Inflater.inflateBytes|Inflater.inflate|InflaterInputStream.read,0.0,0.0,0.0,0.0,0.0
Integer.<init>|Integer.valueOf|ConnectedComponents.update,0.0,0.0034148294487459105,0.0,0.0006076858854124831,0.004022515334158394
Integer.<init>|Integer.valueOf|IntConverter.getValue,0.0005398343951556841,0.0,9.094827626198643e-05,0.0,0.0006307826714176706
Integer.intValue|ConnectedComponents.update|GraphChiEngine$3.run,0.02370454832805597,0.007869918890072864,0.004414163994735965,0.0013747536566322952,0.0373633848694971
Integer.intValue|IntConverter.setValue|IntConverter.setValue,0.0224773912171169,0.0011119261297318477,0.00438919888462085,0.00018459210422844743,0.028163108335698045
Integer.valueOf|ConnectedComponents.update|GraphChiEngine$3.run,0.010844073993669356,0.041865364355955295,0.0018288380261851352,0.007700124980935764,0.062238401356745555
Integer.valueOf|IntConverter.getValue|IntConverter.getValue,0.02561511453825442,0.05286063547925568,0.004151955447151036,0.010338868343824602,0.09296657380848575
JarURLConnection.parseSpecs|JarURLConnection.<init>|JarURLConnection.<init>,0.0,0.04013066666811938,0.0,0.005634999999529099,0.04576566666764848
ManagementFactory$2.run|ManagementFactory$2.run|AccessController.doPrivileged,0.0,0.051667259260149735,0.0,0.007324444443737673,0.058991703703887406
Object.<init>|ChiVertex$Edge.<init>|ChiVertex.inEdge,0.0,0.00706353041419714,0.0,0.0011026458812126614,0.008166176295409801
RandomAccessFile.readBytes|RandomAccessFile.read|RandomAccessFile.read_,0.0010545007210134225,0.2220408611125701,0.00012840783685611466,0.04303083333201761,0.26625460300245724
RandomAccessFile.writeBytes|RandomAccessFile.write|RandomAccessFile.writeBytes,0.06549409906951253,0.0,0.011926545727744181,0.0,0.07742064479725672
String.indexOf|String.indexOf|String.indexOf,0.0,0.08331525925960806,0.0,0.009671111112563973,0.09298637037217203
System.arraycopy|DegreeData.load|GraphChiEngine.determineNextWindow,0.029441533272276735,0.0,0.005242274514881141,0.0,0.03468380778715788
TreeMap$EntrySet.iterator|ImmutableDescriptor.<init>|ImmutableDescriptor.<init>,0.0,0.04013066666811938,0.0,0.005634999999529099,0.04576566666764848
URLClassLoader$1.run|URLClassLoader$1.run|AccessController.doPrivileged,0.0,0.0,0.0,0.0,0.0
URLClassLoader$2.<init>|URLClassLoader.findResource|ClassLoader.getResource,0.0,0.05395019607842151,0.0,0.006447058823302059,0.06039725490172357
