method,hits
ArrayList.elementData,10
ArrayList.get,4
ArrayList.rangeCheck,72
BitSet.checkInvariants,4
BitSet.clear,6
BitSet.get,28
BitSet.recalculateWordsInUse,8
BitSet.set,4
BufferedInputStream.read1,2
ClassLoader.defineClass1,2
ConcurrentHashMap.keySet,2
ConcurrentSkipListMap.doPut,2
DataInputStream.readUnsignedShort,2
Format.format,2
Integer.<init>,14
Integer.valueOf,22
ManagementFactory.getPlatformMBeanServer,2
RandomAccessFile.readBytes,12
RandomAccessFile.writeBytes,22
SimpleDateFormat.<init>,2
SimpleDateFormat.initializeCalendar,2
String$CaseInsensitiveComparator.compare,2
String.format,2
System.arraycopy,6
