method,hits
ArrayList.elementData,64
ArrayList.get,4
BitSet.checkInvariants,30
BitSet.clear,10
BitSet.get,30
BitSet.recalculateWordsInUse,8
BitSet.set,8
BitSet.wordIndex,2
ClassLoader.findBootstrapClass,2
CopyOnWriteArrayList.iterator,2
Currency.readIntArray,2
Executors$RunnableAdapter.call,2
Inflater.inflateBytes,2
Integer.<init>,26
Integer.intValue,4
Integer.valueOf,62
ManagementFactory.getPlatformMBeanServer,2
Number.<init>,2
Object.<init>,2
RandomAccessFile.readBytes,10
RandomAccessFile.writeBytes,18
ReentrantReadWriteLock$Sync.<init>,2
ResourceBundle$Control.newBundle,2
String.compareTo,2
ThreadPoolExecutor.runStateAtLeast,2
