method,package1,package2,dram1,dram2,energy
AbstractCollection,0.05128180000028806,0.0,0.006539999999222346,0.0,0.057821799999510405
ArrayList,0.26735806902302034,0.19440189911647643,0.044632360233425566,0.034563255291422575,0.5409555836643449
Arrays,0.05845497083340282,0.0,0.00856725000027533,0.0,0.06702222083367815
BitSet,0.24877990701324246,0.3645506204974839,0.044317752027053625,0.07204339176479428,0.7296916713025743
BufferedInputStream,0.025642800000302182,0.0,0.0044099999999161815,0.0,0.030052800000218365
Class,0.09678560144938393,0.0,0.012092214672817216,0.0,0.10887781612220115
ClassLoader,0.0398637948718925,0.0,0.0066092307679355145,0.0,0.04647302563982801
ConcurrentHashMap$EntrySetView,0.05801999999966937,0.0,0.006543000000237952,0.0,0.06456299999990732
Integer,0.274467940990375,0.3331748246691744,0.04042498295907408,0.06349867603697415,0.7115664246555976
Method,0.04631359999984852,0.0,0.005711999999766702,0.0,0.05202559999961522
Pattern$Ctype,0.0,0.011032263645236386,0.0,0.0032915334600958908,0.014323797105332277
RandomAccessFile,0.2306937738105175,0.039895996636075,0.03914464285472127,0.0077001864068613965,0.31743459970817517
SimpleDateFormat,0.02779946666705655,0.0,0.004391999999643303,0.0,0.03219146666669985
System,0.0,0.008646666664086903,0.0,0.002760000000610792,0.011406666664697696
ZipFile,0.03362171428549724,0.0,0.004697142856284266,0.0,0.03831885714178151
