method,package1,package2,dram1,dram2,energy
AbstractStringBuilder.ensureCapacityInternal,0.05153020435953137,0.0,0.0066556505895060385,0.0,0.05818585494903741
ArrayList.elementData,0.683372001492489,0.5162926678230242,0.08378374393507412,0.07166444255546638,1.3551128558060537
ArrayList.rangeCheck,0.0,0.023251800532975583,0.0,0.003185291671434083,0.026437092204409665
Arrays.copyOf,0.03579665321236345,0.0,0.005116959595723679,0.0,0.04091361280808713
BitSet.checkInvariants,0.012040327485287066,0.0,0.0014657017543666167,0.0,0.013506029239653682
BitSet.clear,0.011912939376441008,0.0,0.0012615083304590667,0.0,0.013174447706900074
BitSet.get,0.2869753725071108,0.017580720960799854,0.04406608248107,0.0024376398283168822,0.3510598157772976
BitSet.recalculateWordsInUse,0.02498444557073947,0.0,0.003285925442381243,0.0,0.028270371013120715
BitSet.set,0.3220571682156728,0.0,0.038644634511405866,0.0,0.3607018027270787
BitSet.wordIndex,0.0009758901098873568,0.0,0.00017653846157622614,0.0,0.0011524285714635829
BitsetScheduler.isScheduled,0.010933423263877869,0.0025058333339984533,0.001559394464193299,0.0003441666667640675,0.015342817728833688
BitsetScheduler.removeTasks,0.017959520581386133,0.0,0.002293421958361519,0.0,0.020252942539747652
BufferedInputStream.<init>,0.06270996398703071,0.0,0.008972703493687565,0.0,0.07168266748071828
BufferedInputStream.read,0.11628685314272744,0.0,0.016001220375913016,0.0,0.13228807351864044
Chaperone.retire,0.0,0.0,0.0,0.0,0.0
Character.isWhitespace,0.03486559574988162,0.0,0.005702879583781554,0.0,0.04056847533366317
ChiVertex.<init>,2.1595498660732892,0.0,0.3127014572817303,0.0,2.4722513233550196
ChiVertex.getValue,0.0073179009119857955,0.014087469461643052,0.0011367275641592412,0.002314124645104601,0.02485622258289269
ChiVertex.inEdge,0.02481829359432088,0.0,0.0035851538506218596,0.0,0.028403447444942737
ChiVertex.numEdges,0.009849720398158887,0.0,0.0017202681567106625,0.0,0.01156998855486955
ChiVertex.outEdge,0.05161809587664024,0.0005578823482626175,0.01123295556105771,4.95258813547428e-05,0.06345845966731532
ChiVertex.setDataPtr,0.03039848266890526,0.0,0.004931035642622979,0.0,0.03532951831152824
ChiVertex.setValue,0.03304623445295864,0.030125901853512337,0.005675511990834772,0.004635552687096705,0.07348320098440245
Class$Atomic.casReflectionData,0.04399697916842488,0.0,0.0064205978470038595,0.0,0.05041757701542873
Class.createAnnotationData,0.03511042681868266,0.0,0.005891694526325018,0.0,0.04100212134500768
Class.getDeclaredConstructors0,0.03513182958136409,0.0,0.005744682062458216,0.0,0.040876511643822305
ConcurrentHashMap.transfer,0.042481090399844684,0.0,0.004551562332864141,0.0,0.047032652732708825
ConnectedComponents.update,0.12144500965386375,0.04077852402878932,0.019262126421794458,0.006795107591229585,0.18828076769567711
DataBlockManager.dereference,0.0,0.0,0.0,0.0,0.0
DataBlockManager.getRawBlock,0.05179793216130503,0.039806638884967264,0.0073705744734487,0.004873240971363449,0.10384838649108444
DataBlockManager.writeValue,0.06801406364446753,0.02713677376879621,0.01067406101083465,0.0035310365450171156,0.10935593496911551
DataInputStream.readUnsignedShort,0.042481090399844684,0.0,0.004551562332864141,0.0,0.047032652732708825
DefaultMXBeanMappingFactory.<clinit>,0.02828156205021399,0.0,0.005183338664532602,0.0,0.03346490071474659
DegreeData.getDegree,1.7248973146387336,0.129593852130398,0.22959116365142515,0.01763008834994247,2.101712418770499
ExponentiallyDecayingSample.<init>,0.05298226276963769,0.0,0.007136675809250313,0.0,0.060118938578888004
GraphChiContext.getIteration,0.008206030060178287,0.0,0.0017409292290553992,0.0,0.009946959289233687
GraphChiContext.getScheduler,0.0,0.0,0.0,0.0,0.0
GraphChiEngine$2.run,0.0009758901098873568,0.009406386750325013,0.00017653846157622614,0.0016957895634363703,0.012254604885224965
GraphChiEngine$3.run,0.11746275040571114,0.10581011259686585,0.026968655917203044,0.015176952295366537,0.26541847121514656
GraphChiEngine.determineNextWindow,0.4609867524353778,0.14346744636002637,0.055374317991698827,0.019981961169707303,0.6798104779568103
GraphChiEngine.initVertices,1.4153519747144727,0.0,0.20328736813181061,0.0,1.6186393428462833
HashMap$HashIterator.nextNode,0.0,0.0,0.0,0.0,0.0
ImmutableDescriptor.makeMap,0.026729543199844403,0.0,0.0038641650703050865,0.0,0.03059370827014949
IntConverter.getValue,0.01989599372082222,0.0,0.0037970818968444914,0.0,0.02369307561766671
IntConverter.setValue,0.018240107087124206,0.0124897417819609,0.0025698022718174405,0.0018118390653674389,0.03511149020626998
Integer.<init>,0.006654745160557985,0.01193082693536075,0.00107590634076713,0.001651580992751379,0.021313059429437245
Integer.intValue,0.023507773844225668,0.0,0.0031361214077795427,0.0,0.02664389525200521
Integer.valueOf,0.15891163831390046,0.053266528549748574,0.03013091386388921,0.007784245946738013,0.25009332667427625
JmxMBeanServer.<init>,0.06942136928605597,0.0,0.008584802801686404,0.0,0.07800617208774237
MBeanNotificationInfo.<init>,0.02815674927719279,0.0,0.003906464432702406,0.0,0.0320632137098952
MBeanServerBuilder.newMBeanServerDelegate,0.02815674927719279,0.0,0.003906464432702406,0.0,0.0320632137098952
MXBeanIntrospector.<clinit>,0.02828156205021399,0.0,0.005183338664532602,0.0,0.03346490071474659
ManagementFactory$2.run,0.03511042681868266,0.0,0.005891694526325018,0.0,0.04100212134500768
ManagementFactory.createMemoryPool,0.03604130398488706,0.0,0.005653942484218655,0.0,0.04169524646910571
ManagementFactoryHelper.createBufferPoolMXBean,0.03843769147141344,0.0,0.00555706091398148,0.0,0.04399475238539492
NOPLoggerFactory.getLogger,0.028106381155124725,0.0,0.004361682887699849,0.0,0.032468064042824575
NotificationBroadcasterSupport.<clinit>,0.026729543199844403,0.0,0.0038641650703050865,0.0,0.03059370827014949
NumberFormatProviderImpl.getInstance,0.035883148636297275,0.0,0.005116859492043613,0.0,0.04100000812834089
Object.<init>,0.00040500395175277243,0.0,5.263008088966989e-05,0.0,0.0004576340326424423
ParseUtil.encodePath,0.033816170182021155,0.0,0.004915269941341013,0.0,0.03873144012336217
RandomAccessFile.readBytes,0.17916843644060304,0.0,0.02798803424728128,0.0,0.20715647068788431
RandomAccessFile.writeBytes,0.0,0.059451688661304146,0.0,0.008216902139198554,0.06766859080050269
SignatureParser.current,0.03486559574988162,0.0,0.005702879583781554,0.0,0.04056847533366317
SimpleDateFormat.format,0.0010405507512719918,0.0,0.00017784356909049273,0.0,0.0012183943203624846
System.arraycopy,0.0,0.0027280584490191303,0.0,0.0003716990335308602,0.0030997574825499903
ThreadLocalRandom.current,0.03604855972570775,0.0,0.007562110136319056,0.0,0.04361066986202681
TreeMap$EntrySet.iterator,0.03293321614216653,0.0,0.004128634673745963,0.0,0.03706185081591249
URLClassLoader$1.run,0.02985957750245543,0.0,0.004148460599665066,0.0,0.0340080381021205
VertexAggregator.foreach,0.02645304202338833,0.0,0.005310921876406591,0.0,0.03176396389979492
VertexData.getVertexValuePtr,0.6204430265576967,0.0,0.09450987349025233,0.0,0.714952900047949
