method,package1,package2,dram1,dram2,energy
AbstractQueuedSynchronizer$ConditionObject.awaitNanos|ScheduledThreadPoolExecutor$DelayedWorkQueue.take|ScheduledThreadPoolExecutor$DelayedWorkQueue.take,0.0,0.0,0.0,0.0,0.0
ArrayList.elementData|ArrayList.get|DataBlockManager.getRawBlock,0.11409236108747692,0.12308106905565269,0.016783628142796884,0.021239131167809507,0.27519618945373603
Arrays.copyOf|ArrayList.grow|ArrayList.ensureExplicitCapacity,0.04125141170760483,0.0,0.005175670251454854,0.0,0.04642708195905969
BitSet.checkInvariants|BitSet.set|BitSet.set,0.050829798554281255,0.03792372043171223,0.008314280356138716,0.006680679198032396,0.10374847854016458
BitSet.clear|BitSet.set|BitsetScheduler.removeTasks,0.0,0.0,0.0,0.0,0.0
BitSet.get|BitsetScheduler.isScheduled|GraphChiEngine.determineNextWindow,0.15639083105612833,0.0,0.02245955224857133,0.0,0.17885038330469966
BitSet.get|BitsetScheduler.isScheduled|GraphChiEngine.initVertices,0.028236351574031142,0.14740706319927724,0.004980719340826887,0.025603805840032603,0.20622793995416788
BitSet.recalculateWordsInUse|BitSet.clear|BitSet.set,0.0,0.04482846667087869,0.0,0.006539499998689281,0.05136796666956797
BitSet.wordIndex|BitSet.get|BitsetScheduler.isScheduled,0.1103205917380113,0.0,0.013752427794565437,0.0,0.12407301953257674
BitsetScheduler.addTask|ConnectedComponents.update|GraphChiEngine$3.run,0.013309036112371653,0.6686977234416781,0.0022547213869313393,0.12392995240444256,0.8081914333454238
BitsetScheduler.isScheduled|GraphChiEngine.initVertices|GraphChiEngine.run,0.010009591510529586,0.0,0.0013365935861948722,0.0,0.011346185096724458
BitsetScheduler.removeTasks|GraphChiEngine.run|ConnectedComponents.main,0.0,0.06283544444158906,0.0,0.00893500000246503,0.07177044444405409
BufferedInputStream.read|DataInputStream.readInt|AttributeInfo.<init>,0.06602457234052331,0.0,0.010306913808212987,0.0,0.07633148614873629
ByteArrayInputStream.read|DataInputStream.readUnsignedByte|MemoryShard.loadAdjChunk,0.006856934625325695,0.0,0.0012263992770830622,0.0,0.008083333902408757
Chaperone.retire|Chaperone.dismiss|Chaperone.main,0.0,0.0,0.0,0.0,0.0
ChiVertex$Edge.<init>|ChiVertex.inEdge|ChiVertex.edge,0.00618261815390038,0.0,0.0012149274456247341,0.0,0.007397545599525115
ChiVertex.<init>|GraphChiEngine.initVertices|GraphChiEngine.run,0.15953157522079237,1.5891617141162009,0.029560274279624023,0.269922618236901,2.0481761818535182
ChiVertex.getId|ConnectedComponents.update|GraphChiEngine$3.run,0.012326966613711658,0.0,0.002315675675638934,0.0,0.014642642289350591
ChiVertex.getValue|ConnectedComponents.update|GraphChiEngine$3.run,0.4522824279394282,0.06150776547377026,0.05095352097071752,0.0109806132477091,0.575724327631625
ChiVertex.inEdge|ChiVertex.edge|ConnectedComponents.update,0.09729814525490539,0.09846968557301453,0.017427795922594098,0.01968680788213627,0.23288243463265032
ChiVertex.numEdges|ConnectedComponents.update|GraphChiEngine$3.run,0.011216648648720316,0.022541047224665628,0.001833243243389596,0.0045766476550553915,0.04016758677183094
ChiVertex.outEdge|ConnectedComponents.update|GraphChiEngine$3.run,0.0015991191722085575,0.02188879909143699,0.0002791041551737465,0.004948737280414972,0.028715759699234268
ChiVertex.setDataPtr|GraphChiEngine.initVertices|GraphChiEngine.run,0.011138888889036021,0.0,0.0016775000003690368,0.0,0.012816388889405058
ChiVertex.setValue|ConnectedComponents.update|GraphChiEngine$3.run,0.011486552631622876,0.02028234766185257,0.0015073380567034137,0.0039047640226618258,0.03718100237284069
Class.createAnnotationData|Class.annotationData|Class.getAnnotation,0.033205337579275476,0.0,0.004520844638542182,0.0,0.03772618221781766
Class.getDeclaredConstructors0|Class.privateGetDeclaredConstructors|Class.getConstructor0,0.06602457234052331,0.0,0.010306913808212987,0.0,0.07633148614873629
ConcurrentSkipListMap.doPut|ConcurrentSkipListMap.put|ExponentiallyDecayingSample.update,0.056927544848427596,0.0,0.01086524286483396,0.0,0.06779278771326155
ConnectedComponents.update|GraphChiEngine$3.run|Executors$RunnableAdapter.call,1.6863132254321076,0.3554587565502951,0.2042659286657997,0.06329334168586513,2.3093312523340677
DataBlockManager.dereference|ChiVertex.getValue|ConnectedComponents.update,0.04788526829610713,0.016835196480930723,0.006278916276900315,0.0027877199386221654,0.07378710099256033
DataBlockManager.dereference|VertexAggregator.foreach|LabelAnalysis.computeLabels,0.021427303591191587,0.0,0.002747264617544408,0.0,0.024174568208735994
DataBlockManager.getRawBlock|DataBlockManager.dereference|ChiVertex.getValue,0.027124180686946393,0.07154045546397204,0.0030936409295041,0.023172398785015542,0.12493067586543807
DataBlockManager.writeValue|ChiVertex.setValue|ConnectedComponents.update,0.0,0.06600949999847217,0.0,0.022119999999631546,0.08812949999810371
DataInputStream.readUnsignedShort|DataInputStream.readUTF|DataInputStream.readUTF,0.030379915875639856,0.0,0.005105979492036592,0.0,0.03548589536767645
DateFormatSymbolsProviderImpl.getInstance|DateFormatSymbols.getProviderInstance|DateFormatSymbols.getInstance,0.012594196751107345,0.0,0.003671715407539653,0.0,0.016265912158647
DefaultMBeanServerInterceptor.registerDynamicMBean|DefaultMBeanServerInterceptor.registerObject|DefaultMBeanServerInterceptor.registerMBean,0.02757074538319636,0.0,0.0037853041425339696,0.0,0.03135604952573033
DeflaterOutputStream.<init>|DeflaterOutputStream.<init>|CompressedIO.writeCompressed,0.010650030315214313,0.0,0.00215247702718599,0.0,0.012802507342400302
DegreeData.getDegree|GraphChiEngine.determineNextWindow|GraphChiEngine.run,1.1801884971363668,0.0,0.1723960134682925,0.0,1.3525845106046592
DegreeData.getDegree|GraphChiEngine.initVertices|GraphChiEngine.run,0.10272068293457715,3.5948407048698745,0.013753386450387314,0.49522923821200543,4.2065440124668445
GraphChiContext.getScheduler|ConnectedComponents.update|GraphChiEngine$3.run,0.0038549693572400975,0.0,0.000394843912500816,0.0,0.0042498132697409135
GraphChiEngine$2.run|Executors$RunnableAdapter.call|FutureTask.run,0.06591593774815685,0.0,0.010294604773016755,0.0,0.07621054252117361
GraphChiEngine$3.run|Executors$RunnableAdapter.call|FutureTask.run,0.3024865111094057,0.17996242408162116,0.052670695798867434,0.029953095855199282,0.5650727268450936
GraphChiEngine.determineNextWindow|GraphChiEngine.run|ConnectedComponents.main,0.19359168283506642,0.0,0.03622028579423612,0.0,0.22981196862930253
GraphChiEngine.initVertices|GraphChiEngine.run|ConnectedComponents.main,0.13019630368693122,0.8310452791295885,0.020931655572623855,0.12591819073364205,1.1080914291227857
ImmutableDescriptor.findNonEmpty|ImmutableDescriptor.union|MBeanAttributeInfo.<init>,0.05456364125373425,0.0,0.008273349077724142,0.0,0.0628369903314584
ImmutableDescriptor.makeMap|ImmutableDescriptor.makeMap|ImmutableDescriptor.<init>,0.05960966084320003,0.0,0.010452525983547345,0.0,0.07006218682674738
IntConverter.getValue|IntConverter.getValue|DataBlockManager.dereference,0.015003199174316313,0.0,0.00233479789097195,0.0,0.01733799706528826
IntConverter.setValue|IntConverter.setValue|DataBlockManager.writeValue,0.01052595714286976,0.0,0.0010985357143259277,0.0,0.011624492857195688
Integer.<init>|Integer.valueOf|ConnectedComponents.update,0.06806184681266499,0.06270989737097933,0.009732164989500155,0.013273656258162838,0.15377756543130733
Integer.intValue|ConnectedComponents.update|GraphChiEngine$3.run,0.018005322413476296,0.026638564865600744,0.002779595496092495,0.005147957922376472,0.052571440697546004
Integer.intValue|IntConverter.setValue|IntConverter.setValue,0.036983983220950305,0.006965931173805656,0.0070782773217750086,0.0012297570849577933,0.05225794880148877
Integer.valueOf|ConnectedComponents.update|GraphChiEngine$3.run,0.01315305031058864,0.05701319414981963,0.0018568461579005636,0.010979532632936854,0.08300262325124569
Integer.valueOf|IntConverter.getValue|IntConverter.getValue,0.031348155576443056,0.0014143116155185907,0.003552728034552199,0.0002590925459779862,0.03657428777249183
Integer.valueOf|VertexData$1.next|VertexData$1.next,0.0,0.0,0.0,0.0,0.0
JRELocaleProviderAdapter.getNumberFormatProvider|JRELocaleProviderAdapter.getLocaleServiceProvider|LocaleProviderAdapter.findAdapter,0.06355704753031687,0.0,0.01037377109420795,0.0,0.07393081862452482
JmxMBeanServer.<init>|JmxMBeanServer.newMBeanServer|MBeanServerBuilder.newMBeanServer,0.06244998467695418,0.0,0.010425415555829267,0.0,0.07287540023278345
JmxMBeanServer.newMBeanServerDelegate|MBeanServerBuilder.newMBeanServerDelegate|MBeanServerFactory.newMBeanServer,0.05416732532330136,0.0,0.009105077750734505,0.0,0.06327240307403587
LoggerFactory.<clinit>|JmxReporter.<clinit>|Metrics.<clinit>,0.07474480312138475,0.0,0.01022480747080974,0.0,0.08496961059219449
MXBeanIntrospector.<init>|MXBeanIntrospector.<clinit>|MXBeanSupport.getMBeanIntrospector,0.030379915875639856,0.0,0.005105979492036592,0.0,0.03548589536767645
Metrics.<clinit>|GraphChiEngine.<init>|ConnectedComponents.main,0.05870236968958886,0.0,0.008752865669633226,0.0,0.06745523535922208
Object.<init>|ChiVertex$Edge.<init>|ChiVertex.inEdge,0.0,0.0008012296118227216,0.0,0.00012198271273543401,0.0009232123245581556
PlatformComponent.<clinit>|ManagementFactory.getPlatformMBeanServer|JmxReporter.<init>,0.02757074538319636,0.0,0.0037853041425339696,0.0,0.03135604952573033
RandomAccessFile.readBytes|RandomAccessFile.read|RandomAccessFile.read_,0.2992093153448471,0.0056606153845607955,0.05201762588381555,0.0008130769231520856,0.35770063353637555
RandomAccessFile.writeBytes|RandomAccessFile.write|RandomAccessFile.writeBytes,0.031176819072166705,0.0,0.007003792359222027,0.0,0.038180611431388733
Reflection.filterFields|Class.privateGetDeclaredFields|Class.getDeclaredField,0.05001468595655398,0.0,0.011490990602468765,0.0,0.06150567655902274
StandardMBean.<clinit>|ManagementFactory$2.run|ManagementFactory$2.run,0.033205337579275476,0.0,0.004520844638542182,0.0,0.03772618221781766
System.arraycopy|DegreeData.load|GraphChiEngine.determineNextWindow,0.08663452220732354,0.0,0.01875356662364721,0.0,0.10538808883097076
TypeData$TypeVar.fixTypes|TypeData$TypeVar.dfs|MapMaker.fixTypes,0.0,0.024020888887914933,0.0,0.0025366666660475955,0.02655755555396253
Unsafe.compareAndSwapObject|AtomicReferenceFieldUpdater$AtomicReferenceFieldUpdaterImpl.compareAndSet|BufferedInputStream.close,0.06473267760828642,0.0,0.009038313335006548,0.0,0.07377099094329297
Unsafe.park|LockSupport.park|AbstractQueuedSynchronizer.parkAndCheckInterrupt,0.0,0.0,0.0,0.0,0.0
Util.newObjectName|MBeanServerDelegate.<clinit>|JmxMBeanServer.newMBeanServerDelegate,0.05416732532330136,0.0,0.009105077750734505,0.0,0.06327240307403587
VertexAggregator.foreach|LabelAnalysis.computeLabels|ConnectedComponents.main,0.036126798396028566,0.0,0.004416506259481699,0.0,0.040543304655510266
VertexData.getVertexValuePtr|GraphChiEngine.initVertices|GraphChiEngine.run,0.008400795756280003,0.48444952132970787,0.0016378656213651057,0.08347981427155013,0.5779679969789031
VertexData.getVertexValuePtr|VertexAggregator.foreach|LabelAnalysis.computeLabels,0.0024984909433069732,0.0,0.00044627005106855587,0.0,0.0029447609943755292
