method,package1,package2,dram1,dram2,energy
AttributeInfo.<init>,0.0,0.0,0.0,0.0,0.0
BitSet.checkInvariants,2.6892902976702144,0.0,0.34815760722623934,0.0,3.037447904896454
BitSet.clear,0.03606905734876566,0.0,0.0035346569538366565,0.0,0.039603714302602316
BitSet.get,0.0,0.794481146398953,0.0,0.1294185393716542,0.9238996857706072
BitSet.recalculateWordsInUse,0.00617333197026896,0.0,0.0006780377114364911,0.0,0.00685136968170545
BitSet.set,0.00536820140208511,0.05051526504918165,0.0005047446741040633,0.006097233660985402,0.06248544478635623
BitsetScheduler.addTask,0.016853140056675233,0.0,0.005702901993008889,0.0,0.022556042049684123
BitsetScheduler.isScheduled,0.0,0.07948664968219793,0.0,0.008661529596025865,0.0881481792782238
BitsetScheduler.removeTasks,0.014926921516468307,0.0,0.0014401978669240918,0.0,0.016367119383392397
BufferedInputStream.<init>,0.0,0.038490691166506885,0.0,0.005921383917382537,0.04441207508388942
BufferedInputStream.read,0.0,0.03943699685799127,0.0,0.005458488437376484,0.04489548529536776
ChiPointer.<init>,0.004557277777773075,0.007951212121318376,0.0005566666665496692,0.001089545454526546,0.014154702020167666
ChiVertex.<init>,0.05683434682082695,57.03112318612778,0.006947063148179581,7.850127041268287,64.94503163736508
ChiVertex.getValue,0.0,0.0066255238095653205,0.0,0.000942571428632142,0.007568095238197462
ChiVertex.inEdge,0.0011978609625579735,0.0,0.0002181818181173228,0.0,0.0014160427806752963
ChiVertex.outEdge,0.0,0.013311407647446354,0.0,0.0017675617415486447,0.015078969388994999
ChiVertex.setDataPtr,0.0,0.08622233333881013,0.0,0.010869999998249112,0.09709233333705924
ChiVertex.setValue,0.0,0.0003199852939467425,0.0,4.477941175697625e-05,0.0003647647057037187
Class.createAnnotationData,0.0,0.05989043836654163,0.0,0.008935193863653402,0.06882563223019503
CodeAttribute.<init>,0.0,0.04116309770840838,0.0,0.005384324815532967,0.046547422523941354
ConcurrentHashMap.transfer,0.0001978649237420925,0.0,2.640522875689165e-05,0.0,0.00022427015249898414
ConcurrentSkipListMap.doPut,0.0,0.07053124367861927,0.0,0.020195222485439347,0.0907264661640586
ConnectedComponents.update,0.07808398641503962,0.14201358196085714,0.013423162088857878,0.02413411391241544,0.2576548443771701
DataBlockManager.allocateBlock,0.0,0.17652276227009397,0.0,0.028455575760854796,0.20497833803094878
DataBlockManager.dereference,0.035998939154724324,0.017507425323246652,0.011820705946757189,0.003063710444677474,0.06839078086940564
DataBlockManager.getRawBlock,0.006957424031630139,0.0,0.0011765223591427114,0.0,0.008133946390772851
DataBlockManager.writeValue,0.0004895248868739327,0.0019663124999819304,8.07692307865087e-05,0.0002621785714252058,0.002798785189067578
DataInputStream.<init>,0.0,0.046908791339133865,0.0,0.006386470088628069,0.053295261427761934
DefaultMXBeanMappingFactory.<clinit>,0.0,0.06444475095241582,0.0,0.009138226846910836,0.07358297779932665
DegreeData.getDegree,0.0060743129675667,1.7099704371551092,0.0005545283177301417,0.2860738494434024,2.0026731278838086
Executors.newScheduledThreadPool,0.0,0.04187731686542872,0.0,0.005463567728788567,0.047340884594217286
ExponentiallyDecayingSample.<init>,0.0,0.04187731686542872,0.0,0.005463567728788567,0.047340884594217286
GraphChiContext.getIteration,0.0,0.0019663124999819304,0.0,0.0002621785714252058,0.0022284910714071363
GraphChiEngine$2.run,0.00023378878504882452,0.04486757974502995,3.5767690217584366e-05,0.0061996623702791,0.05133679859057546
GraphChiEngine$3.run,0.12563291490403,0.2125374879922086,0.030436274528420404,0.03593024812534578,0.40453692555000476
GraphChiEngine.determineNextWindow,0.0,0.5525248817112516,0.0,0.09893121957893267,0.6514561012901843
GraphChiEngine.initVertices,0.04082465193666255,34.106252857998406,0.0045936733385975185,4.59969426362951,38.75136544690317
Gregorian.newCalendarDate,0.0,0.08012261739321577,0.0,0.011759278550758956,0.09188189594397472
ImmutableDescriptor.makeMap,0.0,0.032870503589764816,0.0,0.00549012488208179,0.038360628471846604
IntConverter.getValue,0.0043870509559119615,0.012736000009075116,0.0005628771160946979,0.0020399999993969686,0.019725928080478745
IntConverter.setValue,0.0,0.032045868834872086,0.0,0.005557298223989506,0.03760316705886159
Integer.<init>,0.0,0.0005510857843879434,0.0,0.00010485294115360552,0.0006559387255415489
Integer.intValue,0.0041974235293951905,0.0371183672672114,0.0005864558823197835,0.009896414167823093,0.05179866084674947
Integer.valueOf,0.00596124062576489,0.07757711530223833,0.0008079846579573339,0.009169029135426611,0.09351536972138717
JmxMBeanServer.<init>,0.0,0.07415648192741837,0.0,0.01061734958899743,0.0847738315164158
Level.<init>,0.0,0.0,0.0,0.0,0.0
MBeanInfo.<init>,0.0,0.032870503589764816,0.0,0.00549012488208179,0.038360628471846604
ManagementFactory$2.run,0.0,0.05989043836654163,0.0,0.008935193863653402,0.06882563223019503
MemoryShard.loadAdjChunk,0.0,0.003572362594869476,0.0,0.0004653573099710584,0.0040377199048405345
NativeConstructorAccessorImpl.newInstance0,0.0,0.03943699685799127,0.0,0.005458488437376484,0.04489548529536776
NumberFormatProviderImpl.getInstance,0.0,0.0664597456529876,0.0,0.01037622883026439,0.07683597448325198
Object.wait,0.0,0.0,0.0,0.0,0.0
ParallelListResourceBundle.<init>,0.0,0.08012261739321577,0.0,0.011759278550758956,0.09188189594397472
Pattern.closure,0.0,0.011983333332561113,0.0,0.0033600000006117625,0.015343333333172875
PlatformComponent.<clinit>,0.0,0.06448521850600361,0.0,0.008968017994363912,0.07345323650036753
RandomAccessFile.readBytes,0.014202275862269994,0.2999873136773861,0.0017787931037360225,0.05979664428469697,0.3757650269280891
RandomAccessFile.writeBytes,0.061533137814089735,0.007912545954781568,0.013397980050448295,0.0013611100105498431,0.08420477382986943
ResourceBundle$Control.<clinit>,0.0,0.042315224427151465,0.0,0.005014271954248466,0.04732949638139993
TimeZone.getTimeZone,0.0,0.0,0.0,0.0,0.0
TreeMap.keyIterator,0.0,0.07415648192741837,0.0,0.01061734958899743,0.0847738315164158
Unsafe.compareAndSwapInt,0.0,0.0,0.0,0.0,0.0
Util.newObjectName,0.0,0.038490691166506885,0.0,0.005921383917382537,0.04441207508388942
VertexAggregator.foreach,0.0,0.07744700000006964,0.0,0.01723333333251907,0.09468033333258871
VertexData.getVertexValuePtr,0.014596630302945744,0.7541289347652839,0.0016474545450006247,0.12166842125611192,0.8920414408693421
