method,package1,package2,dram1,dram2,energy
AnnotationParser.parseSig,0.0,0.051015277782021765,0.0,0.006849999998747889,0.05786527778076965
ArrayList.elementData,0.0652317191533281,0.018226698461831687,0.008956961632345243,0.0032191580409981413,0.09563453728850316
ArrayList.rangeCheck,0.0,0.0,0.0,0.0,0.0
BitSet.checkInvariants,0.009676349623646522,0.37458639375869507,0.0014860531788053939,0.06407967437346768,0.44982847093461464
BitSet.clear,0.0113037333333826,0.004160189506499345,0.0008960000000014486,0.0008228932947425947,0.017182816134625984
BitSet.get,0.033009060766896074,1.701162456861548,0.006141954509405726,0.2552043704824576,1.9955178426203073
BitSet.recalculateWordsInUse,0.0,0.0,0.0,0.0,0.0
BitSet.set,0.023139666666624918,0.001987317831758692,0.002513402777771666,0.000412917136736844,0.028053304412892117
BitSet.wordIndex,0.0,0.06574180319487263,0.0,0.008649330226006476,0.07439113342087911
BitsetScheduler.isScheduled,0.003974060606068256,0.0,0.0006183333331283953,0.0,0.004592393939196651
BitsetScheduler.removeTasks,0.0113037333333826,0.0,0.0008960000000014486,0.0,0.012199733333384047
BufferedInputStream.read,0.0,0.06900361111345571,0.0,0.009133333333011251,0.07813694444646696
ChiPointer.<init>,0.0033705827272569877,0.008670340770738872,0.0005051454545173328,0.0016577574025709643,0.014203826355084156
ChiVertex.<init>,0.26855879180960635,2.329714817843628,0.046785942723701804,0.37575824418098813,3.020817796557924
ChiVertex.getId,0.008647471551717778,0.0016817834081842792,0.0009031034482679137,0.00026460235806572297,0.011496960766235693
ChiVertex.getValue,0.0012258968832850141,0.0682465763964106,0.00015600973227991306,0.013379134601548173,0.08300761761352371
ChiVertex.inEdge,0.00732847052144417,0.06244701034850266,0.0010183579561774522,0.011261018134857853,0.08205485696098215
ChiVertex.numEdges,0.016430539255985987,0.00033289160144166506,0.002352013815613204,8.151178782875395e-05,0.01919695646086961
ChiVertex.setDataPtr,0.01215413333338802,0.061408333337264295,0.0020220000000942193,0.01147083333307819,0.08705530000382472
ChiVertex.setValue,0.01478606783959184,0.008513196140196615,0.001901813812969925,0.001396036962704182,0.026597114755462566
ClassLoader.defineClass1,0.0,0.04840079999703448,0.0,0.006555000000662403,0.05495579999769688
ConnectedComponents.update,0.7098625017569851,2.3802807722322776,0.09686680471519626,0.4200529820792927,3.6070630607837515
DataBlockManager.dereference,0.0003248093346587312,0.007912669246572952,5.367428004096278e-05,0.0012421331014997733,0.00953328596277242
DataBlockManager.writeValue,0.004605623869796196,0.0011991636138019635,0.0006997784809638333,0.0002160928017031155,0.006720658766265109
DataInputStream.readUnsignedShort,0.0,0.018904912280400785,0.0,0.00288684210573321,0.021791754386133996
DegreeData.getDegree,0.631590548184691,1.3405965713641192,0.09295142759231449,0.2181542439285069,2.283292791069632
ExponentiallyDecayingSample.<init>,0.0,0.08919253333782157,0.0,0.010916000001210098,0.10010853333903166
GraphChiContext.getIteration,0.02361221713630538,0.0,0.002986796849108845,0.0,0.026599013985414227
GraphChiEngine$2.run,0.025710701154747165,0.008975966927466196,0.0066755927725014414,0.0020348151602493873,0.04339707601496419
GraphChiEngine$3.run,0.13464531875261632,0.10639288646972622,0.028798324924465463,0.019244327008770303,0.2890808571555783
GraphChiEngine.determineNextWindow,0.1208254979323345,0.1621540175460506,0.013697185382262908,0.02796913533687469,0.3246458361975227
GraphChiEngine.initVertices,0.40937871538272025,60.818580561344895,0.07772980769598059,8.126563415596877,69.43225250002047
GraphChiEngine.run,0.024043227362912464,0.0,0.0034588034188127665,0.0,0.02750203078172523
Histogram$SampleType$2.newSample,0.0,0.06976794871615055,0.0,0.008400000000479989,0.07816794871663055
IntConverter.getValue,0.02591933333193689,0.0,0.006059999999706633,0.0,0.031979333331643524
IntConverter.setValue,0.0044515934224378766,2.102607963920338,0.0006726922459818203,0.37425549739914404,2.4819877469879015
Integer.<init>,0.07739363852296677,0.016032614071857215,0.01007953326228815,0.0028568560493278734,0.10636264190644001
Integer.intValue,0.048593815646680666,0.0019178820774492591,0.007811435320454242,0.00029378256067274876,0.05861691560525692
Integer.valueOf,0.08043026545585846,0.034486164246305184,0.012318279111684094,0.005908342094365442,0.13314305090821318
MBeanAnalyzer.initMaps,0.0,0.03800466666871216,0.0,0.004770000001371955,0.042774666670084116
MBeanFeatureInfo.getDescriptor,0.0,0.08566944443979688,0.0,0.010291666666388564,0.09596111110618544
MBeanServerBuilder.newMBeanServerDelegate,0.0,0.0205056140354524,0.0,0.002526315789477768,0.02303192982493017
MBeanServerDelegate.<clinit>,0.0,0.0205056140354524,0.0,0.002526315789477768,0.02303192982493017
MemoryShard.loadAdjChunk,0.0,0.0,0.0,0.0,0.0
NOPLoggerFactory.getLogger,0.0,0.018198157894514955,0.0,0.002722368420731264,0.02092052631524622
NotificationBroadcasterSupport.<clinit>,0.0,0.018904912280400785,0.0,0.00288684210573321,0.021791754386133996
Number.<init>,0.0469563333329764,0.0,0.012599999999414042,0.0,0.05955633333239044
NumberFormatProviderImpl.getInstance,0.0,0.053405800001928586,0.0,0.0065729999994800885,0.05997880000140868
OpenMBeanAttributeInfoSupport.valueFrom,0.0,0.08341472222026722,0.0,0.010570833333582011,0.09398555555384923
ParallelListResourceBundle.keySet,0.0,0.053405800001928586,0.0,0.0065729999994800885,0.05997880000140868
Pattern.clazz,0.02467833333381956,0.0,0.0060999999986961475,0.0,0.030778333332515707
RandomAccessFile.readBytes,0.05086266666694427,0.2595946059741747,0.006580000001122243,0.0560467294462221,0.3730840020884633
RandomAccessFile.writeBytes,0.015721368420998798,0.08360348201404134,0.002378421052350875,0.015440799946799238,0.11714407143419026
StandardMBeanSupport.getMBeanIntrospector,0.0,0.06853866666400185,0.0,0.007635999998698632,0.07617466666270048
String.charAt,0.0,0.04660033333251098,0.0,0.006149999999858361,0.05275033333236934
StringBuilder.toString,0.0,0.0,0.0,0.0,0.0
System.arraycopy,0.020744560605993626,0.0,0.003895454545492998,0.0,0.024640015151486623
TreeMap.entrySet,0.0,0.018315877191765282,0.0,0.002609210525980942,0.020925087717746226
VertexAggregator.foreach,0.011118555555488758,0.0,0.0027299999997517773,0.0,0.013848555555240536
VertexData$1.hasNext,0.009603000001031129,0.0,0.0020000000004074536,0.0,0.011603000001438582
VertexData.getVertexValuePtr,0.0049248666666648604,0.18149127041129343,0.0005020000000109171,0.03963978435513727,0.22655792143310646
