method,package1,package2,dram1,dram2,energy
chappie,0.0,0.0,0.0,0.0,0.0
javassist,0.0,0.0,0.0,0.0,0.0
javassist.bytecode,0.059366666666695274,0.0,0.0047450000007908475,0.0,0.06411166666748612
org.apache.derbyTesting.system.oe.direct,0.03229933852071748,0.104588214287235,0.0025484075660871922,0.01810178571499169,0.15753774608903134
org.apache.derbyTesting.system.oe.load,0.19187497777744889,0.0,0.012743000001581902,0.0,0.2046179777790308
org.apache.derbyTesting.system.oe.model,0.0,0.0,0.0,0.0,0.0
org.apache.derbyTesting.system.oe.util,0.23963754444424315,0.0,0.01532266666558657,0.0,0.2549602111098297
org.dacapo.h2,1.2124368643566314,0.0,0.07414928166041752,0.0,1.286586146017049
org.dacapo.harness,0.2733026369681945,0.0,0.018705744334868532,0.0,0.29200838130306306
org.dacapo.parser,0.09062849999996356,0.0,0.006931071426931469,0.0,0.09755957142689503
org.h2,0.0,0.0,0.0,0.0,0.0
org.h2.command,0.5862395568792373,0.14535511666884607,0.036117199599723364,0.025138000001970796,0.7928498731497775
org.h2.command.dml,1.7821306908827843,0.0,0.1184866660699471,0.0,1.9006173569527314
org.h2.constant,0.0,0.057861500001308734,0.0,0.00818250000156695,0.06604400000287569
org.h2.engine,0.100214280544308,0.0,0.0032229662172841194,0.0,0.10343724676159212
org.h2.expression,1.1127885048472788,0.0,0.047818921965414055,0.0,1.160607426812693
org.h2.index,6.757972386396478,0.14031986666717178,0.3946250996659369,0.024560000000443928,7.317477352730031
org.h2.jdbc,1.038281680189104,0.11019900000246707,0.05765655190347787,0.014865000001009319,1.2210022320960583
org.h2.log,0.16801398653204141,0.0,0.013232020200816175,0.0,0.1812460067328576
org.h2.message,0.14790833333305878,0.0,0.01007000000148158,0.0,0.15797833333454037
org.h2.result,1.6604243289351268,0.0,0.09528005739900611,0.0,1.7557043863341328
org.h2.schema,0.0,0.0,0.0,0.0,0.0
org.h2.store,0.0,0.0,0.0,0.0,0.0
org.h2.table,2.039060412820531,0.061233500000525964,0.13457650205535676,0.009202499999446443,2.2440729148758605
org.h2.util,0.9007635666677736,0.0,0.05563714287457095,0.0,0.9564007095423446
org.h2.value,5.807518398030041,0.0,0.25195247494446443,0.0,6.059470872974505
sun.misc,0.1833296666665471,0.0,0.0171099999982592,0.0,0.2004396666648063
sun.net.www.protocol.jar,0.07118733333345517,0.0,0.004719999999603411,0.0,0.07590733333305859
sun.security.util,0.04693904761920532,0.0,0.0037928571449204656,0.0,0.050731904764125785
sun.util.calendar,0.09096266666665542,0.0,0.007114999997914612,0.0,0.09807766666457003
