method,hits
AbstractCalendar.getCalendarDate,1
AbstractCalendar.setTimeOfDay,2
AggregateData.add,1
BaseCalendar.getCalendarDateFromFixedDate,4
BaseCalendar.getGregorianYearFromFixedDate,1
BaseIndex.compareKeys,4
BaseIndex.compareRows,93
BaseIndex.compareValues,29
BaseIndex.initBaseIndex,1
Benchmark.fileFromInputStream,12
CacheObject.<init>,1
CalendarDate.setMonth,1
CalendarProviderImpl.getInstance,1
CalendarUtils.isGregorianLeapYear,1
Chaperone.retire,1
Column.convert,7
Column.getColumnId,24
Column.validateConvertUpdateSequence,3
Command.executeQueryLocal,3
Command.executeUpdate,94
Command.stop,1
CommandContainer.update,1
CompareMode.compareString,4
Comparison.getValue,28
Comparison.isEverything,4
ConditionAndOr.getValue,4
ConditionAndOr.isEverything,5
DacapoClassLoader.loadClass,4
Database.isReconnectNeeded,4
DbObjectBase.getSQL,2
Delete.update,2
Expression.getBooleanValue,1
ExpressionColumn.getValue,13
ExpressionColumn.isEverything,4
ExpressionVisitor.<init>,1
FormattedFloatingDecimal$1.<init>,1
IndexCondition.getCurrentValue,2
IndexCondition.isAlwaysFalse,2
IndexCursor.find,12
IndexCursor.getSearchRow,8
IndexCursor.next,2
Insert.insertRows,9
JdbcConnection.checkClosed,16
JdbcConnection.setExecutingStatement,1
JdbcPreparedStatement.executeUpdate,2
JdbcPreparedStatement.setParameter,1
JdbcPreparedStatement.setString,1
JdbcResultSet.checkColumnIndex,1
JdbcResultSet.getColumnIndex,4
JdbcResultSet.getString,3
JdbcSQLException.<init>,4
JdbcStatement.checkClosed,3
JvstCodeGen.atCallExpr,1
Launcher$AppClassLoader.loadClass,3
LocalResult.addRow,1
LocalResult.currentRow,1
LocalResult.next,7
MathUtils.compare,8
MathUtils.setScale,9
Message.throwInternalError,4
Message.translate,3
MethodAccessorGenerator.generate,1
MultiVersionCursor.<init>,1
MultiVersionCursor.getSearchRow,13
MultiVersionCursor.loadNext,12
MultiVersionCursor.next,36
MultiVersionCursor.step,5
MultiVersionIndex.add,4
MultiVersionIndex.compareRows,5
MultiVersionIndex.find,4
MultiVersionIndex.remove,1
MultiVersionIndex.removeIfExists,1
NameAndTypeInfo.<init>,1
NotFoundException.<init>,1
OERandom.randomAString,2
OERandom.randomAString26_50,2
OERandom.randomData,2
OERandom.randomDecimalString,3
OERandom.randomInt,11
OERandom.randomIntPerm,1
ObjectArray$ObjectArrayIterator.<init>,1
ObjectArray$ObjectArrayIterator.hasNext,2
ObjectArray$ObjectArrayIterator.next,1
ObjectArray.<init>,1
ObjectArray.add,3
ObjectArray.createArray,2
ObjectArray.get,11
ObjectArray.iterator,53
ObjectArray.sort,7
ObjectArray.swap,5
ObjectArray.toArray,3
Parser.initialize,1
Parser.parseDelete,1
Parser.prepareCommand,1
Parser.readIf,1
Prepared.checkParameters,1
Prepared.needRecompile,1
Query.getParameterValues,1
Query.initOrder,1
Query.isEverything,1
Query.query,6
Query.sameResultAsLast,1
Record.<init>,2
Record.setSessionId,2
Resource.getBytes,2
Row.getValue,70
Row.isEmpty,2
Row.setValue,4
RowList.<init>,1
ScanCursor.next,1
ScanIndex.add,9
ScanIndex.commit,3
ScanIndex.getNextRow,25
ScanIndex.incrementRowCount,5
Schema.createTable,1
Select.isEverything,4
Select.queryFlat,19
Select.queryWithoutCache,2
Session.getDatabase,1
Session.isClosed,2
Session.isReconnectNeeded,12
SessionRemote.connectEmbeddedOrServer,1
SimpleInsert.customerTable,3
SimpleInsert.orderTable,6
SimpleInsert.stockTable,3
Standard.payment,4
StatementHelper.reset,1
StringCache.get,4
StringCache.getCache,2
Submitter.runNewOrder,1
Submitter.runPayment,1
SysProperties.<clinit>,1
TPCC.calculateSumDB,21
TPCC.prepare,1
TPCC.report,1
Table.compareTypeSave,7
Table.fireConstraints,1
Table.getTemplateRow,7
Table.validateConvertUpdateSequence,1
TableData$1.compare,7
TableData.addIndex,9
TableData.addRow,1
TableData.addRowsToIndex,5
TableData.doLock,3
TableFilter.getSelect,3
TableFilter.getValue,8
TableFilter.isOk,2
TableFilter.next,9
TableFilter.reset,1
TeeOutputStream.closeLog,1
Trace.isEnabled,4
TreeCursor.<init>,2
TreeCursor.get,4
TreeCursor.next,5
TreeIndex.add,4
TreeIndex.balance,7
TreeIndex.find,7
TreeIndex.findFirstNode,22
TreeIndex.next,14
TreeIndex.replace,3
TreeIndex.set,5
URLClassPath$JarLoader$1.run,1
UndoLog.getLast,1
UndoLogRecord.getRow,1
Update.update,2
User.validateUserPasswordHash,1
Utf8Info.<init>,1
Value.cache,6
Value.compareEqual,1
Value.compareTo,1
Value.compareTypeSave,12
Value.convertTo,14
ValueDecimal.get,1
ValueDecimal.getPrecision,6
ValueDecimal.getString,1
ValueDecimal.subtract,1
ValueInt.compareSecure,12
ValueInt.get,4
ValueInt.getObject,1
ValueInt.getString,10
ValueShort.<init>,1
ValueShort.compareSecure,1
ValueShort.getString,17
ValueString.get,2
ValueStringBase.getString,1
ValueTimestamp.convertScale,7
ValueTimestamp.equals,1
ValueTimestamp.get,1
ValueTimestamp.getString,122
ValueTimestamp.getTimestamp,1
ViewCursor.getSearchRow,1
ViewCursor.next,1
ZoneInfo.getOffsets,2
ZoneInfo.getTransitionIndex,2
ZoneInfoFile.<clinit>,1
ZoneInfoFile.getZoneInfo,1
