method,package1,package2,dram1,dram2,energy
AbstractCalendar.getCalendarDate,0.091333111220332,0.0,0.007769208080964431,0.0,0.09910231930129643
AbstractCalendar.setTimeOfDay,0.041860021658288414,0.0,0.0,0.0,0.041860021658288414
AggregateData.add,0.0,0.0,0.0,0.0,0.0
AttributeInfo.<init>,0.0,0.0,0.0,0.0,0.0
BaseCalendar.getGregorianYearFromFixedDate,0.21702198931157946,0.0,0.009300189751412691,0.0,0.22632217906299215
BaseIndex.compareKeys,0.2505729633323328,0.0,0.01799034802273764,0.0,0.26856331135507044
BaseIndex.compareRows,1.6144786031843168,0.124453888888335,0.11557490758337192,0.020267500001662282,1.874774899657686
BaseIndex.compareValues,0.6674159034109841,0.0,0.04833090799557008,0.0,0.7157468114065542
Benchmark.fileFromInputStream,0.0,0.19821177777662846,0.0,0.03319999999964946,0.23141177777627792
CacheObject.<init>,0.10425313059141489,0.0,0.012335517620740541,0.0,0.11658864821215544
CalendarDate.setDayOfMonth,0.0,0.0,0.0,0.0,0.0
CalendarDate.setLeapYear,0.0,0.0,0.0,0.0,0.0
CalendarDate.setNormalized,0.0,0.0,0.0,0.0,0.0
ClassPool.compress,0.0,0.0,0.0,0.0,0.0
Column.convert,0.0,0.0,0.0,0.0,0.0
Column.getColumnId,0.5480537759758984,0.0,0.04645162111912045,0.0,0.5945053970950189
Column.validateConvertUpdateSequence,0.14770577982644217,0.0,0.010179226392197625,0.0,0.1578850062186398
Command.executeQueryLocal,0.0,0.09738199999992504,0.0,0.015344999996159459,0.1127269999960845
Command.executeUpdate,0.20714132749049197,0.020959399999992457,0.01313971825936349,0.004322999999567401,0.24556344574941533
Command.stop,0.06375358351265101,0.0,0.004863970469138737,0.0,0.06861755398178974
CommandContainer.recompileIfRequired,0.0,0.0,0.0,0.0,0.0
CommandContainer.update,0.039829167494399104,0.0,0.002503396294811,0.0,0.042332563789210104
CompareMode.compareString,0.0,0.0,0.0,0.0,0.0
Comparison.getValue,0.5816410508265201,0.0,0.045840485454195966,0.0,0.627481536280716
Comparison.isEverything,0.0,0.0,0.0,0.0,0.0
ConditionAndOr.getValue,0.1083030710788429,0.0,0.006850921537746776,0.0,0.11515399261658968
ConditionAndOr.isEverything,0.1231304957629909,0.0,0.009510953061879155,0.0,0.13264144882487006
ConditionNot.getValue,0.0,0.0,0.0,0.0,0.0
ConnectionInfo.readProperties,0.0,0.026631666665101267,0.0,0.004120000000208771,0.03075166666531004
DacapoClassLoader.loadClass,0.0,0.2499950833340942,0.0,0.03870125000139524,0.28869633333548944
Database.areEqual,0.0557366852364349,0.05944833333584635,0.0044503900700304175,0.008799999998397348,0.12843540864070901
Database.isReconnectNeeded,0.10883687310075328,0.0,0.008138765349064023,0.0,0.1169756384498173
Delete.update,0.03153804115955726,0.0,0.0,0.0,0.03153804115955726
DisabledAlgorithmConstraints.<init>,0.0,0.0,0.0,0.0,0.0
Engine.openSession,0.0,0.06624333333214356,0.0,0.011019999998097774,0.07726333333024134
ExpressionColumn.getValue,0.27910925521469554,0.0,0.005144858184376562,0.0,0.2842541133990721
ExpressionColumn.isEverything,0.0,0.0,0.0,0.0,0.0
ExpressionVisitor.incrementQueryLevel,0.06734139997526445,0.0,0.00522265544112535,0.0,0.0725640554163898
Function.optimize,0.05126060223621726,0.0,0.002232944704624752,0.0,0.05349354694084202
IndexCondition.getCurrentValue,0.0,0.0,0.0,0.0,0.0
IndexCondition.isAlwaysFalse,0.0,0.0525367619051221,0.0,0.010982857141200274,0.06351961904632238
IndexCondition.isStart,0.07397794024666572,0.0,0.0,0.0,0.07397794024666572
IndexCursor.find,0.22661456805533245,0.0,0.01643941080977026,0.0,0.24305397886510272
IndexCursor.getMax,0.03199730709803745,0.0,0.0,0.0,0.03199730709803745
IndexCursor.getSearchRow,0.14427966751583932,0.0,0.005336597071319921,0.0,0.14961626458715924
IndexCursor.next,0.06871543973723088,0.0,0.00434544446083807,0.0,0.07306088419806894
Insert.insertRows,0.3840688788627961,0.0,0.02718350400136691,0.0,0.41125238286416305
JdbcConnection.checkClosed,0.34601364042923954,0.0,0.01531537562982673,0.0,0.36132901605906625
JdbcConnection.commit,0.0,0.0,0.0,0.0,0.0
JdbcConnection.createStatement,0.0,0.0,0.0,0.0,0.0
JdbcPreparedStatement.executeUpdate,0.0,0.0,0.0,0.0,0.0
JdbcPreparedStatement.executeUpdateInternal,0.0,0.0,0.0,0.0,0.0
JdbcPreparedStatement.setParameter,0.041889582691424884,0.0,0.003483785321569285,0.0,0.04537336801299417
JdbcPreparedStatement.setString,0.0,0.0,0.0,0.0,0.0
JdbcResultSet.checkClosed,0.0700645306745654,0.0,0.003611363636578476,0.0,0.07367589431114388
JdbcResultSet.get,0.13014225000025212,0.0,0.008895000000848086,0.0,0.1390372500011002
JdbcResultSet.getColumnIndex,0.05989875843509146,0.0,0.004516949292639952,0.0,0.0644157077277314
JdbcResultSet.getInt,0.0,0.0,0.0,0.0,0.0
JdbcResultSet.getString,0.043253666666714714,0.0,0.0035700000007636845,0.0,0.0468236666674784
JdbcResultSet.nextRow,0.04324720085326274,0.0,0.0,0.0,0.04324720085326274
JdbcSQLException.buildMessage,0.0,0.0,0.0,0.0,0.0
JdbcStatement.checkClosed,0.1567630853861252,0.0,0.008184028792177469,0.0,0.16494711417830268
Launcher$AppClassLoader.loadClass,0.0,0.0,0.0,0.0,0.0
LocalResult.<init>,0.1687971343764303,0.0,0.011643564315367262,0.0,0.18044069869179755
LocalResult.applyLimit,0.0,0.0,0.0,0.0,0.0
LocalResult.next,0.09962904196505673,0.0,0.007603728783643987,0.0,0.10723277074870072
MathUtils.compare,0.053359999999997854,0.0,0.003356249999342253,0.0,0.05671624999934011
Message.<clinit>,0.0,0.04867550000017218,0.0,0.008250000000771252,0.05692550000094343
Message.translate,0.0,0.0,0.0,0.0,0.0
MultiVersionCursor.getSearchRow,0.6449096341803344,0.05162746666464955,0.046427575299296614,0.009752000001026318,0.7527166761453069
MultiVersionCursor.loadNext,0.4954715659825371,0.0,0.03985642023947024,0.0,0.5353279862220074
MultiVersionCursor.next,0.6568541498542027,0.0,0.04770682839919588,0.0,0.7045609782533986
MultiVersionCursor.step,0.12977584953774246,0.0,0.008964097741973286,0.0,0.13873994727971575
MultiVersionIndex.add,0.054062336383843,0.0,0.0036759439656580866,0.0,0.05773828034950109
MultiVersionIndex.commit,0.0,0.0,0.0,0.0,0.0
MultiVersionIndex.compareRows,0.12851933333346702,0.0,0.008624999999786572,0.0,0.1371443333332536
MultiVersionIndex.find,0.06363933333341265,0.0,0.004744999995940209,0.0,0.06838433332935286
MultiVersionIndex.removeIfExists,0.12369799999987663,0.0,0.009485000002314337,0.0,0.13318300000219097
NameAndTypeInfo.<init>,0.0,0.0,0.0,0.0,0.0
NativeConstructorAccessorImpl.newInstance,0.05605066666673034,0.0,0.006044999999479235,0.0,0.062095666666209574
OERandom.randomAString,0.12198969803618104,0.0,0.0089667145574346,0.0,0.13095641259361565
OERandom.randomData,0.04631753198917223,0.0,0.0034381946228342307,0.0,0.04975572661200646
OERandom.randomDecimalString,0.2207397815427515,0.07069214815015179,0.01795536350188206,0.012151111111355323,0.32153840430614067
OERandom.randomInt,0.2597583799105797,0.10271970370215258,0.01881438315127301,0.01605777777688302,0.39735024454088824
OERandom.randomNString,0.11830957601714875,0.0,0.010194774189572648,0.0,0.1285043502067214
OERandom.randomZIP,0.0,0.0,0.0,0.0,0.0
ObjectArray$ObjectArrayIterator.hasNext,0.0,0.0,0.0,0.0,0.0
ObjectArray$ObjectArrayIterator.next,0.0,0.0,0.0,0.0,0.0
ObjectArray.add,0.0,0.07762575757762091,0.0,0.010209090908050932,0.08783484848567184
ObjectArray.createArray,0.0,0.06121599999756586,0.0,0.010626666668233356,0.07184266666579922
ObjectArray.get,0.2560456961523159,0.0,0.01632444714443568,0.0,0.27237014329675163
ObjectArray.iterator,0.0,0.0,0.0,0.0,0.0
ObjectArray.newInstance,0.05195070921995757,0.0,0.003805957450512846,0.0,0.05575666667047042
ObjectArray.set,0.057847431915208615,0.0,0.004550866904357486,0.0,0.0623982988195661
ObjectArray.sort,0.21301043127145394,0.0,0.017850692333265566,0.0,0.2308611236047195
ObjectArray.swap,0.0,0.0,0.0,0.0,0.0
ObjectArray.toArray,0.0,0.0,0.0,0.0,0.0
ObjectUtils.arrayCopy,0.0,0.0,0.0,0.0,0.0
Optimizer.testPlan,0.0,0.04634100000112085,0.0,0.007177499997851554,0.0535184999989724
Parameter.getParamValue,0.04653630290384537,0.0,0.004059790287778831,0.0,0.0505960931916242
Parser.parseSelectSimple,0.0,0.0,0.0,0.0,0.0
Parser.readAnd,0.06881883022862413,0.0,0.009408893518189944,0.0,0.07822772374681408
Parser.readIf,0.06946740370973918,0.0,0.006416688590260692,0.0,0.07588409229999987
Parser.readTerm,0.08657476342350892,0.0,0.005907490903076213,0.0,0.09248225432658513
PerfCounter.add,0.0,0.047068333334512616,0.0,0.007549999999658516,0.05461833333417113
Prepared.checkCanceled,0.062445413275485,0.0,0.004643141255102612,0.0,0.06708855453058761
Prepared.checkParameters,0.13955045233111896,0.03791800000180956,0.012377222725113227,0.006952499999897554,0.19679817505793928
Prepared.needRecompile,0.054734374159702365,0.0,0.004646530669843294,0.0,0.05938090482954566
Prepared.setCurrentRowNumber,0.117390999999922,0.0,0.008595000001757096,0.0,0.1259860000016791
Prepared.setSession,0.06101260768338328,0.0,0.0039575330169741366,0.0,0.06497014070035742
Query.getParameterValues,0.19042138421708454,0.0,0.01453516069537647,0.0,0.20495654491246101
Query.isEverything,0.06093626491399731,0.0,0.0045500142145528215,0.0,0.06548627912855014
Record.getSessionId,0.0,0.0,0.0,0.0,0.0
Record.isDeleted,0.0,0.0,0.0,0.0,0.0
ReflectionFactory.newConstructorAccessor,0.0,0.0,0.0,0.0,0.0
Resource.getBytes,0.0,0.032593000001118824,0.0,0.005499999999301508,0.03809300000042033
Row.getColumnCount,0.0,0.0,0.0,0.0,0.0
Row.getValue,1.3760176472059804,0.1309052499976436,0.11719175390449102,0.02207749999676404,1.6461921511048792
Row.getVersion,0.0,0.0,0.0,0.0,0.0
Row.isEmpty,0.09380329769112482,0.0,0.0073327872868823255,0.0,0.10113608497800715
Row.setValue,0.2896429084568491,0.0,0.0205152217948164,0.0,0.3101581302516655
RowList.next,0.026577383620410053,0.0,0.0,0.0,0.026577383620410053
SHA256.getHash,0.0,0.0,0.0,0.0,0.0
ScanCursor.next,0.0,0.0,0.0,0.0,0.0
ScanIndex.add,0.3521946472186435,0.0,0.01994659248246712,0.0,0.3721412397011106
ScanIndex.commit,0.1255885875794558,0.0,0.010275120272011388,0.0,0.13586370785146717
ScanIndex.getNextRow,0.19058642301081943,0.0,0.00967260288558314,0.0,0.20025902589640257
ScanIndex.incrementRowCount,0.0,0.0,0.0,0.0,0.0
Select.getCurrentGroup,0.07049060395149846,0.0,0.004618378032992514,0.0,0.07510898198449098
Select.init,0.0,0.0,0.0,0.0,0.0
Select.isEverything,0.1753343333336185,0.0,0.013644999996661984,0.0,0.1889793333302805
Select.queryFlat,0.29004827552071916,0.0,0.023721776935433342,0.0,0.3137700524561525
Select.queryWithoutCache,0.06299657742019055,0.0,0.00380970917772993,0.0,0.06680628659792048
Session.checkCommitRollback,0.0,0.0,0.0,0.0,0.0
Session.commit,0.16720763484213697,0.0,0.010126666493642123,0.0,0.1773343013357791
Session.getDatabase,0.0,0.0,0.0,0.0,0.0
Session.getId,0.0,0.0,0.0,0.0,0.0
Session.getTrace,0.044946232364486936,0.175902999995742,0.003263977370796232,0.027659999999741558,0.2517732097307667
Session.isClosed,0.08466615805642766,0.0,0.0,0.0,0.08466615805642766
Session.isReconnectNeeded,0.2630894176583941,0.0,0.0076799353965525275,0.0,0.27076935305494665
Session.unlockAll,0.0,0.0,0.0,0.0,0.0
Session.waitIfExclusiveModeEnabled,0.0,0.0,0.0,0.0,0.0
Set.update,0.06365966666665675,0.0,0.005529999999756304,0.0,0.06918966666641305
SimpleInsert.customerTable,0.10818867045503588,0.0,0.008677404754946653,0.0,0.11686607520998255
SimpleInsert.orderTable,0.24750175924812637,0.0,0.012168060384580117,0.0,0.25966981963270647
SimpleInsert.stockTable,0.0,0.0,0.0,0.0,0.0
Standard.payment,0.0,0.0,0.0,0.0,0.0
StatementHelper.getAddress,0.0,0.0,0.0,0.0,0.0
StatementHelper.prepareStatement,0.0,0.0,0.0,0.0,0.0
StringCache.get,0.12420649424483843,0.0,0.00919121822040104,0.0,0.13339771246523946
StringCache.getCache,0.0,0.0,0.0,0.0,0.0
StringUtils.toUpperEnglish,0.0,0.0,0.0,0.0,0.0
TPCC$3.run,0.0,0.0,0.0,0.0,0.0
TPCC.calculateSumDB,0.39672803030332415,0.0,0.03337102272091601,0.0,0.4300990530242402
TPCCSubmitter.runTransactions,0.038167318802800665,0.0,0.002959142437205687,0.0,0.04112646124000635
Table.compareTypeSave,0.2974325223294273,0.0,0.024612479910692608,0.0,0.3220450022401199
Table.fireConstraints,0.0,0.0,0.0,0.0,0.0
Table.getTemplateRow,0.20335090231123304,0.0,0.017721472941967936,0.0,0.22107237525320098
Table.setColumns,0.0,0.0,0.0,0.0,0.0
Table.validateConvertUpdateSequence,0.0,0.0,0.0,0.0,0.0
TableData$1.compare,0.1524411066035328,0.0,0.011075978951095354,0.0,0.16351708555462816
TableData.addIndex,0.212578193700521,0.0,0.014065104980595121,0.0,0.22664329868111613
TableData.addRow,0.05216297991671516,0.0,0.005382267552766925,0.0,0.057545247469482086
TableData.addRowsToIndex,0.15148088379437286,0.0,0.01202621182423502,0.0,0.16350709561860788
TableData.doLock,0.20471429986741707,0.0,0.015850613417222544,0.0,0.22056491328463962
TableData.lock,0.05945487115220105,0.0,0.004105544297104657,0.0,0.06356041544930571
TableData.removeRow,0.0,0.0,0.0,0.0,0.0
TableFilter.checkTimeout,0.0,0.0,0.0,0.0,0.0
TableFilter.getValue,0.14946698937522745,0.0,0.011332294970275169,0.0,0.1607992843455026
TableFilter.lock,0.0,0.0,0.0,0.0,0.0
TableFilter.next,0.6272965203004772,0.0,0.038520502577593145,0.0,0.6658170228780703
TableFilter.reset,0.0,0.0,0.0,0.0,0.0
Trace.isEnabled,0.037073565623407904,0.0,0.0,0.0,0.037073565623407904
Trace.isInfoEnabled,0.0,0.07550281481558663,0.0,0.01065333333099261,0.08615614814657924
TraceSystem.<init>,0.0,0.06498233333210615,0.0,0.009639999999005036,0.07462233333111119
TraceSystem.getTrace,0.0,0.0,0.0,0.0,0.0
TreeCursor.<init>,0.05899865292260696,0.0,0.007648195481617614,0.0,0.06664684840422458
TreeCursor.get,0.11743166666641022,0.0,0.008045000002312008,0.0,0.12547666666872223
TreeCursor.next,0.15499368786583007,0.07755533333450633,0.011630255666859584,0.013295000001865748,0.2574742768690617
TreeIndex.add,0.4381940924832127,0.0,0.03846206602852222,0.0,0.47665615851173493
TreeIndex.balance,0.2625854097074247,0.0,0.020954203911249143,0.0,0.28353961361867386
TreeIndex.child,0.0,0.0,0.0,0.0,0.0
TreeIndex.find,0.14745752111879704,0.0,0.01046447862090435,0.0,0.1579219997397014
TreeIndex.findFirstNode,0.25123567990416407,0.09686250000231666,0.01924099189138212,0.016244999998889398,0.38358417179675225
TreeIndex.next,0.4320331863196073,0.0,0.03504995274024098,0.0,0.4670831390598483
TreeIndex.replace,0.0,0.0,0.0,0.0,0.0
TreeIndex.set,0.0,0.0,0.0,0.0,0.0
URLClassPath$JarLoader.checkResource,0.0,0.0,0.0,0.0,0.0
URLClassPath$JarLoader.getJarFile,0.0,0.04286022222206358,0.0,0.007346666667015393,0.050206888889078975
URLClassPath$JarLoader.getResource,0.0,0.0,0.0,0.0,0.0
UndoLog.getLast,0.0,0.0,0.0,0.0,0.0
UndoLogRecord.commit,0.031103560602731,0.0,0.0014587847749036279,0.0,0.032562345377634624
Unsafe.putLong,0.0,0.0,0.0,0.0,0.0
Update.update,0.0,0.0,0.0,0.0,0.0
Value.<clinit>,0.0,0.06483966666564811,0.0,0.010990000000068296,0.0758296666657164
Value.cache,0.05066063266349099,0.0,0.005303552029372193,0.0,0.055964184692863184
Value.checkPrecision,0.2499865067719151,0.0,0.017605836254588867,0.0,0.267592343026504
Value.compareTo,0.0,0.0,0.0,0.0,0.0
Value.compareTypeSave,0.4647040931132915,0.0956626666666125,0.03404723842865009,0.018894999998641044,0.6133089982071952
Value.convertScale,0.07593852890566824,0.0,0.00595576017944439,0.0,0.08189428908511263
Value.convertTo,0.2546664145953883,0.11574299999968693,0.020951388603845246,0.020175000000259992,0.41153580319918054
ValueBoolean.getBoolean,0.0,0.0,0.0,0.0,0.0
ValueDecimal.add,0.0,0.0,0.0,0.0,0.0
ValueDecimal.equals,0.0981023452613108,0.0,0.0076316186066095765,0.0,0.10573396386792037
ValueDecimal.get,0.0,0.046875,0.0,0.005805000000691507,0.05268000000069151
ValueDecimal.getPrecision,0.0,0.0,0.0,0.0,0.0
ValueDecimal.getString,0.06884766666659439,0.0,0.004754999999325567,0.0,0.07360266666591996
ValueDecimal.subtract,0.0577272226923956,0.0,0.004668864217847107,0.0,0.062396086910242704
ValueInt.compareSecure,0.07498610930804073,0.0,0.004413177854715522,0.0,0.07939928716275625
ValueInt.getInt,0.11376523908456401,0.0,0.004403876673168167,0.0,0.11816911575773217
ValueInt.getString,0.32446401433530503,0.0,0.015546632342617484,0.0,0.3400106466779225
ValueInt.getType,0.06793233333337413,0.0,0.005064999997557607,0.0,0.07299733333093174
ValueShort.compareSecure,0.030222897786768805,0.0,0.0038160306424739267,0.0,0.034038928429242735
ValueShort.equals,0.05072474628263778,0.0,0.0046399061629233025,0.0,0.05536465244556109
ValueShort.getString,0.6566662639956309,0.0,0.043301277652707,0.0,0.6999675416483379
ValueShort.getType,0.061909999999897984,0.0,0.00473999999667285,0.0,0.06664999999657084
ValueString.compareSecure,0.0,0.0,0.0,0.0,0.0
ValueString.hashCode,0.0,0.0,0.0,0.0,0.0
ValueStringFixed.get,0.08593422288379284,0.0,0.005849655368206802,0.0,0.09178387825199964
ValueStringFixed.trimRight,0.07726282651335507,0.0,0.006425083061681882,0.0,0.08368790957503695
ValueTimestamp.convertScale,0.4375063496247363,0.0,0.02461815669741901,0.0,0.4621245063221553
ValueTimestamp.get,0.0,0.0,0.0,0.0,0.0
ValueTimestamp.getString,3.382087569192947,0.0,0.21955150645391283,0.0,3.6016390756468595
ViewCursor.next,0.0,0.0,0.0,0.0,0.0
ZoneInfo.getTimeZone,0.0,0.0,0.0,0.0,0.0
ZoneInfo.getTransitionIndex,0.0,0.0,0.0,0.0,0.0
ZoneInfoFile.getZoneInfo,0.0,0.11964900000263393,0.0,0.020600000001043856,0.1402490000036778
