method,package1,package2,dram1,dram2,energy
AbstractCalendar,0.0,0.08593733333691489,0.0,0.009679999997994553,0.09561733333490945
AggregateData,0.0,0.0,0.0,0.0,0.0
AttributeInfo,0.07168710168063676,0.0,0.005898710162265793,0.0,0.07758581184290256
BaseCalendar,0.0,0.33360791666200384,0.0,0.042865000000650376,0.3764729166626542
BaseIndex,1.9150338253865167,0.7109073555567799,0.1376486177130048,0.11610102082782355,2.8796908194841246
Benchmark,0.25869400531213477,0.0,0.021185886077227697,0.0,0.2798798913893625
BitField,0.03740216577546188,0.0,0.002871874183674742,0.0,0.04027403995913663
CacheObject,0.02743090788534511,0.0,0.0028418224550519192,0.0,0.03027273034039703
CalendarDate,0.04649447093958034,0.06508366666578998,0.000582982463909165,0.008914999998523855,0.12107612006780334
CalendarProviderImpl,0.022753268052597198,0.0,0.0016770756160813115,0.0,0.02443034366867851
CodeAttribute,0.0,0.0,0.0,0.0,0.0
Column,0.41269925996909645,0.0,0.03582168603055172,0.0,0.4485209459996482
Command,0.3454478417096102,0.025248109127273884,0.02808768894857701,0.004304929742419116,0.4030885695278802
CommandContainer,0.10693552458131933,0.29353079414853556,0.008014531722122248,0.042158427839684404,0.4506392782916615
CompareMode,0.02581233182557667,0.03880259259151191,0.0,0.006797222221966539,0.07141214663905511
Comparison,0.38046326800460917,0.0,0.02587641923126337,0.0,0.40633968723587255
ConditionAndOr,0.05635358598431857,0.0,0.0,0.0,0.05635358598431857
ConditionNot,0.07687691292393652,0.0,0.009111432209898252,0.0,0.08598834513383477
CtClassType,0.0,0.0,0.0,0.0,0.0
DacapoClassLoader,0.19952026216469998,0.0,0.014062943946381433,0.0,0.21358320611108142
DataType,0.0,0.0,0.0,0.0,0.0
Database,0.0,0.0,0.0,0.0,0.0
DbObjectBase,0.038411241184824085,0.0,0.003031523896358318,0.0,0.0414427650811824
Driver,0.0,0.0,0.0,0.0,0.0
Expression,0.0,0.09136980000184848,0.0,0.015479999999661232,0.10684980000150972
ExpressionColumn,0.1954431249838724,0.096957722223629,0.012631188222800242,0.016207499998320902,0.3212395354286225
ExpressionVisitor,0.23796406249875268,0.0,0.011173216231123386,0.0,0.24913727872987607
FieldInfo,0.0,0.0,0.0,0.0,0.0
Gregorian,0.0,0.0,0.0,0.0,0.0
HashBase,0.0,0.0,0.0,0.0,0.0
IOUtils,0.03063623277490341,0.0,0.002391992462995736,0.0,0.033028225237899146
IndexCursor,0.586064912066323,0.0,0.03649324743022051,0.0,0.6225581594965436
Insert,0.11089139349508409,0.0,0.008093327859544298,0.0,0.11898472135462838
JdbcConnection,0.04810981372282342,0.17038483333635668,0.003741190358666722,0.018670000000687047,0.24090583741853386
JdbcPreparedStatement,0.047337346792022485,0.048787333333166316,0.003789167467757832,0.005689999998139683,0.1056038475910863
JdbcResultSet,0.0,0.1342582307710799,0.0,0.017671153848566927,0.15192938461964683
JdbcSQLException,0.0,0.0,0.0,0.0,0.0
JdbcStatement,0.0,0.09042986666997119,0.0,0.009872000000420182,0.10030186667039137
Launcher$AppClassLoader,0.0,0.0,0.0,0.0,0.0
LocalResult,0.3655625163818781,0.0,0.018737421841308874,0.0,0.384299938223187
MathUtils,0.1811454639963315,0.0,0.016883627252907672,0.0,0.19802909124923918
Message,0.0,0.0,0.0,0.0,0.0
MethodAccessorGenerator,0.0,0.0,0.0,0.0,0.0
MultiVersionCursor,0.9490444776633454,0.17307061673695756,0.07416983610737518,0.02885804057063809,1.2251429710783164
MultiVersionIndex,0.19950639284555063,0.0,0.023421306761448008,0.0,0.22292769960699865
NameAndTypeInfo,0.057084012433441224,0.0,0.0045411784545278545,0.0,0.06162519088796908
OERandom,0.6756098881450242,0.0,0.05217582114968229,0.0,0.7277857092947065
ObjectArray,0.5876120126819648,0.03072099999796288,0.058071644056165564,0.002880000000004657,0.679284656736098
ObjectArray$ObjectArrayIterator,0.025077389953633008,0.0,0.0,0.0,0.025077389953633008
ObjectUtils,0.040451566852349366,0.0,0.002924209650462441,0.0,0.043375776502811804
Operation,0.0,0.0,0.0,0.0,0.0
Parameter,0.0615193647561855,0.0,0.0046850330932108495,0.0,0.06620439784939636
Parser,0.0,0.0,0.0,0.0,0.0
Prepared,0.0784062587426586,0.0,0.010110012246525036,0.0,0.08851627098918363
Query,0.0,0.0,0.0,0.0,0.0
Record,0.0,0.0,0.0,0.0,0.0
Resource,0.03623097718583262,0.0,0.0026556648494072328,0.0,0.03888664203523985
Row,1.3314300810783797,0.7872541277772447,0.10060123686594963,0.1258373333376868,2.345122779059261
RowList,0.0,0.0,0.0,0.0,0.0
ScanIndex,0.581470133382096,0.27671299999929033,0.04329800483454883,0.05577500000314709,0.9572561382190822
Select,0.6963096398581077,0.18210833333432674,0.05166168805943407,0.04088000000047032,0.9709596612523388
Session,0.2682886257743187,0.09063700000115205,0.022257629838284353,0.012924999997873478,0.3941082556116286
SessionFactoryEmbedded,0.0,0.0,0.0,0.0,0.0
SimpleInsert,0.22252344394858445,0.0,0.01634884181297924,0.0,0.2388722857615637
Standard,0.0,0.0,0.0,0.0,0.0
StatementHelper,0.0,0.0,0.0,0.0,0.0
StringCache,0.22716394618644353,0.0,0.017083249322534556,0.0,0.24424719550897808
StringUtils,0.0,0.0,0.0,0.0,0.0
SysProperties,0.0,0.0,0.0,0.0,0.0
TPCC,0.12909490602601026,0.3257134545468337,0.00959423187889805,0.04958363635876484,0.5139862288105068
TPCCSubmitter,0.0,0.0,0.0,0.0,0.0
Table,0.422421019293778,0.0,0.03270028104276693,0.0,0.45512130033654496
TableData,0.31121567914304016,0.0,0.018278139228376726,0.0,0.3294938183714169
TableData$1,0.14173231179809911,0.0,0.008183360990538438,0.0,0.14991567278863754
TableFilter,0.3478961911393294,0.0,0.01853230643284527,0.0,0.36642849757217466
Trace,0.03341353476830746,0.08253966666476723,0.00253323520658807,0.018090000000180833,0.1365764366398436
TraceObject,0.0,0.0,0.0,0.0,0.0
TraceSystem,0.0,0.0,0.0,0.0,0.0
TransactionCommand,0.0,0.0,0.0,0.0,0.0
TreeCursor,0.22057495165896945,0.16599099999972777,0.015059028012419559,0.0276009999991705,0.42922597967028725
TreeIndex,1.3390174033482467,0.0,0.10649423250595277,0.0,1.4455116358541995
URLClassPath$JarLoader,0.09695912431765992,0.0,0.007456287039767749,0.0,0.10441541135742767
URLClassPath$JarLoader$2,0.0,0.0,0.0,0.0,0.0
UTF_8$Decoder,0.0,0.0,0.0,0.0,0.0
UndoLog,0.0,0.0,0.0,0.0,0.0
Update,0.0,0.0,0.0,0.0,0.0
Value,0.6069894056097804,0.10668966666708002,0.045521313555571014,0.015300000001540562,0.774500385833972
ValueBoolean,0.0,0.04676500000059604,0.0,0.0057060000006458715,0.05247100000124191
ValueDecimal,0.08582301650877999,0.04290766666720931,0.00575217171826729,0.00405999999929918,0.13854285489355575
ValueInt,0.1581283168561617,0.30622911948526466,0.008036914027502243,0.038871228073397004,0.5112655784423256
ValueShort,0.10718854919399645,0.7161612000122356,0.008711879757777836,0.09702599999533656,0.9290876289593465
ValueString,0.061910141515627036,0.0,0.00465784999721217,0.0,0.06656799151283921
ValueStringBase,0.0,0.0,0.0,0.0,0.0
ValueStringFixed,0.0,0.0,0.0,0.0,0.0
ValueTimestamp,0.32192490403729773,3.3941903633912602,0.023647687118897184,0.4375417150365898,4.177304669584045
ViewCursor,0.047387670372242535,0.0,0.0005786495528228938,0.0,0.04796631992506543
ZoneInfo,0.0,0.11385100000188686,0.0,0.012555000001157168,0.12640600000304403
ZoneInfoFile,0.07549692210258589,0.0,0.005723867813294998,0.0,0.08122078991588089
