method,package1,package2,dram1,dram2,energy
AbstractCalendar.getCalendarDate|Gregorian.getCalendarDate|Gregorian.getCalendarDate,0.0,0.04659000000053008,0.0,0.0064200000003135456,0.053010000000843625
AlterTableAddConstraint.tryUpdate|AlterTableAddConstraint.update|CreateTable.update,0.0,0.0,0.0,0.0,0.0
BaseCalendar.getCalendarDateFromFixedDate|AbstractCalendar.getCalendarDate|Gregorian.getCalendarDate,0.0,0.08033990475988026,0.0,0.007968571429955773,0.08830847618983603
BaseCalendar.getGregorianYearFromFixedDate|BaseCalendar.getCalendarDateFromFixedDate|AbstractCalendar.getCalendarDate,0.0,0.025793400000839024,0.0,0.002903999999398365,0.028697400000237388
BaseIndex.compareKeys|TreeIndex.add|MultiVersionIndex.add,0.0,0.0,0.0,0.0,0.0
BaseIndex.compareRows|MultiVersionIndex.compareRows|MultiVersionCursor.next,0.0,0.0,0.0,0.0,0.0
BaseIndex.compareRows|MultiVersionIndex.compareRows|TableData$1.compare,0.13114826868330448,0.0,0.010595737837768677,0.0,0.14174400652107316
BaseIndex.compareRows|TreeCursor.next|MultiVersionCursor.step,0.06591799999993478,0.1040441917619959,0.004759999998592925,0.015892445611167417,0.19061463737169101
BaseIndex.compareRows|TreeCursor.next|MultiVersionIndex.removeIfExists,0.0,0.0,0.0,0.0,0.0
BaseIndex.compareRows|TreeIndex.add|MultiVersionIndex.add,0.21804489752799563,0.0,0.01614505125332464,0.0,0.23418994878132027
BaseIndex.compareRows|TreeIndex.findFirstNode|TreeIndex.find,0.2807046207279572,0.0,0.015740665677498406,0.0,0.29644528640545564
BaseIndex.compareRows|TreeIndex.findFirstNode|TreeIndex.remove,0.0,0.048889333333742485,0.0,0.004619999999704305,0.05350933333344679
BaseIndex.compareValues|BaseIndex.compareRows|MultiVersionIndex.compareRows,0.05731418518499359,0.0,0.004608333333399733,0.0,0.06192251851839332
BaseIndex.compareValues|BaseIndex.compareRows|TreeCursor.next,0.0,0.0,0.0,0.0,0.0
BaseIndex.compareValues|BaseIndex.compareRows|TreeIndex.add,0.1570910567276056,0.0,0.014284640337687757,0.0,0.17137569706529335
BaseIndex.compareValues|BaseIndex.compareRows|TreeIndex.findFirstNode,0.2118294820581833,0.0,0.017501610857966428,0.0,0.22933109291614973
Benchmark.initialize|Benchmark.<init>|H2.<init>,0.0665118824242045,0.0,0.0051198273500948676,0.0,0.07163170977429936
CacheObject.<init>|Record.<init>|Row.<init>,0.0,0.0,0.0,0.0,0.0
CalendarDate.setDayOfMonth|BaseCalendar.getCalendarDateFromFixedDate|AbstractCalendar.getCalendarDate,0.0,0.04905200000212062,0.0,0.005419999998897159,0.05447200000101778
ClassClassPath.openClassfile|ClassPoolTail.openClassfile|ClassPool.openClassfile,0.051388668566836895,0.0,0.003880882378119115,0.0,0.05526955094495601
Column.convert|IndexCursor.find|TableFilter.next,0.04567227213683303,0.030883666666341014,0.004046852305651334,0.005160000000614673,0.08576279110944005
Column.convert|Insert.insertRows|Insert.update,0.08400466666656332,0.0,0.005899999998897934,0.0,0.08990466666546126
Column.getColumnId|TableFilter.getValue|ExpressionColumn.getValue,0.06653387526491397,0.0,0.002145196819153824,0.0,0.0686790720840678
Column.updateSequenceIfRequired|Column.validateConvertUpdateSequence|Table.validateConvertUpdateSequence,0.0,0.0,0.0,0.0,0.0
Command.checkCanceled|Prepared.checkCanceled|Prepared.setCurrentRowNumber,0.0,0.0,0.0,0.0,0.0
Command.executeQueryLocal|Command.executeQuery|JdbcConnection.getTransactionIsolation,0.0,0.0,0.0,0.0,0.0
Command.executeQueryLocal|Command.executeQuery|JdbcPreparedStatement.executeQuery,0.060180666666686485,0.0,0.0051399999962692755,0.0,0.06532066666295576
Command.executeUpdate|JdbcConnection.commit|JdbcConnection.setTransactionIsolation,0.0,0.0,0.0,0.0,0.0
Command.executeUpdate|JdbcConnection.commit|Standard.paymentById,0.0,0.0,0.0,0.0,0.0
Command.executeUpdate|JdbcConnection.rollbackInternal|JdbcConnection.rollback,0.0,0.05678594328681396,0.0,0.009475216086519023,0.06626115937333299
Command.executeUpdate|JdbcPreparedStatement.executeUpdateInternal|JdbcPreparedStatement.executeUpdate,0.09795666666665664,0.04667385211196472,0.007866249996368424,0.0075204340534377155,0.16001720282842752
CommandContainer.getParameters|JdbcPreparedStatement.setParameter|JdbcPreparedStatement.setInt,0.0,0.0,0.0,0.0,0.0
CommandContainer.recompileIfRequired|CommandContainer.update|Command.executeUpdate,0.07891833333330092,0.0,0.004724999998870771,0.0,0.0836433333321717
Comparison.getValue|ConditionAndOr.getValue|ConditionAndOr.getValue,0.08862299999994622,0.0,0.004150000000663567,0.0,0.09277300000060978
Comparison.getValue|ConditionAndOr.getValue|Expression.getBooleanValue,0.20359411177858194,0.0,0.007566163392090158,0.0,0.2111602751706721
Comparison.getValue|Expression.getBooleanValue|Delete.update,0.0,0.0,0.0,0.0,0.0
ConditionAndOr.getValue|ConditionAndOr.getValue|ConditionAndOr.getValue,0.0,0.0,0.0,0.0,0.0
ConditionAndOr.getValue|Expression.getBooleanValue|Select.queryFlat,0.0,0.0,0.0,0.0,0.0
ConditionAndOr.isEverything|Select.isEverything|Query.isEverything,0.045593333333575466,0.0,0.003580000004149042,0.0,0.04917333333772451
ConditionAndOr.setEvaluatable|Plan.setEvaluatable|Plan.calculateCost,0.0,0.0,0.0,0.0,0.0
ConditionExists.getValue|ConditionNot.getValue|Expression.getBooleanValue,0.0,0.0,0.0,0.0,0.0
Data.dataForBadCredit|Standard.paymentById|Standard.payment,0.0,0.0,0.0,0.0,0.0
Database.beforeWriting|Session.isReconnectNeeded|JdbcConnection.checkClosed,0.0,0.0,0.0,0.0,0.0
Database.isReconnectNeeded|Session.isReconnectNeeded|JdbcConnection.checkClosed,0.08254397233282301,0.0,0.0020114085520319945,0.0,0.08455538088485501
Database.open|Database.openDatabase|Database.<init>,0.0679968719763801,0.0,0.004550961667944753,0.0,0.07254783364432485
Driver.connect|TPCC.makeConnection|TPCC.getConnection,0.0,0.0,0.0,0.0,0.0
Engine.openSession|Engine.openSession|Engine.getSession,0.0,0.0,0.0,0.0,0.0
ExpressionColumn.getAlias|LocalResult.getAlias|JdbcResultSet.getColumnIndex,0.0,0.0,0.0,0.0,0.0
ExpressionColumn.getValue|Comparison.getValue|ConditionAndOr.getValue,0.029009429088518564,0.08142516400823308,0.002724012438330173,0.009730942438478484,0.12288954797356029
ExpressionColumn.getValue|IndexCondition.getCurrentValue|IndexCursor.find,0.044349817757433616,0.0,0.004086039236965905,0.0,0.04843585699439952
ExpressionColumn.getValue|Select.queryFlat|Select.queryWithoutCache,0.18654149852758278,0.04319266666910456,0.013291875072010321,0.0054850000014994285,0.2485110402701971
ExpressionColumn.isEverything|Comparison.isEverything|ConditionAndOr.isEverything,0.0,0.0,0.0,0.0,0.0
ExpressionVisitor.<init>|ExpressionVisitor.get|Query.isEverything,0.0,0.0,0.0,0.0,0.0
ExpressionVisitor.getType|Select.isEverything|Query.isEverything,0.0,0.0,0.0,0.0,0.0
ExpressionVisitor.get|Query.isEverything|Query.query,0.0,0.0,0.0,0.0,0.0
ExpressionVisitor.get|Query.isEverything|Query.sameResultAsLast,0.05127786650297505,0.0,0.0005736884434949434,0.0,0.051851554946469994
Gregorian.getCalendarDate|Date.normalize|Date.getYear,0.0,0.03309340000123484,0.0,0.0036000000007334163,0.03669340000196826
IndexCondition.getCurrentValue|IndexCursor.find|TableFilter.next,0.0,0.0,0.0,0.0,0.0
IndexCursor.find|TableFilter.next|Select.queryFlat,0.14383072878520362,0.05531833333467754,0.012928940920341546,0.008170000000973232,0.22024800304119593
IndexCursor.getMax|IndexCursor.getSearchRow|IndexCursor.find,0.0,0.0,0.0,0.0,0.0
IndexCursor.getSearchRow|TableFilter.next|Select.queryFlat,0.08934698527193323,0.0,0.004932282280117608,0.0,0.09427926755205084
IndexCursor.next|TableFilter.next|Select.queryFlat,0.053246133110998135,0.042704333335374635,0.004598284852149639,0.004389999999451296,0.1049387512979737
Insert.insertRows|Insert.update|CommandContainer.update,0.2527913612648601,0.0,0.019281905937124026,0.0,0.27207326720198416
Insert.prepare|Parser.prepareCommand|Session.prepareLocal,0.0,0.0,0.0,0.0,0.0
JdbcConnection.checkClosed|JdbcConnection.checkClosed|JdbcResultSet.checkClosed,0.06373349832549156,0.0656333333342142,0.004622868966191598,0.008505000000392707,0.14249470062629005
JdbcConnection.checkClosed|JdbcResultSet.checkClosed|JdbcResultSet.next,0.0,0.0,0.0,0.0,0.0
JdbcConnection.checkClosed|JdbcStatement.checkClosed|JdbcPreparedStatement.checkClosed,0.07227810471329522,0.07053633333271138,0.0011287589780538,0.009850000002188608,0.15379319702624902
JdbcPreparedStatement.executeQuery|Standard.newOrder|Submitter.runNewOrder,0.0,0.0,0.0,0.0,0.0
JdbcPreparedStatement.executeUpdateInternal|JdbcPreparedStatement.executeUpdate|SimpleInsert.stockTable,0.06007900000016282,0.0,0.004780000000513003,0.0,0.06485900000067582
JdbcPreparedStatement.executeUpdate|SimpleInsert.orderTable|SimpleInsert.populateForOneWarehouse,0.0,0.0,0.0,0.0,0.0
JdbcPreparedStatement.setParameter|JdbcPreparedStatement.setInt|Standard.newOrder,0.0,0.0,0.0,0.0,0.0
JdbcPreparedStatement.setParameter|JdbcPreparedStatement.setInt|Standard.paymentById,0.0,0.0,0.0,0.0,0.0
JdbcPreparedStatement.setParameter|JdbcPreparedStatement.setTimestamp|SimpleInsert.orderTable,0.0,0.0,0.0,0.0,0.0
JdbcResultSet.checkClosed|JdbcResultSet.checkColumnIndex|JdbcResultSet.get,0.0659238017515196,0.0,0.005264983870414693,0.0,0.07118878562193429
JdbcResultSet.checkColumnIndex|JdbcResultSet.get|JdbcResultSet.getString,0.04309786096459908,0.0,0.00406171670537643,0.0,0.047159577669975514
JdbcResultSet.checkOnValidRow|JdbcResultSet.get|JdbcResultSet.getString,0.0,0.0,0.0,0.0,0.0
JdbcResultSet.getColumnIndex|JdbcResultSet.get|JdbcResultSet.getString,0.0,0.0,0.0,0.0,0.0
JdbcResultSet.getInt|Standard.newOrder|Submitter.runNewOrder,0.0,0.0,0.0,0.0,0.0
JdbcResultSet.getInt|Standard.orderStatus|Submitter.runOrderStatus,0.0,0.0,0.0,0.0,0.0
JdbcResultSet.getString|TPCC.calculateSumDB|TPCC.calculateSumDB,0.18467016692030946,0.038952599999902304,0.013683511783033253,0.005345999999553896,0.24265227870279893
JdbcResultSet.get|JdbcResultSet.getString|TPCC.calculateSumDB,0.14115800368788295,0.0,0.00990165278090475,0.0,0.1510596564687877
JdbcResultSet.nextRow|JdbcResultSet.next|TPCC.calculateSumDB,0.0,0.0,0.0,0.0,0.0
JdbcStatement.checkClosed|JdbcPreparedStatement.checkClosed|JdbcStatement.checkClosed,0.05729657727484455,0.04968233333299092,0.004633528065016278,0.005399999999402401,0.11701243867225415
JdbcStatement.checkClosed|JdbcPreparedStatement.checkClosed|JdbcStatement.checkClosedForWrite,0.1102096216218834,0.0,0.004874864863735196,0.0,0.1150844864856186
JdbcStatement.checkClosed|JdbcResultSet.checkClosed|JdbcResultSet.checkColumnIndex,0.04208930071797467,0.0,0.0005700975112455894,0.0,0.042659398229220255
LocalResult.next|JdbcResultSet.nextRow|JdbcResultSet.next,0.05555865589780837,0.04952000000048429,0.004716420983147671,0.0046399999991990635,0.11443507688063939
MathUtils.compare|ValueInt.compareSecure|Value.compareTypeSave,0.0,0.0,0.0,0.0,0.0
MathUtils.compare|ValueShort.compareSecure|Value.compareTypeSave,0.045409530579703934,0.0,0.0011333493489368669,0.0,0.0465428799286408
MethodInfo.read|MethodInfo.<init>|ClassFile.read,0.0,0.0,0.0,0.0,0.0
MultiVersionCursor.getSearchRow|IndexCursor.getSearchRow|TableFilter.next,0.0581256666664558,0.08723712873504567,0.005354999998720207,0.013564563530298121,0.16428235893051982
MultiVersionCursor.loadNext|MultiVersionCursor.next|IndexCursor.next,0.41848692469874743,0.08887739194532607,0.026023840562951064,0.013963305586188718,0.5473514627932133
MultiVersionCursor.next|IndexCursor.next|TableFilter.next,0.2582842936842997,0.12162258612470767,0.01571080945216508,0.019386531390484102,0.41500422065165654
MultiVersionCursor.step|MultiVersionCursor.loadNext|MultiVersionCursor.next,0.33670114946424123,0.07770165436248752,0.027446225460887923,0.011201344720755159,0.4530503740083719
MultiVersionIndex.add|TableData.addRowsToIndex|TableData.addIndex,0.0448007163120335,0.0,0.003499593683422778,0.0,0.04830030999545628
MultiVersionIndex.add|TableData.addRow|Table.updateRows,0.0,0.060892666665798366,0.0,0.005799999998998828,0.0666926666647972
MultiVersionIndex.commit|UndoLogRecord.commit|Session.commit,0.0,0.0,0.0,0.0,0.0
MultiVersionIndex.compareRows|MultiVersionCursor.next|IndexCursor.next,0.0,0.0,0.0,0.0,0.0
MultiVersionIndex.compareRows|TableData$1.compare|TableData$1.compare,0.04569841000634669,0.0,0.005187213481971597,0.0,0.050885623488318286
MultiVersionIndex.removeIfExists|MultiVersionIndex.add|TableData.addRow,0.0,0.0,0.0,0.0,0.0
MultiVersionIndex.removeIfExists|MultiVersionIndex.commit|UndoLogRecord.commit,0.0,0.0,0.0,0.0,0.0
OERandom.randomAString24|SimpleInsert.orderTable|SimpleInsert.populateForOneWarehouse,0.04465766666665634,0.0,0.0035649999966456867,0.0,0.04822266666330203
OERandom.randomAString|SimpleInsert.customerTable|SimpleInsert.populateForOneWarehouse,0.0,0.0,0.0,0.0,0.0
OERandom.randomNString|OERandom.randomZIP|SimpleInsert.customerTable,0.07820633333327956,0.0,0.005319999998998052,0.0,0.08352633333227762
OERandom.randomState|SimpleInsert.customerTable|SimpleInsert.populateForOneWarehouse,0.057332333333458024,0.0,0.004719999997178093,0.0,0.06205233333063612
ObjectArray$ObjectArrayIterator.hasNext|Select.isEverything|Query.isEverything,0.0,0.0,0.0,0.0,0.0
ObjectArray$ObjectArrayIterator.next|IndexCursor.find|TableFilter.next,0.0,0.0,0.0,0.0,0.0
ObjectArray.add|LocalResult.addRow|Select.queryFlat,0.059455212957455685,0.0,0.00463563277949039,0.0,0.06409084573694608
ObjectArray.createArray|ObjectArray.ensureCapacity|ObjectArray.add,0.08795166666641308,0.0,0.004740000001523488,0.0,0.09269166666793656
ObjectArray.get|JdbcPreparedStatement.setParameter|JdbcPreparedStatement.setDouble,0.0,0.0,0.0,0.0,0.0
ObjectArray.get|LocalResult.next|JdbcResultSet.nextRow,0.0,0.0,0.0,0.0,0.0
ObjectArray.get|LocalResult.next|ViewCursor.next,0.033448631327489514,0.0,0.0004067801927490188,0.0,0.033855411520238535
ObjectArray.get|ObjectArray$ObjectArrayIterator.next|IndexCursor.find,0.0,0.0,0.0,0.0,0.0
ObjectArray.get|ObjectArray$ObjectArrayIterator.next|Select.isEverything,0.0,0.0,0.0,0.0,0.0
ObjectArray.get|ScanIndex.getNextRow|ScanCursor.next,0.0,0.0,0.0,0.0,0.0
ObjectArray.get|Select.queryFlat|Select.queryWithoutCache,0.0,0.0,0.0,0.0,0.0
ObjectArray.iterator|Select.isEverything|Query.isEverything,0.04056799999974221,0.0,0.0033150000017485577,0.0,0.04388300000149077
ObjectArray.sort|ObjectArray.sort|ObjectArray.sort,0.03855682287261207,0.0,0.0014376242310927426,0.0,0.03999444710370481
ObjectArray.sort|ObjectArray.sort|TableData.addRowsToIndex,0.09448646545642499,0.0,0.008364438296067629,0.0,0.10285090375249262
ObjectArray.swap|ObjectArray.sort|ObjectArray.sort,0.0,0.0,0.0,0.0,0.0
ObjectArray.toArray|LocalResult.getList|LocalResult.<init>,0.04172252420410675,0.0,0.0011523221214507081,0.0,0.04287484632555746
Operation.getValue|Update.update|CommandContainer.update,0.0,0.0,0.0,0.0,0.0
Parameter.checkSet|Prepared.checkParameters|CommandContainer.query,0.0,0.0,0.0,0.0,0.0
Parameter.getParamValue|Parameter.getValue|Insert.insertRows,0.06277653333357497,0.0,0.004287999998390054,0.0,0.06706453333196502
Parser.read|Parser.readIdentifierWithSchema|Parser.readTableOrView,0.0,0.0,0.0,0.0,0.0
Prepared.checkParameters|CommandContainer.query|Command.executeQueryLocal,0.0,0.0,0.0,0.0,0.0
Prepared.setCurrentRowNumber|Select.queryFlat|Select.queryWithoutCache,0.04525942701630176,0.0,0.00028347801416529625,0.0,0.04554290503046706
Query.closeLastResult|Query.query|ConditionExists.getValue,0.0,0.0,0.0,0.0,0.0
Query.getParameterValues|Query.query|ConditionExists.getValue,0.04084746012487556,0.0,0.0,0.0,0.04084746012487556
Query.isEverything|Query.sameResultAsLast|Query.query,0.0,0.0,0.0,0.0,0.0
Query.query|ConditionExists.getValue|ConditionNot.getValue,0.0,0.0,0.0,0.0,0.0
Record.<init>|Row.<init>|Table.getTemplateRow,0.04187225101063456,0.0,0.0,0.0,0.04187225101063456
Record.getSessionId|ScanCursor.next|IndexCursor.next,0.0,0.0,0.0,0.0,0.0
Record.isDeleted|MultiVersionCursor.next|ConstraintReferential.found,0.0,0.0,0.0,0.0,0.0
Row.<init>|Table.getTemplateRow|IndexCursor.getSearchRow,0.0,0.08730033333267784,0.0,0.008779999998902593,0.09608033333158043
Row.<init>|Table.getTemplateRow|Insert.insertRows,0.0,0.0,0.0,0.0,0.0
Row.getValue|BaseIndex.compareRows|MultiVersionIndex.compareRows,0.25694135811074265,0.0707171906828521,0.018384774024331564,0.013399732244068657,0.359443055061995
Row.getValue|BaseIndex.compareRows|TreeCursor.next,0.20664868252696478,0.0608683301601154,0.015075875949687787,0.010393372849201573,0.2929862614859695
Row.getValue|BaseIndex.compareRows|TreeIndex.add,0.19974388393381382,0.0,0.016268641425310405,0.0,0.2160125253591242
Row.getValue|BaseIndex.compareRows|TreeIndex.findFirstNode,0.45709278025427996,0.03637699999914427,0.03261210289895401,0.003485000001091976,0.5295668831534702
Row.getValue|IndexCursor.getSearchRow|IndexCursor.find,0.0,0.05556233333239409,0.0,0.00585500000064106,0.06141733333303515
Row.getValue|TableFilter.getValue|ExpressionColumn.getValue,0.11215455658504297,0.11692299999898144,0.009447212749614051,0.013445000001714408,0.25196976933535287
Row.isEmpty|ScanIndex.getNextRow|ScanCursor.next,0.07017923502622722,0.10388200000064292,0.004006703945874648,0.009744999998171505,0.1878129389709163
Row.setPos|ScanIndex.add|TableData.addRow,0.0,0.0,0.0,0.0,0.0
Row.setValue|Update.update|CommandContainer.update,0.0,0.0,0.0,0.0,0.0
RowList.next|Delete.update|CommandContainer.update,0.0,0.04939800000041335,0.0,0.0060850000008940705,0.05548300000130742
ScanIndex.getNextRow|ScanCursor.next|IndexCursor.next,0.21112775976319878,0.21799423809127236,0.016241938524937504,0.023712857143047064,0.4690767935224557
ScanIndex.getNextRow|ScanCursor.next|TableData.addIndex,0.0,0.0,0.0,0.0,0.0
Select.getCurrentGroup|ExpressionColumn.getValue|Select.queryFlat,0.0,0.0,0.0,0.0,0.0
Select.isEverything|Query.isEverything|Query.query,0.0,0.0,0.0,0.0,0.0
Select.isEverything|Query.isEverything|Query.sameResultAsLast,0.062052666666507626,0.0,0.004119999995358133,0.0,0.06617266666186576
Select.queryFlat|Select.queryWithoutCache|Query.query,0.5210286824107923,0.05607099999906495,0.031325520727409024,0.006139999997685663,0.6145652031349519
Select.queryGroup|Select.queryWithoutCache|Query.query,0.0,0.0,0.0,0.0,0.0
Select.queryWithoutCache|Query.query|ConditionExists.getValue,0.31261130992169395,0.0,0.021617047732754302,0.0,0.33422835765444825
Session.checkCanceled|Prepared.checkCanceled|Prepared.setCurrentRowNumber,0.0,0.0,0.0,0.0,0.0
Session.getDatabase|Column.validateConvertUpdateSequence|Table.validateConvertUpdateSequence,0.0,0.0,0.0,0.0,0.0
Session.isClosed|JdbcConnection.checkClosed|JdbcConnection.checkClosed,0.0,0.03975400000005417,0.0,0.0050400000012208075,0.04479400000127498
Session.isClosed|JdbcConnection.checkClosed|JdbcStatement.checkClosed,0.0,0.0,0.0,0.0,0.0
Session.isReconnectNeeded|JdbcConnection.checkClosed|JdbcConnection.checkClosed,0.0,0.11140133333052896,0.0,0.011593999998876826,0.12299533332940578
Session.isReconnectNeeded|JdbcConnection.checkClosed|JdbcStatement.checkClosed,0.0,0.0,0.0,0.0,0.0
Session.log|Session.log|Table.updateRows,0.0,0.0,0.0,0.0,0.0
Session.waitIfExclusiveModeEnabled|Command.executeUpdate|JdbcPreparedStatement.executeUpdateInternal,0.06899000000006103,0.0,0.004800000000007761,0.0,0.07379000000006879
SimpleInsert.itemTable|SimpleInsert.populateAllTables|ThreadInsert.populateAllTables,0.11640000000001978,0.0,0.0055000000002896005,0.0,0.12190000000030939
SimpleInsert.orderTable|SimpleInsert.populateForOneWarehouse|SimpleInsert.populateAllTables,0.15107454545462437,0.0,0.012295454547160205,0.0,0.1633700000017846
SimpleInsert.stockTable|SimpleInsert.populateForOneWarehouse|SimpleInsert.populateAllTables,0.050679666666534715,0.0,0.0041799999986930425,0.0,0.054859666665227756
SimpleInsert.warehouseTable|SimpleInsert.populateForOneWarehouse|SimpleInsert.populateAllTables,0.0,0.0,0.0,0.0,0.0
Standard.paymentById|Standard.payment|Submitter.runPayment,0.0,0.0,0.0,0.0,0.0
Standard.payment|Submitter.runPayment|TPCCSubmitter.runTransaction,0.0,0.0,0.0,0.0,0.0
Standard.stockLevel|Submitter.runStockLevel|TPCCSubmitter.runTransaction,0.0,0.0,0.0,0.0,0.0
StringCache.getCache|StringCache.get|ValueString.get,0.0,0.0,0.0,0.0,0.0
TPCC.calculateSumDB|TPCC.calculateSumDB|TPCC.preIterationMemoryDB,0.7141128671038056,0.0,0.04109862440020958,0.0,0.7552114915040152
TPCC.preIteration|NativeMethodAccessorImpl.invoke0|NativeMethodAccessorImpl.invoke,0.04793077804063536,0.0,0.004599243310796985,0.0,0.05253002135143235
Table.compareTypeSave|BaseIndex.compareValues|BaseIndex.compareRows,0.16668055719573788,0.0,0.009759762678618819,0.0,0.1764403198743567
Table.fireConstraints|Table.fireBeforeRow|Delete.update,0.0,0.015886571428771794,0.0,0.0015085714289203413,0.017395142857692135
Table.getTemplateRow|IndexCursor.getSearchRow|IndexCursor.find,0.2194657075333018,0.0,0.012694646375248036,0.0,0.23216035390854983
Table.getTemplateRow|Update.update|CommandContainer.update,0.0,0.049662333333496164,0.0,0.005419999998897159,0.055082333332393325
Table.getTemplateRow|ViewCursor.next|IndexCursor.next,0.03253358242494776,0.0,0.003097961212845945,0.0,0.03563154363779371
Table.validateConvertUpdateSequence|Insert.insertRows|Insert.update,0.0,0.0,0.0,0.0,0.0
TableData$1.compare|ObjectArray.sort|ObjectArray.sort,0.0,0.0,0.0,0.0,0.0
TableData$1.compare|TableData$1.compare|ObjectArray.sort,0.09460738675718139,0.0,0.0074702804069739556,0.0,0.10207766716415534
TableData.addIndex|AlterTableAddConstraint.createIndex|AlterTableAddConstraint.tryUpdate,0.050300856786008964,0.0,0.004684102330152526,0.0,0.05498495911616149
TableData.addRowsToIndex|TableData.addIndex|AlterTableAddConstraint.tryUpdate,0.0,0.0,0.0,0.0,0.0
TableData.addRow|Insert.insertRows|Insert.update,0.0534059999999954,0.0,0.004195000001345761,0.0,0.05760100000134116
TableData.removeRow|Delete.update|CommandContainer.update,0.0,0.0,0.0,0.0,0.0
TableFilter.getSelect|ExpressionColumn.getValue|Comparison.getValue,0.08302833333345916,0.0,0.00532999999995809,0.0,0.08835833333341725
TableFilter.getValue|ExpressionColumn.getValue|Comparison.getValue,0.05537325283406895,0.0,0.005236677612241614,0.0,0.060609930446310564
TableFilter.getValue|ExpressionColumn.getValue|Select.queryFlat,0.06999560994136649,0.0,0.004569045002980555,0.0,0.07456465494434704
TableFilter.next|Select.queryFlat|Select.queryWithoutCache,0.14304633333298017,0.0,0.007589999998648029,0.0,0.1506363333316282
TableFilter.reset|TableFilter.reset|TableFilter.next,0.0,0.0676473333320852,0.0,0.006260000001930166,0.07390733333401536
Trace.isEnabled|Trace.isDebugEnabled|TraceObject.debugCodeCall,0.05464661240803985,0.05055766666676693,0.004121290872186207,0.007619999999102825,0.11694556994609583
Trace.isEnabled|Trace.isDebugEnabled|TraceObject.isDebugEnabled,0.0,0.0,0.0,0.0,0.0
TraceSystem.<init>|Database.open|Database.openDatabase,0.0,0.0,0.0,0.0,0.0
TraceSystem.getTrace|Database.getTrace|Session.getTrace,0.0,0.0,0.0,0.0,0.0
TreeCursor.next|MultiVersionCursor.step|MultiVersionCursor.loadNext,0.20561211747291896,0.0,0.01540335903335351,0.0,0.22101547650627248
TreeCursor.next|MultiVersionIndex.removeIfExists|MultiVersionIndex.add,0.049140441472115264,0.0,0.0037538492610849467,0.0,0.05289429073320021
TreeIndex.add|MultiVersionIndex.add|TableData.addRow,0.0,0.0,0.0,0.0,0.0
TreeIndex.add|MultiVersionIndex.add|TableData.addRowsToIndex,0.26716257351724126,0.0,0.019094076514124137,0.0,0.2862566500313654
TreeIndex.balance|TreeIndex.add|MultiVersionIndex.add,0.11795109342332241,0.0,0.005273782144287377,0.0,0.12322487556760979
TreeIndex.child|TreeIndex.add|MultiVersionIndex.add,0.050984666666408884,0.0,0.0027300000001559965,0.0,0.05371466666656488
TreeIndex.findFirstNode|TreeIndex.find|MultiVersionIndex.find,0.09042304382741854,0.0,0.009561983844287893,0.0,0.09998502767170644
TreeIndex.findFirstNode|TreeIndex.find|MultiVersionIndex.removeIfExists,0.0,0.0,0.0,0.0,0.0
TreeIndex.findFirstNode|TreeIndex.remove|MultiVersionIndex.remove,0.0,0.0988973333320852,0.0,0.010779999999310045,0.10967733333139525
TreeIndex.find|MultiVersionIndex.removeIfExists|MultiVersionIndex.add,0.08980938635457412,0.0,0.005436158924331353,0.0,0.09524554527890548
TreeIndex.next|TreeCursor.next|MultiVersionCursor.step,0.22480274040735465,0.061590821729799176,0.007994936052225286,0.01046579859781701,0.3048542967871961
TreeIndex.remove|MultiVersionIndex.removeIfExists|MultiVersionIndex.commit,0.06340467413495847,0.0,0.004140211656003655,0.0,0.06754488579096213
TreeIndex.replace|TreeIndex.balance|TreeIndex.add,0.13786943938303986,0.0,0.008216652433739337,0.0,0.1460860918167792
TreeIndex.set|TreeIndex.balance|TreeIndex.add,0.0,0.03557111449815495,0.0,0.0055370715968654895,0.04110818609502044
UndoLog.size|Session.commit|TransactionCommand.update,0.0,0.0,0.0,0.0,0.0
UndoLogRecord.isStored|UndoLog.removeLast|Session.commit,0.0,0.0,0.0,0.0,0.0
Value.cache|ValueDecimal.get|Value.convertTo,0.06981916666666166,0.0,0.004659374998482235,0.0,0.0744785416651439
Value.cache|ValueStringFixed.get|Value.convertTo,0.11696821509938238,0.0,0.00874185923471343,0.0,0.1257100743340958
Value.checkPrecision|Column.validateConvertUpdateSequence|Table.validateConvertUpdateSequence,0.08358871287593742,0.0,0.006224724905594789,0.0,0.08981343778153221
Value.compareTo|Database.areEqual|Comparison.compareNotNull,0.0,0.0,0.0,0.0,0.0
Value.compareTypeSave|Table.compareTypeSave|BaseIndex.compareValues,0.13963721665209616,0.0,0.008963388874030191,0.0,0.14860060552612636
Value.convertTo|Column.convert|IndexCursor.find,0.0,0.0,0.0,0.0,0.0
Value.convertTo|Comparison.getValue|ConditionAndOr.getValue,0.0,0.0,0.0,0.0,0.0
Value.getOrder|Value.getHigherOrder|Operation.optimize,0.0,0.0,0.0,0.0,0.0
ValueBoolean.compareSecure|Value.compareTo|Database.areEqual,0.0,0.0,0.0,0.0,0.0
ValueDecimal.equals|Value.cache|ValueDecimal.get,0.0,0.0,0.0,0.0,0.0
ValueDecimal.negate|Parser.readTerm|Parser.readFactor,0.0,0.0,0.0,0.0,0.0
ValueInt.compareSecure|Value.compareTypeSave|Table.compareTypeSave,0.1222522866791658,0.0,0.0057618062691751435,0.0,0.12801409294834093
ValueInt.get|JdbcPreparedStatement.setInt|SimpleInsert.orderTable,0.0,0.0,0.0,0.0,0.0
ValueShort.<init>|ValueShort.get|Value.convertTo,0.08939633333344922,0.0,0.004739999999098169,0.0,0.0941363333325474
ValueShort.compareSecure|Value.compareTypeSave|Table.compareTypeSave,0.13746023866989773,0.0,0.009872193777915816,0.0,0.14733243244781355
ValueShort.equals|Value.compareEqual|ConstraintReferential.checkRowOwnTable,0.0,0.0,0.0,0.0,0.0
ValueString.getType|Value.cache|ValueStringFixed.get,0.0,0.0,0.0,0.0,0.0
ValueString.get|JdbcPreparedStatement.setString|SimpleInsert.customerTable,0.03503612360162872,0.0,0.0027842604663148173,0.0,0.03782038406794354
ValueTimestamp.convertScale|Column.validateConvertUpdateSequence|Table.validateConvertUpdateSequence,0.03583401166754638,0.04909266666557717,0.003272107377623084,0.004604999999476907,0.09280378571022353
Warehouse.setName|Standard.paymentById|Standard.payment,0.0,0.0,0.0,0.0,0.0
ZoneInfoFile.getZoneInfo|ZoneInfoFile.getZoneInfo|ZoneInfoFile.getZoneInfo0,0.0476080673779245,0.0,0.0033544877269184514,0.0,0.05096255510484295
