method,package1,package2,dram1,dram2,energy
javassist,0.0,0.14182499999636394,0.0,0.02064000000003337,0.16246499999639732
javassist.bytecode,0.0,0.0712280000031266,0.0,0.010999999998603016,0.08222800000172961
javassist.compiler,0.0,0.12705500000204967,0.0,0.01986000000033528,0.14691500000238494
org.apache.derbyTesting.system.oe.direct,0.0,0.0,0.0,0.0,0.0
org.apache.derbyTesting.system.oe.load,0.0,0.29924017552495596,0.0,0.04276248792275847,0.34200266344771446
org.apache.derbyTesting.system.oe.util,0.0,0.43550822222001717,0.0,0.06571611110633023,0.5012243333263474
org.dacapo.h2,0.6271754872296214,0.0,0.03784728450789169,0.0,0.665022771737513
org.dacapo.harness,0.0,0.07456466666675017,0.0,0.010999999998603016,0.08556466666535319
org.h2.command,0.025896814359355667,0.2980244999986705,0.000720155381077887,0.04442250000526352,0.36906396974436756
org.h2.command.dml,1.1125157685422953,0.3454592499994457,0.06880310906068786,0.05627937499927309,1.583057502601702
org.h2.constraint,0.0,0.0,0.0,0.0,0.0
org.h2.engine,0.12862297192479102,0.29066966666626587,0.009768605318026216,0.04229000000001784,0.471351243909101
org.h2.expression,0.9971517877331273,0.4756427142854678,0.060588631157569184,0.0761832142894231,1.6095663474655875
org.h2.index,4.051699632787699,2.2777948608417726,0.26073970201966956,0.37703097618408876,6.967265171833231
org.h2.jdbc,0.4988459990942278,0.5505015763567832,0.029049678473107566,0.0909773723823498,1.1693746263064682
org.h2.log,0.0,0.03803388888897004,0.0,0.007219444445649126,0.045253333334619165
org.h2.message,0.0745087672237355,0.0,0.005499095220817909,0.0,0.08000786244455342
org.h2.result,0.8472670998135421,0.7178546296337218,0.04625199522478667,0.12469722222185399,1.7360709468939046
org.h2.store,0.07529090971589995,0.03787735416714592,0.004045656741164915,0.005678749999939706,0.1228926706241505
org.h2.table,1.0047180892385807,0.70839946666941,0.05927258150787765,0.11416999999977026,1.8865601374156387
org.h2.util,0.6934147323824948,0.9608364185238314,0.04632701719661231,0.16749688888807282,1.8680750569910114
org.h2.value,0.5878258410057187,1.2936666407378112,0.03057809691041897,0.23220572222576097,2.14427630087971
sun.misc,0.0,0.0,0.0,0.0,0.0
sun.util.calendar,0.1731437619048501,0.15400373087721267,0.012795000002023741,0.02188475167795874,0.3618272444620452
