method,package1,package2,dram1,dram2,energy
java.io,0.11609900000000077,0.0,0.008166153847410804,0.0,0.12426515384741157
java.lang,1.9204616737107627,1.2375276390185477,0.14074991900032444,0.25419482669122706,3.552934058420862
java.lang.ref,0.06776038974369908,0.0,0.004854461540488932,0.0,0.07261485128418801
java.math,0.41187304307496947,0.11584500000390108,0.028352963003441194,0.01795499999934691,0.5740260060816587
java.security,0.0,0.0,0.0,0.0,0.0
java.sql,0.04689550000011877,0.03979500000180754,0.003279999999601083,0.009519999999611171,0.09949050000113857
java.util,0.6956623687750574,0.20634999999795883,0.04783906789071845,0.0363150000036209,0.9861664366673555
java.util.concurrent.atomic,0.3502602967703814,0.0,0.025557334679824458,0.0,0.37581763145020586
java.util.zip,0.1907976025642524,0.0,0.017569807691847343,0.0,0.20836741025609976
