method,package1,package2,dram1,dram2,energy
AbstractStringBuilder,0.8749793238177471,0.0,0.056037914663614005,0.0,0.9310172384813611
ArrayList$Itr,0.041846822990719776,0.0,0.0005808397971224015,0.0,0.04242766278784218
Arrays,0.2818556887350456,0.0,0.014688972033651475,0.0,0.29654466076869707
AtomicLong,0.12654862434456315,0.0,0.009715786687953481,0.0,0.13626441103251663
BigDecimal,0.0,0.2057242777763248,0.0,0.02860250000170102,0.23432677777802582
BigDecimal$StringBuilderHelper,0.0,0.0,0.0,0.0,0.0
BigInteger,0.04095239125322631,0.0,0.0,0.0,0.04095239125322631
Boolean,0.0715689708373155,0.04672583333457523,0.004780719132255524,0.012354166667339291,0.13542968997148555
BufferedInputStream,0.0,0.05020857142794522,0.0,0.006814285715379464,0.05702285714332468
ByteArrayInputStream,0.0,0.0,0.0,0.0,0.0
CharacterDataLatin1,0.0,0.0,0.0,0.0,0.0
ClassLoader,0.0,0.0,0.0,0.0,0.0
Date,0.07098277891468051,0.0,0.004639567554575643,0.0,0.07562234646925615
Double,0.0,0.0,0.0,0.0,0.0
DriverManager,0.0,0.0,0.0,0.0,0.0
FileOutputStream,0.0,0.09690866666642249,0.0,0.01066999999905723,0.10757866666547972
Formatter,0.0,0.0,0.0,0.0,0.0
HashMap,0.32109557241026887,0.032942666666349395,0.021523134398536464,0.006512000000414749,0.38207337347556947
HashSet,0.0,0.0,0.0,0.0,0.0
Hashtable,0.0,0.0,0.0,0.0,0.0
Inflater,0.0,0.1008147500015184,0.0,0.015735000000859145,0.11654975000237755
Integer,2.9593954965611022,0.0,0.1918555879040255,0.0,3.1512510844651276
JarFile,0.0,0.0,0.0,0.0,0.0
LinkedHashMap,0.033035249999784355,0.0,0.003119999999398715,0.0,0.03615524999918307
Long,0.050639000000046515,0.07997047619158235,0.004759999998592925,0.009242857141500627,0.1446123333317224
Math,0.0,0.0,0.0,0.0,0.0
MutableBigInteger,0.0,0.0,0.0,0.0,0.0
Object,0.08906117681421846,0.0,0.005213096583783141,0.0,0.09427427339800161
Random,0.04826564060817182,0.0,0.0005857678117981364,0.0,0.048851408419969954
SimpleDateFormat,0.0,0.0,0.0,0.0,0.0
String,0.7159343608610585,0.0,0.048079409506768006,0.0,0.7640137703678266
StringBuffer,0.463709091268822,0.0,0.033093756121543645,0.0,0.4968028473903656
StringBuilder,0.121290347734607,0.0,0.008739055094526145,0.0,0.13002940282913314
System,0.0,0.02985633333446458,0.0,0.0040300000000570435,0.03388633333452162
Throwable,0.0,0.05411800000001677,0.0,0.008844999996654224,0.06296299999667099
Timestamp,0.16128981680932353,0.0,0.012607093398092746,0.0,0.17389691020741627
ZipFile,0.0,0.06884733333572512,0.0,0.009645000000697715,0.07849233333642285
