method,package1,package2,dram1,dram2,energy
AbstractStringBuilder.<init>|StringBuffer.<init>|OERandom.randomCLast,0.0,0.0,0.0,0.0,0.0
AbstractStringBuilder.<init>|StringBuffer.<init>|Timestamp.toString,0.0,0.21498566666317248,0.0,0.02260500000314399,0.23759066666631648
AbstractStringBuilder.<init>|StringBuilder.<init>|Timestamp.toString,0.0,0.1105263999973734,0.0,0.01173300000130742,0.12225939999868082
AbstractStringBuilder.append|StringBuffer.append|Timestamp.toString,0.0,0.19893366666898749,0.0,0.021004999997482322,0.2199386666664698
AbstractStringBuilder.append|StringBuilder.append|BigDecimal.layoutChars,0.0,0.0,0.0,0.0,0.0
AbstractStringBuilder.ensureCapacityInternal|AbstractStringBuilder.append|StringBuffer.append,0.02932331601551568,0.09241224999762683,0.00037083176885818156,0.013587500001449372,0.13569389778345006
AbstractStringBuilder.ensureCapacityInternal|AbstractStringBuilder.append|StringBuilder.append,0.0,0.04290766666720931,0.0,0.00405999999929918,0.04696766666650849
AbstractStringBuilder.newCapacity|AbstractStringBuilder.ensureCapacityInternal|AbstractStringBuilder.append,0.0,0.0,0.0,0.0,0.0
AccessController.doPrivileged|URLClassLoader.findClass|DacapoClassLoader.loadClass,0.04003899182183941,0.0,0.00264254564315402,0.0,0.04268153746499343
Arrays.copyOfRange|String.<init>|StringBuilder.toString,0.0,0.03771975000017847,0.0,0.00405750000027183,0.0417772500004503
Arrays.copyOfRange|String.<init>|Timestamp.toString,0.0,0.11596733333620551,0.0,0.017259999998107862,0.13322733333431339
Arrays.copyOfRange|StringBuffer.toString|Timestamp.toString,0.0,0.09155266666736377,0.0,0.015364999999292197,0.10691766666665596
AtomicLong.compareAndSet|Random.next|Random.nextDouble,0.3532199242178981,0.0,0.026273057766003874,0.0,0.37949298198390197
AtomicLong.get|Random.next|Random.nextDouble,0.043280167166421135,0.0,0.0032530291740396626,0.0,0.0465331963404608
BigDecimal.<init>|BigDecimal.<init>|BigDecimal.<init>,0.14583340751738527,0.0,0.011981632972420837,0.0,0.1578150404898061
BigDecimal.<init>|BigDecimal.add|BigDecimal.subtract,0.0,0.0,0.0,0.0,0.0
BigDecimal.<init>|BigDecimal.valueOf|BigDecimal.setScale,0.0,0.0,0.0,0.0,0.0
BigDecimal.<init>|ValueTimestamp.convertScale|Column.validateConvertUpdateSequence,0.043620424067950164,0.0,0.003469432387144625,0.0,0.04708985645509479
BigDecimal.divideAndRound|BigDecimal.setScale|BigDecimal.toBigInteger,0.0,0.0,0.0,0.0,0.0
BigDecimal.movePointLeft|ValueTimestamp.convertScale|Column.validateConvertUpdateSequence,0.06213192942545497,0.0,0.0046300915387586525,0.0,0.06676202096421363
BigDecimal.movePointRight|ValueTimestamp.convertScale|Column.validateConvertUpdateSequence,0.0,0.0,0.0,0.0,0.0
BigDecimal.setScale|MathUtils.setScale|ValueTimestamp.convertScale,0.021753540131556597,0.0,0.0036254823107145853,0.0,0.025379022442271183
BigDecimal.valueOf|BigDecimal.setScale|MathUtils.setScale,0.011426090351856684,0.0,0.0013674596440767881,0.0,0.012793549995933472
BigInteger.multiplyByInt|BigInteger.multiply|BigInteger.pow,0.0,0.0,0.0,0.0,0.0
Boolean.booleanValue|Boolean.equals|ConditionAndOr.getValue,0.0,0.0,0.0,0.0,0.0
BufferedInputStream.read|DataInputStream.readInt|AttributeInfo.<init>,0.07168710168063676,0.0,0.005898710162265793,0.0,0.07758581184290256
BufferedInputStream.read|DataInputStream.readUnsignedShort|FieldInfo.read,0.0,0.0,0.0,0.0,0.0
BufferedInputStream.read|DataInputStream.readUnsignedShort|NameAndTypeInfo.<init>,0.057084012433441224,0.0,0.0045411784545278545,0.0,0.06162519088796908
CRC32.update|ZipInputStream.read|FilterInputStream.read,0.03063623277490341,0.0,0.002391992462995736,0.0,0.033028225237899146
Calendar$Builder.build|CalendarProviderImpl.getInstance|Calendar.createCalendar,0.022753268052597198,0.0,0.0016770756160813115,0.0,0.02443034366867851
Character.isDigit|Character.isDigit|Parser.readTerm,0.0,0.0,0.0,0.0,0.0
Character.isJavaIdentifierPart|Character.isJavaIdentifierPart|Parser.initialize,0.0,0.0,0.0,0.0,0.0
CharsetDecoder.replaceWith|CharsetDecoder.<init>|CharsetDecoder.<init>,0.0,0.0,0.0,0.0,0.0
Class.forName0|Class.forName|TPCC.prepare,0.0,0.0,0.0,0.0,0.0
ClassLoader.defineClass1|ClassLoader.defineClass|SecureClassLoader.defineClass,0.15948127034286058,0.0,0.011420398303227414,0.0,0.170901668646088
ComparableTimSort.binarySort|ComparableTimSort.sort|Arrays.sort,0.0,0.0,0.0,0.0,0.0
CopyOnWriteArrayList.iterator|DriverManager.getDriver|TPCC.prepare,0.046961187662502735,0.0,0.004559022167764881,0.0,0.051520209830267616
DataInputStream.readInt|CodeAttribute.<init>|AttributeInfo.read,0.0,0.0,0.0,0.0,0.0
Date.normalize|Date.getDate|Timestamp.toString,0.0,0.0,0.0,0.0,0.0
Date.normalize|Date.getMinutes|Timestamp.toString,0.0,0.06231666666523476,0.0,0.010394999997515695,0.07271166666275046
FileOutputStream.writeBytes|FileOutputStream.write|BufferedOutputStream.write,0.12253969601777474,0.0,0.009416264662751932,0.0,0.13195596068052667
Formatter.parse|Formatter.format|PrintStream.format,0.0,0.0,0.0,0.0,0.0
HashMap.getNode|HashMap.get|ExpressionColumn.getValue,0.0,0.0,0.0,0.0,0.0
HashMap.getNode|HashMap.get|ScanIndex.incrementRowCount,0.04491195557510085,0.0,0.003483493848851257,0.0,0.04839544942395211
HashMap.getNode|LinkedHashMap.get|TraceSystem.getTrace,0.0,0.0,0.0,0.0,0.0
HashMap.get|ExpressionColumn.getValue|Comparison.getValue,0.0,0.0,0.0,0.0,0.0
HashMap.hash|HashMap.get|ScanIndex.incrementRowCount,0.0,0.0,0.0,0.0,0.0
HashMap.hash|LinkedHashMap.get|TraceSystem.getTrace,0.0,0.0,0.0,0.0,0.0
HashMap.put|JdbcResultSet.getColumnIndex|JdbcResultSet.get,0.0,0.0,0.0,0.0,0.0
HashMap.removeNode|HashMap.remove|HashSet.remove,0.05739501341903274,0.0,0.00413815442744837,0.0,0.06153316784648111
HashSet.<init>|IndexCursor.find|TableFilter.next,0.07817753431790836,0.0,0.0034852214835385305,0.0,0.08166275580144688
HashSet.remove|ScanIndex.remove|TableData.removeRow,0.0,0.0,0.0,0.0,0.0
Hashtable.get|Properties.getProperty|Message.translate,0.0,0.0,0.0,0.0,0.0
IdentityHashMap.get|StatementHelper.prepareStatement|Standard.payment,0.0,0.0,0.0,0.0,0.0
Inflater.inflateBytes|Inflater.inflate|InflaterInputStream.read,0.17238528648019266,0.0,0.014425286263883,0.0,0.18681057274407567
Integer.equals|HashMap.getNode|HashMap.get,0.0,0.0,0.0,0.0,0.0
Integer.getChars|AbstractStringBuilder.append|StringBuilder.append,0.016089590577008896,0.0,0.0012419541207025287,0.0,0.017331544697711424
Integer.getChars|Integer.toString|String.valueOf,0.025706429795190704,0.2658486666672009,0.0,0.04095000000233995,0.3325050964647316
Integer.getChars|Integer.toString|Timestamp.toString,0.0,0.3719435300727166,0.0,0.06518896503480423,0.43713249510752084
Integer.toString|String.valueOf|ValueInt.getString,0.0465865123565005,0.14123600000311853,0.0005726974690612551,0.014120000002246039,0.2025152098309263
Integer.toString|String.valueOf|ValueShort.getString,0.0,0.5844675333423462,0.0,0.07474099999623528,0.6592085333385815
Integer.toString|Timestamp.toString|ValueTimestamp.getString,0.0,1.3106488333257098,0.0,0.15328875000523112,1.463937583330941
Integer.valueOf|ScanIndex.incrementRowCount|ScanIndex.add,0.06559966260870588,0.0,0.0052144339785354715,0.0,0.07081409658724135
Integer.valueOf|ScanIndex.incrementRowCount|ScanIndex.commit,0.0,0.0,0.0,0.0,0.0
LinkedHashMap.afterNodeAccess|LinkedHashMap.get|TraceSystem.getTrace,0.0,0.0,0.0,0.0,0.0
Manifest.<init>|JarFile.getManifestFromReference|JarFile.getManifest,0.0,0.0,0.0,0.0,0.0
MessageFormat.<init>|MessageFormat.format|Message.translate,0.0,0.0,0.0,0.0,0.0
MutableBigInteger.divideKnuth|MutableBigInteger.divide|MutableBigInteger.divide,0.04887581464650551,0.0,0.002848850210305991,0.0,0.0517246648568115
MutableBigInteger.divideMagnitude|MutableBigInteger.divideKnuth|MutableBigInteger.divide,0.0,0.0,0.0,0.0,0.0
Object.<init>|TreeCursor.<init>|TreeIndex.find,0.04106462933718665,0.0,0.0,0.0,0.04106462933718665
Object.clone|Date.clone|ValueTimestamp.get,0.0,0.0,0.0,0.0,0.0
Object.hashCode|HashMap.hash|HashMap.remove,0.0,0.0,0.0,0.0,0.0
Object.wait|Command.executeUpdate|JdbcPreparedStatement.executeUpdateInternal,0.0,0.0,0.0,0.0,0.0
Objects.requireNonNull|ZipEntry.<init>|JarEntry.<init>,0.03846201770650025,0.0,0.002901106280786952,0.0,0.0413631239872872
Random.nextDouble|OERandom.randomInt|OERandom.randomAString,0.0,0.0,0.0,0.0,0.0
Random.next|Random.nextDouble|OERandom.randomInt,0.22853433124292083,0.0,0.018589564450327663,0.0,0.2471238956932485
SoftReference.get|Value.cache|ValueString.get,0.0,0.0,0.0,0.0,0.0
String.<init>|String.concat|URLClassLoader$1.run,0.0,0.0,0.0,0.0,0.0
String.charAt|TPCC.calculateSumDB|TPCC.calculateSumDB,0.0,0.0,0.0,0.0,0.0
String.equals|Parser.readIf|Parser.readJoin,0.0,0.0,0.0,0.0,0.0
String.getChars|AbstractStringBuilder.append|StringBuffer.append,0.0,0.05542000000180754,0.0,0.0059999999987970405,0.061420000000604574
String.getChars|AbstractStringBuilder.append|StringBuilder.append,0.0,0.0,0.0,0.0,0.0
String.hashCode|StringCache.get|ValueString.get,0.13281238018831223,0.0,0.009784527301431326,0.0,0.14259690748974357
String.length|AbstractStringBuilder.append|StringBuilder.append,0.0,0.0,0.0,0.0,0.0
String.length|Timestamp.toString|ValueTimestamp.getString,0.0,0.05552166666651222,0.0,0.005199999999604188,0.060721666666116406
String.regionMatches|String.equalsIgnoreCase|JdbcResultSet.getColumnIndex,0.0,0.0,0.0,0.0,0.0
String.substring|Timestamp.toString|ValueTimestamp.getString,0.0,0.03861466666664152,0.0,0.0058200000009189035,0.04443466666756042
String.toCharArray|BigDecimal.<init>|ValueTimestamp.convertScale,0.08282950921671278,0.0,0.00648746810280588,0.0,0.08931697731951867
String.toUpperCase|StringUtils.toUpperEnglish|JdbcResultSet.getColumnIndex,0.0,0.0,0.0,0.0,0.0
StringBuffer.append|OERandom.randomDecimalString|SimpleInsert.orderTable,0.05057546551778423,0.0,0.004060169759311092,0.0,0.05463563527709532
StringBuffer.append|Timestamp.toString|ValueTimestamp.getString,0.0,0.42860159999593933,0.0,0.059741000000212804,0.48834259999615215
StringBuffer.toString|Timestamp.toString|ValueTimestamp.getString,0.0,0.0,0.0,0.0,0.0
StringBuilder.<init>|Timestamp.toString|ValueTimestamp.getString,0.0,0.0614016666659154,0.0,0.005744999999781915,0.06714666666569731
StringBuilder.append|Timestamp.toString|ValueTimestamp.getString,0.0,0.10437033333437283,0.0,0.015509999999873497,0.11988033333424633
StringBuilder.toString|Timestamp.toString|ValueTimestamp.getString,0.0,0.0,0.0,0.0,0.0
System.arraycopy|ComparableTimSort.binarySort|ComparableTimSort.sort,0.0,0.0,0.0,0.0,0.0
System.getProperty|SysProperties.getProperty|SysProperties.getIntSetting,0.0,0.0,0.0,0.0,0.0
Throwable.fillInStackTrace|Throwable.fillInStackTrace|Throwable.<init>,0.0,0.0,0.0,0.0,0.0
Timestamp.toString|ValueTimestamp.getString|JdbcResultSet.getString,0.0,0.04325366666550205,0.0,0.005039999998795489,0.04829366666429754
ZipFile.getEntry|ZipFile.getEntry|JarFile.getEntry,0.05849710661115967,0.0,0.004555180758980796,0.0,0.06305228737014047
