method,hits
AbstractCalendar.getCalendarDate,1
AbstractStringBuilder.<init>,14
AbstractStringBuilder.append,7
AbstractStringBuilder.ensureCapacityInternal,2
AbstractStringBuilder.newCapacity,5
AlterTableAddConstraint.tryUpdate,1
ArrayList$Itr.next,1
Arrays.copyOf,3
Arrays.copyOfRange,4
AtomicLong.compareAndSet,8
BaseCalendar.getCalendarDateFromFixedDate,3
BaseCalendar.getGregorianYearFromFixedDate,5
BaseIndex.compareKeys,2
BaseIndex.compareRows,77
BaseIndex.compareValues,12
Benchmark.initialize,1
BigDecimal$StringBuilderHelper.getStringBuilder,1
BigDecimal.<init>,5
BigDecimal.divideAndRound,1
BigDecimal.hashCode,1
BigDecimal.layoutChars,1
BigDecimal.movePointRight,1
BigDecimal.valueOf,1
BigInteger.getInt,1
BigInteger.smallToString,1
BigInteger.valueOf,1
Boolean.equals,1
BufferedInputStream.read,2
CacheObject.<init>,1
CalendarDate.setDayOfMonth,2
Character.isJavaIdentifierPart,1
ClassClassPath.openClassfile,1
ClassLoader.defineClass1,4
Collections$SynchronizedCollection.size,1
Column.convert,4
Column.getColumnId,9
Column.updateSequenceIfRequired,1
Command.checkCanceled,1
Command.executeQueryLocal,26
Command.executeUpdate,54
CommandContainer.getParameters,1
CommandContainer.recompileIfRequired,2
Comparison.getValue,13
ConditionAndOr.getValue,3
ConditionAndOr.isEverything,2
ConditionAndOr.setEvaluatable,1
ConditionExists.getValue,1
Data.dataForBadCredit,1
Database.beforeWriting,1
Database.isReconnectNeeded,4
Database.open,1
Date.getMinutes,1
Date.getTimeImpl,1
Date.normalize,5
DateFormatSymbols.initializeData,1
Driver.connect,1
DriverManager.<clinit>,1
Engine.openSession,1
ExpressionColumn.getAlias,1
ExpressionColumn.getValue,15
ExpressionColumn.isEverything,3
ExpressionVisitor.<init>,1
ExpressionVisitor.get,2
ExpressionVisitor.getType,1
FileOutputStream.open0,1
Formatter.parse,1
Gregorian.getCalendarDate,1
HashMap.getNode,5
HashMap.hash,2
HashMap.newNode,1
HashMap.putVal,3
HashMap.removeNode,4
HashSet.<init>,1
HashSet.remove,1
IndexCondition.getCurrentValue,1
IndexCursor.find,14
IndexCursor.getMax,1
IndexCursor.getSearchRow,2
IndexCursor.next,7
Inflater.inflateBytes,11
Insert.insertRows,10
Insert.prepare,1
Integer.getChars,18
Integer.stringSize,4
Integer.toString,97
Integer.valueOf,2
JarFile.getManifestFromReference,1
JdbcConnection.checkClosed,10
JdbcPreparedStatement.executeQuery,1
JdbcPreparedStatement.executeUpdate,1
JdbcPreparedStatement.executeUpdateInternal,1
JdbcPreparedStatement.setParameter,3
JdbcResultSet.checkClosed,2
JdbcResultSet.checkColumnIndex,1
JdbcResultSet.checkOnValidRow,1
JdbcResultSet.get,3
JdbcResultSet.getColumnIndex,1
JdbcResultSet.getInt,2
JdbcResultSet.getString,8
JdbcResultSet.nextRow,2
JdbcStatement.checkClosed,6
LocalResult.next,2
Long.getChars,1
MathUtils.compare,4
MessageFormat.<init>,1
MethodInfo.read,1
MultiVersionCursor.getSearchRow,22
MultiVersionCursor.loadNext,15
MultiVersionCursor.next,21
MultiVersionCursor.step,18
MultiVersionIndex.add,2
MultiVersionIndex.commit,2
MultiVersionIndex.compareRows,4
MultiVersionIndex.removeIfExists,2
MutableBigInteger.divideMagnitude,1
MutableBigInteger.toBigInteger,1
OERandom.randomAString,1
OERandom.randomAString24,1
OERandom.randomNString,1
OERandom.randomState,1
Object.clone,1
Object.hashCode,3
Object.wait,27
ObjectArray$ObjectArrayIterator.hasNext,1
ObjectArray$ObjectArrayIterator.next,1
ObjectArray.add,1
ObjectArray.createArray,1
ObjectArray.get,12
ObjectArray.iterator,3
ObjectArray.sort,7
ObjectArray.swap,1
ObjectArray.toArray,3
Operation.getValue,1
Parameter.checkSet,11
Parameter.getParamValue,1
Parser.read,1
Pattern.expr,1
Prepared.checkParameters,8
Prepared.setCurrentRowNumber,2
PrintStream.format,1
Query.closeLastResult,1
Query.getParameterValues,1
Query.isEverything,1
Query.query,1
Random.next,8
Record.<init>,1
Record.getSessionId,1
Record.isDeleted,1
Row.<init>,5
Row.getValue,58
Row.isEmpty,4
Row.setPos,1
Row.setValue,2
RowList.next,1
SQLException.<init>,1
ScanIndex.getNextRow,19
Select.getCurrentGroup,1
Select.isEverything,3
Select.queryFlat,15
Select.queryGroup,1
Select.queryWithoutCache,6
Session.checkCanceled,1
Session.getDatabase,1
Session.isClosed,2
Session.isReconnectNeeded,11
Session.log,2
Session.waitIfExclusiveModeEnabled,2
SimpleInsert.itemTable,1
SimpleInsert.orderTable,4
SimpleInsert.stockTable,3
SimpleInsert.warehouseTable,1
SoftReference.get,1
Standard.payment,1
Standard.paymentById,1
Standard.stockLevel,1
String.<init>,1
String.charAt,3
String.getChars,10
String.hashCode,3
String.length,5
String.substring,1
StringBuffer.append,7
StringBuffer.setLength,3
StringBuffer.toString,4
StringBuilder.append,2
StringBuilder.toString,1
StringCache.getCache,1
TPCC.calculateSumDB,20
TPCC.preIteration,1
Table.compareTypeSave,8
Table.fireConstraints,1
Table.getTemplateRow,6
Table.validateConvertUpdateSequence,1
TableData$1.compare,5
TableData.addIndex,1
TableData.addRow,1
TableData.addRowsToIndex,1
TableData.removeRow,1
TableFilter.getSelect,2
TableFilter.getValue,4
TableFilter.next,7
TableFilter.reset,1
Throwable.fillInStackTrace,4
Throwable.initCause,1
Timestamp.toString,7
Trace.isEnabled,4
TraceSystem.<init>,1
TraceSystem.getTrace,2
TreeCursor.next,13
TreeIndex.add,6
TreeIndex.balance,5
TreeIndex.child,1
TreeIndex.find,4
TreeIndex.findFirstNode,10
TreeIndex.next,18
TreeIndex.remove,1
TreeIndex.replace,2
TreeIndex.set,2
UndoLog.size,1
UndoLogRecord.isStored,1
UnixFileSystem.getBooleanAttributes0,1
Value.cache,3
Value.checkPrecision,2
Value.compareTo,1
Value.compareTypeSave,7
Value.convertTo,2
Value.getOrder,1
ValueBoolean.compareSecure,1
ValueDecimal.equals,1
ValueDecimal.negate,1
ValueInt.compareSecure,8
ValueInt.get,2
ValueShort.<init>,1
ValueShort.compareSecure,3
ValueShort.equals,1
ValueString.get,1
ValueString.getType,1
ValueTimestamp.convertScale,3
Vector.addElement,1
Warehouse.setName,1
ZipFile$ZipFileInputStream.<init>,1
ZipFile.read,1
ZoneInfoFile.getZoneInfo,1
