method,hits
AbstractCalendar.getCalendarDate,3
AbstractCalendar.setTimeOfDay,2
AbstractStringBuilder.<init>,9
AbstractStringBuilder.append,12
AbstractStringBuilder.ensureCapacityInternal,7
AbstractStringBuilder.newCapacity,1
AggregateData.add,1
Arrays.copyOf,6
Arrays.copyOfRange,9
AtomicLong.compareAndSet,8
BaseCalendar.getGregorianYearFromFixedDate,6
BaseIndex.compareKeys,8
BaseIndex.compareRows,80
BaseIndex.compareValues,29
BigDecimal.<clinit>,1
BigDecimal.<init>,11
BigDecimal.add,1
BigDecimal.divideAndRound,1
BigDecimal.equals,1
BigDecimal.movePointLeft,1
BigDecimal.setScale,1
BigDecimal.signum,1
BigInteger.<init>,5
BigInteger.equals,1
BigInteger.multiply,1
BigInteger.smallToString,1
Boolean.equals,2
BufferedInputStream.read,2
BufferedOutputStream.write,1
CacheObject.<init>,2
CalendarDate.setDayOfMonth,1
CalendarDate.setLeapYear,1
CalendarDate.setNormalized,2
ClassLoader.defineClass1,4
ClassLoader.getPackage,1
ClassPool.compress,1
Column.convert,6
Column.getColumnId,17
Column.validateConvertUpdateSequence,4
Command.executeQueryLocal,19
Command.executeUpdate,98
Command.stop,1
CommandContainer.recompileIfRequired,1
CommandContainer.update,2
CompareMode.compareString,4
Comparison.getValue,21
Comparison.isEverything,1
ConditionAndOr.getValue,2
ConditionAndOr.isEverything,5
ConditionNot.getValue,1
ConnectionInfo.readProperties,1
Database.areEqual,2
Database.isReconnectNeeded,1
Date.getMonth,1
Date.getTimeImpl,2
Date.normalize,6
Delete.update,3
DirectLongBufferU.put,1
DisabledAlgorithmConstraints.<init>,1
Engine.openSession,1
ExpressionColumn.getValue,6
ExpressionColumn.isEverything,1
ExpressionVisitor.incrementQueryLevel,1
FileOutputStream.writeBytes,5
Function.optimize,1
HashMap.get,1
HashMap.getNode,5
HashMap.hash,4
HashMap.putVal,1
HashMap.removeNode,3
HashMap.resize,4
HashSet.<init>,2
HashSet.remove,1
Hashtable.get,1
IdentityHashMap.get,1
IndexCondition.getCurrentValue,2
IndexCondition.isAlwaysFalse,3
IndexCondition.isStart,4
IndexCursor.find,3
IndexCursor.getMax,2
IndexCursor.getSearchRow,4
IndexCursor.next,2
Inflater.ended,1
Inflater.inflateBytes,8
Inflater.reset,1
Insert.insertRows,13
Integer.getChars,32
Integer.stringSize,1
Integer.toString,78
Integer.valueOf,1
JdbcConnection.checkClosed,20
JdbcConnection.commit,1
JdbcConnection.createStatement,1
JdbcPreparedStatement.executeUpdate,1
JdbcPreparedStatement.executeUpdateInternal,2
JdbcPreparedStatement.setParameter,1
JdbcPreparedStatement.setString,1
JdbcResultSet.checkClosed,2
JdbcResultSet.get,2
JdbcResultSet.getInt,1
JdbcResultSet.getString,1
JdbcResultSet.nextRow,3
JdbcStatement.checkClosed,3
LinkedHashMap.afterNodeAccess,1
LocalResult.<init>,5
LocalResult.applyLimit,1
LocalResult.next,4
Long.getChars,1
MathUtils.compare,3
MessageFormat.format,1
MultiVersionCursor.getSearchRow,26
MultiVersionCursor.loadNext,18
MultiVersionCursor.next,32
MultiVersionCursor.step,12
MultiVersionIndex.add,2
MultiVersionIndex.commit,1
MultiVersionIndex.compareRows,8
MultiVersionIndex.find,1
MultiVersionIndex.removeIfExists,2
NativeConstructorAccessorImpl.newInstance,1
OERandom.randomDecimalString,1
OERandom.randomInt,1
OERandom.randomNString,2
Object.clone,2
Object.hashCode,5
Object.wait,35
ObjectArray$ObjectArrayIterator.hasNext,1
ObjectArray$ObjectArrayIterator.next,1
ObjectArray.add,1
ObjectArray.createArray,2
ObjectArray.get,12
ObjectArray.iterator,1
ObjectArray.newInstance,2
ObjectArray.set,1
ObjectArray.sort,9
ObjectArray.swap,3
ObjectArray.toArray,1
ObjectUtils.arrayCopy,1
Optimizer.testPlan,1
Parameter.getParamValue,2
Parser.parseSelectSimple,1
Parser.readAnd,1
Parser.readIf,2
Parser.readTerm,2
Prepared.checkCanceled,2
Prepared.checkParameters,28
Prepared.needRecompile,1
Prepared.setCurrentRowNumber,3
Prepared.setSession,1
Properties.loadConvert,1
ProtectionDomain.getCodeSource,1
Query.getParameterValues,3
Query.isEverything,3
Random.next,7
Random.nextDouble,1
Record.getSessionId,1
Record.isDeleted,1
ReflectionFactory.newConstructorAccessor,1
Resource.getBytes,1
Row.getColumnCount,1
Row.getValue,59
Row.getVersion,1
Row.isEmpty,4
Row.setValue,6
RowList.next,1
SHA256.getHash,1
ScanCursor.next,1
ScanIndex.getNextRow,16
Select.getCurrentGroup,1
Select.init,1
Select.isEverything,4
Select.queryFlat,11
Select.queryWithoutCache,2
Session.checkCommitRollback,1
Session.commit,1
Session.getDatabase,1
Session.getId,1
Session.getTrace,30
Session.isClosed,2
Session.isReconnectNeeded,9
Session.unlockAll,1
Session.waitIfExclusiveModeEnabled,1
Set.update,1
SimpleDateFormat.<init>,1
SimpleDateFormat.initialize,1
SimpleInsert.customerTable,3
SimpleInsert.orderTable,5
SimpleInsert.stockTable,1
SoftReference.get,2
Standard.payment,1
StatementHelper.getAddress,1
String.<init>,1
String.charAt,4
String.getChars,12
String.hashCode,3
String.length,3
String.startsWith,1
String.substring,1
String.toCharArray,1
String.toUpperCase,1
String.valueOf,2
StringBuffer.append,11
StringBuffer.length,2
StringBuffer.setLength,1
StringBuffer.toString,4
StringBuilder.toString,4
StringCache.get,7
TPCC$3.run,1
TPCC.calculateSumDB,8
TPCCSubmitter.runTransactions,3
Table.compareTypeSave,6
Table.fireConstraints,1
Table.getTemplateRow,9
Table.validateConvertUpdateSequence,1
TableData$1.compare,8
TableData.addIndex,6
TableData.addRow,2
TableData.addRowsToIndex,6
TableData.doLock,3
TableData.lock,5
TableData.removeRow,1
TableFilter.checkTimeout,2
TableFilter.getValue,6
TableFilter.lock,1
TableFilter.next,16
TableFilter.reset,1
Throwable.fillInStackTrace,1
TimeZone.getDefaultRef,1
Timestamp.toString,5
Trace.isEnabled,3
Trace.isInfoEnabled,1
TraceSystem.getTrace,2
TreeCursor.<init>,1
TreeCursor.get,3
TreeCursor.next,13
TreeIndex.add,14
TreeIndex.balance,13
TreeIndex.child,1
TreeIndex.find,5
TreeIndex.findFirstNode,16
TreeIndex.next,21
TreeIndex.replace,1
TreeIndex.set,2
UndoLog.getLast,1
UndoLogRecord.commit,2
Unsafe.putLong,1
Update.update,1
Value.<clinit>,1
Value.cache,2
Value.checkPrecision,3
Value.compareTo,1
Value.compareTypeSave,21
Value.convertScale,2
Value.convertTo,10
ValueBoolean.getBoolean,1
ValueDecimal.equals,1
ValueInt.compareSecure,8
ValueInt.getInt,1
ValueInt.getType,1
ValueShort.compareSecure,6
ValueShort.equals,2
ValueShort.getType,1
ValueString.compareSecure,1
ValueStringFixed.get,1
ValueTimestamp.convertScale,1
ValueTimestamp.getString,1
ViewCursor.next,1
ZipCoder.getBytes,1
ZipFile.open,1
ZoneInfo.getTimeZone,1
ZoneInfo.getTransitionIndex,1
ZoneInfoFile.getZoneInfo,1
