method,hits
AbstractCalendar.setTimeOfDay,3
AbstractStringBuilder.<init>,3
AbstractStringBuilder.append,10
AbstractStringBuilder.ensureCapacityInternal,8
AbstractStringBuilder.newCapacity,1
Arrays.binarySearch0,1
Arrays.copyOf,4
Arrays.copyOfRange,5
AtomicLong.compareAndSet,8
AtomicLong.get,1
BaseCalendar.getGregorianYearFromFixedDate,1
BaseCalendar.isLeapYear,1
BaseIndex.compareKeys,5
BaseIndex.compareRows,70
BaseIndex.compareValues,23
Benchmark.prepareJars,1
BigDecimal.<clinit>,1
BigDecimal.<init>,5
BigDecimal.divideAndRound,1
BigDecimal.hashCode,1
BigDecimal.movePointRight,1
BigDecimal.valueOf,2
BigInteger.shiftLeft,1
BigInteger.toString,1
BigInteger.valueOf,1
CacheObject.<init>,1
CalendarSystem.<clinit>,1
ClassLoader.findLoadedClass0,1
Column.convert,15
Column.getColumnId,9
Column.updateSequenceIfRequired,1
Column.validateConvertUpdateSequence,1
Command.executeQueryLocal,1
Command.executeUpdate,48
Command.stop,4
CommandContainer.recompileIfRequired,3
ComparableTimSort.binarySort,1
CompareMode.compareString,1
Comparison.getValue,16
Comparison.isEverything,1
ConditionAndOr.getValue,2
ConditionAndOr.isEverything,2
ConnectionInfo.convertPasswords,1
ConstraintReferential.checkRow,1
ConstraintReferential.checkRowOwnTable,1
Database.beforeWriting,1
Database.isReconnectNeeded,4
Date.normalize,5
Delete.update,1
Engine.openSession,3
ExpiringCache.get,1
ExpressionColumn.getValue,6
ExpressionColumn.isEverything,2
ExpressionVisitor.get,2
ExpressionVisitor.incrementQueryLevel,2
FileOutputStream.write,1
FileOutputStream.writeBytes,2
FilePermission.getMask,1
Formatter$FormatSpecifier.print,1
HashMap.getNode,1
HashMap.hash,2
HashMap.newNode,1
HashMap.putVal,1
HashMap.removeNode,3
HashSet.<init>,1
HashSet.remove,1
Hashtable.access$200,1
IndexCondition.getCompareType,1
IndexCondition.getCurrentValue,1
IndexCondition.isAlwaysFalse,1
IndexCursor.find,5
IndexCursor.getMax,1
IndexCursor.getSearchRow,4
IndexCursor.next,2
IndexType.isUnique,1
Inflater.inflateBytes,5
Insert.insertRows,6
Insert.update,1
Integer.getChars,16
Integer.stringSize,1
Integer.toString,62
JdbcConnection.checkClosed,11
JdbcPreparedStatement.executeUpdate,1
JdbcPreparedStatement.executeUpdateInternal,1
JdbcPreparedStatement.setParameter,1
JdbcResultSet.checkClosed,5
JdbcResultSet.get,1
JdbcResultSet.getColumnIndex,1
JdbcResultSet.getString,2
JdbcStatement.checkClosed,5
JdbcStatement.closeOldResultSet,1
LocalResult.<init>,8
LocalResult.addRow,1
LocalResult.applyLimit,2
LocalResult.close,1
LocalResult.getRowCount,2
LocalResult.isClosed,1
LocalResult.next,5
Long.signum,1
MathUtils.compare,1
MultiVersionCursor.getSearchRow,8
MultiVersionCursor.loadNext,3
MultiVersionCursor.next,13
MultiVersionCursor.step,9
MultiVersionIndex.add,3
MultiVersionIndex.compareRows,2
MultiVersionIndex.find,6
OERandom.randomInt,3
Object.<init>,1
Object.clone,2
Object.hashCode,2
Object.wait,32
ObjectArray$ObjectArrayIterator.<init>,1
ObjectArray$ObjectArrayIterator.hasNext,29
ObjectArray.add,2
ObjectArray.createArray,1
ObjectArray.get,6
ObjectArray.newInstance,1
ObjectArray.sort,13
ObjectArray.swap,1
ObjectArray.toArray,3
ObjectUtils.arrayCopy,2
Parameter.getParamValue,1
Parser.getKeywordOrIdentifier,1
Pattern.closure,1
Pattern.expr,1
Prepared.checkCanceled,2
Prepared.setCurrentRowNumber,1
Prepared.setSession,1
Query.getParameterValues,1
Query.isEverything,1
Query.query,6
Query.sameResultAsLast,1
Random.next,6
Random.nextDouble,2
Row.<init>,1
Row.getValue,52
Row.isEmpty,2
Row.setValue,2
ScanCursor.getSearchRow,1
ScanCursor.next,2
ScanIndex.add,1
ScanIndex.getNextRow,24
ScanIndex.incrementRowCount,1
Select.getCurrentGroup,1
Select.isEverything,13
Select.queryFlat,5
Select.queryWithoutCache,2
Session.getAutoCommit,2
Session.getDatabase,1
Session.isClosed,2
Session.isReconnectNeeded,9
Session.log,1
SimpleInsert.customerTable,1
SimpleInsert.orderTable,4
SimpleInsert.stockTable,1
SoftReference.get,2
Standard.getOrderStatusForCustomer,1
String.<init>,2
String.charAt,1
String.equals,1
String.getChars,8
String.hashCode,4
String.length,5
String.toUpperCase,1
StringBuffer.append,7
StringCache.get,3
TPCC.calculateSumDB,9
TPCCSubmitter.runTransactions,3
Table.compareTypeSave,9
Table.getTemplateRow,9
TableData$1.compare,4
TableData.addIndex,8
TableData.addRow,1
TableData.addRowsToIndex,3
TableData.doLock,1
TableData.lock,3
TableData.removeRow,1
TableData.traceLock,1
TableFilter.getSelect,1
TableFilter.getValue,8
TableFilter.isOk,4
TableFilter.lock,2
TableFilter.next,5
Throwable.fillInStackTrace,5
Timestamp.toString,6
Trace.isEnabled,4
TraceObject.debugCodeCall,2
TraceSystem.isEnabled,1
TreeCursor.get,1
TreeCursor.next,5
TreeIndex.add,2
TreeIndex.balance,2
TreeIndex.child,1
TreeIndex.find,6
TreeIndex.findFirstNode,8
TreeIndex.next,13
TreeIndex.remove,2
TreeIndex.set,3
URLClassLoader.defineClass,1
URLClassPath.getLoader,1
UndoLogRecord.commit,2
Update.update,2
Value.cache,3
Value.checkPrecision,2
Value.compareTo,3
Value.compareTypeSave,6
Value.convertTo,10
ValueBoolean.compareSecure,1
ValueBoolean.getBoolean,2
ValueDecimal.equals,1
ValueDecimal.getString,1
ValueExpression.isEverything,2
ValueInt.compareSecure,6
ValueInt.get,1
ValueShort.compareSecure,6
ValueString.equals,1
ValueString.get,1
ValueStringBase.getPrecision,1
ValueStringFixed.get,2
ValueTimestamp.equals,1
ViewCursor.next,1
ZipFile.read,1
ZoneInfo.getTransitionIndex,3
