method,package1,package2,dram1,dram2,energy
AbstractCalendar.getCalendarDate,0.0,0.039209066667050735,0.0,0.0036960000017037,0.04290506666875443
AbstractCalendar.setTimeOfDay,0.0,0.19993933333365324,0.0,0.02313499999921381,0.22307433333286705
AbstractStringBuilder.<init>,0.0867114858289667,0.3015254666674688,0.006622806810319452,0.03298099999956321,0.4278407593063182
AbstractStringBuilder.append,0.10849185754312042,0.08901386666693724,0.008416964403684732,0.009479000000768185,0.21540168861451056
AbstractStringBuilder.ensureCapacityInternal,0.1307643296402639,0.03891999999905238,0.009796318727512139,0.0042599999966720726,0.1837406483635005
AbstractStringBuilder.newCapacity,0.0580676100435177,0.0,0.004588216749318304,0.0,0.062655826792836
AccessController.doPrivileged,0.0,0.0,0.0,0.0,0.0
Arrays.copyOf,0.15870679811250776,0.07449350000024424,0.012412263095578926,0.008624999998573912,0.2542375612069048
Arrays.copyOfRange,0.05847325537405075,0.11457120000074306,0.004653818949280093,0.013715999996444829,0.19141427432051872
AtomicLong.compareAndSet,0.4308402944322028,0.0,0.03967854408903269,0.0,0.4705188385212355
BaseCalendar.getDayOfWeekFromFixedDate,0.042011864956247216,0.0,0.0,0.0,0.042011864956247216
BaseCalendar.getGregorianYearFromFixedDate,0.0,0.0,0.0,0.0,0.0
BaseIndex.compareKeys,0.09107355555537383,0.0,0.001057777780159894,0.0,0.09213133333553372
BaseIndex.compareRows,0.8550135050814607,0.3226743374990898,0.04372928057735514,0.046343125000324406,1.2677602481582297
BaseIndex.compareValues,0.2933263006266224,0.0,0.012994345713443578,0.0,0.306320646340066
BaseIndex.initBaseIndex,0.04799399999986538,0.0,0.00030500000138999894,0.0,0.04829900000125538
BigDecimal.<clinit>,0.0,0.0,0.0,0.0,0.0
BigDecimal.<init>,0.045267666666707854,0.0,0.003540000000308888,0.0,0.04880766666701674
BigDecimal.divideAndRound,0.05279533333335469,0.0,0.007879999997385312,0.0,0.06067533333074
BigDecimal.equals,0.0,0.0,0.0,0.0,0.0
BigDecimal.intValue,0.0,0.0,0.0,0.0,0.0
BigDecimal.layoutChars,0.043601521618752775,0.0,0.0005828907254293934,0.0,0.04418441234418217
BigDecimal.longMultiplyPowerTen,0.060262333333109076,0.0,0.0047450000007908475,0.0,0.06500733333389992
BigDecimal.movePointLeft,0.0,0.0,0.0,0.0,0.0
BigDecimal.valueOf,0.09693889397095214,0.0,0.008471351346882493,0.0,0.10541024531783463
BigInteger.<init>,0.17094287283030807,0.0,0.012972172074545114,0.0,0.1839150449048532
BigInteger.longValue,0.043232432432567885,0.0,0.0040086486512115466,0.0,0.04724108108377943
BigInteger.smallToString,0.0,0.0,0.0,0.0,0.0
BigInteger.valueOf,0.05750874074092952,0.0,0.004244444445551683,0.0,0.06175318518648121
Boolean.booleanValue,0.04076442773617778,0.0,0.0010005551987814245,0.0,0.0417649829349592
BufferedInputStream.read,0.0,0.07879633333504897,0.0,0.01096000000203882,0.0897563333370878
CacheObject.<init>,0.03159632031788272,0.0,0.0048002545175548274,0.0,0.036396574835437547
CalendarDate.<init>,0.0,0.0,0.0,0.0,0.0
CalendarDate.setHours,0.0,0.0,0.0,0.0,0.0
CalendarDate.setSeconds,0.0,0.07909340000139006,0.0,0.008359999998356217,0.08745339999974627
Chaperone.retire,0.0,0.0,0.0,0.0,0.0
ClassLoader.defineClass1,0.0,0.15602633333037375,0.0,0.020459999999729916,0.17648633333010366
Column.convert,0.035121358702037475,0.20066706666596776,0.0005659960927592277,0.028708999998828703,0.26506342145959316
Column.getColumnId,0.0,0.0,0.0,0.0,0.0
Column.validateConvertUpdateSequence,0.11800689673355566,0.0,0.014236502038974752,0.0,0.1322433987725304
Command.executeQueryLocal,0.0,0.0,0.0,0.0,0.0
Command.executeUpdate,0.10824831249109321,0.0,0.007659439250030658,0.0,0.11590775174112386
Command.start,0.0,0.0,0.0,0.0,0.0
CommandContainer.recompileIfRequired,0.0,0.0,0.0,0.0,0.0
CompareMode.compareString,0.11962239231967903,0.0,0.010149384701335903,0.0,0.12977177702101494
Comparison.getValue,0.27776925540519554,0.0,0.007969957555338306,0.0,0.28573921296053384
Comparison.isEverything,0.0962005240628753,0.0,0.0022191235145019527,0.0,0.09841964757737726
ConcurrentHashMap.tabAt,0.0,0.0,0.0,0.0,0.0
ConditionAndOr.isEverything,0.0,0.0,0.0,0.0,0.0
DataType.add,0.0,0.0,0.0,0.0,0.0
Database.<init>,0.0,0.061259000001882676,0.0,0.010189999998450123,0.0714490000003328
Database.isReconnectNeeded,0.0,0.14364836666815486,0.0,0.02082425000019915,0.164472616668354
Date.getSeconds,0.0,0.0,0.0,0.0,0.0
Date.normalize,0.11593881660720683,0.0,0.009275779517442627,0.0,0.12521459612464944
DbObjectBase.getSQL,0.0,0.0,0.0,0.0,0.0
Delete.update,0.0,0.01878358333306096,0.0,0.002735000000029686,0.021518583333090646
Driver.load,0.0,0.0,0.0,0.0,0.0
Engine.openSession,0.0,0.06610099999913169,0.0,0.008300000001327135,0.07440100000045882
ExpressionColumn.getValue,0.0,0.09946666666655801,0.0,0.015205000000908814,0.11467166666746682
ExpressionColumn.isEverything,0.16120099531260879,0.0,0.005346804202791646,0.0,0.16654779951540044
ExpressionVisitor.get,0.0,0.0,0.0,0.0,0.0
FileOutputStream.writeBytes,0.0,0.0769807500000752,0.0,0.010121249999428985,0.08710199999950419
Gregorian$Date.<init>,0.0,0.06416833333302444,0.0,0.0073550000015529795,0.07152333333457742
HashMap.get,0.0,0.0,0.0,0.0,0.0
HashMap.getNode,0.07235616512218987,0.0,0.0055341487146323524,0.0,0.07789031383682223
HashMap.newNode,0.0,0.0,0.0,0.0,0.0
HashMap.putVal,0.0,0.0,0.0,0.0,0.0
HashMap.removeNode,0.296149041659849,0.1029804999998305,0.0355955899164275,0.012719000000409623,0.44744413157651663
HashSet.<init>,0.0,0.0,0.0,0.0,0.0
HashSet.add,0.06880800000008831,0.0,0.007443243245172591,0.0,0.0762512432452609
IndexCursor.find,0.08267350479183794,0.0,0.001569307497705898,0.0,0.08424281228954383
IndexCursor.getSearchRow,0.04148894831814178,0.0,0.0005857171408893862,0.0,0.042074665459031164
IndexCursor.next,0.0,0.0,0.0,0.0,0.0
IndexCursor.setIndex,0.047002804451209655,0.0,0.0005799831905859383,0.0,0.04758278764179559
Inflater.inflateBytes,0.0,0.14371699999901463,0.0,0.017919999998412095,0.16163699999742673
Insert.insertRows,0.4636441183050193,0.08180339999841331,0.03532302819283321,0.007888999998491877,0.5886595464947577
Integer.getChars,0.36079854017883844,0.2369995333336798,0.02848830795560437,0.023806999997759707,0.6500933814658824
Integer.stringSize,0.05184515587739415,0.0,0.003964435233583178,0.0,0.05580959111097732
Integer.toString,1.2246450405566724,1.3601120000045435,0.09116613233521192,0.16159500000067056,2.8375181728970986
JdbcConnection.checkClosed,0.057358840487621,0.10398333333190142,0.004641718142472556,0.010619999998501349,0.17660389196049633
JdbcConnection.prepareCommand,0.0,0.0,0.0,0.0,0.0
JdbcConnection.rollback,0.0,0.0,0.0,0.0,0.0
JdbcPreparedStatement.executeUpdateInternal,0.05115718776754045,0.0,0.004042682720179476,0.0,0.055199870487719925
JdbcPreparedStatement.setInt,0.0,0.08205983333367232,0.0,0.009096499999820177,0.0911563333334925
JdbcPreparedStatement.setParameter,0.06703511051106123,0.0,0.005209425104946377,0.0,0.0722445356160076
JdbcResultSet.checkClosed,0.0,0.03222666666503452,0.0,0.00367999999919751,0.035906666664232034
JdbcResultSet.checkColumnIndex,0.0,0.0,0.0,0.0,0.0
JdbcResultSet.checkOnValidRow,0.060654409899859915,0.0,0.004639624307145312,0.0,0.06529403420700523
JdbcResultSet.get,0.05118134884603144,0.0,0.0040273721900454295,0.0,0.05520872103607687
JdbcResultSet.getString,0.03427832959512992,0.0,0.00267335326017252,0.0,0.03695168285530244
JdbcResultSet.nextRow,0.0,0.06437166666485912,0.0,0.00811000000248896,0.07248166666734808
JdbcStatement.checkClosed,0.05030690540252149,0.04481999999795031,0.004082030021643359,0.00405999999929918,0.10326893542141434
LinkedHashMap.get,0.0,0.0,0.0,0.0,0.0
LocalResult.<init>,0.12501638941491242,0.0,0.0056178472439404725,0.0,0.13063423665885288
LocalResult.addRow,0.0,0.0,0.0,0.0,0.0
LocalResult.next,0.08878673126956235,0.09068191666713876,0.0051354109491451635,0.011429000000013428,0.1960330588858597
Long.getChars,0.0,0.0,0.0,0.0,0.0
Long.stringSize,0.0,0.10376000000057198,0.0,0.012654999998630956,0.11641499999920293
MathUtils.compare,0.17674228914969117,0.0,0.004408636462236457,0.0,0.18115092561192764
Message.getSQLException,0.0,0.0,0.0,0.0,0.0
MetaRecord.sort,0.0,0.0,0.0,0.0,0.0
MultiVersionCursor.getSearchRow,0.0,0.0,0.0,0.0,0.0
MultiVersionCursor.loadNext,0.14878524881056435,0.0,0.0029019382125290384,0.0,0.1516871870230934
MultiVersionCursor.next,0.7265522907264198,0.0,0.053390288283046615,0.0,0.7799425790094664
MultiVersionCursor.step,0.21605109978883325,0.07395433333294933,0.004731981995494239,0.011244999999083422,0.3059824151163602
MultiVersionIndex.add,0.0,0.0,0.0,0.0,0.0
MultiVersionIndex.compareRows,0.09822019644136613,0.0,0.005178325040391782,0.0,0.10339852148175792
MultiVersionIndex.remove,0.0,0.0,0.0,0.0,0.0
MultiVersionIndex.removeIfExists,0.0,0.0,0.0,0.0,0.0
MutableBigInteger.divideKnuth,0.0,0.04984536666743224,0.0,0.0057505000011587966,0.05559586666859103
OERandom.randomData,0.0,0.0,0.0,0.0,0.0
OERandom.randomInt,0.0528156666665988,0.0,0.0053250000006907295,0.0,0.05814066666728953
OERandom.randomIntPerm,0.06951933333342215,0.0,0.0053400000009181285,0.0,0.07485933333434028
Object.hashCode,0.0,0.0,0.0,0.0,0.0
Object.wait,0.0,0.0,0.0,0.0,0.0
ObjectArray$ObjectArrayIterator.<init>,0.05168232303196985,0.0,0.005919266509169557,0.0,0.057601589541139406
ObjectArray$ObjectArrayIterator.hasNext,0.0,0.0,0.0,0.0,0.0
ObjectArray$ObjectArrayIterator.next,0.0,0.0,0.0,0.0,0.0
ObjectArray.createArray,0.0,0.10437000000335198,0.0,0.011815000000448585,0.11618500000380055
ObjectArray.get,0.2615075535105485,0.09753399999802544,0.014740216201689813,0.010265000002012432,0.38404676971227614
ObjectArray.newInstance,0.0,0.0,0.0,0.0,0.0
ObjectArray.sort,0.3294595890141046,0.0,0.02206778101115909,0.0,0.3515273700252637
ObjectArray.swap,0.03694633333331391,0.0,0.0029800000047544017,0.0,0.03992633333806831
ObjectUtils.arrayCopy,0.0778637567785446,0.0,0.005226850351483158,0.0,0.08309060713002775
Parameter.getParamValue,0.0,0.0,0.0,0.0,0.0
Parser.initialize,0.06229945138802625,0.0,0.004629823451283375,0.0,0.06692927483930962
Parser.parseDelete,0.0,0.0,0.0,0.0,0.0
Pattern$LastNode.match,0.0,0.0,0.0,0.0,0.0
Prepared.checkCanceled,0.1429816810063555,0.0,0.011575074212699377,0.0,0.15455675521905488
Query.getParameterValues,0.04901666949913847,0.0,0.003429324292979489,0.0,0.052445993792117965
Query.query,0.08305240838472137,0.0,0.0017285877545354803,0.0,0.08478099613925685
Random.next,0.22430552651428193,0.0,0.017559116795432143,0.0,0.24186464330971408
Random.nextDouble,0.0,0.0,0.0,0.0,0.0
Random.nextInt,0.04392421240919764,0.0,0.0034681887728335386,0.0,0.047392401182031176
Record.setSessionId,0.06831866666683102,0.0,0.005339999998492809,0.0,0.07365866666532384
Row.<init>,0.042598532752691334,0.0,0.0,0.0,0.042598532752691334
Row.getValue,0.6421868641311135,0.0,0.038665097939128694,0.0,0.6808519620702421
Row.isEmpty,0.0,0.0,0.0,0.0,0.0
Row.setValue,0.0,0.0,0.0,0.0,0.0
ScanCursor.next,0.0,0.0,0.0,0.0,0.0
ScanIndex.add,0.0,0.0,0.0,0.0,0.0
ScanIndex.getNextRow,0.6920812755688484,0.23127766666524016,0.05680947575913618,0.03536000000046139,1.015528417993686
Select.getCurrentGroup,0.0,0.0,0.0,0.0,0.0
Select.isEverything,0.12853322339295623,0.0,0.005235234931489213,0.0,0.13376845832444545
Select.queryFlat,0.5256113912648448,0.0390016666642623,0.03042060663451574,0.004170000000158325,0.5992036645637812
Select.queryWithoutCache,0.0,0.0,0.0,0.0,0.0
Session.commit,0.0,0.0,0.0,0.0,0.0
Session.getDatabase,0.0,0.0,0.0,0.0,0.0
Session.isClosed,0.0,0.03211253333526353,0.0,0.004032000000976647,0.03614453333624018
Session.isReconnectNeeded,0.0,0.14987386666810681,0.0,0.017427000001771373,0.1673008666698782
Session.log,0.0,0.0,0.0,0.0,0.0
SimpleInsert.customerTable,0.0,0.0,0.0,0.0,0.0
SimpleInsert.orderTable,0.035729999999966816,0.0,0.0028439999980037108,0.0,0.03857399999797052
SimpleInsert.stockTable,0.10720733333357313,0.0,0.015338181818757827,0.0,0.12254551515233096
SoftReference.get,0.0,0.0,0.0,0.0,0.0
Standard.getOrderStatusForCustomer,0.0,0.0,0.0,0.0,0.0
String.<init>,0.09406690067802147,0.0,0.005223575060537914,0.0,0.09929047573855938
String.charAt,0.08468925387606663,0.0,0.0,0.0,0.08468925387606663
String.getChars,0.0,0.06011553333034196,0.0,0.0071460000006482016,0.06726153333099016
String.hashCode,0.06675290890510535,0.0,0.005217615494675783,0.0,0.07197052439978113
String.length,0.0709390158165692,0.0,0.0010659623013790614,0.0,0.07200497811794826
String.substring,0.0,0.0,0.0,0.0,0.0
String.toCharArray,0.04079015384643124,0.0,0.003304615381729001,0.0,0.04409476922816024
String.toUpperCase,0.0,0.0,0.0,0.0,0.0
StringBuffer.append,0.1808394403335047,0.12534593333354374,0.013726057744076363,0.01936300000234041,0.33927443141346525
StringBuffer.setLength,0.12199860360310145,0.0,0.009391351348575234,0.0,0.13138995495167669
StringBuffer.toString,0.0,0.07480900000276354,0.0,0.012219999999312371,0.08702900000207592
StringBuilder.append,0.038849306007505295,0.0,0.00048159633298594355,0.0,0.03933090234049124
StringBuilder.toString,0.04569576108971503,0.0,0.0034046327404862555,0.0,0.04910039383020128
StringCache.get,0.0597736666665393,0.0,0.0047450000007908475,0.0,0.06451866666733015
TPCC.calculateSumDB,0.525859686420808,0.0,0.03768764812920355,0.0,0.5635473345500116
TPCCDataSource.<init>,0.0,0.0,0.0,0.0,0.0
TPCCSubmitter.runTransactions,0.0,0.0,0.0,0.0,0.0
Table.compareTypeSave,0.24427620173695733,0.0,0.012485326225681811,0.0,0.2567615279626391
Table.fireConstraints,0.0,0.019927999999708845,0.0,0.002731249999972836,0.02265924999968168
Table.getTemplateRow,0.2307855067751332,0.0,0.005819299269075916,0.0,0.23660480604420914
Table.validateConvertUpdateSequence,0.0,0.0,0.0,0.0,0.0
TableData$1.compare,0.0887246000002051,0.0,0.0008240000034372012,0.0,0.0895486000036423
TableData.addIndex,0.06609298376203254,0.0,0.003992473751330606,0.0,0.07008545751336315
TableData.addRow,0.059535884648296726,0.06654866666697974,0.005901781263758333,0.009545000000798607,0.1415313325798334
TableData.addRowsToIndex,0.03800453333339343,0.0,0.0009639999984453123,0.0,0.038968533331838744
TableData.doLock,0.056011800000123915,0.0,0.004959000000235392,0.0,0.06097080000035931
TableData.lock,0.07474315217920158,0.0,0.0024831644749919338,0.0,0.07722631665419351
TableFilter.getSelect,0.03108382207143603,0.0,0.0,0.0,0.03108382207143603
TableFilter.getValue,0.08422836397231903,0.17120366666495102,0.0011627231275085186,0.02794000000236944,0.28453475376714804
TableFilter.isOk,0.24729442033092397,0.0,0.00216542399961103,0.0,0.249459844330535
TableFilter.lock,0.04503411817191003,0.0,0.004070609312105946,0.0,0.04910472748401598
TableFilter.next,0.046363474095343145,0.09621986666703983,0.0,0.014335000000816459,0.15691834076319944
TableFilter.reset,0.0,0.0,0.0,0.0,0.0
Throwable.fillInStackTrace,0.0,0.04350274999887915,0.0,0.008171249999577412,0.051673999998456566
TimeZone.getDefaultRef,0.12990317317202293,0.0,0.010339935064044983,0.0,0.14024310823606792
Timestamp.equals,0.0,0.0,0.0,0.0,0.0
Timestamp.toString,0.20153656358527086,0.0,0.013276830653374764,0.0,0.21481339423864562
Trace.isEnabled,0.058648282651242035,0.05582699999892308,0.0045238563375383616,0.005219999996673626,0.1242191389843771
Trace.isInfoEnabled,0.0,0.0,0.0,0.0,0.0
TraceObject.debugCodeCall,0.0,0.09934499999993324,0.0,0.010080000000016298,0.10942499999994953
TraceSystem.isEnabled,0.04426415166463014,0.0,0.003487346024617931,0.0,0.047751497689248065
TreeCursor.next,0.0,0.0,0.0,0.0,0.0
TreeIndex.<init>,0.0,0.0,0.0,0.0,0.0
TreeIndex.add,0.061455310675161134,0.0,0.004416072916195814,0.0,0.06587138359135694
TreeIndex.balance,0.060750333333392824,0.0,0.004759999998592925,0.0,0.06551033333198575
TreeIndex.child,0.04154433333314955,0.0,0.0005999999993946402,0.0,0.04214433333254419
TreeIndex.find,0.0637061649728482,0.0,0.004303595918912592,0.0,0.06800976089176079
TreeIndex.findFirstNode,0.1136698930622715,0.10209166666512222,0.0005872576807799524,0.013735000000451691,0.23008381740862535
TreeIndex.next,0.13614933333277196,0.0,0.001189999995403923,0.0,0.13733933332817588
TreeIndex.remove,0.0,0.0,0.0,0.0,0.0
TreeIndex.set,0.11863200000031307,0.06908833333404295,0.0071399999991020495,0.010291666666388564,0.20515199999984662
UndoLog.getLast,0.1636179127795542,0.0,0.012623563652072286,0.0,0.1762414764316265
UndoLogRecord.commit,0.04408958457922999,0.0,0.003460306602741314,0.0,0.0475498911819713
UnixFileSystem.getBooleanAttributes0,0.0,0.0,0.0,0.0,0.0
Value.cache,0.17486206248433658,0.0,0.014544494248861128,0.0,0.1894065567331977
Value.checkPrecision,0.0990539128694374,0.0,0.007577319413860017,0.0,0.10663123228329742
Value.compareTo,0.04444715989244039,0.0,0.0,0.0,0.04444715989244039
Value.compareTypeSave,0.11944191043093932,0.0,0.004494505649419135,0.0,0.12393641608035846
Value.convertScale,0.03955066666700683,0.0,0.0029600000004090053,0.0,0.04251066666741583
Value.convertTo,0.2083472703705377,0.0,0.016750555562342652,0.0,0.22509782593288036
ValueBoolean.getBoolean,0.0,0.0,0.0,0.0,0.0
ValueBoolean.getType,0.040965090797165885,0.0,0.004823864526122585,0.0,0.04578895532328847
ValueInt.compareSecure,0.03497297065235686,0.07037366666675855,0.0005646302197565799,0.010899999998703908,0.11681126753757591
ValueInt.get,0.06942637037018021,0.0,0.006706666669170199,0.0,0.07613303703935041
ValueShort.compareSecure,0.0897381035960674,0.08363833333472333,0.0017825115167116727,0.012345000002824236,0.18750394845032664
ValueShort.getString,0.0444484058725635,0.0,0.003416035934420164,0.0,0.04786444180698366
ValueShort.getType,0.04282182644891569,0.0,0.0,0.0,0.04282182644891569
ValueString.equals,0.0,0.0,0.0,0.0,0.0
ValueString.get,0.0,0.0,0.0,0.0,0.0
ValueStringBase.getString,0.0373958587947032,0.0,0.0029200761300674943,0.0,0.040315934924770695
ValueStringFixed.get,0.1160690326805522,0.0,0.008630905189602325,0.0,0.12469993787015453
ValueTimestamp.getString,0.07766642523602639,0.0,0.005221539206709086,0.0,0.08288796444273548
ValueTimestamp.getType,0.06068121182974,0.0,0.004663353178878179,0.0,0.06534456500861818
ZoneInfo.getOffsets,0.0,0.0,0.0,0.0,0.0
ZoneInfo.getTransitionIndex,0.0,0.0,0.0,0.0,0.0
