method,package1,package2,dram1,dram2,energy
AbsoluteTimeDateFormat,0.0,0.04341633332660422,0.0,0.006900000000314321,0.05031633332691854
AbstractDOMParser,0.0,0.062170400004833926,0.0,0.009245999999984631,0.07141640000481855
AttributeInfo,0.0,0.1834045333370644,0.0,0.027672000000166008,0.21107653333723042
BaseHashMap,0.0,0.05419900000561029,0.0,0.006799999999808884,0.06099900000541917
BenchmarkModule,0.0,0.06870311110590895,0.0,0.009742222221878668,0.07844533332778761
BenchmarkState,0.14526888587331427,0.0,0.019763197310569698,0.0,0.16503208318388396
Buffer,0.0,0.0,0.0,0.0,0.0
Catalog,0.0,0.2520834074153013,0.0,0.03731611111167391,0.2893995185269752
ChildContext,0.0,0.0286559999998038,0.0,0.004819999999805683,0.033475999999609485
ClassClassPath,0.0,0.04047537037102436,0.0,0.006091666666718622,0.04656703703774298
CodeAttribute,0.0,0.017089833330828696,0.0,0.0027399999999033753,0.019829833330732072
ConfigurationUtils,0.0,0.06574847222186185,0.0,0.01039499999983996,0.07614347222170181
ConnectionImpl,0.0,0.23347589606142374,0.0,0.034015018269570756,0.2674909143309945
ConnectionPropertiesImpl,0.0,0.0,0.0,0.0,0.0
ConstPool,0.0,0.06870311110590895,0.0,0.009742222221878668,0.07844533332778761
CoreDocumentImpl,0.0,0.028613399993628264,0.0,0.00410100000044622,0.03271439999407448
DBWorkload,0.0,0.05871814814680773,0.0,0.008380555555723495,0.06709870370253122
DatabaseMetaData,0.0,0.06641650000043833,0.0,0.011002500000055685,0.07741900000049402
DecimalFormatSymbolsProviderImpl,0.0,0.06677685185288149,0.0,0.010872222222099449,0.07764907407498094
DocumentBuilderImpl,0.0,0.0788199484161432,0.0,0.013521607142802313,0.09234155555894552
ExceptionTable,0.0,0.02560937500068879,0.0,0.0043124999998174944,0.029921875000506283
Expression,0.0,0.136027333336339,0.0,0.020939999999730695,0.15696733333606971
FactoryFinder,0.0,0.010277555554542536,0.0,0.0015983333336306613,0.011875888888173198
Field,0.06077561084889599,0.0,0.004655730487231088,0.0,0.06543134133612707
FieldInfo,0.0,0.017089833330828696,0.0,0.0027399999999033753,0.019829833330732072
GeneratedConstructorAccessor6,0.0,0.0,0.0,0.0,0.0
Gregorian,0.0,0.055403733338850236,0.0,0.00881599999993341,0.06421973333878364
JDBCConnection,0.0,0.14334204760546398,0.0,0.020571428571375214,0.1639134761768392
JDBCStatementBase,0.0,0.07779933333707352,0.0,0.012364999999893671,0.09016433333696719
Launcher$AppClassLoader,0.0,0.2146429966437973,0.0,0.034225681817264965,0.24886867846106225
LocaleProviderAdapter,0.0,0.05584293333037446,0.0,0.008800000000337605,0.06464293333071207
Messages,0.0,0.0433073030276732,0.0,0.006987272727476948,0.05029457575515015
MysqlIO,0.1423572447861216,0.08443555507594651,0.017104000514489705,0.009698063738557356,0.25359486411511517
NewOrder,0.031350490937530985,0.0,0.0036880193080934174,0.0,0.035038510245624405
NonRegisteringDriver,0.0,0.31183160302620805,0.0,0.05278377272743731,0.36461537575364533
OrderStatus,0.0,0.0,0.0,0.0,0.0
ParserDQL,0.0,0.07507333333099571,0.0,0.010974999999840898,0.08604833333083661
Payment,-0.031587749375751414,0.0,-0.003630711462879364,0.0,-0.035218460838630776
PersistentStoreCollectionSession,0.0,0.043904666672460735,0.0,0.006860000000112146,0.05076466667257288
Phase,0.0,0.0,0.0,0.0,0.0
PreparedStatement,0.0,0.0,0.0,0.0,0.0
PreparedStatement$BatchParams,0.0,0.0,0.0,0.0,0.0
Procedure,0.0,0.0,0.0,0.0,0.0
PropertySetter,0.0,0.06992600000618646,0.0,0.009579999999914436,0.07950600000610089
ReadAheadInputStream,0.2282410376796124,0.039691535237771206,0.02226935999816362,0.000880142459424338,0.29108207537497155
Resource,0.0,0.07196572115460116,0.0,0.011533413461247385,0.08349913461584854
ResultSetImpl,0.0530141777343943,0.11056259589568454,0.0036258449703005617,0.013488643375216186,0.18069126197559557
Results,0.0,0.07756153846947621,0.0,0.009338461538087966,0.08690000000756418
SQLError,0.10859748284577496,0.0039875999995274474,0.01051592109566064,0.0,0.12310100394096304
SecuritySupport$2,0.0,0.03387105555399709,0.0,0.005635000000185957,0.039506055554183045
SessionManager,0.0,0.08638500000233762,0.0,0.010939999999512413,0.09732500000185003
SingleByteCharsetConverter,0.0,0.5840047916778227,0.0,0.029115625000031287,0.613120416677854
StatementImpl,0.0,0.0,0.0,0.0,0.0
StatementSchemaDefinition,0.0,0.07507333333099571,0.0,0.010974999999840898,0.08604833333083661
StringUtils,0.0,0.007238750001124572,0.0,8.925000001909211e-05,0.0073280000011436645
TPCCUtil,0.036700866852504364,0.0,0.001687881200403776,0.0,0.03838874805290814
ThreadBench,0.22402679667417136,0.0,0.03170099719539332,0.0,0.2557277938695647
TimeUtil,0.0,0.0,0.0,0.0,0.0
Tokens,0.0,0.07879633333262366,0.0,0.010990000000068296,0.08978633333269195
UTF_8,0.0,0.0,0.0,0.0,0.0
UTF_8$Decoder,0.0,0.0,0.0,0.0,0.0
Util,0.0,0.0,0.0,0.0,0.0
Worker,0.0,0.0,0.0,0.0,0.0
WorkloadState,0.6171380842622339,0.0,0.06482012565778054,0.0,0.6819582099200144
ZoneInfo,0.0,0.0,0.0,0.0,0.0
