method,package1,package2,dram1,dram2,energy
ArrayList,0.0,0.0,0.0,0.0,0.0
ArrayList$Itr,0.0,0.1392156666704631,0.0,0.02359214285657106,0.16280780952703416
Arrays,0.07787213386264275,0.0,0.010073136995874764,0.0,0.08794527085851751
AtomicLong,0.0,0.0,0.0,0.0,0.0
BufferedInputStream,0.3451931406627928,0.0,0.04533120375165602,0.0,0.3905243444144488
BufferedOutputStream,0.0,0.0,0.0,0.0,0.0
ByteBuffer,0.0,0.0,0.0,0.0,0.0
CharacterDataLatin1,0.0,0.0,0.0,0.0,0.0
CharsetDecoder,0.06187494466504642,0.0,0.005492511833980775,0.0,0.0673674564990272
Class,0.0,0.0,0.0,0.0,0.0
ClassLoader,0.17838015131197768,0.0,0.023759423992978958,0.0,0.20213957530495663
ConcurrentHashMap,0.0,0.0,0.0,0.0,0.0
DataInputStream,0.04693423272793864,0.0,0.003596195550423469,0.0,0.050530428278362106
DigitList,0.0,0.060770666663302116,0.0,0.010824999999992237,0.07159566666329435
Double,0.0,0.0,0.0,0.0,0.0
Formatter$FormatSpecifier,0.0,0.02161666666991853,0.0,0.0020375000000664536,0.023654166669984985
GregorianCalendar,0.0,0.0,0.0,0.0,0.0
HashMap,0.05373700929688127,0.0,0.007860611168534691,0.0,0.06159762046541596
InetAddress,0.04258670808629992,0.0,0.006652759890734749,0.0,0.04923946797703467
Inflater,0.2707965924413378,0.0,0.03757842339300749,0.0,0.3083750158343453
InflaterInputStream,0.06728063365808892,0.0,0.008409050466291526,0.0,0.07568968412438044
Integer,0.0,0.0,0.0,0.0,0.0
Introspector,0.0,0.06296799999351302,0.0,0.009620000000116608,0.07258799999362962
JarFile,0.043284970404317065,0.0,0.006864671603063879,0.0,0.050149642007380944
LinkedList,0.0,0.0,0.0,0.0,0.0
Object,0.05120067031875802,0.0,0.005738299464850787,0.0,0.0569389697836088
Package,0.05334943021588864,0.0,0.006555613666394053,0.0,0.05990504388228269
Pattern,0.08576231276272007,0.0,0.011315725019951052,0.0,0.09707803778267113
PlainSocketImpl,0.0,-0.030501299996588682,0.0,-0.005094000000250768,-0.03559529999683945
Properties,0.06150923805835243,0.0,0.010584414155609971,0.0,0.0720936522139624
Random,0.0,0.0,0.0,0.0,0.0
ReentrantReadWriteLock$Sync,0.08012569237857234,0.0,0.010014838898459858,0.0,0.0901405312770322
ResourceBundle$Control,0.06116383344779126,0.0,0.006668853000563922,0.0,0.06783268644835519
SimpleDateFormat,0.0,0.0,0.0,0.0,0.0
SocketInputStream,0.035311944337142125,0.08500380333221984,0.002897620453282545,0.0028840500004783587,0.12609741812312286
SocketOutputStream,0.12984085504020246,0.0,0.013253363229158792,0.0,0.14309421826936125
String,0.0,0.0,0.0,0.0,0.0
String$CaseInsensitiveComparator,0.0,0.0,0.0,0.0,0.0
StringBuffer,0.0,0.008090200000151527,0.0,0.0002932500000497385,0.008383450000201265
Thread,0.0,0.0,0.0,0.0,0.0
ThreadLocal,0.0,0.0,0.0,0.0,0.0
Throwable,0.0,0.0,0.0,0.0,0.0
TreeMap,0.0,0.0,0.0,0.0,0.0
TreeMap$Entry,0.0,0.0,0.0,0.0,0.0
