method,package1,package2,dram1,dram2,energy
AbstractPlainSocketImpl.available,0.0,0.0,0.0,0.0,0.0
AbstractPlainSocketImpl.releaseFD,0.0,0.0,0.0,0.0,0.0
ArrayList$Itr.next,0.0,0.0,0.0,0.0,0.0
ArrayList.elementData,0.0,0.0,0.0,0.0,0.0
ArrayList.iterator,0.0,0.0,0.0,0.0,0.0
Arrays$ArrayList.get,0.024365333331904063,0.0,0.002064000000245869,0.0,0.026429333332149932
Arrays.copyOf,0.05143233332879996,0.0,0.0031200000006113737,0.0,0.05455233332941134
Arrays.sort,0.03944933333453567,0.0,0.004910000000260576,0.0,0.04435933333479625
AtomicLong.compareAndSet,0.0,0.0,0.0,0.0,0.0
Buffer.hasRemaining,0.0,0.0,0.0,0.0,0.0
Buffer.position,0.0,0.0,0.0,0.0,0.0
BufferedInputStream.read,0.12097166666596117,0.04662711436421251,0.019565000000511645,0.006476475149215408,0.19364025617990072
ByteBuffer.array,0.0,0.009252933333239828,0.0,0.0,0.009252933333239828
CharBuffer.arrayOffset,0.0,0.0,0.0,0.0,0.0
CharacterData.of,0.0,0.0,0.0,0.0,0.0
CharsetDecoder.flush,0.0,0.0019098784023006414,0.0,0.00015395581335001188,0.0020638342156506532
Class.forName0,0.028930666669718143,0.0,0.004329999999754364,0.0,0.033260666669472506
ClassLoader.defineClass1,0.26330958461349396,0.0,0.03739184615273515,0.0,0.3007014307662291
ClassLoader.findBootstrapClass,0.07039366666382799,0.029140361955175307,0.00976999999935894,0.00387109407768884,0.11317512269605107
CoderResult.isUnderflow,0.0,0.0069984109313452275,0.0,0.00011531738111841972,0.0071137283124636476
DataInputStream.readUTF,0.043497666668069236,0.0,0.006450000000162011,0.0,0.04994766666823125
DataOutputStream.incCount,0.05316166666792317,0.0,0.002750000000257084,0.0,0.05591166666818025
HashMap.getNode,0.0,0.0,0.0,0.0,0.0
HashMap.hash,0.0,0.00601100753166103,0.0,3.486865559034304e-05,0.006045876187251373
Inflater.inflateBytes,0.1326162424240575,0.0,0.017419545453804225,0.0,0.15003578787786173
Integer.getChars,0.0,0.07219619046996481,0.0,0.012571428571737629,0.08476761904170244
Introspector.processPropertyDescriptors,0.0,0.04206444436055078,0.0,0.005868946590011296,0.04793339095056208
LinkedList.linkLast,0.0,0.0,0.0,0.0,0.0
LinkedList.removeFirst,0.0,0.0,0.0,0.0,0.0
LinkedList.unlinkFirst,0.0,0.0,0.0,0.0,0.0
Object.<init>,0.0,0.0,0.0,0.0,0.0
Pattern$Ctype.isSatisfiedBy,0.03444399999959084,0.0,0.004700000000108654,0.0,0.03914399999969949
PlainSocketImpl.socketAvailable,0.05094399999749536,0.00861556314633162,0.0056899999999586726,0.000158821988338981,0.06540838513212464
Random.nextInt,0.0,0.0,0.0,0.0,0.0
ResourceBundle$RBClassLoader$1.run,0.0,0.029140361955175307,0.0,0.00387109407768884,0.03301145603286415
SQLException.<init>,0.0,0.0,0.0,0.0,0.0
SocketInputStream.socketRead0,0.0816761021409,0.018794112135050882,0.006926704707768801,0.0002062219626976784,0.10760314094641735
SocketOutputStream.socketWrite0,0.1090442999387155,0.08610213488978402,0.009991878018304761,0.0063022364536440756,0.21144054930044837
String.hashCode,0.0,0.007278449999284931,0.0,0.0,0.007278449999284931
String.startsWith,0.02748265355435729,0.0,0.0,0.0,0.02748265355435729
System.nanoTime,0.0,0.0,0.0,0.0,0.0
Thread.sleep,0.0,0.0,0.0,0.0,0.0
Throwable.fillInStackTrace,0.08160799999604933,0.01028443333460018,0.007107999999910438,3.5999999963678415e-05,0.09903643333052362
TreeMap.fixAfterInsertion,0.030800729337876826,0.005408044069424069,0.0020641727513818365,0.00118276847768694,0.03945571463636967
TreeMap.put,0.03500959999801125,0.0,0.002846999999746913,0.0,0.037856599997758165
URI$Parser.scan,0.058520699998189235,0.0,0.007577999999557506,0.0,0.06609869999774674
UnixFileSystem.getBooleanAttributes0,0.02274566666649965,0.0,0.0,0.0,0.02274566666649965
