method,package1,package2,dram1,dram2,energy
AbstractPlainSocketImpl.available,0.0,0.0,0.0,0.0,0.0
AbstractPlainSocketImpl.releaseFD,0.0,0.0,0.0,0.0,0.0
ArrayList$Itr.next,0.0,0.0,0.0,0.0,0.0
ArrayList.access$000,0.07397466666589025,0.0,0.009050000000570435,0.0,0.08302466666646069
ArrayList.elementData,0.0,0.0,0.0,0.0,0.0
ArrayList.iterator,0.0,0.0,0.0,0.0,0.0
Arrays.copyOf,0.0,0.17139702380033361,0.0,0.02485178571389822,0.19624880951423185
Arrays.copyOfRange,0.0,0.0610962698461547,0.0,0.008632380952500776,0.06972865079865548
AtomicLong.compareAndSet,0.0,0.0,0.0,0.0,0.0
BufferedInputStream.read,0.0,0.3560059462127022,0.0,0.05835166946791444,0.41435761568061663
Calendar.clear,0.0,0.0,0.0,0.0,0.0
Calendar.isSet,0.0,0.0,0.0,0.0,0.0
CharBuffer.toString,0.0,0.0,0.0,0.0,0.0
CharacterData.of,0.0,0.0,0.0,0.0,0.0
CharsetDecoder.decode,0.0,0.0,0.0,0.0,0.0
Class.forName0,0.0,0.11405449999599822,0.0,0.01874583333321627,0.13280033332921448
Class.getDeclaredConstructors0,0.0,0.053507333336811916,0.0,0.008273333333313024,0.06178066667012494
ClassLoader.defineClass1,0.0,0.43018553846711727,0.0,0.06682108974273743,0.4970066282098547
ClassLoader.findBootstrapClass,0.0,0.042182222215665706,0.0,0.007356666666358555,0.04953888888202426
Collections$UnmodifiableCollection$1.<init>,0.0,0.0,0.0,0.0,0.0
Collections$UnmodifiableMap.get,0.0,0.0,0.0,0.0,0.0
DataInputStream.<init>,0.0,0.046997133337814974,0.0,0.007054666666307537,0.05405180000412251
DataInputStream.readUTF,0.0,0.10433611110784113,0.0,0.01834166666614894,0.12267777777399008
DecimalFormat.<init>,0.0,0.041815777781367705,0.0,0.00735000000026452,0.049165777781632225
Formatter$FormatSpecifier.print,0.07792166667059064,0.0,0.012284999999489324,0.0,0.09020666667007997
Formatter.parse,0.0,0.06085199999506585,0.0,0.00960000000001552,0.07045199999508137
GregorianCalendar.computeTime,0.0,0.0,0.0,0.0,0.0
Inflater.inflateBytes,0.0,0.029208666667626757,0.0,0.004118333333179988,0.033327000000806746
Integer.getChars,0.0,0.0,0.0,0.0,0.0
Integer.toString,0.0,0.01243656000122428,0.0,0.0015047999999660536,0.013941360001190334
Integer.valueOf,0.0,0.0,0.0,0.0,0.0
LinkedList.unlinkFirst,0.0,0.0,0.0,0.0,0.0
Math.min,0.0,0.0,0.0,0.0,0.0
PlainSocketImpl.socketAvailable,0.0,-0.006500015305501657,0.0,0.0013320937818778087,-0.005167921523623848
PrintWriter.newLine,0.07845641389170911,0.0,0.010196579318626574,0.0,0.08865299321033568
Properties.load0,0.0,0.15985605128867647,0.0,0.02663076923090557,0.18648682051958204
Random.next,0.0,0.0,0.0,0.0,0.0
Random.nextInt,0.0,0.0,0.0,0.0,0.0
ReentrantReadWriteLock.<init>,0.0,0.03057849999944058,0.0,0.004800000000007761,0.035378499999448344
SocketInputStream.socketRead0,0.0,0.008463136308165795,0.0,0.00044956180074522947,0.008912698108911024
SocketOutputStream.socketWrite,0.0,0.0,0.0,0.0,0.0
SocketOutputStream.socketWrite0,0.0,0.04076160207755388,0.0,0.003118857466170494,0.043880459543724375
String.charAt,0.0,0.0,0.0,0.0,0.0
String.equals,0.0,0.0,0.0,0.0,0.0
String.getChars,0.0,0.0,0.0,0.0,0.0
String.hashCode,0.0,0.0,0.0,0.0,0.0
String.intern,0.0,0.014015372548087992,0.0,0.002264705882314992,0.016280078430402984
String.startsWith,0.0,0.030339230765373662,0.0,0.005074615384588609,0.03541384614996227
StringBuffer.toString,0.0,0.0,0.0,0.0,0.0
StringBuilder.toString,0.0,0.0,0.0,0.0,0.0
Thread.sleep,0.0,0.0,0.0,0.0,0.0
ThreadLocal$ThreadLocalMap.getEntry,0.0,0.0,0.0,0.0,0.0
Throwable.fillInStackTrace,0.0,0.07510578665998764,0.0,0.011130000000072564,0.08623578666006021
Timestamp.getTime,0.0,0.0,0.0,0.0,0.0
TreeMap.navigableKeySet,0.0,0.022779666666691702,0.0,0.0032099999999546623,0.025989666666646365
TreeMap.put,0.0,0.0,0.0,0.0,0.0
ZipFile.getEntry,0.0,0.027729058821398,0.0,0.004519117646993311,0.03224817646839131
