dram,epoch,package,socket
0.0,0,0.0,1
0.0,1,0.0,1
0.21397499999875436,2,1.2999869999766815,1
0.0,3,0.0,1
0.00413999999727821,4,0.02404800002113916,1
0.0,5,0.0,1
0.00407999999151798,6,0.02783200002158992,1
0.0,7,0.0,1
0.0,8,0.0,1
0.0,9,0.0,1
0.028800000000046566,10,0.17480500001693144,1
0.0,11,0.0,1
0.0040800000133458525,12,0.02783199996338226,1
0.0,13,0.0,1
0.00407999999151798,14,0.028809000010369346,1
0.0,15,0.0,1
0.0,16,0.0,1
0.0,17,0.0,1
0.00413999999727821,18,0.023680999991483986,1
0.0,19,0.0,1
0.02877000000444241,20,0.18902600003639236,1
0.0,21,0.0,1
0.008235000001150183,22,0.05023199995048344,1
0.0,23,0.0,1
0.0247799999997369,24,0.17254600001615472,1
0.0,25,0.0,1
0.03713999999308726,26,0.21942200002376921,1
0.0,27,0.0,1
0.03312000000732951,28,0.17932099994504824,1
0.0,29,0.0,1
0.0537899999981164,30,0.30816700001014397,1
0.0,31,0.0,1
0.008220000003348105,32,0.05834900002810173,1
0.0,33,0.0,1
0.03304499999649124,34,0.18817199999466538,1
0.0,35,0.0,1
0.03608999999414664,36,0.20056100000510924,1
0.0,37,0.0,1
0.02373000000807224,38,0.17968800000380725,1
0.0,39,0.0,1
0.07292999999481253,40,0.508300000015879,1
0.0,41,0.0,1
0.004110000001674052,42,0.02825999999186024,1
0.0,43,0.0,1
0.00827999999455642,44,0.04534899996360764,1
0.0,45,0.0,1
0.03294000001187669,46,0.19067400001222268,1
0.0,47,0.0,1
0.026024999999208376,48,0.1874390000011772,1
0.0,49,0.0,1
0.140609999987646,50,1.2619010000198614,1
0.0,51,0.0,1
0.0040800000133458525,52,0.026611999986926094,1
0.0,53,0.0,1
0.00407999999151798,54,0.029051999998046085,1
0.0,55,0.0,1
0.0,56,0.0,1
0.0,57,0.0,1
0.00413999999727821,58,0.027221999975154176,1
0.0,59,0.0,1
0.016380000008211937,60,0.10669000001507811,1
0.0,61,0.0,1
0.012360000000626314,62,0.07623299999977462,1
0.0,63,0.0,1
0.032939999997324776,64,0.1920160000154283,1
0.0,65,0.0,1
0.030689999999594875,66,0.19201699996483512,1
0.0,67,0.0,1
0.02832000000489643,68,0.18890400003874674,1
0.0,69,0.0,1
0.04469999999855645,70,0.2988279999990482,1
0.0,71,0.0,1
0.01655999998911284,72,0.0931999999738764,1
0.0,73,0.0,1
0.03303000001324108,74,0.20257600003969856,1
0.0,75,0.0,1
0.03311999999277759,76,0.1925049999554176,1
0.0,77,0.0,1
0.0330450000037672,78,0.1912840000295546,1
0.0,79,0.0,1
0.049395000001823064,80,0.29455599997891113,1
0.0,81,0.0,1
0.01637999999366002,82,0.10327100002905354,1
0.0,83,0.0,1
0.03276000000187196,84,0.20568899996578693,1
0.0,85,0.0,1
0.033029999998689163,86,0.18994100004783832,1
0.0,87,0.0,1
0.02883000000292668,88,0.16259799999534152,1
0.0,89,0.0,1
0.045180000000982545,90,0.2990109999664128,1
0.0,91,0.0,1
0.020564999998896383,92,0.13415500000701286,1
0.0,93,0.0,1
0.02885999999853084,94,0.20416300001670606,1
0.0,95,0.0,1
0.030749999998079147,96,0.2405389999912586,1
0.0,97,0.0,1
0.032339999997930136,98,0.2738039999967441,1
0.0,99,0.0,1
0.04117499999847496,100,0.29980500001693144,1
0.0,101,0.0,1
0.020625000004656613,102,0.16693099998519756,1
0.0,103,0.0,1
0.03724500000680564,104,0.3054810000176076,1
0.0,105,0.0,1
0.03306000000156928,106,0.237182999990182,1
0.0,107,0.0,1
0.028979999995499384,108,0.18542399996658787,1
0.0,109,0.0,1
0.04553999999188818,110,0.32080100002349354,1
0.0,111,0.0,1
0.02064000000245869,112,0.1643070000282023,1
0.0,113,0.0,1
0.02958000000216998,114,0.24206499994033948,1
0.0,115,0.0,1
0.020714999998745043,116,0.2288210000260733,1
0.0,117,0.0,1
0.029490000000805594,118,0.2301640000368934,1
0.0,119,0.0,1
0.04546499999560183,120,0.2965689999400638,1
0.0,121,0.0,1
0.018900000002759043,122,0.16589400000520982,1
0.0,123,0.0,1
0.020759999999427237,124,0.18890400000964291,1
0.0,125,0.0,1
0.023639999999431893,126,0.2131350000272505,1
0.0,127,0.0,1
0.02664000001095701,128,0.230773000017507,1
0.0,129,0.0,1
0.024899999996705446,130,0.22869899997022003,1
0.0,131,0.0,1
0.00887999999395106,132,0.11315900000045076,1
0.0,133,0.0,1
0.01434000000153901,134,0.17315699998289347,1
0.0,135,0.0,1
0.012420000006386545,136,0.17785700000240467,1
0.0,137,0.0,1
0.01421999999001855,138,0.17633000001660548,1
0.0,139,0.0,1
0.019560000000637956,140,0.261597000004258,1
0.0,141,0.0,1
0.008880000008502975,142,0.12304700000095181,1
0.0,143,0.0,1
0.014174999996612314,144,0.1829219999781344,1
0.0,145,0.0,1
0.014219999997294508,146,0.1887210000131745,1
0.0,147,0.0,1
0.014145000001008157,148,0.1928710000065621,1
0.0,149,0.0,1
0.01969499999540858,150,0.2661739999894053,1
0.0,151,0.0,1
0.008880000008502975,152,0.11895799997728318,1
0.0,153,0.0,1
0.03299999999580905,154,0.20758000001660548,1
0.0,155,0.0,1
0.033029999998689163,156,0.2214360000216402,1
0.0,157,0.0,1
0.02830500000709435,158,0.2084960000065621,1
0.0,159,0.0,1
0.03256499999406515,160,0.2760619999899063,1
0.0,161,0.0,1
0.011835000004793983,162,0.09796100002131425,1
0.0,163,0.0,1
0.019559999993362,164,0.23193399995216168,1
0.0,165,0.0,1
0.02945999999792548,166,0.22229000000515953,1
0.0,167,0.0,1
0.02890500000648899,168,0.18908700000611134,1
0.0,169,0.0,1
0.049559999992197845,170,0.363402999995742,1
0.0,171,0.0,1
0.020610000006854534,172,0.16217100000358187,1
0.0,173,0.0,1
0.03288000000611646,174,0.2690430000075139,1
0.0,175,0.0,1
0.033044999989215285,176,0.26605199999175966,1
0.0,177,0.0,1
0.02890500000648899,178,0.23053000000072643,1
0.0,179,0.0,1
0.045930000000225846,180,0.3150630000163801,1
0.0,181,0.0,1
0.016559999996388797,182,0.10620099998777732,1
0.0,183,0.0,1
0.026025000006484333,184,0.2097780000185594,1
0.0,185,0.0,1
0.027809999999590218,186,0.15216099997633137,1
0.0,187,0.0,1
0.037244999992253724,188,0.2008660000283271,1
0.0,189,0.0,1
0.03772500000195578,190,0.22796700001345016,1
0.0,191,0.0,1
0.018869999999878928,192,0.13317799996002577,1
0.0,193,0.0,1
0.024239999998826534,194,0.1582650000054855,1
0.0,195,0.0,1
0.03282000000763219,196,0.19232100000954233,1
0.0,197,0.0,1
0.037184999986493494,198,0.24548400001367554,1
0.0,199,0.0,1
0.04077000000688713,200,0.2700799999583978,1
0.0,201,0.0,1
0.011835000004793983,202,0.09448299999348819,1
0.0,203,0.0,1
0.023685000000114087,204,0.1790160000382457,1
0.0,205,0.0,1
0.031739999998535495,206,0.20690899997134693,1
0.0,207,0.0,1
0.037140000000363216,208,0.22808800000348128,1
0.0,209,0.0,1
0.04531499999575317,210,0.28222700001788326,1
0.0,211,0.0,1
0.020564999998896383,212,0.14123499998822808,1
0.0,213,0.0,1
0.02532000000064727,214,0.17669700001715682,1
0.0,215,0.0,1
0.03306000000156928,216,0.20825200001127087,1
0.0,217,0.0,1
0.03718500000832137,218,0.23773199995048344,1
0.0,219,0.0,1
0.04120499999407912,220,0.2625120000448078,1
0.0,221,0.0,1
0.020700000000942964,222,0.13763499999186024,1
0.0,223,0.0,1
0.03301499999361113,224,0.1879880000196863,1
0.0,225,0.0,1
0.027450000001408625,226,0.1788329999835696,1
0.0,227,0.0,1
0.028185000002849847,228,0.19226099996012636,1
0.0,229,0.0,1
0.04110000000218861,230,0.25329500003135763,1
0.0,231,0.0,1
0.0246599999954924,232,0.15246599999954924,1
0.0,233,0.0,1
0.033000000003085006,234,0.1973269999725744,1
0.0,235,0.0,1
0.03306000000156928,236,0.19189400001778267,1
0.0,237,0.0,1
0.03296999999292893,238,0.20153899997239932,1
0.0,239,0.0,1
0.04110000000218861,240,0.27441400004317984,1
0.0,241,0.0,1
0.020639999995182734,242,0.1380609999760054,1
0.0,243,0.0,1
0.03709500000695698,244,0.22460899999714456,1
0.0,245,0.0,1
0.03312000000732951,246,0.20538400002988055,1
0.0,247,0.0,1
0.033104999994975515,248,0.19750999999814667,1
0.0,249,0.0,1
0.04527000000234693,250,0.27075199998216704,1
0.0,251,0.0,1
0.020639999995182734,252,0.12872300000162795,1
0.0,253,0.0,1
0.028964999997697305,254,0.17810000001918525,1
0.0,255,0.0,1
0.03706499999680091,256,0.22399899995070882,1
0.0,257,0.0,1
0.03312000000732951,258,0.17974900003173389,1
0.0,259,0.0,1
0.04138500000408385,260,0.2290039999934379,1
0.0,261,0.0,1
0.024779999992460944,262,0.15161100000841543,1
0.0,263,0.0,1
0.011879999998200219,264,0.1508179999946151,1
0.0,265,0.0,1
0.005324999998265412,266,0.13507099999696948,1
0.0,267,0.0,1
0.004140000011830125,268,0.13769499998306856,1
0.0,269,0.0,1
0.007139999994251411,270,0.1960450000478886,1
0.0,271,0.0,1
0.00533999999606749,272,0.0899049999716226,1
0.0,273,0.0,1
0.010679999999410938,274,0.17028799999388866,1
0.0,275,0.0,1
0.010740000005171169,276,0.1302490000380203,1
0.0,277,0.0,1
0.026100000002770685,278,0.1470949999638833,1
0.0,279,0.0,1
0.04547999999340391,280,0.22155700004077516,1
0.0,281,0.0,1
0.02064000000245869,282,0.09918199994717725,1
0.0,283,0.0,1
0.03306000000156928,284,0.17218000002321787,1
0.0,285,0.0,1
0.03719999999884749,286,0.19049099998665042,1
0.0,287,0.0,1
0.022470000003522728,288,0.15069599999696948,1
0.0,289,0.0,1
0.038204999997105915,290,0.2501829999964684,1
0.0,291,0.0,1
0.020700000000942964,292,0.12567200002376921,1
0.0,293,0.0,1
0.021929999995336402,294,0.17980899996473454,1
0.0,295,0.0,1
0.008909999996831175,296,0.15045200000167824,1
0.0,297,0.0,1
0.008880000008502975,298,0.15637200002674945,1
0.0,299,0.0,1
0.019650000002002344,300,0.24066100001800805,1
0.0,301,0.0,1
0.0054000000018277206,302,0.09515400000964291,1
0.0,303,0.0,1
0.00533999999606749,304,0.1583249999966938,1
0.0,305,0.0,1
0.01067999999213498,306,0.17004399999859743,1
0.0,307,0.0,1
0.010620000008202624,308,0.1418460000131745,1
0.0,309,0.0,1
0.010619999993650708,310,0.2605589999584481,1
0.0,311,0.0,1
0.011819999999715947,312,0.11084000000846572,1
0.0,313,0.0,1
0.007079999995767139,314,0.14984099997673184,1
0.0,315,0.0,1
0.0035400000124354847,316,0.1423950000316836,1
0.0,317,0.0,1
0.00533999999606749,318,0.12567199999466538,1
0.0,319,0.0,1
0.010679999999410938,320,0.22576899998239242,1
0.0,321,0.0,1
0.00533999999606749,322,0.07550000000628643,1
0.0,323,0.0,1
0.003540000005159527,324,0.15716599998995662,1
0.0,325,0.0,1
0.008909999996831175,326,0.13800000000628643,1
0.0,327,0.0,1
0.02418000000034226,328,0.20813000001362525,1
0.0,329,0.0,1
0.029504999998607673,330,0.23803700000280514,1
0.0,331,0.0,1
0.017684999998891726,332,0.1480720000108704,1
0.0,333,0.0,1
0.020700000000942964,334,0.1657100000011269,1
0.0,335,0.0,1
0.027810000006866176,336,0.2209469999652356,1
0.0,337,0.0,1
0.03306000000156928,338,0.19183400002657436,1
0.0,339,0.0,1
0.041369999991729856,340,0.2467039999901317,1
0.0,341,0.0,1
0.02478000000701286,342,0.1488039999967441,1
0.0,343,0.0,1
0.028319999990344513,344,0.19683800000348128,1
0.0,345,0.0,1
0.020670000005338807,346,0.17626900001778267,1
0.0,347,0.0,1
0.033629999998083804,348,0.23956300001009367,1
0.0,349,0.0,1
0.03893999999854714,350,0.2705689999565948,1
0.0,351,0.0,1
0.017760000002454035,352,0.13513200002489612,1
0.0,353,0.0,1
0.00473999999667285,354,0.13122600002679974,1
0.0,355,0.0,1
0.012480000004870817,356,0.1680299999716226,1
0.0,357,0.0,1
0.00533999999606749,358,0.17138600000180304,1
0.0,359,0.0,1
0.017820000008214265,360,0.2237549999554176,1
0.0,361,0.0,1
0.00887999999395106,362,0.10931400005938485,1
0.0,363,0.0,1
0.029549999999289867,364,0.19470199997886084,1
0.0,365,0.0,1
0.010035000006610062,366,0.1446540000033565,1
0.0,367,0.0,1
0.003599999996367842,368,0.1475829999835696,1
0.0,369,0.0,1
0.00533999999606749,370,0.1943969999847468,1
0.0,371,0.0,1
0.007079999995767139,372,0.10333200002787635,1
0.0,373,0.0,1
0.007185000002209563,374,0.15307600001688115,1
0.0,375,0.0,1
0.024239999998826534,376,0.17974899997352622,1
0.0,377,0.0,1
0.027150000001711305,378,0.1841429999913089,1
0.0,379,0.0,1
0.01719000000593951,380,0.2036740000185091,1
0.0,381,0.0,1
0.010679999999410938,382,0.12744199999724515,1
0.0,383,0.0,1
0.021300000000337604,384,0.15661599999293685,1
0.0,385,0.0,1
0.023699999997916166,386,0.15667699999175966,1
0.0,387,0.0,1
0.023729999993520323,388,0.15911900001810864,1
0.0,389,0.0,1
0.03256500000861706,390,0.23058999999193475,1
0.0,391,0.0,1
0.011850000002596062,392,0.07928500001435168,1
0.0,393,0.0,1
0.029025000003457535,394,0.1827999999804888,1
0.0,395,0.0,1
0.028919999989739154,396,0.14141900002141483,1
0.0,397,0.0,1
0.029039999993983656,398,0.18048099998850375,1
0.0,399,0.0,1
0.017940000012458768,400,0.20629900001222268,1
0.0,401,0.0,1
0.007140000001527369,402,0.10504100000252947,1
0.0,403,0.0,1
0.0160799999939627,404,0.17907699997886084,1
0.0,405,0.0,1
0.012510000000474975,406,0.13702399999601766,1
0.0,407,0.0,1
0.028079999996407423,408,0.21270800003549084,1
0.0,409,0.0,1
0.049590000009629875,410,0.30023199997958727,1
0.0,411,0.0,1
0.01643999999942025,412,0.10253899998497218,1
0.0,413,0.0,1
0.03299999999580905,414,0.18774399999529123,1
0.0,415,0.0,1
0.03719999999884749,416,0.24469000002136454,1
0.0,417,0.0,1
0.028829999995650724,418,0.20959500002209097,1
0.0,419,0.0,1
0.04954500000894768,420,0.2733759999682661,1
0.0,421,0.0,1
0.016454999989946373,422,0.09832800002186559,1
0.0,423,0.0,1
0.02665500000875909,424,0.20971599998301826,1
0.0,425,0.0,1
0.02072999999654712,426,0.16839599999366328,1
0.0,427,0.0,1
0.023579999993671663,428,0.22528100002091378,1
0.0,429,0.0,1
0.020175000005110633,430,0.29534899996360764,1
0.0,431,0.0,1
0.008940000006987248,432,0.14739999998710118,1
0.0,433,0.0,1
0.014159999991534278,434,0.2150880000262987,1
0.0,435,0.0,1
0.013365000006160699,436,0.18524200000683777,1
0.0,437,0.0,1
0.014219999997294508,438,0.20178200001828372,1
0.0,439,0.0,1
0.021839999993972015,440,0.30908199996338226,1
0.0,441,0.0,1
0.008865000010700896,442,0.13861100003123283,1
0.0,443,0.0,1
0.014264999997976702,444,0.18786599996383302,1
0.0,445,0.0,1
0.014339999994263053,446,0.203125,1
0.0,447,0.0,1
0.01427999999577878,448,0.22296200005803257,1
0.0,449,0.0,1
0.019620000006398186,450,0.2956539999868255,1
0.0,451,0.0,1
0.0094799999933457,452,0.11041199997998774,1
0.0,453,0.0,1
0.017130000007455237,454,0.18725600000470877,1
0.0,455,0.0,1
0.023610000003827736,456,0.19372600002679974,1
0.0,457,0.0,1
0.021300000000337604,458,0.19464099998003803,1
0.0,459,0.0,1
0.031229999993229285,460,0.2810670000035316,1
0.0,461,0.0,1
0.011220000007597264,462,0.11523399996804073,1
0.0,463,0.0,1
0.03298499999073101,464,0.1833500000066124,1
0.0,465,0.0,1
0.03294000001187669,466,0.2213130000163801,1
0.0,467,0.0,1
0.0329099999871687,468,0.20642099998076446,1
0.0,469,0.0,1
0.04552500000136206,470,0.3001100000110455,1
0.0,471,0.0,1
0.020700000000942964,472,0.12109400000190362,1
0.0,473,0.0,1
0.02898000000277534,474,0.16198699997039512,1
0.0,475,0.0,1
0.037140000000363216,476,0.229187000048114,1
0.0,477,0.0,1
0.02892000000429107,478,0.16418500000145286,1
0.0,479,0.0,1
0.029640000000654254,480,0.24713099998189136,1
0.0,481,0.0,1
0.016589999991992954,482,0.1508789999934379,1
0.0,483,0.0,1
0.022979999994277023,484,0.18487600001390092,1
0.0,485,0.0,1
0.03724500000680564,486,0.23168900000746362,1
0.0,487,0.0,1
0.08687999999528984,488,0.6860349999915343,1
0.0,489,0.0,1
0.012180000005173497,490,0.08044399999198504,1
0.0,491,0.0,1
0.004079999998793937,492,0.025086000008741394,1
0.0,493,0.0,1
0.012239999996381812,494,0.08490000001620501,1
0.0,495,0.0,1
0.03702000000339467,496,0.23443599996971898,1
0.0,497,0.0,1
0.028860000005806796,498,0.1616820000053849,1
0.0,499,0.0,1
0.015960000004270114,500,0.20696999997016974,1
0.0,501,0.0,1
0.021179999988817144,502,0.15600600006291643,1
0.0,503,0.0,1
0.00413999999727821,504,0.12628199995378964,1
0.0,505,0.0,1
0.014114999998128042,506,0.16656500002136454,1
0.0,507,0.0,1
0.004755000009026844,508,0.17541500000515953,1
0.0,509,0.0,1
0.04552500000136206,510,0.23913599996012636,1
0.0,511,0.0,1
0.020550000001094304,512,0.12847900003544055,1
0.0,513,0.0,1
0.028814999997848645,514,0.1887810000043828,1
0.0,515,0.0,1
0.03312000000005355,516,0.2174689999956172,1
0.0,517,0.0,1
0.03311999999277759,518,0.1907950000022538,1
0.0,519,0.0,1
0.013664999998582061,520,0.2017829999967944,1
0.0,521,0.0,1
0.010080000007292256,522,0.11553899996215478,1
0.0,523,0.0,1
0.01592999999411404,524,0.17584200002602302,1
0.0,525,0.0,1
0.0035250000000814907,526,0.14904799999203533,1
0.0,527,0.0,1
0.008970000009867363,528,0.1467899999988731,1
0.0,529,0.0,1
0.034154999993916135,530,0.24658200002158992,1
0.0,531,0.0,1
0.021285000002535526,532,0.13800000000628643,1
0.0,533,0.0,1
0.02367000000231201,534,0.18408199996338226,1
0.0,535,0.0,1
0.023700000005192123,536,0.1806030000152532,1
0.0,537,0.0,1
0.01472999999532476,538,0.163879999978235,1
0.0,539,0.0,1
0.005414999992353842,540,0.1765750000195112,1
0.0,541,0.0,1
0.011789999996835832,542,0.1114499999966938,1
0.0,543,0.0,1
0.0017700000098557211,544,0.11486800003331155,1
0.0,545,0.0,1
0.0017700000025797635,546,0.1535639999783598,1
0.0,547,0.0,1
0.003569999993487727,548,0.13226399998529814,1
0.0,549,0.0,1
0.011864999993122183,550,0.17297300000791438,1
0.0,551,0.0,1
0.014790000015636906,552,0.10900900000706315,1
0.0,553,0.0,1
0.0035849999912898056,554,0.11938499999814667,1
0.0,555,0.0,1
0.007170000004407484,556,0.13494799999170937,1
0.0,557,0.0,1
0.012524999998277053,558,0.18713400000706315,1
0.0,559,0.0,1
0.017175000000861473,560,0.203125,1
0.0,561,0.0,1
0.024225000001024455,562,0.16058400002657436,1
0.0,563,0.0,1
0.020745000001625158,564,0.15740899997763336,1
0.0,565,0.0,1
0.02660999999352498,566,0.2026979999791365,1
0.0,567,0.0,1
0.020699999993667006,568,0.15795900003286079,1
0.0,569,0.0,1
0.03591000000596978,570,0.25842299999203533,1
0.0,571,0.0,1
0.02472000000125263,572,0.13830600000801496,1
0.0,573,0.0,1
0.033000000003085006,574,0.1964719999814406,1
0.0,575,0.0,1
0.027435000003606547,576,0.1692499999771826,1
0.0,577,0.0,1
0.026564999992842786,578,0.16034000003128313,1
0.0,579,0.0,1
0.038969999994151294,580,0.2274780000152532,1
0.0,581,0.0,1
0.024660000002768356,582,0.14074699996854179,1
0.0,583,0.0,1
0.03702000000339467,584,0.21813900000415742,1
0.0,585,0.0,1
0.028860000005806796,586,0.17041099999914877,1
0.0,587,0.0,1
0.03187500000058208,588,0.19030700001167133,1
0.0,589,0.0,1
0.029534999986935873,590,0.24481199998990633,1
0.0,591,0.0,1
0.017760000002454035,592,0.14025900000706315,1
0.0,593,0.0,1
0.022845000006782357,594,0.18310600001132116,1
0.0,595,0.0,1
0.02254499999253312,596,0.1895749999966938,1
0.0,597,0.0,1
0.016575000001466833,598,0.19610599998850375,1
0.0,599,0.0,1
0.029595000007248018,600,0.23791500000515953,1
0.0,601,0.0,1
0.024779999992460944,602,0.16546600000583567,1
0.0,603,0.0,1
0.03309000001172535,604,0.20080599997891113,1
0.0,605,0.0,1
0.028244999986782204,606,0.18841500001144595,1
0.0,607,0.0,1
0.02373000000807224,608,0.18585199999506585,1
0.0,609,0.0,1
0.028379999996104743,610,0.22851600000285544,1
0.0,611,0.0,1
0.024720000008528586,612,0.13305699999909848,1
0.0,613,0.0,1
0.03311999999277759,614,0.1846310000109952,1
0.0,615,0.0,1
0.03299999999580905,616,0.20910599999479018,1
0.0,617,0.0,1
0.03310500000952743,618,0.20300300000235438,1
0.0,619,0.0,1
0.039044999990437645,620,0.2370610000216402,1
0.0,621,0.0,1
0.02478000000701286,622,0.13830499997129664,1
0.0,623,0.0,1
0.033000000003085006,624,0.1861579999967944,1
0.0,625,0.0,1
0.03299999999580905,626,0.18395999999484047,1
0.0,627,0.0,1
0.03312000000005355,628,0.1973870000219904,1
0.0,629,0.0,1
0.03708000000187894,630,0.2553710000065621,1
0.0,631,0.0,1
0.017744999997376,632,0.13513199996668845,1
0.0,633,0.0,1
0.023699999997916166,634,0.20367499999701977,1
0.0,635,0.0,1
0.023639999999431893,636,0.21093700005440041,1
0.0,637,0.0,1
0.022935000000870787,638,0.16363499997532926,1
0.0,639,0.0,1
0.04533000000810716,640,0.25384600000688806,1
0.0,641,0.0,1
0.02471999999397667,642,0.13391099995351397,1
0.0,643,0.0,1
0.02890500000648899,644,0.1545410000544507,1
0.0,645,0.0,1
0.03715499999088934,646,0.19988999995985068,1
0.0,647,0.0,1
0.03306000000156928,648,0.17511000004014932,1
0.0,649,0.0,1
0.027750000001105946,650,0.19750899996142834,1
0.0,651,0.0,1
0.028875000003608875,652,0.15246600002865307,1
0.0,653,0.0,1
0.024179999993066303,654,0.15722699998877943,1
0.0,655,0.0,1
0.02367000000231201,656,0.17938199997297488,1
0.0,657,0.0,1
0.016589999999268912,658,0.1764530000218656,1
0.0,659,0.0,1
0.017820000008214265,660,0.2223509999748785,1
0.0,661,0.0,1
0.008954999990237411,662,0.13476500002434477,1
0.0,663,0.0,1
0.012585000004037283,664,0.20080599997891113,1
0.0,665,0.0,1
0.010739999997895211,666,0.16027800002484582,1
0.0,667,0.0,1
0.020100000001548324,668,0.18310600001132116,1
0.0,669,0.0,1
0.04125000000203727,670,0.22235100000398234,1
0.0,671,0.0,1
0.016559999996388797,672,0.13153099999180995,1
0.0,673,0.0,1
0.024885000006179325,674,0.18151799999759533,1
0.0,675,0.0,1
0.02023499998904299,676,0.1788329999835696,1
0.0,677,0.0,1
0.023685000000114087,678,0.18713400000706315,1
0.0,679,0.0,1
0.021749999999883585,680,0.22528099999180995,1
0.0,681,0.0,1
0.013064999999187421,682,0.12976100001833402,1
0.0,683,0.0,1
0.014895000007527415,684,0.19061200000578538,1
0.0,685,0.0,1
0.019514999992679805,686,0.19616699998732656,1
0.0,687,0.0,1
0.020145000009506475,688,0.17700200001127087,1
0.0,689,0.0,1
0.022154999991471414,690,0.19940199999837205,1
0.0,691,0.0,1
0.020685000003140885,692,0.15228300000308082,1
0.0,693,0.0,1
0.023700000005192123,694,0.17272899998351932,1
0.0,695,0.0,1
0.017895000004500616,696,0.17907800001557916,1
0.0,697,0.0,1
0.014294999986304902,698,0.1821279999858234,1
0.0,699,0.0,1
0.017850000003818423,700,0.22039800000493415,1
0.0,701,0.0,1
0.008999999998195563,702,0.10791099999914877,1
0.0,703,0.0,1
0.016080000008514617,704,0.2030640000011772,1
0.0,705,0.0,1
0.012494999995396938,706,0.15289300002041273,1
0.0,707,0.0,1
0.030180000001564622,708,0.23370299997623079,1
0.0,709,0.0,1
0.02366999999503605,710,0.22076399996876717,1
0.0,711,0.0,1
0.010800000003655441,712,0.1568000000261236,1
0.0,713,0.0,1
0.009780000007594936,714,0.17272899998351932,1
0.0,715,0.0,1
0.011564999993424863,716,0.17346200003521517,1
0.0,717,0.0,1
0.014310000005934853,718,0.17401099996641278,1
0.0,719,0.0,1
0.024839999998221174,720,0.22155800004838966,1
0.0,721,0.0,1
0.008939999992435332,722,0.10589599999366328,1
0.0,723,0.0,1
0.016020000010030344,724,0.19464099998003803,1
0.0,725,0.0,1
0.012434999989636708,726,0.1508789999934379,1
0.0,727,0.0,1
0.016124999994644895,728,0.19610600001760758,1
0.0,729,0.0,1
0.016020000010030344,730,0.1950070000020787,1
0.0,731,0.0,1
0.012479999990318902,732,0.14813299998058937,1
0.0,733,0.0,1
0.01252500000555301,734,0.15429600002244115,1
0.0,735,0.0,1
0.015135000001464505,736,0.20629899998311885,1
0.0,737,0.0,1
0.012480000004870817,738,0.15606700000353158,1
0.0,739,0.0,1
0.01775999998790212,740,0.22186300001339987,1
0.0,741,0.0,1
0.010740000012447126,742,0.1278689999890048,1
0.0,743,0.0,1
0.033629999998083804,744,0.20068300000275485,1
0.0,745,0.0,1
0.0,0,0.0,2
0.0,1,0.0,2
0.21286500000860542,2,1.4753410000012082,2
0.0,3,0.0,2
0.004079999998793937,4,0.03259299999990617,2
0.0,5,0.0,2
0.0,6,0.0,2
0.0,7,0.0,2
0.00518999999621883,8,0.03503400000045076,2
0.0,9,0.0,2
0.02868000000307802,10,0.22662399999899208,2
0.0,11,0.0,2
0.00518999999621883,12,0.030883999996149214,2
0.0,13,0.0,2
0.004079999998793937,14,0.03155500000139,2
0.0,15,0.0,2
0.0,16,0.0,2
0.0,17,0.0,2
0.004080000006069895,18,0.03045600000041304,2
0.0,19,0.0,2
0.02868000000307802,20,0.20251500000449596,2
0.0,21,0.0,2
0.008219999996072147,22,0.05468699999983073,2
0.0,23,0.0,2
0.02891999999701511,24,0.1730349999961618,2
0.0,25,0.0,2
0.027660000007017516,26,0.19964599999730126,2
0.0,27,0.0,2
0.021779999995487742,28,0.17260800000440213,2
0.0,29,0.0,2
0.04449000000022352,30,0.30499199999758275,2
0.0,31,0.0,2
0.008159999997587875,32,0.05902100000457722,2
0.0,33,0.0,2
0.027329999997164123,34,0.17730699999810895,2
0.0,35,0.0,2
0.03478500000346685,36,0.21350099999835948,2
0.0,37,0.0,2
0.014745000000402797,38,0.1477660000018659,2
0.0,39,0.0,2
0.07180499999958556,40,0.5070190000005823,2
0.0,41,0.0,2
0.00413999999727821,42,0.028015999996569008,2
0.0,43,0.0,2
0.008280000001832377,44,0.04742400000031921,2
0.0,45,0.0,2
0.03288000000611646,46,0.21527100000093924,2
0.0,47,0.0,2
0.030689999992318917,48,0.19909700000062003,2
0.0,49,0.0,2
0.22855500000150641,50,1.4848019999990356,2
0.0,51,0.0,2
0.00518999999621883,52,0.028808000002754852,2
0.0,53,0.0,2
0.004020000007585622,54,0.03485200000068289,2
0.0,55,0.0,2
0.0,56,0.0,2
0.0,57,0.0,2
0.00413999999727821,58,0.023131999998440733,2
0.0,59,0.0,2
0.017520000001240987,60,0.10943600000246079,2
0.0,61,0.0,2
0.012299999994866084,62,0.079528999995091,2
0.0,63,0.0,2
0.0329249999995227,64,0.20593200000439538,2
0.0,65,0.0,2
0.027300000001559965,66,0.2021489999970072,2
0.0,67,0.0,2
0.023400000005494803,68,0.15063500000178465,2
0.0,69,0.0,2
0.035279999996419065,70,0.28063899999688147,2
0.0,71,0.0,2
0.011819999999715947,72,0.08532700000432669,2
0.0,73,0.0,2
0.03276000000187196,74,0.22589099999822793,2
0.0,75,0.0,2
0.017609999995329417,76,0.15759299999990617,2
0.0,77,0.0,2
0.019995000009657815,78,0.16863999999623047,2
0.0,79,0.0,2
0.04640999999537598,80,0.27362100000391365,2
0.0,81,0.0,2
0.01631999999517575,82,0.12915000000066357,2
0.0,83,0.0,2
0.03689999999915017,84,0.23889199999757693,2
0.0,85,0.0,2
0.03295500000240281,86,0.2343140000011772,2
0.0,87,0.0,2
0.028860000005806796,88,0.18017600000166567,2
0.0,89,0.0,2
0.049319999998260755,90,0.3603509999993548,2
0.0,91,0.0,2
0.02592000000004191,92,0.17095999999946798,2
0.0,93,0.0,2
0.030780000000959262,94,0.2516479999976582,2
0.0,95,0.0,2
0.03379499999573454,96,0.27368099999875994,2
0.0,97,0.0,2
0.037004999998316634,98,0.3421630000011646,2
0.0,99,0.0,2
0.04530000000522705,100,0.3817140000028303,2
0.0,101,0.0,2
0.028079999996407423,102,0.20391899999958696,2
0.0,103,0.0,2
0.047730000005685724,104,0.3500359999961802,2
0.0,105,0.0,2
0.03187500000058208,106,0.27801500000350643,2
0.0,107,0.0,2
0.03386999999929685,108,0.2941289999980654,2
0.0,109,0.0,2
0.05689499999425607,110,0.4537960000016028,2
0.0,111,0.0,2
0.029175000003306195,112,0.21283000000403263,2
0.0,113,0.0,2
0.03712499999528518,114,0.2919309999997495,2
0.0,115,0.0,2
0.032789999997476116,116,0.28881799999362556,2
0.0,117,0.0,2
0.033900000002176967,118,0.28064000000449596,2
0.0,119,0.0,2
0.05054999999993015,120,0.3547969999963243,2
0.0,121,0.0,2
0.024660000002768356,122,0.17773500000112108,2
0.0,123,0.0,2
0.02980500000558095,124,0.21856700000353158,2
0.0,125,0.0,2
0.032939999997324776,126,0.2290649999958987,2
0.0,127,0.0,2
0.0328799999988405,128,0.23260500000105822,2
0.0,129,0.0,2
0.04121999999915715,130,0.28942800000004354,2
0.0,131,0.0,2
0.024660000002768356,132,0.17504899999767076,2
0.0,133,0.0,2
0.02891999999701511,134,0.22900400000435184,2
0.0,135,0.0,2
0.03304499999649124,136,0.23248299999613664,2
0.0,137,0.0,2
0.020700000000942964,138,0.2324220000045898,2
0.0,139,0.0,2
0.041265000007115304,140,0.31616199999916716,2
0.0,141,0.0,2
0.02066999999806285,142,0.14550799999778974,2
0.0,143,0.0,2
0.0328799999988405,144,0.2280270000010205,2
0.0,145,0.0,2
0.033000000003085006,146,0.231750999999349,2
0.0,147,0.0,2
0.03299999999580905,148,0.23205500000040047,2
0.0,149,0.0,2
0.04522500000166474,150,0.3171389999988605,2
0.0,151,0.0,2
0.016499999997904524,152,0.11547800000334973,2
0.0,153,0.0,2
0.04347000000416301,154,0.28460699999777717,2
0.0,155,0.0,2
0.03818999999202788,156,0.23468100000172853,2
0.0,157,0.0,2
0.03295500000240281,158,0.23400799999581068,2
0.0,159,0.0,2
0.03708000000187894,160,0.27594000000317465,2
0.0,161,0.0,2
0.01643999999942025,162,0.13006599999789614,2
0.0,163,0.0,2
0.03689999999915017,164,0.2706300000027113,2
0.0,165,0.0,2
0.03614999999990687,166,0.251708999996481,2
0.0,167,0.0,2
0.02974499999982072,168,0.21923799999785842,2
0.0,169,0.0,2
0.06643500000063796,170,0.4937140000074578,2
0.0,171,0.0,2
0.02502000000094995,172,0.18847599999571685,2
0.0,173,0.0,2
0.05305499999667518,174,0.40277100000093924,2
0.0,175,0.0,2
0.04680000000371365,176,0.32019100000252365,2
0.0,177,0.0,2
0.03731999999581603,178,0.26226799999858486,2
0.0,179,0.0,2
0.05062500000349246,180,0.4530029999987164,2
0.0,181,0.0,2
0.01643999999942025,182,0.1280509999996866,2
0.0,183,0.0,2
0.03800999999657506,184,0.29168700000082026,2
0.0,185,0.0,2
0.0309150000102818,186,0.20477300000129617,2
0.0,187,0.0,2
0.037094999992405064,188,0.23773199999777717,2
0.0,189,0.0,2
0.04123499999695923,190,0.2564700000002631,2
0.0,191,0.0,2
0.024660000002768356,192,0.1536869999981718,2
0.0,193,0.0,2
0.029910000004747417,194,0.1875,2
0.0,195,0.0,2
0.036179999995511025,196,0.23724300000321819,2
0.0,197,0.0,2
0.03912000000127591,198,0.2403569999987667,2
0.0,199,0.0,2
0.03808500000013737,200,0.27221600000120816,2
0.0,201,0.0,2
0.017549999996845145,202,0.18090899999879184,2
0.0,203,0.0,2
0.033000000003085006,204,0.23565600000074483,2
0.0,205,0.0,2
0.03495000000111759,206,0.25268599999981234,2
0.0,207,0.0,2
0.033914999999979045,208,0.2515260000000126,2
0.0,209,0.0,2
0.05041499999788357,210,0.3751829999964684,2
0.0,211,0.0,2
0.0174299999998766,212,0.12249800000427058,2
0.0,213,0.0,2
0.03282000000035623,214,0.25811700000122073,2
0.0,215,0.0,2
0.0328799999988405,216,0.2516479999940202,2
0.0,217,0.0,2
0.032789999997476116,218,0.2396850000041013,2
0.0,219,0.0,2
0.04522500000166474,220,0.3385009999983595,2
0.0,221,0.0,2
0.020460000007005874,222,0.153931000000739,2
0.0,223,0.0,2
0.028904999999213032,224,0.217041000003519,2
0.0,225,0.0,2
0.03485999999247724,226,0.2407839999978023,2
0.0,227,0.0,2
0.033060000008845236,228,0.21600300000136485,2
0.0,229,0.0,2
0.04115999999339692,230,0.2988279999990482,2
0.0,231,0.0,2
0.024599999997008126,232,0.20239299999957439,2
0.0,233,0.0,2
0.028860000005806796,234,0.20751899999959278,2
0.0,235,0.0,2
0.03718500000104541,236,0.2695309999980964,2
0.0,237,0.0,2
0.033929999997781124,238,0.26666300000215415,2
0.0,239,0.0,2
0.04538999999931548,240,0.31591800000023795,2
0.0,241,0.0,2
0.021509999998670537,242,0.1647949999969569,2
0.0,243,0.0,2
0.03897000000142725,244,0.30279499999960535,2
0.0,245,0.0,2
0.03312000000005355,246,0.23169000000416418,2
0.0,247,0.0,2
0.038130000000819564,248,0.30450399999608635,2
0.0,249,0.0,2
0.055934999996679835,250,0.40295400000104564,2
0.0,251,0.0,2
0.02584500000375556,252,0.20947300000261748,2
0.0,253,0.0,2
0.037304999998013955,254,0.28033399999912945,2
0.0,255,0.0,2
0.04342500000348082,256,0.35400400000071386,2
0.0,257,0.0,2
0.028800000000046566,258,0.2656860000024608,2
0.0,259,0.0,2
0.04529999999795109,260,0.39599599999564816,2
0.0,261,0.0,2
0.024599999997008126,262,0.20367500000065775,2
0.0,263,0.0,2
0.03714000000763917,264,0.23138399999879766,2
0.0,265,0.0,2
0.029789999993226957,266,0.2653810000010708,2
0.0,267,0.0,2
0.03288000000611646,268,0.2730710000032559,2
0.0,269,0.0,2
0.04531499999575317,270,0.3361209999966377,2
0.0,271,0.0,2
0.020624999997380655,272,0.13958700000148383,2
0.0,273,0.0,2
0.03831000000354834,274,0.26440500000171596,2
0.0,275,0.0,2
0.024839999998221174,276,0.2304679999979271,2
0.0,277,0.0,2
0.032865000001038425,278,0.25115999999979977,2
0.0,279,0.0,2
0.04642500000045402,280,0.31561299999884795,2
0.0,281,0.0,2
0.02057999999669846,282,0.14270000000033178,2
0.0,283,0.0,2
0.032865000001038425,284,0.24523900000349386,2
0.0,285,0.0,2
0.03702000000339467,286,0.2669069999974454,2
0.0,287,0.0,2
0.028800000000046566,288,0.21112100000027567,2
0.0,289,0.0,2
0.047220000000379514,290,0.3638910000008764,2
0.0,291,0.0,2
0.017489999998360872,292,0.12896699999691918,2
0.0,293,0.0,2
0.03912000000127591,294,0.28704900000229827,2
0.0,295,0.0,2
0.033000000003085006,296,0.23510699999678764,2
0.0,297,0.0,2
0.028814999997848645,298,0.22015400000236696,2
0.0,299,0.0,2
0.04944000000250526,300,0.39166299999851617,2
0.0,301,0.0,2
0.016484999992826488,302,0.12084900000263588,2
0.0,303,0.0,2
0.03719999999884749,304,0.28521700000055716,2
0.0,305,0.0,2
0.03280500000255415,306,0.2470099999991362,2
0.0,307,0.0,2
0.033089999997173436,308,0.26257299999997485,2
0.0,309,0.0,2
0.050430000002961606,310,0.4237670000002254,2
0.0,311,0.0,2
0.01644000000669621,312,0.14788799999951152,2
0.0,313,0.0,2
0.037079999994602986,314,0.298889000001509,2
0.0,315,0.0,2
0.028724999996484257,316,0.2332769999957236,2
0.0,317,0.0,2
0.03310500000225147,318,0.24444600000424543,2
0.0,319,0.0,2
0.045269999995070975,320,0.34924299999693176,2
0.0,321,0.0,2
0.020460000007005874,322,0.16326899999694433,2
0.0,323,0.0,2
0.03708000000187894,324,0.2794800000010582,2
0.0,325,0.0,2
0.024839999998221174,326,0.216736000002129,2
0.0,327,0.0,2
0.0367949999999837,328,0.30236800000056974,2
0.0,329,0.0,2
0.04535999999643536,330,0.3172610000037821,2
0.0,331,0.0,2
0.02793000000383472,332,0.19366399999853456,2
0.0,333,0.0,2
0.028739999994286336,334,0.21490500000072643,2
0.0,335,0.0,2
0.038040000006731134,336,0.28893999999490916,2
0.0,337,0.0,2
0.028874999996332917,338,0.2169190000022354,2
0.0,339,0.0,2
0.04952999999659369,340,0.3321539999997185,2
0.0,341,0.0,2
0.024660000002768356,342,0.18591300000116462,2
0.0,343,0.0,2
0.03427499999816064,344,0.2212519999993674,2
0.0,345,0.0,2
0.03393000000505708,346,0.26043700000082026,2
0.0,347,0.0,2
0.03510000000096625,348,0.24566699999923003,2
0.0,349,0.0,2
0.045194999998784624,350,0.3399039999967499,2
0.0,351,0.0,2
0.02051999999821419,352,0.16388000000006286,2
0.0,353,0.0,2
0.03282000000035623,354,0.2598870000001625,2
0.0,355,0.0,2
0.03386999999929685,356,0.2655640000011772,2
0.0,357,0.0,2
0.033975000005739275,358,0.2549440000002505,2
0.0,359,0.0,2
0.047369999992952216,360,0.36908000000039465,2
0.0,361,0.0,2
0.022740000000339933,362,0.1630860000004759,2
0.0,363,0.0,2
0.03930000000400469,364,0.25799499999993714,2
0.0,365,0.0,2
0.037229999994451646,366,0.25824000000284286,2
0.0,367,0.0,2
0.029865000004065223,368,0.2246099999974831,2
0.0,369,0.0,2
0.04959000000235392,370,0.3558340000017779,2
0.0,371,0.0,2
0.02060999999230262,372,0.151612000001478,2
0.0,373,0.0,2
0.028860000005806796,374,0.2299799999964307,2
0.0,375,0.0,2
0.04034999999566935,376,0.2723999999980151,2
0.0,377,0.0,2
0.02980500000558095,378,0.24969500000588596,2
0.0,379,0.0,2
0.045180000000982545,380,0.38818399999581743,2
0.0,381,0.0,2
0.0246599999954924,382,0.19103999999788357,2
0.0,383,0.0,2
0.03174000000581145,384,0.22546400000646827,2
0.0,385,0.0,2
0.03713999999308726,386,0.29144199999427656,2
0.0,387,0.0,2
0.028800000000046566,388,0.2251590000014403,2
0.0,389,0.0,2
0.04125000000203727,390,0.33142099999895436,2
0.0,391,0.0,2
0.020639999995182734,392,0.14190700000108336,2
0.0,393,0.0,2
0.03714000000763917,394,0.2593989999986661,2
0.0,395,0.0,2
0.02891999999701511,396,0.201111000002129,2
0.0,397,0.0,2
0.03726000000460772,398,0.23132300000361283,2
0.0,399,0.0,2
0.03713999999308726,400,0.28796399999555433,2
0.0,401,0.0,2
0.02472000000125263,402,0.17925999999715714,2
0.0,403,0.0,2
0.03716999999596737,404,0.2678840000044147,2
0.0,405,0.0,2
0.02892000000429107,406,0.20239200000287383,2
0.0,407,0.0,2
0.04252500000438886,408,0.24871799999527866,2
0.0,409,0.0,2
0.053594999997585546,410,0.3861700000015844,2
0.0,411,0.0,2
0.02816999999777181,412,0.18609599999763304,2
0.0,413,0.0,2
0.035940000001573935,414,0.29846200000247336,2
0.0,415,0.0,2
0.04144500000256812,416,0.28893999999854714,2
0.0,417,0.0,2
0.04231499999877997,418,0.3270879999981844,2
0.0,419,0.0,2
0.042044999994686805,420,0.3894650000038382,2
0.0,421,0.0,2
0.016500000005180482,422,0.113402999995742,2
0.0,423,0.0,2
0.03306000000156928,424,0.22515900000507827,2
0.0,425,0.0,2
0.03401999999914551,426,0.21295199999804026,2
0.0,427,0.0,2
0.03386999999929685,428,0.27911399999720743,2
0.0,429,0.0,2
0.04108499999711057,430,0.35003600000345614,2
0.0,431,0.0,2
0.020459999999729916,432,0.16137699999671895,2
0.0,433,0.0,2
0.0329249999995227,434,0.25158700000247336,2
0.0,435,0.0,2
0.03169500000512926,436,0.22235099999670638,2
0.0,437,0.0,2
0.033000000003085006,438,0.2504270000063116,2
0.0,439,0.0,2
0.041084999989834614,440,0.30328399999416433,2
0.0,441,0.0,2
0.02472000000125263,442,0.17376700000386336,2
0.0,443,0.0,2
0.02892000000429107,444,0.23529099999723257,2
0.0,445,0.0,2
0.0328799999988405,446,0.24017300000195974,2
0.0,447,0.0,2
0.0328799999988405,448,0.26025400000071386,2
0.0,449,0.0,2
0.045119999995222315,450,0.3462519999993674,2
0.0,451,0.0,2
0.020520000005490147,452,0.1604619999998249,2
0.0,453,0.0,2
0.03276000000187196,454,0.2608639999998559,2
0.0,455,0.0,2
0.03385500000149477,456,0.26477100000192877,2
0.0,457,0.0,2
0.028739999994286336,458,0.23358100000041304,2
0.0,459,0.0,2
0.06439500000851694,460,0.42456099999617436,2
0.0,461,0.0,2
0.016439999992144294,462,0.12957700000333716,2
0.0,463,0.0,2
0.047669999999925494,464,0.3277589999961492,2
0.0,465,0.0,2
0.04899000000295928,466,0.32843000000139,2
0.0,467,0.0,2
0.03521999999793479,468,0.2807009999996808,2
0.0,469,0.0,2
0.05995500000426546,470,0.4694209999979648,2
0.0,471,0.0,2
0.017429999992600642,472,0.1447150000021793,2
0.0,473,0.0,2
0.03393000000505708,474,0.28076100000180304,2
0.0,475,0.0,2
0.03282000000035623,476,0.28460700000141514,2
0.0,477,0.0,2
0.028754999999364372,478,0.2652589999961492,2
0.0,479,0.0,2
0.04844999999477295,480,0.3806150000054913,2
0.0,481,0.0,2
0.025560000009136274,482,0.2249759999976959,2
0.0,483,0.0,2
0.03718499999376945,484,0.2897949999969569,2
0.0,485,0.0,2
0.043304999999236315,486,0.32977300000493415,2
0.0,487,0.0,2
0.19015500000386965,488,0.9482419999949343,2
0.0,489,0.0,2
0.023625000001629815,490,0.1339110000008077,2
0.0,491,0.0,2
0.0,492,0.0,2
0.0,493,0.0,2
0.020624999997380655,494,0.14227300000129617,2
0.0,495,0.0,2
0.03808500000013737,496,0.2847289999954228,2
0.0,497,0.0,2
0.03276000000187196,498,0.2591550000033749,2
0.0,499,0.0,2
0.04325999999855412,500,0.29858400000375696,2
0.0,501,0.0,2
0.02570999999443302,502,0.18353299999580486,2
0.0,503,0.0,2
0.038100000005215406,504,0.28509499999927357,2
0.0,505,0.0,2
0.037154999998165295,506,0.28418000000237953,2
0.0,507,0.0,2
0.028815000005124602,508,0.2605589999984659,2
0.0,509,0.0,2
0.04927499999757856,510,0.42480499999874155,2
0.0,511,0.0,2
0.02405999999609776,512,0.16027800000301795,2
0.0,513,0.0,2
0.0434400000012829,514,0.29461699999592383,2
0.0,515,0.0,2
0.0426450000013574,516,0.293152000005648,2
0.0,517,0.0,2
0.03274499999679392,518,0.2837519999957294,2
0.0,519,0.0,2
0.049695000001520384,520,0.36486800000056974,2
0.0,521,0.0,2
0.02891999999701511,522,0.23071300000083284,2
0.0,523,0.0,2
0.033090000004449394,524,0.26471000000310596,2
0.0,525,0.0,2
0.0401099999944563,526,0.3416739999956917,2
0.0,527,0.0,2
0.03507000000536209,528,0.3096320000040578,2
0.0,529,0.0,2
0.05604000000312226,530,0.3857419999949343,2
0.0,531,0.0,2
0.021629999995639082,532,0.19335900000442052,2
0.0,533,0.0,2
0.04011000000173226,534,0.3432009999996808,2
0.0,535,0.0,2
0.03094499999861,536,0.2651980000009644,2
0.0,537,0.0,2
0.036900000006426126,538,0.3238519999977143,2
0.0,539,0.0,2
0.045584999992570374,540,0.3194579999981215,2
0.0,541,0.0,2
0.025860000001557637,542,0.18634100000417675,2
0.0,543,0.0,2
0.02898000000277534,544,0.21606399999654968,2
0.0,545,0.0,2
0.03719999999884749,546,0.2804570000007516,2
0.0,547,0.0,2
0.028875000003608875,548,0.2185060000010708,2
0.0,549,0.0,2
0.0454049999898416,550,0.34515299999475246,2
0.0,551,0.0,2
0.024825000000419095,552,0.1849370000018098,2
0.0,553,0.0,2
0.02892000000429107,554,0.20837400000164052,2
0.0,555,0.0,2
0.03312000000005355,556,0.22320500000205357,2
0.0,557,0.0,2
0.0330450000037672,558,0.20550599999842234,2
0.0,559,0.0,2
0.041129999997792765,560,0.28521700000055716,2
0.0,561,0.0,2
0.02472000000125263,562,0.17437799999970593,2
0.0,563,0.0,2
0.03306000000156928,564,0.21301200000016252,2
0.0,565,0.0,2
0.03305999999429332,566,0.19842599999901722,2
0.0,567,0.0,2
0.02898000000277534,568,0.20593199999711942,2
0.0,569,0.0,2
0.04449000000022352,570,0.25811800000155927,2
0.0,571,0.0,2
0.02681999999913387,572,0.15698200000042561,2
0.0,573,0.0,2
0.03620999999839114,574,0.24426300000050105,2
0.0,575,0.0,2
0.029910000004747417,576,0.18023700000048848,2
0.0,577,0.0,2
0.032189999998081475,578,0.20501700000022538,2
0.0,579,0.0,2
0.045419999994919635,580,0.2634280000020226,2
0.0,581,0.0,2
0.024660000002768356,582,0.15832500000033178,2
0.0,583,0.0,2
0.03480000000126893,584,0.2126459999999497,2
0.0,585,0.0,2
0.03719999999884749,586,0.23791499999788357,2
0.0,587,0.0,2
0.03306000000156928,588,0.23492499999701977,2
0.0,589,0.0,2
0.0422099999996135,590,0.29638600000180304,2
0.0,591,0.0,2
0.0258449999964796,592,0.19506900000124006,2
0.0,593,0.0,2
0.028725000003760215,594,0.20098800000050687,2
0.0,595,0.0,2
0.03724499999952968,596,0.2321169999995618,2
0.0,597,0.0,2
0.028664999997999985,598,0.19677699999738252,2
0.0,599,0.0,2
0.04523999999946682,600,0.32269300000189105,2
0.0,601,0.0,2
0.020520000005490147,602,0.12353600000278675,2
0.0,603,0.0,2
0.038069999995059334,604,0.24737499999901047,2
0.0,605,0.0,2
0.03282000000035623,606,0.23754900000130874,2
0.0,607,0.0,2
0.02891999999701511,608,0.23687699999572942,2
0.0,609,0.0,2
0.03708000000187894,610,0.27362100000027567,2
0.0,611,0.0,2
0.02974499999982072,612,0.2079470000026049,2
0.0,613,0.0,2
0.04012499999953434,614,0.29656899999827147,2
0.0,615,0.0,2
0.03386999999929685,616,0.227723000003607,2
0.0,617,0.0,2
0.03684000000794185,618,0.30474799999501556,2
0.0,619,0.0,2
0.0401099999944563,620,0.3199460000032559,2
0.0,621,0.0,2
0.026640000003681052,622,0.21649199999592383,2
0.0,623,0.0,2
0.049605000000156,624,0.2973020000063116,2
0.0,625,0.0,2
0.034154999993916135,626,0.23028599999815924,2
0.0,627,0.0,2
0.04222500000469154,628,0.29327399999601766,2
0.0,629,0.0,2
0.04449000000022352,630,0.30749500000456464,2
0.0,631,0.0,2
0.02570999999443302,632,0.20385800000076415,2
0.0,633,0.0,2
0.042330000003858004,634,0.267943999999261,2
0.0,635,0.0,2
0.03636000000551576,636,0.20532199999433942,2
0.0,637,0.0,2
0.046709999995073304,638,0.252319000002899,2
0.0,639,0.0,2
0.06092999999964377,640,0.38000499999907333,2
0.0,641,0.0,2
0.030149999998684507,642,0.15307700000266777,2
0.0,643,0.0,2
0.03500999999960186,644,0.23571699999592965,2
0.0,645,0.0,2
0.04578000000765314,646,0.261902000005648,2
0.0,647,0.0,2
0.028979999995499384,648,0.22625699999844073,2
0.0,649,0.0,2
0.04851000000053318,650,0.29962199999863515,2
0.0,651,0.0,2
0.026760000000649597,652,0.17626999999629334,2
0.0,653,0.0,2
0.033015000000887085,654,0.20050000000264845,2
0.0,655,0.0,2
0.028754999999364372,656,0.1721189999989292,2
0.0,657,0.0,2
0.03708000000187894,658,0.22082500000033178,2
0.0,659,0.0,2
0.03712499999528518,660,0.21417300000030082,2
0.0,661,0.0,2
0.02650500000163447,662,0.14990199999738252,2
0.0,663,0.0,2
0.0297599999976228,664,0.16546600000583567,2
0.0,665,0.0,2
0.028590000001713634,666,0.1629030000003695,2
0.0,667,0.0,2
0.032939999997324776,668,0.18151900000157184,2
0.0,669,0.0,2
0.036900000006426126,670,0.22418199999810895,2
0.0,671,0.0,2
0.028739999994286336,672,0.17230199999903562,2
0.0,673,0.0,2
0.02898000000277534,674,0.168945999997959,2
0.0,675,0.0,2
0.03713999999308726,676,0.22082500000033178,2
0.0,677,0.0,2
0.028875000003608875,678,0.1722410000002128,2
0.0,679,0.0,2
0.033914999999979045,680,0.27789300000222283,2
0.0,681,0.0,2
0.019484999997075647,682,0.1275019999993674,2
0.0,683,0.0,2
0.029460000005201437,684,0.2233280000036757,2
0.0,685,0.0,2
0.026624999998603016,686,0.1979979999960051,2
0.0,687,0.0,2
0.031889999998384155,688,0.19818099999974947,2
0.0,689,0.0,2
0.037140000000363216,690,0.22149700000227313,2
0.0,691,0.0,2
0.02890500000648899,692,0.17651399999886053,2
0.0,693,0.0,2
0.02891999999701511,694,0.17205799999646842,2
0.0,695,0.0,2
0.03719999999884749,696,0.21942100000524078,2
0.0,697,0.0,2
0.02893499999481719,698,0.17071499999656226,2
0.0,699,0.0,2
0.04132500000559958,700,0.2468269999990298,2
0.0,701,0.0,2
0.02462999999988824,702,0.1508780000040133,2
0.0,703,0.0,2
0.03725999999733176,704,0.2109379999965313,2
0.0,705,0.0,2
0.02898000000277534,706,0.16906700000254204,2
0.0,707,0.0,2
0.038130000000819564,708,0.2183839999997872,2
0.0,709,0.0,2
0.03703500000119675,710,0.2254030000003695,2
0.0,711,0.0,2
0.024464999994961545,712,0.1742549999980838,2
0.0,713,0.0,2
0.025440000004891772,714,0.16839600000093924,2
0.0,715,0.0,2
0.031575000000884756,716,0.22058100000140257,2
0.0,717,0.0,2
0.031080000000656582,718,0.17120399999475922,2
0.0,719,0.0,2
0.04529999999795109,720,0.24365200000465848,2
0.0,721,0.0,2
0.024689999998372514,722,0.15100099999835948,2
0.0,723,0.0,2
0.03718500000104541,724,0.2178959999982908,2
0.0,725,0.0,2
0.02893499999481719,726,0.1730340000030992,2
0.0,727,0.0,2
0.03501000000687782,728,0.19891400000051362,2
0.0,729,0.0,2
0.04109999999491265,730,0.25469999999768334,2
0.0,731,0.0,2
0.024765000001934823,732,0.14855899999747635,2
0.0,733,0.0,2
0.03299999999580905,734,0.19134600000688806,2
0.0,735,0.0,2
0.03310500000225147,736,0.1925649999975576,2
0.0,737,0.0,2
0.032939999997324776,738,0.1983040000013716,2
0.0,739,0.0,2
0.04108500000438653,740,0.2505490000003192,2
0.0,741,0.0,2
0.02472000000125263,742,0.1468509999976959,2
0.0,743,0.0,2
0.03276000000187196,744,0.20050000000264845,2
0.0,745,0.0,2
