dram,epoch,package,socket
0.0,0,0.0,1
0.0,1,0.0,1
0.20177999999577878,2,1.132446000003256,1
0.0,3,0.0,1
0.00413999999727821,4,0.02404799999203533,1
0.0,5,0.0,1
0.004080000006069895,6,0.02624499998637475,1
0.0,7,0.0,1
0.00413999999727821,8,0.02520799997728318,1
0.0,9,0.0,1
0.018810000001394656,10,0.14324900004430674,1
0.0,11,0.0,1
0.0029699999940930866,12,0.023071999952662736,1
0.0,13,0.0,1
0.0029250000006868504,14,0.02600100004929118,1
0.0,15,0.0,1
0.002970000001369044,16,0.0258789999934379,1
0.0,17,0.0,1
0.0,18,0.0,1
0.0,19,0.0,1
0.029490000000805594,20,0.24395699999877252,1
0.0,21,0.0,1
0.00533999999606749,22,0.06616200000280514,1
0.0,23,0.0,1
0.014265000012528617,24,0.17846699999063276,1
0.0,25,0.0,1
0.01427999999577878,26,0.17193599996971898,1
0.0,27,0.0,1
0.014204999992216472,28,0.17608600002131425,1
0.0,29,0.0,1
0.023175000002083834,30,0.2832650000054855,1
0.0,31,0.0,1
0.005340000010619406,32,0.06927500001620501,1
0.0,33,0.0,1
0.014159999991534278,34,0.18786599996383302,1
0.0,35,0.0,1
0.014220000004570466,36,0.18023699999321252,1
0.0,37,0.0,1
0.012479999990318902,38,0.1492300000099931,1
0.0,39,0.0,1
0.04587000000901753,40,0.31176799998502247,1
0.0,41,0.0,1
0.002970000001369044,42,0.052734000026248395,1
0.0,43,0.0,1
0.1251599999886821,44,1.1923829999868758,1
0.0,45,0.0,1
0.003840000012132805,46,0.026856000011321157,1
0.0,47,0.0,1
0.0,48,0.0,1
0.0,49,0.0,1
0.016334999992977828,50,0.1247560000338126,1
0.0,51,0.0,1
0.004140000004554167,52,0.024291999958222732,1
0.0,53,0.0,1
0.008219999996072147,54,0.050476000033086166,1
0.0,55,0.0,1
0.02885999999853084,56,0.16131599998334423,1
0.0,57,0.0,1
0.021179999996093102,58,0.18762200002674945,1
0.0,59,0.0,1
0.023040000014589168,60,0.29394499998306856,1
0.0,61,0.0,1
0.00527999999030726,62,0.07098399999085814,1
0.0,63,0.0,1
0.025920000007317867,64,0.19403099999180995,1
0.0,65,0.0,1
0.025859999987005722,66,0.20587100001284853,1
0.0,67,0.0,1
0.02478000000701286,68,0.19842500000959262,1
0.0,69,0.0,1
0.02433000000019092,70,0.2668460000131745,1
0.0,71,0.0,1
0.010020000001532026,72,0.11151099993730895,1
0.0,73,0.0,1
0.01870499999495223,74,0.210694000008516,1
0.0,75,0.0,1
0.015870000002905726,76,0.1588130000163801,1
0.0,77,0.0,1
0.02704499999526888,78,0.1799929999979213,1
0.0,79,0.0,1
0.03522000000521075,80,0.3062130000034813,1
0.0,81,0.0,1
0.015360000004875474,82,0.11431900001480244,1
0.0,83,0.0,1
0.028979999995499384,84,0.21600399998715147,1
0.0,85,0.0,1
0.03067499999451684,86,0.21667400002479553,1
0.0,87,0.0,1
0.018810000008670613,88,0.23291099997004494,1
0.0,89,0.0,1
0.019499999994877726,90,0.360655999975279,1
0.0,91,0.0,1
0.006990000001678709,92,0.1240240000479389,1
0.0,93,0.0,1
0.014159999998810235,94,0.24993899997207336,1
0.0,95,0.0,1
0.01434000000153901,96,0.22070300002815202,1
0.0,97,0.0,1
0.018960000001243316,98,0.21929899998940527,1
0.0,99,0.0,1
0.03012000000308035,100,0.30017099998076446,1
0.0,101,0.0,1
0.013500000000931323,102,0.14373800001339987,1
0.0,103,0.0,1
0.018900000002759043,104,0.23193300000275485,1
0.0,105,0.0,1
0.025904999994963873,106,0.21765199999208562,1
0.0,107,0.0,1
0.023609999996551778,108,0.20092699999804609,1
0.0,109,0.0,1
0.021390000001701992,110,0.26739600001019426,1
0.0,111,0.0,1
0.01412999999593012,112,0.15777499999967404,1
0.0,113,0.0,1
0.012524999998277053,114,0.1813360000087414,1
0.0,115,0.0,1
0.015899999998509884,116,0.23754899998311885,1
0.0,117,0.0,1
0.014205000006768387,118,0.2064210000098683,1
0.0,119,0.0,1
0.01601999999547843,120,0.25976499999524094,1
0.0,121,0.0,1
0.010680000006686896,122,0.15887499999371357,1
0.0,123,0.0,1
0.01427999999577878,124,0.23126199998660013,1
0.0,125,0.0,1
0.012480000004870817,126,0.18554700003005564,1
0.0,127,0.0,1
0.0159599999897182,128,0.24133300001267344,1
0.0,129,0.0,1
0.017835000006016344,130,0.26550299997325055,1
0.0,131,0.0,1
0.010695000004488975,132,0.1596070000086911,1
0.0,133,0.0,1
0.012435000004188623,134,0.18365399999311194,1
0.0,135,0.0,1
0.0159599999897182,136,0.23413100000470877,1
0.0,137,0.0,1
0.012480000004870817,138,0.20282000000588596,1
0.0,139,0.0,1
0.020039999995788094,140,0.2578129999747034,1
0.0,141,0.0,1
0.01000499999645399,142,0.11804200001643039,1
0.0,143,0.0,1
0.016035000000556465,144,0.19714300002669916,1
0.0,145,0.0,1
0.012420000006386545,146,0.15826399996876717,1
0.0,147,0.0,1
0.017250000004423782,148,0.203125,1
0.0,149,0.0,1
0.03194999999686843,150,0.2399299999815412,1
0.0,151,0.0,1
0.01946999999199761,152,0.1280510000360664,1
0.0,153,0.0,1
0.017220000001543667,154,0.19787600002018735,1
0.0,155,0.0,1
0.01608000000123866,156,0.2257079999835696,1
0.0,157,0.0,1
0.012540000010631047,158,0.17205799999646842,1
0.0,159,0.0,1
0.019439999996393453,160,0.2771000000066124,1
0.0,161,0.0,1
0.008759999996982515,162,0.13555900001665577,1
0.0,163,0.0,1
0.01427999999577878,164,0.21807899998384528,1
0.0,165,0.0,1
0.01247999999759486,166,0.16406199999619275,1
0.0,167,0.0,1
0.007140000008803327,168,0.1528929999913089,1
0.0,169,0.0,1
0.010679999999410938,170,0.2297369999869261,1
0.0,171,0.0,1
0.0,172,0.06823700002860278,1
0.0,173,0.0,1
0.0,174,0.13293399996473454,1
0.0,175,0.0,1
0.003599999996367842,176,0.1337900000216905,1
0.0,177,0.0,1
0.0,178,0.13146899998537265,1
0.0,179,0.0,1
0.0,180,0.1808469999814406,1
0.0,181,0.0,1
0.001799999998183921,182,0.08722000004490837,1
0.0,183,0.0,1
0.0018000000054598786,184,0.13165199998184107,1
0.0,185,0.0,1
0.0,186,0.1289070000348147,1
0.0,187,0.0,1
0.0035549999884096906,188,0.11938499996904284,1
0.0,189,0.0,1
0.011190000011993106,190,0.20410099998116493,1
0.0,191,0.0,1
0.0017399999996996485,192,0.088928000011947,1
0.0,193,0.0,1
0.011850000002596062,194,0.1557009999814909,1
0.0,195,0.0,1
0.01120499999524327,196,0.14355500001693144,1
0.0,197,0.0,1
0.021839999993972015,198,0.15899600001284853,1
0.0,199,0.0,1
0.013020000005781185,200,0.19793699998990633,1
0.0,201,0.0,1
0.016499999997904524,202,0.10076900001149625,1
0.0,203,0.0,1
0.012914999999338761,204,0.1619269999791868,1
0.0,205,0.0,1
0.033000000003085006,206,0.17462100001284853,1
0.0,207,0.0,1
0.03306000000156928,208,0.19952399996691383,1
0.0,209,0.0,1
0.05357999999250751,210,0.32489000001805834,1
0.0,211,0.0,1
0.012405000008584466,212,0.06799300003331155,1
0.0,213,0.0,1
0.028829999995650724,214,0.17492699998547323,1
0.0,215,0.0,1
0.02598000000580214,216,0.18316699998104014,1
0.0,217,0.0,1
0.02653499998996267,218,0.22918700001901016,1
0.0,219,0.0,1
0.028574999996635597,220,0.28637700001127087,1
0.0,221,0.0,1
0.008790000014414545,222,0.06725999998161569,1
0.0,223,0.0,1
0.025799999995797407,224,0.1965949999867007,1
0.0,225,0.0,1
0.03697500000271248,226,0.2218620000348892,1
0.0,227,0.0,1
0.028919999989739154,228,0.15917999995872378,1
0.0,229,0.0,1
0.05356500000198139,230,0.2962650000117719,1
0.0,231,0.0,1
0.012360000000626314,232,0.07049499999266118,1
0.0,233,0.0,1
0.028860000005806796,234,0.19097900000633672,1
0.0,235,0.0,1
0.03299999999580905,236,0.19641100001172163,1
0.0,237,0.0,1
0.03719999999884749,238,0.20855799998389557,1
0.0,239,0.0,1
0.03957000000809785,240,0.24908400001004338,1
0.0,241,0.0,1
0.009975000000849832,242,0.0991210000065621,1
0.0,243,0.0,1
0.006479999996372499,244,0.12670900000375696,1
0.0,245,0.0,1
0.014759999998204876,246,0.16394100000616163,1
0.0,247,0.0,1
0.00887999999395106,248,0.1530759999586735,1
0.0,249,0.0,1
0.024120000009133946,250,0.24108900004648603,1
0.0,251,0.0,1
0.01241999999183463,252,0.06414800000493415,1
0.0,253,0.0,1
0.028935000002093147,254,0.16564899997320026,1
0.0,255,0.0,1
0.0070800000030430965,256,0.15979000000515953,1
0.0,257,0.0,1
0.010739999997895211,258,0.16613800000050105,1
0.0,259,0.0,1
0.008880000001227017,260,0.24200399999972433,1
0.0,261,0.0,1
0.005909999999857973,262,0.05725099999108352,1
0.0,263,0.0,1
0.001799999998183921,264,0.11688200000207871,1
0.0,265,0.0,1
0.005370000006223563,266,0.15240500002983026,1
0.0,267,0.0,1
0.02006999999139225,268,0.1829229999857489,1
0.0,269,0.0,1
0.03555000000051223,270,0.30517500001587905,1
0.0,271,0.0,1
0.008880000008502975,272,0.06768799995188601,1
0.0,273,0.0,1
0.017729999992297962,274,0.1705329999967944,1
0.0,275,0.0,1
0.0018000000054598786,276,0.12280200005625375,1
0.0,277,0.0,1
0.0,278,0.15179499998339452,1
0.0,279,0.0,1
0.007095000000845175,280,0.1760249999933876,1
0.0,281,0.0,1
0.0,282,0.09716799997841008,1
0.0,283,0.0,1
0.00887999999395106,284,0.15722699998877943,1
0.0,285,0.0,1
0.010679999999410938,286,0.1478880000358913,1
0.0,287,0.0,1
0.010620000000926666,288,0.17584199999691918,1
0.0,289,0.0,1
0.012420000006386545,290,0.19458000001031905,1
0.0,291,0.0,1
0.0035399999978835694,292,0.08428999996976927,1
0.0,293,0.0,1
0.008969999995315447,294,0.15777600000728853,1
0.0,295,0.0,1
0.012480000004870817,296,0.1410520000208635,1
0.0,297,0.0,1
0.007124999996449333,298,0.17364499997347593,1
0.0,299,0.0,1
0.01429499999358086,300,0.22485300002153963,1
0.0,301,0.0,1
0.005280000012135133,302,0.09271300002001226,1
0.0,303,0.0,1
0.012539999996079132,304,0.16070499995839782,1
0.0,305,0.0,1
0.00533999999606749,306,0.14770500001031905,1
0.0,307,0.0,1
0.00533999999606749,308,0.16754200001014397,1
0.0,309,0.0,1
0.005385000004025642,310,0.18524199997773394,1
0.0,311,0.0,1
0.0,312,0.06280500002321787,1
0.0,313,0.0,1
0.0,314,0.12738000001991168,1
0.0,315,0.0,1
0.001799999998183921,316,0.13073699997039512,1
0.0,317,0.0,1
0.0017850000076577999,318,0.1311040000000503,1
0.0,319,0.0,1
0.019529999990481883,320,0.22521999999298714,1
0.0,321,0.0,1
0.009420000009413343,322,0.07702600001357496,1
0.0,323,0.0,1
0.03312000000005355,324,0.17370600000140257,1
0.0,325,0.0,1
0.03311999999277759,326,0.19201699999393895,1
0.0,327,0.0,1
0.011835000004793983,328,0.14910900001996197,1
0.0,329,0.0,1
0.007079999995767139,330,0.18542399996658787,1
0.0,331,0.0,1
0.003599999996367842,332,0.1104740000446327,1
0.0,333,0.0,1
0.003570000008039642,334,0.1456299999554176,1
0.0,335,0.0,1
0.003554999995685648,336,0.14178499998524785,1
0.0,337,0.0,1
0.007140000008803327,338,0.14971900000819005,1
0.0,339,0.0,1
0.033719999992172234,340,0.21685799999977462,1
0.0,341,0.0,1
0.020639999995182734,342,0.11566100001800805,1
0.0,343,0.0,1
0.027810000006866176,344,0.22326699999393895,1
0.0,345,0.0,1
0.027164999999513384,346,0.20764200002304278,1
0.0,347,0.0,1
0.02898000000277534,348,0.15191599997342564,1
0.0,349,0.0,1
0.03960000000370201,350,0.2697139999945648,1
0.0,351,0.0,1
0.0035399999978835694,352,0.08929500001249835,1
0.0,353,0.0,1
0.010320000001229346,354,0.1464230000274256,1
0.0,355,0.0,1
0.010109999988344498,356,0.1509399999922607,1
0.0,357,0.0,1
0.023655000011785887,358,0.16485599998850375,1
0.0,359,0.0,1
0.01241999999183463,360,0.18389899999601766,1
0.0,361,0.0,1
0.0,362,0.10382099999696948,1
0.0,363,0.0,1
0.0,364,0.114196999988053,1
0.0,365,0.0,1
0.003599999996367842,366,0.15454100002534688,1
0.0,367,0.0,1
0.015990000014426187,368,0.1567380000196863,1
0.0,369,0.0,1
0.026639999996405095,370,0.20397899998351932,1
0.0,371,0.0,1
0.017760000002454035,372,0.13440000000991859,1
0.0,373,0.0,1
0.02360999998927582,374,0.1787719999847468,1
0.0,375,0.0,1
0.02064000000973465,376,0.13848899997537956,1
0.0,377,0.0,1
0.030675000001792796,378,0.16790700002457015,1
0.0,379,0.0,1
0.0454049999898416,380,0.23071299999719486,1
0.0,381,0.0,1
0.018360000009124633,382,0.09631399999489076,1
0.0,383,0.0,1
0.026699999994889367,384,0.17364499997347593,1
0.0,385,0.0,1
0.02072999999654712,386,0.1395870000415016,1
0.0,387,0.0,1
0.02659500000299886,388,0.17779499996686354,1
0.0,389,0.0,1
0.029549999999289867,390,0.19940199999837205,1
0.0,391,0.0,1
0.01479000000108499,392,0.10064700004295446,1
0.0,393,0.0,1
0.011835000004793983,394,0.16607700000167824,1
0.0,395,0.0,1
0.003510000002279412,396,0.12286399997537956,1
0.0,397,0.0,1
0.019589999996242113,398,0.1801139999879524,1
0.0,399,0.0,1
0.006509999999252614,400,0.17743000001064502,1
0.0,401,0.0,1
0.001769999995303806,402,0.10540699996636249,1
0.0,403,0.0,1
0.010049999997136183,404,0.1412360000249464,1
0.0,405,0.0,1
0.008880000008502975,406,0.1575310000043828,1
0.0,407,0.0,1
0.022379999994882382,408,0.18731700000353158,1
0.0,409,0.0,1
0.03242999999929452,410,0.26611399996909313,1
0.0,411,0.0,1
0.014745000000402797,412,0.135009000019636,1
0.0,413,0.0,1
0.022440000000642613,414,0.21472199997515418,1
0.0,415,0.0,1
0.023549999998067506,416,0.20904600000358187,1
0.0,417,0.0,1
0.02275500000541797,418,0.18621800004621036,1
0.0,419,0.0,1
0.01780499999586027,420,0.2213130000163801,1
0.0,421,0.0,1
0.010695000004488975,422,0.13458299997728318,1
0.0,423,0.0,1
0.016064999996160623,424,0.22729499998968095,1
0.0,425,0.0,1
0.012419999999110587,426,0.17340100003639236,1
0.0,427,0.0,1
0.014340000008814968,428,0.18078599995351397,1
0.0,429,0.0,1
0.019649999994726386,430,0.2534790000063367,1
0.0,431,0.0,1
0.008984999993117526,432,0.11511200002860278,1
0.0,433,0.0,1
0.021270000004733447,434,0.196349999983795,1
0.0,435,0.0,1
0.022470000003522728,436,0.20147700002416968,1
0.0,437,0.0,1
0.013650000000779983,438,0.1918949999671895,1
0.0,439,0.0,1
0.01961999999184627,440,0.26171799999428913,1
0.0,441,0.0,1
0.00893999999971129,442,0.11767600002349354,1
0.0,443,0.0,1
0.01614000000699889,444,0.20843499997863546,1
0.0,445,0.0,1
0.01427999999577878,446,0.18518100000801496,1
0.0,447,0.0,1
0.01247999999759486,448,0.19958499996573664,1
0.0,449,0.0,1
0.023010000004433095,450,0.2543330000480637,1
0.0,451,0.0,1
0.008880000001227017,452,0.12957799996365793,1
0.0,453,0.0,1
0.0160500000056345,454,0.21478300000308082,1
0.0,455,0.0,1
0.01421999999001855,456,0.19055199998547323,1
0.0,457,0.0,1
0.012510000000474975,458,0.18475300003774464,1
0.0,459,0.0,1
0.028395000008458737,460,0.29656999997678213,1
0.0,461,0.0,1
0.01940999998623738,462,0.12817400001222268,1
0.0,463,0.0,1
0.018285000005562324,464,0.1997679999913089,1
0.0,465,0.0,1
0.014280000010330696,466,0.19012400004430674,1
0.0,467,0.0,1
0.02008499998919433,468,0.20257599995238706,1
0.0,469,0.0,1
0.030149999998684507,470,0.31201200000941753,1
0.0,471,0.0,1
0.0052800000048591755,472,0.08111500000813976,1
0.0,473,0.0,1
0.014219999997294508,474,0.20989999998710118,1
0.0,475,0.0,1
0.02425500000390457,476,0.2117920000164304,1
0.0,477,0.0,1
0.01241999999183463,478,0.16351300000678748,1
0.0,479,0.0,1
0.0253800000064075,480,0.34539800000493415,1
0.0,481,0.0,1
0.011760000001231674,482,0.09515399998053908,1
0.0,483,0.0,1
0.01359000000229571,484,0.1713259999814909,1
0.0,485,0.0,1
0.01427999999577878,486,0.22357200001715682,1
0.0,487,0.0,1
0.09433500000159256,488,0.8235470000072382,1
0.0,489,0.0,1
0.020400000001245644,490,0.12182600001688115,1
0.0,491,0.0,1
0.0,492,0.0,1
0.0,493,0.0,1
0.01637999999366002,494,0.09820599999511614,1
0.0,495,0.0,1
0.02885999999853084,496,0.20770199998514727,1
0.0,497,0.0,1
0.028290000002016313,498,0.21209800001815893,1
0.0,499,0.0,1
0.02424000000610249,500,0.25176999997347593,1
0.0,501,0.0,1
0.02233499999420019,502,0.15710399998351932,1
0.0,503,0.0,1
0.017730000006849878,504,0.21441700001014397,1
0.0,505,0.0,1
0.01421999999001855,506,0.20165999999153428,1
0.0,507,0.0,1
0.014220000004570466,508,0.2015380000229925,1
0.0,509,0.0,1
0.033674999998766,510,0.27020199998514727,1
0.0,511,0.0,1
0.020520000005490147,512,0.13507099999696948,1
0.0,513,0.0,1
0.03178499999194173,514,0.21746800004621036,1
0.0,515,0.0,1
0.014790000008360948,516,0.1890259999781847,1
0.0,517,0.0,1
0.014159999991534278,518,0.23834299997542985,1
0.0,519,0.0,1
0.017880000006698538,520,0.265625,1
0.0,521,0.0,1
0.00887999999395106,522,0.13775600004009902,1
0.0,523,0.0,1
0.015960000004270114,524,0.24157700000796467,1
0.0,525,0.0,1
0.014220000004570466,526,0.21179199995822273,1
0.0,527,0.0,1
0.01241999999183463,528,0.1892700000316836,1
0.0,529,0.0,1
0.0387750000008964,530,0.2747799999488052,1
0.0,531,0.0,1
0.007140000001527369,532,0.085328000044683,1
0.0,533,0.0,1
0.01591500000358792,534,0.19915699999546632,1
0.0,535,0.0,1
0.01252500000555301,536,0.15472399999271147,1
0.0,537,0.0,1
0.014234999987820629,538,0.17413400000077672,1
0.0,539,0.0,1
0.017805000010412186,540,0.23083499999484047,1
0.0,541,0.0,1
0.017699999996693805,542,0.16204799999832176,1
0.0,543,0.0,1
0.023699999997916166,544,0.21581999998306856,1
0.0,545,0.0,1
0.013710000006540213,546,0.2138670000131242,1
0.0,547,0.0,1
0.014339999994263053,548,0.2139900000183843,1
0.0,549,0.0,1
0.01787999999942258,550,0.26538099997560494,1
0.0,551,0.0,1
0.010664999994332902,552,0.150634000019636,1
0.0,553,0.0,1
0.014235000002372544,554,0.17706300001009367,1
0.0,555,0.0,1
0.014264999997976702,556,0.17218100000172853,1
0.0,557,0.0,1
0.014340000008814968,558,0.17449899998609908,1
0.0,559,0.0,1
0.01775999998790212,560,0.2182619999803137,1
0.0,561,0.0,1
0.012975000005098991,562,0.13616900000488386,1
0.0,563,0.0,1
0.014295000000856817,564,0.17102100001648068,1
0.0,565,0.0,1
0.014220000004570466,566,0.16839599999366328,1
0.0,567,0.0,1
0.01427999999577878,568,0.16943300000275485,1
0.0,569,0.0,1
0.029414999997243285,570,0.22351099998923019,1
0.0,571,0.0,1
0.014145000008284114,572,0.134583000006387,1
0.0,573,0.0,1
0.032939999997324776,574,0.184692000009818,1
0.0,575,0.0,1
0.030629999993834645,576,0.16925000000628643,1
0.0,577,0.0,1
0.029460000005201437,578,0.17364499997347593,1
0.0,579,0.0,1
0.027149999994435348,580,0.21630900001036935,1
0.0,581,0.0,1
0.010620000008202624,582,0.13488800000050105,1
0.0,583,0.0,1
0.029519999989133794,584,0.18231199998990633,1
0.0,585,0.0,1
0.018315000015718397,586,0.1607050000457093,1
0.0,587,0.0,1
0.01601999998820247,588,0.20739799999864772,1
0.0,589,0.0,1
0.016080000008514617,590,0.23913599996012636,1
0.0,591,0.0,1
0.01247999999759486,592,0.18273900003987364,1
0.0,593,0.0,1
0.01427999999577878,594,0.17913799994857982,1
0.0,595,0.0,1
0.013395000001764856,596,0.178650000016205,1
0.0,597,0.0,1
0.014220000004570466,598,0.17614700002013706,1
0.0,599,0.0,1
0.01592999999411404,600,0.1951909999770578,1
0.0,601,0.0,1
0.01247999999759486,602,0.15533400001004338,1
0.0,603,0.0,1
0.012480000004870817,604,0.1569829999934882,1
0.0,605,0.0,1
0.015960000004270114,606,0.1961670000164304,1
0.0,607,0.0,1
0.012539999996079132,608,0.1549679999880027,1
0.0,609,0.0,1
0.024225000001024455,610,0.25231899999198504,1
0.0,611,0.0,1
0.012989999995625112,612,0.1426999999966938,1
0.0,613,0.0,1
0.012420000006386545,614,0.16180500003974885,1
0.0,615,0.0,1
0.01434000000153901,616,0.18505799997365102,1
0.0,617,0.0,1
0.01601999998820247,618,0.20874000003095716,1
0.0,619,0.0,1
0.016065000010712538,620,0.21520999996573664,1
0.0,621,0.0,1
0.01067999999213498,622,0.13818399998126552,1
0.0,623,0.0,1
0.014264999997976702,624,0.19769300002371892,1
0.0,625,0.0,1
0.014220000004570466,626,0.21325699996668845,1
0.0,627,0.0,1
0.014219999997294508,628,0.2090450000250712,1
0.0,629,0.0,1
0.017760000002454035,630,0.23364299998502247,1
0.0,631,0.0,1
0.010680000006686896,632,0.13757300001452677,1
0.0,633,0.0,1
0.015975000002072193,634,0.20446800003992394,1
0.0,635,0.0,1
0.012479999990318902,636,0.16455099996528588,1
0.0,637,0.0,1
0.015960000004270114,638,0.21026599998003803,1
0.0,639,0.0,1
0.01601999999547843,640,0.2364499999966938,1
0.0,641,0.0,1
0.010110000002896413,642,0.11279300003661774,1
0.0,643,0.0,1
0.014280000003054738,644,0.1814569999696687,1
0.0,645,0.0,1
0.014234999995096587,646,0.17877200001385063,1
0.0,647,0.0,1
0.014280000003054738,648,0.17932199998176657,1
0.0,649,0.0,1
0.01781999999366235,650,0.21667400002479553,1
0.0,651,0.0,1
0.0035400000124354847,652,0.10980299997027032,1
0.0,653,0.0,1
0.0009299999946961179,654,0.1335450000478886,1
0.0,655,0.0,1
0.0,656,0.13488699999288656,1
0.0,657,0.0,1
0.00533999999606749,658,0.14849899997352622,1
0.0,659,0.0,1
0.016035000000556465,660,0.2004999999771826,1
0.0,661,0.0,1
0.012420000006386545,662,0.1635130000358913,1
0.0,663,0.0,1
0.012539999996079132,664,0.16345300001557916,1
0.0,665,0.0,1
0.016049999998358544,666,0.21356199998990633,1
0.0,667,0.0,1
0.01247999999759486,668,0.167053000011947,1
0.0,669,0.0,1
0.016049999998358544,670,0.2597649999661371,1
0.0,671,0.0,1
0.008070000003499445,672,0.11645599998882972,1
0.0,673,0.0,1
0.01165499999478925,674,0.20867900006123818,1
0.0,675,0.0,1
0.00990000000456348,676,0.16613699996378273,1
0.0,677,0.0,1
0.014339999994263053,678,0.20904600000358187,1
0.0,679,0.0,1
0.01786500000889646,680,0.21899400002439506,1
0.0,681,0.0,1
0.008880000001227017,682,0.1162719999847468,1
0.0,683,0.0,1
0.016124999994644895,684,0.1978149999922607,1
0.0,685,0.0,1
0.012495000009948853,686,0.1521610000054352,1
0.0,687,0.0,1
0.013349999993806705,688,0.19451899998239242,1
0.0,689,0.0,1
0.01620000000548316,690,0.19641100001172163,1
0.0,691,0.0,1
0.01255499999388121,692,0.14520199998514727,1
0.0,693,0.0,1
0.01247999999759486,694,0.15081800002371892,1
0.0,695,0.0,1
0.01608000000123866,696,0.19854800001485273,1
0.0,697,0.0,1
0.01081500000145752,698,0.15283199996338226,1
0.0,699,0.0,1
0.015224999995552935,700,0.2203369999770075,1
0.0,701,0.0,1
0.007185000002209563,702,0.131835000065621,1
0.0,703,0.0,1
0.014250000000174623,704,0.19903599994722754,1
0.0,705,0.0,1
0.01252500000555301,706,0.15637200002674945,1
0.0,707,0.0,1
0.014235000002372544,708,0.17224099999293685,1
0.0,709,0.0,1
0.017879999992146622,710,0.2214360000216402,1
0.0,711,0.0,1
0.010739999997895211,712,0.13287299999501556,1
0.0,713,0.0,1
0.016064999996160623,714,0.1737069999508094,1
0.0,715,0.0,1
0.012420000006386545,716,0.1723630000196863,1
0.0,717,0.0,1
0.014250000000174623,718,0.17132500000298023,1
0.0,719,0.0,1
0.017010000003210735,720,0.21698000002652407,1
0.0,721,0.0,1
0.010814999994181562,722,0.13006599998334423,1
0.0,723,0.0,1
0.012495000009948853,724,0.17425599999842234,1
0.0,725,0.0,1
0.012434999989636708,726,0.1731570000119973,1
0.0,727,0.0,1
0.014280000003054738,728,0.1785880000097677,1
0.0,729,0.0,1
0.01613999999972293,730,0.21917799997027032,1
0.0,731,0.0,1
0.00893999999971129,732,0.1362300000328105,1
0.0,733,0.0,1
0.013514999998733401,734,0.1800539999967441,1
0.0,735,0.0,1
0.014220000004570466,736,0.17803899996215478,1
0.0,737,0.0,1
0.014250000000174623,738,0.17828400002326816,1
0.0,739,0.0,1
0.02374499999859836,740,0.2240600000077393,1
0.0,741,0.0,1
0.009794999998121057,742,0.13439999998081475,1
0.0,743,0.0,1
0.015389999993203674,744,0.17974799999501556,1
0.0,745,0.0,1
0.027075000005424954,746,0.17907700000796467,1
0.0,0,0.0,2
0.0,1,0.0,2
0.2108250000019325,2,1.473816000005172,2
0.0,3,0.0,2
0.004079999998793937,4,0.03314200000022538,2
0.0,5,0.0,2
0.004079999998793937,6,0.03509499999927357,2
0.0,7,0.0,2
0.0,8,0.0,2
0.0,9,0.0,2
0.028740000001562294,10,0.22851599999557948,2
0.0,11,0.0,2
0.004124999999476131,12,0.03637700000399491,2
0.0,13,0.0,2
0.00413999999727821,14,0.033934999995835824,2
0.0,15,0.0,2
0.004140000004554167,16,0.03143400000408292,2
0.0,17,0.0,2
0.0,18,0.0,2
0.0,19,0.0,2
0.04245000000082655,20,0.3230589999984659,2
0.0,21,0.0,2
0.012389999996230472,22,0.08264100000087637,2
0.0,23,0.0,2
0.028200000000651926,24,0.19500799999877927,2
0.0,25,0.0,2
0.02592000000004191,26,0.16082699999969918,2
0.0,27,0.0,2
0.023565000003145542,28,0.16662599999835948,2
0.0,29,0.0,2
0.041655000000901055,30,0.3223270000053162,2
0.0,31,0.0,2
0.012419999999110587,32,0.09503199999744538,2
0.0,33,0.0,2
0.033029999998689163,34,0.20947199999864097,2
0.0,35,0.0,2
0.032865000001038425,36,0.22369399999661255,2
0.0,37,0.0,2
0.019484999997075647,38,0.15783700000247336,2
0.0,39,0.0,2
0.06092999999964377,40,0.38903799999752664,2
0.0,41,0.0,2
0.009270000002288725,42,0.07421900000917958,2
0.0,43,0.0,2
0.21122999999352032,44,1.31219499999861,2
0.0,45,0.0,2
0.006270000005315524,46,0.03100599999743281,2
0.0,47,0.0,2
0.0,48,0.0,2
0.0,49,0.0,2
0.022559999997611158,50,0.17834399999992456,2
0.0,51,0.0,2
0.004079999998793937,52,0.02905299999838462,2
0.0,53,0.0,2
0.004080000006069895,54,0.03350799999680021,2
0.0,55,0.0,2
0.030599999998230487,56,0.18664600000556675,2
0.0,57,0.0,2
0.03282000000035623,58,0.20806900000025053,2
0.0,59,0.0,2
0.051359999997657724,60,0.3320309999980964,2
0.0,61,0.0,2
0.012360000000626314,62,0.08953900000051362,2
0.0,63,0.0,2
0.033914999999979045,64,0.23187200000393204,2
0.0,65,0.0,2
0.03719999999884749,66,0.2683109999925364,2
0.0,67,0.0,2
0.028200000000651926,68,0.17590300000301795,2
0.0,69,0.0,2
0.03878999999869848,70,0.27612300000328105,2
0.0,71,0.0,2
0.020535000003292225,72,0.12927199999830918,2
0.0,73,0.0,2
0.03706499999680091,74,0.2713629999998375,2
0.0,75,0.0,2
0.028904999999213032,76,0.18768299999646842,2
0.0,77,0.0,2
0.03288000000611646,78,0.20068300000275485,2
0.0,79,0.0,2
0.05786999999691034,80,0.3368529999970633,2
0.0,81,0.0,2
0.019664999999804422,82,0.10797200000524754,2
0.0,83,0.0,2
0.033990000003541354,84,0.24505599999974947,2
0.0,85,0.0,2
0.03713999999308726,86,0.28540000000066357,2
0.0,87,0.0,2
0.038265000002866145,88,0.3092039999937697,2
0.0,89,0.0,2
0.056010000000242144,90,0.4346320000004198,2
0.0,91,0.0,2
0.02374499999859836,92,0.19805900000210386,2
0.0,93,0.0,2
0.04250999999931082,94,0.3211670000018785,2
0.0,95,0.0,2
0.03619500000058906,96,0.31640600000173436,2
0.0,97,0.0,2
0.03719999999884749,98,0.3344729999953415,2
0.0,99,0.0,2
0.05812500000320142,100,0.4852290000017092,2
0.0,101,0.0,2
0.02914500000042608,102,0.20916800000122748,2
0.0,103,0.0,2
0.044669999995676335,104,0.32470699999976205,2
0.0,105,0.0,2
0.0403950000036275,106,0.3203730000022915,2
0.0,107,0.0,2
0.03508499999588821,108,0.29595999999583,2
0.0,109,0.0,2
0.04086000000097556,110,0.34985300000334973,2
0.0,111,0.0,2
0.025665000001026783,112,0.19952399999601766,2
0.0,113,0.0,2
0.02981999999610707,114,0.23706099999981234,2
0.0,115,0.0,2
0.03288000000611646,116,0.29364000000350643,2
0.0,117,0.0,2
0.033015000000887085,118,0.24688700000115205,2
0.0,119,0.0,2
0.04650000000401633,120,0.29992699999638717,2
0.0,121,0.0,2
0.0246599999954924,122,0.16772400000263588,2
0.0,123,0.0,2
0.03824999999778811,124,0.2050779999954102,2
0.0,125,0.0,2
0.02883000000292668,126,0.17425600000206032,2
0.0,127,0.0,2
0.03704999999899883,128,0.23223899999720743,2
0.0,129,0.0,2
0.04117499999847496,130,0.2620240000032936,2
0.0,131,0.0,2
0.02058000000397442,132,0.1275629999981902,2
0.0,133,0.0,2
0.03299999999580905,134,0.1967160000021977,2
0.0,135,0.0,2
0.025395000004209578,136,0.18450999999549822,2
0.0,137,0.0,2
0.014759999998204876,138,0.15240400000402587,2
0.0,139,0.0,2
0.026864999999816064,140,0.22570799999812152,2
0.0,141,0.0,2
0.023760000003676396,142,0.15387000000555418,2
0.0,143,0.0,2
0.03497999998944579,144,0.23248299999613664,2
0.0,145,0.0,2
0.0329249999995227,146,0.21704099999624304,2
0.0,147,0.0,2
0.0372300000017276,148,0.22271700000419514,2
0.0,149,0.0,2
0.04438500000833301,150,0.278931000000739,2
0.0,151,0.0,2
0.023759999996400438,152,0.16796899999826564,2
0.0,153,0.0,2
0.0328799999988405,154,0.24902300000030664,2
0.0,155,0.0,2
0.04230000000097789,156,0.32110600000305567,2
0.0,157,0.0,2
0.032940000004600734,158,0.2824709999986226,2
0.0,159,0.0,2
0.05702999998902669,160,0.5116569999991043,2
0.0,161,0.0,2
0.02695500000118045,162,0.22747800000070129,2
0.0,163,0.0,2
0.02862000000459375,164,0.3423469999979716,2
0.0,165,0.0,2
0.041429999997490086,166,0.315429000002041,2
0.0,167,0.0,2
0.03506999999808613,168,0.2919929999989108,2
0.0,169,0.0,2
0.04914000000280794,170,0.4289550000030431,2
0.0,171,0.0,2
0.012419999999110587,172,0.07995600000140257,2
0.0,173,0.0,2
0.037200000006123446,174,0.2499389999975392,2
0.0,175,0.0,2
0.03306000000156928,176,0.23852500000066357,2
0.0,177,0.0,2
0.03428999999596272,178,0.21514899999965564,2
0.0,179,0.0,2
0.05258999999932712,180,0.3787839999968128,2
0.0,181,0.0,2
0.016470000002300367,182,0.12066700000286801,2
0.0,183,0.0,2
0.037079999994602986,184,0.27081299999917974,2
0.0,185,0.0,2
0.03291000000172062,186,0.23406899999827147,2
0.0,187,0.0,2
0.02884500000072876,188,0.203125,2
0.0,189,0.0,2
0.05258999999932712,190,0.3729249999996682,2
0.0,191,0.0,2
0.023865000002842862,192,0.14440900000045076,2
0.0,193,0.0,2
0.029880000001867302,194,0.22332800000003772,2
0.0,195,0.0,2
0.039179999999760184,196,0.3119509999996808,2
0.0,197,0.0,2
0.03282000000035623,198,0.2555540000030305,2
0.0,199,0.0,2
0.04828499999712221,200,0.37237499999901047,2
0.0,201,0.0,2
0.022724999995261896,202,0.1630250000016531,2
0.0,203,0.0,2
0.03597000000445405,204,0.26745600000140257,2
0.0,205,0.0,2
0.03614999999990687,206,0.22412099999564816,2
0.0,207,0.0,2
0.02878499999496853,208,0.23126300000149058,2
0.0,209,0.0,2
0.05746500000532251,210,0.4567259999967064,2
0.0,211,0.0,2
0.008220000003348105,212,0.05871600000318722,2
0.0,213,0.0,2
0.037304999998013955,214,0.26330500000040047,2
0.0,215,0.0,2
0.03305999999429332,216,0.23712199999863515,2
0.0,217,0.0,2
0.03699000000779051,218,0.26879900000130874,2
0.0,219,0.0,2
0.04945499999303138,220,0.33459399999992456,2
0.0,221,0.0,2
0.012360000000626314,222,0.07379199999923003,2
0.0,223,0.0,2
0.03276000000187196,224,0.23315399999773945,2
0.0,225,0.0,2
0.03702000000339467,226,0.2720950000002631,2
0.0,227,0.0,2
0.028800000000046566,228,0.22094700000161538,2
0.0,229,0.0,2
0.05159999999887077,230,0.4463499999983469,2
0.0,231,0.0,2
0.012300000002142042,232,0.09655800000109593,2
0.0,233,0.0,2
0.032804999995278195,234,0.26727300000129617,2
0.0,235,0.0,2
0.0328799999988405,236,0.2502439999989292,2
0.0,237,0.0,2
0.03405000000202563,238,0.24591100000179722,2
0.0,239,0.0,2
0.051359999997657724,240,0.4035029999977269,2
0.0,241,0.0,2
0.020760000006703194,242,0.1298830000050657,2
0.0,243,0.0,2
0.03931499999453081,244,0.2926629999965371,2
0.0,245,0.0,2
0.038039999999455176,246,0.32238800000050105,2
0.0,247,0.0,2
0.035265000005892944,248,0.3133549999947718,2
0.0,249,0.0,2
0.05131499999697553,250,0.48010200000499026,2
0.0,251,0.0,2
0.01960500000132015,252,0.15563999999722,2
0.0,253,0.0,2
0.030989999992016237,254,0.236388999997871,2
0.0,255,0.0,2
0.0369600000049104,256,0.2883300000030431,2
0.0,257,0.0,2
0.03289499999664258,258,0.2730710000032559,2
0.0,259,0.0,2
0.04851000000780914,260,0.40191699999559205,2
0.0,261,0.0,2
0.016394999998738058,262,0.15118400000210386,2
0.0,263,0.0,2
0.028679999995802063,264,0.25305200000002515,2
0.0,265,0.0,2
0.037140000000363216,266,0.26129100000252947,2
0.0,267,0.0,2
0.030780000000959262,268,0.21533199999976205,2
0.0,269,0.0,2
0.05447999999887543,270,0.4533079999964684,2
0.0,271,0.0,2
0.012360000000626314,272,0.09539800000129617,2
0.0,273,0.0,2
0.03102000000217231,274,0.22332800000003772,2
0.0,275,0.0,2
0.032954999995126855,276,0.24011199999949895,2
0.0,277,0.0,2
0.03310500000225147,278,0.25164800000129617,2
0.0,279,0.0,2
0.041144999995594844,280,0.30798399999548565,2
0.0,281,0.0,2
0.02470500000345055,282,0.18768300000738236,2
0.0,283,0.0,2
0.028800000000046566,284,0.21307299999534735,2
0.0,285,0.0,2
0.03814499999862164,286,0.2723389999991923,2
0.0,287,0.0,2
0.03922500000044238,288,0.311584999999468,2
0.0,289,0.0,2
0.04101000000082422,290,0.36517300000195974,2
0.0,291,0.0,2
0.02064000000245869,292,0.15832500000033178,2
0.0,293,0.0,2
0.032954999995126855,294,0.24645999999847845,2
0.0,295,0.0,2
0.03288000000611646,296,0.26556400000481517,2
0.0,297,0.0,2
0.032939999997324776,298,0.24645999999484047,2
0.0,299,0.0,2
0.05054999999993015,300,0.36920199999804026,2
0.0,301,0.0,2
0.016485000000102445,302,0.12017800000467105,2
0.0,303,0.0,2
0.033989999996265396,304,0.2647709999982908,2
0.0,305,0.0,2
0.032940000004600734,306,0.26788300000407617,2
0.0,307,0.0,2
0.03510000000096625,308,0.2799679999916407,2
0.0,309,0.0,2
0.051809999997203704,310,0.3629760000076203,2
0.0,311,0.0,2
0.026985000004060566,312,0.17901599999458995,2
0.0,313,0.0,2
0.03413999999611406,314,0.25732500000231084,2
0.0,315,0.0,2
0.03310500000225147,316,0.2488400000038382,2
0.0,317,0.0,2
0.03409499999543186,318,0.2409059999990859,2
0.0,319,0.0,2
0.048630000004777685,320,0.3170159999972384,2
0.0,321,0.0,2
0.021690000001399312,322,0.14617900000303052,2
0.0,323,0.0,2
0.030854999997245613,324,0.22161899999628076,2
0.0,325,0.0,2
0.04570499999681488,326,0.28338600000279257,2
0.0,327,0.0,2
0.033000000003085006,328,0.22863800000050105,2
0.0,329,0.0,2
0.04116000000067288,330,0.27325399999608635,2
0.0,331,0.0,2
0.02577000000019325,332,0.17114299999957439,2
0.0,333,0.0,2
0.02981999999610707,334,0.2039790000017092,2
0.0,335,0.0,2
0.04136999999900581,336,0.2545170000012149,2
0.0,337,0.0,2
0.03393000000505708,338,0.2549440000002505,2
0.0,339,0.0,2
0.046679999999469146,340,0.3327030000000377,2
0.0,341,0.0,2
0.023775000001478475,342,0.17919899999833433,2
0.0,343,0.0,2
0.04131000000052154,344,0.3013909999972384,2
0.0,345,0.0,2
0.025829999998677522,346,0.21923900000547292,2
0.0,347,0.0,2
0.03824999999778811,348,0.2652579999958107,2
0.0,349,0.0,2
0.055470000006607734,350,0.4083260000006703,2
0.0,351,0.0,2
0.024899999996705446,352,0.17279000000417,2
0.0,353,0.0,2
0.030914999995729886,354,0.24157699999705073,2
0.0,355,0.0,2
0.042255000000295695,356,0.30651900000157184,2
0.0,357,0.0,2
0.03088500000012573,358,0.24737499999901047,2
0.0,359,0.0,2
0.04626000000280328,360,0.3674319999990985,2
0.0,361,0.0,2
0.022664999996777624,362,0.16638199999943026,2
0.0,363,0.0,2
0.043304999999236315,364,0.2720950000002631,2
0.0,365,0.0,2
0.04759500000363914,366,0.2731930000009015,2
0.0,367,0.0,2
0.028800000000046566,368,0.20898400000078254,2
0.0,369,0.0,2
0.04944000000250526,370,0.34741200000280514,2
0.0,371,0.0,2
0.027900000000954606,372,0.19335999999384512,2
0.0,373,0.0,2
0.03196499999467051,374,0.25549300000056974,2
0.0,375,0.0,2
0.03919499999756226,376,0.29376200000115205,2
0.0,377,0.0,2
0.03192000000854023,378,0.27679499999794643,2
0.0,379,0.0,2
0.05144999999902211,380,0.3604120000018156,2
0.0,381,0.0,2
0.02156999999715481,382,0.1627200000002631,2
0.0,383,0.0,2
0.035114999998768326,384,0.2525629999981902,2
0.0,385,0.0,2
0.035940000001573935,386,0.2543950000035693,2
0.0,387,0.0,2
0.03305999999429332,388,0.2301019999977143,2
0.0,389,0.0,2
0.046365000009245705,390,0.3209839999981341,2
0.0,391,0.0,2
0.020684999995864928,392,0.1474000000016531,2
0.0,393,0.0,2
0.033029999998689163,394,0.22619700000359444,2
0.0,395,0.0,2
0.032939999997324776,396,0.23138399999515968,2
0.0,397,0.0,2
0.032940000004600734,398,0.23162800000500283,2
0.0,399,0.0,2
0.043454999999084976,400,0.27533000000039465,2
0.0,401,0.0,2
0.024734999999054708,402,0.15673799999785842,2
0.0,403,0.0,2
0.03381000000081258,404,0.2415770000006887,2
0.0,405,0.0,2
0.03491999999823747,406,0.2518920000002254,2
0.0,407,0.0,2
0.04038000000582542,408,0.29760799999712617,2
0.0,409,0.0,2
0.051419999996141996,410,0.4559320000007574,2
0.0,411,0.0,2
0.02914500000042608,412,0.21179200000187848,2
0.0,413,0.0,2
0.03724499999952968,414,0.32000799999877927,2
0.0,415,0.0,2
0.04126499999983935,416,0.28656000000046333,2
0.0,417,0.0,2
0.03289499999664258,418,0.23596200000247336,2
0.0,419,0.0,2
0.04110000000218861,420,0.27838100000008126,2
0.0,421,0.0,2
0.02051999999821419,422,0.13745099999869126,2
0.0,423,0.0,2
0.03682500000286382,424,0.31964099999458995,2
0.0,425,0.0,2
0.0328799999988405,426,0.2691650000051595,2
0.0,427,0.0,2
0.033000000003085006,428,0.2552490000016405,2
0.0,429,0.0,2
0.04132499999832362,430,0.32171699999526027,2
0.0,431,0.0,2
0.02163000000291504,432,0.15087900000071386,2
0.0,433,0.0,2
0.03811499999574153,434,0.2903440000009141,2
0.0,435,0.0,2
0.028800000000046566,436,0.23931900000025053,2
0.0,437,0.0,2
0.032940000004600734,438,0.267638999997871,2
0.0,439,0.0,2
0.04517999999370659,440,0.36425799999778974,2
0.0,441,0.0,2
0.021720000004279427,442,0.16668700000082026,2
0.0,443,0.0,2
0.03695999999763444,444,0.3280030000023544,2
0.0,445,0.0,2
0.028740000001562294,446,0.26238999999986845,2
0.0,447,0.0,2
0.0328799999988405,448,0.2770380000001751,2
0.0,449,0.0,2
0.047205000002577435,450,0.3777470000022731,2
0.0,451,0.0,2
0.0214949999935925,452,0.1785889999991923,2
0.0,453,0.0,2
0.03603000000293832,454,0.27893000000040047,2
0.0,455,0.0,2
0.036090000001422595,456,0.2857670000012149,2
0.0,457,0.0,2
0.04138499999680789,458,0.2985229999940202,2
0.0,459,0.0,2
0.05581500000698725,460,0.43273900000713184,2
0.0,461,0.0,2
0.02150999999139458,462,0.18713399999614921,2
0.0,463,0.0,2
0.03943500000605127,464,0.31359900000097696,2
0.0,465,0.0,2
0.04151999999885447,466,0.3199459999996179,2
0.0,467,0.0,2
0.0351749999972526,468,0.27545200000167824,2
0.0,469,0.0,2
0.05443500000546919,470,0.4577019999996992,2
0.0,471,0.0,2
0.018599999995785765,472,0.13702399999965564,2
0.0,473,0.0,2
0.03493500000331551,474,0.27764899999965564,2
0.0,475,0.0,2
0.0328799999988405,476,0.26531999999861,2
0.0,477,0.0,2
0.038219999994907994,478,0.2879639999991923,2
0.0,479,0.0,2
0.06345000000146683,480,0.45434499999828404,2
0.0,481,0.0,2
0.02179500000056578,482,0.16394100000252365,2
0.0,483,0.0,2
0.03817500000150176,484,0.31787099999928614,2
0.0,485,0.0,2
0.040455000002111774,486,0.28436299999884795,2
0.0,487,0.0,2
0.17629499999748077,488,0.7415160000018659,2
0.0,489,0.0,2
0.0307950000060373,490,0.19134499999927357,2
0.0,491,0.0,2
0.006239999995159451,492,0.03955100000166567,2
0.0,493,0.0,2
0.021749999999883585,494,0.14807099999597995,2
0.0,495,0.0,2
0.03936000000248896,496,0.26269500000489643,2
0.0,497,0.0,2
0.04048499999771593,498,0.2799689999992552,2
0.0,499,0.0,2
0.048405000001366716,500,0.3385009999983595,2
0.0,501,0.0,2
0.027885000003152527,502,0.19366399999853456,2
0.0,503,0.0,2
0.030899999997927807,504,0.21045000000231084,2
0.0,505,0.0,2
0.03626999999687541,506,0.2282100000011269,2
0.0,507,0.0,2
0.03708000000187894,508,0.27709999999933643,2
0.0,509,0.0,2
0.04950000000098953,510,0.34905999999682535,2
0.0,511,0.0,2
0.0269099999932223,512,0.17944300000090152,2
0.0,513,0.0,2
0.03840000000491273,514,0.25512700000035693,2
0.0,515,0.0,2
0.03282000000035623,516,0.29370100000232924,2
0.0,517,0.0,2
0.028740000001562294,518,0.2578739999953541,2
0.0,519,0.0,2
0.04523999999946682,520,0.29486000000179047,2
0.0,521,0.0,2
0.020459999999729916,522,0.15490800000043237,2
0.0,523,0.0,2
0.029925000002549496,524,0.26696699999956763,2
0.0,525,0.0,2
0.03284999999596039,526,0.2382820000020729,2
0.0,527,0.0,2
0.03095999999641208,528,0.2410280000003695,2
0.0,529,0.0,2
0.05372999999963213,530,0.37860100000034436,2
0.0,531,0.0,2
0.02058000000397442,532,0.1651610000008077,2
0.0,533,0.0,2
0.03312000000005355,534,0.2591549999960989,2
0.0,535,0.0,2
0.03306000000156928,536,0.26232900000104564,2
0.0,537,0.0,2
0.02472000000125263,538,0.22705100000166567,2
0.0,539,0.0,2
0.04529999999795109,540,0.3229369999971823,2
0.0,541,0.0,2
0.020639999995182734,542,0.12365700000009383,2
0.0,543,0.0,2
0.03715500000544125,544,0.22051999999894178,2
0.0,545,0.0,2
0.02891999999701511,546,0.17218000000139,2
0.0,547,0.0,2
0.03719999999884749,548,0.21856700000353158,2
0.0,549,0.0,2
0.037154999998165295,550,0.2229619999998249,2
0.0,551,0.0,2
0.026490000003832392,552,0.17376700000022538,2
0.0,553,0.0,2
0.02892000000429107,554,0.17059299999527866,2
0.0,555,0.0,2
0.03725999999733176,556,0.216736000002129,2
0.0,557,0.0,2
0.028979999995499384,558,0.17083700000148383,2
0.0,559,0.0,2
0.045390000006591436,560,0.31298899999819696,2
0.0,561,0.0,2
0.024825000000419095,562,0.1763299999984156,2
0.0,563,0.0,2
0.02891999999701511,564,0.1768800000027113,2
0.0,565,0.0,2
0.0372300000017276,566,0.2185060000010708,2
0.0,567,0.0,2
0.02891999999701511,568,0.17022699999870383,2
0.0,569,0.0,2
0.04732499999954598,570,0.283874000000651,2
0.0,571,0.0,2
0.02051999999821419,572,0.12371899999925517,2
0.0,573,0.0,2
0.042269999998097774,574,0.2347410000002128,2
0.0,575,0.0,2
0.03102000000217231,576,0.1697390000008454,2
0.0,577,0.0,2
0.03406500000710366,578,0.20440600000074483,2
0.0,579,0.0,2
0.04844999999477295,580,0.2825319999974454,2
0.0,581,0.0,2
0.02479499999753898,582,0.16626000000178465,2
0.0,583,0.0,2
0.037350000005972106,584,0.21533199999976205,2
0.0,585,0.0,2
0.039254999996046536,586,0.23199499999827822,2
0.0,587,0.0,2
0.03298499999800697,588,0.21343999999953667,2
0.0,589,0.0,2
0.0422099999996135,590,0.3025510000043141,2
0.0,591,0.0,2
0.024825000000419095,592,0.15246599999591126,2
0.0,593,0.0,2
0.0329249999995227,594,0.20770199999969918,2
0.0,595,0.0,2
0.03585000000020955,596,0.24041800000122748,2
0.0,597,0.0,2
0.03192000000126427,598,0.20898400000078254,2
0.0,599,0.0,2
0.044144999999844,600,0.26892099999895436,2
0.0,601,0.0,2
0.03199500000482658,602,0.21093699999983073,2
0.0,603,0.0,2
0.033000000003085006,604,0.2342529999987164,2
0.0,605,0.0,2
0.03299999999580905,606,0.2371830000047339,2
0.0,607,0.0,2
0.03312000000005355,608,0.23986800000056974,2
0.0,609,0.0,2
0.055769999999029096,610,0.3270269999957236,2
0.0,611,0.0,2
0.026879999997618143,612,0.14703300000110175,2
0.0,613,0.0,2
0.037050000006274786,614,0.23937999999907333,2
0.0,615,0.0,2
0.028800000000046566,616,0.21655300000566058,2
0.0,617,0.0,2
0.038069999995059334,618,0.2788079999954789,2
0.0,619,0.0,2
0.042180000004009344,620,0.2882079999981215,2
0.0,621,0.0,2
0.020684999995864928,622,0.14880400000402005,2
0.0,623,0.0,2
0.0434400000012829,624,0.2700809999987541,2
0.0,625,0.0,2
0.03518999999505468,626,0.20580999999583582,2
0.0,627,0.0,2
0.04020000000309665,628,0.2863160000051721,2
0.0,629,0.0,2
0.0434400000012829,630,0.32031300000016927,2
0.0,631,0.0,2
0.020625000004656613,632,0.16186499999457737,2
0.0,633,0.0,2
0.03826499999559019,634,0.2551270000039949,2
0.0,635,0.0,2
0.03405000000202563,636,0.2033080000001064,2
0.0,637,0.0,2
0.03295500000240281,638,0.2539059999980964,2
0.0,639,0.0,2
0.053924999992887024,640,0.3101200000019162,2
0.0,641,0.0,2
0.01854000000457745,642,0.1517939999976079,2
0.0,643,0.0,2
0.03719999999884749,644,0.22644100000252365,2
0.0,645,0.0,2
0.02891999999701511,646,0.17040999999881024,2
0.0,647,0.0,2
0.03711000000475906,648,0.22253400000045076,2
0.0,649,0.0,2
0.0371099999974831,650,0.22338899999886053,2
0.0,651,0.0,2
0.03306000000156928,652,0.18072500000198488,2
0.0,653,0.0,2
0.025724999999511056,654,0.17089800000030664,2
0.0,655,0.0,2
0.032415000001492444,656,0.21527099999730126,2
0.0,657,0.0,2
0.02764499999466352,658,0.17230299999937415,2
0.0,659,0.0,2
0.04110000000218861,660,0.24975500000073225,2
0.0,661,0.0,2
0.025815000000875443,662,0.15112299999964307,2
0.0,663,0.0,2
0.03299999999580905,664,0.19702200000028824,2
0.0,665,0.0,2
0.03301500000816304,666,0.19659400000455207,2
0.0,667,0.0,2
0.03305999999429332,668,0.19683899999654386,2
0.0,669,0.0,2
0.039929999999003485,670,0.2434079999984533,2
0.0,671,0.0,2
0.0247799999997369,672,0.1487420000048587,2
0.0,673,0.0,2
0.03306000000156928,674,0.1931159999949159,2
0.0,675,0.0,2
0.03094500000588596,676,0.1945800000030431,2
0.0,677,0.0,2
0.03305999999429332,678,0.19708199999877252,2
0.0,679,0.0,2
0.03704999999899883,680,0.2544559999987541,2
0.0,681,0.0,2
0.0247799999997369,682,0.16522200000326848,2
0.0,683,0.0,2
0.02884500000072876,684,0.2092289999964123,2
0.0,685,0.0,2
0.028904999999213032,686,0.20092700000532204,2
0.0,687,0.0,2
0.03310500000225147,688,0.19146799999725772,2
0.0,689,0.0,2
0.03719999999884749,690,0.22167899999840301,2
0.0,691,0.0,2
0.02885999999853084,692,0.1787110000004759,2
0.0,693,0.0,2
0.03306000000156928,694,0.19415299999673152,2
0.0,695,0.0,2
0.03304499999649124,696,0.19574000000284286,2
0.0,697,0.0,2
0.033060000008845236,698,0.19256599999789614,2
0.0,699,0.0,2
0.03712499999528518,700,0.24652100000457722,2
0.0,701,0.0,2
0.0247799999997369,702,0.14739999999801512,2
0.0,703,0.0,2
0.029850000006263144,704,0.1945190000005823,2
0.0,705,0.0,2
0.03506999999808613,706,0.21398899999985588,2
0.0,707,0.0,2
0.03428999999596272,708,0.203125,2
0.0,709,0.0,2
0.04536000000371132,710,0.28094499999861,2
0.0,711,0.0,2
0.02057999999669846,712,0.12890600000173436,2
0.0,713,0.0,2
0.03306000000156928,714,0.21728499999881024,2
0.0,715,0.0,2
0.033239999997022096,716,0.1738279999990482,2
0.0,717,0.0,2
0.0371099999974831,718,0.2171020000023418,2
0.0,719,0.0,2
0.03714000000763917,720,0.22668499999781488,2
0.0,721,0.0,2
0.02885999999125488,722,0.17340100000001257,2
0.0,723,0.0,2
0.02898000000277534,724,0.17010500000105822,2
0.0,725,0.0,2
0.03719999999884749,726,0.21936000000278,2
0.0,727,0.0,2
0.02892000000429107,728,0.1649779999970633,2
0.0,729,0.0,2
0.04523999999946682,730,0.27569600000424543,2
0.0,731,0.0,2
0.020595000001776498,732,0.12414499999795225,2
0.0,733,0.0,2
0.03713999999308726,734,0.21472199999698205,2
0.0,735,0.0,2
0.02892000000429107,736,0.16784700000062003,2
0.0,737,0.0,2
0.0372300000017276,738,0.21856700000353158,2
0.0,739,0.0,2
0.03701999999611871,740,0.22766099999353173,2
0.0,741,0.0,2
0.02892000000429107,742,0.170166000003519,2
0.0,743,0.0,2
0.02885999999853084,744,0.17028800000116462,2
0.0,745,0.0,2
0.04123500000423519,746,0.22857699999804026,2
