method,hits
AWTGVTGlyphVector.computeGlyphLogicalBounds,1
AbstractElement$NamedNodeHashMap.setNamedItem,1
AbstractParser.skipCommaSpaces,1
AbstractRed.copyBand,3
AbstractSVGLengthList$LengthListBuilder.endLengthList,1
Any2sRGBRed.copyData,1
AttributeInfo.<init>,1
Benchmark.fileFromInputStream,16
Chaperone.main,1
ClassPool.getCached,2
CodeAttribute.<init>,1
ComponentTransferRed.copyData,5
ConcreteTextLayoutFactory.createTextLayout,1
ConstPool.readOne,1
CtClassType.getClassFile3,1
CtClassType.getInterfaces,1
Curve.insertMove,1
DacapoClassLoader.loadClass,9
ExtendedGeneralPath.lineTo,1
ExtensibleDOMImplementation.createCSSEngine,1
FileChannelImpl.position0,1
FileChannelImpl.size,1
FileDispatcherImpl.read0,1
Font2D.getFontMetrics,1
FontFamilyResolver.<clinit>,1
FontManagerFactory$1.run,1
GaussianBlurRed8Bit.boxFilterH,2
GaussianBlurRed8Bit.boxFilterV,4
GlyphLayout.getGlyphCount,1
GraphicsPrimitiveMgr.initIDs,1
GraphicsUtil.convertToLsRGB,1
GraphicsUtil.copyData,6
GraphicsUtil.copyData_INT_PACK,1
GraphicsUtil.divide_INT_PACK_Data,1
GraphicsUtil.drawImage,1
GraphicsUtil.mult_INT_PACK_Data,1
Handler.parseURL,1
IDATOutputStream.flush,1
IDATOutputStream.writeInt,1
IdentifierManager.createValue,1
ImagingLib.transformBI,1
JPEGImageDecoderImpl.readJPEGStream,1
Launcher$AppClassLoader.loadClass,2
MethodInfo.read,1
MorphologyOp.filter,14
MorphologyOp.isBetter,1
NamespaceSupport.reset,1
PNGEncodeParam.filterRow,8
PNGImageEncoder.encodePass,119
PNGRed.<clinit>,1
PNGRed.processPixels,1
PaintServer.convertFillPaint,1
Parser2.parseLiteral,3
PathFiller.setFillMode,1
PathFiller.writeAlpha8,2
PathStroker.endPath,2
Resource.getBytes,5
SVGBridgeExtension.registerTags,1
SVGComposite$OverCompositeContext_INT_PACK_UNPRE.precompose_INT_PACK,2
SVGDOMImplementation.<clinit>,2
SVGFeMorphologyElementBridge.createFilter,1
SVGFontUtilities.getFontFaces,1
SVGStylableElement.getOverrideStyleDeclarationProvider,1
SVGValueConstants.<clinit>,1
Service.providers,1
ShapeSpanIterator.nextSpan,1
StrokingTextPainter.getTextChunkACIs,1
SunFontManager.addDirFonts,1
SunGraphics2D.intersectByArea,1
T2KFontScaler.getGlyphImageNative,1
T2KFontScaler.getGlyphMetricsNative,3
TeeOutputStream.write,1
TransformHelper.Transform,2
TrueTypeFont.readBlock,1
Type1Font.initNames,1
Type1Font.verify,1
URLClassPath$JarLoader$2.getManifest,1
UnicodeDecoder.decodeLoop,1
Utf8Info.<init>,2
X11FontManager.createFontConfiguration,1
XmlReader$Iso8859_1Reader.read,1
