method,package1,package2,dram1,dram2,energy
AWTGVTGlyphVector.computeGlyphLogicalBounds,0.06337500000760579,0.0,0.00963999999657972,0.0,0.07301500000418551
AWTPathProducer.closePath,0.0,0.0,0.0,0.0,0.0
AbstractRed.copyBand,0.10574339999584481,0.0,0.014998499998182525,0.0,0.12074189999402733
AbstractSVGList$ListBuilder.getList,0.0,0.0,0.0,0.0,0.0
Any2sRGBRed.copyData,0.06213366668089292,0.0,0.006909999996423721,0.0,0.06904366667731665
AreaOp.pruneEdges,0.0,0.0,0.0,0.0,0.0
Batik.<init>,0.0,0.06025129663170128,0.0,0.009724647422948785,0.06997594405465006
BatikHistogramNormalizationElementBridge.getLocalName,0.0,0.06092773640006914,0.0,0.009131347542473809,0.07005908394254295
Benchmark.fileFromInputStream,0.0,0.3059520982501034,0.0,0.04412094846605653,0.3500730467161599
Benchmark.postIterationCleanup,0.031596000005568683,0.0,0.00532999999995809,0.0,0.036926000005526774
Benchmark.unpackZipStream,0.0,0.0,0.0,0.0,0.0
BidiAttributedCharacterIterator.<init>,0.0,0.0,0.0,0.0,0.0
CSSConditionalSelector.match,0.0,0.06872497674389377,0.0,0.010471541791534141,0.07919651853542792
Chaperone.main,0.0,0.0,0.0,0.0,0.0
ClassFile.read,0.0,0.0,0.0,0.0,0.0
ClassPool.makeClass,0.0,0.0,0.0,0.0,0.0
ColorManager.<clinit>,0.0,0.0,0.0,0.0,0.0
ComponentTransferRed.copyData,0.11898371428417573,0.0,0.013517142855562266,0.0,0.132500857139738
CompositeGlyphMapper.charsToGlyphs,0.0,0.0,0.0,0.0,0.0
CompositeGraphicsNode.getPrimitiveBounds,0.0725589824422761,0.0,0.004241052632942069,0.0,0.07680003507521817
CompositeRed.fixColorModel,0.07405600000250462,0.0,0.004789999996622403,0.0,0.07884599999912702
ConstPool.read,0.0,0.07298084674807975,0.0,0.010050369387323087,0.08303121613540285
DOMUtilities.isValidName,0.05334474999835948,0.0,0.0042375000011816155,0.0,0.0575822499995411
DacapoClassLoader.loadClass,0.08024066666257568,0.4527707175021463,0.010999999998603016,0.06532010006198197,0.6093314842253069
DuctusRenderingEngine.getAATileGenerator,0.0,0.0,0.0,0.0,0.0
ExtensibleDOMImplementation.createCSSEngine,0.0,0.0,0.0,0.0,0.0
FileFontStrike.getGlyphMetrics,0.08093266667371304,0.0,0.011019999995672452,0.0,0.0919526666693855
FontFamilyResolver.<clinit>,0.0,0.07631851388006214,0.0,0.009690099032863013,0.08600861291292515
FontManagerFactory$1.run,0.0,0.06896762684530734,0.0,0.009577473300949529,0.07854510014625687
FontRunIterator.next,0.08164466667221859,0.0,0.01238000000497171,0.0,0.0940246666771903
GaussianBlurRed8Bit.boxFilterH,0.07389333333897714,0.0,0.007890000003195988,0.0,0.08178333334217314
GaussianBlurRed8Bit.boxFilterV,0.1393168571521528,0.0,0.009514285715080664,0.0,0.14883114286723348
GlyphLayout.doExplicitGlyphLayout,0.07448333333013579,0.0,0.009660000003350431,0.0,0.08414333333348623
GraphicsUtil.copyData,0.26684134998977244,0.0,0.03215756250083359,0.0,0.298998912490606
GraphicsUtil.divide_INT_PACK_Data,0.07421885713535759,0.0,0.006797142859016146,0.0,0.08101599999437373
Handler.parseURL,0.0,0.06708615150325217,0.0,0.010441003487267746,0.07752715499051992
JarURLConnection.<init>,0.0,0.0,0.0,0.0,0.0
LocalizableSupport.lookupResourceBundle,0.0,0.0,0.0,0.0,0.0
LoopPipe.getFillSSI,0.08437100000446662,0.0,0.012420000001535906,0.0,0.09679100000600253
MemberrefInfo.<init>,0.0,0.0,0.0,0.0,0.0
MethodAccessorGenerator.generate,0.0,0.05590192728050634,0.0,0.007527332165212689,0.06342925944571903
MorphologyOp.filter,0.18451933333077855,0.0,0.029145000002851397,0.0,0.21366433333362994
MorphologyOp.isBetter,0.0,0.0,0.0,0.0,0.0
MorphologyRable8Bit.createRendering,0.06525869999604765,0.0,0.011142000000108964,0.0,0.07640069999615662
PNGEncodeParam.filterRow,0.30949320000266495,0.0,0.03681399999792726,0.0,0.34630720000059223
PNGImageEncoder.encodePass,4.294543808728712,0.0,0.4512509126963731,0.0,4.745794721425085
PNGRed.<clinit>,0.0,0.0,0.0,0.0,0.0
PNGRed.createRaster,0.0,0.0,0.0,0.0,0.0
PNGRed.decodePaethFilter,0.0,0.0,0.0,0.0,0.0
PNGRed.processPixels,0.0,0.0,0.0,0.0,0.0
PNGRegistryEntry$1.run,0.0,0.0,0.0,0.0,0.0
ParseUtil.encodePath,0.0,0.028499524436217706,0.0,0.005241101994322713,0.03374062643054042
Parser2.parseLiteral,0.0,0.0,0.0,0.0,0.0
PathFiller.writeAlpha8,0.09112533334215793,0.0,0.013800000000628644,0.0,0.10492533334278657
PathStroker.endPath,0.08656410256009668,0.0,0.010567307692373363,0.0,0.09713141025247005
ProgressMonitor.<clinit>,0.0,0.06586703630023008,0.0,0.010508769775246157,0.07637580607547624
Region.appendSpans,0.12249733333980352,0.0,0.016489999999369804,0.0,0.13898733333917332
Resource.getBytes,0.0,0.0,0.0,0.0,0.0
SVGBridgeExtension.registerTags,0.0,0.0730688525105846,0.0,0.009299449971998035,0.08236830248258264
SVGCSSEngine.<clinit>,0.0,0.07553804299889058,0.0,0.010630194027253364,0.08616823702614394
SVGComposite$OverCompositeContext_INT_PACK_UNPRE.precompose_INT_PACK,0.060221333328324064,0.0,0.0069500000002638744,0.0,0.06717133332858793
SVGDOMImplementation$FilterElementFactory.create,0.057047333335503936,0.0,0.008240000002842862,0.0,0.0652873333383468
SVGDOMImplementation$ImageElementFactory.create,0.08946666667216982,0.0,0.012776923076345178,0.0,0.102243589748515
SVGDOMImplementation$SvgElementFactory.create,0.0,0.0,0.0,0.0,0.0
SVGDOMImplementation.<clinit>,0.0,0.0,0.0,0.0,0.0
SVGValueConstants.<clinit>,0.0,0.0,0.0,0.0,0.0
ShapeSpanIterator.nextSpan,0.07393399999515772,0.0,0.010599999999006588,0.0,0.0845339999941643
StreamNormalizingReader.<clinit>,0.0,0.08516607124343024,0.0,0.011870608764816422,0.09703668000824667
StrokingTextPainter.getTextChunkACIs,0.08156333334045485,0.0,0.013800000000628644,0.0,0.09536333334108349
SunGraphics2D.setTransform,0.0,0.0,0.0,0.0,0.0
SunLayoutEngine.initGVIDs,0.0,0.0,0.0,0.0,0.0
T2KFontScaler.getGlyphImageNative,0.04366066666746822,0.0,0.006900000000314321,0.0,0.05056066666778254
T2KFontScaler.getGlyphMetricsNative,0.06670629824848698,0.0,0.01199500000024145,0.0,0.07870129824872843
T2KFontScaler.getGlyphOutlineNative,0.05729166666666665,0.0,0.012419999999110587,0.0,0.06971166666577724
TestHarness.<init>,0.0,0.0,0.0,0.0,0.0
TransformHelper.Transform,0.1115418333482618,0.0,0.0162790000011834,0.0,0.1278208333494452
TrueTypeFont.<clinit>,0.0,0.053544314155343616,0.0,0.007726463442968184,0.0612707775983118
Type1Font.nextTokenType,0.0,0.08182835373306498,0.0,0.010566595214363941,0.09239494894742892
Type1Font.verify,0.0,0.0,0.0,0.0,0.0
URLClassPath$JarLoader.getResource,0.0,0.0736621355019986,0.0,0.010497177410724869,0.08415931291272347
Utf8Info.<init>,0.0,0.08360318141444484,0.0,0.011931536900322491,0.09553471831476733
Version.getVersion,0.0,0.0,0.0,0.0,0.0
