method,hits
AWTGVTFont.getGlyphGeometry,1
AWTGVTGlyphVector.computeGlyphLogicalBounds,1
AWTPathProducer.startPath,1
AbstractParentNode$ElementsByTagNameNS.initialize,1
AbstractRed.copyBand,5
AbstractSVGPathSegList$PathSegListBuilder.linetoRel,1
AffineRed.<init>,1
Any2sRGBRed.copyData,1
AttributeInfo.read,2
AttributeValues.merge,2
Benchmark.deleteFile,1
Benchmark.fileFromInputStream,7
BridgeContext.dispose,1
CRC.updateCRC,2
CSSEngine.sortRules,1
CSSUtilities.convertEnableBackground,1
CSSUtilities.convertShapeRendering,1
CSSUtilities.getCSSEngine,1
Chaperone.main,1
ClassFile.read,1
ClassPool.getCached,1
ClassPool.makeClass,1
CodeAttribute.<init>,1
ColorManager.<clinit>,1
ComponentTransferRed.copyData,5
ConcreteTextLayoutFactory.createTextLayout,1
DOMUtilities.getPrefix,1
DacapoClassLoader.loadClass,8
DestinationType.getTranscoder,1
DuctusRenderingEngine.feedConsumer,2
DuctusRenderingEngine.getAATileGenerator,1
FcFontManager.getFontPathNative,1
FileFont.createStrike,1
FileURLConnection.getPermission,1
FilterAlphaRable.createRendering,1
FontFamily.setFont,1
GaussianBlurRed8Bit.boxFilterH,2
GaussianBlurRed8Bit.boxFilterV,3
GlyphLayout$SDCache$SDKey.<init>,1
GraphicsNodeRed8Bit.<init>,1
GraphicsPrimitiveMgr.initIDs,1
GraphicsUtil.copyData,6
GraphicsUtil.divide_INT_PACK_Data,2
Handler.parseURL,1
IDATOutputStream.flush,1
IDATOutputStream.writeInt,1
ImagingLib.<clinit>,1
InputEntity.getc,1
IntegerComponentRaster.verify,1
MaskFill.FillAAPgram,1
MaskFill.MaskFill,1
MorphologyOp.filter,12
MorphologyOp.isBetter,2
PNGEncodeParam.filterRow,12
PNGImageEncoder.encodePass,121
PNGRed.<clinit>,2
PNGRed.processPixels,5
PaintServer.convertStrokeMiterlimit,1
Parser2.maybeElement,1
Parser2.parseLiteral,1
PathFiller.writeAlpha8,2
PathStroker.cInitialize,1
PathStroker.endPath,3
Rasterizer.setPenT4,1
Region.appendSpan,1
Resource.getBytes,4
SAXSVGDocumentFactory.createDocument,1
SVGComposite$OverCompositeContext_INT_PACK_UNPRE.precompose_INT_PACK,4
SVGDOMImplementation.createElementNS,1
SVGOMElement.getNodeName,1
SVGTextElementBridge.addContextToChild,1
StandardGlyphVector.initFontData,1
SunGraphics2D.<clinit>,1
SunGraphics2D.getRenderingHints,1
SunGraphicsEnvironment$1.run,1
SunLayoutEngine.nativeLayout,2
T2KFontScaler.getGlyphImageNative,1
T2KFontScaler.getGlyphMetricsNative,3
TransformHelper.Transform,1
TrueTypeFont.init,1
TrueTypeFont.initNames,1
Type1Font.initNames,1
Type1Font.nextTokenType,3
Type1Font.skip,1
URLClassPath$FileLoader.getResource,2
URLClassPath$JarLoader.getResource,1
US_ASCII.newDecoder,1
UTF_8$Decoder.decode,1
X11FontManager.createFontConfiguration,1
XMLReaderImpl.getFeature,1
