method,package1,package2,dram1,dram2,energy
AWTGVTGlyphVector.getGlyphOutline|AWTGVTGlyphVector.getOutline|AWTGVTGlyphVector.getBounds2D,0.0,0.08029511110982168,0.0,0.010066666666211352,0.09036177777603303
AbstractGraphicsNode.getTransformedPrimitiveBounds|AbstractGraphicsNode.getTransformedBounds|CompositeGraphicsNode.getPrimitiveBounds,0.0,0.09544977777706527,0.0,0.01280888888976295,0.10825866666682822
AbstractRed.copyBand|FilterAlphaRed.copyData|PadRed.copyData,0.0,0.14157671922338155,0.0,0.022758383217722833,0.16433510244110439
AlgorithmDecomposer.<clinit>|DisabledAlgorithmConstraints.<init>|SignatureFileVerifier.<clinit>,0.0,0.05950047606210255,0.0,0.010271827907738038,0.06977230396984059
AlignmentBaselineManager.<clinit>|SVGCSSEngine.<clinit>|SVGDOMImplementation.createCSSEngine,0.0,0.0,0.0,0.0,0.0
Any2sRGBRed.copyData|FormatRed.copyData|AbstractRed.getData,0.14218602822850035,0.0,0.022769001510575426,0.0,0.16495502973907578
AttributeInfo.<init>|LineNumberAttribute.<init>|AttributeInfo.read,0.0,0.06273055985654047,0.0,0.00902019315339591,0.07175075300993639
BatikBridgeExtension.registerTags|BridgeContext.registerSVGBridges|BridgeContext.setDocument,0.0,0.0,0.0,0.0,0.0
Benchmark.fileFromInputStream|Benchmark.extractFileResource|Benchmark.prepareJars,0.0,0.21429262883163727,0.0,0.030752236935721617,0.2450448657673589
Benchmark.fileFromInputStream|Benchmark.unpackZipStream|Benchmark.unpackZipFileResource,0.0,0.13030578623839606,0.0,0.020242660737064433,0.1505484469754605
Benchmark.initialize|Benchmark.<init>|Batik.<init>,0.0,0.019090219935225423,0.0,0.0029044919668643047,0.02199471190208973
ByteInterleavedRaster.getPixels|GraphicsUtil.copyData_FALLBACK|GraphicsUtil.copyData,0.06684680380902026,0.0,0.0109126449741667,0.0,0.07775944878318697
ByteInterleavedRaster.setPixels|GraphicsUtil.copyData_FALLBACK|GraphicsUtil.copyData,0.0,0.0,0.0,0.0,0.0
CRC.updateCRC|IDATOutputStream.flush|IDATOutputStream.write,0.05192033334363562,0.0,0.0038899999975304423,0.0,0.055810333341166064
CSSEngine.disposeStyleMaps|CSSEngine.disposeStyleMaps|CSSEngine.disposeStyleMaps,0.0,0.04762766666681273,0.0,0.006900000000314321,0.05452766666712705
Chaperone.main,0.051757666670406856,0.0,0.005135000001852554,0.0,0.05689266667225941
ClassFile.read|ClassFile.<init>|CtClassType.<init>,0.0,0.0,0.0,0.0,0.0
ClassPool.cacheCtClass|ClassPool.makeClass|ClassPool.makeClass,0.0,0.14852874666530014,0.0,0.01633279999931498,0.1648615466646151
ComponentTransferRed.copyData|PadRed.copyData|CompositeRed.genRect,0.0,0.0,0.0,0.0,0.0
ConcreteTextLayoutFactory.createTextLayout|StrokingTextPainter.getTextChunk|StrokingTextPainter.computeTextRuns,0.0,0.0,0.0,0.0,0.0
ConfigFile.<init>|ConfigFile.<init>|Config.parse,0.0,0.0,0.0,0.0,0.0
ConstPool.readOne|ConstPool.read|ConstPool.<init>,0.0,0.06595541227404669,0.0,0.010365177821952593,0.07632059009599929
CtBehavior.insertAfter|CtBehavior.insertAfter|ThreadCoreMapInjector.transform,0.0,0.09279482666548572,0.0,0.009063999999392156,0.10185882666487787
CtClassType.<init>|ClassPool.makeClass|ClassPool.makeClass,0.0,0.0,0.0,0.0,0.0
DacapoClassLoader.loadClass|ClassLoader.loadClass|DestinationType.getTranscoder,0.0,0.005561364343020417,0.0,0.0006948724968203348,0.006256236839840752
DacapoClassLoader.loadClass|ClassLoader.loadClass|Main.<clinit>,0.0,0.045562280637862725,0.0,0.007256391471255464,0.05281867210911819
DacapoClassLoader.loadClass|ClassLoader.loadClass|SVGAbstractTranscoder.<init>,0.0,0.0,0.0,0.0,0.0
DacapoClassLoader.loadClass|ClassLoader.loadClass|SVGDOMImplementation.<clinit>,0.0,0.0,0.0,0.0,0.0
DacapoClassLoader.loadClass|ClassLoader.loadClass|SVGDOMImplementation.createElementNS,0.0,0.0,0.0,0.0,0.0
DacapoClassLoader.loadClass|ClassLoader.loadClass|SVGFilterElementBridge.createFilter,0.0,0.0,0.0,0.0,0.0
DestinationType.getTranscoder|SVGConverter.execute|Main.execute,0.0,0.0,0.0,0.0,0.0
FileDispatcherImpl.read0|FileDispatcherImpl.read|IOUtil.readIntoNativeBuffer,0.054709119280874935,0.0,0.005513775313382903,0.0,0.060222894594257836
FontManagerFactory$1.run|AccessController.doPrivileged|FontManagerFactory.getInstance,0.05977564583472358,0.0,0.0053375742049676074,0.0,0.06511322003969118
GVTBuilder.buildComposite|GVTBuilder.buildGraphicsNode|GVTBuilder.buildComposite,0.0,0.13533533333369024,0.0,0.018885000000106324,0.15422033333379656
GaussianBlurRed8Bit.boxFilterH|GaussianBlurRed8Bit.copyData|PadRed.copyData,0.0,0.06451532062775604,0.0,0.009314683842400159,0.0738300044701562
GaussianBlurRed8Bit.boxFilterV|GaussianBlurRed8Bit.copyData|PadRed.copyData,0.0,0.15282190270556356,0.0,0.020135445594536595,0.17295734830010015
GraphicsUtil.copyData|GraphicsUtil.copyData|FormatRed.copyData,0.12343596265832155,0.0,0.015072952191442595,0.0,0.13850891484976413
GraphicsUtil.copyData|GraphicsUtil.copyData|MorphologyOp.filter,0.0,0.0,0.0,0.0,0.0
GraphicsUtil.divide_INT_PACK_Data|GraphicsUtil.divideAlpha|GraphicsUtil.coerceData,0.0,0.0,0.0,0.0,0.0
IDATOutputStream.flush|IDATOutputStream.write|DeflaterOutputStream.deflate,0.0,0.0,0.0,0.0,0.0
IDATOutputStream.writeInt|IDATOutputStream.flush|IDATOutputStream.write,0.05015066666722608,0.0,0.004185000000385722,0.0,0.054335666667611804
ImagingLib.transformBI|ImagingLib.filter|AffineTransformOp.filter,0.0,0.08610230046790363,0.0,0.014188012195131312,0.10029031266303494
Launcher$AppClassLoader.loadClass|ClassLoader.loadClass|Class.forName0,0.0,0.0,0.0,0.0,0.0
Launcher$AppClassLoader.loadClass|ClassLoader.loadClass|TestHarness.main,0.0,0.0,0.0,0.0,0.0
LocalizableSupport.formatMessage|Messages.formatMessage|Main.proceedWithComputedTask,0.0,0.0,0.0,0.0,0.0
LoopPipe.getFillSSI|SunGraphics2D.validateCompClip|SunGraphics2D.setClip,0.0,0.0,0.0,0.0,0.0
Main.<clinit>|Class.forName0|Class.forName,0.0,0.03696506576879559,0.0,0.005777597557426967,0.042742663326222556
MorphologyOp.filter|MorphologyOp.filter|MorphologyRable8Bit.createRendering,0.0,0.41731761678951423,0.0,0.06030292900081323,0.4776205457903275
MorphologyOp.isBetter|MorphologyOp.filter|MorphologyOp.filter,0.0,0.058303760510837466,0.0,0.008347113035597462,0.06665087354643492
NameAndTypeInfo.<init>|ConstPool.readOne|ConstPool.read,0.0,0.0,0.0,0.0,0.0
PNGEncodeParam.filterRow|PNGImageEncoder.encodePass|PNGImageEncoder.writeIDAT,0.11912033334374425,0.29881229090006656,0.00886000000415758,0.043759635934317836,0.47055226018228624
PNGImageEncoder.encodePass|PNGImageEncoder.writeIDAT|PNGImageEncoder.encode,1.8591103332970913,1.7798109283553942,0.14293500000349013,0.25999965181194284,4.041855913467918
PNGRed.paethPredictor|PNGRed.decodePaethFilter|PNGRed.decodePass,0.0,0.0,0.0,0.0,0.0
PNGRed.processPixels|PNGRed.decodePass|PNGRed.decodeImage,0.1510953338555814,0.0,0.021443822769632727,0.0,0.17253915662521413
Parser2.parseLiteral|Parser2.maybeElement|Parser2.content,0.0,0.10383679720339524,0.0,0.01085025509581429,0.11468705229920953
PathFiller.reset|Rasterizer.reset|DuctusRenderingEngine.dropRasterizer,0.0,0.15460200000112914,0.0,0.023009999997157138,0.17761199999828628
PathStroker.cInitialize|PathStroker.<init>|DuctusRenderingEngine.createStrokedShape,0.0,0.0,0.0,0.0,0.0
PathStroker.endPath|DuctusRenderingEngine.feedConsumer|DuctusRenderingEngine.createStrokedShape,0.0,0.15417131253835498,0.0,0.021671507609237486,0.17584282014759245
Resource.getBytes|URLClassLoader.defineClass|URLClassLoader.access$100,0.0,0.09354589510229226,0.0,0.01306849555135244,0.1066143906536447
SAXDocumentFactory.appendStringData|SAXDocumentFactory.startElement|Parser2.maybeElement,0.0,0.08489999999922777,0.0,0.013105000000602256,0.09800499999983003
SAXSVGDocumentFactory.createDocument|SAXSVGDocumentFactory.createDocument|XMLAbstractTranscoder.transcode,0.0,0.06910393161907566,0.0,0.011242642334181298,0.08034657395325695
SVGAnimatedPathDataSupport.handlePathSegList|SVGPathElementBridge.buildShape|SVGShapeElementBridge.createGraphicsNode,0.0,0.06105533333417649,0.0,0.008285000001099736,0.06934033333527623
SVGCSSEngine.<clinit>|SVGDOMImplementation.createCSSEngine|ExtensibleDOMImplementation.createCSSEngine,0.0,0.04614276922970581,0.0,0.006332307693530589,0.0524750769232364
SVGComposite$OverCompositeContext_INT_PACK_UNPRE.precompose_INT_PACK|SVGComposite$AlphaPreCompositeContext_INT_PACK.precompose|SVGComposite$OverCompositeContext_INT_PACK_UNPRE.compose,0.0,0.07888263355813722,0.0,0.01105281180827039,0.08993544536640762
SVGDOMImplementation.<clinit>|SVGAbstractTranscoder.<init>|ImageTranscoder.<init>,0.0,0.07494511253363144,0.0,0.012192805726795715,0.08713791826042716
SVGShapeElementBridge.instantiateGraphicsNode|AbstractGraphicsNodeBridge.createGraphicsNode|SVGShapeElementBridge.createGraphicsNode,0.0,0.0721233333327594,0.0,0.009934999999434995,0.0820583333321944
SecuritySupport$5.run|AccessController.doPrivileged|SecuritySupport.doesFileExist,0.0,0.0679562839224654,0.0,0.00972342131806384,0.07767970524052924
SoftDoublyIndexedTable.removeClearedEntries|SoftDoublyIndexedTable.put|AbstractDocument.putElementsByTagNameNS,0.0,0.0,0.0,0.0,0.0
StandardGlyphVector.getGlyphMetrics|AWTGVTFont.getGlyphGeometry|AWTGVTGlyphVector.getGlyphMetrics,0.0,0.0,0.0,0.0,0.0
SunFontManager.addDirFonts|SunFontManager.registerFontsInDir|SunFontManager.registerFontsOnPath,0.06035889452802962,0.0,0.00918579644859062,0.0,0.06954469097662025
SunGraphics2D.intersectByArea|SunGraphics2D.intersectRectShape|SunGraphics2D.intersectShapes,0.0,0.0,0.0,0.0,0.0
T2KFontScaler.getGlyphMetricsNative|T2KFontScaler.getGlyphMetrics|FileFont.getGlyphMetrics,0.0,0.08646633333167604,0.0,0.011685000000094684,0.09815133333177073
TransformHelper.Transform|DrawImage.renderImageXform|DrawImage.transformImage,0.0,0.0,0.0,0.0,0.0
TrueTypeFont$1.run|AccessController.doPrivileged|TrueTypeFont.open,0.0,0.0,0.0,0.0,0.0
TrueTypeFont.getFamilyName|SunFontManager.getInstalledFontFamilyNames|SunGraphicsEnvironment.getAvailableFontFamilyNames,0.0464408426167417,0.0,0.007984336341009451,0.0,0.054425178957751154
TrueTypeFont.getMapper|Font2D.getMissingGlyphCode|CompositeGlyphMapper.initMapper,0.0,0.0,0.0,0.0,0.0
TrueTypeFont.initNames|TrueTypeFont.init|TrueTypeFont.<init>,0.053605253074831216,0.0,0.006696364093582562,0.0,0.06030161716841378
Type1Font$1.run|AccessController.doPrivileged|Type1Font.getBuffer,0.04535728079484053,0.0,0.0011452715034331454,0.0,0.04650255229827367
Type1Font.getSimpleToken|Type1Font.initNames|Type1Font.verify,0.0,0.0,0.0,0.0,0.0
Type1Font.initNames|Type1Font.verify|Type1Font.<init>,0.026628908571693557,0.0,0.0,0.0,0.026628908571693557
Type1Font.nextTokenType|Type1Font.initNames|Type1Font.verify,0.0,0.0,0.0,0.0,0.0
URLClassPath$JarLoader.getJarFile|URLClassPath$JarLoader.access$800|URLClassPath$JarLoader$1.run,0.0,0.0,0.0,0.0,0.0
X11FontManager.createFontConfiguration|SunFontManager$2.run|AccessController.doPrivileged,0.0,0.0,0.0,0.0,0.0
XMLReaderImpl.parse|SAXDocumentFactory.createDocument|SAXDocumentFactory.createDocument,0.0,0.040373425505247085,0.0,0.007013018935000278,0.047386444440247366
XmlChars.isChar|InputEntity.unparsedContent|Parser2.content,0.0,0.053624362475501695,0.0,0.006472277249037945,0.060096639724539644
