method,package1,package2,dram1,dram2,energy
Arrays,0.0762326666736044,0.0,0.010979999999108259,0.0,0.08721266667271266
BandCombineOp,0.06693527776709138,0.0,0.01032083333686589,0.0,0.07725611110395728
BufferedInputStream,0.0,0.0,0.0,0.0,0.0
CharacterDataLatin1,0.058932805557560634,0.0,0.008818333330661213,0.0,0.06775113888822185
ClassLoader,0.40156612820320353,0.0,0.06022884614914147,0.0,0.461794974352345
ColorModel,0.0,0.0,0.0,0.0,0.0
DataBufferByte,0.05506722222586783,0.0,0.009183333329727046,0.0,0.06425055555559488
DataBufferInt,0.08646633333410136,0.0,0.00984500000049593,0.0,0.0963113333345973
DataInputStream,0.0,0.0,0.0,0.0,0.0
Deflater,3.9994659393523766,0.0,0.3071852840976135,0.0,4.30665122344999
FileOutputStream,0.16760233334692504,0.0,0.024994999999762513,0.0,0.19259733334668755
Font,0.0,0.0,0.0,0.0,0.0
HeapByteBuffer,0.06490066666932155,0.0,0.007474999998521525,0.0,0.07237566666784308
Inflater,0.5837098740629799,0.0,0.07972811110834029,0.0,0.6634379851713202
LookupOp,0.0,0.0,0.0,0.0,0.0
Math,0.0,0.0,0.0,0.0,0.0
Path2D$Float,0.07497837036606614,0.0,0.009782222220329222,0.0,0.08476059258639536
Point2D$Double,0.0,0.0,0.0,0.0,0.0
Raster,0.0,0.0,0.0,0.0,0.0
SinglePixelPackedSampleModel,0.24483272222924923,0.0,0.0228449999995064,0.0,0.26767772222875563
Throwable,0.0,0.0,0.0,0.0,0.0
ZipFile$ZipFileInflaterInputStream,0.052392533328384165,0.0,0.007240000000456348,0.0,0.05963253332884051
