method,package1,package2,dram1,dram2,energy
Area,0.0,0.0,0.0,0.0,0.0
ArrayDeque,0.0,0.0,0.0,0.0,0.0
ArrayList,0.03880950169353257,0.0,0.0047933454106349116,0.0,0.04360284710416748
Arrays,0.01216804347880559,0.0,0.0019756277209364427,0.0,0.014143671199742034
BitSet,0.05743212485581565,0.0,0.009184241714319993,0.0,0.06661636657013564
BufferedInputStream,0.2906224746625602,0.04123933333175955,0.047996430491753984,0.005829999999453624,0.38568823848552736
Character,0.03432702748591969,0.0,0.006340053929249402,0.0,0.040667081415169094
ClassLoader,0.24222403400208004,0.0,0.03851991644287377,0.0,0.2807439504449538
ColorModel,0.0,0.11425766666676887,0.0,0.015060000000327516,0.12931766666709638
ComponentSampleModel,0.0,0.12463550000039605,0.0,0.01379583333275352,0.13843133333314958
DataBufferInt,0.11525806225052011,0.0,0.01762602571200638,0.0,0.1328840879625265
Deflater,3.6053310539467156,0.0,0.43391664757518233,0.0,4.039247701521898
FileOutputStream,0.0,0.0,0.0,0.0,0.0
Format,0.0,0.0,0.0,0.0,0.0
Formatter,0.0,0.0,0.0,0.0,0.0
HashMap,0.0,0.14107266666663534,0.0,0.01864999999816064,0.15972266666479598
HashMap$TreeNode,0.0,0.0,0.0,0.0,0.0
Hashtable,0.0,0.0,0.0,0.0,0.0
Inflater,0.30222736183795074,0.0,0.04054943672001506,0.0,0.3427767985579658
LookupOp,0.0,0.0,0.0,0.0,0.0
Path2D,0.06938137299565295,0.0,0.005669302548649058,0.0,0.075050675544302
Path2D$Float,0.0,0.0,0.0,0.0,0.0
RandomAccessFile,0.0,0.05819700000029116,0.0,0.008234999999331194,0.06643199999962235
SinglePixelPackedSampleModel,0.18680486111686026,0.0,0.025880544757220483,0.0,0.21268540587408075
String,0.06392094443851637,0.0,0.011207700555575488,0.0,0.07512864499409186
StringBuffer,0.0,0.0,0.0,0.0,0.0
StringCoding,0.0,0.0,0.0,0.0,0.0
TextLayout,0.06258267246877276,0.0,0.007709713404319039,0.0,0.0702923858730918
UnixFileSystem,0.0,0.0,0.0,0.0,0.0
Vector,0.0,0.0,0.0,0.0,0.0
WritableRaster,0.0,0.0,0.0,0.0,0.0
ZipEntry,0.04998393135236279,0.0,0.006260254320367758,0.0,0.05624418567273055
ZipFile,0.05524709588932071,0.0,0.006306604960135879,0.0,0.06155370084945659
