method,package1,package2,dram1,dram2,energy
AffineTransform,0.05643112821137317,0.0,0.002986923078424297,0.0,0.05941805128979747
Arrays,0.0,0.0,0.0,0.0,0.0
BandCombineOp,0.0,0.08558480614673421,0.0,0.009850035892327087,0.0954348420390613
Bidi,0.0,0.08500997334787289,0.0,0.01126630815603652,0.0962762815039094
BufferedInputStream,0.06020099999538313,0.06992064962909969,0.007914999997107467,0.010506334230098332,0.1485429838516886
Class,0.0,0.0,0.0,0.0,0.0
ClassLoader,0.0,0.3047261952679067,0.0,0.04242377369735073,0.3471499689652574
ColorModel,0.0,0.0,0.0,0.0,0.0
ConcurrentHashMap,0.0,0.0972874364620462,0.0,0.011751930867782916,0.1090393673298291
DataInputStream,0.0,0.0,0.0,0.0,0.0
Deflater,1.632945185145041,0.5663006112614024,0.10774918803734573,0.08919976966518918,2.3961947541089783
FileOutputStream,0.0,0.07126900000002934,0.0,0.00998499999938455,0.08125399999941389
HashMap,0.0,0.14816096196000553,0.0,0.020073971295544044,0.16823493325554956
Hashtable$Enumerator,0.0,0.060704583334124124,0.0,0.009607499999219726,0.07031208333334385
Inflater,0.04648833332854944,0.281921333335049,0.003579999999298403,0.036710000000311986,0.36869966666320886
InflaterInputStream,0.0,0.0,0.0,0.0,0.0
JarFile,0.0,0.0,0.0,0.0,0.0
Path2D$Double,0.0,0.0,0.0,0.0,0.0
Path2D$Float,0.0,0.0743808577637318,0.0,0.010690913158257369,0.08507177092198917
Pattern,0.0,0.0,0.0,0.0,0.0
Properties$LineReader,0.0,0.009790958333117791,0.0,0.0011899999996482313,0.010980958332766022
RandomAccessFile,0.0,0.0,0.0,0.0,0.0
SinglePixelPackedSampleModel,0.05331755554976149,0.23412033087138806,0.0025133333353248113,0.02972542268924139,0.31967664244571575
String,0.0,0.0,0.0,0.0,0.0
StringTokenizer,0.0,0.0,0.0,0.0,0.0
Thread,0.0,0.0,0.0,0.0,0.0
TreeMap,0.0,0.0,0.0,0.0,0.0
URL,0.0,0.04599279912760755,0.0,0.006108975025234299,0.05210177415284185
UnixFileSystem,0.0,0.05406713692983707,0.0,0.006929671619795064,0.06099680854963213
WeakHashMap,0.0,0.11090300459002199,0.0,0.01187691417471658,0.12277991876473857
ZipFile,0.0,0.11047366666631812,0.0,0.014439999999012796,0.12491366666533092
ZipInputStream,0.0,0.0,0.0,0.0,0.0
