method,package1,package2,dram1,dram2,energy
AbstractMap,0.0,0.04783133333330625,0.0,0.009174999999231659,0.057006333332537906
AccessController,0.0,0.0,0.0,0.0,0.0
AffineTransform,0.052085181811972615,0.0,0.006758181820094415,0.0,0.05884336363206703
Arrays,0.0,0.0,0.0,0.0,0.0
BandCombineOp,0.0,0.0,0.0,0.0,0.0
Buffer,0.08044842486627507,0.0,0.008441483475095265,0.0,0.08888990834137034
BufferedInputStream,0.06461500391835301,0.0,0.009320171489674936,0.0,0.07393517540802795
Class,0.0,0.04733611110977008,0.0,0.008033333334525295,0.055369444444295375
ClassLoader,0.0934931379389782,0.024855187499800497,0.008524725456286564,0.006166875000114184,0.13303992589517943
ColorModel,0.0,0.0,0.0,0.0,0.0
ComponentSampleModel,0.0,0.08331277777769072,0.0,0.012874999999136586,0.09618777777682731
DataBufferByte,0.0,0.0,0.0,0.0,0.0
DataInputStream,0.0,0.0,0.0,0.0,0.0
Deflater,0.0,3.662199407404841,0.0,0.5740711111125333,4.236270518517374
FileOutputStream,0.033448488085374734,0.0990399999997559,0.00037195983383106615,0.01508999999835699,0.1479504479173187
FontRenderContext,0.0,0.0,0.0,0.0,0.0
Hashtable,0.0991949512512671,0.0,0.01218301057520548,0.0,0.11137796182647257
HeapByteBuffer,0.033567198643615084,0.0,0.005277599587393998,0.0,0.03884479823100908
ICC_Profile,0.0,0.0,0.0,0.0,0.0
Inflater,0.26923555173155156,0.0,0.032550393974159,0.0,0.30178594570571055
LookupOp,0.0,0.11814366666537049,0.0,0.01996000000023438,0.13810366666560486
Object,0.0,0.05993633333370476,0.0,0.010785000001002723,0.07072133333470748
PackedColorModel,0.0,0.0,0.0,0.0,0.0
Path2D$Double,0.06714149353373855,0.0,0.008693256288339252,0.0,0.0758347498220778
Path2D$Float$CopyIterator,0.0,0.0,0.0,0.0,0.0
Pattern,0.0,0.0,0.0,0.0,0.0
Raster,0.0,0.0,0.0,0.0,0.0
RenderingHints,0.07157161769190305,0.0,0.008708649361259379,0.0,0.08028026705316244
SinglePixelPackedSampleModel,0.0,0.44610600000184303,0.0,0.066905000002104,0.5130110000039471
String,0.0,0.0,0.0,0.0,0.0
Throwable,0.18352278357223964,0.0,0.022562059571675345,0.0,0.20608484314391498
URL,0.04326698592484975,0.0,0.007449329255678623,0.0,0.050716315180528375
UnixFileSystem,0.05333707100744354,0.08038300000043819,0.0050226447993967464,0.01650000000032984,0.1552427158076083
Vector,0.0,0.0,0.0,0.0,0.0
ZipFile,0.04939534810653506,0.0,0.0037168971742271174,0.0,0.05311224528076217
