method,hits
AAShapePipe.renderTiles,1
AWTGVTGlyphVector.getGlyphMetrics,1
AbstractElement$NamedNodeHashMap.hashCode,1
AbstractGraphicsNode.getBounds,1
AbstractParser.skipCommaSpaces,1
AbstractSVGTransformList.doParse,1
Array.getLength,1
ArrayList.<init>,1
ArrayList.add,1
ArrayList.calculateCapacity,1
Arrays.copyOf,1
AttributeInfo.read,1
AttributedString$AttributeMap.entrySet,1
BandCombineOp.filter,5
BatikBridgeExtension.registerTags,1
BufferedInputStream.<init>,2
BufferedInputStream.read,6
ByteInterleavedRaster.getPixels,1
ByteInterleavedRaster.setPixels,1
CRC.updateCRC,2
CSSUtilities.convertEnableBackground,1
Class.forName0,1
ClassLoader.defineClass1,8
ClassLoader.findBootstrapClass,1
ClassLoader.preDefineClass,1
ColorModel.getLinearRGB16TosRGB8LUT,3
CompositeGraphicsNode.getPrimitiveBounds,1
ConstPool.readOne,1
CtClassType.getClassFile3,1
DataBuffer.<clinit>,1
DataBufferInt.getElem,1
DataBufferInt.setElem,1
DefaultBrokenLinkProvider.<clinit>,1
Deflater.deflateBytes,92
DisabledAlgorithmConstraints$Constraints.<init>,1
Ellipse2D.getPathIterator,1
ExpiringCache.put,1
ExtensibleDOMImplementation.createCSSEngine,1
FcFontManager.getFontPathNative,1
FileChannel.<init>,1
FileOutputStream.write,1
FileOutputStream.writeBytes,3
FilterOutputStream.write,1
FontShorthandManager.<clinit>,1
GaussianBlurRable8Bit.createRendering,1
GaussianBlurRed8Bit.boxFilterH,2
GaussianBlurRed8Bit.boxFilterV,2
GlyphLayout.doExplicitGlyphLayout,1
GraphicsUtil.<clinit>,1
GraphicsUtil.copyData,2
GraphicsUtil.divide_INT_PACK_Data,1
GraphicsUtil.mult_INT_PACK_Data,1
HashMap.<init>,1
Image.<clinit>,1
Inflater.inflateBytes,16
InflaterInputStream.<init>,1
InputEntity.parsedContent,1
LocalizableSupport.formatMessage,1
LocalizableSupport.getCurrentLocale,1
LookupOp.byteFilter,2
MorphologyOp.filter,7
MorphologyOp.isBetter,2
Object.<init>,1
OpacityManager.isInheritedProperty,1
PNGEncodeParam.filterRow,10
PNGImageEncoder.encodePass,3
PNGRed.paethPredictor,1
PNGRed.processPixels,1
PNGRegistryEntry.handleStream,1
PaintServer.resolveColorComponent,1
ParseUtil.encodePath,1
ParsedURL.<clinit>,1
Path2D$Float$CopyIterator.currentSegment,1
PathStroker.endPath,3
Raster.createInterleavedRaster,1
Rasterizer.<init>,1
Rectangle2D.intersects,1
RenderingHints.put,1
SVGComposite$OverCompositeContext_INT_PACK_UNPRE.precompose_INT_PACK,3
SVGDOMImplementation$SvgElementFactory.create,1
SVGDOMImplementation.<clinit>,1
SVGDOMImplementation.createDocument,1
SVGDOMImplementation.createElementNS,1
SVGOMAnimatedLengthList$AnimSVGLengthList.getNumberOfItems,1
SVGOMElement.getNodeName,1
SVGTextElementBridge.getLocation,1
ShapeNode.setShape,1
ShapeSpanIterator.nextSpan,1
SinglePixelPackedSampleModel.getPixels,2
SinglePixelPackedSampleModel.setPixels,2
SinglePixelPackedSampleModel.setSamples,1
String.startsWith,1
StringBuffer.append,1
StringNormalizingReader.read,1
StrokingTextPainter.computeTextRuns,1
StyleMap.putValue,1
SunFontManager.addToFontList,1
SunGraphics2D.setRenderingHint,2
SunGraphicsEnvironment.createGraphics,1
SunLayoutEngine.nativeLayout,1
SurfaceType.<clinit>,1
System.nanoTime,1
T2KFontScaler.getGlyphMetricsNative,6
Thread.currentThread,1
TransformHelper.Transform,1
TrueTypeGlyphMapper.<init>,1
UnixFileSystem.getLastModifiedTime,1
Vector.addElement,1
X11GraphicsEnvironment.<clinit>,1
ZipCoder.encoder,1
ZipFile.getEntry,1
ZipFile.read,3
