method,hits
AWTGVTGlyphVector.computeGlyphLogicalBounds,1
AffineTransform.concatenate,1
Any2sRGBRed.applyLut_INT,1
AttributeValues.update,1
AttributedString$AttributeMap.get,1
BandCombineOp.filter,1
BatikBridgeExtension.registerTags,1
BridgeContext.getFontFamilyMap,1
BufferedInputStream.<init>,2
BufferedInputStream.read,7
CSSLexicalUnit.createSimple,1
CSSUtilities.getCSSEngine,1
Class.forName0,2
ClassLoader.defineClass1,8
ClassLoader.findBootstrapClass,1
ClassPool.getCached,1
CodePointIterator.create,1
ColorModel.getLinearRGB16TosRGB8LUT,1
CommandLineArgs.<clinit>,1
ComponentSampleModel.getPixel,1
ConcurrentHashMap$Traverser.advance,1
DataBuffer.<clinit>,1
DataBufferInt.setElem,3
DataInputStream.readUnsignedShort,1
Deflater.deflateBytes,125
Disposer.addRecord,1
DuctusRenderingEngine.getAATileGenerator,3
DuctusRenderingEngine.getRasterizer,1
FcFontManager.getFontPathNative,1
File.getPrefixLength,1
FileOutputStream.open0,1
FileOutputStream.writeBytes,2
Float.floatToRawIntBits,1
Font.<clinit>,1
Font.hashCode,1
Font2D.getFontMetrics,1
FontFamily.<clinit>,1
FontRenderContext.equals,1
GaussianBlurRed8Bit.boxFilterV,4
GlyphLayout$GVData.createGlyphVector,1
GlyphLayout.doExplicitGlyphLayout,1
GraphicsPrimitiveMgr.initIDs,2
GraphicsUtil.divide_INT_PACK_Data,3
GraphicsUtil.mult_INT_PACK_Data,2
HashMap$KeyIterator.next,1
HashMap.resize,1
Hashtable.get,1
ImagingLib.<clinit>,1
Inflater.inflateBytes,18
LinkedList.listIterator,1
LookupOp.byteFilter,2
Math.floor,1
MessageFormat.subformat,1
MethodAccessorGenerator.generate,1
MorphologyOp.filter,11
MorphologyOp.isBetter,2
PNGEncodeParam.filterRow,3
PNGImageEncoder.encodePass,3
PNGImageEncoder.writeIDAT,1
PNGTranscoderInternalCodecWriteAdapter.writeImage,1
ParseUtil.encodePath,1
Parser2.parseLiteral,1
Path2D$Double.getBounds2D,1
PathFiller.writeAlpha8,2
PathParser._parsel,1
PathStroker.appendLine,1
PathStroker.endPath,3
PerformanceLogger.<clinit>,1
Raster.createWritableRaster,1
Raster.getPixel,1
Rectangle2D$Double.getX,1
Region.needSpace,1
SAXDocumentFactory.startElement,1
SAXParserImpl.<init>,1
SVGAnimatedPathDataSupport.handlePathSegList,1
SVGCSSEngine.<clinit>,1
SVGComposite$OverCompositeContext_INT_PACK_UNPRE.precompose_INT_PACK,1
SVGDOMImplementation.createElementNS,2
SVGOMAnimatedLengthList$AnimSVGLengthList.<init>,1
SVGOMAnimatedPathData$BaseSVGPathSegList.getValueAsString,1
SVGOMElement.setPrefix,1
SVGShapeElementBridge.createGraphicsNode,1
SVGStylableElement$OverrideStyleDeclaration.<init>,1
SVGTextElementBridge.getFontList,1
SecureClassLoader.getProtectionDomain,1
SinglePixelPackedSampleModel.getPixels,2
SinglePixelPackedSampleModel.getSamples,1
SinglePixelPackedSampleModel.setPixels,4
SinglePixelPackedSampleModel.setSamples,4
StandardGlyphVector.getLogicalBounds,1
StandardGlyphVector.setGlyphTransform,1
StateTrackableDelegate.markDirty,1
StaticRenderer.updateWorkingBuffers,1
String.length,1
StringBuffer.append,1
StringCoding$StringEncoder.encode,1
StringNormalizingReader.read,1
SunFontManager.initIDs,1
T2KFontScaler.getGlyphImageNative,1
T2KFontScaler.getGlyphMetricsNative,5
TextNode.<init>,1
TextPaintInfo.set,1
URLClassLoader.findClass,1
URLClassPath.getNextLoader,1
ZipCoder.toString,1
ZipFile$ZipFileInflaterInputStream.close,1
ZipFile.read,1
ZipInputStream.<init>,1
