method,hits
AWTGVTFont.getLineMetrics,1
AbstractGraphicsNode.invalidateGeometryCache,1
AbstractGraphicsNodeBridge.initializeDynamicSupport,1
AbstractSVGPathSegList.doParse,1
AccessController.doPrivileged,1
AlignmentBaselineManager.<clinit>,1
BandCombineOp.filter,5
BatikDomExtension.registerTags,1
BidiAttributedCharacterIterator.<init>,1
BufferedImage.isStandard,1
BufferedInputStream.read,6
ByteInterleavedRaster.getPixels,1
ClassLoader.checkCerts,1
ClassLoader.defineClass1,6
ClassPool.getDefault,1
ColorModel.getLinearRGB16TosRGB8LUT,3
CommandLine.resolveOption,1
ConfigFileTokenManager.jjCheckNAdd,1
DataInputStream.readUnsignedShort,1
Deflater.deflateBytes,129
DisabledAlgorithmConstraints$Constraints.<init>,1
DoublyIndexedTable.<init>,1
FileFontStrike.getGlyphMetrics,1
FileOutputStream.write,1
FileOutputStream.writeBytes,4
FontRunIterator.init,1
Formatter.parse,1
GVTBuilder.build,1
GaussianBlurRed8Bit.boxFilterH,2
GaussianBlurRed8Bit.boxFilterV,5
GlyphLayout.layout,2
GraphicsPrimitiveMgr.initIDs,1
GraphicsUtil.copyData,1
GraphicsUtil.divide_INT_PACK_Data,1
GraphicsUtil.mult_INT_PACK_Data,1
HashMap.clone,1
HashMap.getNode,1
HashMap.putVal,1
IDATOutputStream.write,1
Inflater.inflateBytes,9
Inflater.reset,1
JarFile.initializeVerifier,1
JarFileFactory.get,1
LongVector.addElement,1
LookupOp.byteFilter,2
MemberResolver.getInvalidNames,1
MorphologyOp.filter,8
MorphologyOp.isBetter,2
PNGEncodeParam.filterRow,10
PNGImageEncoder.encodePass,1
PNGImageEncoder.writeIDAT,1
PNGRed.processPixels,1
Parser2.getc,1
Parser2.nextChar,1
Parser2.parseLiteral,3
Path2D$Double.getBounds2D,1
Path2D$Float.lineTo,1
PathParser.skipCommaSpaces2,1
PathStroker.beginSubpath,1
PathStroker.endPath,3
Pattern.escape,1
Properties.load0,1
Raster.createWritableRaster,1
Raster.getPixel,1
Region.endRow,1
ResourceBundle$Control.newBundle,1
SVGCSSEngine.<clinit>,1
SVGComposite$OverCompositeContext_INT_PACK_UNPRE.precompose_INT_PACK,2
SVGDOMImplementation$SvgElementFactory.create,2
SVGDOMImplementation.<clinit>,1
SVGDecoratedShapeElementBridge.createShapePainter,1
SVGHKernElementBridge.<init>,1
SVGOMAnimatedLengthList.getAnimVal,1
SVGOMAnimatedNumberList.getBaseVal,1
SVGStylableElement.initializeLiveAttributes,1
ShapeSpanIterator.nextSpan,1
SinglePixelPackedSampleModel.getPixels,3
SinglePixelPackedSampleModel.setPixels,9
SinglePixelPackedSampleModel.setSamples,4
String.regionMatches,1
StringBuffer.append,3
StyleMap.putValue,1
SunFontManager.initIDs,1
SunGraphics2D.intersectByArea,1
SunLayoutEngine.nativeLayout,1
System.arraycopy,1
T2KFontScaler.getGlyphImageNative,1
T2KFontScaler.getGlyphMetricsNative,5
TestHarness.main,1
TextUtilities.convertFontWeight,1
Type1Font.initNames,2
Type1Font.nextTokenType,5
UCharacter.<clinit>,1
URLClassPath.getResource,1
URLStreamHandler.setURL,1
ZStreamRef.address,1
ZipFile.getInputStream,1
ZipFile.read,4
