method,package1,package2,dram1,dram2,energy
ANTLRStringStream,0.11839046929842664,0.0,0.007829505442079355,0.0,0.126219974740506
ArgParser,0.061243902980446366,0.0,0.007154636174182806,0.0,0.06839853915462918
Arithmetic$py,1.761393971151783,0.0,0.1658518977391964,0.0,1.9272458688909793
AttributeInfo,0.33580554433873583,0.0,0.027925495754755704,0.0,0.36373104009349155
AugAssign$PyExposer,0.03704222564821022,0.0,0.003918208454079141,0.0,0.04096043410228936
BaseParser,0.26499915083543246,0.0,0.01074622499041748,0.0,0.27574537582584996
BaseRecognizer,0.036512765958226126,0.0,0.005297872340111582,0.0,0.041810638298337706
BaseTreeAdaptor,0.07352358156016156,0.0,0.010425531915340494,0.0,0.08394911347550206
BaseTypeBuilder,0.029461331680227725,0.0,0.002402907198690463,0.0,0.03186423887891819
Benchmark,2.2469984052182697,1.0373696538699904,0.21842871895250382,0.1444687474742634,3.6472655255150275
BuiltinFunctions,0.06093860695467735,0.0,0.00876643355952565,0.0,0.069705040514203
BytecodeLoader,0.2326751930675977,0.03983547133057395,0.02439620110188396,0.005121848909987451,0.3020287144100431
BytecodeLoader$Loader,0.0860565775720295,0.1129832887271528,0.013566451612737021,0.018404335750638812,0.23101065366255813
CachedJarsPackageManager,9.271098255495065,0.0,0.7507352161137548,0.0,10.02183347160882
CalendarSystem,0.019602238777304395,0.0,0.002009884780911723,0.0,0.02161212355821612
Calls$py,0.4488685219351597,0.0,0.043680554874475065,0.0,0.4925490768096348
ClassClassPath,0.04036082180031018,0.0,0.0019995193709618827,0.0,0.04236034117127206
ClassPool,0.0227784498756438,0.0,0.0016071879138916587,0.0,0.02438563778953546
ClassReader,0.06364382248858245,0.0,0.005547608458160018,0.0,0.06919143094674247
CodeAttribute,0.1275199667325701,0.0436810000052598,0.013858832574389947,0.005499999999907836,0.19055979931212766
CodeCompiler,0.039067800011913054,0.0,0.0015857898430974892,0.0,0.040653589855010545
CommonToken,0.08140635953105423,0.0,0.007790711967344128,0.0,0.08919707149839835
CommonTokenStream,0.06236076648402751,0.008644463517902969,0.008235949713980225,0.0010583690988312598,0.08029954881474198
ConstPool,0.038042507492976316,0.0,0.002541983569072796,0.0,0.04058449106204911
Constructs$py,0.5964362274764343,0.0,0.05896404369864744,0.0,0.6554002711750817
DacapoClassLoader,0.7140403412681832,0.0,0.061373118476117094,0.0,0.7754134597443003
Delete$PyExposer,0.02097440952228021,0.0,0.001752692967053999,0.0,0.02272710248933421
Dict$py,0.7605029790439338,0.0,0.08620396030386639,0.0,0.8467069393478002
DisabledAlgorithmConstraints$Constraints,0.04036082180031018,0.0,0.0019995193709618827,0.0,0.04236034117127206
Exceptions$py,0.13420948614561964,0.0,0.014081368043329472,0.0,0.1482908541889491
FieldInfo,0.054559202864668484,0.0,0.003237289461392025,0.0,0.05779649232606051
FloatingDecimal,0.2401486952870248,0.0,0.0218974511906253,0.0,0.26204614647765007
Frame,0.12730359136150896,0.0,0.010625074789397828,0.0,0.1379286661509068
Generic,0.04258670332116303,0.0,0.0005784783800157923,0.0,0.04316518170117882
GrammarActions,0.16250299967400772,0.0,0.012759673815442943,0.0,0.17526267348945065
Handler,0.026637273145284808,0.0,0.0017321804075936013,0.0,0.02836945355287841
ImportFunction,0.22871409003713067,0.0,0.022319507851194624,0.0,0.2510335978883253
Instances$py,0.17146574620947236,0.0,0.01608689703191521,0.0,0.18755264324138757
JavaImportHelper,0.060681401189984385,0.0,0.005496392612797715,0.0,0.0661777938027821
Jython,0.11793998342336556,0.0,0.013328098580970688,0.0,0.13126808200433626
Launcher$AppClassLoader,0.0,0.07975233333127107,0.0,0.0109599999996135,0.09071233333088458
Lists$py,0.581751126655832,0.0,0.05987305357226337,0.0,0.6416241802280953
Lookups$py,0.9293092754181032,0.0,0.08426233826370566,0.0,1.0135716136818087
MakeProxies,0.02044339487268797,0.0,0.0023892401400935287,0.0,0.0228326350127815
MemberrefInfo,0.02194704796025095,0.0,0.0016264173267648645,0.0,0.023573465287015812
MethodInfo,0.04224579303711863,0.0,0.00522402318974882,0.0,0.04746981622686745
Module,0.05225223709787237,0.0,0.0038240830608480096,0.0,0.05607632015872038
Native,0.06044193940758329,0.0,0.003762518096465306,0.0,0.06420445750404859
NativeLibrary,0.06883407591739675,0.0,0.006131112273950501,0.0,0.07496518819134725
NewInstances$py,0.048986972826764265,0.0,0.0053458179940739795,0.0,0.05433279082083824
NotFoundException,0.028848526187372964,0.0,0.0022224851006913053,0.0,0.03107101128806427
NumberFormatProviderImpl,0.057509293750507375,0.0,0.0053381271060165105,0.0,0.06284742085652388
Numbers$py,0.8539543508883016,0.0,0.07243162337452241,0.0,0.926385974262824
Options,0.07167633169073581,0.0,0.0064625404639310595,0.0,0.07813887215466687
POSIXFactory,0.019847337027462338,0.0,0.0002477286621853356,0.0,0.020095065689647675
PackageManager,7.402372874845877,0.0,0.5453243076974039,0.0,7.947697182543282
Parser,0.028754122694426218,0.0,0.00045712528076011466,0.0,0.029211247975186334
PerfCounter,0.05327145749582177,0.0,0.005644552511440305,0.0,0.05891601000726207
Py,0.2703723670539621,0.0,0.029187636102480354,0.0,0.2995600031564425
PyArray$PyExposer,0.05879426149258444,0.0,0.0043621245637138605,0.0,0.0631563860562983
PyBaseCode,0.07896010564721051,0.0,0.00840742912231107,0.0,0.08736753476952158
PyBaseException$BaseException___init___exposer,0.02485488888810828,0.0,0.0027766666668564235,0.0,0.027631555554964705
PyBaseString,0.049643738292350525,0.0,0.004402309932561675,0.0,0.0540460482249122
PyClass,0.11372914792799783,0.0,0.011308247864662778,0.0,0.1250373957926606
PyComplex,0.1351590746460463,0.0,0.013489047061488197,0.0,0.1486481217075345
PyDictionary,0.3207715071242828,0.0,0.034468877045880156,0.0,0.35524038417016296
PyException,2.571803933986253,0.0,0.2647259710511655,0.0,2.8365299050374184
PyFile$PyExposer,0.0376203744633669,0.0,0.0024746535673596626,0.0,0.04009502803072656
PyFile$name_descriptor,0.03670324141786546,0.0,0.002574486427827073,0.0,0.039277727845692535
PyFloat,0.1188758900070746,0.0,0.012713107803900565,0.0,0.13158899781097516
PyFrame,1.3789737290069417,0.0,0.1493027358678544,0.0,1.5282764648747962
PyFunction,0.05625463577801704,0.0,0.009555972195455896,0.0,0.06581060797347293
PyInteger,0.24207225981695757,0.0,0.024435789905604154,0.0,0.2665080497225617
PyIterator,0.04453533333313923,0.0,0.0023700000001554145,0.0,0.04690533333329464
PyJavaPackage,0.09926229850071785,0.0,0.008239402956672455,0.0,0.10750170145739031
PyJavaType,0.23593325610881774,0.0,0.03066659099447706,0.0,0.2665998471032948
PyList,0.3444676893951172,0.0,0.03830282684037685,0.0,0.382770516235494
PyLong,0.021294850824024728,0.0,0.0018234281783871293,0.0,0.023118279002411857
PyMethod,0.054663308640298086,0.0,0.005605925926593718,0.0,0.0602692345668918
PyObject,1.0263671048256002,0.0,0.10440773505224872,0.0,1.130774839877849
PyObject$object___setattr___exposer,0.038381365244250135,0.0,0.004068178098684829,0.0,0.042449543342934964
PyProperty,0.05327145749582177,0.0,0.005644552511440305,0.0,0.05891601000726207
PySequence,0.11317399129673672,0.0,0.013578192448937806,0.0,0.12675218374567454
PySlice,0.09858636907666057,0.0,0.010727722467995906,0.0,0.10931409154465647
PyString,2.4211992376208697,0.0,0.25375810959575046,0.0,2.6749573472166204
PyString$PyExposer,0.03447681975944485,0.0,0.0041765310809163065,0.0,0.03865335084036116
PyString$str_isupper_exposer,0.022625199603921783,0.0,0.002220745327461727,0.0,0.02484594493138351
PyStringMap,1.3269600342737993,0.0,0.13365940076108007,0.0,1.4606194350348793
PySystemState,0.0227784498756438,0.0,0.0016071879138916587,0.0,0.02438563778953546
PyTableCode,0.060706331975901695,0.0,0.004071586314134589,0.0,0.06477791829003629
PyTuple,0.18611781468881736,0.0,0.022686189007146557,0.0,0.2088040036959639
PyType,1.3567531618233317,0.0,0.1441570239482926,0.0,1.5009101857716243
PyUnicode,0.10843284942703726,0.0,0.016958922641313465,0.0,0.12539177206835073
PyUnicode$PyExposer,0.05633537838529954,0.0,0.006142300277800668,0.0,0.06247767866310021
PyUnicode$unicode_isalpha_exposer,0.034550475033695155,0.0,0.002769023918940621,0.0,0.037319498952635775
PyUnicode$unicode_isdecimal_exposer,0.04288740740782857,0.0,0.0048755555552715026,0.0,0.04776296296310008
PyXRange,0.003788740740640571,0.0,0.0005599999993272057,0.0,0.0043487407399677765
PythonLexer,0.0572568663550686,0.08137896412647475,0.005454417230159782,0.013238906437915834,0.15732915414961895
PythonLexer$DFA44,0.11839046929842664,0.03341476395006727,0.007829505442079355,0.0041639484978998435,0.1637986871884731
PythonParser,0.8439966410244812,0.21532262088203935,0.07321649108268098,0.029684683308126018,1.1622204362973276
PythonParser$DFA127,0.053737093486452094,0.0,0.005388086372006364,0.0,0.05912517985845846
PythonParser$DFA87,0.02475511631228796,0.0,0.0011377008138097429,0.0,0.025892817126097704
PythonTree,0.08654705256379112,0.0,0.004971391527419821,0.0,0.09151844409121095
Resource,0.33366621182724787,0.0,0.03425817187729886,0.0,0.3679243837045467
RewriteRuleElementStream,0.20270450905216167,0.05111959105255489,0.02900172902861966,0.008569280277599147,0.2913951094109353
RuleBasedBreakIterator,0.027262370370509516,0.0,0.003617777778008194,0.0,0.03088014814851771
ScopesCompiler,0.025463419839277492,0.0,0.0008315831887045572,0.0,0.026295003027982048
SequenceIndexDelegate,0.19144206890786605,0.0,0.017446282750088526,0.0,0.20888835165795458
StreamIO,0.0,0.06952142551305439,0.0,0.009874092577878059,0.07939551809093245
StringIO$py,0.13118677797375433,0.0,0.012538842660487676,0.0,0.14372562063424202
StringInfo,0.029461331680227725,0.0,0.002402907198690463,0.0,0.03186423887891819
Strings$py,2.3912905944769656,0.0,0.27757227134073637,0.0,2.668862865817702
SysPackageManager,0.0470335782872202,0.0,0.0038795233810156858,0.0,0.050913101668235886
SyspathJavaLoader,0.021534924731406467,0.0,0.0028529032260262138,0.0,0.024387827957432683
TestHarness,0.0,0.07975233333127107,0.0,0.0109599999996135,0.09071233333088458
ThreadStateMapping,0.4709625230188767,0.0,0.051001640845488874,0.0,0.5219641638643656
Tuples$py,0.5529547556936268,0.0,0.0589613691701899,0.0,0.6119161248638167
URLClassPath,0.036220905803058236,0.0,0.003861717781398482,0.0,0.04008262358445672
URLClassPath$FileLoader,0.029555114653167895,0.0,0.0017888154935578515,0.0,0.03134393014672575
URLClassPath$JarLoader$2,0.0362852974623115,0.09480799999922357,0.004381498351080808,0.010940000000118744,0.14641479581273464
Unicode$py,0.9894132613193538,0.0,0.11924318903282882,0.0,1.1086564503521825
Utf8Info,0.07994465012012447,0.0,0.00660507539277819,0.0,0.08654972551290266
Version,0.054566490537787546,0.0,0.005057784564200114,0.0,0.05962427510198766
__builtin__,0.11828632788695238,0.0,0.01510119061171963,0.0,0.133387518498672
bisect$py,0.10080760703134156,0.0,0.010052791561375366,0.0,0.11086039859271693
imp,0.635313140218067,0.0,0.06545655004089991,0.0,0.7007696902589668
stat$py,0.0277252788563289,0.0,0.0028869427408535764,0.0,0.030612221597182476
unicodedata$py,0.39018016450225396,0.0,0.04258728458839996,0.0,0.4327674490906539
