method,package1,package2,dram1,dram2,energy
ArgParser,0.14600892234943502,0.0,0.01654270750232388,0.0,0.16255162985175892
Arithmetic$py,2.362434065227959,0.2543604444346986,0.1945181422532234,0.04665166666685157,2.8579643185827326
AttributeInfo,0.021362301587133613,0.0,0.002779761904555868,0.0,0.02414206349168948
BaseParser,0.22492101904700537,0.0,0.027285571428515207,0.0,0.2522065904755206
BaseRecognizer,0.033614444443999136,0.0,0.004561111111090415,0.0,0.03817555555508955
Benchmark,0.0,1.9301673574503004,0.0,0.2666000603009674,2.1967674177512677
BoolOp$PyExposer,0.051223687498804786,0.0,0.0058218750002652095,0.0,0.057045562499069995
BuiltinFunctions,0.1335455693303225,0.0,0.013237385894972458,0.0,0.14678295522529494
BytecodeLoader,0.3218086897387755,0.04417881173898736,0.043804252747579264,0.007707360726157431,0.41749911495149955
BytecodeLoader$Loader,0.0770386989261756,0.0,0.006443548387245734,0.0,0.08348224731342133
CachedJarsPackageManager,3.145929452742186,5.80357136925393,0.37298939285597005,0.8173593182432398,10.139849533095326
Calls$py,0.2395042210077078,0.0,0.033349417197741954,0.0,0.2728536382054497
Chaperone,0.0,0.03625854851609562,0.0,0.004911397818353391,0.04116994633444901
ClassPool,0.052528499999880296,0.0,0.005951249999043284,0.0,0.05847974999892358
ClassReader,0.062030791666529694,0.0,0.007656249999702897,0.0,0.06968704166623259
ClassWriter,0.03677944444428216,0.0,0.004041666666631095,0.0,0.04082111111091326
ClassicPyObjectAdapter,0.0,0.05986328888684511,0.0,0.006541333333330436,0.06640462222017554
CodeCompiler,0.00938729187021852,0.0,0.0012260797985027489,0.0,0.01061337166872127
CommonToken,0.05878412393038658,0.0,0.006665064102097136,0.0,0.06544918803248372
Constructs$py,0.7502615392528087,0.0,0.055331822243012974,0.0,0.8055933614958217
Continue$PyExposer,0.06075439999985974,0.0,0.006398999999510124,0.0,0.06715339999936987
DFA,0.030990596824867968,0.0,0.0032724761906138154,0.0,0.03426307301548178
DacapoClassLoader,0.7645453816609731,0.19777839999878777,0.08472274753905548,0.03047400000032212,1.0775205291991383
Dict$py,0.4074616100108766,0.0,0.04256425049710908,0.0,0.4500258605079857
Exceptions$py,0.24449005555329167,0.0,0.03372583333313943,0.0,0.2782158888864311
FloatingDecimal,0.2840894196644562,0.03145892077816068,0.03178104294530438,0.003513503543483263,0.3508428869314046
For$PyExposer,0.027292421053157576,0.0,0.003450000000348633,0.0,0.03074242105350621
Frame,0.10009754761874017,0.0,0.00958999999983505,0.0,0.10968754761857522
Future,0.05801238095210421,0.0,0.005242857143111039,0.0,0.06325523809521524
Handler,0.037090375000692184,0.0,0.004779687499952464,0.0,0.04187006250064465
ImportFunction,0.36270369657312546,0.0,0.043589121364742904,0.0,0.40629281793786837
Imports$py,0.13368902061881144,0.0,0.013591767612258426,0.0,0.14728078823106985
Instances$py,0.03288618823825257,0.0,0.0031995240369694093,0.0,0.036085712275221976
Item,0.028564428570721893,0.0,0.0030514285712602675,0.0,0.03161585714198216
Lists$py,0.0,0.4907348296425038,0.0,0.07643522222276294,0.5671700518652667
Lookups$py,0.7532465044315567,0.0,0.07495125009398955,0.0,0.8281977545255462
Module,0.035121333333552766,0.0,0.0025885714283157587,0.0,0.03770990476186852
NativeMethodAccessorImpl,0.08101400000062615,0.0,0.010813333333418185,0.0,0.09182733333404434
NewInstances$py,0.08549422376949614,0.0,0.009777729896180103,0.0,0.09527195366567624
NumberFormatProviderImpl,0.0,0.04513707085505033,0.0,0.006374086596935183,0.05151115745198551
Numbers$py,0.6679686139707843,0.0,0.04810512748098308,0.0,0.7160737414517674
PackageManager,8.296983936862937,0.4527410397259614,0.885531461570613,0.0503485754619732,9.685605013621483
ParseUtil,0.0,0.011006666667526588,0.0,0.0013650000000779985,0.012371666667604586
Platform,0.037090375000692184,0.0,0.004779687499952464,0.0,0.04187006250064465
ProxyGenerator$ConstantPool$IndirectEntry,0.05009076470528004,0.0,0.0065870588234746745,0.0,0.056677823528754716
Py,0.23200717166810822,0.07500717624997741,0.023575368147862565,0.008698773994136258,0.33928849006008444
PyBaseCode,0.0,0.1671031896186767,0.0,0.020119104408765777,0.18722229402744248
PyBaseException$PyExposer,0.029141729167349695,0.0,0.003587500000094224,0.0,0.03272922916744392
PyClass,0.057217846501858585,0.0,0.005555651844406682,0.0,0.06277349834626526
PyComplex,0.04794970795465221,0.0,0.003815760282973683,0.0,0.05176546823762589
PyDictionary,0.40914292429944676,0.11901909286144058,0.04653826422177815,0.01568846466201252,0.5903887460446782
PyDictionary$PyExposer,0.07366037036936851,0.0,0.007872222222094596,0.0,0.0815325925914631
PyException,3.316886286645747,0.12495019738895778,0.3915683656434454,0.01604268911114612,3.849447538789296
PyFile$file_readinto_exposer,0.03985370370409563,0.0,0.0037888888888388734,0.0,0.04364259259293451
PyFrame,0.7725985536219161,0.5191924843864915,0.08006747228899229,0.07071537819271612,1.4425738884901158
PyInteger,0.2985731465616913,0.0,0.027516237756870822,0.0,0.32608938431856216
PyJavaType,0.021113020833430102,0.04506433333638901,0.0034124999997402483,0.005450000000261449,0.07503985416982081
PyList,0.6674732084296853,0.3638357951317008,0.06354591600546959,0.04560070332004472,1.1404556228869005
PyList$list_append_exposer,0.0,0.023747222218878084,0.0,0.0022666666666703314,0.026013888885548415
PyList$list_insert_exposer,0.0267454861682984,0.0,0.0036191216181307093,0.0,0.030364607786429108
PyLong,0.11496709427047114,0.12268066666729283,0.013939168958211654,0.022019999999732434,0.27360692989570806
PyMethod$PyExposer,0.034598083332790935,0.0,0.003587500000094224,0.0,0.03818558333288516
PyMethodDescr,0.04990633333606335,0.0,0.0035349999998288686,0.0,0.05344133333589222
PyObject,0.6688059863844658,0.2098727949585828,0.06349968963132768,0.032367523769768064,0.9745459947441443
PyReflectedFunction,0.06441543333312437,0.0,0.007332000000011855,0.0,0.07174743333313623
PySequence,0.09363524242353653,0.0,0.00864318181761932,0.0,0.10227842424115585
PySlice,0.03649900000042786,0.0,0.004344999999981761,0.0,0.04084400000040962
PySlice$PyExposer,0.022097820512545958,0.0,0.0020269230770235225,0.0,0.02412474358956948
PyString,1.4006275583592096,0.5659686179367791,0.15487021184365757,0.085425609645014,2.2068919977846604
PyString$str_isspace_exposer,0.08933516666972233,0.0,0.006960000000011252,0.0,0.09629516666973358
PyStringMap,0.8898900693450171,0.4392986614613897,0.09356578983109531,0.0632793656327316,1.4860338862702336
PySystemState,0.034598083332790935,0.0,0.003587500000094224,0.0,0.03818558333288516
PyTableCode,0.07679808428054591,0.0,0.010097216985486917,0.0,0.08689530126603283
PyTuple,0.08102329072799325,0.12622033332687957,0.008754503843815058,0.017705000000205473,0.23370312789889336
PyType,0.6165419710902008,0.4314261596644251,0.07641038476516995,0.054360870109580704,1.1787393856293766
PyUnicode,0.03878792631592668,0.1495793396364199,0.008530495276351767,0.025754982087708708,0.22265274331640705
PyUnicode$PyExposer,0.05721653846147745,0.0,0.006000000000009701,0.0,0.06321653846148716
PythonLexer,0.09800995555597182,0.0,0.00801116666645814,0.0,0.10602112222242996
PythonLexer$DFA5,0.07450165909115943,0.0,0.0098698863640686,0.0,0.08437154545522803
PythonParser,0.40566075500095033,0.0,0.044227832049942864,0.0,0.4498885870508932
PythonTree,0.10162839655201643,0.0,0.01236077586215037,0.0,0.1139891724141668
Raise$PyExposer,0.02701610526434562,0.0,0.0033189473688253197,0.0,0.03033505263317094
Resource,0.18641033040241495,0.08300800000142773,0.020043318680978073,0.009519999999611171,0.2989816490844319
RewriteRuleElementStream,0.0751695811874841,0.0,0.011131995487404246,0.0,0.08630157667488834
RuleBasedBreakIterator,0.0,0.0208645515118291,0.0,0.003462535482230756,0.024327086994059853
ScopeInfo,0.023472380951889568,0.0,0.002128571428502688,0.0,0.025600952380392256
SequenceIndexDelegate,0.04827190579870373,0.0,0.003435012426709939,0.0,0.05170691822541367
StreamIO,0.032355020833165334,0.0,0.002550625000291499,0.0,0.03490564583345683
StringUtil,0.0301656285161263,0.0,0.004188091637501857,0.0,0.034353720153628156
Strings$py,0.9350826359327301,0.0,0.08229902050565496,0.0,1.017381656438385
ThreadCallsiteInjector,0.015252315788529813,0.0,0.0020984210522759605,0.0,0.017350736840805774
ThreadStateMapping,0.27476216107044543,0.03701394003896146,0.02362822267959221,0.005505874714289874,0.34091019850328896
TryExcept$PyExposer,0.030478461537710156,0.0,0.0038961538461407133,0.0,0.03437461538385087
Tuples$py,0.05093949086505831,0.18377666666250053,0.006770591067698817,0.027265000000018816,0.26875174859527645
UTF_8$Decoder,0.04023421228995812,0.0,0.003517839349770662,0.0,0.043752051639728784
Unicode$py,0.13285006882630768,0.25846137357518895,0.016382875402234123,0.040445641653863565,0.4481399594575943
Utf8Info,0.07065329434642363,0.0,0.005787251462486388,0.0,0.07644054580891002
__builtin__,0.12161947999668252,0.0,0.012064544856608739,0.0,0.13368402485329126
exceptions,0.029141729167349695,0.0,0.003587500000094224,0.0,0.03272922916744392
imp,0.7679942342487706,0.0,0.09407977963426628,0.0,0.8620740138830368
operator,0.048374714286183014,0.0,0.00624642857136288,0.0,0.05462114285754589
unicodedata$py,0.21114691086750795,0.23198838834328728,0.023373863644191303,0.02894823955594434,0.49545740241093084
