method,package1,package2,dram1,dram2,energy
$Proxy1,0.05483738028384743,0.0,0.005534304054229156,0.0,0.06037168433807659
ANTLRStringStream,0.14176085185169573,0.0,0.021751666666642886,0.0,0.16351251851833862
AnnotationParser,0.07386842303595167,0.0,0.009847752732449179,0.0,0.08371617576840085
AnnotationReader,0.05364724113148287,0.0,0.005757672626031432,0.0,0.059404913757514305
ArgListCompiler,0.05154459497966668,0.0,0.006043006406855504,0.0,0.057587601386522184
ArgParser,0.05617959567274591,0.0,0.004280586758799658,0.0,0.06046018243154557
Arithmetic$py,2.06913200331355,0.0,0.21142917039856482,0.0,2.280561173712115
Attribute,0.05108679040858821,0.0,0.0056178970210810746,0.0,0.05670468742966929
BaseParser,0.3713580699397053,0.0,0.04518584968472151,0.0,0.41654391962442683
BaseRecognizer,0.08380182890962881,0.0,0.011349395295697916,0.0,0.09515122420532673
Benchmark,0.13025281453196075,2.549423450027266,0.013612323924798633,0.34222573716150556,3.035514325645531
BuiltinFunctions,0.041440723507908166,0.0,0.0043262278563135975,0.0,0.045766951364221764
BytecodeLoader,0.39456994001666684,0.0,0.05491121887343725,0.0,0.4494811588901041
BytecodeLoader$Loader,0.18374236509640124,0.0,0.02827541034607118,0.0,0.2120177754424724
CachedJarsPackageManager,0.7867312491150069,10.816313444484209,0.08020333960313855,1.4497094999996474,13.132957533202003
Calls$py,0.49995834701699116,0.0,0.06344657004963125,0.0,0.5634049170666224
Chaperone,0.04186131443186456,0.0,0.004292115375948986,0.0,0.04615342980781355
ClassFile,0.04335928773832666,0.0550892486753775,0.0049320207908828614,0.008464761904544607,0.11184531910913163
ClassPool,0.027915733270746604,0.06609083333023591,0.003362837007736284,0.008872499999900658,0.10624190360861945
ClassReader,0.03130431361637924,0.0,0.003191173930138534,0.0,0.034495487546517774
CodeCompiler,0.015659970611463316,0.0,0.0014333003953416164,0.0,0.017093271006804932
CommonTokenStream,0.10319014562595678,0.0,0.010939706625938026,0.0,0.11412985225189481
ConstPool,0.0,0.03612266666459618,0.0,0.0052374999998695175,0.0413601666644657
Constructs$py,0.4037318302832648,0.0,0.03693221611707381,0.0,0.4406640464003386
Continue$PyExposer,0.04467018706097579,0.0,0.005177283426788983,0.0,0.04984747048776477
DFA,0.09111411542828854,0.0,0.010977727136784311,0.0,0.10209184256507285
DacapoClassLoader,0.7204541746824934,0.44233208333450114,0.07391389262362673,0.05305249999984577,1.289752650640467
DecimalFormatSymbolsProviderImpl,0.16444686114610468,0.0,0.01871703460008877,0.0,0.18316389574619346
Delete$PyExposer,0.03932069338911868,0.0,0.004284761473188614,0.0,0.04360545486230729
Descriptor,0.05363513804079411,0.0,0.006050320668655719,0.0,0.05968545870944983
Dict$py,0.6684715015715821,0.0,0.06993004941988101,0.0,0.7384015509914631
Errno,0.057684354002018275,0.0,0.006885795619887862,0.0,0.06457014962190613
Exceptions$py,0.0935004358242353,0.0,0.011300632416565703,0.0,0.104801068240801
Expr,0.028130803220916625,0.0,0.0026068428199694407,0.0,0.030737646040886066
FileDispatcherImpl,0.055246478865755504,0.0,0.0077635258007036625,0.0,0.06301000466645916
FileIO,0.020381428569635318,0.0,0.0031703571428027184,0.0,0.023551785712438038
FileURLConnection,0.0917744591833052,0.0,0.012481071428719216,0.0,0.10425553061202442
FloatingDecimal,0.8158716044961971,0.0,0.09412922897930559,0.0,0.9100008334755028
Frame,0.1062993648360747,0.0,0.016823580401684055,0.0,0.12312294523775875
Future,0.04425116716492625,0.0,0.004518873914740732,0.0,0.04877004107966698
GrammarActions,0.08459062879544704,0.0,0.013413122584895664,0.0,0.0980037513803427
IfExp$PyExposer,0.03410766026983073,0.0,0.0031381024630713172,0.0,0.037245762732902046
ImportFunction,0.19783915046382053,0.0,0.0247698263892407,0.0,0.22260897685306122
Instances$py,0.024220750000192002,0.0,0.003020000000105938,0.0,0.02724075000029794
JRELocaleProviderAdapter,0.034615291009167916,0.0,0.001830368855385868,0.0,0.03644565986455378
JavaImportHelper,0.04078595750173042,0.0,0.003912708627493119,0.0,0.04469866612922354
Launcher$AppClassLoader,0.05950794076616173,0.0,0.009782343899696988,0.0,0.06929028466585871
Linux64HeapFileStat,0.0,0.005061762779881833,0.0,0.0007633274283053237,0.0058250902081871565
Lists$py,0.5996335170264415,0.0,0.05449958978338553,0.0,0.6541331068098271
LocaleData$1,0.02724031362499385,0.0,0.003145788040069423,0.0,0.030386101665063274
Lookups$py,0.9463037448271089,0.0,0.09443032777342314,0.0,1.040734072600532
MemberrefInfo,0.0,0.06240612963355724,0.0,0.010018333333627432,0.07242446296718467
MethodInfo,0.05005706710845133,0.009369000001849296,0.005181328709193777,0.0013699999999516874,0.06597739581944609
MethodWriter,0.04229023220532961,0.0,0.004892041693477003,0.0,0.047182273898806616
Module,0.12101191725424179,0.0,0.015797184225709023,0.0,0.13680910147995082
Native,0.13935816717552685,0.0,0.014428282680013303,0.0,0.15378644985554016
Num$PyExposer,0.03385421319951118,0.0,0.005054304544256636,0.0,0.038908517743767815
Numbers$py,0.37810797685264946,0.0,0.017558724747481002,0.0,0.39566670160013045
POSIXFactory,0.05363513804079411,0.0,0.006050320668655719,0.0,0.05968545870944983
PackageManager,4.179698098801297,0.8572319077429567,0.4155330528335839,0.11024370535707771,5.562706764734915
Pass$PyExposer,0.02707029502209303,0.0,0.002783942744019535,0.0,0.029854237766112564
ProxyGenerator,0.10581897227792972,0.0,0.010425834553422757,0.0,0.11624480683135248
Py,0.9187740860452968,0.0,0.10977385057070921,0.0,1.028547936616006
PyArray$PyExposer,0.146319275164934,0.0,0.01689350240359879,0.0,0.1632127775685328
PyBaseException$exposed___new__,0.03319898557273762,0.0,0.0038283109655139424,0.0,0.03702729653825156
PyBaseString,0.05180608390555119,0.0,0.0049118932192084965,0.0,0.05671797712475969
PyClass,0.03253392592564018,0.010046905098655329,0.002377777777534599,0.0016359748162688337,0.04659458361809894
PyComplex,0.07009746031851843,0.0,0.00835833333356219,0.0,0.07845579365208062
PyComplex$real_descriptor,0.028425732453534306,0.0,0.003960742903105561,0.0,0.03238647535663987
PyDictionary,0.35944313618584645,0.0,0.03673786814131539,0.0,0.39618100432716186
PyDictionary$dict_has_key_exposer,0.01942958333377949,0.0,0.0005437499999061401,0.0,0.01997333333368563
PyException,3.6065320583849454,0.0,0.3988459568088481,0.0,4.005378015193793
PyFloat,0.140876253661453,0.0,0.01589570334093619,0.0,0.1567719570023892
PyFrame,1.3332084049824833,0.0,0.1420976586830802,0.0,1.4753060636655635
PyFrozenSet$PyExposer,0.0,0.1511992499945336,0.0,0.017426249999971333,0.16862549999450493
PyInstance$PyExposer,0.0,0.08373438172012672,0.0,0.011658842174667311,0.09539322389479403
PyInteger,0.2592662547410596,0.0,0.026927014628312623,0.0,0.28619326936937217
PyInteger$PyExposer,0.0,0.025886499999614898,0.0,0.003607500000043729,0.029493999999658627
PyJavaPackage,0.11321966323548488,0.0,0.01234647445183143,0.0,0.1255661376873163
PyJavaType,0.18656447929656486,0.050107047618699385,0.02234344841222489,0.006262857142636286,0.26527783247012543
PyList,0.9938541422216065,0.0,0.12155760946435779,0.0,1.1154117516859643
PyList$list_append_exposer,0.05288699999800883,0.0,0.004027500000120199,0.0,0.05691449999812903
PyList$list_sort_exposer,0.01942958333377949,0.0,0.0005437499999061401,0.0,0.01997333333368563
PyLong,0.3293082401959461,0.0,0.0356137345215203,0.0,0.3649219747174664
PyObject,0.6798085526855774,0.0,0.07296824758244431,0.0,0.7527768002680217
PySequence,0.17128580090563184,0.0,0.019673940766063408,0.0,0.19095974167169524
PySequence$1,0.08539230392103918,0.0,0.00922323529384277,0.0,0.09461553921488194
PySet$PyExposer,0.028425732453534306,0.0,0.003960742903105561,0.0,0.03238647535663987
PySlice,0.14302146757228423,0.0,0.01784153382955517,0.0,0.1608630014018394
PyString,2.7962077030442507,0.0,0.3177488191053005,0.0,3.113956522149551
PyString$PyExposer,0.0,0.08935533332987687,0.0,0.01088999999895653,0.1002453333288334
PyString$str_find_exposer,0.06848535889601652,0.0,0.00944805252494183,0.0,0.07793341142095835
PyString$str_rstrip_exposer,0.06281686239120267,0.0,0.007020777926513065,0.0,0.06983764031771574
PyString$str_title_exposer,0.036649890176168466,0.0,0.003319551256863539,0.0,0.03996944143303201
PyStringConstant,0.052699187292072236,0.0,0.007730862372415275,0.0,0.06043004966448751
PyStringMap,2.6623442411547282,0.0,0.29814553988481324,0.0,2.9604897810395414
PySystemState,0.0,0.09484866666510544,0.0,0.010899999999916568,0.10574866666502201
PyTableCode,0.15190325408716898,0.0,0.0162838829695811,0.0,0.1681871370567501
PyTuple,0.11267241351677572,0.0,0.012489504733977273,0.0,0.12516191825075298
PyType,1.3491542067083724,0.09661640784759269,0.16027966955104359,0.014640454617731957,1.6206907387247405
PyUnicode,0.21011101929040582,0.0,0.027440947713473423,0.0,0.23755196700387923
PythonLexer,0.1401266233293887,0.0,0.017744326882899134,0.0,0.1578709502122878
PythonParser,0.6100987758431442,0.03898407386433796,0.06373422003352412,0.004696375101633411,0.7175134448426398
PythonTree,0.08278998805074189,0.0,0.01090729679327112,0.0,0.09369728484401302
PythonTreeAdaptor,0.04826032894743548,0.0,0.006951710526568365,0.0,0.05521203947400385
ReflectionFactory,0.05265293333310789,0.0,0.007478000000022197,0.0,0.060130933333130084
Resource,0.2820210834238789,0.0327682500010269,0.03287634850262417,0.004616249999799038,0.352281931927329
RewriteRuleElementStream,0.1486310492938548,0.10645295950498716,0.01973478160907233,0.01492252388330576,0.2897413142912201
RuleBasedBreakIterator,0.03421475005828968,0.0,0.0042863934581796135,0.0,0.03850114351646929
ScopeInfo,0.08734513069371745,0.0,0.011206765955442444,0.0,0.09855189664915989
ScopesCompiler,0.03863250196146414,0.0,0.005120251002652544,0.0,0.04375275296411668
SequenceIndexDelegate,0.07102609377053673,0.0,0.007481864799353531,0.0,0.07850795856989026
Slice,0.07056571038213559,0.0,0.011084016393491606,0.0,0.0816497267756272
StreamIO,0.01203105161445744,0.0,0.0011223357231665019,0.0,0.013153387337623942
StringInfo,0.04874666666620652,0.0,0.007655555555377051,0.0,0.05640222222158357
StringUtil,0.14581774999818922,0.0,0.021726071429579212,0.0,0.16754382142776844
Strings$py,2.8191788207948867,0.0,0.2578425214157406,0.0,3.077021342210627
SyspathJavaLoader,0.04874666666620652,0.0,0.007655555555377051,0.0,0.05640222222158357
ThreadStateMapping,0.3883821951382654,0.0,0.03344083535568049,0.0,0.42182303049394587
Time,0.033039510203762994,0.0,0.00571999999978239,0.0,0.038759510203545386
Tuples$py,0.4102313214732348,0.0,0.04165519250939873,0.0,0.4518865139826336
Type,0.09824152941206084,0.0,0.015498529411535645,0.0,0.11374005882359649
URLClassPath$JarLoader,0.03391748148283955,0.0354511666688874,0.0047200000004118505,0.005485000000286769,0.07957364815242558
URLClassPath$JarLoader$2,0.05318088041431859,0.0,0.003998191309663864,0.0,0.057179071723982455
UTF8,0.05790521452931498,0.0,0.00798606028046666,0.0,0.06589127480978163
Unicode$py,1.0340486007975938,0.0,0.11018960252768555,0.0,1.1442382033252794
Version,0.0,0.08091233333107084,0.0,0.00960000000001552,0.09051233333108635
Yield$PyExposer,0.04245649232129936,0.0,0.005640657457063997,0.0,0.04809714977836336
bisect$py,0.041440723507908166,0.0,0.0043262278563135975,0.0,0.045766951364221764
imp,0.6443510169094357,0.0,0.08717545829104624,0.0,0.731526475200482
unicodedata$py,0.3855849522619631,0.0,0.0471956627151342,0.0,0.4327806149770973
