method,package1,package2,dram1,dram2,energy
ArgParser,0.037227399998907146,0.0,0.006580000000152115,0.0,0.04380739999905926
Arithmetic$py,2.243799139952121,0.0,0.2221404484093216,0.0,2.465939588361443
AttributeInfo,0.0,0.040801060604280785,0.0,0.00558181818164347,0.04638287878592426
BaseParser,0.0,0.2813614803352308,0.0,0.03830876923109781,0.3196702495663286
BaseRecognizer,0.0,-0.23770625000300544,0.0,-0.03035625000090173,-0.2680625000039072
BuiltinFunctions,0.0,0.04335960349607704,0.0,0.005822826918617977,0.049182430414695014
ByteVector,0.0731879999996939,0.0,0.008023333333161038,0.0,0.08121133333285493
Calls$py,0.3547164633385321,0.0,0.053510232142447677,0.0,0.40822669548097973
ClassPool,0.0,0.04397575925853474,0.0,0.005830000000194693,0.04980575925872943
ClassReader,0.0,0.0,0.0,0.0,0.0
ClassWriter,0.08904795994324527,0.0,0.00786417607402796,0.0,0.09691213601727323
CommonTokenStream,0.0,0.019676547620162764,0.0,0.0029214285712528395,0.022597976191415604
CompilerFlags,0.0,0.0,0.0,0.0,0.0
Constructs$py,0.8969789529163203,0.0,0.08058047302711402,0.0,0.9775594259434344
DFA,0.0,0.04387399999783762,0.0,0.005480000000109915,0.04935399999794754
Dict$py,0.8244564027795099,0.0,0.08448458333340465,0.0,0.9089409861129146
Exceptions$py,0.17556949817269266,0.0,0.024496025640273485,0.0,0.20006552381296613
FormattedFloatingDecimal,0.0,0.180658217684652,0.0,0.023677988193708296,0.20433620587836032
Frame,0.10391397831753232,0.04692933333474987,0.00909009142023525,0.00638000000011137,0.16631340307262885
GrammarActions,0.0,0.04397575925853474,0.0,0.005830000000194693,0.04980575925872943
Imports$py,0.0812574452357131,0.0,0.010740249999512994,0.0,0.09199769523522609
JRELocaleProviderAdapter,0.0,-0.021896350001043174,0.0,-0.003297000000020489,-0.025193350001063663
JavaImportHelper,0.0,0.0,0.0,0.0,0.0
Library$Handler,0.0,0.007646833333378057,0.0,0.0009746428571642832,0.00862147619054234
Lists$py,0.5907169464306294,0.0,0.057925178570431377,0.0,0.6486421250010608
LongVector,0.0,0.022877250490263724,0.0,0.003028599012172224,0.02590584950243595
Lookups$py,0.8617104267744496,0.0,0.0805879121101999,0.0,0.9422983388846495
Module,0.0,-0.09480341667585888,0.0,-0.011597797618977652,-0.10640121429483654
Native,0.0,0.0,0.0,0.0,0.0
NativeLibrary,0.0,0.007558190476542914,0.0,0.0008785714285511943,0.008436761905094108
NativeString,0.0,0.03258798711769795,0.0,0.004153671934278512,0.03674165905197646
Numbers$py,0.24930416566302738,0.0,0.028238294668983026,0.0,0.2775424603320104
PackageManager,0.014586000844659676,0.0,0.0022708951943324245,0.0,0.0168568960389921
Py,0.15594376847390967,0.0,0.01844371587499362,0.0,0.17438748434890328
PyArray,0.0,0.06217735714536893,0.0,0.007068214286066775,0.0692455714314357
PyArray$PyExposer,0.0,0.11755371428651935,0.0,0.015001071428481998,0.13255478571500134
PyBaseCode,0.1429729710185577,0.22100284058272265,0.018165407661644692,0.03076037383483716,0.4129015930977622
PyBaseException,0.022671111110766005,0.0,0.002293333333202301,0.0,0.024964444443968305
PyClass,0.08630545671575099,0.0395995773966745,0.009090730546769978,0.0047929917972726905,0.13978875645646816
PyComplex,0.10517129166752662,0.0,0.00837312500061671,0.0,0.11354441666814333
PyDictProxy$PyExposer,0.0,0.0,0.0,0.0,0.0
PyDictionary,0.0921224583332029,0.0,0.01036624999930306,0.0,0.10248870833250597
PyDictionary$PyExposer,0.032602999998440886,0.0,0.004007499999715947,0.0,0.03661049999815683
PyException,0.08037205128200675,0.0,0.009317507692247044,0.0,0.08968955897425379
PyFloat$float___add___exposer,0.047680733331314215,0.0,0.004808999999901667,0.0,0.052489733331215885
PyFrame,1.1862851178367189,1.038359419778884,0.1431939036965753,0.1320561393889719,2.49989458070115
PyFunction,0.10585262500171666,0.0,0.01357500000009774,0.0,0.1194276250018144
PyFunction$PyExposer,0.0,0.0,0.0,0.0,0.0
PyInstance,0.09488476515137087,0.0,0.007009545454820909,0.0,0.10189431060619178
PyInstance$PyExposer,0.0,0.08352772741129018,0.0,0.01000372741416097,0.09353145482545115
PyInteger,0.102734599999773,0.0,0.011514500000460733,0.0,0.11424910000023372
PyJavaPackage,0.0,0.0,0.0,0.0,0.0
PyList,0.30585944717620706,0.06854104532003302,0.04700246698673294,0.010626568398385465,0.43202952788135845
PyObject,0.479190180501249,0.40204475041545834,0.061733618108829956,0.04437200507704245,0.9873405541025797
PySequence,0.08884237962586294,0.08314169606994776,0.01552444444402041,0.008638615730207608,0.1961471358700387
PySequence$1,0.03415933333356709,0.0,0.002649999999751647,0.0,0.03680933333331874
PySequenceIter,0.03763420000032056,0.0,0.002855999999883352,0.0,0.04049020000020392
PySet,0.03567642857108565,0.0,0.0057964285718169,0.0,0.041472857142902546
PySlice,0.03803071428722303,0.0,0.0068571428571539425,0.0,0.04488785714437697
PyString,0.2845629427211429,0.09556862024808027,0.03884080550169393,0.010545499208520707,0.42951786767943784
PyString$str_isalnum_exposer,0.025151215687704585,0.0,0.002682352941323473,0.0,0.02783356862902806
PyStringMap,0.10130136363657827,0.21560229337140768,0.011013019480175554,0.02807826649206633,0.3559949429802279
PyTableCode,0.053633766668159895,0.09449704806869386,0.009225999999519749,0.009687992670477734,0.16704480740685124
PyTuple,0.16832970298789193,0.06958814477013542,0.027583351291733012,0.01138062691636762,0.276881825966128
PyType,0.40469472742528456,0.4830544797503811,0.05193138960331598,0.056747288753849365,0.996427885532831
PyUnicode,0.0650585600035265,0.0,0.011740800000261516,0.0,0.07679936000378801
PyUnicode$PyExposer,0.11831415238106965,0.0,0.01488114285783099,0.0,0.13319529523890064
PyUnicode$unicode_istitle_exposer,0.0,0.07470325399444633,0.0,0.01118298808038601,0.08588624207483234
PyUnicode$unicode_isupper_exposer,0.0,0.09257041663599634,0.0,0.008885981662726274,0.10145639829872262
PyXRange,0.049883142857392426,0.08492416843479451,0.004802142856663392,0.01186401879730242,0.15147347294615274
PythonLexer,0.03643200000008237,0.0,0.005115483870594612,0.0,0.041547483870676985
PythonParser,0.10317837290931167,0.12600158048299115,0.01260544815237142,0.01742876495731242,0.25921416650198664
PythonParser$DFA136,0.0,0.034947462623530566,0.0,0.004350080655442706,0.03929754327897327
PythonTree,0.017715794870850798,0.009450225201692568,0.002378461538822964,0.0015428397248832446,0.031087321336249574
PythonTreeAdaptor,0.0,0.0,0.0,0.0,0.0
ReflectionFactory,0.0,0.0,0.0,0.0,0.0
Resource,0.0,0.04427228571564358,0.0,0.0037221428570514297,0.04799442857269501
RewriteRuleElementStream,0.030918256411752783,0.06563303333179127,0.004112307691964536,0.009248285714247254,0.10991188314975583
ScopesCompiler,0.0,0.025809166666779976,0.0,0.003914285714580771,0.029723452381360746
SequenceIndexDelegate,0.06150650000179464,0.06596665432790648,0.009835833332747115,0.007645448020911867,0.1449544356833601
Strings$py,1.9450900535226363,0.0,0.25638432488485574,0.0,2.201474378407492
TestHarness,0.0,0.0,0.0,0.0,0.0
Tuples$py,0.40140321568930803,0.0,0.06429509803858155,0.0,0.4656983137278896
URLClassPath,0.0,0.03144329629921466,0.0,0.004192222222290756,0.03563551852150542
Unicode$py,0.3182225296367687,0.5384386660425606,0.04582794444358081,0.056163639066612876,0.9586527791895231
UniversalIOWrapper,0.0,0.0,0.0,0.0,0.0
ZoneInfo,0.0,-0.009677149999333778,0.0,-0.0012389999999868448,-0.010916149999320623
ZoneInfoFile,0.0,-0.009677149999333778,0.0,-0.0012389999999868448,-0.010916149999320623
__builtin__,0.0,0.08492416843479451,0.0,0.01186401879730242,0.09678818723209694
imp,0.08148661428311328,0.0,0.01345857142879963,0.0,0.0949451857119129
site$py,0.0,0.014181598805181468,0.0,0.0017414551103634114,0.01592305391554488
sre_parse$py,0.0,0.0,0.0,0.0,0.0
unicodedata$py,0.26834494664231684,0.3135599236283289,0.026908952019395038,0.039571627256177785,0.6483854495462186
