method,package1,package2,dram1,dram2,energy
java.io,3.81085232041676,0.47412575195943657,0.4437810552294253,0.06210106917726631,4.790860196782887
java.lang,4.725519977455471,5.249122461596977,0.5281905119873221,0.6562881589775628,11.159121110017335
java.lang.ref,0.057128888886331365,0.0,0.0070966666656507495,0.0,0.06422555555198212
java.lang.reflect,0.0,0.10329199999978299,0.0,0.015144999999999225,0.11843699999978222
java.math,0.23030003150683626,0.04699710256663354,0.013531490738804842,0.005672692307715083,0.2965013171199897
java.net,0.0368245238098011,0.0,0.003546428571055349,0.0,0.040370952380856445
java.security,0.0,0.10302733333567933,0.0,0.01642500000040551,0.11945233333608485
java.util,0.20960943530646456,1.4707265931981124,0.026590201901718145,0.19698638550481395,1.903912615911109
java.util.concurrent,0.6751121573040364,1.1619500573008485,0.1248116553444736,0.15976560714254875,2.1216394770919074
java.util.concurrent.locks,0.0,0.048634833335705084,0.0,0.006302916666956864,0.05493775000266195
java.util.jar,0.0269368888904056,0.0,0.003403333333456733,0.0,0.03034022222386233
java.util.regex,0.09957573545094062,0.05773925000539747,0.011058333333821599,0.008216250000259606,0.17658956879041932
java.util.zip,11.230383810130819,0.4183700724111004,1.1132377214670564,0.05553532738081736,12.817526931389793
