method,hits
AbstractCollection.toArray,2
AbstractQueuedSynchronizer.compareAndSetState,2
AbstractStringBuilder.<init>,2
AccessController.doPrivileged,2
AccessController.getContext,2
ArrayList$Itr.<init>,2
ArrayList.elementData,2
Arrays.copyOf,20
Arrays.fill,2
BufferedInputStream.read,110
BufferedInputStream.read1,4
BufferedOutputStream.flushBuffer,2
CRC32.update,2
Character.getType,4
Character.isLowerCase,2
Character.isUpperCase,2
Character.toUpperCaseEx,6
CharacterData00.getPropertiesEx,2
CharacterData00.toUpperCaseEx,2
CharacterDataLatin1.getProperties,4
Class$MethodArray.compactAndTrim,2
Class.getDeclaredConstructors0,22
Class.getDeclaredMethods0,2
ClassLoader.checkPackageAccess,2
ClassLoader.defineClass1,28
ClassLoader.findBootstrapClass,4
ClassLoader.findLoadedClass0,2
Collections$UnmodifiableMap$UnmodifiableEntrySet$1.next,2
ConcurrentHashMap$BaseIterator.<init>,2
ConcurrentHashMap$Node.<init>,4
ConcurrentHashMap.addCount,6
ConcurrentHashMap.casTabAt,8
ConcurrentHashMap.get,18
ConcurrentHashMap.initTable,4
ConcurrentHashMap.putVal,22
ConcurrentHashMap.replaceNode,2
ConcurrentHashMap.spread,2
ConcurrentHashMap.tabAt,12
ConcurrentHashMap.transfer,4
DataInputStream.skipBytes,4
FileInputStream.available0,12
FileInputStream.open0,2
FileInputStream.readBytes,48
FileOutputStream.open0,16
FileOutputStream.writeBytes,42
FilterInputStream.read,2
HashMap.getNode,4
HashSet.contains,2
Hashtable.put,2
Inflater.finished,4
Inflater.inflate,22
Inflater.inflateBytes,680
Inflater.needsInput,4
Inflater.reset,2
InflaterInputStream.ensureOpen,4
InflaterInputStream.fill,6
InflaterInputStream.read,2
JarFile.getInputStream,2
JumboEnumSet$EnumSetIterator.<init>,2
Math.floor,2
Method.getParameterTypes,4
Object.clone,2
Pattern.newSlice,2
PushbackInputStream.ensureOpen,2
PushbackInputStream.read,4
StrictMath.floorOrCeil,2
String.<init>,6
String.charAt,2
String.compareTo,2
String.concat,2
String.getChars,4
String.hashCode,2
String.indexOf,2
String.intern,16
String.replace,4
String.substring,2
String.toLowerCase,4
String.toUpperCase,12
StringBuilder.append,2
StringCoding.deref,2
System.arraycopy,2
Thread.currentThread,2
ThreadLocal$ThreadLocalMap.getEntry,20
Throwable.fillInStackTrace,158
TimeZone.setDefaultZone,2
UnixFileSystem.canonicalize0,2
UnixFileSystem.delete0,12
UnixFileSystem.getBooleanAttributes,2
UnixFileSystem.getBooleanAttributes0,4
WeakHashMap.hash,2
ZipCoder.toString,2
ZipFile.getInflater,2
ZipFile.read,4
ZipInputStream.ensureOpen,2
ZipInputStream.getNextEntry,2
ZipInputStream.read,12
ZipInputStream.skip,2
