method,hits
AbstractCollection.toArray,2
AbstractQueuedSynchronizer.compareAndSetState,2
ArrayList.<init>,2
ArrayList.addAll,2
ArrayList.elementData,2
ArrayList.removeRange,2
Arrays.copyOf,12
Arrays.copyOfRange,6
Arrays.fill,2
BreakIterator.setText,2
BufferedInputStream.read,42
BufferedInputStream.read1,8
Character.getType,2
Character.isLowerCase,4
Character.toLowerCase,4
Character.toTitleCase,2
Character.toUpperCaseEx,2
CharacterData00.isOtherUppercase,2
CharacterDataLatin1.toUpperCase,2
Class.forName0,4
Class.getDeclaredConstructors0,12
Class.getResourceAsStream,2
Class.isAssignableFrom,2
Class.reflectionData,2
ClassLoader.defineClass1,42
ClassLoader.resolveClass0,2
Collections$UnmodifiableMap$UnmodifiableEntrySet.iterator,2
ConcurrentHashMap$EntrySetView.iterator,2
ConcurrentHashMap.addCount,4
ConcurrentHashMap.casTabAt,4
ConcurrentHashMap.get,14
ConcurrentHashMap.initTable,2
ConcurrentHashMap.putVal,20
ConcurrentHashMap.spread,2
ConcurrentHashMap.tabAt,16
DataInputStream.readFully,2
DataInputStream.readInt,2
DataInputStream.readUTF,2
DataInputStream.readUnsignedShort,4
DataInputStream.skipBytes,2
DataOutputStream.writeUTF,2
DecimalFormat.setMaximumFractionDigits,2
DirectLongBufferU.ix,2
FileInputStream.available0,14
FileInputStream.close0,2
FileInputStream.open0,2
FileInputStream.readBytes,38
FileOutputStream.open0,12
FileOutputStream.writeBytes,34
FilterInputStream.read,2
HashMap.get,2
HashMap.getNode,10
HashMap.hash,2
HashMap.putVal,2
Hashtable.get,2
Inflater.ended,2
Inflater.finished,6
Inflater.inflate,28
Inflater.inflateBytes,700
Inflater.needsDictionary,10
Inflater.needsInput,4
Inflater.setInput,2
InflaterInputStream.read,2
Integer.valueOf,2
JarVerifier.<init>,2
Object.<init>,2
Object.clone,4
Package$1.run,2
PushbackInputStream.read,4
ReentrantLock$NonfairSync.lock,2
Reference.<init>,2
Stack.peek,2
String.<init>,4
String.concat,2
String.format,2
String.hashCode,4
String.intern,28
String.lastIndexOf,4
String.length,2
String.replace,2
String.substring,2
String.toLowerCase,2
String.toUpperCase,16
StringBuilder.<init>,2
StringBuilder.append,4
ThreadLocal$ThreadLocalMap.access$000,2
ThreadLocal$ThreadLocalMap.getEntry,14
ThreadLocal.get,4
Throwable.fillInStackTrace,188
TreeMap$Entry.setValue,2
UnixFileSystem.createDirectory,4
UnixFileSystem.delete0,8
ZipFile.read,8
ZipInputStream.read,22
