method,package1,package2,dram1,dram2,energy
ANTLRStringStream.rewind,0.05794880000224415,0.0,0.008025499999712336,0.0,0.06597430000195649
ASCIICaseInsensitiveComparator.lowerCaseHashCode,0.04339600000093924,0.0,0.00684000000001106,0.0,0.0502360000009503
AbstractCollection.toArray,0.0,0.3319220303026007,0.0,0.036385454544925415,0.3683074848475261
AnnotationReader.<init>,0.04962149999664689,0.0,0.007608750001054431,0.0,0.05723024999770132
ArgParser.<init>,0.0,0.08329266666745146,0.0,0.00960500000049554,0.092897666667947
ArgParser.getArg,0.0,0.1074809696998052,0.0,0.009378181818068366,0.11685915151787356
Arithmetic$py.test$11,0.13066042105109724,0.0,0.005314736841108625,0.0,0.13597515789220585
Arithmetic$py.test$14,0.0,0.34085284462939364,0.0,0.05462316072182749,0.3954760053512211
Arithmetic$py.test$2,0.5062476666708154,0.47894131290924835,0.04101863636539995,0.06836182517890932,1.0945694411243732
Arithmetic$py.test$5,0.0,0.8108108243278732,0.0,0.12716380143090472,0.937974625758778
Arithmetic$py.test$8,0.0,1.2977553632525658,0.0,0.1870813399746293,1.4848367032271952
ArrayList.<init>,0.041249666667378435,0.0,0.006137499999870973,0.0,0.04738716666724941
ArrayList.ensureExplicitCapacity,0.02878213333387975,0.0,0.004490499999883468,0.0,0.03327263333376322
ArrayList.grow,0.0794376344097683,0.0,0.007632258064952249,0.0,0.08706989247472055
Arrays.copyOf,0.4242426807361225,0.0,0.06524425743844471,0.0,0.4894869381745672
Arrays.copyOfRange,0.06156021505356416,0.0,0.008783870967642042,0.0,0.0703440860212062
BaseParser.<init>,0.06718944444704296,0.0,0.00990833333263355,0.0,0.07709777777967651
BaseParser.setupParser,0.5548379444459159,0.0,0.06127761904726579,0.0,0.6161155634931818
BufferedInputStream.<init>,0.1402183333290547,0.0,0.013925000000502528,0.0,0.15414333332955724
BufferedInputStream.read,1.4687613045426673,0.0,0.17238416591886704,0.0,1.6411454704615343
BufferedInputStream.read1,0.05677635897534032,0.0,0.0075789743590513915,0.0,0.06435533333439171
BufferedOutputStream.<init>,0.05894972222045504,0.0,0.0042208333343296545,0.0,0.0631705555547847
CRC32.update,0.017334000000523198,0.0,0.0018816666666276027,0.0,0.0192156666671508
Calls$py.test$13,0.06320105693069182,0.0,0.007143203027889893,0.0,0.07034425995858172
Calls$py.test$16,0.0,0.18631400000387138,0.0,0.039685714285691814,0.2259997142895632
Calls$py.test$2,0.0,0.22979771427829593,0.0,0.04229142857158357,0.2720891428498795
Character.isLowerCase,0.03476559999980964,0.0,0.003808000000329533,0.0,0.03857360000013917
Character.isUpperCase,0.06449970323254256,0.0,0.009026825984815152,0.0,0.07352652921735771
Character.isWhitespace,0.02020075268744896,0.0,0.00258225806480554,0.0,0.0227830107522545
Character.toTitleCase,0.030704799999754562,0.0,0.004323999999905936,0.0,0.0350287999996605
Character.toUpperCaseEx,0.039207562500450883,0.0,0.0060750000000098225,0.0,0.045282562500460706
CharacterData.of,0.029444848485361563,0.0,0.0039345454548090466,0.0,0.03337939394017061
CharacterDataLatin1.toLowerCase,0.061248749999776926,0.0,0.006952500000352303,0.0,0.06820125000012923
Class$MethodArray.addIfNotPresent,0.06744366666922966,0.0,0.009579999999308106,0.0,0.07702366666853776
Class.forName0,0.13970176388910557,0.0,0.016868333333806933,0.0,0.1565700972229125
Class.getDeclaredConstructors0,0.19753309337339062,0.0,0.026543451959603653,0.0,0.22407654533299426
ClassFile.addMethod,0.0466993333353788,0.0,0.006662727273413276,0.0,0.053362060608792075
ClassFile.read,0.05451960000136751,0.0,0.00517050000034942,0.0,0.05969010000171693
ClassLoader.defineClass1,1.020795145329132,0.0,0.1137570554891997,0.0,1.1345522008183317
ClassLoader.findBootstrapClass,0.018399449735139208,0.0,0.002757460317326828,0.0,0.021156910052466036
ClassLoader.findLoadedClass0,0.03914399999969949,0.0,0.0046599999999064785,0.0,0.043803999999605964
ClassPool.compress,0.0660400000027342,0.0,0.004664999999173839,0.0,0.07070500000190805
ClassReader.accept,0.07023859259344237,0.0,0.008502638888145425,0.0,0.07874123148158779
ClassWriter.<init>,0.06363360606183326,0.0,0.008654545454302217,0.0,0.07228815151613548
ClassWriter.b,0.059410944446224474,0.0,0.007490000000365803,0.0,0.06690094444659028
ClassWriter.visitMethod,0.05295266666353475,0.0,0.005666818181039575,0.0,0.05861948484457433
CodeCompiler.visitRaise,0.03219766666592881,0.0,0.003879166666997157,0.0,0.03607683333292597
CodeSource.matchCerts,0.07906827272580069,0.0,0.0107754545450999,0.0,0.08984372727090059
CommonToken.setText,0.038185208333440336,0.0,0.00439375000041764,0.0,0.042578958333857976
CommonTokenStream.LB,0.06552333333272238,0.0,0.01003391304402612,0.0,0.0755572463767485
CommonTokenStream.LT,0.05466699999912331,0.0,0.0064050000000861465,0.0,0.06107199999920946
CommonTokenStream.skipOffTokenChannelsReverse,0.17173244444322538,0.0,0.016510208332862118,0.0,0.1882426527760875
Compare$PyExposer.<init>,0.057191052631089014,0.0,0.005694736841848536,0.0,0.06288578947293755
CompilerFlags.isFlagSet,0.051806937020678415,0.0,0.004884329134300904,0.0,0.05669126615497932
ConcurrentHashMap$Node.<init>,0.024504517240937527,0.0,0.002974655172348039,0.0,0.027479172413285565
ConcurrentHashMap.addCount,0.09531666666589443,0.11096196387702406,0.009244999999888629,0.017582109596807734,0.23310574013961485
ConcurrentHashMap.casTabAt,0.21391500605686542,0.0,0.01880872727276503,0.0,0.23272373332963045
ConcurrentHashMap.get,0.482652840937946,0.3094091487982084,0.05939389263157924,0.043522142856913665,0.8949780252246474
ConcurrentHashMap.initTable,0.18251520000485472,0.0,0.018164999999377564,0.0,0.20068020000423228
ConcurrentHashMap.putVal,0.38991396456468663,0.36189095238713775,0.035023311462679736,0.045309935065808556,0.8321381634803128
ConcurrentHashMap.tabAt,0.04390582985985321,0.05454800000214683,0.004819426905548712,0.012364285714284051,0.1156375424818328
ConcurrentHashMap.transfer,0.05259600000087328,0.0,0.007464000000133335,0.0,0.060060000001006614
Constructs$py.test$2,0.0,0.7320760784259261,0.0,0.09692235294192764,0.8289984313678538
Constructs$py.test$5,0.0,0.13517987879106041,0.0,0.015767272727151234,0.15094715151821164
Constructs$py.test$8,0.08179259546780984,0.07788100000470878,0.006217655317897535,0.01021499999963756,0.17610625079005374
CtClassType.checkModify,0.03685177777596335,0.0,0.005336666666456343,0.0,0.0421884444424197
DFA.unpackEncodedString,0.0429788888888854,0.0,0.005374999999629735,0.0,0.048353888888515134
DataInputStream.readFully,0.05685028125003555,0.0,0.005998124999678112,0.0,0.06284840624971366
DataInputStream.readUnsignedShort,0.05505366666814855,0.0,0.0005999999993946402,0.0,0.05565366666754319
DataInputStream.skipBytes,0.10900604444517131,0.0,0.01659200000091611,0.0,0.1255980444460874
Dict$py.test$11,0.07704262622954877,0.0,0.008806765440148056,0.0,0.08584939166969682
Dict$py.test$14,0.0,0.24501816113606975,0.0,0.03807789114088263,0.2830960522769524
Dict$py.test$2,0.3694418333370777,0.0,0.04150249999967552,0.0,0.41094433333675323
Dict$py.test$5,0.049148972564049945,0.0,0.003857001632099872,0.0,0.053005974196149816
Dict$py.test$8,0.12229822244628219,0.0,0.012278018878787414,0.0,0.1345762413250696
EnumSet.noneOf,0.05356611764627992,0.0,0.0051847058821294905,0.0,0.058750823528409414
Exceptions$py.test$2,0.13436330769222993,0.0,0.014875384616178239,0.0,0.14923869230840817
Exceptions$py.test$5,0.18440733333166764,0.0,0.013620000000325184,0.0,0.19802733333199282
Exec$PyExposer.<init>,0.06381084057932679,0.0,0.010397391303833,0.0,0.07420823188315978
FieldWriter.<init>,0.04328255555406536,0.0,0.004765833333193668,0.0,0.04804838888725903
FileInputStream.available0,0.1872266506424682,0.0,0.02008168269301864,0.0,0.20730833333548684
FileInputStream.readBytes,0.32853055309509505,0.0,0.03509061377989826,0.0,0.3636211668749933
FileOutputStream.open0,0.3199460873020432,0.0,0.03430988095082977,0.0,0.354255968252873
FileOutputStream.writeBytes,0.14182552777805943,0.0,0.01377999999941595,0.0,0.15560552777747538
FilterInputStream.read,0.056856119657931824,0.0,0.006795000000432696,0.0,0.06365111965836452
Formatter.parse,0.04513550000046962,0.0,0.005392499999895032,0.0,0.05052800000036465
Frame.a,0.15396155555631275,0.0,0.023698560605868873,0.0,0.1776601161621816
FutureFeature.<clinit>,0.06363360606183326,0.0,0.008654545454302217,0.0,0.07228815151613548
Generic.list,0.026708172413456285,0.0,0.003790862068979487,0.0,0.030499034482435773
GrammarActions.makeAssignValue,0.04063351851746794,0.0,0.0035638888881227037,0.0,0.04419740740559064
GrammarActions.makeBinOp,0.057191052631089014,0.0,0.005694736841848536,0.0,0.06288578947293755
IfExp.<clinit>,0.02892388888775949,0.0,0.0036666666670094454,0.0,0.03259055555476893
ImportFunction.__call__,0.08662642857026576,0.0,0.012285714285445422,0.0,0.09891214285571118
Imports$py.test$2,0.0,0.08198690909370215,0.0,0.008989090909105442,0.09097600000280759
Imports$py.test$5,0.0,0.07385233333237314,0.0,0.00960000000001552,0.08345233333238866
Inflater.finished,0.1803995555593348,0.0,0.01545833333350149,0.0,0.19585788889283628
Inflater.inflate,0.8576535770655671,0.0,0.06148068764365058,0.0,0.9191342647092177
Inflater.inflateBytes,13.50060783900673,0.0,1.104326632753769,0.0,14.6049344717605
Inflater.needsDictionary,0.2014413333339487,0.0,0.015526500000810807,0.0,0.2169678333347595
Inflater.needsInput,0.1286484999982349,0.0,0.016022500000164856,0.0,0.14467099999839977
Inflater.setInput,0.032200285713770434,0.0,0.002018571428509728,0.0,0.034218857142280165
InflaterInputStream.fill,0.03107377777956167,0.0,0.006360000001020832,0.0,0.0374337777805825
InflaterInputStream.read,0.38740712390477733,0.0,0.02893565151599166,0.0,0.416342775420769
Instances$py.test$2,0.026033466666315997,0.0,0.0037279999999251844,0.0,0.02976146666624118
JavaImportHelper.buildLoadedPackages,0.10687266666839908,0.0,0.012240000001232449,0.0,0.11911266666963152
Label.a,0.04831760605950628,0.0,0.006433636363164458,0.0,0.05475124242267074
LinuxPOSIX.allocateStat,0.01959590909157696,0.0,0.003099999999959078,0.0,0.022695909091536036
Lists$py.test$2,0.3189007171690305,0.0,0.008841212120699707,0.0,0.3277419292897302
Lists$py.test$8,0.37815366665987915,0.0,0.05040999999982886,0.0,0.428563666659708
LongVector.addElement,0.01378383333455228,0.0,0.0020400000000032983,0.0,0.01582383333455558
Lookups$py.test$12,0.1947546175451798,0.0,0.01925789473653391,0.0,0.21401251228171372
Lookups$py.test$17,0.0,0.19580076190565399,0.0,0.03097714285727956,0.22677790476293355
Lookups$py.test$2,0.4228988210512366,0.0,0.03407347368305189,0.0,0.4569722947342885
Lookups$py.test$22,0.08815724138055404,0.0,0.009641379310151335,0.0,0.09779862069070538
Lookups$py.test$7,0.0,0.33190654166780104,0.0,0.045555624999072585,0.3774621666668736
MakeProxies.makeProxy,0.03215533333423082,0.0,0.003205000000283083,0.0,0.0353603333345139
MethodWriter.visitMaxs,0.03323016666743368,0.0,0.005133333333105838,0.0,0.03836350000053952
Modifier.isPublic,0.07992090908991292,0.0,0.007954545454236777,0.0,0.0878754545441497
Module.PyCode,0.09501693939488508,0.0,0.013096363636577735,0.0,0.10811330303146281
Name.<clinit>,0.052323366665950735,0.0,0.0043854999999894066,0.0,0.05670886666594014
Native.initIDs,0.07436874358991656,0.0,0.007953846154030029,0.0,0.08232258974394659
NativeLibrary.getFunction,0.026731111111412586,0.0,0.0027638888887951104,0.0,0.029495000000207695
NewInstances$py.__init__$8,0.049121066665975384,0.0,0.005819999999948778,0.0,0.05494106666592416
Numbers$py.test$11,0.1647644999975455,0.0,0.012320000000424141,0.0,0.17708449999796963
Numbers$py.test$2,0.1753451619054171,0.0,0.018423544642848268,0.0,0.19376870654826536
Numbers$py.test$5,0.2032303706888217,0.0,0.026973825430509715,0.0,0.2302041961193314
Numbers$py.test$8,0.15327070833260828,0.0,0.016969062499886906,0.0,0.1702397708324952
Object.<init>,0.04179497261800864,0.0,0.004183522644675679,0.0,0.04597849526268431
POSIXFactory.loadLibC,0.06985846154062668,0.0,0.008579999999757348,0.0,0.07843846154038403
POSIXFactory.loadLinuxPOSIX,0.06985846154062668,0.0,0.008579999999757348,0.0,0.07843846154038403
PackageManager.checkAccess,0.10621580909373181,0.0,0.012393545453548972,0.0,0.11860935454728078
ParseUtil.encodePath,0.06610099999913169,0.0,0.008129999999558397,0.0,0.07423099999869008
Pattern.expr,0.0559150000016315,0.0,0.006658333333891479,0.0,0.06257333333552298
Print$PyExposer.<init>,0.09828288888950028,0.0,0.012947999999758193,0.0,0.11123088888925847
PushbackInputStream.read,0.32096729888297276,0.0,0.03910606671829864,0.0,0.3600733656012714
Py.ValueError,0.0616721739124446,0.0,0.006286956521881106,0.0,0.0679591304343257
Py.getThreadState,0.09651824347982756,0.14424376190263066,0.011317347826527269,0.021208571428620156,0.27328792463760565
Py.newInteger,0.0,0.0,0.0,0.0,0.0
Py.newLong,0.08166505263484157,0.0,0.00249157894761179,0.0,0.08415663158245336
Py.println,0.025100097765786745,0.0,0.0026550117226163913,0.0,0.027755109488403137
PyArray$PyExposer.<init>,0.08838217948467876,0.0,0.008563076923261784,0.0,0.09694525640794055
PyBaseCode.call,0.0,0.19392900000093505,0.0,0.024434999999357387,0.21836400000029244
PyBaseExceptionDerived.dispatch__init__,0.06819666666706325,0.0,0.0044899999993504025,0.0,0.07268666666641366
PyComplex$PyExposer.<init>,0.023898666666354984,0.0,0.002221666666931317,0.0,0.0261203333332863
PyComplex.<init>,0.0,0.024315523406078343,0.0,0.005165229209809908,0.02948075261588825
PyComplex.__add__,0.0,0.05465547619332072,0.0,0.007921428571405289,0.06257690476472601
PyComplex._div,0.0,0.03401653629155298,0.0,0.005639672460099137,0.03965620875165212
PyComplex._mul,0.0,0.028222710129252045,0.0,0.00477353794477222,0.032996248074024265
PyComplex.canCoerce,0.0,0.028222710129252045,0.0,0.00477353794477222,0.032996248074024265
PyDictionary$PyExposer.<init>,0.04045955555759266,0.0,0.004686666666303709,0.0,0.04514622222389637
PyDictionary$dict_has_key_exposer.bind,0.04613532365049198,0.0,0.005929470665485543,0.0,0.05206479431597752
PyDictionary.<init>,0.08758533333214777,0.0,0.009415000000444708,0.0,0.09700033333259248
PyDictionary.__finditem__,0.04624054166667217,0.12417987925016596,0.00466374999943279,0.018928903664173654,0.19401307458044456
PyFloat.canCoerce,0.0,0.03720504272275869,0.0,0.00585963858261307,0.043064681305371756
PyFloat.float___add__,0.0,0.03243016563491023,0.0,0.00496346032293324,0.03739362595784347
PyFloat.float___cmp__,0.03294243750133319,0.0,0.0047512500004055856,0.0,0.03769368750173877
PyFloat.float___div__,0.0,0.07792090914689828,0.0,0.012257518507604004,0.09017842765450229
PyFloat.float___hash__,0.03616656533523576,0.0,0.0036917015699127038,0.0,0.039858266905148466
PyFloat.float___mul__,0.0,0.03243016563491023,0.0,0.00496346032293324,0.03739362595784347
PyFloat.float___sub__,0.0,0.028990499323661833,0.0,0.004357055942809442,0.03334755526647128
PyFrame.<init>,0.12006785714093851,0.26439871428426287,0.012925071429154266,0.03425000000078442,0.43164164285514006
PyFrame.getLocals,0.0,0.062081428567623886,0.0,0.007346428571205856,0.06942785713882975
PyFrame.getglobal,0.14730615838429906,0.0,0.01536537264768419,0.0,0.16267153103198326
PyFrame.getlocal,0.20704667614581457,0.08205653037094271,0.022487823943973133,0.012035737343714235,0.3236267678044446
PyFrame.setline,0.2884731231229477,0.2681269999933041,0.029499287858328477,0.036065000000841486,0.6221644109754217
PyFrame.setlocal,0.18477520334349945,0.3068236666586017,0.019091828449561456,0.037740000000364184,0.5484306984520267
PyFunction.function___get__,0.0,0.05032771428731004,0.0,0.007842857142739895,0.05817057143004993
PyInstance.instance___setattr__,0.05202626666577999,0.0,0.005415999999968335,0.0,0.05744226666574832
PyInteger$PyExposer.<init>,0.03084885714218086,0.0,0.0034157142851784427,0.0,0.0342645714273593
PyInteger._sub,0.0,0.07269544059570059,0.0,0.01062276454458782,0.08331820514028841
PyInteger.canCoerce,0.0,0.1203931838563345,0.0,0.01905722634765092,0.1394504102039854
PyInteger.divide,0.08115666666465889,0.05891645336826028,0.005694999999832362,0.007935848504216924,0.15370396853696844
PyInteger.getValue,0.016975933332772305,0.0,0.0016219999997701964,0.0,0.0185979333325425
PyInteger.int___add__,0.12579041371535796,0.0,0.012952917335301021,0.0,0.13874333105065897
PyInteger.int___sub__,0.0,0.08986114286069226,0.0,0.01738714285706269,0.10724828571775495
PyIterator.<init>,0.0,0.058874909095748364,0.0,0.006865454545318657,0.06574036364106702
PyJavaType.getDescrMethod,0.03320325000095181,0.0,0.006149999999252032,0.0,0.03935325000020384
PyJavaType.init,0.06203331932612513,0.0,0.007368739495643789,0.0,0.06940205882176892
PyList.list___len__,0.04381686210851332,0.08815500000006674,0.004937325370206157,0.009595000000141832,0.14650418747892804
PyList.pyget,0.04964194444457665,0.19810000000385722,0.00197916666669092,0.021855000000262706,0.2715761111153875
PyList.pyset,0.01883575757595033,0.0,0.0011381818180917905,0.0,0.01997393939404212
PyObject$object___setattr___exposer.__call__,0.049121066665975384,0.0,0.005819999999948778,0.0,0.05494106666592416
PyObject.<init>,0.08298852121286363,0.1508065651980024,0.010165818182135945,0.01685573397780925,0.2608166385708112
PyObject.__call__,0.02814803921615285,0.0,0.002570588235268552,0.0,0.030718627451421402
PyObject.__getitem__,0.028975435018041108,0.0,0.0035093603932939608,0.0,0.03248479541133507
PyObject._add,0.047729500001878485,0.0,0.006052500000199264,0.0,0.05378200000207775
PyObject._basic_add,0.17311269444568705,0.0,0.028496041666332732,0.0,0.2016087361120198
PyObject._cmp,0.03648941590661112,0.0,0.003934850112095214,0.0,0.04042426601870633
PyObject._eq,0.03294243750133319,0.04147637255207919,0.0047512500004055856,0.005447647059019586,0.08461770711283756
PyObject._gt,0.02719239583257149,0.0,0.0033843749997686245,0.0,0.030576770832340113
PyObject._lt,0.08008892528774052,0.0,0.0097933189658186,0.0,0.08988224425355912
PyObject.getType,0.05023455151513742,0.03316291913139305,0.004079454544835519,0.005732510774982904,0.0932094359663489
PyObject.isDataDescr,0.032603614036097975,0.0,0.005543421051953102,0.0,0.038147035088051076
PyObject.object___findattr__,0.05002636599396257,0.0,0.005766131557228927,0.0,0.05579249755119149
PyReflectedFunction._doget,0.056599666667655875,0.0,0.003910000000663179,0.0,0.060509666668319056
PySequence.<init>,0.05146480000306231,0.0,0.006228000000313236,0.0,0.057692800003375545
PySequence.seq___finditem__,0.0,0.1015419999991233,0.0,0.01689999999992627,0.11844199999904957
PySequence.seq___setslice__,0.0,0.06346181818199427,0.0,0.007418181818193811,0.07088000000018808
PySequence.sliceLength,0.06530766666643709,0.0,0.00923500000014125,0.0,0.07454266666657834
PySet$PyExposer.<init>,0.01924633333449795,0.0,0.0013533333330997266,0.0,0.020599666667597678
PySlice.<init>,0.06404284550485467,0.0,0.008663802631928801,0.0,0.07270664813678347
PySlice.indicesEx,0.10918963157784768,0.0,0.015071052631627248,0.0,0.12426068420947493
PySlot$PyExposer.<init>,0.06509399999958987,0.0,0.005970000000161235,0.0,0.0710639999997511
PyString$str_isspace_exposer.bind,0.03373410526214764,0.0,0.004185789473954253,0.0,0.03791989473610189
PyString.<init>,0.04020687500239243,0.0,0.008865624999998545,0.0,0.049072500002390974
PyString._isalnum,0.020929454546245372,0.0,0.0023927272726943947,0.0,0.023322181818939768
PyString.str___add__,0.14984314014614164,0.0,0.024625151515598614,0.0,0.17446829166174024
PyString.str___ge__,0.024989619047292286,0.0,0.0013428571428881868,0.0,0.026332476190180473
PyString.str_title,0.04563951515151668,0.0,0.0042927272725412895,0.0,0.04993224242405797
PyStringMap.__finditem__,0.3506331372381216,0.0,0.040116704830189406,0.0,0.39074984206831104
PyTableCode.call,0.041724079141010534,0.0680105714252152,0.004823974939682503,0.011091428571359885,0.12565005407726812
PyTuple.<init>,0.07318133333562096,0.0,0.01088999999895653,0.0,0.08407133333457749
PyType.createType,0.03434542857264335,0.0,0.0025007142862055578,0.0,0.03684614285884891
PyType.fromClass,0.5134093547261293,0.52842209523771,0.06621004890248448,0.07587500000123067,1.1839164988675543
PyType.invoke_new_,0.05670048958313601,0.0,0.005859687500143688,0.0,0.0625601770832797
PyType.lookup,0.15686853333027106,0.0,0.018676000000171677,0.0,0.17554453333044273
PyType.newType,0.09595595238005486,0.0,0.011646428571284992,0.0,0.10760238095133985
PyUnicode.<init>,0.07779563492069776,0.0,0.016289285714019715,0.0,0.09408492063471748
PyUnicode.fromSubstring,0.03781962640107527,0.0,0.004115664945772936,0.0,0.04193529134684821
PyUnicode.unicode___add__,0.04488924074205526,0.0,0.0067636111114687215,0.0,0.05165285185352398
PythonLexer$DFA43.specialStateTransition,0.018740092592553183,0.0,0.002213888889215283,0.0,0.020953981481768465
PythonLexer.mWS,0.05794880000224415,0.0,0.008025499999712336,0.0,0.06597430000195649
PythonParser.<clinit>,0.12524937500378047,0.0,0.010125000000395326,0.0,0.1353743750041758
PythonParser.<init>,0.0806427083307426,0.0,0.00756874999979118,0.0,0.08821145833053377
PythonParser.expr_stmt,0.04121536363725847,0.0,0.005534999999574873,0.0,0.046750363636833346
PythonParser.or_test,0.07841000000189524,0.0,0.0108100000009775,0.0,0.08922000000287274
PythonParser.shift_expr,0.041736428571485226,0.0,0.005689285713915957,0.0,0.04742571428540118
PythonParser.stmt,0.029276500001287783,0.0,0.003885000000082073,0.0,0.03316150000136986
PythonParser.term,0.11280595586401662,0.0,0.014340711554146044,0.0,0.12714666741816266
PythonTokenSource.insertImaginaryIndentDedentTokens,0.02878213333387975,0.0,0.004490499999883468,0.0,0.03327263333376322
PythonTree.<init>,0.04350779999949736,0.0,0.006555499999497745,0.0,0.05006329999899511
PythonTree.getLine,0.041736428571485226,0.0,0.005689285713915957,0.0,0.04742571428540118
ReflectionFactory.langReflectAccess,0.05809343137433661,0.0,0.005647352940857172,0.0,0.06374078431519378
RewriteRuleElementStream.<init>,0.15715229629732436,0.0,0.018946611110745665,0.0,0.17609890740807002
ScopesCompiler.suite,0.09597509090720753,0.0,0.009879545454609659,0.0,0.10585463636181719
SequenceIndexDelegate.checkIdxAndGetItem,0.03354797433107794,0.0,0.003540087758666442,0.0,0.03708806208974438
SequenceIndexDelegate.fixindex,0.04964194444457665,0.0,0.00197916666669092,0.0,0.05162111111126757
Stack.peek,0.029276500001287783,0.0,0.003885000000082073,0.0,0.03316150000136986
String.<init>,0.02093288888702065,0.0,0.002337777778006124,0.0,0.023270666665026776
String.charAt,0.031479393939000816,0.0,0.003920000000190074,0.0,0.03539939393919089
String.concat,0.0823656666671687,0.0,0.012646666666788169,0.0,0.09501233333395687
String.getChars,0.021972714285116768,0.062124999998819215,0.0045642857143580575,0.006814285714513278,0.09547628571280731
String.hashCode,0.0944870544659582,0.06548214285950442,0.009024836601031164,0.008257142857300573,0.17725117678379432
String.intern,0.0,0.5635894329027697,0.0,0.06505370129809811,0.6286431342008678
String.length,0.031790571426556974,0.0,0.007146428571494262,0.0,0.03893699999805124
String.substring,0.0532429999972616,0.0,0.0012000000000019402,0.0,0.05444299999726354
String.toCharArray,0.05149850000088918,0.0,0.006288749998930143,0.0,0.05778724999981932
String.toLowerCase,0.11126970043189702,0.0,0.012743275861054627,0.0,0.12401297629295165
StringTokenizer.<init>,0.07944193939240933,0.0,0.009672727272669416,0.0,0.08911466666507875
StringUtil.isJavaIdentifier,0.059410944446224474,0.0,0.007490000000365803,0.0,0.06690094444659028
Strings$py.test$11,0.6031514045374419,0.0,0.10232903244302413,0.0,0.705480436980466
Strings$py.test$14,0.09150996491166952,0.0,0.0107810526308624,0.0,0.10229101754253192
Strings$py.test$17,0.10464468749933076,0.0,0.012971250000418877,0.0,0.11761593749974963
Strings$py.test$2,0.11267604166520565,0.0,0.025689999999940483,0.0,0.13836604166514613
Strings$py.test$20,0.1729406730469011,0.0,0.021979043061856936,0.0,0.19491971610875805
Strings$py.test$5,0.4918500326775419,0.0,0.03932527777689364,0.0,0.5311753104544356
Strings$py.test$8,0.8856296215755987,0.0,0.06971548001828314,0.0,0.9553451015938818
Subscript$PyExposer.<init>,0.0244566212120734,0.0,0.001921818181885597,0.0,0.026378439393958994
Suite.<init>,0.0449802888877457,0.0,0.005850000000403572,0.0,0.05083028888814927
ThreadLocal$ThreadLocalMap.access$000,0.028055833333686067,0.0,0.002087499999712842,0.0,0.03014333333339891
ThreadLocal$ThreadLocalMap.getEntry,0.36011119852135476,0.1688375238112972,0.03463563118213268,0.020136428571363683,0.5837207820861483
ThreadLocal.get,0.0559548118282535,0.0,0.006517096774792485,0.0,0.06247190860304599
Throwable.fillInStackTrace,3.4510684704034116,0.0,0.4142200265483411,0.0,3.8652884969517527
Time._timefields,0.0778494623658042,0.0,0.008422580645582389,0.0,0.08627204301138659
Tuples$py.test$2,0.13848900000205805,0.0,0.02012499999909778,0.0,0.15861400000115583
Tuples$py.test$5,0.3603390000028109,0.0,0.05763799999889063,0.0,0.4179770000017015
URLClassLoader.isSealed,0.03434542857264335,0.0,0.0025007142862055578,0.0,0.03684614285884891
US_ASCII$Decoder.decodeArrayLoop,0.04688040579756067,0.0,0.006466086955565582,0.0,0.05334649275312625
UTF_8$Decoder.decode,0.08123100000375416,0.0,0.009868333333239812,0.0,0.09109933333699398
Unicode$py.test$11,0.0718018396533016,0.0,0.008347034260618799,0.0,0.0801488739139204
Unicode$py.test$2,0.021972714285116768,0.0,0.0045642857143580575,0.0,0.026536999999474824
Unicode$py.test$20,0.1442838314749229,0.0,0.017532634342816173,0.0,0.1618164658177391
Unicode$py.test$5,0.207599842597254,0.0,0.02040277777885219,0.0,0.2280026203761062
UnixFileSystem.delete0,0.0910069063695629,0.0,0.010322115652612318,0.0,0.10132902202217522
UnsafeFieldAccessorFactory.newFieldAccessor,0.08819481159456621,0.0,0.012850869565938963,0.0,0.10104568116050518
While$PyExposer.<init>,0.054773333333152416,0.0,0.006152777778307036,0.0,0.06092611111145945
ZipEntry.isDirectory,0.04235844444418843,0.0,0.005216666666254038,0.0,0.04757511111044247
ZipFile.getEntry,0.0736561764705602,0.0,0.010850882353171233,0.0,0.08450705882373144
ZipFile.open,0.0679524999981772,0.0,0.00923749999957282,0.0,0.07718999999775002
ZipFile.read,0.08613314814957213,0.0,0.009438888888932222,0.0,0.09557203703850435
ZipInputStream.<init>,0.044474444445869364,0.0,0.005190000000261028,0.0,0.04966444444613039
ZipInputStream.ensureOpen,0.06472785185151561,0.0,0.004160000000478316,0.0,0.06888785185199392
ZipInputStream.read,0.359648435753284,0.0,0.041248524156848036,0.0,0.400896959910132
ZipInputStream.readEnd,0.022515111112928327,0.0,0.0004000000004048665,0.0,0.022915111113333195
ZipUtils.get16,0.028096500001993263,0.0,0.004080000000006597,0.0,0.03217650000199986
__builtin__.fillWithBuiltins,0.056599666667655875,0.0,0.003910000000663179,0.0,0.060509666668319056
__builtin__.range,0.05012465221967122,0.0,0.007125949224619431,0.0,0.05725060144429065
imp.cacheCompiledSource,0.03323016666743368,0.0,0.005133333333105838,0.0,0.03836350000053952
imp.getParent,0.0,0.062124999998819215,0.0,0.006814285714513278,0.0689392857133325
imp.import_name,0.0,0.14212899999675396,0.0,0.016621818181440838,0.1587508181781948
imp.import_next,0.0,0.18562818181729226,0.0,0.021317272727063744,0.206945454544356
jython.newInterpreter,0.04688040579756067,0.0,0.006466086955565582,0.0,0.05334649275312625
mod.<clinit>,0.03365083333240666,0.0,0.0046599999999064785,0.0,0.03831083333231314
pybench$py.stat$12,0.03645453799887756,0.0,0.0040028078249001895,0.0,0.040457345823777746
unicodedata$py.get$11,0.06903066666563973,0.0,0.008900000000721775,0.0,0.0779306666663615
unicodedata$py.get_codepoint$9,0.034236726910829705,0.0,0.0041500081562820465,0.0,0.03838673506711175
unicodedata$py.init_east_asian_width$5,0.06156021505356416,0.0,0.008783870967642042,0.0,0.0703440860212062
unicodedata$py.init_unicodedata$4,0.05411783333329368,0.0,0.006244999999883778,0.0,0.06036283333317746
