method,hits
AbstractCollection.toArray,8
AbstractStringBuilder.<init>,4
ArgParser.getList,2
Arithmetic$py.test$11,18
Arithmetic$py.test$14,26
Arithmetic$py.test$2,32
Arithmetic$py.test$5,26
Arithmetic$py.test$8,32
ArrayList.add,4
ArrayList.elementData,4
ArrayList.ensureExplicitCapacity,2
ArrayList.grow,2
Arrays.copyOf,24
Arrays.copyOfRange,2
Arrays.fill,2
BaseParser.setupParser,24
BaseRecognizer.pushFollow,2
BigInteger.compareTo,2
BufferedInputStream.getBufIfOpen,4
BufferedInputStream.read,70
BufferedInputStream.read1,6
BuiltinFunctions.__call__,4
CRC32.update,2
CachedJarsPackageManager.listToString,2
Calls$py.g$5,2
Calls$py.test$16,2
Calls$py.test$2,8
Channels.newChannel,2
Character.getType,6
Character.isLowerCase,2
Character.toLowerCase,2
Character.toUpperCaseEx,2
CharacterData.of,6
CharacterData00.toUpperCaseCharArray,2
CharacterDataLatin1.getProperties,2
Class.getDeclaredConstructors0,12
Class.searchMethods,2
ClassFile.addMethod,2
ClassLoader.defineClass1,24
ClassLoader.findBootstrapClass,2
ClassPool.get0,2
ClassReader.a,2
ClassWriter.visitMethod,2
CodeCompiler.<init>,2
CommonTokenStream.LT,2
CommonTokenStream.fillBuffer,4
ConcurrentHashMap$Node.<init>,2
ConcurrentHashMap.casTabAt,8
ConcurrentHashMap.get,18
ConcurrentHashMap.putVal,10
ConcurrentHashMap.remove,2
ConcurrentHashMap.tabAt,14
ConcurrentHashMap.transfer,2
ConditionalSpecialCasing.isFinalCased,2
ConfigFile.<init>,2
Constructs$py.test$2,14
Constructs$py.test$5,4
Constructs$py.test$8,10
DFA.predict,2
DataInputStream.readUTF,2
DataOutputStream.writeUTF,2
Dict$py.test$11,8
Dict$py.test$14,12
Dict$py.test$2,14
Dict$py.test$5,8
Dict$py.test$8,10
Enum.ordinal,2
EnumSet.noneOf,2
Exceptions$py.test$5,10
FileInputStream.available0,6
FileInputStream.readBytes,18
FileOutputStream.<init>,2
FileOutputStream.open0,14
FileOutputStream.writeBytes,32
For$PyExposer.<init>,2
GeneratorExp$PyExposer.<init>,2
GrammarActions.makeFuncdef,2
HashMap.getNode,6
Imports$py.test$2,2
Imports$py.test$5,2
Inflater.inflate,22
Inflater.inflateBytes,500
Inflater.needsDictionary,4
Inflater.needsInput,2
Inflater.reset,2
Inflater.setInput,2
InflaterInputStream.<init>,2
InflaterInputStream.ensureOpen,2
InflaterInputStream.read,2
Instances$py.test$2,2
Lexer.emit,2
Lists$py.test$2,30
Lists$py.test$8,10
LongVector.addElement,2
Lookups$py.test$12,8
Lookups$py.test$17,12
Lookups$py.test$2,14
Lookups$py.test$22,10
Lookups$py.test$7,18
Manifest.<init>,2
Math.min,2
MethodWriter.visitLabel,2
MethodWriter.visitVarInsn,2
Module.PyCode,2
Module.PyFloat,2
MutableBigInteger.divideOneWord,2
NativeMethodAccessorImpl.invoke0,2
Numbers$py.test$11,8
Numbers$py.test$2,14
Numbers$py.test$5,8
Numbers$py.test$8,4
Object.<init>,2
PackageManager.checkAccess,2
Pattern$CharProperty.<init>,2
PushbackInputStream.ensureOpen,2
PushbackInputStream.read,4
Py.<clinit>,2
Py.findClass,2
Py.getThreadState,6
Py.maybeWrite,2
Py.newBoolean,2
Py.newInteger,4
PyBaseCode.call,4
PyDictProxy$PyExposer.<init>,2
PyDictionary$PyExposer.<init>,2
PyDictionary.__finditem__,4
PyFloat.float___cmp__,2
PyFrame.<init>,6
PyFrame.getglobal,2
PyFrame.getlocal,20
PyFrame.setline,16
PyFrame.setlocal,10
PyFunction.__call__,2
PyFunction.function___get__,2
PyInstance.__findattr_ex__,4
PyInteger.__add__,2
PyInteger._sub,2
PyInteger.coerce,2
PyInteger.divide,2
PyList.<init>,2
PyList.list___iter__,6
PyList.list___len__,4
PyList.pyget,4
PyLong.canCoerce,2
PyObject.<init>,2
PyObject.__call__,4
PyObject.__eq__,2
PyObject._basic_add,2
PyObject._basic_div,2
PyObject._basic_sub,2
PyObject._cmp_unsafe,4
PyObject._eq,2
PyObject._ge,4
PyObject._gt,4
PyObject._lt,4
PyObject._ne,2
PyObject.getType,4
PyObject.object___findattr__,2
PyObjectDerived.dispatch__init__,2
PyOverridableNew.new_impl,2
PySequence$1.len,2
PySequence.seq___finditem__,2
PySequence.seq___setitem__,4
PySlice.indicesEx,2
PyString$str_isupper_exposer.__call__,2
PyString.coerce,2
PyString.splitfields,2
PyString.str_isdecimal,2
PyString.str_title,10
PyStringMap.__finditem__,6
PySystemState.<clinit>,2
PyTableCode.call,4
PyTimeTuple$PyExposer.<init>,2
PyTuple.<init>,8
PyType.createType,2
PyType.fromClass,22
PyType.isSubType,2
PyType.lookup,2
PyUnicode$unicode_isdigit_exposer.bind,2
PyUnicode.<init>,6
PythonLexer.<clinit>,4
PythonLexer.mCOMMENT,2
PythonLexer.mTRY,2
PythonParser.<clinit>,6
PythonParser.arglist,2
PythonParser.argument,2
PythonParser.arith_expr,2
PythonParser.atom,4
PythonParser.exec_stmt,2
PythonParser.expr,4
PythonParser.file_input,2
PythonParser.funcdef,2
PythonParser.synpred8_Python_fragment,2
PythonParser.term,2
PythonParser.trailer,2
PythonParser.varargslist,2
ReferenceQueue.<init>,2
RegularEnumSet.contains,2
ScopesCompiler.visitImportFrom,2
String.<init>,2
String.concat,4
String.equals,2
String.getChars,4
String.hashCode,2
String.intern,20
String.replace,2
String.substring,6
String.toLowerCase,2
String.toUpperCase,12
Strings$py.test$11,4
Strings$py.test$14,8
Strings$py.test$17,4
Strings$py.test$2,4
Strings$py.test$20,10
Strings$py.test$5,18
Strings$py.test$8,16
System.arraycopy,2
System.nanoTime,2
ThreadLocal$ThreadLocalMap.getEntry,6
ThreadLocal.get,2
ThreadStateMapping.getThreadState,8
Throwable.fillInStackTrace,138
Tuples$py.test$2,6
Tuples$py.test$5,14
Unicode$py.test$11,2
Unicode$py.test$17,4
Unicode$py.test$2,2
Unicode$py.test$20,2
Unicode$py.test$5,4
Unicode$py.test$8,4
UnixFileSystem.delete0,6
UnixFileSystem.getBooleanAttributes0,4
UnixFileSystem.normalize,2
VisitorBase.visitCall,2
ZStreamRef.address,2
ZipFile.open,2
ZipFile.read,6
ZipInputStream.ensureOpen,4
ZipInputStream.read,6
ZipInputStream.skip,4
__builtin__.fillWithBuiltins,2
arguments.<init>,2
comprehension$PyExposer.<init>,2
imp.import_logic,2
imp.import_next,2
site$py.<init>,2
unicodedata$py.call_function,2
