method,package1,package2,dram1,dram2,energy
ANTLRStringStream.consume,0.09213214454430957,0.0,0.006956532299076578,0.0,0.09908867684338615
ANTLRStringStream.rewind,0.02625832475411707,0.0,0.0008729731430027768,0.0,0.027131297897119846
AbstractCollection.toArray,0.037704918201913004,0.0,0.004601758506139872,0.0,0.042306676708052875
AbstractQueuedSynchronizer.compareAndSetState,0.04797220902477131,0.0,0.0053631228281697035,0.0,0.053335331852941016
ArgParser.<init>,0.04044810810867332,0.0,0.004305405405289462,0.0,0.04475351351396278
ArgParser.check,0.020795794871773046,0.0,0.0028492307688933447,0.0,0.02364502564066639
Arithmetic$py.test$11,0.12728959396383815,0.0,0.015289971454563886,0.0,0.14257956541840205
Arithmetic$py.test$14,0.372358572058212,0.0,0.045324435093981603,0.0,0.4176830071521936
Arithmetic$py.test$2,0.47432494521667456,0.0,0.036007658310559514,0.0,0.5103326035272341
Arithmetic$py.test$5,0.34335208838156367,0.0,0.03358911942798968,0.0,0.37694120780955337
Arithmetic$py.test$8,0.4440687715314947,0.0,0.03564071345210172,0.0,0.47970948498359645
ArrayList.<init>,0.04258670332116303,0.0,0.0005784783800157923,0.0,0.04316518170117882
ArrayList.addAll,0.06419600012179587,0.0,0.004987643750869506,0.0,0.06918364387266537
ArrayList.elementData,0.06236076648402751,0.0,0.008235949713980225,0.0,0.07059671619800774
ArrayList.removeRange,0.027864243083295864,0.0,0.004410341650395048,0.0,0.03227458473369091
Arrays.copyOf,0.19183407165081867,0.0,0.024799755975143698,0.0,0.21663382762596237
Arrays.copyOfRange,0.07508335735978533,0.0,0.009005108098857078,0.0,0.0840884654586424
Arrays.fill,0.050457168191264695,0.0,0.004847742508900763,0.0,0.05530491070016546
AttributeInfo.read,0.03801612873460315,0.0,0.0023148984271513023,0.0,0.040331027161754456
AugAssign$PyExposer.<init>,0.03704222564821022,0.0,0.003918208454079141,0.0,0.04096043410228936
BaseParser.setupParser,0.26499915083543246,0.0,0.01074622499041748,0.0,0.27574537582584996
BaseRecognizer.pushFollow,0.036512765958226126,0.0,0.005297872340111582,0.0,0.041810638298337706
BaseTreeAdaptor.nil,0.07352358156016156,0.0,0.010425531915340494,0.0,0.08394911347550206
BaseTypeBuilder.getDict,0.029461331680227725,0.0,0.002402907198690463,0.0,0.03186423887891819
Benchmark.fileFromInputStream,0.05928878207005446,0.0,0.00697397554745482,0.0,0.06626275761750929
Benchmark.unpackZipStream,0.0,0.02688800000081149,0.0,0.0038400000000062095,0.0307280000008177
BreakIterator.setText,0.033926857142692564,0.0,0.004517142857366707,0.0,0.03844400000005927
BufferedInputStream.read,0.6814143766204016,0.0436810000052598,0.06351773435722662,0.005499999999907836,0.7941131109827958
BufferedInputStream.read1,0.07538798535295119,0.035750925925202424,0.005290645885559393,0.005355555555339648,0.12178511271905265
BuiltinFunctions.__call__,0.06093860695467735,0.0,0.00876643355952565,0.0,0.069705040514203
CachedJarsPackageManager.addJarToPackages,0.03961459512563959,0.0,0.003792671336860515,0.0,0.04340726646250011
CachedJarsPackageManager.addZipEntry,0.028207005956098437,0.0,0.0030972374747496325,0.0,0.03130424343084807
CachedJarsPackageManager.getZipPackages,0.0300468007344902,0.0,0.002264214373940861,0.0,0.03231101510843106
CalendarSystem.<clinit>,0.019602238777304395,0.0,0.002009884780911723,0.0,0.02161212355821612
Calls$py.test$13,0.11220795238036121,0.0,0.011210178571716477,0.0,0.1234181309520777
Calls$py.test$16,0.09154833078451569,0.0,0.00761805502504433,0.0,0.09916638580956001
Calls$py.test$2,0.16551488766623942,0.0,0.018099027509620683,0.0,0.18361391517586012
Calls$py.test$27,0.029140182912778662,0.0,0.001905551259192809,0.0,0.03104573417197147
Character.getType,0.018307874506366117,0.0,0.001980150620551028,0.0,0.020288025126917145
Character.isLowerCase,0.06929829231753476,0.0,0.009376220137907182,0.0,0.07867451245544194
Character.toLowerCase,0.05147889530074123,0.0,0.003393889619335716,0.0,0.054872784920076946
Character.toTitleCase,0.03404596554857366,0.0,0.002958368521502957,0.0,0.03700433407007662
Character.toUpperCaseEx,0.01471804260192858,0.0,0.0014661434451490908,0.0,0.01618418604707767
CharacterData00.isOtherUppercase,0.046636001318692416,0.0,0.004616822564935431,0.0,0.05125282388362785
CharacterDataLatin1.toUpperCase,0.02957959290373505,0.0,0.0025386048563502124,0.0,0.03211819776008526
Class.forName0,0.11793998342336556,0.0,0.013328098580970688,0.0,0.13126808200433626
Class.getDeclaredConstructors0,0.2596105289580219,0.03983547133057395,0.025713369141200176,0.005121848909987451,0.3302812183397835
Class.getResourceAsStream,0.04036082180031018,0.0,0.0019995193709618827,0.0,0.04236034117127206
Class.isAssignableFrom,0.019847337027462338,0.0,0.0002477286621853356,0.0,0.020095065689647675
Class.reflectionData,0.07075428571468884,0.0,0.009354285714271965,0.0,0.0801085714289608
ClassLoader.defineClass1,0.7458840518458824,0.1129832887271528,0.06730184319794137,0.018404335750638812,0.9445735195216154
ClassLoader.resolveClass0,0.0241843870963328,0.0,0.003846451612981162,0.0,0.028030838709313964
ClassReader.accept,0.06364382248858245,0.0,0.005547608458160018,0.0,0.06919143094674247
CodeAttribute.<init>,0.06793422249963303,0.0,0.00816872104703653,0.0,0.07610294354666956
CodeCompiler.makeArray,0.039067800011913054,0.0,0.0015857898430974892,0.0,0.040653589855010545
Collections$UnmodifiableMap$UnmodifiableEntrySet.iterator,0.0227784498756438,0.0,0.0016071879138916587,0.0,0.02438563778953546
CommonToken.setTokenIndex,0.08140635953105423,0.0,0.007790711967344128,0.0,0.08919707149839835
CommonTokenStream.fillBuffer,0.0,0.008644463517902969,0.0,0.0010583690988312598,0.009702832616734228
ConcurrentHashMap$EntrySetView.iterator,0.0424078113855308,0.0,0.004840715869447021,0.0,0.04724852725497782
ConcurrentHashMap.addCount,0.14883559192674328,0.0,0.015796871256962084,0.0,0.16463246318370536
ConcurrentHashMap.casTabAt,0.05966561654933939,0.0,0.006430870121842011,0.0,0.0660964866711814
ConcurrentHashMap.get,0.3146567988138879,0.0,0.03593527102821028,0.0,0.3505920698420982
ConcurrentHashMap.initTable,0.03632898809722373,0.0,0.004246644045810409,0.0,0.04057563214303414
ConcurrentHashMap.putVal,0.39195352323964283,0.0,0.03811121822713721,0.0,0.43006474146678003
ConcurrentHashMap.spread,0.031594705882632884,0.0,0.003452941176268117,0.0,0.035047647058901
ConcurrentHashMap.tabAt,0.3212101781388181,0.0,0.03156023004903841,0.0,0.3527704081878565
Constructs$py.test$2,0.43127063111482483,0.0,0.039495128646874704,0.0,0.47076575976169954
Constructs$py.test$5,0.11270582836522089,0.0,0.013254009940362712,0.0,0.1259598383055836
Constructs$py.test$8,0.05245976799638865,0.0,0.006214905111410023,0.0,0.05867467310779867
DataInputStream.readFully,0.03079691672081363,0.0,0.003123319715889936,0.0,0.03392023643670357
DataInputStream.readInt,0.056172360143180285,0.0,0.005036587808970285,0.0,0.061208947952150566
DataInputStream.readUTF,0.04537820924868878,0.0,0.002831600256609161,0.0,0.04820980950529794
DataInputStream.readUnsignedShort,0.10817981763363314,0.0,0.010499375692835312,0.0,0.11867919332646845
DataInputStream.skipBytes,0.023655828204146682,0.0,0.0019075838582791906,0.0,0.025563412062425874
DataOutputStream.writeUTF,0.0261292911433552,0.0,0.0021814247737961773,0.0,0.02831071591715138
DecimalFormat.setMaximumFractionDigits,0.057509293750507375,0.0,0.0053381271060165105,0.0,0.06284742085652388
Delete$PyExposer.<init>,0.02097440952228021,0.0,0.001752692967053999,0.0,0.02272710248933421
Dict$py.test$11,0.18348859571777507,0.0,0.018489336706119387,0.0,0.20197793242389445
Dict$py.test$14,0.1334636190475153,0.0,0.013654285714437716,0.0,0.14711790476195302
Dict$py.test$2,0.18886999437932947,0.0,0.02256784770975562,0.0,0.2114378420890851
Dict$py.test$5,0.10709668874830201,0.0,0.011414051343552127,0.0,0.11851074009185414
Dict$py.test$8,0.14758408115101193,0.0,0.020078438830001547,0.0,0.16766251998101347
DirectLongBufferU.ix,0.05327145749582177,0.0,0.005644552511440305,0.0,0.05891601000726207
DisabledAlgorithmConstraints$Constraints.<init>,0.04036082180031018,0.0,0.0019995193709618827,0.0,0.04236034117127206
Exceptions$py.test$2,0.05078133333235099,0.0,0.0039033333333564867,0.0,0.05468466666570748
Exceptions$py.test$5,0.08342815281326865,0.0,0.010178034709972986,0.0,0.09360618752324164
FieldInfo.read,0.054559202864668484,0.0,0.003237289461392025,0.0,0.05779649232606051
FileInputStream.available0,0.30044847133237446,0.0,0.02816116849875266,0.0,0.3286096398311271
FileInputStream.close0,0.0,0.06952142551305439,0.0,0.009874092577878059,0.07939551809093245
FileInputStream.open0,0.021534924731406467,0.0,0.0028529032260262138,0.0,0.024387827957432683
FileInputStream.readBytes,0.7772295085580698,0.0,0.05926226055547928,0.0,0.836491769113549
FileOutputStream.open0,0.27127115333819524,0.0,0.028770462447241747,0.0,0.300041615785437
FileOutputStream.writeBytes,0.4953623626541328,0.22152294712725193,0.047187745975225716,0.033093237373571595,0.7971662931301821
FilterInputStream.read,0.02277347742122185,0.0,0.0018332644797846567,0.0,0.024606741901006507
Frame.a,0.12730359136150896,0.0,0.010625074789397828,0.0,0.1379286661509068
GrammarActions.castExpr,0.02302203830376802,0.0,0.0029061972224327863,0.0,0.025928235526200806
GrammarActions.checkAssign,0.073738687125072,0.0,0.004578005858164314,0.0,0.07831669298323632
GrammarActions.makeFuncdef,0.031694323109082136,0.0,0.00485142192649857,0.0,0.03654574503558071
GrammarActions.makeTryExcept,0.034047951136085566,0.0,0.00042404880834727193,0.0,0.03447199994443284
HashMap.get,0.03238308436926005,0.0,0.0019903591976935023,0.0,0.03437344356695356
HashMap.getNode,0.15830289920792034,0.0,0.017286639146912582,0.0,0.17558953835483293
HashMap.hash,0.034345428567036464,0.0,0.004084108899875804,0.0,0.038429537466912266
HashMap.putVal,0.035327472400237675,0.0,0.003685762216801419,0.0,0.039013234617039094
Hashtable.get,0.0227784498756438,0.0,0.0016071879138916587,0.0,0.02438563778953546
Inflater.ended,0.0,0.09480799999922357,0.0,0.010940000000118744,0.10574799999934231
Inflater.finished,0.14174934165034891,0.0,0.008110962654610743,0.0,0.14986030430495967
Inflater.inflate,0.5764893481796735,0.0,0.04914571384132939,0.0,0.6256350620210028
Inflater.inflateBytes,14.485040398963111,0.5698504266057327,1.1138096449073136,0.07586601515088626,16.244566485627043
Inflater.needsDictionary,0.21204369228326078,0.0,0.018871544626625172,0.0,0.23091523690988597
Inflater.needsInput,0.1362691757429602,0.0,0.01375888632472968,0.0,0.1500280620676899
Inflater.setInput,0.0,0.04322763636291986,0.0,0.006483636363885704,0.04971127272680556
InflaterInputStream.read,0.03447204792984618,0.0,0.004580897753986311,0.0,0.03905294568383249
Instances$py.__init__$7,0.029839811775610982,0.0,0.0027513485364608157,0.0,0.0325911603120718
Instances$py.test$2,0.14162593443386137,0.0,0.013335548495454395,0.0,0.15496148292931577
Integer.valueOf,0.039316094257382,0.0,0.0008926534715570898,0.0,0.04020874772893909
JarVerifier.<init>,0.0,0.07975233333127107,0.0,0.0109599999996135,0.09071233333088458
Lists$py.test$2,0.34903523530072034,0.0,0.03612222539939294,0.0,0.38515746070011325
Lists$py.test$8,0.2327158913551116,0.0,0.023750828172870428,0.0,0.256466719527982
Lookups$py.test$12,0.1521689595491903,0.0,0.01937584919327876,0.0,0.17154480874246905
Lookups$py.test$17,0.14463122565903208,0.0,0.010253638473999996,0.0,0.15488486413303207
Lookups$py.test$2,0.27555104611248493,0.0,0.021629051968915864,0.0,0.2971800980814008
Lookups$py.test$22,0.05754979310327093,0.0,0.00583724137904101,0.0,0.06338703448231194
Lookups$py.test$7,0.29940825099412494,0.0,0.027166557248470037,0.0,0.326574808242595
MakeProxies.makeProxy,0.02044339487268797,0.0,0.0023892401400935287,0.0,0.0228326350127815
Module.<init>,0.028848526187372964,0.0,0.0022224851006913053,0.0,0.03107101128806427
Module.PyCode,0.02340371091049941,0.0,0.0016015979601567045,0.0,0.025005308870656114
Native.initIDs,0.033506603517159075,0.0,0.0024453500571490826,0.0,0.03595195357430816
NativeLibrary.<clinit>,0.033506603517159075,0.0,0.0024453500571490826,0.0,0.03595195357430816
NewInstances$py.test$3,0.048986972826764265,0.0,0.0053458179940739795,0.0,0.05433279082083824
NotFoundException.<init>,0.028848526187372964,0.0,0.0022224851006913053,0.0,0.03107101128806427
Numbers$py.test$11,0.19752423809387393,0.0,0.019170714284839397,0.0,0.21669495237871333
Numbers$py.test$2,0.22944279797883782,0.0,0.015840353534518903,0.0,0.24528315151335672
Numbers$py.test$5,0.20723138888974466,0.0,0.017429166666463262,0.0,0.22466055555620792
Numbers$py.test$8,0.2197559259258452,0.0,0.019991388888700855,0.0,0.23974731481454606
Object.<init>,0.08175210668779102,0.0,0.008257729822177534,0.0,0.09000983650996856
Object.clone,0.09519659287014255,0.0,0.011786498825044723,0.0,0.10698309169518727
POSIXFactory.loadLinuxPOSIX,0.019847337027462338,0.0,0.0002477286621853356,0.0,0.020095065689647675
Package$1.run,0.030028479897997475,0.0,0.003791275277931584,0.0,0.033819755175929056
PackageManager.checkAccess,0.036929688180329566,0.0,0.0004965649470282419,0.0,0.037426253127357804
Parser.parseMethodCall,0.028754122694426218,0.0,0.00045712528076011466,0.0,0.029211247975186334
PushbackInputStream.read,0.07374478200307026,0.0,0.008567327157081469,0.0,0.08231210916015173
Py.ValueError,0.05833253425569169,0.0,0.005418855143174342,0.0,0.06375138939886603
Py.getThreadState,0.10334075542090318,0.0,0.01056392146361982,0.0,0.11390467688452299
Py.newBoolean,0.0581314107096403,0.0,0.007642359495841413,0.0,0.06577377020548171
PyArray$PyExposer.<init>,0.05879426149258444,0.0,0.0043621245637138605,0.0,0.0631563860562983
PyBaseCode.call,0.07896010564721051,0.0,0.00840742912231107,0.0,0.08736753476952158
PyBaseException$BaseException___init___exposer.bind,0.02485488888810828,0.0,0.0027766666668564235,0.0,0.027631555554964705
PyBaseString.<init>,0.049643738292350525,0.0,0.004402309932561675,0.0,0.0540460482249122
PyClass.__findattr_ex__,0.03091876478313652,0.0,0.002661506901708073,0.0,0.03358027168484459
PyClass.__setattr__,0.04634338935626005,0.0,0.004210789642421765,0.0,0.05055417899868181
PyClass.lookup,0.03646699378860127,0.0,0.00443595132053294,0.0,0.04090294510913421
PyComplex.__add__,0.0201299999995778,0.0,0.002628571428691169,0.0,0.02275857142826897
PyComplex.canCoerce,0.07850152641602791,0.0,0.006107469219667878,0.0,0.0846089956356958
PyComplex.complex___sub__,0.036527548230440576,0.0,0.0047530064131291495,0.0,0.04128055464356972
PyDictionary.dict___delitem__,0.021833142856762387,0.0,0.0021728571428823104,0.0,0.024005999999644697
PyDictionary.dict___setitem__,0.0276144467031514,0.0,0.002324172890557307,0.0,0.029938619593708707
PyException.doRaise,0.03434031579021585,0.0,0.0030805263158981693,0.0,0.037420842106114016
PyException.tracebackHere,0.06160856644894794,0.0,0.006593503794925345,0.0,0.06820207024387329
PyFile$PyExposer.<init>,0.0376203744633669,0.0,0.0024746535673596626,0.0,0.04009502803072656
PyFile$name_descriptor.<init>,0.03670324141786546,0.0,0.002574486427827073,0.0,0.039277727845692535
PyFloat.float___add__,0.06173885017292669,0.0,0.007082693020717366,0.0,0.06882154319364406
PyFloat.float___div__,0.02407839743014986,0.0,0.0023533814465453128,0.0,0.026431778876695174
PyFloat.float___sub__,0.033058642403998056,0.0,0.0032770333366378855,0.0,0.03633567574063594
PyFrame.<init>,0.07810276246955956,0.0,0.008475626446851207,0.0,0.08657838891641077
PyFrame.doGetglobal,0.06093860695467735,0.0,0.00876643355952565,0.0,0.069705040514203
PyFrame.getglobal,0.10080760703134156,0.0,0.010052791561375366,0.0,0.11086039859271693
PyFrame.getlocal,0.494128381817084,0.0,0.052178682751452314,0.0,0.5463070645685363
PyFrame.setline,0.28371211883129516,0.0,0.03189954049394568,0.0,0.3156116593252408
PyFrame.setlocal,0.3191865491997483,0.0,0.03364857997312458,0.0,0.3528351291728729
PyFrame.setupEnv,0.04209770270323576,0.0,0.0042810810815796215,0.0,0.046378783784815386
PyFunction.__call__,0.05625463577801704,0.0,0.009555972195455896,0.0,0.06581060797347293
PyInteger.canCoerce,0.03512583807195843,0.0,0.003876319937365929,0.0,0.03900215800932436
PyInteger.divide,0.20694642174499914,0.0,0.020559469968238223,0.0,0.22750589171323737
PyIterator.<init>,0.04453533333313923,0.0,0.0023700000001554145,0.0,0.04690533333329464
PyJavaType.getDescrMethod,0.04673678164090254,0.0,0.006362281257927389,0.0,0.05309906289882993
PyJavaType.init,0.02044339487268797,0.0,0.0023892401400935287,0.0,0.0228326350127815
PyList.getslice,0.048650813325413794,0.0,0.006538727062718385,0.0,0.05518954038813218
PyList.list___len__,0.07994858942040046,0.0,0.008186899676283546,0.0,0.088135489096684
PyList.pyget,0.150299125364094,0.0,0.014565099944840003,0.0,0.16486422530893402
PyLong.long___add__,0.021294850824024728,0.0,0.0018234281783871293,0.0,0.023118279002411857
PyMethod.<init>,0.054663308640298086,0.0,0.005605925926593718,0.0,0.0602692345668918
PyObject$object___setattr___exposer.bind,0.038381365244250135,0.0,0.004068178098684829,0.0,0.042449543342934964
PyObject.<init>,0.08830970283457416,0.0,0.010095013404277849,0.0,0.09840471623885201
PyObject.__call__,0.10173050074143447,0.0,0.009951517352141136,0.0,0.11168201809357561
PyObject.__getattr__,0.027533353256942526,0.0,0.0045882437094996046,0.0,0.03212159696644213
PyObject._basic_sub,0.040343687266636334,0.0,0.0056200253409994,0.0,0.04596371260763574
PyObject._cmpeq_unsafe,0.07694788247043642,0.0,0.006266073497490693,0.0,0.08321395596792712
PyObject._div,0.02832114672769745,0.0,0.0018265033842116145,0.0,0.030147650111909063
PyObject._gt,0.10201451851753518,0.0,0.011004444444552064,0.0,0.11301896296208724
PyObject._lt,0.04946103703480696,0.0,0.004995555555473806,0.0,0.05445659259028077
PyObject._mul,0.02990725000017846,0.0,0.00258874999993471,0.0,0.03249600000011317
PyObject._ne,0.04599055286226016,0.0,0.004175137629104758,0.0,0.05016569049136492
PyObject._sub,0.02922017289522129,0.0,0.003327756076970219,0.0,0.032547928972191505
PyObject.asIterable,0.08381667496882261,0.0,0.008552665283509097,0.0,0.0923693402523317
PyObject.getType,0.17465635891877548,0.0,0.016676450855094664,0.0,0.19133280977387015
PyObject.isDataDescr,0.0268099091726994,0.0,0.003580893619156153,0.0,0.03039080279185555
PyObject.object___findattr__,0.039552250469788226,0.0,0.00290097507765541,0.0,0.042453225547443636
PyProperty.<clinit>,0.05327145749582177,0.0,0.005644552511440305,0.0,0.05891601000726207
PySequence.<init>,0.11317399129673672,0.0,0.013578192448937806,0.0,0.12675218374567454
PySlice.indicesEx,0.09858636907666057,0.0,0.010727722467995906,0.0,0.10931409154465647
PyString$PyExposer.<init>,0.03447681975944485,0.0,0.0041765310809163065,0.0,0.03865335084036116
PyString$str_isupper_exposer.bind,0.022625199603921783,0.0,0.002220745327461727,0.0,0.02484594493138351
PyString.<init>,0.07116656910896109,0.0,0.00720539941327241,0.0,0.07837196852223349
PyString.__lt__,0.016753511110760476,0.0,0.0028746666668060545,0.0,0.01962817777756653
PyString._isalnum,0.022625199603921783,0.0,0.002220745327461727,0.0,0.02484594493138351
PyString.str___add__,0.03729249999984555,0.0,0.005062500000349246,0.0,0.0423550000001948
PyString.str___gt__,0.0267888484849016,0.0,0.0043854545457923605,0.0,0.031174303030693958
PyString.str___len__,0.022517132931588264,0.0,0.003422941647284108,0.0,0.02594007457887237
PyString.str___lt__,0.035135999999814274,0.0,0.002650000000357977,0.0,0.03778600000017225
PyString.str_isdecimal,0.045925481482064,0.0,0.00579555555574458,0.0,0.05172103703780857
PyString.str_isdigit,0.06681520265715347,0.0,0.008948116913855912,0.0,0.07576331957100939
PyString.str_istitle,0.0215420123942155,0.0,0.0035393517323576273,0.0,0.02508136412657313
PyString.str_partition,0.0626831999994465,0.0,0.006869999999616993,0.0,0.0695531999990635
PyString.str_title,0.18080935713961868,0.0,0.017530714285515257,0.0,0.19834007142513393
PyStringMap.__finditem__,0.17050235438721195,0.0,0.01602783422097241,0.0,0.18653018860818438
PyTableCode.call,0.060706331975901695,0.0,0.004071586314134589,0.0,0.06477791829003629
PyTuple.<init>,0.08381667496882261,0.0,0.008552665283509097,0.0,0.0923693402523317
PyTuple.getslice,0.0398156163721913,0.0,0.0057802953410028435,0.0,0.04559591171319414
PyTuple.pyget,0.06248552334780345,0.0,0.008353228382634617,0.0,0.07083875173043806
PyType.<init>,0.03218198377318533,0.0,0.0037978073371365173,0.0,0.03597979111032185
PyType.addFromClass,0.03079691672081363,0.0,0.003123319715889936,0.0,0.03392023643670357
PyType.fromClass,0.844944309221532,0.0,0.09446133876816035,0.0,0.9394056479896923
PyType.invoke_new_,0.12076450046748702,0.0,0.010361265065785873,0.0,0.1311257655332729
PyType.isSubType,0.11556978683789464,0.0,0.010794816352346234,0.0,0.12636460319024087
PyUnicode$PyExposer.<init>,0.05633537838529954,0.0,0.006142300277800668,0.0,0.06247767866310021
PyUnicode$unicode_isalpha_exposer.bind,0.034550475033695155,0.0,0.002769023918940621,0.0,0.037319498952635775
PyUnicode$unicode_isdecimal_exposer.__call__,0.04288740740782857,0.0,0.0048755555552715026,0.0,0.04776296296310008
PyXRange.xrange___new__,0.003788740740640571,0.0,0.0005599999993272057,0.0,0.0043487407399677765
PythonLexer$DFA44.specialStateTransition,0.11839046929842664,0.03341476395006727,0.007829505442079355,0.0041639484978998435,0.1637986871884731
PythonLexer.mCOMMENT,0.0572568663550686,0.0,0.005454417230159782,0.0,0.06271128358522839
PythonLexer.mTRIQUOTE,0.0,0.08137896412647475,0.0,0.013238906437915834,0.09461787056439058
PythonParser$DFA127.specialStateTransition,0.053737093486452094,0.0,0.005388086372006364,0.0,0.05912517985845846
PythonParser$DFA87.<init>,0.02475511631228796,0.0,0.0011377008138097429,0.0,0.025892817126097704
PythonParser.<clinit>,0.07328816902154774,0.0,0.0073439420727818994,0.0,0.08063211109432963
PythonParser.and_expr,0.02097440952228021,0.0,0.001752692967053999,0.0,0.02272710248933421
PythonParser.arglist,0.05632765957496767,0.0,0.007186170212481938,0.0,0.06351382978744961
PythonParser.atom,0.03066939929780432,0.02631402429668814,0.0013267553776993436,0.0037269161759008827,0.062037095148092684
PythonParser.global_stmt,0.039316094257382,0.0,0.0008926534715570898,0.0,0.04020874772893909
PythonParser.import_from,0.05065239028415521,0.0,0.005399880177687203,0.0,0.05605227046184241
PythonParser.not_test,0.026099800547322697,0.0,0.000876990009701211,0.0,0.026976790557023907
PythonParser.or_test,0.031909419371448484,0.0,0.0008598124614239419,0.0,0.03276923183287243
PythonParser.power,0.0,0.051676667294390036,0.0,0.008087161072289909,0.05976382836667994
PythonParser.shift_expr,0.0277252788563289,0.07501526262815172,0.0028869427408535764,0.009675606060199876,0.11530309028553408
PythonParser.term,0.09216950663423565,0.06231666666280944,0.013651176659352036,0.008194999999735348,0.17633234995613248
PythonParser.test,0.06246629352606513,0.0,0.004907793265224009,0.0,0.06737408679128913
PythonParser.testlist,0.02462203822884072,0.0,0.0023976136526753142,0.0,0.027019651881516032
PythonParser.trailer,0.09062794505967668,0.0,0.008107081631245608,0.0,0.0987350266909223
PythonParser.try_stmt,0.05065239028415521,0.0,0.005399880177687203,0.0,0.05605227046184241
PythonTree.getChildCount,0.08654705256379112,0.0,0.004971391527419821,0.0,0.09151844409121095
ReentrantLock$NonfairSync.lock,0.029609367471854383,0.0,0.0019599686018254327,0.0,0.031569336073679816
Reference.<init>,0.0362852974623115,0.0,0.004381498351080808,0.0,0.04066679581339231
Resource.getBytes,0.04347993653197605,0.0,0.00486556974207069,0.0,0.04834550627404674
RewriteRuleElementStream.<init>,0.0807428299318219,0.05111959105255489,0.011584489795842229,0.008569280277599147,0.15201619105781816
RewriteRuleElementStream.add,0.0484380975601782,0.0,0.006991707317436936,0.0,0.05542980487761514
RewriteRuleElementStream.size,0.07352358156016156,0.0,0.010425531915340494,0.0,0.08394911347550206
ScopesCompiler.visitImportFrom,0.025463419839277492,0.0,0.0008315831887045572,0.0,0.026295003027982048
SequenceIndexDelegate.checkIdxAndFindItem,0.1694498761501801,0.0,0.015824234648910515,0.0,0.18527411079909062
SequenceIndexDelegate.checkIdxAndSetItem,0.021992192757685963,0.0,0.0016220481011780124,0.0,0.023614240858863975
Stack.peek,0.06298375217909287,0.0,0.004346808982829996,0.0,0.06733056116192286
String.<init>,0.15138557584163412,0.0,0.01718051984916681,0.0,0.16856609569080094
String.concat,0.028645833333333325,0.0,0.003019999999499608,0.0,0.03166583333283293
String.format,0.054566490537787546,0.0,0.005057784564200114,0.0,0.05962427510198766
String.hashCode,0.08112838341713721,0.0,0.007228651777832648,0.0,0.08835703519496986
String.intern,0.6349895453294299,0.0,0.06260418457809316,0.0,0.697593729907523
String.lastIndexOf,0.0604147610137899,0.0,0.005544120040377852,0.0,0.06595888105416775
String.length,0.018315613350965255,0.0,0.0013781032136231414,0.0,0.019693716564588397
String.replace,0.03219423177945198,0.0,0.0034742298421058856,0.0,0.035668461621557866
String.substring,0.050567666667726975,0.0,0.005562499999844779,0.0,0.05613016666757176
String.toLowerCase,0.035591547620805665,0.0,0.004242857142864003,0.0,0.039834404763669666
String.toUpperCase,0.3091233957283612,0.0,0.032128884659157295,0.0,0.34125228038751854
StringBuilder.<init>,0.07167633169073581,0.0,0.0064625404639310595,0.0,0.07813887215466687
StringBuilder.append,0.06607468828138605,0.0,0.0072168021668683555,0.0,0.0732914904482544
StringIO$py.readline$11,0.13118677797375433,0.0,0.012538842660487676,0.0,0.14372562063424202
Strings$py.test$11,0.1004841187444336,0.0,0.012235311822285891,0.0,0.11271943056671949
Strings$py.test$14,0.04849314963735884,0.0,0.006167311816195919,0.0,0.05466046145355476
Strings$py.test$17,0.05711294616067758,0.0,0.0071268485658498165,0.0,0.0642397947265274
Strings$py.test$2,0.1151834999982384,0.0,0.013587500000236709,0.0,0.1287709999984751
Strings$py.test$20,0.04676497414127704,0.0,0.0071887640491053355,0.0,0.05395373819038238
Strings$py.test$5,0.5999957708663151,0.0,0.07918494417838733,0.0,0.6791807150447023
Strings$py.test$8,1.423256134928665,0.0,0.15208159090867535,0.0,1.5753377258373402
SysPackageManager.findClass,0.0470335782872202,0.0,0.0038795233810156858,0.0,0.050913101668235886
ThreadLocal$ThreadLocalMap.access$000,0.06872036524182652,0.0,0.0060544005517695456,0.0,0.07477476579359607
ThreadLocal$ThreadLocalMap.getEntry,0.3436595677937104,0.0,0.03935102524659238,0.0,0.38301059304030277
ThreadLocal.get,0.05858258998333982,0.0,0.005596215047126942,0.0,0.06417880503046676
Throwable.fillInStackTrace,3.769955205980406,0.07975233333127107,0.38064481370193154,0.0109599999996135,4.241312353013222
TreeMap$Entry.setValue,0.060681401189984385,0.0,0.005496392612797715,0.0,0.0661777938027821
Tuples$py.test$2,0.13162533068787996,0.0,0.01648547619077834,0.0,0.1481108068786583
Tuples$py.test$5,0.4213294250057469,0.0,0.04247589297941157,0.0,0.46380531798515845
URLClassPath.getNextLoader,0.036220905803058236,0.0,0.003861717781398482,0.0,0.04008262358445672
Unicode$py.test$17,0.1523061134652918,0.0,0.017544454516685057,0.0,0.16985056798197684
Unicode$py.test$2,0.1007288520491101,0.0,0.01388590575695316,0.0,0.11461475780606326
Unicode$py.test$20,0.20009967001056717,0.0,0.02154871680668476,0.0,0.22164838681725194
Unicode$py.test$5,0.38388029629829723,0.0,0.0476026666651537,0.0,0.4314829629634509
Unicode$py.test$8,0.15239832949608761,0.0,0.018661445287352148,0.0,0.17105977478343976
UnixFileSystem.createDirectory,0.0,0.052685600003072375,0.0,0.007680000000012419,0.060365600003084795
UnixFileSystem.delete0,0.2269672387666473,0.0,0.02093927627755522,0.0,0.24790651504420252
ZipFile.read,0.09253395704868692,0.08744411784499964,0.011691922059591723,0.012150303030561532,0.2038202999838398
ZipInputStream.read,0.43717366543157016,0.0,0.04071892743538212,0.0,0.4778925928669523
__builtin__.fillWithBuiltins,0.059400506458855806,0.0,0.007742262040396457,0.0,0.06714276849925227
__builtin__.range,0.05888582142809658,0.0,0.0073589285713231735,0.0,0.06624474999941975
bisect$py.bisect_left$4,0.10080760703134156,0.0,0.010052791561375366,0.0,0.11086039859271693
imp.import_name,0.08928994408595438,0.0,0.010057899330761143,0.0,0.09934784341671551
imp.import_next,0.06917537578803261,0.0,0.006790445422460716,0.0,0.07596582121049332
stat$py.<init>,0.0277252788563289,0.0,0.0028869427408535764,0.0,0.030612221597182476
unicodedata$py.call_function,0.0578207996137741,0.0,0.006967427920790584,0.0,0.06478822753456469
unicodedata$py.get_codepoint$9,0.09813533487312044,0.0,0.010050625157468194,0.0,0.10818596003058864
unicodedata$py.get_int$1,0.10593008084555913,0.0,0.010796847447354421,0.0,0.11672692829291355
unicodedata$py.get_numeric$3,0.0626831999994465,0.0,0.006869999999616993,0.0,0.0695531999990635
unicodedata$py.init_unicodedata$4,0.060553179469193,0.0,0.007280911118179294,0.0,0.0678340905873723
unicodedata$py.mirrored$19,0.005057569701160702,0.0,0.0006214729449904629,0.0,0.005679042646151165
