method,package1,package2,dram1,dram2,energy
,12.487451882347804,0.0,1.58562177438159,0.0,14.073073656729393
chappie,0.048698760137561546,0.0,0.004927535346003215,0.0,0.05362629548356476
com.kenai.constantine.platform,0.06959377777820919,0.0,0.009859999999914888,0.0,0.07945377777812407
java.io,4.898459840880903,0.0,0.47601590209662464,0.0,5.374475742977527
java.lang,5.146213359433316,0.12170685090015543,0.5975602199496806,0.017002436595499527,5.882482866878652
java.math,0.040454925728917575,0.0,0.008915582478973757,0.0,0.04937050820789133
java.net,0.04834199999944151,0.0,0.005817777777001201,0.0,0.054159777776442715
java.nio,0.039498367345635305,0.0,0.006140816326571476,0.0,0.04563918367220678
java.util,1.0654804000574956,0.0,0.13276517196607493,0.0,1.1982455720235705
java.util.concurrent,1.772319356683197,0.0,0.2715374714677676,0.0,2.0438568281509646
java.util.concurrent.locks,0.05557351851759315,0.0,0.006976666666795845,0.0,0.062550185184389
java.util.jar,0.051005020833448114,0.0,0.006352812499775003,0.0,0.05735783333322312
java.util.zip,20.3668383580586,0.0,1.8764357543526702,0.0,22.24327411241127
org.dacapo.harness,0.029907199999433937,0.0,0.002690999999322229,0.0,0.03259819999875617
org.dacapo.parser,0.07016999999905238,0.0,0.008759999999407833,0.0,0.07892999999846022
org.objectweb.asm,0.19501190150058928,0.1023246851891824,0.024170657890747627,0.013249629629767078,0.3347568742102864
org.python.antlr,1.0193910506595354,0.0,0.10749505824643922,0.0,1.1268861089059745
org.python.antlr.ast,0.2528804857351371,0.048995882716284266,0.03201554725543504,0.005821111111294562,0.33971302681815096
org.python.compiler,0.11562396514847208,0.0,0.01423312257635709,0.0,0.12985708772482918
org.python.core,7.385974525388488,0.0,0.9165505346440824,0.0,8.30252506003257
org.python.modules.time,0.05932613333376746,0.0,0.0076239999994868425,0.0,0.06695013333325431
sun.misc,0.0807350561331237,0.0,0.012094480928373697,0.0,0.09282953706149741
sun.net.www,0.03666177777631674,0.0,0.0018066666662990528,0.0,0.038468444442615796
sun.nio.cs,0.061238666666516416,0.0,0.009946666666009048,0.0,0.07118533333252547
sun.security.util,0.028901523810678287,0.0,0.0028914285711445177,0.0,0.0317929523818228
sun.util.locale.provider,0.01853814739549532,0.0,0.0027413156965067943,0.0,0.021279463092002113
