method,package1,package2,dram1,dram2,energy
ANTLRStringStream.LA|PythonLexer.mCOMMENT|PythonLexer.mTokens,0.05470042105375078,0.0,0.006333157894435938,0.0,0.06103357894818672
AbstractCollection.toArray|ArrayList.<init>|PyList.getslice,0.0,0.13987448836142166,0.0,0.01726337734716279,0.15713786570858446
AbstractStringBuilder.<init>|StringBuffer.<init>|URLStreamHandler.toExternalForm,0.018685428571188826,0.0,0.0019371428570593707,0.0,0.020622571428248197
AbstractStringBuilder.append|StringBuilder.append|StringBuilder.<init>,0.0,0.06356862570592732,0.0,0.008871059579552837,0.07243968528548016
AbstractStringBuilder.ensureCapacityInternal|AbstractStringBuilder.append|StringBuilder.append,0.0,0.05452428961223638,0.0,0.006564395884422343,0.061088685496658725
Arithmetic$py.test$11|Arithmetic$py.call_function|PyTableCode.call,0.0,0.48388161388623685,0.0,0.06793667462066781,0.5518182885069046
Arithmetic$py.test$14|Arithmetic$py.call_function|PyTableCode.call,0.0,0.6668498189435498,0.0,0.09659522295314588,0.7634450418966956
Arithmetic$py.test$2|Arithmetic$py.call_function|PyTableCode.call,0.0,0.4790109749054476,0.0,0.07125995638234119,0.5502709312877888
Arithmetic$py.test$5|Arithmetic$py.call_function|PyTableCode.call,0.0,0.9410519192732164,0.0,0.15109171120060574,1.0921436304738221
Arithmetic$py.test$8|Arithmetic$py.call_function|PyTableCode.call,0.0,0.8070102293144166,0.0,0.10785638393842761,0.9148666132528442
ArrayList.add|Formatter.parse|Formatter.format,0.06439865040424851,0.0,0.00838146341502727,0.0,0.07278011381927578
ArrayList.add|Py.make_array|PyTuple.tuple_new,0.0,0.0724284444435465,0.0,0.016475555555424994,0.0889039999989715
ArrayList.ensureCapacityInternal|ArrayList.add|FieldInfo.read,0.0376441904781608,0.0,0.006771428571526138,0.0,0.04441561904968694
ArrayList.rangeCheck|ArrayList.get|PyList.pyget,0.0,0.05417479999887291,0.0,0.006575999999768101,0.06075079999864101
Arrays.copyOfRange|BigInteger.multiplyByInt|BigInteger.multiply,0.0,0.04268521169968451,0.0,0.0061752993253663254,0.04886051102505084
Arrays.copyOfRange|String.<init>|ANTLRStringStream.substring,0.04635794117733466,0.0,0.004965882353323703,0.0,0.05132382353065836
Arrays.copyOfRange|String.<init>|String.substring,0.136314790909444,0.09917944103702755,0.016195363636308517,0.012118213556953646,0.26380780913973373
Arrays.copyOfRange|String.<init>|String.toUpperCase,0.0,0.01904030434894409,0.0,0.0024636956521240736,0.02150400000106816
Arrays.copyOf|AbstractStringBuilder.ensureCapacityInternal|AbstractStringBuilder.append,0.0,0.028596058913583938,0.0,0.003310203359904412,0.03190626227348835
Arrays.copyOf|ArrayList.grow|ArrayList.ensureExplicitCapacity,0.03823849999874558,0.0,0.0028250000001814137,0.0,0.04106349999892699
Arrays.copyOf|String.concat|PyString.str___add__,0.0,0.3181146666708325,0.0,0.05693500000052154,0.37504966667135403
Arrays.copyOf|String.concat|PyUnicode.unicode___add__,0.0,0.13427033333250116,0.0,0.030016666666395193,0.16428699999889634
BaseParser.setupParser|BaseParser.parseModule|CompileMode$3.dispatch,0.25784274999984647,0.0,0.02505833333393567,0.0,0.2829010833337821
BaseRecognizer.match|PythonParser.testlist_gexp|PythonParser.atom,0.04841850000022013,0.0,0.005129999999813403,0.0,0.053548500000033535
BigInteger.add|PyLong.long___add__|PyLong.__add__,0.0,0.11917957185571418,0.0,0.016182888466090912,0.1353624603218051
BigInteger.compareTo|PyLong.long___cmp__|PyLong.__cmp__,0.017710890433584984,0.0,0.0011301137743361818,0.0,0.018841004207921164
BigInteger.multiplyByInt|BigInteger.multiply|PyLong.long___mul__,0.0,0.0968390667338323,0.0,0.011982287464901615,0.10882135419873391
BigInteger.subtract|PyLong.long___sub__|PyLong.__sub__,0.0,0.06943432521060837,0.0,0.011285306620048459,0.08071963183065684
BufferedInputStream.fill|BufferedInputStream.read1|BufferedInputStream.read,0.03835733333619794,0.0,0.00448888888867158,0.0,0.042846222224869515
BufferedInputStream.read1|BufferedInputStream.read|FilterInputStream.read,0.14632631818004124,0.0,0.014798181818343546,0.0,0.1611244999983848
BufferedInputStream.read|DataInputStream.readFully|DataInputStream.readUTF,0.05876266666783545,0.0,0.0057346153847062774,0.0,0.06449728205254172
BufferedInputStream.read|DataInputStream.readInt|AttributeInfo.<init>,0.009043333332859522,0.0,0.0007824999999381057,0.0,0.009825833332797627
BufferedInputStream.read|DataInputStream.readUnsignedShort|AttributeInfo.read,0.015127384615390418,0.0,0.0016199999999326582,0.0,0.016747384615323078
BufferedInputStream.read|DataInputStream.readUnsignedShort|ClassFile.read,0.01921733333368874,0.0,0.0017771428569436202,0.0,0.02099447619063236
BufferedInputStream.read|DataInputStream.readUnsignedShort|ExceptionTable.<init>,0.06919602197913696,0.0,0.007336483515872391,0.0,0.07653250549500935
BufferedInputStream.read|FilterInputStream.read|PushbackInputStream.read,1.0254412319846726,0.0,0.09098642929389267,0.0,1.1164276612785653
BuiltinFunctions.__call__|PyObject.__call__|unicodedata$py.init_unicodedata$4,0.04588782608524248,0.0,0.004059130435369139,0.0,0.04994695652061162
CRC32.update|ZipInputStream.read|ZipInputStream.skip,0.04887706666777376,0.0,0.0033360000001266604,0.0,0.05221306666790042
CachedJarsPackageManager.filterByName|CachedJarsPackageManager.addZipEntry|CachedJarsPackageManager.getZipPackages,0.05015060606004254,0.0,0.005568181818627194,0.0,0.05571878787866973
Calls$py.call_function|PyTableCode.call|PyBaseCode.call,0.10794148648507486,0.031126412368131164,0.011596351351260168,0.004629079568471269,0.15529332977293747
Calls$py.g$5|Calls$py.call_function|PyTableCode.call,0.0,0.09256098555923097,0.0,0.011188259538381278,0.10374924509761224
Calls$py.h$6|Calls$py.call_function|PyTableCode.call,0.0,0.09256098555923097,0.0,0.011188259538381278,0.10374924509761224
Calls$py.test$16|Calls$py.call_function|PyTableCode.call,0.0,0.13023150098986952,0.0,0.020667148983929497,0.150898649973799
Calls$py.test$2|Calls$py.call_function|PyTableCode.call,0.0,0.23530942125687354,0.0,0.032401191020401246,0.2677106122772748
Chaperone.retire|Chaperone.dismiss|Chaperone.main,0.0,0.02839997222609883,0.0,0.0015516666670818164,0.029951638893180647
Character.getType|Character.isLowerCase|Character.isLowerCase,0.0,0.18711195498710853,0.0,0.029013936210358526,0.21612589119746706
Character.getType|Character.isTitleCase|Character.isTitleCase,0.0,0.061951882353419994,0.0,0.012984705882605769,0.07493658823602577
Character.isLowerCase|Character.isLowerCase|PyString.str_title,0.0,0.14505024664474314,0.0,0.024390308695297222,0.16944055534004038
Character.isUpperCase|Character.isUpperCase|PyString.str_title,0.0,0.11496511112281907,0.0,0.018598534906819977,0.13356364602963905
Character.toLowerCase|Character.toLowerCase|PyString.str_title,0.0,0.041289193391755775,0.0,0.006647511583548955,0.04793670497530473
Character.toLowerCase|Character.toLowerCase|String.toLowerCase,0.0,0.0283468550708452,0.0,0.005526956521809579,0.033873811592654776
Character.toLowerCase|String.toLowerCase|String.toLowerCase,0.0,0.030574725880559043,0.0,0.005717874512717193,0.03629260039327624
Character.toTitleCase|Character.toTitleCase|PyString.str_title,0.0,0.13637925106047266,0.0,0.020051023322980956,0.1564302743834536
Character.toUpperCaseEx|String.toUpperCase|String.toUpperCase,0.0,0.13806610828513588,0.0,0.020209060700574058,0.15827516898570992
CharacterData.of|Character.toLowerCase|Character.toLowerCase,0.0,0.04807364467402815,0.0,0.007653474392223158,0.05572711906625131
CharacterData00.getProperties|CharacterData00.getType|Character.getType,0.0,0.09198356862693532,0.0,0.014650588235692303,0.10663415686262763
CharacterData00.getProperties|CharacterData00.toLowerCase|Character.toLowerCase,0.0,0.05593704472113875,0.0,0.009531352773762082,0.06546839749490083
CharacterData00.getType|Character.getType|Character.isTitleCase,0.0,0.09666188235660583,0.0,0.01676999999967936,0.1134318823562852
CharacterDataLatin1.getProperties|CharacterDataLatin1.toLowerCase|Character.toLowerCase,0.0,0.061790976033890624,0.0,0.00929104445952892,0.07108202049341955
CharacterDataLatin1.getType|Character.getType|Character.isTitleCase,0.0,0.048668800889842566,0.0,0.0065001841116821574,0.05516898500152472
Class.forName0|Class.forName|ConstantSet.getEnumClass,0.02839307692109007,0.0,0.003490384615361108,0.0,0.03188346153645118
Class.getDeclaredConstructors0|Class.privateGetDeclaredConstructors|Class.getConstructor0,0.2610132160114756,0.10442335612745074,0.03581190038402089,0.012594195470476516,0.41384266799342373
Class.getDeclaredMethods0|Class.privateGetDeclaredMethods|Class.privateGetPublicMethods,0.0341139999990656,0.0,0.0036184615388405155,0.0,0.03773246153790612
Class.isAssignableFrom|PyString.__tojava__|ArgParser.getArg,0.0,0.07340221430063129,0.0,0.009360961283691734,0.08276317558432303
ClassFile.addMethod|Module.PyCode|Module.compile,0.014423076923076922,0.0,0.0009369230767613492,0.0,0.015359999999838272
ClassFile.endFields|ClassFile.write|Module.write,0.06288080000085755,0.0,0.007636800000327637,0.0,0.07051760000118519
ClassLoader.defineClass1|ClassLoader.defineClass|SecureClassLoader.defineClass,0.5485521961849147,0.0,0.05554862852928129,0.0,0.604100824714196
ClassLoader.getPackage|URLClassLoader.getAndVerifyPackage|URLClassLoader.definePackageInternal,0.05043940000032307,0.0,0.005688000000372994,0.0,0.05612740000069606
ClassPool.compress|ClassPool.makeClass|ClassPool.makeClass,0.03177569230879621,0.0,0.0031569230766483373,0.0,0.03493261538544455
ClassReader.accept|ClassReader.accept|AnnotationReader.<init>,0.07437750000099186,0.0,0.009135000000605941,0.0,0.0835125000015978
CodeCompiler.stackProduce|CodeCompiler.stackProduce|CodeCompiler.visitCall,0.0,0.008082241699771132,0.0,0.0014533864541856167,0.00953562815395675
CodeCompiler.visitName|Name.accept|Visitor.visit,0.017038230769125782,0.0,0.0018438461540007177,0.0,0.0188820769231265
Collections.synchronizedList|ClassFile.<init>|Module.<init>,0.018329307692161262,0.0,0.0021069230768681825,0.0,0.020436230769029444
CommonTokenStream.fillBuffer|CommonTokenStream.LT|PythonTokenSource.insertImaginaryIndentDedentTokens,0.036349999999705083,0.0,0.004073333332295684,0.0,0.040423333332000766
CompilerFlags.isFlagSet|PyFrame.<init>|PyFrame.<init>,0.0,0.0218373742314718,0.0,0.0035835297715764275,0.025420904003048226
ConcurrentHashMap.<init>|PyStringMap.<init>|PyStringMap.<init>,0.0,0.039457904759772296,0.0,0.010702857142383608,0.050160761902155904
ConcurrentHashMap.addCount|ConcurrentHashMap.putVal|ConcurrentHashMap.put,0.0,0.051083428569005,0.0,0.012025714286123514,0.06310914285512852
ConcurrentHashMap.casTabAt|ConcurrentHashMap.putVal|ConcurrentHashMap.put,0.0,0.15506958583997735,0.0,0.03255259711817243,0.18762218295814978
ConcurrentHashMap.get|PyDictionary.__finditem__|PyObject.__getitem__,0.0,0.06301544444593471,0.0,0.009027499999825118,0.07204294444575983
ConcurrentHashMap.get|PyDictionary.dict_get|PyDictionary$dict_get_exposer.__call__,0.0,0.06961567520957965,0.0,0.011220000000259118,0.08083567520983877
ConcurrentHashMap.get|PyStringMap.__finditem__|PyClass.lookup,0.04167480000081317,0.11004355031598267,0.005536000000332327,0.016162702393092854,0.17341705271022104
ConcurrentHashMap.get|PyStringMap.__finditem__|PyFrame.doGetglobal,0.0,0.06891820724154701,0.0,0.01167215649160622,0.08059036373315323
ConcurrentHashMap.get|PyStringMap.__finditem__|PyInstance.ifindlocal,0.0,0.11066318892217222,0.0,0.01839337410874878,0.129056563030921
ConcurrentHashMap.get|PyStringMap.__finditem__|PyType.lookup,0.0608309506159132,0.26262356590353664,0.008956851852103064,0.04879626543436511,0.381207633805918
ConcurrentHashMap.putVal|ConcurrentHashMap.put|PyDictionary.dict___setitem__,0.05242920000018785,0.09836360317191094,0.00648899999941932,0.014196190476425164,0.17147799364794328
ConcurrentHashMap.putVal|ConcurrentHashMap.put|PyStringMap.__setitem__,0.0,0.3119070195664158,0.0,0.04690915874548962,0.35881617831190543
ConcurrentHashMap.spread|ConcurrentHashMap.get|PyStringMap.__finditem__,0.034366799999649325,0.14785015260388573,0.004268000000350488,0.02006383974229445,0.20654879234617998
ConcurrentHashMap.tabAt|ConcurrentHashMap.get|PyStringMap.__finditem__,0.0,0.03330800589293871,0.0,0.00520036329497111,0.03850836918790982
ConcurrentHashMap.tabAt|ConcurrentHashMap.putVal|ConcurrentHashMap.put,0.0,0.12048928572004937,0.0,0.017582142857377005,0.13807142857742638
Constructs$py.test$2|Constructs$py.call_function|PyTableCode.call,0.0,0.4669431060363494,0.0,0.05962615288046276,0.5265692589168122
Constructs$py.test$5|Constructs$py.call_function|PyTableCode.call,0.0,0.07933526510008615,0.0,0.012807691836657592,0.09214295693674374
Constructs$py.test$8|Constructs$py.call_function|PyTableCode.call,0.0,0.23252166666497942,0.0,0.029372500000014644,0.26189416666499404
Currency.getMainTableEntry|Currency.getInstance|DecimalFormatSymbols.initialize,0.05430854166661448,0.0,0.00631249999969441,0.0,0.06062104166630889
DecimalFormat.applyPattern|DecimalFormat.<init>|NumberFormatProviderImpl.getInstance,0.0,0.015557899999839718,0.0,0.0018299999999726421,0.01738789999981236
Dict$py.test$11|Dict$py.call_function|PyTableCode.call,0.0,0.18018071428712804,0.0,0.021963809523893155,0.2021445238110212
Dict$py.test$14|Dict$py.call_function|PyTableCode.call,0.0,0.2781861286903129,0.0,0.03964923259402672,0.31783536128433965
Dict$py.test$2|Dict$py.call_function|PyTableCode.call,0.0,0.09202791666387367,0.0,0.01536962719292365,0.10739754385679731
Dict$py.test$5|Dict$py.call_function|PyTableCode.call,0.0,0.180292095236447,0.0,0.02456392857116693,0.20485602380761392
Dict$py.test$8|Dict$py.call_function|PyTableCode.call,0.0,0.10407166666926866,0.0,0.015424999999797566,0.11949666666906622
ExceptHandler$PyExposer.<init>|ExceptHandler.<clinit>|PythonParser.except_clause,0.03826905882477363,0.0,0.005050588235462783,0.0,0.043319647060236416
Exceptions$py.test$2|Exceptions$py.call_function|PyTableCode.call,0.0,0.2688166088699837,0.0,0.031034535961644075,0.2998511448316278
Exceptions$py.test$5|Exceptions$py.call_function|PyTableCode.call,0.0,0.1715750992552813,0.0,0.01704093849121232,0.18861603774649363
FileIO.<init>|PyFile.file___init__|PyFile$exposed___new__.createOfType,0.06873566666642242,0.0,0.008300000000114473,0.0,0.07703566666653688
FileInputStream.available0|FileInputStream.available|BufferedInputStream.read,0.1506237952382348,0.0,0.010666142856903855,0.0,0.16128993809513864
FileInputStream.readBytes|FileInputStream.read|BufferedInputStream.fill,0.7844017558828363,0.0,0.0740904471989284,0.0,0.8584922030817648
FileOutputStream.close0|FileOutputStream.access$000|FileOutputStream$1.close,0.03721791111020138,0.0,0.004004000000147951,0.0,0.041221911110349334
FileOutputStream.open0|FileOutputStream.open|FileOutputStream.<init>,0.20949348383411887,0.0,0.019838151514807695,0.0,0.22933163534892656
FileOutputStream.writeBytes|FileOutputStream.write|BufferedOutputStream.flushBuffer,0.4697914168456827,0.0,0.04083494828120236,0.0,0.5106263651268851
FileOutputStream.writeBytes|FileOutputStream.write|BufferedOutputStream.write,0.1405274059830689,0.0,0.012212076923024763,0.0,0.15273948290609365
Formatter$Conversion.isGeneral|Formatter$FormatSpecifier.<init>|Formatter.parse,0.0335205333326788,0.0,0.004032000000006519,0.0,0.037552533332685316
Formatter.parse|Formatter.format|Formatter.format,0.04012053333281074,0.0,0.004863999999846175,0.0,0.04498453333265691
Generic.list|PyList.<init>|PyList$exposed___new__.createOfType,0.0,0.07220053333245838,0.0,0.01145599999969515,0.08365653333215353
GrammarActions.makeFor|PythonParser.for_stmt|PythonParser.compound_stmt,0.016328285714345317,0.0,0.0019971428572760136,0.0,0.01832542857162133
GrammarActions.makeFuncdef|PythonParser.funcdef|PythonParser.compound_stmt,0.01867676190435997,0.0,0.0016842857141801644,0.0,0.020361047618540132
Handler.parseContextSpec|Handler.parseURL|URL.<init>,0.02632311111126371,0.0,0.00303722222283627,0.0,0.02936033333409998
ImportFrom$_attributes_descriptor.<init>|ImportFrom$PyExposer.<init>|ImportFrom.<clinit>,0.03741811764655936,0.0,0.004616470588456757,0.0,0.04203458823501612
Inflater.ensureOpen|Inflater.inflate|InflaterInputStream.read,0.0739370666660155,0.0,0.0064415000004373725,0.0,0.08037856666645288
Inflater.finished|InflaterInputStream.read|ZipInputStream.read,0.11049670833441877,0.0,0.007810000000063155,0.0,0.11830670833448192
Inflater.getBytesWritten|ZipInputStream.readEnd|ZipInputStream.read,0.06522761538508348,0.0,0.005171538461861648,0.0,0.07039915384694513
Inflater.inflateBytes|Inflater.inflate|InflaterInputStream.read,13.745827218161493,0.0,1.237153278544078,0.0,14.98298049670557
Inflater.inflate|InflaterInputStream.read|ZipInputStream.read,0.8927907606968388,0.0,0.07549987765799641,0.0,0.9682906383548352
Inflater.needsDictionary|InflaterInputStream.read|ZipInputStream.read,0.09500025108022447,0.0,0.008024415585349866,0.0,0.10302466666557433
Inflater.needsInput|InflaterInputStream.read|ZipInputStream.read,0.19620812962714582,0.0,0.016148849206103627,0.0,0.21235697883324944
Inflater.setInput|InflaterInputStream.fill|InflaterInputStream.read,0.06454483333072858,0.0,0.0062725000000985656,0.0,0.07081733333082714
InflaterInputStream.ensureOpen|InflaterInputStream.read|ZipInputStream.read,0.05015335000034611,0.0,0.005271125000278213,0.0,0.05542447500062432
InflaterInputStream.read|ZipInputStream.read|InflaterInputStream.read,0.08570578632572552,0.0,0.006504871794067394,0.0,0.09221065811979291
InflaterInputStream.read|ZipInputStream.read|ZipInputStream.skip,0.0946791111119738,0.0,0.008930833332770918,0.0,0.10360994444474472
Instances$py.test$2|Instances$py.call_function|PyTableCode.call,0.0,0.04596819048137625,0.0,0.008282857142538496,0.05425104762391475
JavaImportHelper.buildLoadedPackages|JavaImportHelper.tryAddPackage|imp.import_next,0.04469699999907262,0.0,0.0051110526311324645,0.0,0.04980805263020508
Library$Handler.<init>|Native.loadLibrary|POSIXFactory.loadLibC,0.0435190476197195,0.0,0.005633333333077773,0.0,0.049152380952797274
Lists$py.test$2|Lists$py.call_function|PyTableCode.call,0.0,1.0206926836518146,0.0,0.13111792829268124,1.151810611944496
Lists$py.test$8|Lists$py.call_function|PyTableCode.call,0.0,0.21000276105361362,0.0,0.03283089000953114,0.24283365106314475
Lookups$py.test$12|Lookups$py.call_function|PyTableCode.call,0.0,0.15655495237816858,0.0,0.020445714285631852,0.17700066666380043
Lookups$py.test$17|Lookups$py.call_function|PyTableCode.call,0.0,0.2590623482550988,0.0,0.0425381427642884,0.3016004910193872
Lookups$py.test$22|Lookups$py.call_function|PyTableCode.call,0.0989750090130156,0.0,0.013395945945999015,0.0,0.11237095495901461
Lookups$py.test$2|Lookups$py.call_function|PyTableCode.call,0.0,0.20511313333395048,0.0,0.027066000000385906,0.23217913333433637
Lookups$py.test$7|Lookups$py.call_function|PyTableCode.call,0.0,0.17518048002199466,0.0,0.025199498329155096,0.20037997835114976
Math.min|ZipInputStream.skip|DataInputStream.skipBytes,0.043894500001139626,0.0,0.0029099999998531225,0.0,0.046804500000992746
MetaIndex.mayContain|URLClassPath$JarLoader.getResource|URLClassPath$JarLoader.findResource,0.0474717777785069,0.0,0.003659999999702753,0.0,0.05113177777820965
Module.PyCode|Module.compile|imp.compileSource,0.017038230769125782,0.0,0.0018438461540007177,0.0,0.0188820769231265
Module.compile|imp.compileSource|imp.createFromSource,0.011897153846243432,0.0,0.001585384615352198,0.0,0.01348253846159563
MutableBigInteger.toBigInteger|BigInteger.divideKnuth|BigInteger.divide,0.0,0.08907999227443487,0.0,0.014439094759497305,0.10351908703393217
NewInstances$py.test$3|NewInstances$py.call_function|PyTableCode.call,0.0,0.09403778571036778,0.0,0.013127142856839262,0.10716492856720704
Numbers$py.test$11|Numbers$py.call_function|PyTableCode.call,0.04425355392349865,0.06987280000078802,0.0028832437358817455,0.009884000000117035,0.12689359766028546
Numbers$py.test$2|Numbers$py.call_function|PyTableCode.call,0.09129743299347809,0.0,0.007314751305320577,0.0,0.09861218429879867
Numbers$py.test$5|Numbers$py.call_function|PyTableCode.call,0.17240000000165312,0.0,0.015035999999963676,0.0,0.1874360000016168
Numbers$py.test$8|Numbers$py.call_function|PyTableCode.call,0.0908354999992298,0.0,0.010061250000035216,0.0,0.10089674999926501
Object.<init>|PyObject.<init>|PySequence.<init>,0.0,0.05524171803965201,0.0,0.00576093907970479,0.061002657119356804
PackageManager.checkAccess|CachedJarsPackageManager.addZipEntry|CachedJarsPackageManager.getZipPackages,0.07015983333379457,0.0,0.007542500000151145,0.0,0.07770233333394572
PushbackInputStream.read|ZipInputStream.read|ZipInputStream.skip,0.06854660000026343,0.0,0.005438999999751104,0.0,0.07398560000001453
Py.<clinit>|PyType.init|PyType.createType,0.06140133333166078,0.0,0.006873333333512871,0.0,0.06827466666517365
Py.getThreadState|Py.getThreadState|Py.getFrame,0.0,0.04475125716393148,0.0,0.006479760541253926,0.05123101770518541
Py.getThreadState|Py.getThreadState|PyObject._gt,0.02107666961415836,0.0,0.001528440521640659,0.0,0.02260511013579902
Py.getThreadState|Py.getThreadState|PyObject._lt,0.0,0.07429999999779588,0.0,0.012400000000222159,0.08669999999801804
Py.make_array|PyTuple.tuple_new|PyTuple$exposed___new__.new_impl,0.0,0.08179791665974162,0.0,0.010633928571310423,0.09243184523105205
Py.newBoolean|PyString$str_isspace_exposer.__call__|PyObject.__call__,0.0,0.07696994620996052,0.0,0.012117302416726835,0.08908724862668735
Py.newInteger|PyString.__int__|PyInteger.asPyInteger,0.029459600000215382,0.0,0.0038060000001375258,0.0,0.033265600000352905
Py.newString|PyString$str_upper_exposer.__call__|PyObject.__call__,0.0,0.07551512286435277,0.0,0.01192113373000288,0.08743625659435565
PyBaseCode.call|PyBaseCode.call|PyFunction.__call__,0.0,0.04804550524620976,0.0,0.007967153390812281,0.056012658637022046
PyBaseCode.call|PyFunction.__call__|PyFunction.__call__,0.0,0.03734603092683832,0.0,0.005242011162791303,0.04258804208962962
PyBaseCode.call|PyFunction.__call__|unicodedata$py.bidirectional$17,0.0,0.03779179487341585,0.0,0.007043076923134952,0.0448348717965508
PyBaseString.<init>|PyString.<init>|PyString.<init>,0.0,0.0874155128444115,0.0,0.009760848532518743,0.09717636137693024
PyBuiltinMethod.makeDescriptor|BaseTypeBuilder.getDict|PyType.init,0.03747553846131688,0.0,0.004661538461312795,0.0,0.042137076922629677
PyClass.lookup|PyClass.__findattr_ex__|PyObject.__getattr__,0.0,0.06346156370782055,0.0,0.010283823522191177,0.07374538723001173
PyClass.lookup|PyInstance.__findattr_ex__|PyObject.__findattr__,0.031258133332206235,0.0,0.003455999999520524,0.0,0.03471413333172676
PyComplex.__add__|PyObject._basic_add|PyObject._add,0.0,0.033377483310223395,0.0,0.005282109301834425,0.03865959261205782
PyComplex.__mul__|PyObject._basic_mul|PyObject._mul,0.0,0.05515664303540948,0.0,0.008220218615230044,0.06337686165063952
PyComplex.__sub__|PyObject._basic_sub|PyObject._sub,0.0,0.06566612992347172,0.0,0.01070035447898818,0.0763664844024599
PyComplex._sub|PyComplex.complex___sub__|PyComplex.__sub__,0.0,0.0846078768163651,0.0,0.009154113547932151,0.09376199036429725
PyDictionary$dict_has_key_exposer.__call__|PyObject.__call__|Dict$py.test$14,0.0,0.0915607416012522,0.0,0.010383289213163456,0.10194403081441566
PyDictionary.__finditem__|PyObject.__getitem__|Dict$py.test$14,0.0,0.06695828963126499,0.0,0.010674453377141485,0.07763274300840647
PyFastSequenceIter.__iternext__|Constructs$py.test$5|Constructs$py.call_function,0.0,0.07937182778160294,0.0,0.009907335497478813,0.08927916327908175
PyFloat.<init>|PyFloat.<init>|PyFloat.float___div__,0.0,0.05770394768211466,0.0,0.008005712116273794,0.06570965979838846
PyFloat.coerce|PyFloat.float___sub__|PyFloat.__sub__,0.0,0.057464858092281676,0.0,0.008935340802142117,0.06640019889442379
PyFrame.<init>|PyFrame.<init>|PyBaseCode.call,0.07662995061553284,0.5542603985853329,0.009577037037183518,0.0916856293445637,0.7321530155826129
PyFrame.doGetglobal|PyFrame.getglobal|unicodedata$py.get_codepoint$9,0.0,0.07832844444136652,0.0,0.013299999999920448,0.09162844444128697
PyFrame.getglobal|Unicode$py.test$20|Unicode$py.call_function,0.0,0.07431128735308824,0.0,0.014613793103381303,0.08892508045646955
PyFrame.getglobal|bisect$py.bisect_left$4|bisect$py.call_function,0.0,0.08527692307744962,0.0,0.012711538461772785,0.0979884615392224
PyFrame.getglobal|unicodedata$py.get$11|unicodedata$py.call_function,0.0,0.07412898850603157,0.0,0.01461827586188875,0.08874726436792033
PyFrame.getlocal|Arithmetic$py.test$8|Arithmetic$py.call_function,0.0,0.05804586051840696,0.0,0.009645342993454962,0.06769120351186192
PyFrame.getlocal|Calls$py.f$28|Calls$py.call_function,0.0,0.05577657008446056,0.0,0.012059950340803044,0.0678365204252636
PyFrame.getlocal|Lookups$py.test$2|Lookups$py.call_function,0.0,0.05688479999468352,0.0,0.007616000000174002,0.06450079999485753
PyFrame.getlocal|Lookups$py.test$7|Lookups$py.call_function,0.0,0.07111486855665725,0.0,0.00911583019286312,0.08023069874952037
PyFrame.getlocal|Strings$py.test$20|Strings$py.call_function,0.0,0.04835103274325741,0.0,0.007605589334102769,0.05595662207736018
PyFrame.getlocal|Strings$py.test$5|Strings$py.call_function,0.0,0.15220133333059493,0.0,0.023364999999709347,0.17556633333030428
PyFrame.getlocal|Strings$py.test$8|Strings$py.call_function,0.07912510364125777,0.0,0.004821300044442409,0.0,0.08394640368570018
PyFrame.getlocal|Unicode$py.test$5|Unicode$py.call_function,0.0,0.08833800000623644,0.0,0.013640000000426271,0.10197800000666271
PyFrame.setline|Arithmetic$py.test$5|Arithmetic$py.call_function,0.0,0.046640477043153536,0.0,0.007815247935098146,0.054455724978251685
PyFrame.setline|Constructs$py.test$5|Constructs$py.call_function,0.0,0.06827167072355067,0.0,0.010172615814315257,0.07844428653786592
PyFrame.setline|Constructs$py.test$8|Constructs$py.call_function,0.0,0.04342040000192355,0.0,0.004908000000068568,0.048328400001992115
PyFrame.setline|Strings$py.test$8|Strings$py.call_function,0.015924315690016157,0.0,0.0010899678593010009,0.0,0.01701428354931716
PyFrame.setline|Unicode$py.test$5|Unicode$py.call_function,0.0,0.0666503333292591,0.0,0.010980000000320915,0.07763033332958001
PyFrame.setlocal|Arithmetic$py.test$14|Arithmetic$py.call_function,0.0,0.06566612992347172,0.0,0.01070035447898818,0.0763664844024599
PyFrame.setlocal|Constructs$py.test$8|Constructs$py.call_function,0.0,0.040812166667213504,0.0,0.0054799999998067506,0.046292166667020254
PyFrame.setlocal|Strings$py.test$11|Strings$py.call_function,0.0,0.055258714286277884,0.0,0.00796178571428235,0.06322050000056023
PyFrame.setlocal|Tuples$py.test$5|Tuples$py.call_function,0.0,0.052915259264409535,0.0,0.008471111111618853,0.061386370376028385
PyFrame.setlocal|bisect$py.bisect_left$4|bisect$py.call_function,0.0,0.08288312499795816,0.0,0.014913437500126747,0.09779656249808491
PyFrame.setlocal|unicodedata$py.get$11|unicodedata$py.call_function,0.0,0.05706799999946573,0.0,0.012194999999943926,0.06926299999940966
PyFrame.setupEnv|PyTableCode.call|PyBaseCode.call,0.0,0.05230711499194199,0.0,0.007267815234804705,0.059574930226746696
PyFunction.__call__|Unicode$py.test$20|Unicode$py.call_function,0.0,0.054434520834547584,0.0,0.013028437499959484,0.06746295833450706
PyInstance.__findattr_ex__|PyObject.__getattr__|Lookups$py.test$12,0.0,0.0410040000015648,0.0,0.0054514285712641474,0.04645542857282895
PyInstance.ifindlocal|PyInstance.__findattr_ex__|PyObject.__getattr__,0.0,0.049832750793792326,0.0,0.008018780319187496,0.05785153111297982
PyInstance.instance___setattr__|PyInstance.__setattr__|StringIO$py.readline$11,0.0403087654308758,0.0,0.005154074074030008,0.0,0.0454628395049058
PyInteger$PyExposer.<init>|PyInteger.<clinit>|Py.<clinit>,0.11107044444361236,0.0,0.011280000000422457,0.0,0.12235044444403481
PyInteger.divide|PyInteger.int___div__|PyInteger.__div__,0.0,0.1442174703642936,0.0,0.021301430197425194,0.1655189005617188
PyInteger.int___cmp__|PyInteger.__cmp__|PyObject._try__cmp__,0.06342566666595909,0.0441504781990858,0.00841749999926833,0.007634414939537325,0.12362805980385054
PyInteger.int___div__|PyInteger.__div__|PyObject._basic_div,0.0,0.05633122400574854,0.0,0.009339569453507595,0.06567079345925614
PyJavaType.init|PyType.createType|PyType.addFromClass,0.04716689655043441,0.0,0.004308965517443487,0.0,0.0514758620678779
PyList$list_append_exposer.__call__|PyObject.__call__|Lists$py.test$8,0.0,0.03868485541311705,0.0,0.004891380246651584,0.04357623565976863
PyList.pyget|PySequence$1.getItem|SequenceIndexDelegate.checkIdxAndFindItem,0.0,0.20230705443155778,0.0,0.030877182648103123,0.2331842370796609
PyLong.canCoerce|PyLong.long___cmp__|PyLong.__cmp__,0.0,0.06987280000078802,0.0,0.009884000000117035,0.07975680000090506
PyObject$PyExposer.<init>|PyObject.<clinit>|Class.forName0,0.04412667999868669,0.0,0.004448600000177976,0.0,0.04857527999886467
PyObject.<init>|PyFloat.<init>|PyFloat.<init>,0.06657497760994244,0.0,0.011206980784920708,0.0,0.07778195839486314
PyObject.__call__|unicodedata$py.get_codepoint$9|unicodedata$py.call_function,0.0,0.10232882758959774,0.0,0.01847793103410493,0.12080675862370267
PyObject.__getattr__|Calls$py.f$18|Calls$py.call_function,0.0,0.034503284464649016,0.0,0.0044880311468660575,0.03899131561151507
PyObject.__getattr__|unicodedata$py.get$11|unicodedata$py.call_function,0.0,0.07096483333619592,0.0,0.008303749999602891,0.07926858333579881
PyObject.__getitem__|Dict$py.test$14|Dict$py.call_function,0.0,0.06859190698318983,0.0,0.010647409951482915,0.07923931693467275
PyObject.__getitem__|Dict$py.test$5|Dict$py.call_function,0.0,0.039271857142531584,0.0,0.0053057142857661724,0.044577571428297755
PyObject._add|Arithmetic$py.test$2|Arithmetic$py.call_function,0.0,0.019166180161387884,0.0,0.002294810051464457,0.02146099021285234
PyObject._basic_add|PyObject._add|Arithmetic$py.test$5,0.0,0.03901751688672008,0.0,0.006519825365357888,0.04553734225207797
PyObject._basic_sub|PyObject._sub|Arithmetic$py.test$2,0.0,0.0592745519828962,0.0,0.007808681065417748,0.06708323304831394
PyObject._basic_sub|PyObject._sub|Arithmetic$py.test$5,0.0,0.03388108591052096,0.0,0.0052776768232855,0.03915876273380646
PyObject._cmp_unsafe|PyObject._gt|Numbers$py.test$5,0.029136624999409836,0.0,0.002576249999947322,0.0,0.031712874999357155
PyObject._eq|Constructs$py.test$2|Constructs$py.call_function,0.0,0.04405675471841905,0.0,0.005533096438556346,0.049589851156975395
PyObject._floordiv|bisect$py.bisect_left$4|bisect$py.call_function,0.0,0.0962007692298637,0.0,0.012015384615481777,0.10821615384534548
PyObject._gt|Numbers$py.test$8|Numbers$py.call_function,0.056434625000292726,0.0,0.005400000000008731,0.0,0.06183462500030146
PyObject._lt|Numbers$py.test$5|Numbers$py.call_function,0.05827640000206884,0.0,0.008249999999679855,0.0,0.0665264000017487
PyObject._lt|bisect$py.bisect_left$4|bisect$py.call_function,0.0,0.03324076923234269,0.0,0.004246153846160712,0.037486923078503404
PyObject._mod|Unicode$py.test$17|Unicode$py.call_function,0.0,0.0823363333280819,0.0,0.011440000000220607,0.09377633332830251
PyObject._try__cmp__|PyObject._cmpeq_unsafe|PyObject._eq,0.02161412500026927,0.0,0.002270625000164728,0.0,0.023884750000433996
PyObject.getType|PyObject._eq|Strings$py.test$8,0.04537227772370333,0.0,0.003231356943858638,0.0,0.048603634667561964
PyObject.getType|PyObject._gt|Numbers$py.test$11,0.0,0.05376000000008692,0.0,0.007696000000093287,0.06145600000018021
PyObject.isDataDescr|PyObject.object___findattr__|PyObject.__findattr_ex__,0.0,0.11674378610993058,0.0,0.01856075642630202,0.13530454253623259
PyObject.object___findattr__|PyObject.__findattr_ex__|PyObject.__getattr__,0.0,0.07243470555543594,0.0,0.014744382712947384,0.08717908826838332
PySequence$1.len|SequenceIndexDelegate.fixindex|SequenceIndexDelegate.checkIdxAndFindItem,0.0,0.08527692307744962,0.0,0.012711538461772785,0.0979884615392224
PySequence$1.len|SequenceIndexDelegate.getSlice|PySequence.seq___getslice__,0.0,0.02805170000065118,0.0,0.0030465000001640872,0.031098200000815267
PySequence.<init>|PyBaseString.<init>|PyString.<init>,0.0,0.13423343564489582,0.0,0.01525487430999481,0.14948830995489062
PySequence.<init>|PySequenceList.<init>|PyList.<init>,0.10794148648507486,0.0,0.011596351351260168,0.0,0.11953783783633502
PySequence.<init>|PySequenceList.<init>|PyTuple.<init>,0.0,0.06892906666810934,0.0,0.014023999999820564,0.08295306666792991
PySequence.seq___finditem__|PyFastSequenceIter.__iternext__|Constructs$py.test$5,0.0,0.07937182778160294,0.0,0.009907335497478813,0.08927916327908175
PySequence.seq___nonzero__|PySequence.__nonzero__|StringIO$py.readline$11,0.04746499999964726,0.0,0.005025000000387081,0.0,0.05249000000003434
PySlice.getStep|PySlice.indicesEx|SequenceIndexDelegate.checkIdxAndSetSlice,0.0,0.07026309523488243,0.0,0.01071428571430304,0.08097738094918547
PyString.atof|PyString.__float__|PyFloat.float_new,0.023262681817538,0.0,0.002937272726988092,0.0,0.026199954544526092
PyString.str___eq__|PyString.__eq__|PyObject._eq,0.0,0.07832844444136652,0.0,0.013299999999920448,0.09162844444128697
PyString.str___gt__|PyString.__gt__|PyObject._gt,0.0,0.06339533334054673,0.0,0.012419999999716916,0.07581533334026365
PyString.str_isalpha|PyString$str_isalpha_exposer.__call__|PyObject.__call__,0.0,0.06108624664466801,0.0,0.009720308694818752,0.07080655533948677
PyString.str_islower|PyUnicode.unicode_islower|PyUnicode$unicode_islower_exposer.__call__,0.0,0.08553066667324552,0.0,0.013234999999743495,0.09876566667298901
PyString.str_title|PyUnicode.unicode_title|PyUnicode$unicode_title_exposer.__call__,0.0,0.02281174011747347,0.0,0.002908185209915186,0.025719925327388656
PyStringMap.<init>|PyStringMap.<init>|PyInstance.<init>,0.0,0.04596819048137625,0.0,0.008282857142538496,0.05425104762391475
PyStringMap.__finditem__|PyClass.lookup|PyClass.__findattr_ex__,0.0,0.1919376166964577,0.0,0.024586139631106715,0.21652375632756443
PyStringMap.__finditem__|PyFrame.doGetglobal|PyFrame.getglobal,0.10083918840547626,0.3676577059414835,0.011423652174214467,0.07234637614667452,0.5522669226678487
PyStringMap.__finditem__|PyType.lookup|PyObject.object___findattr__,0.04295214814886809,0.06643304702602668,0.008460493827187896,0.016136098889010554,0.13398178789109322
PyStringMap.__finditem__|imp.import_next|imp.import_name,0.0,0.05944249051987521,0.0,0.006003604291834767,0.06544609481170999
PyStringMap.__setitem__|PyClass.__setattr__|Lookups$py.test$2,0.0,0.041256666667149625,0.0,0.005842857142505679,0.047099523809655305
PyTableCode.call|PyBaseCode.call|PyBaseCode.call,0.0,0.0441677142890902,0.0,0.009533571428619323,0.053701285717709525
PyTuple.<init>|PyTuple.<init>|ArgParser.getList,0.035603833333880175,0.0,0.00405249999979181,0.0,0.03965633333367199
PyTuple.<init>|PyTuple.fromArrayNoCopy|PyTuple.getslice,0.0,0.030362362911676006,0.0,0.0032403086086960635,0.03360267152037207
PyTuple.getslice|PySequence$1.getSlice|SequenceIndexDelegate.getSlice,0.0,0.11214440553759522,0.0,0.015441164757174098,0.12758557029476933
PyType.fromClass|PyObject.<init>|AST.<init>,0.035522444445329406,0.0,0.004033333333306169,0.0,0.03955577777863557
PyType.fromClass|PyObject.<init>|JavaImporter.<init>,0.03849283333450633,0.0,0.0038949999998294524,0.0,0.04238783333433578
PyType.fromClass|PyObject.<init>|PyDictionary.<init>,0.0,0.01791429824375531,0.0,0.0028855263158140843,0.020799824559569392
PyType.fromClass|PyObject.<init>|PyFrame.<init>,0.20671472381888517,0.36508344894624856,0.021539182209921754,0.06743967253823802,0.6607770275132936
PyType.fromClass|PyObject.<init>|PyIterator.<init>,0.023046933333777508,0.0,0.002880000000004657,0.0,0.025926933333782164
PyType.fromClass|PyObject.<init>|PyMethod.<init>,0.0,0.11983339075720403,0.0,0.018098849520824113,0.13793224027802814
PyType.fromClass|PyObject.<init>|PyStringMap.<init>,0.0,0.048711809520942284,0.0,0.008068571428468983,0.05678038094941126
PyType.fromClass|PyObject.<init>|PyTraceback.<init>,0.0,0.02084377129507714,0.0,0.0023491031714051517,0.023192874466482293
PyType.instDict|PyObjectDerived.<init>|PyObject$exposed___new__.createOfSubtype,0.0,0.04360521428108248,0.0,0.012101785714159112,0.05570699999524159
PyType.invoke_new_|PyType.type___call__|PyType.__call__,0.09157226172708445,0.0,0.01119703703711203,0.0,0.10276929876419648
PyType.isSubType|PyObject._eq|Numbers$py.test$8,0.02161412500026927,0.0,0.002270625000164728,0.0,0.023884750000433996
PyType.lookup|PyObject.object___findattr__|PyObject.__findattr_ex__,0.0,0.05600858823791164,0.0,0.011344411764202604,0.06735300000211425
PyType.lookup|PyObjectDerived.__setattr__|NewInstances$py.__init__$8,0.0,0.050772428574938584,0.0,0.013577142857164812,0.0643495714321034
PyUnicode$PyExposer.<init>|PyUnicode.<clinit>|__builtin__.fillWithBuiltins,0.031457999999272734,0.0,0.003943333332750222,0.0,0.03540133333202296
PyUnicode.fromSubstring|PyString.getslice|PyUnicode.getslice,0.0,0.020107179487613626,0.0,0.003166153846019043,0.02327333333363267
PyUnicode.unicode_isdigit|PyUnicode$unicode_isdigit_exposer.__call__|PyObject.__call__,0.0,0.08553066667324552,0.0,0.013234999999743495,0.09876566667298901
PyXRange$PyExposer.<init>|PyXRange.<clinit>|__builtin__.fillWithBuiltins,0.0243292777763768,0.0,0.0027183333330429845,0.0,0.027047611109419785
PyXRange.getLenOfRange|__builtin__.range|BuiltinFunctions.__call__,0.04131753153270183,0.0,0.004052972973105162,0.0,0.04537050450580699
PyXRange.pyget|PySequence$1.getItem|SequenceIndexDelegate.checkIdxAndFindItem,0.0,0.04974932857266615,0.0,0.0072785714287983,0.05702790000146445
PythonLexer.<clinit>|BaseParser.setupParser|BaseParser.parseModule,0.030587238094691806,0.0,0.003662857142487718,0.0,0.03425009523717952
PythonLexer.mIF|PythonLexer.mTokens|PythonLexer.nextToken,0.0,0.00654885426861586,0.0,0.0008128106211098639,0.007361664889725724
PythonLexer.mNAME|PythonLexer.mTokens|PythonLexer.nextToken,0.036349999999705083,0.0,0.004073333332295684,0.0,0.040423333332000766
PythonLexer.mTokens|PythonLexer.nextToken|BaseParser$PyLexer.nextToken,0.06517200000073191,0.0,0.006243333334471875,0.0,0.07141533333520378
PythonParser.<clinit>|BaseParser.setupParser|BaseParser.parseModule,0.15862886111002203,0.0,0.013042500000463201,0.0,0.17167136111048523
PythonParser.<init>|PythonParser.<init>|PythonParser.<init>,0.03181977777664239,0.0,0.003399999999803387,0.0,0.035219777776445776
PythonParser.decorators|PythonParser.synpred6_Python_fragment|PythonParser.synpred6_Python,0.030505399999674405,0.0,0.0038789999998698477,0.0,0.03438439999954425
PythonParser.except_clause|PythonParser.try_stmt|PythonParser.compound_stmt,0.03741811764655936,0.0,0.004616470588456757,0.0,0.04203458823501612
PythonParser.exprlist|PythonParser.for_stmt|PythonParser.compound_stmt,0.035522444445329406,0.0,0.004033333333306169,0.0,0.03955577777863557
PythonParser.factor|PythonParser.term|PythonParser.arith_expr,0.033189555554094516,0.0,0.004390000000259735,0.0,0.03757955555435425
PythonParser.not_test|PythonParser.and_test|PythonParser.or_test,0.05898621428527155,0.0,0.00487928571341659,0.0,0.06386549999868814
PythonParser.shift_expr|PythonParser.and_expr|PythonParser.xor_expr,0.02716705262987249,0.0,0.0035028947370990765,0.0,0.030669947366971567
PythonParser.synpred11_Python|PythonParser$DFA136.specialStateTransition|DFA.predict,0.04841850000022013,0.0,0.005129999999813403,0.0,0.053548500000033535
PythonParser.synpred7_Python_fragment|PythonParser.synpred7_Python|PythonParser$DFA78.specialStateTransition,0.03205650000070038,0.0,0.003889285714259521,0.0,0.0359457857149599
PythonParser.term|PythonParser.arith_expr|PythonParser.shift_expr,0.033189555554094516,0.0,0.004390000000259735,0.0,0.03757955555435425
PythonTree.<init>|expr.<init>|Name.<init>,0.01867676190435997,0.0,0.0016842857141801644,0.0,0.020361047618540132
SequenceIndexDelegate.checkIdxAndFindItem|PySequence.seq___finditem__|PyFastSequenceIter.__iternext__,0.0,0.023435445791449308,0.0,0.003402368288108906,0.026837814079558216
SequenceIndexDelegate.getSlice|PySequence.seq___getslice__|PySequence.__getslice__,0.041267999999884834,0.0,0.005455999999442914,0.0,0.04672399999932775
SignatureFileVerifier.<clinit>|JarFile.initializeVerifier|JarFile.getInputStream,0.021228854166868892,0.0,0.0024453124998065805,0.0,0.02367416666667547
String.charAt|DecimalFormatSymbols.initialize|DecimalFormatSymbols.<init>,0.07178016319525451,0.0,0.010408647250995709,0.0,0.08218881044625022
String.charAt|PyString.atoi|PyInteger.int_new,0.07954100000060861,0.0,0.00886800000007497,0.0,0.08840900000068358
String.charAt|TextIOInputStream.read|StreamDecoder.readBytes,0.0,0.8381974334355955,0.0,0.10728035660734676,0.9454777900429423
String.compareTo|PyString.str___gt__|PyString.__gt__,0.0,0.048299000001861714,0.0,0.006900000000314321,0.055199000002176035
String.concat|PyUnicode.unicode___add__|PyUnicode.__add__,0.0,0.1109413333372989,0.0,0.02354500000001281,0.13448633333731172
String.format|Version.getBuildInfo|Version.getVersion,0.04457128000164327,0.0,0.00505179999944327,0.0,0.049623080001086534
String.getChars|String.concat|PyUnicode.unicode___add__,0.0,0.07934600000347321,0.0,0.02011499999995673,0.09946100000342994
String.hashCode|ConcurrentHashMap.get|PyStringMap.__finditem__,0.0,0.18141379919700615,0.0,0.030667201923001784,0.21208100112000794
String.hashCode|ConcurrentHashMap.putVal|ConcurrentHashMap.put,0.0,0.05072919212020602,0.0,0.0054532616131509155,0.05618245373335693
String.hashCode|HashMap.hash|LinkedHashMap.get,0.011897153846243432,0.0,0.001585384615352198,0.0,0.01348253846159563
String.indexOf|String.indexOf|PyString.str_find,0.07299064197771561,0.0,0.007212592592735252,0.0,0.08020323457045087
String.intern|ImportFunction.__call__|PyObject.__call__,0.0,0.21871233218399214,0.0,0.025664757672147445,0.2443770898561396
String.intern|PyJavaPackage.addPackage|PackageManager.makeJavaPackage,0.05315133333351696,0.0,0.004385000000183936,0.0,0.057536333333700895
String.intern|PyJavaType.normalize|PyJavaType.init,0.0592157692321612,0.0,0.0064096153843050925,0.0,0.06562538461646629
String.intern|imp.import_next|imp.import_logic,0.0,0.06923429670835632,0.0,0.007800951452806986,0.0770352481611633
String.intern|imp.import_next|imp.import_name,0.0,0.3852545135396819,0.0,0.04828543899833941,0.4335399525380213
String.startsWith|PyString.str_startswith|PyString$str_startswith_exposer.__call__,0.07299064197771561,0.0,0.007212592592735252,0.0,0.08020323457045087
String.substring|PyType.getName|PyBaseException.BaseException___init__,0.0,0.05507002872296686,0.0,0.005659886916801384,0.06072991563976825
String.toLowerCase|String.toLowerCase|PyString.str_lower,0.0,0.02746759420256569,0.0,0.004133043478113773,0.031600637680679465
String.toUpperCase|String.toUpperCase|PyString.str_upper,0.0,0.05341827277666028,0.0,0.008514849771297439,0.06193312254795772
Strings$py.test$11|Strings$py.call_function|PyTableCode.call,0.0,0.0894306507931712,0.0,0.013666547619063102,0.1030971984122343
Strings$py.test$14|Strings$py.call_function|PyTableCode.call,0.0,0.08030430368615148,0.0,0.007336902379310907,0.08764120606546238
Strings$py.test$17|Strings$py.call_function|PyTableCode.call,0.0,0.10208707366650285,0.0,0.015015033882979596,0.11710210754948244
Strings$py.test$20|Strings$py.call_function|PyTableCode.call,0.0,0.22628326542587412,0.0,0.04064133013447668,0.2669245955603508
Strings$py.test$2|Strings$py.call_function|PyTableCode.call,0.0,0.07900000000275516,0.0,0.01500499999989794,0.0940050000026531
Strings$py.test$5|Strings$py.call_function|PyTableCode.call,0.0,1.6632977333356398,0.0,0.2561579999994137,1.9194557333350535
Strings$py.test$8|Strings$py.call_function|PyTableCode.call,0.8065436736457949,0.0,0.05447678187262074,0.0,0.8610204555184157
Subscript$PyExposer.<init>|Subscript.<clinit>|PythonParser.trailer,0.05043940000032307,0.0,0.005688000000372994,0.0,0.05612740000069606
System.checkKey|System.getProperty|UnixFileSystem.resolve,0.0522221212117019,0.0,0.004556818182181538,0.0,0.05677893939388344
System.nanoTime|ClassLoader.loadClass|Launcher$AppClassLoader.loadClass,0.0,0.0,0.0,0.0,0.0
TestHarness.main|Harness.main|NativeMethodAccessorImpl.invoke0,0.0,0.0,0.0,0.0,0.0
TestHarness.twoDecimalPlaces|TestHarness.<clinit>|Harness.main,0.0,0.0,0.0,0.0,0.0
ThreadCoreMapInjector.isRunnable|ThreadCoreMapInjector.transform|TransformerManager.transform,0.036943226667547915,0.0,0.0035463999999531854,0.0,0.040489626667501104
ThreadLocal$ThreadLocalMap.getEntry|ThreadLocal$ThreadLocalMap.access$000|ThreadLocal.get,0.21252925602910264,0.2640264953151367,0.01878034867871351,0.04115854563860016,0.536494645661553
ThreadLocal.get|ThreadStateMapping.getThreadState|Py.getThreadState,0.0,0.07371033333280744,0.0,0.012405000000095848,0.08611533333290329
ThreadStateMapping.getThreadState|Py.getThreadState|Py.getThreadState,0.03524453441229603,0.06388333333597984,0.001978146565468127,0.01104000000001785,0.11214601431376185
Throwable.fillInStackTrace|Throwable.fillInStackTrace|PyException.fillInStackTrace,1.0166195639673161,1.7923776710643988,0.11458383331300664,0.1966669896648257,3.120248058009547
Throwable.fillInStackTrace|Throwable.fillInStackTrace|Throwable.<init>,0.7046593096470047,0.0,0.0817587361982349,0.0,0.7864180458452397
Tuples$py.test$2|Tuples$py.call_function|PyTableCode.call,0.0,0.08628168975909659,0.0,0.009213563854371012,0.0954952536134676
Tuples$py.test$5|Tuples$py.call_function|PyTableCode.call,0.0,0.503875520107584,0.0,0.09146873015885476,0.5953442502664388
Unicode$py.test$11|Unicode$py.call_function|PyTableCode.call,0.0,0.05849574358898024,0.0,0.009530653846237467,0.06802639743521771
Unicode$py.test$17|Unicode$py.call_function|PyTableCode.call,0.0,0.40930092156272346,0.0,0.07545647058913006,0.48475739215185354
Unicode$py.test$20|Unicode$py.call_function|PyTableCode.call,0.0,0.17732200694596637,0.0,0.03360593750034645,0.2109279444463128
Unicode$py.test$2|Unicode$py.call_function|PyTableCode.call,0.0,0.07954900000186171,0.0,0.01678500000040609,0.0963340000022678
Unicode$py.test$5|Unicode$py.call_function|PyTableCode.call,0.0,0.6305949999902318,0.0,0.10467000000001765,0.7352649999902495
Unicode$py.test$8|Unicode$py.call_function|PyTableCode.call,0.0,0.09600319444467055,0.0,0.01687708333318167,0.11288027777785223
UnixFileSystem.delete0|UnixFileSystem.delete|File.delete,0.0,0.08258911110614361,0.0,0.008615833333199893,0.0912049444393435
UnixFileSystem.list|File.list|File.listFiles,0.0,0.03684994444686001,0.0,0.004736666666556428,0.04158661111341644
Unsafe.defineClass|ClassDefiner.defineClass|MethodAccessorGenerator$1.run,0.06191344481626524,0.0,0.00856464121733512,0.0,0.07047808603360037
Yield$PyExposer.<init>|Yield.<clinit>|PythonParser.yield_expr,0.05689844444633409,0.0,0.0060933333330063354,0.0,0.06299177777934042
ZipCoder.toStringUTF8|ZipInputStream.readLOC|ZipInputStream.getNextEntry,0.031664242422707364,0.0,0.002045454545595655,0.0,0.03370969696830302
ZipFile.read|ZipFile.access$1400|ZipFile$ZipFileInputStream.read,0.1747216602565142,0.0,0.017915253435627172,0.0,0.19263691369214136
ZipInputStream.readLOC|ZipInputStream.getNextEntry|CachedJarsPackageManager.getZipPackages,0.04882813333339679,0.0,0.005409999999877376,0.0,0.054238133333274166
ZipInputStream.read|InflaterInputStream.read|DataInputStream.readUnsignedShort,0.08679556060771132,0.0,0.00942772727218901,0.0,0.09622328787990032
ZipInputStream.read|ZipInputStream.closeEntry|CachedJarsPackageManager.getZipPackages,0.07022099999691514,0.0,0.00750249999994897,0.0,0.0777234999968641
ZipInputStream.read|ZipInputStream.skip|DataInputStream.skipBytes,0.021427466666985612,0.0,0.001712000000406988,0.0,0.0231394666673926
__builtin__.vars|BuiltinFunctions.__call__|PyObject.__call__,0.061331111110213,0.0,0.00566060606092144,0.0,0.06699171717113445
imp.importName|ImportFunction.__call__|PyObject.__call__,0.0,0.03520067149738471,0.0,0.003975862054789065,0.03917653355217378
imp.import_name|imp.importName|ImportFunction.__call__,0.0,0.05944606222281767,0.0,0.006991575101371019,0.06643763732418868
keyword$PyExposer.<init>|keyword.<clinit>|GrammarActions.makeKeywords,0.029318470588323712,0.0,0.002377058823185507,0.0,0.031695529411509216
unicodedata$py.get$11|unicodedata$py.call_function|PyTableCode.call,0.0,0.20938494118323145,0.0,0.032324411764492134,0.24170935294772358
unicodedata$py.get_int$1|unicodedata$py.call_function|PyTableCode.call,0.049959333333148,0.0,0.005896000000454175,0.0,0.055855333333602174
zipimporter$PyExposer.<init>|zipimporter.<clinit>|PySystemState.<init>,0.03849283333450633,0.0,0.0038949999998294524,0.0,0.04238783333433578
