method,package1,package2,dram1,dram2,energy
AbstractCollection,0.25714457352365067,0.0,0.023595611307626874,0.0,0.28074018483127755
AbstractList,0.0,0.08978266666720931,0.0,0.010455000000244278,0.1002376666674536
AbstractStringBuilder,0.10790902257295167,0.0,0.012375296688565754,0.0,0.12028431926151742
ArgParser,0.14600892234943502,0.0,0.01654270750232388,0.0,0.16255162985175892
Arithmetic$py,2.362434065227959,0.2543604444346986,0.1945181422532234,0.04665166666685157,2.8579643185827326
ArrayList,0.07386889981964131,0.22725373798701282,0.006395245856493243,0.02803508761488787,0.3355529712780353
ArrayList$SubList$1,0.048435618485787306,0.0,0.004220942880402286,0.0,0.05265656136618959
Arrays,0.12083821030605038,0.21296133976634588,0.015318290580955983,0.03246701042169057,0.3815848510750428
BaseParser,0.22492101904700537,0.0,0.027285571428515207,0.0,0.2522065904755206
BaseRecognizer,0.033614444443999136,0.0,0.004561111111090415,0.0,0.03817555555508955
BigInteger,0.11496709427047114,0.0,0.013939168958211654,0.0,0.1289062632286828
BoolOp$PyExposer,0.051223687498804786,0.0,0.0058218750002652095,0.0,0.057045562499069995
BufferedInputStream,1.1624008786733853,0.0,0.1261199524450281,0.0,1.2885208311184133
BuiltinFunctions,0.1335455693303225,0.0,0.013237385894972458,0.0,0.14678295522529494
ByteArrayOutputStream,0.05009076470528004,0.0,0.0065870588234746745,0.0,0.056677823528754716
CRC32,0.04077664359723588,0.0,0.005318558200436317,0.0,0.046095201797672194
CachedJarsPackageManager,0.07108556345913035,0.0,0.008988812222166746,0.0,0.08007437568129709
Calls$py,0.20280301070330423,0.0,0.029322376616671596,0.0,0.2321253873199758
Chaperone,0.0,0.03625854851609562,0.0,0.004911397818353391,0.04116994633444901
Character,0.10532660914140911,0.09350826715685712,0.010725939458576101,0.014422380053208696,0.22398319581005105
CharacterData00,0.0,0.08989696697809685,0.0,0.011959003922752318,0.10185597090084916
CharacterDataLatin1,0.21186740475830101,0.0,0.02201928571438267,0.0,0.23388669047268368
Class,0.4166371842528203,0.04417881173898736,0.05436147186197128,0.007707360726157431,0.5228848285799363
ClassLoader,0.8415840805871486,0.19777839999878777,0.09116629592630121,0.03047400000032212,1.1610027765125597
ClassReader,0.062030791666529694,0.0,0.007656249999702897,0.0,0.06968704166623259
ClassWriter,0.03677944444428216,0.0,0.004041666666631095,0.0,0.04082111111091326
ClassicPyObjectAdapter,0.0,0.05986328888684511,0.0,0.006541333333330436,0.06640462222017554
CodeCompiler,0.00938729187021852,0.0,0.0012260797985027489,0.0,0.01061337166872127
CommonToken,0.05878412393038658,0.0,0.006665064102097136,0.0,0.06544918803248372
ConcurrentHashMap,1.0130068681347981,0.4392986614613897,0.10840957128599191,0.0632793656327316,1.623994466514911
ConcurrentHashMap$Node,0.011624398784942414,0.0,0.0008406578869901109,0.0,0.012465056671932526
ConditionalSpecialCasing,0.0,0.08150208637875807,0.0,0.014090560431865448,0.09559264681062352
Constructs$py,0.7502615392528087,0.0,0.055331822243012974,0.0,0.8055933614958217
Continue$PyExposer,0.06075439999985974,0.0,0.006398999999510124,0.0,0.06715339999936987
DFA,0.030990596824867968,0.0,0.0032724761906138154,0.0,0.03426307301548178
DataInputStream,0.1099650793259337,0.0,0.009366786216740666,0.0,0.11933186554267437
DecimalFormat,0.0,0.04513707085505033,0.0,0.006374086596935183,0.05151115745198551
Dict$py,0.4074616100108766,0.0,0.04256425049710908,0.0,0.4500258605079857
Exceptions$py,0.24449005555329167,0.0,0.03372583333313943,0.0,0.2782158888864311
FileDescriptor,0.0,0.019921249998636387,0.0,0.0028666666667555144,0.022787916665391903
FileInputStream,0.44388068843164286,0.6162342873957511,0.05328911056942996,0.08259576188311055,1.1959998482799346
FileOutputStream,0.0,0.6073415443751355,0.0,0.08805993659488504,0.6954014809700206
FilterInputStream,0.05233581045301191,0.0,0.004573293497132601,0.0,0.05690910395014451
For$PyExposer,0.027292421053157576,0.0,0.003450000000348633,0.0,0.03074242105350621
Frame,0.046569714286306414,0.0,0.004139999999876766,0.0,0.05070971428618318
Future,0.05801238095210421,0.0,0.005242857143111039,0.0,0.06325523809521524
HashMap,0.0,0.07628480540121113,0.0,0.010069469612885277,0.08635427501409641
Hashtable$Enumerator,0.052528499999880296,0.0,0.005951249999043284,0.0,0.05847974999892358
Imports$py,0.13368902061881144,0.0,0.013591767612258426,0.0,0.14728078823106985
Inflater,8.510576271373623,6.527184011878576,0.9265076717586951,0.9075729063015694,16.871840861312464
InflaterInputStream,0.2364854603185363,0.060564481603890684,0.023897142858317153,0.00901377926451117,0.3299608640452553
Instances$py,0.03288618823825257,0.0,0.0031995240369694093,0.0,0.036085712275221976
Item,0.028564428570721893,0.0,0.0030514285712602675,0.0,0.03161585714198216
Lists$py,0.0,0.4907348296425038,0.0,0.07643522222276294,0.5671700518652667
Lookups$py,0.7532465044315567,0.0,0.07495125009398955,0.0,0.8281977545255462
Math,0.023472380951889568,0.0,0.002128571428502688,0.0,0.025600952380392256
Method,0.06441543333312437,0.0,0.007332000000011855,0.0,0.07174743333313623
Module,0.035121333333552766,0.0,0.0025885714283157587,0.0,0.03770990476186852
MutableBigInteger,0.0,0.06620266666383637,0.0,0.012419999999716916,0.07862266666355329
NativeMethodAccessorImpl,0.08101400000062615,0.0,0.010813333333418185,0.0,0.09182733333404434
NewInstances$py,0.08549422376949614,0.0,0.009777729896180103,0.0,0.09527195366567624
Numbers$py,0.6679686139707843,0.0,0.04810512748098308,0.0,0.7160737414517674
PackageManager,0.15608559433163524,0.0,0.01846263099128788,0.0,0.17454822532292313
ParseUtil,0.0,0.011006666667526588,0.0,0.0013650000000779985,0.012371666667604586
Platform,0.037090375000692184,0.0,0.004779687499952464,0.0,0.04187006250064465
PushbackInputStream,0.10095466223506123,0.0,0.01270356141201992,0.0,0.11365822364708116
Py,0.12004862238286895,0.041219677830546725,0.01229799498277457,0.004903834143447574,0.17847012933963782
PyBaseCode,0.0,0.1671031896186767,0.0,0.020119104408765777,0.18722229402744248
PyBaseException$PyExposer,0.029141729167349695,0.0,0.003587500000094224,0.0,0.03272922916744392
PyClass,0.057217846501858585,0.0,0.005555651844406682,0.0,0.06277349834626526
PyComplex,0.04794970795465221,0.0,0.003815760282973683,0.0,0.05176546823762589
PyDictionary,0.10282304876311811,0.11901909286144058,0.012512868389166671,0.01568846466201252,0.2500434746757379
PyDictionary$PyExposer,0.07366037036936851,0.0,0.007872222222094596,0.0,0.0815325925914631
PyException,0.1044412471023117,0.0,0.011864602138819243,0.0,0.11630584924113094
PyFile$file_readinto_exposer,0.03985370370409563,0.0,0.0037888888888388734,0.0,0.04364259259293451
PyFrame,0.7725985536219161,0.5191924843864915,0.08006747228899229,0.07071537819271612,1.4425738884901158
PyInteger,0.2985731465616913,0.0,0.027516237756870822,0.0,0.32608938431856216
PyJavaType,0.0,0.04506433333638901,0.0,0.005450000000261449,0.05051433333665046
PyList,0.3618930164202474,0.05647800000345645,0.03572936181744043,0.00960000000001552,0.4637003782411598
PyList$list_append_exposer,0.0,0.023747222218878084,0.0,0.0022666666666703314,0.026013888885548415
PyList$list_insert_exposer,0.0267454861682984,0.0,0.0036191216181307093,0.0,0.030364607786429108
PyMethod$PyExposer,0.034598083332790935,0.0,0.003587500000094224,0.0,0.03818558333288516
PyMethodDescr,0.04990633333606335,0.0,0.0035349999998288686,0.0,0.05344133333589222
PyObject,0.6688059863844658,0.2098727949585828,0.06349968963132768,0.032367523769768064,0.9745459947441443
PySequence,0.09363524242353653,0.0,0.00864318181761932,0.0,0.10227842424115585
PySlice,0.03649900000042786,0.0,0.004344999999981761,0.0,0.04084400000040962
PySlice$PyExposer,0.022097820512545958,0.0,0.0020269230770235225,0.0,0.02412474358956948
PyString,0.12515394687470816,0.05135968889805295,0.01559324477753208,0.007666701170266767,0.19977358172055995
PyString$str_isspace_exposer,0.08933516666972233,0.0,0.006960000000011252,0.0,0.09629516666973358
PyStringMap,0.17157867796160484,0.0,0.01834095649072475,0.0,0.1899196344523296
PySystemState,0.034598083332790935,0.0,0.003587500000094224,0.0,0.03818558333288516
PyTableCode,0.07679808428054591,0.0,0.010097216985486917,0.0,0.08689530126603283
PyTuple,0.08102329072799325,0.07661933333050304,0.008754503843815058,0.011265000000397169,0.17766212790270852
PyType,0.6165419710902008,0.35514135426321397,0.07641038476516995,0.04429140049669542,1.0923851106152802
PyUnicode,0.03878792631592668,0.0,0.008530495276351767,0.0,0.04731842159227845
PyUnicode$PyExposer,0.05721653846147745,0.0,0.006000000000009701,0.0,0.06321653846148716
PythonLexer,0.09800995555597182,0.0,0.00801116666645814,0.0,0.10602112222242996
PythonLexer$DFA5,0.07450165909115943,0.0,0.0098698863640686,0.0,0.08437154545522803
PythonParser,0.40566075500095033,0.0,0.044227832049942864,0.0,0.4498885870508932
PythonTree,0.10162839655201643,0.0,0.01236077586215037,0.0,0.1139891724141668
Raise$PyExposer,0.02701610526434562,0.0,0.0033189473688253197,0.0,0.03033505263317094
RewriteRuleElementStream,0.0751695811874841,0.0,0.011131995487404246,0.0,0.08630157667488834
SequenceIndexDelegate,0.04827190579870373,0.0,0.003435012426709939,0.0,0.05170691822541367
StreamIO,0.032355020833165334,0.0,0.002550625000291499,0.0,0.03490564583345683
String,1.4317221137569094,0.2721190921821976,0.17630061317873613,0.04154331509174593,1.921685134209589
StringCharacterIterator,0.0,0.0208645515118291,0.0,0.003462535482230756,0.024327086994059853
Strings$py,0.9350826359327301,0.0,0.08229902050565496,0.0,1.017381656438385
ThreadCallsiteInjector,0.015252315788529813,0.0,0.0020984210522759605,0.0,0.017350736840805774
ThreadLocal,0.0184034566632236,0.0,0.0012312196001280215,0.0,0.019634676263351622
ThreadLocal$ThreadLocalMap,0.24102665199774734,0.03701394003896146,0.020644481091654728,0.005505874714289874,0.3041909478426534
ThreadStateMapping,0.015332052409474503,0.0,0.0017525219878094585,0.0,0.01708457439728396
Throwable,4.291278207092181,0.2509683566055261,0.5004110933253823,0.03213336885103983,5.074791025874128
TryExcept$PyExposer,0.030478461537710156,0.0,0.0038961538461407133,0.0,0.03437461538385087
Tuples$py,0.05093949086505831,0.18377666666250053,0.006770591067698817,0.027265000000018816,0.26875174859527645
UTF_8$Decoder,0.04023421228995812,0.0,0.003517839349770662,0.0,0.043752051639728784
Unicode$py,0.13285006882630768,0.25846137357518895,0.016382875402234123,0.040445641653863565,0.4481399594575943
UnixFileSystem,0.0,0.26852499117985734,0.0,0.03148915329476603,0.3000141444746234
ZipCoder,0.08238869047723017,0.0,0.008124285714854651,0.0,0.09051297619208483
ZipFile,0.0488049523805135,0.07604966666743469,0.004811428571147622,0.01096500000009352,0.14063104761918935
ZipInputStream,0.2832135697611869,0.043496700000105186,0.03141949302485889,0.005064750000292407,0.3631945127864434
ZipUtils,0.10604143571539948,0.0,0.011313943978934142,0.0,0.11735537969433363
__builtin__,0.12161947999668252,0.0,0.012064544856608739,0.0,0.13368402485329126
exceptions,0.029141729167349695,0.0,0.003587500000094224,0.0,0.03272922916744392
imp,0.07196767223269565,0.0,0.009696898494446072,0.0,0.08166457072714173
operator,0.048374714286183014,0.0,0.00624642857136288,0.0,0.05462114285754589
unicodedata$py,0.21114691086750795,0.23198838834328728,0.023373863644191303,0.02894823955594434,0.49545740241093084
