dram,epoch,package,socket
0.0,0,0.0,1
0.0,1,0.0,1
0.20698500000071363,2,1.490111999999499,1
0.0,3,0.0,1
0.004020000000309665,4,0.029784999998810235,1
0.0,5,0.0,1
0.004079999998793937,6,0.028870000001916196,1
0.0,7,0.0,1
0.004080000002431916,8,0.031432999996468425,1
0.0,9,0.0,1
0.02854499999739346,10,0.21545400000468362,1
0.0,11,0.0,1
0.004035000001749722,12,0.03515599999809638,1
0.0,13,0.0,1
0.0,14,0.0,1
0.0,15,0.0,1
0.0040349999981117435,16,0.032958999996481,1
0.0,17,0.0,1
0.004049999999551801,18,0.02960200000234181,1
0.0,19,0.0,1
0.028500000000349246,20,0.22875999999814667,1
0.0,21,0.0,1
0.008145000003423775,22,0.06402600000001257,1
0.0,23,0.0,1
0.032789999997476116,24,0.23388700000214158,1
0.0,25,0.0,1
0.032714999997551786,26,0.2145989999989979,1
0.0,27,0.0,1
0.031140000002778834,28,0.23339900000428315,1
0.0,29,0.0,1
0.035729999999603024,30,0.3501579999938258,1
0.0,31,0.0,1
0.006990000001678709,32,0.06445300000632415,1
0.0,33,0.0,1
0.03282000000035623,34,0.22375499999907333,1
0.0,35,0.0,1
0.01645500000086031,36,0.18231199999718228,1
0.0,37,0.0,1
0.024059999999735737,38,0.23614500000257976,1
0.0,39,0.0,1
0.05839499999638065,40,0.4754029999967315,1
0.0,41,0.0,1
0.0040200000039476436,42,0.040711000001465436,1
0.0,43,0.0,1
0.020399999997607665,44,0.15740899999946123,1
0.0,45,0.0,1
0.025829999998677522,46,0.1923220000026049,1
0.0,47,0.0,1
0.028140000002167653,48,0.19812000000092667,1
0.0,49,0.0,1
0.04685999999855994,50,0.3046879999965313,1
0.0,51,0.0,1
0.015224999999190914,52,0.10906899999827147,1
0.0,53,0.0,1
0.1963050000013027,54,1.5725100000054226,1
0.0,55,0.0,1
0.007860000001528533,56,0.06030299999838462,1
0.0,57,0.0,1
0.0,58,0.0,1
0.0,59,0.0,1
0.02020500000071479,60,0.14788799999951152,1
0.0,61,0.0,1
0.004019999996671686,62,0.04144299999461509,1
0.0,63,0.0,1
0.0,64,0.0,1
0.0,65,0.0,1
0.0038400000012188684,66,0.045471000004909,1
0.0,67,0.0,1
0.027900000000954606,68,0.26672400000097696,1
0.0,69,0.0,1
0.04260000000067521,70,0.3554080000030808,1
0.0,71,0.0,1
0.01811999999699765,72,0.13189699999202276,1
0.0,73,0.0,1
0.031590000002324814,74,0.2260740000056103,1
0.0,75,0.0,1
0.019440000000031432,76,0.24102800000400748,1
0.0,77,0.0,1
0.018224999999802094,78,0.18804899998940527,1
0.0,79,0.0,1
0.032190000001719454,80,0.3588870000021416,1
0.0,81,0.0,1
0.011759999997593695,82,0.15344200000254204,1
0.0,83,0.0,1
0.015210000001388835,84,0.2581179999979213,1
0.0,85,0.0,1
0.02869499999724212,86,0.2413940000042203,1
0.0,87,0.0,1
0.02397000000200933,88,0.23687699999572942,1
0.0,89,0.0,1
0.04910999999992782,90,0.4932249999983469,1
0.0,91,0.0,1
0.008159999997587875,92,0.07281500000681262,1
0.0,93,0.0,1
0.0324300000029325,94,0.3077389999962179,1
0.0,95,0.0,1
0.019935000000259606,96,0.2821050000056857,1
0.0,97,0.0,1
0.020984999999200227,98,0.2757569999957923,1
0.0,99,0.0,1
0.052995000001828885,100,0.48150600000371924,1
0.0,101,0.0,1
0.01217999999789754,102,0.12481699999625562,1
0.0,103,0.0,1
0.036239999997633277,104,0.3836059999957797,1
0.0,105,0.0,1
0.03216000000247732,106,0.37670900000375696,1
0.0,107,0.0,1
0.028199999997013947,108,0.32397499999933643,1
0.0,109,0.0,1
0.044505000001663575,110,0.48266599999624304,1
0.0,111,0.0,1
0.02021999999851687,112,0.2180170000065118,1
0.0,113,0.0,1
0.031890000002022134,114,0.3499149999988731,1
0.0,115,0.0,1
0.032490000001416774,116,0.32781999999861,1
0.0,117,0.0,1
0.032415000001492444,118,0.32995600000140257,1
0.0,119,0.0,1
0.04454999999870779,120,0.4710080000004382,1
0.0,121,0.0,1
0.02027999999700114,122,0.2114259999943897,1
0.0,123,0.0,1
0.03184500000133994,124,0.3537590000050841,1
0.0,125,0.0,1
0.03216000000247732,126,0.3417970000009518,1
0.0,127,0.0,1
0.028229999996256083,128,0.32928499999979977,1
0.0,129,0.0,1
0.05304000000251108,130,0.4791869999971823,1
0.0,131,0.0,1
0.015164999997068662,132,0.1361079999987851,1
0.0,133,0.0,1
0.03258000000278116,134,0.25726399999985006,1
0.0,135,0.0,1
0.026279999998223502,136,0.21752900000137743,1
0.0,137,0.0,1
0.027584999999817228,138,0.2390750000049593,1
0.0,139,0.0,1
0.04334999999991851,140,0.3587029999907827,1
0.0,141,0.0,1
0.016335000003891764,142,0.11969000000681262,1
0.0,143,0.0,1
0.03281999999671825,144,0.24841300000116462,1
0.0,145,0.0,1
0.02883000000292668,146,0.23907499999768334,1
0.0,147,0.0,1
0.02275499999814201,148,0.19000199999572942,1
0.0,149,0.0,1
0.04219500000181142,150,0.3217170000061742,1
0.0,151,0.0,1
0.014009999998961575,152,0.11059499999828404,1
0.0,153,0.0,1
0.03299999999944703,154,0.21557699999539182,1
0.0,155,0.0,1
0.022334999997838167,156,0.21459900000627385,1
0.0,157,0.0,1
0.029955000001791632,158,0.2270509999943897,1
0.0,159,0.0,1
0.021225000000413274,160,0.232666000003519,1
0.0,161,0.0,1
0.014639999997598352,162,0.1162110000004759,1
0.0,163,0.0,1
0.02704500000254484,164,0.17523200000141514,1
0.0,165,0.0,1
0.023549999998067506,166,0.1812740000023041,1
0.0,167,0.0,1
0.03163499999936903,168,0.21423399999184767,1
0.0,169,0.0,1
0.04896000000007916,170,0.3049920000048587,1
0.0,171,0.0,1
0.01630500000101165,172,0.09692399999767076,1
0.0,173,0.0,1
0.03267000000050757,174,0.18231200000445824,1
0.0,175,0.0,1
0.018195000000559958,176,0.18670700000075158,1
0.0,177,0.0,1
0.024584999999206048,178,0.20123299999977462,1
0.0,179,0.0,1
0.0414600000003702,180,0.3331909999906202,1
0.0,181,0.0,1
0.02028000000063912,182,0.15802000000985572,1
0.0,183,0.0,1
0.028080000000045402,184,0.2839959999982966,1
0.0,185,0.0,1
0.03214500000103726,186,0.30432099999597995,1
0.0,187,0.0,1
0.028439999998226995,188,0.34429999999701977,1
0.0,189,0.0,1
0.05131500000061351,190,0.6972650000025169,1
0.0,191,0.0,1
0.01194000000032247,192,0.13928300000407035,1
0.0,193,0.0,1
0.028589999998075655,194,0.3283079999964684,1
0.0,195,0.0,1
0.03592500000013388,196,0.36346400000184076,1
0.0,197,0.0,1
0.032040000001870794,198,0.30865500000072643,1
0.0,199,0.0,1
0.04456499999650987,200,0.4613039999967441,1
0.0,201,0.0,1
0.016260000003967434,202,0.1481320000020787,1
0.0,203,0.0,1
0.03259499999694526,204,0.2828979999976582,1
0.0,205,0.0,1
0.036390000001119915,206,0.2958980000039446,1
0.0,207,0.0,1
0.030389999999897555,208,0.24426300000050105,1
0.0,209,0.0,1
0.04061999999976251,210,0.3210449999969569,1
0.0,211,0.0,1
0.01810500000283355,212,0.16888399999879766,1
0.0,213,0.0,1
0.03275999999823398,214,0.2518920000002254,1
0.0,215,0.0,1
0.03665999999793712,216,0.27826000000641216,1
0.0,217,0.0,1
0.032340000001568114,218,0.2612299999964307,1
0.0,219,0.0,1
0.044729999997798586,220,0.3674929999979213,1
0.0,221,0.0,1
0.020400000001245644,222,0.16216999999596737,1
0.0,223,0.0,1
0.032040000001870794,224,0.29046600000583567,1
0.0,225,0.0,1
0.02412000000185799,226,0.2727050000030431,1
0.0,227,0.0,1
0.032579999995505204,228,0.2810669999962556,1
0.0,229,0.0,1
0.05250000000160071,230,0.4995119999948656,1
0.0,231,0.0,1
0.011999999998806743,232,0.10791000000608619,1
0.0,233,0.0,1
0.03237000000081025,234,0.2913819999957923,1
0.0,235,0.0,1
0.032639999997627456,236,0.2796630000011646,1
0.0,237,0.0,1
0.03274500000406988,238,0.26654100000450853,1
0.0,239,0.0,1
0.049019999998563435,240,0.4178459999966435,1
0.0,241,0.0,1
0.016320000002451707,242,0.14831600000616163,1
0.0,243,0.0,1
0.032339999997930136,244,0.28857399999833433,1
0.0,245,0.0,1
0.032865000001038425,246,0.25024399999529123,1
0.0,247,0.0,1
0.036990000000514556,248,0.2566530000040075,1
0.0,249,0.0,1
0.040619999996124534,250,0.38079799999832176,1
0.0,251,0.0,1
0.01621500000328524,252,0.153931000000739,1
0.0,253,0.0,1
0.03268499999830965,254,0.26178000000072643,1
0.0,255,0.0,1
0.032640000001265435,256,0.2579340000011143,1
0.0,257,0.0,1
0.028379999999742722,258,0.22546399999555433,1
0.0,259,0.0,1
0.05287500000122236,260,0.4320069999957923,1
0.0,261,0.0,1
0.016259999996691477,262,0.13720699999976205,1
0.0,263,0.0,1
0.032640000001265435,264,0.26489300000685034,1
0.0,265,0.0,1
0.03257999999914318,266,0.2697749999933876,1
0.0,267,0.0,1
0.03269999999974971,268,0.2575680000009015,1
0.0,269,0.0,1
0.04483500000424101,270,0.37689200000750134,1
0.0,271,0.0,1
0.02027999999700114,272,0.17602599999372615,1
0.0,273,0.0,1
0.02833499999906053,274,0.25451600000815233,1
0.0,275,0.0,1
0.03651000000172644,276,0.35461499999655643,1
0.0,277,0.0,1
0.028439999998226995,278,0.26617399999668123,1
0.0,279,0.0,1
0.04469999999855645,280,0.4550779999990482,1
0.0,281,0.0,1
0.016320000002451707,282,0.14556900000025053,1
0.0,283,0.0,1
0.03651000000172644,284,0.34082000000489643,1
0.0,285,0.0,1
0.03254999999990105,286,0.31457599999703234,1
0.0,287,0.0,1
0.02703000000110478,288,0.2689200000022538,1
0.0,289,0.0,1
0.04883999999583466,290,0.41143799999554176,1
0.0,291,0.0,1
0.0192300000016985,292,0.15503000000171596,1
0.0,293,0.0,1
0.028665000001637964,294,0.2211909999969066,1
0.0,295,0.0,1
0.024600000000646105,296,0.2573240000056103,1
0.0,297,0.0,1
0.036840000000665896,298,0.2987059999941266,1
0.0,299,0.0,1
0.048959999996441184,300,0.40240500000072643,1
0.0,301,0.0,1
0.01217999999789754,302,0.1052860000054352,1
0.0,303,0.0,1
0.03259500000422122,304,0.2933959999936633,1
0.0,305,0.0,1
0.032129999995959224,306,0.2749630000034813,1
0.0,307,0.0,1
0.02283000000170432,308,0.19030799999745796,1
0.0,309,0.0,1
0.04371000000173808,310,0.3464349999994738,1
0.0,311,0.0,1
0.016499999997904524,312,0.14831600000616163,1
0.0,313,0.0,1
0.03273000000262982,314,0.24676499999623047,1
0.0,315,0.0,1
0.032715000001189765,316,0.23724400000355672,1
0.0,317,0.0,1
0.03251999999702093,318,0.23589999999967404,1
0.0,319,0.0,1
0.04888500000015483,320,0.3739019999993616,1
0.0,321,0.0,1
0.011819999999715947,322,0.1008910000018659,1
0.0,323,0.0,1
0.028139999998529674,324,0.2381589999931748,1
0.0,325,0.0,1
0.025710000001708977,326,0.24371400000381982,1
0.0,327,0.0,1
0.03231000000232598,328,0.2542719999983092,1
0.0,329,0.0,1
0.049019999998563435,330,0.37127699999837205,1
0.0,331,0.0,1
0.01636499999949592,332,0.11730900000111433,1
0.0,333,0.0,1
0.03275999999823398,334,0.23559599999862257,1
0.0,335,0.0,1
0.03215999999883934,336,0.26471000000310596,1
0.0,337,0.0,1
0.031590000002324814,338,0.25738499999715714,1
0.0,339,0.0,1
0.04017000000021653,340,0.3488160000051721,1
0.0,341,0.0,1
0.01630500000101165,342,0.1260370000018156,1
0.0,343,0.0,1
0.03328499999770429,344,0.27978599999914877,1
0.0,345,0.0,1
0.030330000001413282,346,0.2647699999943143,1
0.0,347,0.0,1
0.0283949999975448,348,0.25824000000284286,1
0.0,349,0.0,1
0.04834500000288244,350,0.4266970000026049,1
0.0,351,0.0,1
0.013919999997597188,352,0.13262899999244837,1
0.0,353,0.0,1
0.03312000000369153,354,0.295471000004909,1
0.0,355,0.0,1
0.02861999999731779,356,0.20861800000420772,1
0.0,357,0.0,1
0.03267000000050757,358,0.2580569999990985,1
0.0,359,0.0,1
0.0480600000009872,360,0.36218299999745796,1
0.0,361,0.0,1
0.016319999998813728,362,0.1028440000009141,1
0.0,363,0.0,1
0.03237000000081025,364,0.2128900000025169,1
0.0,365,0.0,1
0.036629999998694984,366,0.23748799999884795,1
0.0,367,0.0,1
0.028500000000349246,368,0.18402099999366328,1
0.0,369,0.0,1
0.04477500000211876,370,0.28558399999747053,1
0.0,371,0.0,1
0.020339999999123393,372,0.13641300000745105,1
0.0,373,0.0,1
0.03252000000065891,374,0.2252809999990859,1
0.0,375,0.0,1
0.03245999999853666,376,0.22052000000257976,1
0.0,377,0.0,1
0.03227999999944586,378,0.2518919999929494,1
0.0,379,0.0,1
0.04650000000037835,380,0.3316040000063367,1
0.0,381,0.0,1
0.019739999999728752,382,0.14154099999723257,1
0.0,383,0.0,1
0.03341999999975087,384,0.2677609999955166,1
0.0,385,0.0,1
0.031725000000733417,386,0.26104700000723824,1
0.0,387,0.0,1
0.03235499999937019,388,0.2472540000017034,1
0.0,389,0.0,1
0.0434400000012829,390,0.3652949999959674,1
0.0,391,0.0,1
0.019800000001851004,392,0.17047099999763304,1
0.0,393,0.0,1
0.03214499999739928,394,0.2766730000003008,1
0.0,395,0.0,1
0.028200000000651926,396,0.23724300000321819,1
0.0,397,0.0,1
0.03664500000013504,398,0.3242190000019036,1
0.0,399,0.0,1
0.04462499999863212,400,0.3209839999981341,1
0.0,401,0.0,1
0.01638000000093598,402,0.11022899999807123,1
0.0,403,0.0,1
0.032940000000962755,404,0.25958299999911105,1
0.0,405,0.0,1
0.03131999999823165,406,0.24914500000159023,1
0.0,407,0.0,1
0.020459999999729916,408,0.1932989999986603,1
0.0,409,0.0,1
0.04508999999961816,410,0.39605699999810895,1
0.0,411,0.0,1
0.02034000000276137,412,0.16052200000558514,1
0.0,413,0.0,1
0.027314999999362044,414,0.21673599999485305,1
0.0,415,0.0,1
0.026415000000270084,416,0.2570800000030431,1
0.0,417,0.0,1
0.02162999999927706,418,0.19165099999372615,1
0.0,419,0.0,1
0.03408000000126776,420,0.33111500000813976,1
0.0,421,0.0,1
0.020384999999805586,422,0.1618659999949159,1
0.0,423,0.0,1
0.03035999999701744,424,0.26763900000514695,1
0.0,425,0.0,1
0.022890000000188593,426,0.20355199999903562,1
0.0,427,0.0,1
0.027734999999665888,428,0.2555540000030305,1
0.0,429,0.0,1
0.021240000001853332,430,0.2604369999971823,1
0.0,431,0.0,1
0.01074000000153319,432,0.15478499999881024,1
0.0,433,0.0,1
0.0204299999968498,434,0.18902600000001257,1
0.0,435,0.0,1
0.014220000000932487,436,0.17559800000162795,1
0.0,437,0.0,1
0.016019999999116408,438,0.21905600000172853,1
0.0,439,0.0,1
0.01600500000131433,440,0.22704999999405118,1
0.0,441,0.0,1
0.008819999999104766,442,0.11883600000146544,1
0.0,443,0.0,1
0.03438000000096508,444,0.25353999999788357,1
0.0,445,0.0,1
0.027450000001408625,446,0.21307400000659982,1
0.0,447,0.0,1
0.030329999997775303,448,0.24267499999405118,1
0.0,449,0.0,1
0.04897500000151922,450,0.39624100000219187,1
0.0,451,0.0,1
0.020324999997683335,452,0.18511900000157766,1
0.0,453,0.0,1
0.028560000002471497,454,0.2522590000007767,1
0.0,455,0.0,1
0.035489999998389976,456,0.2437740000023041,1
0.0,457,0.0,1
0.0273300000008021,458,0.22509799999534152,1
0.0,459,0.0,1
0.04364999999961583,460,0.38562000000092667,1
0.0,461,0.0,1
0.02028000000063912,462,0.192137999998522,1
0.0,463,0.0,1
0.03254999999990105,464,0.3233039999977336,1
0.0,465,0.0,1
0.03227999999944586,466,0.3508300000030431,1
0.0,467,0.0,1
0.028304999999818392,468,0.332762999998522,1
0.0,469,0.0,1
0.05068500000197673,470,0.4530030000023544,1
0.0,471,0.0,1
0.00878999999986263,472,0.08575500000006286,1
0.0,473,0.0,1
0.028050000000803266,474,0.2257690000042203,1
0.0,475,0.0,1
0.03035999999701744,476,0.23095699999976205,1
0.0,477,0.0,1
0.029190000001108274,478,0.2738649999955669,1
0.0,479,0.0,1
0.04378500000166241,480,0.43719399999827147,1
0.0,481,0.0,1
0.008730000001378357,482,0.09747400000196649,1
0.0,483,0.0,1
0.023399999998218846,484,0.25347899999906076,1
0.0,485,0.0,1
0.020550000001094304,486,0.22680599999875994,1
0.0,487,0.0,1
0.02698499999678461,488,0.2976690000068629,1
0.0,489,0.0,1
0.04785000000265427,490,0.4107659999936004,1
0.0,491,0.0,1
0.016319999998813728,492,0.1290900000021793,1
0.0,493,0.0,1
0.028500000000349246,494,0.22515800000110175,1
0.0,495,0.0,1
0.02923499999815249,496,0.22863800000050105,1
0.0,497,0.0,1
0.03321000000141794,498,0.27862499999901047,1
0.0,499,0.0,1
0.04927500000121654,500,0.4553230000019539,1
0.0,501,0.0,1
0.008760000000620494,502,0.10595699999976205,1
0.0,503,0.0,1
0.11512499999662396,504,0.8596189999952912,1
0.0,505,0.0,1
0.004020000000309665,506,0.029175000003306195,1
0.0,507,0.0,1
0.004020000000309665,508,0.03320299999904819,1
0.0,509,0.0,1
0.027075000001786975,510,0.24902299999666866,1
0.0,511,0.0,1
0.027929999996558763,512,0.23571800000354415,1
0.0,513,0.0,1
0.027525000001332955,514,0.2747190000009141,1
0.0,515,0.0,1
0.032265000001643784,516,0.3097540000017034,1
0.0,517,0.0,1
0.0363599999982398,518,0.3091429999913089,1
0.0,519,0.0,1
0.04033500000150525,520,0.3398430000015651,1
0.0,521,0.0,1
0.12784499999906984,522,0.6443490000019665,1
0.0,523,0.0,1
0.006030000000464497,524,0.03723100000206614,1
0.0,525,0.0,1
0.011070000000472646,526,0.09014899999601766,1
0.0,527,0.0,1
0.04192500000135624,528,0.2557370000067749,1
0.0,529,0.0,1
0.05372999999599415,530,0.4550170000002254,1
0.0,531,0.0,1
0.020550000001094304,532,0.20501699999294942,1
0.0,533,0.0,1
0.028515000001789303,534,0.3429570000007516,1
0.0,535,0.0,1
0.03674999999930151,536,0.3983150000058231,1
0.0,537,0.0,1
0.032265000001643784,538,0.32379199999559205,1
0.0,539,0.0,1
0.046094999997876585,540,0.40679899999668123,1
0.0,541,0.0,1
0.015960000000632135,542,0.14202900000236696,1
0.0,543,0.0,1
0.03192000000126427,544,0.31134000000020023,1
0.0,545,0.0,1
0.03225000000020373,546,0.29718100000172853,1
0.0,547,0.0,1
0.03251999999702093,548,0.28057799999805866,1
0.0,549,0.0,1
0.04356000000188942,550,0.47277899999608053,1
0.0,551,0.0,1
0.018794999999954598,552,0.1687010000096052,1
0.0,553,0.0,1
0.03394499999922118,554,0.39361499999358784,1
0.0,555,0.0,1
0.02937000000019907,556,0.28912400000263005,1
0.0,557,0.0,1
0.03229500000088592,558,0.283263999997871,1
0.0,559,0.0,1
0.0483749999984866,560,0.435486000002129,1
0.0,561,0.0,1
0.015674999998736894,562,0.13360600000305567,1
0.0,563,0.0,1
0.03192000000490225,564,0.27716099999815924,1
0.0,565,0.0,1
0.032579999995505204,566,0.25512699999671895,1
0.0,567,0.0,1
0.03258000000278116,568,0.23150600000371924,1
0.0,569,0.0,1
0.04891499999939697,570,0.3591309999974328,1
0.0,571,0.0,1
0.015210000001388835,572,0.12286399999720743,1
0.0,573,0.0,1
0.028514999998151325,574,0.21166900000389433,1
0.0,575,0.0,1
0.03240000000005239,576,0.2262579999951413,1
0.0,577,0.0,1
0.03830999999991036,578,0.2785640000074636,1
0.0,579,0.0,1
0.03532500000073924,580,0.2958989999970072,1
0.0,581,0.0,1
0.024000000001251465,582,0.1861570000037318,1
0.0,583,0.0,1
0.03214499999739928,584,0.2641599999915343,1
0.0,585,0.0,1
0.03659999999945285,586,0.3086550000080024,1
0.0,587,0.0,1
0.03258000000278116,588,0.25500499999907333,1
0.0,589,0.0,1
0.036254999995435355,590,0.33563199999480275,1
0.0,591,0.0,1
0.023325000001932494,592,0.19812000000092667,1
0.0,593,0.0,1
0.028440000001864973,594,0.2524420000045211,1
0.0,595,0.0,1
0.029279999998834683,596,0.25140299999475246,1
0.0,597,0.0,1
0.03140999999959604,598,0.22900400000071386,1
0.0,599,0.0,1
0.04446000000098138,600,0.3195800000030431,1
0.0,601,0.0,1
0.020339999999123393,602,0.15435799999977462,1
0.0,603,0.0,1
0.02831999999762047,604,0.26123099999676924,1
0.0,605,0.0,1
0.029910000004747417,606,0.2894890000025043,1
0.0,607,0.0,1
0.02291999999943073,608,0.2252200000002631,1
0.0,609,0.0,1
0.032339999997930136,610,0.29052799999772105,1
0.0,611,0.0,1
0.021690000001399312,612,0.23040700000274228,1
0.0,613,0.0,1
0.026925000001938315,614,0.2669679999962682,1
0.0,615,0.0,1
0.030119999995804392,616,0.26092500000231666,1
0.0,617,0.0,1
0.030300000002171146,618,0.23645000000396976,1
0.0,619,0.0,1
0.03280499999891617,620,0.25439499999629334,1
0.0,621,0.0,1
0.019964999999501742,622,0.20043900000018766,1
0.0,623,0.0,1
0.02005500000086613,624,0.23651199999585515,1
0.0,625,0.0,1
0.025034999998752028,626,0.21203600000444567,1
0.0,627,0.0,1
0.03433500000028289,628,0.26946999999927357,1
0.0,629,0.0,1
0.039404999999533175,630,0.2763059999997495,1
0.0,631,0.0,1
0.023415000003296882,632,0.15844700000161538,1
0.0,633,0.0,1
0.03245999999853666,634,0.21759100000053877,1
0.0,635,0.0,1
0.02861999999731779,636,0.15716499999689404,1
0.0,637,0.0,1
0.033090000000811415,638,0.2136229999960051,1
0.0,639,0.0,1
0.04034999999930733,640,0.26654100000450853,1
0.0,641,0.0,1
0.020100000001548324,642,0.13092000000324333,1
0.0,643,0.0,1
0.03618000000278698,644,0.26403799999388866,1
0.0,645,0.0,1
0.02861999999731779,646,0.19653400000970578,1
0.0,647,0.0,1
0.03613499999846681,648,0.2982169999886537,1
0.0,649,0.0,1
0.04069500000332482,650,0.3223270000089542,1
0.0,651,0.0,1
0.024479999996401602,652,0.18383799999719486,1
0.0,653,0.0,1
0.028500000000349246,654,0.21783399999549147,1
0.0,655,0.0,1
0.0345450000022538,656,0.2521370000031311,1
0.0,657,0.0,1
0.028500000000349246,658,0.19329800000559771,1
0.0,659,0.0,1
0.04580999999961932,660,0.32519499999762047,1
0.0,661,0.0,1
0.020459999999729916,662,0.1555789999983972,1
0.0,663,0.0,1
0.03268499999830965,664,0.26379399999859743,1
0.0,665,0.0,1
0.028650000000197906,666,0.2315669999952661,1
0.0,667,0.0,1
0.02749500000209082,668,0.21991000000707572,1
0.0,669,0.0,1
0.041279999997641426,670,0.30944799999997485,1
0.0,671,0.0,1
0.020400000001245644,672,0.13720699999976205,1
0.0,673,0.0,1
0.03434999999808497,674,0.2295529999973951,1
0.0,675,0.0,1
0.03154500000164262,676,0.22009300000354415,1
0.0,677,0.0,1
0.03262499999982538,678,0.23327699999208562,1
0.0,679,0.0,1
0.044594999999389984,680,0.3176880000100937,1
0.0,681,0.0,1
0.016920000001846347,682,0.16570999999385094,1
0.0,683,0.0,1
0.026789999999891734,684,0.27514600000722567,1
0.0,685,0.0,1
0.023474999998143176,686,0.2594609999941895,1
0.0,687,0.0,1
0.02472000000125263,688,0.2515260000000126,1
0.0,689,0.0,1
0.03720000000248547,690,0.31811500000185333,1
0.0,691,0.0,1
0.018059999998513376,692,0.20562699999572942,1
0.0,693,0.0,1
0.02855999999883352,694,0.24255400000402005,1
0.0,695,0.0,1
0.026460000000952277,696,0.2968140000011772,1
0.0,697,0.0,1
0.01877999999851454,698,0.26629700000194134,1
0.0,699,0.0,1
0.036090000001422595,700,0.34918199999810895,1
0.0,701,0.0,1
0.018209999998362036,702,0.16149900000164052,1
0.0,703,0.0,1
0.026310000001103617,704,0.2791739999956917,1
0.0,705,0.0,1
0.03253499999846099,706,0.22790600000007544,1
0.0,707,0.0,1
0.025799999999435386,708,0.24884000000020023,1
0.0,709,0.0,1
0.0363450000040757,710,0.3184820000024047,1
0.0,711,0.0,1
0.018824999999196734,712,0.17474299999594223,1
0.0,713,0.0,1
0.028050000000803266,714,0.26916499999788357,1
0.0,715,0.0,1
0.023489999999583233,716,0.2435920000061742,1
0.0,717,0.0,1
0.026910000000498258,718,0.22473100000206614,1
0.0,719,0.0,1
0.02990999999747146,720,0.24572799999441486,1
0.0,721,0.0,1
0.017700000000331784,722,0.16308500000013737,1
0.0,723,0.0,1
0.03199499999755062,724,0.2700810000023921,1
0.0,725,0.0,1
0.020610000003216555,726,0.189818999999261,1
0.0,727,0.0,1
0.026640000000043074,728,0.23254399999859743,1
0.0,729,0.0,1
0.026579999997920822,730,0.23107900000468362,1
0.0,731,0.0,1
0.014760000001842855,732,0.15466300000116462,1
0.0,733,0.0,1
0.02653499999723863,734,0.235473999993701,1
0.0,735,0.0,1
0.020760000003065215,736,0.18084700000326848,1
0.0,737,0.0,1
0.025410000002011657,738,0.23290999999881024,1
0.0,739,0.0,1
0.0265949999957229,740,0.23028599999815924,1
0.0,741,0.0,1
0.02058000000397442,742,0.1804809999957797,1
0.0,743,0.0,1
0.024059999999735737,744,0.18530300000566058,1
0.0,745,0.0,1
0.02358000000094762,746,0.21350099999835948,1
0.0,747,0.0,1
0.02050499999677413,748,0.22937000000092667,1
0.0,749,0.0,1
0.02943000000232132,750,0.2905269999973825,1
0.0,751,0.0,1
0.017684999998891726,752,0.1749270000073011,1
0.0,753,0.0,1
0.02350500000102329,754,0.23590099999273662,1
0.0,755,0.0,1
0.024689999998372514,756,0.23095699999976205,1
0.0,757,0.0,1
0.023639999999431893,758,0.236388999997871,1
0.0,759,0.0,1
0.03058500000042841,760,0.2918700000082026,1
0.0,761,0.0,1
0.014760000001842855,762,0.1465459999963059,1
0.0,763,0.0,1
0.026489999996556435,764,0.26593000000139,1
0.0,765,0.0,1
0.028050000000803266,766,0.23730399999476504,1
0.0,767,0.0,1
0.023595000002387678,768,0.2368170000045211,1
0.0,769,0.0,1
0.03280499999891617,770,0.29437200000393204,1
0.0,771,0.0,1
0.018195000000559958,772,0.14819400000124006,1
0.0,773,0.0,1
0.029940000000351574,774,0.26391599999624304,1
0.0,775,0.0,1
0.027329999997164123,776,0.20147699999506585,1
0.0,777,0.0,1
0.02885999999853084,778,0.2637330000070506,1
0.0,779,0.0,1
0.02817000000504777,780,0.2944329999954789,1
0.0,781,0.0,1
0.017549999996845145,782,0.17700199999671895,1
0.0,783,0.0,1
0.025140000001556473,784,0.20727600000827806,1
0.0,785,0.0,1
0.026460000000952277,786,0.2621459999936633,1
0.0,787,0.0,1
0.02051999999821419,788,0.21099800000229152,1
0.0,789,0.0,1
0.044280000001890585,790,0.3585820000007516,1
0.0,791,0.0,1
0.020160000000032596,792,0.15087900000071386,1
0.0,793,0.0,1
0.024959999998827698,794,0.23181099999783328,1
0.0,795,0.0,1
0.026490000000194414,796,0.26531999999861,1
0.0,797,0.0,1
0.025109999998676358,798,0.20605500000237953,1
0.0,799,0.0,1
0.03814500000225962,800,0.31829799999832176,1
0.0,801,0.0,1
0.024300000000948785,802,0.17981000000145286,1
0.0,803,0.0,1
0.02855999999883352,804,0.2142939999976079,1
0.0,805,0.0,1
0.023399999998218846,806,0.234375,1
0.0,807,0.0,1
0.03299999999944703,808,0.2584229999993113,1
0.0,809,0.0,1
0.03660000000309083,810,0.2489620000051218,1
0.0,811,0.0,1
0.02441999999791733,812,0.17279099999723257,1
0.0,813,0.0,1
0.03225000000020373,814,0.21936000000278,1
0.0,815,0.0,1
0.02290500000162865,816,0.20812999999907333,1
0.0,817,0.0,1
0.024614999998448184,818,0.20910699999512872,1
0.0,819,0.0,1
0.0446250000022701,820,0.2752069999987725,1
0.0,821,0.0,1
0.0,0,0.0,2
0.0,1,0.0,2
0.22204499999861582,2,1.8125,2
0.0,3,0.0,2
0.006240000000616419,4,0.03430200001457706,2
0.0,5,0.0,2
0.004080000000612927,6,0.03295899998920504,2
0.0,7,0.0,2
0.004079999998793937,8,0.03576700000849087,2
0.0,9,0.0,2
0.02862000000095577,10,0.25091499999689404,2
0.0,11,0.0,2
0.004079999998793937,12,0.036438000010093674,2
0.0,13,0.0,2
0.0,14,0.0,2
0.0,15,0.0,2
0.004080000002431916,16,0.03582799999276176,2
0.0,17,0.0,2
0.004019999998490675,18,0.042480000003706664,2
0.0,19,0.0,2
0.02853000000141037,20,0.2561649999988731,2
0.0,21,0.0,2
0.008159999999406864,22,0.07183800000348128,2
0.0,23,0.0,2
0.03266999999868858,24,0.28161599999293685,2
0.0,25,0.0,2
0.02868000000125903,26,0.2288820000103442,2
0.0,27,0.0,2
0.037004999998316634,28,0.27026399999158457,2
0.0,29,0.0,2
0.05737500000032014,30,0.3737180000025546,2
0.0,31,0.0,2
0.008219999999710126,32,0.054137999992235564,2
0.0,33,0.0,2
0.032715000001189765,34,0.2627570000040578,2
0.0,35,0.0,2
0.02884499999890977,36,0.19384700000227895,2
0.0,37,0.0,2
0.03694499999983236,38,0.22644100000616163,2
0.0,39,0.0,2
0.07581000000209315,40,0.49963399999251124,2
0.0,41,0.0,2
0.00518999999803782,42,0.03399599999829661,2
0.0,43,0.0,2
0.024615000000267173,44,0.17987100000027567,2
0.0,45,0.0,2
0.03280500000073516,46,0.2302239999989979,2
0.0,47,0.0,2
0.032790000001114095,48,0.2282720000075642,2
0.0,49,0.0,2
0.049394999998185085,50,0.3471069999941392,2
0.0,51,0.0,2
0.01638000000093598,52,0.11370800000440795,2
0.0,53,0.0,2
0.27607499999976426,54,1.8583379999909084,2
0.0,55,0.0,2
0.012434999998731655,56,0.07232600000861567,2
0.0,57,0.0,2
0.0,58,0.0,2
0.0,59,0.0,2
0.022500000000945874,60,0.1691900000005262,2
0.0,61,0.0,2
0.006090000000767759,62,0.05053699998825323,2
0.0,63,0.0,2
0.0,64,0.0,2
0.0,65,0.0,2
0.006105000000388827,66,0.04882799999904819,2
0.0,67,0.0,2
0.03914999999869906,68,0.2871090000116965,2
0.0,69,0.0,2
0.04500000000007276,70,0.3206789999967441,2
0.0,71,0.0,2
0.02052000000003318,72,0.12719699999433942,2
0.0,73,0.0,2
0.02884499999890977,74,0.21508799999719486,2
0.0,75,0.0,2
0.03705000000081782,76,0.23382600001059473,2
0.0,77,0.0,2
0.028785000000425498,78,0.19653299999481533,2
0.0,79,0.0,2
0.04512000000067928,80,0.3167119999998249,2
0.0,81,0.0,2
0.020609999999578577,82,0.14819300000090152,2
0.0,83,0.0,2
0.0286950000008801,84,0.2377930000075139,2
0.0,85,0.0,2
0.03282000000035623,86,0.26666199999453966,2
0.0,87,0.0,2
0.02869499999724212,88,0.24700999999186024,2
0.0,89,0.0,2
0.06270000000040454,90,0.4428710000065621,2
0.0,91,0.0,2
0.008160000001225853,92,0.06237800000235438,2
0.0,93,0.0,2
0.035954999999376014,94,0.2539059999980964,2
0.0,95,0.0,2
0.02974499999982072,96,0.25177000000257976,2
0.0,97,0.0,2
0.032639999999446445,98,0.2610469999926863,2
0.0,99,0.0,2
0.058785000001080334,100,0.4491580000030808,2
0.0,101,0.0,2
0.017775000000256114,102,0.11804200000187848,2
0.0,103,0.0,2
0.04896000000007916,104,0.3724979999969946,2
0.0,105,0.0,2
0.045704999998633866,106,0.33569300001545344,2
0.0,107,0.0,2
0.037365000000136206,108,0.27673299999150913,2
0.0,109,0.0,2
0.04513500000030035,110,0.42504899999767076,2
0.0,111,0.0,2
0.024840000000040163,112,0.2167970000009518,2
0.0,113,0.0,2
0.044504999999844586,114,0.38092100000358187,2
0.0,115,0.0,2
0.03492000000005646,116,0.3580929999880027,2
0.0,117,0.0,2
0.03484500000013213,118,0.3668820000166306,2
0.0,119,0.0,2
0.04910999999992782,120,0.5140989999781596,2
0.0,121,0.0,2
0.021510000000489526,122,0.22601300000678748,2
0.0,123,0.0,2
0.03941999999915424,124,0.35217300000658724,2
0.0,125,0.0,2
0.03583500000058848,126,0.3049929999979213,2
0.0,127,0.0,2
0.031890000000203145,128,0.25183100000140257,2
0.0,129,0.0,2
0.055319999999483116,130,0.49005100000067614,2
0.0,131,0.0,2
0.01644000000123924,132,0.15057399999932386,2
0.0,133,0.0,2
0.03282000000035623,134,0.3035889999882784,2
0.0,135,0.0,2
0.028739999997924315,136,0.262817000009818,2
0.0,137,0.0,2
0.03276000000187196,138,0.3049929999979213,2
0.0,139,0.0,2
0.04900499999894237,140,0.42755100000067614,2
0.0,141,0.0,2
0.016320000000632717,142,0.13897699999506585,2
0.0,143,0.0,2
0.03281999999853724,144,0.2864990000089165,2
0.0,145,0.0,2
0.03705000000081782,146,0.31561299999884795,2
0.0,147,0.0,2
0.0329249999995227,148,0.2819210000016028,2
0.0,149,0.0,2
0.045330000000831205,150,0.3850709999969695,2
0.0,151,0.0,2
0.01643999999942025,152,0.14294499999959953,2
0.0,153,0.0,2
0.032865000001038425,154,0.28295900000375696,2
0.0,155,0.0,2
0.03299999999944703,156,0.2772819999954663,2
0.0,157,0.0,2
0.03701999999975669,158,0.29785200000333134,2
0.0,159,0.0,2
0.04121999999915715,160,0.31903099999180995,2
0.0,161,0.0,2
0.020550000001094304,162,0.16143800001009367,2
0.0,163,0.0,2
0.028635000000576838,164,0.2684319999971194,2
0.0,165,0.0,2
0.03299999999944703,166,0.2542119999998249,2
0.0,167,0.0,2
0.03269999999974971,168,0.2751459999999497,2
0.0,169,0.0,2
0.05113499999970372,170,0.4382940000068629,2
0.0,171,0.0,2
0.017370000001392327,172,0.14434800000162795,2
0.0,173,0.0,2
0.034889999998995336,174,0.29656999999133404,2
0.0,175,0.0,2
0.03297000000020489,176,0.26251200000115205,2
0.0,177,0.0,2
0.03273000000081083,178,0.26385499999742024,2
0.0,179,0.0,2
0.045179999999163556,180,0.37530499999411404,2
0.0,181,0.0,2
0.020459999999729916,182,0.1922610000037821,2
0.0,183,0.0,2
0.03801000000021304,184,0.3313600000110455,2
0.0,185,0.0,2
0.04126499999983935,186,0.34283399999549147,2
0.0,187,0.0,2
0.04018500000165659,188,0.32977299999038223,2
0.0,189,0.0,2
0.0786149999985355,190,0.6245730000082403,2
0.0,191,0.0,2
0.014400000000023283,192,0.1270749999966938,2
0.0,193,0.0,2
0.04981500000030792,194,0.35559100001410116,2
0.0,195,0.0,2
0.047880000000077416,196,0.3745109999872511,2
0.0,197,0.0,2
0.04125000000021828,198,0.3412479999969946,2
0.0,199,0.0,2
0.04805999999916821,200,0.41668700000445824,2
0.0,201,0.0,2
0.016320000000632717,202,0.13421600000583567,2
0.0,203,0.0,2
0.033674999998766,204,0.2711799999960931,2
0.0,205,0.0,2
0.04002000000036787,206,0.28094399999827147,2
0.0,207,0.0,2
0.03282000000035623,208,0.23321600000781473,2
0.0,209,0.0,2
0.0408900000002177,210,0.2946769999980461,2
0.0,211,0.0,2
0.020490000000791042,212,0.14178499999979977,2
0.0,213,0.0,2
0.032714999999370775,214,0.24572799999441486,2
0.0,215,0.0,2
0.0368849999995291,216,0.26684500000556,2
0.0,217,0.0,2
0.03269999999974971,218,0.24554499999794643,2
0.0,219,0.0,2
0.04494000000158849,220,0.35925299998780247,2
0.0,221,0.0,2
0.020339999999123393,222,0.1615600000077393,2
0.0,223,0.0,2
0.032864999999219435,224,0.23474099999293685,2
0.0,225,0.0,2
0.03182999999989988,226,0.2797240000072634,2
0.0,227,0.0,2
0.02862000000095577,228,0.27203399999416433,2
0.0,229,0.0,2
0.055094999999710126,230,0.48413100000470877,2
0.0,231,0.0,2
0.012179999999716529,232,0.10534599999664351,2
0.0,233,0.0,2
0.03765000000021246,234,0.35833800000546034,2
0.0,235,0.0,2
0.02855999999883352,236,0.26202399999601766,2
0.0,237,0.0,2
0.03282000000035623,238,0.27960199999506585,2
0.0,239,0.0,2
0.05425500000092143,240,0.4215080000140006,2
0.0,241,0.0,2
0.015569999999570427,242,0.09948799999256153,2
0.0,243,0.0,2
0.03709500000150001,244,0.30310000000463333,2
0.0,245,0.0,2
0.0328799999988405,246,0.2521370000031311,2
0.0,247,0.0,2
0.03709499999968102,248,0.26855399999476504,2
0.0,249,0.0,2
0.049020000000382424,250,0.388000999999349,2
0.0,251,0.0,2
0.01224000000001979,252,0.11022899999807123,2
0.0,253,0.0,2
0.03269999999974971,254,0.2708740000089165,2
0.0,255,0.0,2
0.03282000000035623,256,0.2601319999957923,2
0.0,257,0.0,2
0.02863499999875785,258,0.2229009999864502,2
0.0,259,0.0,2
0.05310000000099535,260,0.45458900000085123,2
0.0,261,0.0,2
0.017549999998664134,262,0.13293500000145286,2
0.0,263,0.0,2
0.03598500000225613,264,0.27612300000328105,2
0.0,265,0.0,2
0.03492000000005646,266,0.279846000004909,2
0.0,267,0.0,2
0.0348599999997532,268,0.28381399999489076,2
0.0,269,0.0,2
0.0470099999984086,270,0.3646850000077393,2
0.0,271,0.0,2
0.020460000001548906,272,0.16479499998968095,2
0.0,273,0.0,2
0.03170999999929336,274,0.26190100000530947,2
0.0,275,0.0,2
0.037739999999757856,276,0.31219500000588596,2
0.0,277,0.0,2
0.029730000000199652,278,0.22979800000030082,2
0.0,279,0.0,2
0.05229000000144879,280,0.36663799999223556,2
0.0,281,0.0,2
0.016499999999723514,282,0.11175500000535976,2
0.0,283,0.0,2
0.03788999999778753,284,0.27893100000801496,2
0.0,285,0.0,2
0.03276000000187196,286,0.26867699998547323,2
0.0,287,0.0,2
0.030899999999746797,288,0.23681600000418257,2
0.0,289,0.0,2
0.052319999998871936,290,0.4346310000109952,2
0.0,291,0.0,2
0.020460000001548906,292,0.18914799999038223,2
0.0,293,0.0,2
0.028650000000197906,294,0.2595829999918351,2
0.0,295,0.0,2
0.03289500000028056,296,0.24694800001452677,2
0.0,297,0.0,2
0.0370199999979377,298,0.2656859999988228,2
0.0,299,0.0,2
0.04914000000098895,300,0.3873289999901317,2
0.0,301,0.0,2
0.012300000000323053,302,0.08056699999724515,2
0.0,303,0.0,2
0.03392999999960011,304,0.22027600000728853,2
0.0,305,0.0,2
0.037004999998316634,306,0.2797849999915343,2
0.0,307,0.0,2
0.028725000000122236,308,0.22570800001267344,2
0.0,309,0.0,2
0.04504500000075495,310,0.35900799999944866,2
0.0,311,0.0,2
0.020610000001397566,312,0.16229300000122748,2
0.0,313,0.0,2
0.032789999999295105,314,0.2606809999997495,2
0.0,315,0.0,2
0.034979999998540734,316,0.25915499999246094,2
0.0,317,0.0,2
0.03700500000195461,318,0.28485100000398234,2
0.0,319,0.0,2
0.04913999999916996,320,0.44049100000120234,2
0.0,321,0.0,2
0.01644000000123924,322,0.14215099999273662,2
0.0,323,0.0,2
0.032939999999143765,324,0.28216600000450853,2
0.0,325,0.0,2
0.029790000000502914,326,0.30480899999383837,2
0.0,327,0.0,2
0.037079999998240964,328,0.32446299999719486,2
0.0,329,0.0,2
0.04617000000143889,330,0.4557500000082655,2
0.0,331,0.0,2
0.01855499999874155,332,0.14684999999008141,2
0.0,333,0.0,2
0.03269999999974971,334,0.2915040000079898,2
0.0,335,0.0,2
0.03259500000058324,336,0.3273929999995744,2
0.0,337,0.0,2
0.03269999999974971,338,0.3050530000036815,2
0.0,339,0.0,2
0.04716000000007625,340,0.4217530000023544,2
0.0,341,0.0,2
0.016395000000557047,342,0.158263999997871,2
0.0,343,0.0,2
0.036840000000665896,344,0.3220220000075642,2
0.0,345,0.0,2
0.037080000000059954,346,0.2778319999924861,2
0.0,347,0.0,2
0.030720000000656,348,0.26049800000328105,2
0.0,349,0.0,2
0.06424499999957334,350,0.42578099998354446,2
0.0,351,0.0,2
0.021749999999883585,352,0.1405030000169063,2
0.0,353,0.0,2
0.03671999999824038,354,0.31066899999859743,2
0.0,355,0.0,2
0.028800000000046566,356,0.24090600000636186,2
0.0,357,0.0,2
0.03276000000187196,358,0.2805169999919599,2
0.0,359,0.0,2
0.055394999999407446,360,0.43518100000801496,2
0.0,361,0.0,2
0.018434999999954016,362,0.13989299998502247,2
0.0,363,0.0,2
0.034815000000889995,364,0.26922600000398234,2
0.0,365,0.0,2
0.04303499999878113,366,0.31292699999175966,2
0.0,367,0.0,2
0.030479999999442953,368,0.26129200001014397,2
0.0,369,0.0,2
0.050370000000839354,370,0.42016599999624304,2
0.0,371,0.0,2
0.022574999999051215,372,0.17620800000440795,2
0.0,373,0.0,2
0.0327450000004319,374,0.27893099999346305,2
0.0,375,0.0,2
0.04201499999908265,376,0.34558100000140257,2
0.0,377,0.0,2
0.040455000002111774,378,0.2730710000032559,2
0.0,379,0.0,2
0.05666999999812106,380,0.42620899999747053,2
0.0,381,0.0,2
0.03312000000005355,382,0.19573900000250433,2
0.0,383,0.0,2
0.04975500000000466,384,0.2949829999997746,2
0.0,385,0.0,2
0.045570000000225264,386,0.2899780000007013,2
0.0,387,0.0,2
0.04215000000112923,388,0.3212889999995241,2
0.0,389,0.0,2
0.06621000000086497,390,0.4421390000061365,2
0.0,391,0.0,2
0.029879999998229323,392,0.2037960000016028,2
0.0,393,0.0,2
0.039029999999911524,394,0.30767899999045767,2
0.0,395,0.0,2
0.04565999999977066,396,0.2757560000027297,2
0.0,397,0.0,2
0.036840000000665896,398,0.23419200000353158,2
0.0,399,0.0,2
0.05997000000024855,400,0.35284500000125263,2
0.0,401,0.0,2
0.01637999999911699,402,0.1291499999933876,2
0.0,403,0.0,2
0.03885000000082073,404,0.2935180000058608,2
0.0,405,0.0,2
0.03904499999953259,406,0.2894899999955669,2
0.0,407,0.0,2
0.028710000000501168,408,0.22643999999854714,2
0.0,409,0.0,2
0.059760000000096625,410,0.4285280000040075,2
0.0,411,0.0,2
0.022559999999430147,412,0.17828399999416433,2
0.0,413,0.0,2
0.029700000000957516,414,0.2343140000011772,2
0.0,415,0.0,2
0.037080000000059954,416,0.2886960000032559,2
0.0,417,0.0,2
0.02861999999913678,418,0.23150599999644328,2
0.0,419,0.0,2
0.049380000000383006,420,0.39782700000796467,2
0.0,421,0.0,2
0.020459999999729916,422,0.1768189999856986,2
0.0,423,0.0,2
0.03273000000081083,424,0.28289800000493415,2
0.0,425,0.0,2
0.02885999999853084,426,0.230957000007038,2
0.0,427,0.0,2
0.03709500000150001,428,0.28637699999671895,2
0.0,429,0.0,2
0.04118999999991502,430,0.31304999999701977,2
0.0,431,0.0,2
0.0247799999997369,432,0.177916999993613,2
0.0,433,0.0,2
0.028800000000046566,434,0.2179570000153035,2
0.0,435,0.0,2
0.02885999999853084,436,0.24639899999601766,2
0.0,437,0.0,2
0.037140000002182205,438,0.2711790000030305,2
0.0,439,0.0,2
0.041279999997641426,440,0.2984619999915594,2
0.0,441,0.0,2
0.020520000001852168,442,0.16192600000067614,2
0.0,443,0.0,2
0.036780000000362634,444,0.31079099999624304,2
0.0,445,0.0,2
0.028589999999894644,446,0.23175000000628643,2
0.0,447,0.0,2
0.036029999999300344,448,0.27404799999203533,2
0.0,449,0.0,2
0.055395000001226435,450,0.46002200001385063,2
0.0,451,0.0,2
0.025829999998677522,452,0.1983029999973951,2
0.0,453,0.0,2
0.03289500000028056,454,0.26379399999859743,2
0.0,455,0.0,2
0.03900000000066939,456,0.307862000001478,2
0.0,457,0.0,2
0.028604999999515712,458,0.2323000000033062,2
0.0,459,0.0,2
0.04482000000098196,460,0.36236499999358784,2
0.0,461,0.0,2
0.02051999999821419,462,0.15930200000002515,2
0.0,463,0.0,2
0.03276000000005297,464,0.2709960000065621,2
0.0,465,0.0,2
0.03269999999974971,466,0.2935179999913089,2
0.0,467,0.0,2
0.032639999999446445,468,0.2997440000035567,2
0.0,469,0.0,2
0.05662500000107684,470,0.409667999992962,2
0.0,471,0.0,2
0.01224000000001979,472,0.10186700000485871,2
0.0,473,0.0,2
0.03297000000020489,474,0.2567750000016531,2
0.0,475,0.0,2
0.03268500000012864,476,0.26464899998973124,2
0.0,477,0.0,2
0.03261000000020431,478,0.2838130000018282,2
0.0,479,0.0,2
0.053444999999555876,480,0.46240300001227297,2
0.0,481,0.0,2
0.012360000000626314,482,0.09863199999381322,2
0.0,483,0.0,2
0.032939999999143765,484,0.28228800000215415,2
0.0,485,0.0,2
0.02861999999913678,486,0.24365199999010656,2
0.0,487,0.0,2
0.032775000001493027,488,0.30047600000398234,2
0.0,489,0.0,2
0.04910999999992782,490,0.41192700000829063,2
0.0,491,0.0,2
0.01637999999911699,492,0.13500899999053217,2
0.0,493,0.0,2
0.03592500000013388,494,0.2941900000150781,2
0.0,495,0.0,2
0.028560000000652508,496,0.2431639999995241,2
0.0,497,0.0,2
0.03994500000044354,498,0.31890899999416433,2
0.0,499,0.0,2
0.05929499999911059,500,0.4859619999915594,2
0.0,501,0.0,2
0.01224000000001979,502,0.1215210000082152,2
0.0,503,0.0,2
0.18830999999954656,504,1.149413999999524,2
0.0,505,0.0,2
0.005130000001372537,506,0.036559999993187375,2
0.0,507,0.0,2
0.006240000000616419,508,0.03857400000561029,2
0.0,509,0.0,2
0.043379999999160646,510,0.284667999992962,2
0.0,511,0.0,2
0.037154999999984284,512,0.2587889999995241,2
0.0,513,0.0,2
0.04261500000029628,514,0.2995610000070883,2
0.0,515,0.0,2
0.03590999999869382,516,0.3245840000017779,2
0.0,517,0.0,2
0.039915000001201406,518,0.35723899998993147,2
0.0,519,0.0,2
0.04949999999917054,520,0.3933110000070883,2
0.0,521,0.0,2
0.1097250000002532,522,0.7961419999919599,2
0.0,523,0.0,2
0.00608999999894877,524,0.04797400000097696,2
0.0,525,0.0,2
0.019500000000334694,526,0.11584500000753906,2
0.0,527,0.0,2
0.04963500000121712,528,0.2867429999896558,2
0.0,529,0.0,2
0.06404999999904248,530,0.4585570000053849,2
0.0,531,0.0,2
0.030914999999367865,532,0.21002200001385063,2
0.0,533,0.0,2
0.04441500000211818,534,0.32708699999784585,2
0.0,535,0.0,2
0.052859999997963314,536,0.3667609999974957,2
0.0,537,0.0,2
0.036090000001422595,538,0.2533569999941392,2
0.0,539,0.0,2
0.0681750000003376,540,0.4815669999952661,2
0.0,541,0.0,2
0.021674999999959255,542,0.1541140000190353,2
0.0,543,0.0,2
0.04012499999953434,544,0.28778099999180995,2
0.0,545,0.0,2
0.04118999999809603,546,0.2669669999886537,2
0.0,547,0.0,2
0.03798000000278989,548,0.2684330000047339,2
0.0,549,0.0,2
0.058784999999261345,550,0.420471000004909,2
0.0,551,0.0,2
0.0247799999997369,552,0.1630250000016531,2
0.0,553,0.0,2
0.05155499999818858,554,0.3363649999955669,2
0.0,555,0.0,2
0.040140000000974396,556,0.2993770000030054,2
0.0,557,0.0,2
0.03276000000005297,558,0.2528690000035567,2
0.0,559,0.0,2
0.0595499999999447,560,0.45281999999133404,2
0.0,561,0.0,2
0.023715000001175213,562,0.1651609999971697,2
0.0,563,0.0,2
0.047220000000379514,564,0.3470460000098683,2
0.0,565,0.0,2
0.03470999999808555,566,0.28430099999241065,2
0.0,567,0.0,2
0.035879999999451684,568,0.28503500000806525,2
0.0,569,0.0,2
0.05122500000106811,570,0.4406120000057854,2
0.0,571,0.0,2
0.01644000000123924,572,0.1285399999906076,2
0.0,573,0.0,2
0.024359999999433057,574,0.24981700000353158,2
0.0,575,0.0,2
0.03695999999945343,576,0.25921699999889825,2
0.0,577,0.0,2
0.047280000000682776,578,0.3449089999921853,2
0.0,579,0.0,2
0.05060999999841442,580,0.377013999997871,2
0.0,581,0.0,2
0.03528000000187603,582,0.2370610000070883,2
0.0,583,0.0,2
0.037904999999227584,584,0.3056639999995241,2
0.0,585,0.0,2
0.03769500000089465,586,0.32568399999581743,2
0.0,587,0.0,2
0.03380999999899359,588,0.2723390000028303,2
0.0,589,0.0,2
0.03697500000089349,590,0.2723379999952158,2
0.0,591,0.0,2
0.029804999998304993,592,0.22589200001675636,2
0.0,593,0.0,2
0.028635000002395827,594,0.2316279999940889,2
0.0,595,0.0,2
0.032939999999143765,596,0.27410900000541005,2
0.0,597,0.0,2
0.034979999998540734,598,0.2616579999885289,2
0.0,599,0.0,2
0.0494250000010652,600,0.3592519999947399,2
0.0,601,0.0,2
0.02163000000109605,602,0.1651620000047842,2
0.0,603,0.0,2
0.0382499999996071,604,0.2431639999995241,2
0.0,605,0.0,2
0.03307499999937136,606,0.23797600000398234,2
0.0,607,0.0,2
0.03311999999823456,608,0.23455799999646842,2
0.0,609,0.0,2
0.03702000000157568,610,0.2614739999989979,2
0.0,611,0.0,2
0.02892000000065309,612,0.18328899999323767,2
0.0,613,0.0,2
0.03283499999815831,614,0.20562700000300538,2
0.0,615,0.0,2
0.03480000000126893,616,0.20361399999819696,2
0.0,617,0.0,2
0.0327450000004319,618,0.201111000002129,2
0.0,619,0.0,2
0.03701999999975669,620,0.23815900000045076,2
0.0,621,0.0,2
0.028739999999743304,622,0.18353200001001824,2
0.0,623,0.0,2
0.03295500000058382,624,0.20233199998619966,2
0.0,625,0.0,2
0.028604999999515712,626,0.18591300000844058,2
0.0,627,0.0,2
0.038129999999000574,628,0.22729500000423286,2
0.0,629,0.0,2
0.04294500000105472,630,0.3268429999880027,2
0.0,631,0.0,2
0.024509999999281717,632,0.1828010000026552,2
0.0,633,0.0,2
0.03364499999952386,634,0.24078300000110175,2
0.0,635,0.0,2
0.026729999999588472,636,0.22582999999576714,2
0.0,637,0.0,2
0.04236000000128115,638,0.277222000004258,2
0.0,639,0.0,2
0.041730000000825385,640,0.3041990000056103,2
0.0,641,0.0,2
0.02254499999980908,642,0.16735899999912363,2
0.0,643,0.0,2
0.037829999999303254,644,0.2755730000062613,2
0.0,645,0.0,2
0.030720000000656,646,0.205932999990182,2
0.0,647,0.0,2
0.038880000000062864,648,0.32446299999719486,2
0.0,649,0.0,2
0.04085999999915657,650,0.36834700001054443,2
0.0,651,0.0,2
0.018599999999423744,652,0.17352299999038223,2
0.0,653,0.0,2
0.03247499999997672,654,0.26446500000020023,2
0.0,655,0.0,2
0.03700500000195461,656,0.30462700000498444,2
0.0,657,0.0,2
0.03065999999853375,658,0.25775099999736995,2
0.0,659,0.0,2
0.04845000000022992,660,0.3343509999976959,2
0.0,661,0.0,2
0.024540000000342843,662,0.18920900000375696,2
0.0,663,0.0,2
0.03370499999982712,664,0.2567140000028303,2
0.0,665,0.0,2
0.03276000000005297,666,0.3028559999947902,2
0.0,667,0.0,2
0.02869499999906111,668,0.3023680000042077,2
0.0,669,0.0,2
0.04621500000212109,670,0.39788899999985006,2
0.0,671,0.0,2
0.02036999999836553,672,0.1792600000044331,2
0.0,673,0.0,2
0.04118999999991502,674,0.3028559999947902,2
0.0,675,0.0,2
0.03269999999974971,676,0.3059079999948153,2
0.0,677,0.0,2
0.028725000000122236,678,0.2634280000056606,2
0.0,679,0.0,2
0.056534999999712454,680,0.47387700001127087,2
0.0,681,0.0,2
0.020460000001548906,682,0.16534399999363814,2
0.0,683,0.0,2
0.03277499999967404,684,0.2604369999899063,2
0.0,685,0.0,2
0.03268500000012864,686,0.24554500001249835,2
0.0,687,0.0,2
0.0328799999988405,688,0.23858599999221042,2
0.0,689,0.0,2
0.0441900000005262,690,0.3051150000101188,2
0.0,691,0.0,2
0.025649999999586726,692,0.17828399999416433,2
0.0,693,0.0,2
0.028560000000652508,694,0.24035599999479018,2
0.0,695,0.0,2
0.03701999999975669,696,0.29260299999441486,2
0.0,697,0.0,2
0.0328349999999773,698,0.23577800000202842,2
0.0,699,0.0,2
0.043005000001357985,700,0.3280640000157291,2
0.0,701,0.0,2
0.020399999999426655,702,0.16802999998617452,2
0.0,703,0.0,2
0.036989999998695566,704,0.28344700000889134,2
0.0,705,0.0,2
0.030780000000959262,706,0.232361000002129,2
0.0,707,0.0,2
0.03709499999968102,708,0.2666019999887794,2
0.0,709,0.0,2
0.041055000001506414,710,0.31634499999927357,2
0.0,711,0.0,2
0.024749999998675776,712,0.17981000000145286,2
0.0,713,0.0,2
0.028739999999743304,714,0.21447700000135228,2
0.0,715,0.0,2
0.037080000000059954,716,0.26538100000470877,2
0.0,717,0.0,2
0.035190000000511645,718,0.22918700000445824,2
0.0,719,0.0,2
0.03719999999884749,720,0.28173799999058247,2
0.0,721,0.0,2
0.02472000000125263,722,0.1800539999967441,2
0.0,723,0.0,2
0.040154999998776475,724,0.25897200001054443,2
0.0,725,0.0,2
0.028890000001410954,726,0.201111000002129,2
0.0,727,0.0,2
0.037139999998544226,728,0.22882099998241756,2
0.0,729,0.0,2
0.03720000000066648,730,0.29101500000979286,2
0.0,731,0.0,2
0.024675000000570435,732,0.19653400000242982,2
0.0,733,0.0,2
0.03304500000012922,734,0.23724299999594223,2
0.0,735,0.0,2
0.0330599999979313,736,0.2289429999946151,2
0.0,737,0.0,2
0.03312000000187254,738,0.2324220000009518,2
0.0,739,0.0,2
0.04131000000052154,740,0.2853390000091167,2
0.0,741,0.0,2
0.028739999997924315,742,0.20806900000025053,2
0.0,743,0.0,2
0.02868000000125903,744,0.20629899999767076,2
0.0,745,0.0,2
0.03303000000050815,746,0.2263799999927869,2
0.0,747,0.0,2
0.0328799999988405,748,0.22186200000578538,2
0.0,749,0.0,2
0.041280000001279404,750,0.28497300000162795,2
0.0,751,0.0,2
0.024734999999054708,752,0.1705939999956172,2
0.0,753,0.0,2
0.03282000000035623,754,0.23468000000866596,2
0.0,755,0.0,2
0.028829999999288702,756,0.2330319999891799,2
0.0,757,0.0,2
0.03306000000156928,758,0.2318119999981718,2
0.0,759,0.0,2
0.041279999999460415,760,0.30249000000185333,2
0.0,761,0.0,2
0.020640000000639702,762,0.14819300000090152,2
0.0,763,0.0,2
0.037080000000059954,764,0.2620850000093924,2
0.0,765,0.0,2
0.03200999999899068,766,0.20080599999346305,2
0.0,767,0.0,2
0.03299999999944703,768,0.26678499999979977,2
0.0,769,0.0,2
0.037005000000135624,770,0.26184000000648666,2
0.0,771,0.0,2
0.02471999999943364,772,0.1794439999939641,2
0.0,773,0.0,2
0.037080000000059954,774,0.2627559999964433,2
0.0,775,0.0,2
0.03521999999975378,776,0.2051999999966938,2
0.0,777,0.0,2
0.03709500000150001,778,0.26165800001763273,2
0.0,779,0.0,2
0.04118999999991502,780,0.29675299998780247,2
0.0,781,0.0,2
0.024600000000646105,782,0.18048100000305567,2
0.0,783,0.0,2
0.024659999999130378,784,0.20635999999649357,2
0.0,785,0.0,2
0.03720000000066648,786,0.2630000000062864,2
0.0,787,0.0,2
0.02878499999860651,788,0.2004400000005262,2
0.0,789,0.0,2
0.048194999999395804,790,0.3544309999997495,2
0.0,791,0.0,2
0.026865000001635053,792,0.15161099999386352,2
0.0,793,0.0,2
0.02862000000095577,794,0.20459000000846572,2
0.0,795,0.0,2
0.03709499999786203,796,0.2651979999936884,2
0.0,797,0.0,2
0.029610000001412118,798,0.20800800000142772,2
0.0,799,0.0,2
0.041054999999687425,800,0.3283079999964684,2
0.0,801,0.0,2
0.02659499999936088,802,0.1752320000086911,2
0.0,803,0.0,2
0.02967000000171538,804,0.20739700000558514,2
0.0,805,0.0,2
0.03275999999823398,806,0.238402999995742,2
0.0,807,0.0,2
0.039240000000063446,808,0.24444599998241756,2
0.0,809,0.0,2
0.047280000000682776,810,0.32244899999932386,2
0.0,811,0.0,2
0.024374999999054126,812,0.17883300001267344,2
0.0,813,0.0,2
0.045555000000604196,814,0.23626700000022538,2
0.0,815,0.0,2
0.032790000001114095,816,0.2371219999913592,2
0.0,817,0.0,2
0.03491999999823747,818,0.23321500000020023,2
0.0,819,0.0,2
0.0481500000005326,820,0.3259280000056606,2
0.0,821,0.0,2
