method,package1,package2,dram1,dram2,energy
AWTGVTGlyphVector.computeGlyphLogicalBounds,0.0,0.04906199999823002,0.0,0.005464999999882517,0.05452699999811254
AbstractElement.getAttributeNS,0.0,0.047610589742245614,0.0,0.005869230769185844,0.05347982051143146
AbstractRed.copyBand,0.0,0.024919717954866596,0.0,0.003463725199056815,0.02838344315392341
AbstractSVGAnimatedValue.isSpecified,0.0,0.04902387179399971,0.0,0.00627576923090181,0.05529964102490152
Any2sRGBRed.copyData,0.4365788599927328,0.0,0.047914497955553345,0.0,0.4844933579482862
AttributeValues.merge,0.0,0.06778622222110345,0.0,0.007738333333185841,0.07552455555428929
AttributesExImpl.clear,0.0,0.02275728124989958,0.0,0.0037812499999366382,0.02653853124983622
Benchmark.fileFromInputStream,0.0,0.4136239629625817,0.0,0.06102388888872089,0.4746478518513026
BidiAttributedCharacterIterator.<init>,0.0,0.10845912410539049,0.0,0.01388481318684447,0.12234393729223496
BridgeContext.dispose,0.0,0.0418962857137168,0.0,0.0035142857143780144,0.04541057142809481
ByteInterleavedRaster.getPixels,0.01779698039810806,0.0,0.0018197436967415212,0.0,0.01961672409484958
CSSClassCondition.match,0.0,0.034775647059124074,0.0,0.0037870588235177018,0.038562705882641775
CSSEngine.getCascadedStyleMap,0.0,0.056957249999868516,0.0,0.006536250000294785,0.0634935000001633
CSSUtilities.convertShapeRendering,0.0,0.0577548461520704,0.0,0.008120000000230785,0.06587484615230119
CharTrie.unserialize,0.0,0.04441333333428095,0.0,0.005470000000059372,0.04988333333434032
ClassFile.read,0.0,0.009175333335103156,0.0,0.0013600000002043089,0.010535333335307465
ClassPool.makeClass,0.0,0.06632725000084368,0.0,0.008432187499996264,0.07475943750083994
CodeAttribute.<init>,0.0,0.03708900000007512,0.0,0.00548000000041308,0.042569000000488195
ComponentTransferRed.copyData,0.0,0.03791017512962035,0.0,0.005025024120283137,0.042935199249903494
Config.preprocessArgs,0.0,0.018557019231173817,0.0,0.002753365384495947,0.021310384615669763
ConfigFileTokenManager.<clinit>,0.0,0.01687281481550868,0.0,0.00242666666667059,0.019299481482179272
ConstPool.readOne,0.007858451396681862,0.0,0.0008839094853275391,0.0,0.0087423608820094
DacapoClassLoader.loadClass,0.0,0.3473749237705252,0.0,0.0501526734256219,0.3975275971961471
DuctusRenderingEngine$FillAdapter.appendLine,0.0,0.05784830107711636,0.0,0.007578064516095646,0.06542636559321201
FactoryFinder.newInstance,0.0,0.03657750000067088,0.0,0.005010714285596069,0.041588214286266946
FileFontStrike.setCachedGlyphPtr,0.0,0.0441690000006929,0.0,0.005480000000109915,0.049649000000802815
FileURLConnection.connect,0.0,0.03049583333319918,0.0,0.003921428571543185,0.03441726190474237
FileURLConnection.getPermission,0.0,0.02099490740807529,0.0,0.002668055555524781,0.02366296296360007
Font2D.getStrike,0.0,0.054586104291069436,0.0,0.007337358783946865,0.061923463075016304
FontManagerFactory$1.run,0.0,0.05905418750141204,0.0,0.007517812500168475,0.0665720000015805
FormattedFloatingDecimal.<init>,0.0,0.009821404259855268,0.0,0.001232916561256382,0.01105432082111165
GaussianBlurRed8Bit.boxFilterV,0.0,0.056280352681310375,0.0,0.006644389742421603,0.06292474242373197
GlyphLayout.setOffset,0.0,0.0343560000005204,0.0,0.004209999999956279,0.03856600000047668
GraphicsNodeRed8Bit.<init>,0.0,0.056491893941490685,0.0,0.007244545454616881,0.06373643939610757
GraphicsUtil.coerceColorModel,0.0,0.07512214902531197,0.0,0.00893931687180812,0.08406146589712009
GraphicsUtil.copyData,0.1738088144184282,0.09362363332914056,0.020220342684463554,0.012017970669828019,0.2996707611018603
GraphicsUtil.divide_INT_PACK_Data,0.0,0.09684471866043368,0.0,0.01206444608586767,0.10890916474630134
Launcher$AppClassLoader.loadClass,0.0,0.0,0.0,0.0,0.0
LocalizableSupport.formatMessage,0.0,0.10772728204439119,0.0,0.017334230769381228,0.12506151281377242
LoopPipe.getFillSSI,0.0,0.03614906666528744,0.0,0.004672000000088398,0.040821066665375834
MethodAccessorGenerator.generate,0.0,0.027288799999223557,0.0,0.003279000000111409,0.030567799999334965
MethodInfo.read,0.0,0.06868879999965427,0.0,0.007994999999937136,0.0766837999995914
MorphologyOp.filter,0.0,0.3227810320323684,0.0,0.040389475050361945,0.36317050708273035
MorphologyOp.isBetter,0.0,0.06254260700948545,0.0,0.008710657726936796,0.07125326473642225
NativeThreadSet.remove,0.0,0.02222703703645729,0.0,0.0030388888889218736,0.025265925925379164
NumberParser.parseFloat,0.0,0.016235411764629296,0.0,0.0020841176470532768,0.01831952941168257
PNGEncodeParam.filterRow,0.0,0.5825424527221948,0.0,0.0776929906845999,0.6602354434067947
PNGImageEncoder.encodePass,0.0,4.542220788196801,0.0,0.6275800259939436,5.1698008141907446
PNGRed.<clinit>,0.0,0.0,0.0,0.0,0.0
PNGRed.decodePaethFilter,0.006997567526775325,0.0,0.0007696018974655478,0.0,0.007767169424240873
PNGRed.decodePass,0.02165635687764683,0.0,0.0024538754250436486,0.0,0.024110232302690476
PNGRed.paethPredictor,0.00920450632114675,0.0,0.0010504241852744925,0.0,0.010254930506421242
PNGRed.processPixels,0.019449418083275404,0.0,0.002173053137234704,0.0,0.021622471220510107
PaintServer.convertStrokeDasharray,0.0,0.08956788618134606,0.0,0.01020121951255052,0.09976910569389658
Parser.parseMedia,0.0,0.05550118358402346,0.0,0.007916763266221627,0.06341794685024509
Parser2.maybeElement,0.0,0.05143514285737183,0.0,0.004227857142853151,0.05566300000022498
PathFiller.writeAlpha8,0.0,0.07201174603237415,0.0,0.007945238095190791,0.07995698412756494
PathStroker.appendLine,0.0,0.0563920263323683,0.0,0.007023408301541317,0.06341543463390961
PathStroker.endPath,0.0,0.09717580600783066,0.0,0.011742331989220828,0.10891813799705148
Region.appendSpan,0.0,0.05118649050837454,0.0,0.00588519580424353,0.05707168631261807
Resource.getBytes,0.0099385290014262,0.07564146837826716,0.0009358342114139822,0.010850793804197918,0.09736662539530525
SVGComposite$OverCompositeContext_INT_PACK_UNPRE.precompose_INT_PACK,0.0,0.03730830835466882,0.0,0.004672990109295317,0.04198129846396414
SVGDOMImplementation.<clinit>,0.0,0.0713706666623087,0.0,0.010969999999967207,0.08234066666227591
SVGOMAnimatedPathData.getAnimatedPathSegList,0.0,0.04871798888625088,0.0,0.0071209671528751715,0.05583895603912605
SVGOMFontElement.<clinit>,0.0,0.054662999999709416,0.0,0.008483999999953085,0.0631469999996625
SVGSVGElementBridge.createGraphicsNode,0.0,0.054832337724490116,0.0,0.007010601520705521,0.061842939245195634
SVGTextElementBridge$AttributedStringBuffer.toAttributedString,0.0,0.02754635999968741,0.0,0.003700799999933224,0.031247159999620633
SVGTextElementBridge.computeLaidoutText,0.0,0.03353759999969043,0.0,0.004064400000133901,0.03760199999982433
SVGTextPathElementBridge.createTextPath,0.0,0.03353759999969043,0.0,0.004064400000133901,0.03760199999982433
SignatureFileVerifier.<clinit>,0.0,0.02512611111160368,0.0,0.00365333333340661,0.02877944444501029
StringInfo.write,0.0,0.11299791999801526,0.0,0.011457599999848751,0.124455519997864
StrokeDasharrayManager.computeValue,0.0,0.03161612820613066,0.0,0.003850000000033432,0.03546612820616409
SunFontManager.addToFontList,0.0,0.03901899999930589,0.0,0.0047142857142067176,0.04373328571351261
SunGraphics2D.getSurfaceData,0.0,0.0542406197115029,0.0,0.006720788375087415,0.06096140808659032
SunLayoutEngine.nativeLayout,0.0,0.030253111109939505,0.0,0.0036516666667820467,0.03390477777672155
SurfaceData.<clinit>,0.0,0.02422414814699786,0.0,0.003022222222137281,0.02724637036913514
SurfaceData.initIDs,0.0,0.02422414814699786,0.0,0.003022222222137281,0.02724637036913514
T2KFontScaler.getGlyphMetricsNative,0.0,0.3283783430049874,0.0,0.04545408791896572,0.37383243092395313
TestHarness.main,0.0,0.022017925924888843,0.0,0.0028100000000213857,0.02482792592491023
TransformHelper.Transform,0.0,0.06553458753945178,0.0,0.009468053714419816,0.0750026412538716
TrueTypeFont.open,0.0,0.028668266666015064,0.0,0.0038394999999885227,0.032507766666003586
Type1Font.initNames,0.0,0.025305200000002512,0.0,0.0032834999999977296,0.02858870000000024
URLClassPath$FileLoader.getResource,0.0,0.05540846080268813,0.0,0.007668285760344761,0.06307674656303289
URLClassPath$JarLoader$2.getManifest,0.0,0.0,0.0,0.0,0.0
URLClassPath$JarLoader.checkResource,0.0,0.03058297619212508,0.0,0.0044071428571138905,0.034990119049238974
URLClassPath.getLoader,0.0,0.024932833332665414,0.0,0.002070000000154929,0.027002833332820345
Utf8Info.<init>,0.0,0.025807371796109847,0.0,0.004044093406507635,0.029851465202617482
Util$5.run,0.0,0.06667657142887556,0.0,0.007622142857144355,0.07429871428601992
XMLResourceDescriptor.getParserProps,0.0,0.06500266666019645,0.0,0.011015000000043074,0.07601766666023953
