method,hits
AAShapePipe.renderPath,2
AWTGVTGlyphVector.getCharacterCount,2
AbstractChildNode.getNextSibling,2
AbstractElement$NamedNodeHashMap.get,2
AbstractGraphicsNode.getTransformedPrimitiveBounds,2
AbstractGraphicsNode.paint,2
AbstractSVGBridge.getNamespaceURI,2
AbstractSVGTransformList.doParse,2
AreaOp.pruneEdges,2
AttributeValues.equals,2
AttributeValues.merge,2
Benchmark.fileFromInputStream,2
Benchmark.prepareJars,2
BidiAttributedCharacterIterator.<init>,2
BidiBase.<init>,2
ByteInterleavedRaster.getPixels,2
CRC.<clinit>,2
CSSConditionalSelector.match,2
CSSEngine.getComputedStyle,2
CompositeFont.createStrike,2
ConfigFileTokenManager.MoreLexicalActions,2
CtClassType.getInterfaces,2
FcFontManager.getFontConfigManager,2
FileFontStrike.<init>,2
FontConfiguration.setEncoding,2
FontFamilyResolver.resolve,2
GVTBuilder.build,2
GaussianBlurRed8Bit.boxFilterH,2
GaussianBlurRed8Bit.boxFilterV,8
GraphicsPrimitiveMgr.<clinit>,2
GraphicsPrimitiveMgr.initIDs,4
GraphicsUtil.copyData_INT_PACK,4
GraphicsUtil.divide_INT_PACK_Data,4
GraphicsUtil.mult_INT_PACK_Data,2
IOUtil.read,2
IntegerInterleavedRaster.setDataElements,2
MorphologyOp.filter,32
MorphologyOp.isBetter,4
PNGEncodeParam.filterRow,34
PNGImageEncoder.clamp,2
PNGImageEncoder.encodePass,14
PNGRed.decodePaethFilter,4
PNGRed.processPixels,6
PaintServer.convertFillAndStroke,2
PaintServer.convertMarkers,2
PaintServer.convertStrokeDasharray,2
ParsedURLDefaultProtocolHandler.constructParsedURLData,2
Parser2.parseLiteral,4
PathFiller.<clinit>,2
PathFiller.writeAlpha8,4
PathStroker.<init>,2
PathStroker.beginPath,2
PathStroker.closedSubpath,2
PathStroker.endPath,12
Rasterizer.getTypicalAlpha,2
Region.clipBoxToBounds,2
SVGBridgeExtension.registerTags,2
SVGCSSEngine.<clinit>,2
SVGComposite$OverCompositeContext_INT_PACK_UNPRE.precompose_INT_PACK,2
SVGDOMImplementation.createElementNS,2
SVGOMAnimatedLengthList$BaseSVGLengthList.revalidate,2
SVGTextElementBridge$AttributedStringBuffer.toAttributedString,2
ShapeRenderingManager.<clinit>,2
ShapeSpanIterator.nextSpan,2
StandardGlyphVector.getNonTranslateTX,2
StrokingTextPainter.getTextChunkACIs,4
SunFontManager.addCompositeToFontList,2
SunFontManager.initIDs,2
SunGraphics2D.<clinit>,2
SunGraphics2D.setRenderingHint,2
SunGraphics2D.setRenderingHints,2
SunGraphics2D.transformShape,4
SunGraphicsEnvironment.createGraphics,2
SunLayoutEngine.nativeLayout,2
SurfaceData.<clinit>,2
SurfaceData.initIDs,2
T2KFontScaler.getGlyphImageNative,4
T2KFontScaler.getGlyphMetricsNative,12
TestHarness.main,2
UTF_8$Decoder.decode,2
ViewBox.getPreserveAspectRatioTransform,2
X11FontManager.createFontConfiguration,2
