method,package1,package2,dram1,dram2,energy
AWTGVTFont,0.0,0.07496981334430794,0.0,0.008022611876890238,0.08299242522119818
AbstractParentNode,0.013275166666668763,0.0,0.0025200000000040745,0.0,0.015795166666672838
AbstractParentNode$ElementsByTagNameNS,0.0,0.014760531268541347,0.0,0.0021473313190605355,0.016907862587601883
AbstractSVGTransformList$SVGTransformItem,0.06752294117648168,0.0,0.007880294117271928,0.0,0.0754032352937536
Any2sRGBRed,0.05484018749939423,0.0,0.0061368750004930925,0.0,0.060977062499887325
AttributedCharacterSpanIterator,0.05260156862784117,0.0,0.005921176470805863,0.0,0.058522745098647036
ByteInterleavedRaster,0.0,0.06351612151687466,0.0,0.007675776666129869,0.07119189818300453
ByteVectorFactory,0.0,0.07783504177292405,0.0,0.009539958216696938,0.08737499998962099
CRC,0.041589400000520985,0.0,0.0045780000000377186,0.0,0.0461674000005587
CSSEngine,0.0,0.3435641555976847,0.0,0.03815250619045404,0.38171666178813873
ConstPool,0.0,0.06351612151687466,0.0,0.007675776666129869,0.07119189818300453
DrawGlyphListAA,0.057849200000055126,0.0,0.0064920000004349285,0.0,0.06434120000049005
FcFontManager,0.0,0.10199329000017993,0.0,0.010741151971711035,0.11273444197189096
FontStrikeDesc,0.057849200000055126,0.0,0.0064920000004349285,0.0,0.06434120000049005
GVTBuilder,0.0,0.03377266666696717,0.0,0.005499999999907836,0.039272666666875004
GaussianBlurRed8Bit,0.30882957127211114,0.0,0.034018898026284945,0.0,0.3428484692983961
GenericXBLManager,0.0,0.07480900000276354,0.0,0.012400000000222159,0.0872090000029857
GlyphLayout$GVData,0.06232163491984553,0.0,0.007443333333318902,0.0,0.06976496825316443
GraphicsUtil,0.2290149934190871,0.11907453513226457,0.02762225876897353,0.01619863996947063,0.3919104272897958
IDATOutputStream,0.051177421051729566,0.0,0.004954078946627161,0.0,0.056131499998356725
ImagingLib,0.049411333332601406,0.0,0.00572666666590117,0.0,0.05513799999850258
ManifestEntryVerifier,0.0,0.047310433331585945,0.0,0.006695500000205357,0.0540059333317913
MorphologyOp,0.7875770277774242,0.0,0.0843789285703361,0.0,0.8719559563477604
PNGEncodeParam,0.3156772995116673,0.0,0.030249607842500567,0.0,0.34592690735416787
PNGRed,0.0,0.18615077754688558,0.0,0.02351466368606499,0.20966544123295058
PaintServer,0.0,0.07693125925854677,0.0,0.008502222221405072,0.08543348147995183
ParseUtil,0.0,0.017242375000932952,0.0,0.0025856249999378638,0.019828000000870816
PathStroker,0.21678004212108906,0.0,0.02395098039297959,0.0,0.24073102251406864
SVGAnimatedPathDataSupport,0.030731125000784232,0.0,0.003553125000053115,0.0,0.034284250000837346
SVGOMAnimatedPathData,0.0,0.030689185183426292,0.0,0.004888888888806967,0.03557807407223326
SVGValueConstants,0.0,0.08777653333187724,0.0,0.012048000000262012,0.09982453333213925
StrokingTextPainter,0.054350024691414964,0.0,0.006654814815574129,0.0,0.061004839506989095
T2KFontScaler,0.3110442978987354,0.0,0.036118344518311626,0.0,0.34716264241704703
TextNode,0.0,0.06784043874551793,0.0,0.007763577055378531,0.07560401580089646
TranscoderSupport,0.0,0.02738200000021607,0.0,0.004119375000072978,0.031501375000289045
TrueTypeFont,0.0,0.16146785868963665,0.0,0.019378339105402615,0.18084619779503927
Type1Font,0.0,0.5036202792387141,0.0,0.06098756446147241,0.5646078437001865
Util,0.0,0.1094289696244397,0.0,0.012327464009242402,0.1217564336336821
ViewBox,0.0,0.08941666666457118,0.0,0.013034999999945285,0.10245166666451647
