method,package1,package2,dram1,dram2,energy
AWTGVTGlyphVector.computeGlyphLogicalBounds,0.039191130951838286,0.0,0.004355000000335471,0.0,0.04354613095217376
AbstractElement.getAttributeNS,0.0,0.07130666109289419,0.0,0.008491261638082531,0.07979792273097672
AbstractGraphicsNode.fireGraphicsNodeChangeStarted,0.0,0.1272525225090857,0.0,0.015645259098157258,0.14289778160724295
AbstractSVGAnimatedValue.fireBaseAttributeListeners,0.0,0.036834377333179326,0.0,0.0036719578650170133,0.04050633519819634
AbstractSVGPathSegList$PathSegListBuilder.linetoRel,0.04551788235274965,0.0,0.009065294117403134,0.0,0.05458317647015279
Any2sRGBRed.applyLut_INT,0.20332463996182876,0.0,0.025469028897815483,0.0,0.22879366885964425
Benchmark.prepare,0.0,0.03351183799267778,0.0,0.003591058669018736,0.03710289666169652
ByteInterleavedRaster.getPixels,0.0,0.02282553208040681,0.0,0.0026876774298277228,0.02551320951023453
CRC.updateCRC,0.03697113033712486,0.0,0.003823241422751519,0.0,0.04079437175987638
CSSConditionFactory.createClassCondition,0.0,0.0854536120912947,0.0,0.010573331735118988,0.09602694382641369
CSSElementSelector.match,0.04551788235274965,0.0,0.009065294117403134,0.0,0.05458317647015279
CSSEngine$1.<init>,0.0,0.0795193523899768,0.0,0.009820573356604415,0.08933992574658121
CSSUtilities.getComputedStyle,0.0,0.034602430505261364,0.0,0.004373682910457547,0.03897611341571891
ClassClassPath.openClassfile,0.0,0.0854536120912947,0.0,0.010573331735118988,0.09602694382641369
ConcreteTextLayoutFactory.createTextLayout,0.033509859184313866,0.0,0.004169825103134088,0.0,0.03767968428744795
DisabledAlgorithmConstraints.<init>,0.0,0.028792565479410514,0.0,0.004183500334266836,0.03297606581367735
DuctusRenderingEngine.createStrokedShape,0.041262917329517014,0.0,0.005018506551228282,0.0,0.0462814238807453
FcFontManager.getFontPathNative,0.0,0.04190987172167989,0.0,0.004967913671631488,0.04687778539331138
FileDispatcherImpl.read0,0.0,0.06004678654842231,0.0,0.007021976529537232,0.06706876307795955
FontConfiguration.setEncoding,0.0,0.05587765946683137,0.0,0.005714230428513038,0.06159188989534441
GaussianBlurRed8Bit.boxFilterH,0.05714112328477949,0.0,0.006048902472824123,0.0,0.06319002575760362
GaussianBlurRed8Bit.boxFilterV,0.1565112444359319,0.0,0.018880880881706575,0.0,0.17539212531763848
GlyphLayout.<init>,0.05081184837361339,0.0,0.005642971982135462,0.0,0.05645482035574885
GraphicsPrimitiveMgr.<clinit>,0.03872317819637823,0.0,0.005045530757723125,0.0,0.04376870895410136
GraphicsUtil.copyData,0.0,0.28030405014107856,0.0,0.03309598406580753,0.3134000342068861
GraphicsUtil.divide_INT_PACK_Data,0.05194650052503634,0.0,0.006171541530343642,0.0,0.05811804205537998
GraphicsUtil.mult_INT_PACK_Data,0.11054361621797484,0.0,0.0138942553648656,0.0,0.12443787158284045
IOUtil.readIntoNativeBuffer,0.0,0.061063308965801213,0.0,0.007926248277709724,0.06898955724351094
ImagingLib.transformBI,0.06902512296307442,0.0,0.009120612710938366,0.0,0.07814573567401278
JPEGRegistryEntry$1.run,0.0,0.0,0.0,0.0,0.0
LengthParser.parseLength,0.010729899999569168,0.0,0.0012135000000853325,0.0,0.0119433999996545
MethodAccessorGenerator.generate,0.0,0.05258251394105671,0.0,0.006049453433156711,0.05863196737421342
MorphologyOp.filter,0.31170357862791226,0.0,0.033608773331429795,0.0,0.34531235195934207
PNGEncodeParam.filterRow,0.34045801129368913,0.0,0.040885294860101,0.0,0.38134330615379014
PNGImageEncoder.encodePass,0.07816739035420758,0.0,0.008390962505360271,0.0,0.08655835285956785
PNGRed.decodePaethFilter,0.0,0.10916836689345424,0.0,0.012016684979585,0.12118505187303924
PNGRed.processPixels,0.0,0.045296229762636094,0.0,0.005262964038010832,0.050559193800646926
Parser.parseStatement,0.04768800000019836,0.0,0.004122000000206754,0.0,0.051810000000405115
Parser2.maybeElement,0.0,0.020966827036237156,0.0,0.0025696551741707483,0.023536482210407904
PathFiller.reset,0.04255063044024996,0.0,0.004989524066584953,0.0,0.047540154506834915
PathStroker.dispose,0.06523679646688009,0.0,0.0077979656416801895,0.0,0.07303476210856027
PathStroker.endPath,0.16404966774286342,0.0,0.016964048229983566,0.0,0.181013715972847
PlatformLogger.<init>,0.0,0.03909567314380587,0.0,0.004720909535631882,0.04381658267943775
SVGAbstractTranscoder.createDocumentFactory,0.0,0.06506373474331724,0.0,0.009202459638701596,0.07426619438201884
SVGBridgeExtension.registerTags,0.0,0.08088467324318571,0.0,0.010425823999925424,0.09131049724311113
SVGCSSEngine.<clinit>,0.0,0.19734296435816082,0.0,0.028233562559671275,0.2255765269178321
SVGComposite$OverCompositeContext_INT_PACK_UNPRE.precompose_INT_PACK,0.04513495564265218,0.0,0.006032220400599516,0.0,0.051167176043251696
SVGDOMImplementation.createCSSEngine,0.0,0.034867760126785816,0.0,0.0049443210811704425,0.039812081207956256
SVGEllipseElementBridge.buildShape,0.028131100000609872,0.0,0.003260999999838532,0.0,0.031392100000448404
SVGValueConstants.<clinit>,0.0,0.08817654560666423,0.0,0.012016000250290823,0.10019254585695506
StandardGlyphVector.init,0.058419340220160675,0.0,0.006123897940150911,0.0,0.06454323816031159
StreamNormalizingReader.<clinit>,0.0,0.06733726207431492,0.0,0.009377017285792651,0.07671427936010758
StyleMap.putImportant,0.0,0.07130666109289419,0.0,0.008491261638082531,0.07979792273097672
T2KFontScaler.getGlyphMetricsNative,0.09371551526809882,0.0,0.008990326957139796,0.0,0.10270584222523861
TileMap.setTile,0.060720960071044064,0.0,0.007334249461945984,0.0,0.06805520953299005
TrueTypeFont$TTDisposerRecord.<init>,0.0,0.042438936514251,0.0,0.004887209879817346,0.04732614639406835
Type1Font.initNames,0.0,0.13731069343723604,0.0,0.01537812891334813,0.15268882235058417
Type1Font.nextTokenType,0.0,0.22049730861476116,0.0,0.024369963471104088,0.24486727208586526
Unsafe.defineClass,0.0,0.05258251394105671,0.0,0.006049453433156711,0.05863196737421342
XMLReaderImpl.parse,0.0,0.03765750372452509,0.0,0.005386258496057868,0.043043762220582954
