method,package1,package2,dram1,dram2,energy
AffineTransform.createTransformedShape,0.062118223117272386,0.0,0.006661319717797543,0.0,0.06877954283506993
BandCombineOp.filter,0.14782702083448385,0.0,0.015063124999339077,0.0,0.1628901458338229
BasicStroke.<init>,0.06200990277658192,0.0,0.00553437499997421,0.0,0.06754427777655614
Bidi.<init>,0.07464480454820531,0.0,0.008539551084934522,0.0,0.08318435563313983
Bits.byteOrder,0.03824866666885403,0.0,0.005295000000235935,0.0,0.043543666669089966
BufferedInputStream.read,0.1096344550892213,0.0,0.014165627631519573,0.0,0.12380008272074088
BufferedWriter.write,0.0,0.01870167473685772,0.0,0.003114032265828812,0.02181570700268653
Class.forName0,0.03561200000112876,0.0,0.003144000001096477,0.0,0.03875600000222524
ClassLoader.defineClass1,0.1891161495760919,0.0,0.022274995264694356,0.0,0.21139114484078625
ClassLoader.findBootstrapClass,0.0,0.05189814583336556,0.0,0.007696875000131815,0.059595020833497374
ColorModel.getLinearRGB16TosRGB8LUT,0.04279841450055138,0.0,0.004795769349321626,0.0,0.047594183849873004
DataBufferInt.getElem,0.04025904166731682,0.0,0.004445000000184033,0.0,0.04470404166750085
DataBufferInt.setElem,0.0,0.02288335671710085,0.0,0.0033005124435996,0.02618386916070045
Deflater.deflateBytes,0.9055244677943559,1.89124828335178,0.11503456785448947,0.28720748776612137,3.1990148067667468
DirectByteBuffer.get,0.08300990285728373,0.0,0.00854400826152345,0.0,0.09155391111880717
FileOutputStream.writeBytes,0.015291546828823752,0.0,0.002018780041158341,0.0,0.017310326869982094
Formatter$FormatSpecifier.conversion,0.0,0.011485013044115087,0.0,0.0017796504427900859,0.013264663486905174
GeneralPath.<init>,0.0688931076159731,0.0,0.00665216725180125,0.0,0.07554527486777435
HashSet.iterator,0.03868843221123735,0.0,0.004543562209118953,0.0,0.0432319944203563
Inflater.inflateBytes,0.10090542439782627,0.0,0.010511778434471567,0.0,0.11141720283229783
LinkedList.contains,0.01775024964466925,0.0,0.002144608502927757,0.0,0.01989485814759701
Manifest.<init>,0.0,0.0,0.0,0.0,0.0
Path2D$Double.moveTo,0.028511216232377245,0.0,0.0035639570278690673,0.0,0.03207517326024631
Path2D$Float.needRoom,0.056415333332349986,0.0,0.007214166666724647,0.0,0.06362949999907463
RandomAccessFile.open0,0.08159910545746198,0.0,0.00722187369762257,0.0,0.08882097915508455
Raster.createInterleavedRaster,0.02452992829221012,0.0,0.002930393131510529,0.0,0.027460321423720648
Raster.getPixel,0.03869735710530986,0.0,0.0039058803269190383,0.0,0.0426032374322289
RenderingHints.put,0.11051433333341264,0.0,0.01148999999956383,0.0,0.12200433333297647
SinglePixelPackedSampleModel.getPixels,0.057982671306665894,0.0,0.006822757267962309,0.0,0.0648054285746282
SinglePixelPackedSampleModel.getSamples,0.0,0.05156918181984855,0.0,0.005596363635876596,0.05716554545572514
SinglePixelPackedSampleModel.setPixel,0.0853068125000694,0.0,0.00790125000041068,0.0,0.09320806250048008
SinglePixelPackedSampleModel.setPixels,0.027609375793800184,0.11859509090903554,0.003036732307395457,0.014970454545673972,0.16421165355590514
SinglePixelPackedSampleModel.setSamples,0.0,0.13083736363676673,0.0,0.017120454545048146,0.1479578181818149
String.format,0.0,0.00880232000308098,0.0,0.0015214121211738132,0.010323732124254794
String.regionMatches,0.042148265696236885,0.0,0.0051238664711700825,0.0,0.047272132167406965
Throwable.fillInStackTrace,0.056899999999586726,0.0,0.005253749999610591,0.0,0.062153749999197316
Toolkit.<clinit>,0.1177245333325118,0.0,0.011852000000847813,0.0,0.1295765333333596
UnixFileSystem.list,0.07647137769108797,0.0,0.0083323259480352,0.0,0.08480370363912318
Vector$1.hasMoreElements,0.08089670588207595,0.0,0.006487058824003565,0.0,0.08738376470607952
