method,hits
AffineTransform.transform,2
Buffer.nextGetIndex,4
BufferedInputStream.<init>,2
BufferedInputStream.read,8
BufferedOutputStream.flush,2
ByteArrayInputStream.available,2
ByteBuffer.get,2
Class.forName0,2
Class.getDeclaredConstructors0,2
ClassLoader.defineClass1,12
ClassLoader.findBootstrapClass,4
ColorModel.getLinearRGB16TosRGB8LUT,2
ComponentSampleModel.getPixel,4
DataBuffer.<init>,2
DataInputStream.<init>,2
DataInputStream.readInt,2
Deflater.deflateBytes,224
DirectByteBuffer.get,2
FileOutputStream.open0,2
FileOutputStream.writeBytes,8
Font.defaultLineMetrics,4
ICC_Profile.getInstance,2
Inflater.inflateBytes,30
Inflater.reset,2
JarFile.getManifestFromReference,2
JarFile.initializeVerifier,2
Locale.toString,2
Math.abs,2
Object.hashCode,2
Path2D$Float.expandCoords,2
Path2D$Float.needRoom,2
Pattern.closure,2
Properties.load0,2
RandomAccessFile.<init>,2
Raster.getPixel,2
ResourceBundle$Control.newBundle,2
ResourceBundle.getObject,2
SinglePixelPackedSampleModel.getPixels,4
SinglePixelPackedSampleModel.setPixels,2
SinglePixelPackedSampleModel.setSamples,8
String.hashCode,2
StringBuffer.append,2
Throwable.fillInStackTrace,2
URLClassLoader.defineClass,2
UnixFileSystem.getBooleanAttributes0,2
UnixFileSystem.list,2
Vector.ensureCapacityHelper,2
Vector.indexOf,2
ZipFile.read,2
ZipInputStream.<init>,2
