method,package1,dram1,energy
AbstractElement$NamedNodeHashMap,0.042532045301182014,0.004688216460792653,0.04722026176197467
AbstractParentNode,0.042532045301182014,0.004688216460792653,0.04722026176197467
AffineTransform,0.07756767875878752,0.008743660362192757,0.08631133912098028
Any2sRGBRed,0.16033496831195493,0.016434527289499578,0.1767694956014545
AreaOp,0.038279166667052784,0.0046774999991612285,0.04295666666621401
ArrayDeque,0.013330426741333192,0.002082710924221753,0.015413137665554945
Arrays,0.05363281322855284,0.006022301726063536,0.059655114954616374
AttributeInfo,0.05979806320189921,0.008223308866925341,0.06802137206882455
AttributedString$AttributeMap,0.07072390701217222,0.008519527563147843,0.07924343457532007
BasicStroke,0.08532733333251799,0.009899999999712842,0.09522733333223084
BidiBase,0.08451163636544318,0.009433636363444914,0.09394527272888809
BufferedInputStream,0.12754931624835514,0.017832448703484133,0.14538176495183927
CRC,0.18802075573438048,0.01840362774745772,0.2064243834818382
CSSEngine,0.03791806358665019,0.003040844007128355,0.04095890759377854
ClassLoader,0.18279156984882736,0.02211299334236673,0.2049045631911941
ClassPool,0.06838300000021667,0.0065975000002759365,0.07498050000049261
ColorModel,0.07357783333403252,0.009367500000128832,0.08294533333416135
ComponentSampleModel,0.031501440000138235,0.003952799999678972,0.03545423999981721
ConcurrentHashMap,0.02955449509883353,0.0037295121633460757,0.03328400726217961
ConcurrentHashMap$KeyIterator,0.07168040151692381,0.008440201563030336,0.08012060307995415
Config,0.03613283333227929,0.0040574999996655,0.04019033333194479
Config$1,0.011055041666774441,0.000945000000001528,0.012000041666775969
ConfigFile,0.004913333334116032,0.0006800000004053193,0.005593333334521351
ConstPool,0.03597624796368872,0.004444491253719304,0.040420739217408026
Curve,0.038279166667052784,0.0046774999991612285,0.04295666666621401
DataBufferInt,0.05481311599558394,0.006745787006339546,0.06155890300192348
Deflater,8.514896107650147,0.8498335465686031,9.364729654218749
DuctusRenderingEngine,0.057973146869391486,0.005628033098476286,0.06360117996786777
ExtendedGeneralPath,0.06323848974153347,0.005548336179109273,0.06878682592064274
FileChannelImpl,0.03272448945471501,0.0041028475157122895,0.0368273369704273
FileOutputStream,0.09701516666730944,0.011624999999185093,0.10864016666649454
FontConfiguration,0.03506228152300713,0.00419832363985955,0.03926060516286668
FontRunIterator,0.0533135590257224,0.005832588745945946,0.05914614777166834
FormatRed,0.033076853332458994,0.003616800000406026,0.03669365333286502
GaussianBlurRed8Bit,0.3488902461339222,0.034391553385260475,0.3832817995191827
GraphicsPrimitive,0.03979499999938222,0.005382500000753983,0.045177500000136206
GraphicsUtil,0.32657598769120444,0.03880025436485705,0.3653762420560615
HashMap,0.025323533846958318,0.003233050784243538,0.028556584631201858
HashMap$HashIterator,0.06793227272613546,0.008918181818113557,0.07685045454424902
HashSet,0.05824307692296899,0.007316923077152566,0.06556000000012156
ImagingLib,0.08326871542623766,0.010124618000457341,0.09339333342669501
Inflater,0.46133054897203907,0.05545875604399059,0.5167893050160297
InflaterInputStream,0.0770444486263148,0.01167537651879598,0.08871982514511077
JPEGImageDecoderImpl,0.0,0.0,0.0
JarFile,0.022462727271583084,0.003565909090949306,0.02602863636253239
LongVector,0.0,0.0,0.0
LookupOp,0.09454524544257026,0.01061803177619712,0.10516327721876738
Main,0.011055041666774441,0.000945000000001528,0.012000041666775969
MaskBlit,0.07383985902040448,0.008641378954233463,0.08248123797463794
MaskFill,0.024234388888375917,0.003142222222070106,0.027376611110446022
Math,0.050059041666978984,0.006514374999900004,0.05657341666687899
MethodAccessorGenerator$1,0.03759322482258246,0.005234020620658697,0.04282724544324116
MorphologyOp,0.8101362333850601,0.09630578307924191,0.906442016464302
MorphologyRable8Bit,0.031878981016472685,0.0021824893832788927,0.034061470399751576
NativeThread,0.05041659160922075,0.006014738295618334,0.05643132990483908
PNGEncodeParam,0.3982272852605173,0.04209390272367797,0.4403211879841953
PNGImageEncoder,0.22464283071856855,0.03150641022742141,0.25614924094598995
PNGRed,0.0915936666666918,0.008580000000317037,0.10017366666700885
PNGTranscoderInternalCodecWriteAdapter,0.053624200000518214,0.006943999999445318,0.06056819999996353
Path2D$Double,0.024197196114652212,0.002673587549932049,0.02687078366458426
Path2D$Float,0.03169672714631863,0.004478247925678626,0.03617497507199726
PathFiller,0.1260238563803635,0.014994826155740826,0.14101868253610433
PathParser,0.03554554749911136,0.005094956567825979,0.04064050406693734
PathStroker,0.253342721336747,0.03102418865882888,0.2843669099955759
RandomAccessFile,0.11972447484424287,0.014498599102655434,0.1342230739468983
SAXSVGDocumentFactory,0.027202144573522224,0.0038441905931620845,0.031046335166684307
SVGAnimatedPathDataSupport,0.03169672714631863,0.004478247925678626,0.03617497507199726
SVGBridgeExtension,0.01908347557352408,0.0021266616489894518,0.021210137222513532
SVGComposite$OverCompositeContext_INT_PACK_UNPRE,0.18867984616078298,0.024425389390108042,0.21310523555089103
SVGDOMImplementation,0.08011661968197334,0.01018230218957136,0.0902989218715447
SVGDOMImplementation$TspanElementFactory,0.012576819949857132,0.0020172421990896764,0.014594062148946808
SVGOMGElement,0.017824490529694016,0.002001064763040438,0.019825555292734453
SVGShapeElementBridge,0.03191790468276751,0.004584403595780555,0.03650230827854807
ShapeSpanIterator,0.041845785514231536,0.005302197694223244,0.04714798320845478
SinglePixelPackedSampleModel,0.7328968157269605,0.07895005417825358,0.8118468699052142
String,0.1700067866113202,0.019468686277239716,0.18947547288855993
StyleMap,0.05054161798866205,0.0051138871844921795,0.055655505173154235
SunFontManager,0.01560192223678011,0.001690133498624887,0.017292055735404998
SurfaceData,0.046519411765021834,0.005714999999755117,0.05223441176477695
T2KFontScaler,0.10880149895082894,0.014436220581822158,0.1232377195326511
Thread,0.03991528693437398,0.004561811205054747,0.04447709813942873
TransformHelper,0.12280770264255031,0.013246192693625503,0.13605389533617582
Type1Font,0.12055956607312523,0.016865767938987534,0.13742533401211277
URL,0.04120359742983762,0.005889864418619252,0.04709346184845687
UnixFileSystem,0.16128069383039567,0.0197834337544444,0.18106412758484008
ZipCoder,0.035853484849653665,0.00469772727283822,0.04055121212249189
ZipFile,0.10271648464585864,0.011524694534708883,0.11424117918056753
ZipInputStream,0.08713981818183321,0.00855295454532483,0.09569277272715804
