method,package1,dram1,energy
java.awt,0.08512604130950073,0.011839807692533802,0.09696584900203453
java.awt.font,0.03471620094268491,0.00482900684340074,0.039545207786085654
java.awt.geom,0.15471485555646253,0.02094394444491762,0.17565880000138015
java.awt.image,1.3102622950443719,0.15919032757195822,1.46945262261633
java.io,0.3980924590208793,0.04735713642532569,0.445449595446205
java.lang,0.29175159489638797,0.03620907813252088,0.32796067302890886
java.nio,0.0849183628528766,0.009619306034581745,0.09453766888745835
java.text,0.1345327272733398,0.013281818181977456,0.14781454545531728
java.util,0.2713794299142862,0.03585072111723827,0.30723015103152446
java.util.regex,0.005834865395208398,0.0007078662780148155,0.006542731673223214
java.util.zip,8.986274782248868,1.0734811443507017,10.05975592659957
javassist,0.07307476486100659,0.009059990819356052,0.08213475568036263
org.apache.batik.bridge,0.33320471936974333,0.0405434016428883,0.3737481210126316
org.apache.batik.css.engine,0.07767960145967243,0.008726138376634572,0.086405739836307
org.apache.batik.css.engine.sac,0.027230915508386827,0.003663821841814921,0.030894737350201748
org.apache.batik.css.engine.value.svg,0.02919806345063044,0.004168855856506502,0.03336691930713694
org.apache.batik.dom,0.07170355757541873,0.008952454545402416,0.08065601212082114
org.apache.batik.dom.svg,0.13896455284454554,0.016230420884473733,0.15519497372901928
org.apache.batik.ext.awt.image,0.41233954622848323,0.04894670362533704,0.4612862498538203
org.apache.batik.ext.awt.image.codec.png,1.7289046831657595,0.20104415625187205,1.9299488394176316
org.apache.batik.ext.awt.image.rendered,1.179519288698191,0.14130934570594153,1.3208286344041325
org.apache.batik.gvt,0.060951919910735855,0.007250306400160383,0.06820222631089624
org.apache.batik.gvt.font,0.07114126491245482,0.0071972631576085275,0.07833852807006335
org.apache.batik.gvt.renderer,0.07421873688222286,0.010183299902028469,0.08440203678425133
org.apache.batik.gvt.text,0.03950253593953794,0.00535429305862773,0.04485682899816567
org.apache.batik.util,0.02174227547293334,0.0021505188087847047,0.023892794281718047
org.apache.crimson.parser,0.05681818181818182,0.0074218181815178304,0.06423999999969965
org.dacapo.harness,0.08959656829565289,0.011094621354581693,0.10069118965023459
org.dacapo.parser,0.010493944000725874,0.0015338652323659135,0.012027809233091788
sun.awt,0.11033734839531602,0.0152291032638069,0.12556645165912292
sun.awt.geom,0.03872916666686824,0.00582999999982416,0.04455916666669239
sun.awt.image,0.0756228774191714,0.009526180645212486,0.08514905806438389
sun.dc.pr,0.6050670614975913,0.07322364044116718,0.6782907019387584
sun.font,1.0001483689616621,0.12113817726896325,1.1212865462306254
sun.java2d,0.31029334551896565,0.040860615090921766,0.3511539606098874
sun.java2d.loops,0.13690070370446644,0.019283611111219484,0.15618431481568593
sun.java2d.pipe,0.22003052518701965,0.02654044444400589,0.24657096963102554
sun.nio.ch,0.016881258836863432,0.0021942236835177696,0.0190754825203812
sun.nio.cs,0.024177257242999545,0.0032099562697699745,0.02738721351276952
sun.text.bidi,0.04153654999936407,0.006039000000176505,0.04757554999954058
