method,package1,package2,dram1,dram2,energy
java.awt,0.0,0.04122933333322483,0.0,0.005449999999958284,0.046679333333183116
java.awt.geom,0.0,0.03562205262852857,0.0,0.004467894736814758,0.040089947365343326
java.awt.image,0.0,0.7050022234140296,0.0,0.0887136049960149,0.7937158284100445
java.io,0.0,0.38222823610093987,0.0,0.054419615229507806,0.4366478513304477
java.lang,0.3751206412974592,0.30404419327765525,0.05081074839037929,0.04238569024576726,0.7723612732112609
java.nio,0.0,0.11458333333333334,0.0,0.01405555555545477,0.1286388888887881
java.util,0.020268287879210246,0.09852846170516033,0.002621818181951036,0.01316546663910696,0.13458403440542857
java.util.jar,0.0,0.0319054525764563,0.0,0.004132334232389819,0.03603778680884612
java.util.zip,0.15164190547505194,6.538693557409715,0.019972774709157107,0.9073287656048011,7.617637003198726
javassist,0.016804984848656175,0.09176016811410243,0.002146136363631795,0.013363695363983193,0.12407498469037359
javassist.bytecode,0.0,0.04122933333322483,0.0,0.005449999999958284,0.046679333333183116
org.apache.batik.bridge,0.056093568635105916,0.0,0.005159999883108724,0.0,0.06125356851821464
org.apache.batik.css.engine,0.07142863571083832,0.07968163296202599,0.0066113426210801995,0.009503110776915671,0.1672247220708602
org.apache.batik.css.engine.value.svg,0.02756201811485288,0.0,0.0035549315474688943,0.0,0.031116949662321775
org.apache.batik.dom,0.052058278480773525,0.014091537495056069,0.005489686938459588,0.001665543192281751,0.07330504610657095
org.apache.batik.dom.svg,0.21426893524910562,0.04029596531285763,0.02744347252472062,0.005798419726640391,0.2878067928133243
org.apache.batik.dom.util,0.0,0.0,0.0,0.0,0.0
org.apache.batik.ext.awt.geom,0.0588957755789534,0.0,0.005138024931042561,0.0,0.06403380050999596
org.apache.batik.ext.awt.image,0.0,0.33404769047615374,0.0,0.04539028099961263,0.37943797147576636
org.apache.batik.ext.awt.image.codec.png,0.0,0.7117690331855202,0.0,0.10020505499507759,0.8119740881805978
org.apache.batik.ext.awt.image.rendered,0.0,0.7545873321181389,0.0,0.09423459821493299,0.8488219303330719
org.apache.batik.gvt,0.0,0.05538188558808061,0.0,0.007487092803709999,0.0628689783917906
org.apache.batik.gvt.text,0.0,0.07578681333239526,0.0,0.010076466666473102,0.08586327999886836
org.apache.batik.i18n,0.0,0.036522368115768436,0.0,0.0054494453638554465,0.04197181347962388
org.apache.crimson.jaxp,0.06954150000165099,0.0,0.00975099999983892,0.0,0.07929250000148991
org.dacapo.harness,0.0,0.04986872290248215,0.0,0.007461484835580556,0.0573302077380627
sun.awt.image,0.0,0.056592866399789624,0.0,0.007803349423678038,0.06439621582346766
sun.dc.pr,0.0,0.33637382779628233,0.0,0.03902876002359216,0.3754025878198745
sun.font,0.0,0.5634907698827638,0.0,0.07189542353073533,0.6353861934134991
sun.java2d,0.0,0.0,0.0,0.0,0.0
sun.java2d.loops,0.0,0.15201931763766097,0.0,0.02038802140279851,0.17240733904045946
sun.nio.ch,0.0,0.05780306666905138,0.0,0.007644333333377694,0.06544740000242907
sun.nio.cs,0.0,0.01681079365135658,0.0,0.0025580952381474955,0.019368888889504075
