method,package1,dram1,energy
AbstractElement$NamedNodeHashMap.setNamedItemNS|AbstractElement.setAttributeNS|SAXDocumentFactory.startElement,0.042532045301182014,0.004688216460792653,0.04722026176197467
AbstractParentNode.checkAndRemove|AbstractParentNode.appendChild|AbstractAttr.setNodeValue,0.042532045301182014,0.004688216460792653,0.04722026176197467
AffineTransform.setToScale|AffineTransform.getScaleInstance|StandardGlyphVector.initFontData,0.07756767875878752,0.008743660362192757,0.08631133912098028
Any2sRGBRed.applyLut_INT|Any2LsRGBRed.copyData|AbstractRed.getData,0.08403704508212641,0.009119695232378764,0.09315674031450517
Any2sRGBRed.applyLut_INT|Any2LsRGBRed.copyData|PadRed.copyData,0.07629792322982852,0.007314832057120813,0.08361275528694934
AreaOp.pruneEdges|AreaOp.calculate|Area.pathToCurves,0.038279166667052784,0.0046774999991612285,0.04295666666621401
ArrayDeque.addLast|ArrayDeque.add|ZipFile.releaseInflater,0.013330426741333192,0.002082710924221753,0.015413137665554945
Arrays.copyOf|Path2D$Float.expandCoords|Path2D$Float.needRoom,0.05363281322855284,0.006022301726063536,0.059655114954616374
AttributeInfo.read|CodeAttribute.<init>|AttributeInfo.read,0.05979806320189921,0.008223308866925341,0.06802137206882455
AttributedString$AttributeMap.entrySet|AttributeValues.merge|AttributeValues.fromMap,0.07072390701217222,0.008519527563147843,0.07924343457532007
BasicStroke.createStrokedShape|GlyphLayout.getStrikethroughShape|GlyphLayout.getDecorationOutline,0.08532733333251799,0.009899999999712842,0.09522733333223084
BidiBase.requiresBidi|Bidi.requiresBidi|TextLine.fastCreateTextLine,0.08451163636544318,0.009433636363444914,0.09394527272888809
BufferedInputStream.<init>|BufferedInputStream.<init>|ClassPool.makeClass,0.009584164523491038,0.001299601959116303,0.01088376648260734
BufferedInputStream.read|DataInputStream.readUnsignedShort|AttributeInfo.read,0.04212995811726542,0.0045344807886898725,0.04666443890595529
BufferedInputStream.read|DataInputStream.readUnsignedShort|DataInputStream.readUTF,0.07583519360759869,0.011998365955677959,0.08783355956327665
CRC.updateCRC|IDATOutputStream.flush|IDATOutputStream.write,0.18802075573438048,0.01840362774745772,0.2064243834818382
CSSEngine.addMatchingRules|CSSEngine.getCascadedStyleMap|CSSEngine.getComputedStyle,0.03791806358665019,0.003040844007128355,0.04095890759377854
ClassLoader.defineClass1|ClassLoader.defineClass|SecureClassLoader.defineClass,0.09566094877347046,0.010158470121320793,0.10581941889479125
ClassLoader.findBootstrapClass|ClassLoader.findBootstrapClassOrNull|ClassLoader.loadClass,0.0686183333340468,0.009479545454572266,0.07809787878861905
ClassLoader.findLoadedClass0|ClassLoader.findLoadedClass|DacapoClassLoader.loadClass,0.018512287741310102,0.0024749777664736725,0.020987265507783775
ClassLoader.getPackage|ClassLoader.getPackage|URLClassLoader.getAndVerifyPackage,0.0,0.0,0.0
ClassPool.compress|ClassPool.makeClass|ClassPool.makeClass,0.06838300000021667,0.0065975000002759365,0.07498050000049261
ColorModel.getLinearRGB16TosRGB8LUT|ColorModel.getGray16TosRGB8LUT|ComponentColorModel.setupLUTs,0.07357783333403252,0.009367500000128832,0.08294533333416135
ComponentSampleModel.getPixel|Raster.getPixel|BandCombineOp.filter,0.031501440000138235,0.003952799999678972,0.03545423999981721
ConcurrentHashMap$KeyIterator.next|SunFontManager.initialiseDeferredFonts|SunFontManager.loadFonts,0.07168040151692381,0.008440201563030336,0.08012060307995415
ConcurrentHashMap.tabAt|ConcurrentHashMap.get|ConcurrentHashMap.containsKey,0.02955449509883353,0.0037295121633460757,0.03328400726217961
Config$1.<clinit>|Config.getThreadCount|Config.preprocessArgs,0.011055041666774441,0.000945000000001528,0.012000041666775969
Config.parse|TestHarness.<init>|TestHarness.main,0.03613283333227929,0.0040574999996655,0.04019033333194479
ConfigFile.<init>|ConfigFile.<init>|Config.parse,0.004913333334116032,0.0006800000004053193,0.005593333334521351
ConstPool.readOne|ConstPool.read|ConstPool.<init>,0.03597624796368872,0.004444491253719304,0.040420739217408026
Curve.insertMove|Area.pathToCurves|Area.<init>,0.038279166667052784,0.0046774999991612285,0.04295666666621401
DataBufferInt.setElem|SinglePixelPackedSampleModel.setSamples|WritableRaster.setSamples,0.05481311599558394,0.006745787006339546,0.06155890300192348
Deflater.deflateBytes|Deflater.deflate|Deflater.deflate,8.514896107650147,0.8498335465686031,9.364729654218749
DuctusRenderingEngine.feedConsumer|DuctusRenderingEngine.createStrokedShape|BasicStroke.createStrokedShape,0.057973146869391486,0.005628033098476286,0.06360117996786777
ExtendedGeneralPath.makeRoom|ExtendedGeneralPath.lineTo|AWTPathProducer.linetoRel,0.06323848974153347,0.005548336179109273,0.06878682592064274
FileChannelImpl.position0|FileChannelImpl.position|TrueTypeFont.getTableBuffer,0.03272448945471501,0.0041028475157122895,0.0368273369704273
FileOutputStream.writeBytes|FileOutputStream.write|BufferedOutputStream.write,0.09701516666730944,0.011624999999185093,0.10864016666649454
FontConfiguration.setEncoding|FontConfiguration.<init>|MFontConfiguration.<init>,0.03506228152300713,0.00419832363985955,0.03926060516286668
FontRunIterator.next|GlyphLayout.layout|ExtendedTextSourceLabel.createGV,0.0533135590257224,0.005832588745945946,0.05914614777166834
FormatRed.makeSampleModel|FormatRed.<init>|PNGRegistryEntry$1.run,0.033076853332458994,0.003616800000406026,0.03669365333286502
GaussianBlurRed8Bit.boxFilterH|GaussianBlurRed8Bit.copyData|PadRed.copyData,0.13679326872281844,0.014079350445902635,0.15087261916872108
GaussianBlurRed8Bit.boxFilterV|GaussianBlurRed8Bit.copyData|PadRed.copyData,0.21209697741110378,0.02031220293935784,0.23240918035046162
GraphicsPrimitive.getUniqueID|GraphicsPrimitiveMgr$1.compare|TimSort.mergeLo,0.03979499999938222,0.005382500000753983,0.045177500000136206
GraphicsUtil.copyData|GraphicsUtil.copyData|FormatRed.copyData,0.08873873575720195,0.01083070909070419,0.09956944484790614
GraphicsUtil.copyData|GraphicsUtil.copyData|MorphologyOp.filter,0.025548153756176226,0.0025463680295382037,0.02809452178571443
GraphicsUtil.divide_INT_PACK_Data|GraphicsUtil.divideAlpha|GraphicsUtil.coerceData,0.1640699044761516,0.019744601016756444,0.18381450549290806
GraphicsUtil.mult_INT_PACK_Data|GraphicsUtil.multiplyAlpha|GraphicsUtil.coerceData,0.04821919370167466,0.005678576227858212,0.05389776992953287
HashMap$HashIterator.nextNode|HashMap$KeyIterator.next|AttributeValues.merge,0.06793227272613546,0.008918181818113557,0.07685045454424902
HashMap.hash|HashMap.containsKey|HashSet.contains,0.025323533846958318,0.003233050784243538,0.028556584631201858
HashSet.add|AttributedString$AttributeMap.entrySet|AbstractMap.size,0.05824307692296899,0.007316923077152566,0.06556000000012156
ImagingLib.transformBI|ImagingLib.filter|AffineTransformOp.filter,0.08326871542623766,0.010124618000457341,0.09339333342669501
Inflater.inflateBytes|Inflater.inflate|InflaterInputStream.read,0.46133054897203907,0.05545875604399059,0.5167893050160297
InflaterInputStream.<init>|ZipFile$ZipFileInflaterInputStream.<init>|ZipFile.getInputStream,0.04427960014192168,0.006893558337061935,0.05117315847898361
InflaterInputStream.close|ZipFile$ZipFileInflaterInputStream.close|Resource.getBytes,0.03276484848439312,0.0047818181817340455,0.03754666666612717
JPEGImageDecoderImpl.readJPEGStream|JPEGImageDecoderImpl.decodeAsBufferedImage|JPEGRegistryEntry$1.run,0.0,0.0,0.0
JarFile.initializeVerifier|JarFile.getInputStream|URLClassPath$JarLoader$2.getInputStream,0.022462727271583084,0.003565909090949306,0.02602863636253239
LongVector.addElement|ConstPool.addItem0|ConstPool.readOne,0.0,0.0,0.0
LookupOp.byteFilter|LookupOp.filter|ComponentTransferRed.copyData,0.09454524544257026,0.01061803177619712,0.10516327721876738
Main.execute|NativeMethodAccessorImpl.invoke0|NativeMethodAccessorImpl.invoke,0.011055041666774441,0.000945000000001528,0.012000041666775969
MaskBlit.MaskBlit|Blit$GeneralMaskBlit.Blit|DrawImage.blitSurfaceData,0.07383985902040448,0.008641378954233463,0.08248123797463794
MaskFill.MaskFill|AlphaColorPipe.renderPathTile|AAShapePipe.renderTiles,0.024234388888375917,0.003142222222070106,0.027376611110446022
Math.min|AAShapePipe.renderTiles|AAShapePipe.renderPath,0.050059041666978984,0.006514374999900004,0.05657341666687899
MethodAccessorGenerator$1.run|MethodAccessorGenerator$1.run|AccessController.doPrivileged,0.03759322482258246,0.005234020620658697,0.04282724544324116
MorphologyOp.filter|MorphologyOp.filter|MorphologyRable8Bit.createRendering,0.7363416619151655,0.08743855996644909,0.8237802218816146
MorphologyOp.isBetter|MorphologyOp.filter|MorphologyOp.filter,0.0737945714698946,0.008867223112792828,0.08266179458268742
MorphologyRable8Bit.createRendering|PadRable8Bit.createRendering|PadRable8Bit.createRendering,0.031878981016472685,0.0021824893832788927,0.034061470399751576
NativeThread.current|NativeThreadSet.add|FileChannelImpl.size,0.05041659160922075,0.006014738295618334,0.05643132990483908
PNGEncodeParam.filterRow|PNGImageEncoder.encodePass|PNGImageEncoder.writeIDAT,0.3982272852605173,0.04209390272367797,0.4403211879841953
PNGImageEncoder.encodePass|PNGImageEncoder.writeIDAT|PNGImageEncoder.encode,0.22464283071856855,0.03150641022742141,0.25614924094598995
PNGRed.decodePaethFilter|PNGRed.decodePass|PNGRed.decodeImage,0.0457968333333459,0.004290000000158519,0.05008683333350442
PNGRed.processPixels|PNGRed.decodePass|PNGRed.decodeImage,0.0457968333333459,0.004290000000158519,0.05008683333350442
PNGTranscoderInternalCodecWriteAdapter.writeImage|PNGTranscoder.writeImage|ImageTranscoder.transcode,0.053624200000518214,0.006943999999445318,0.06056819999996353
Path2D$Double.append|Path2D$Double.<init>|AffineTransform.createTransformedShape,0.024197196114652212,0.002673587549932049,0.02687078366458426
Path2D$Float.expandCoords|Path2D$Float.needRoom|Path2D$Float.lineTo,0.03169672714631863,0.004478247925678626,0.03617497507199726
PathFiller.writeAlpha8|PathFiller.writeAlpha|Rasterizer.getAlpha,0.1260238563803635,0.014994826155740826,0.14101868253610433
PathParser.<init>|AbstractSVGPathSegList.doParse|SVGOMAnimatedPathData$BaseSVGPathSegList.revalidate,0.03554554749911136,0.005094956567825979,0.04064050406693734
PathStroker.cInitialize|PathStroker.<init>|DuctusRenderingEngine.createStrokedShape,0.07355614285760176,0.009665357143083905,0.08322150000068566
PathStroker.endPath|DuctusRenderingEngine.feedConsumer|DuctusRenderingEngine.createStrokedShape,0.09604090728227563,0.011274005360062617,0.10731491264233825
PathStroker.endPath|Rasterizer.endPath|DuctusRenderingEngine.getAATileGenerator,0.08374567119686965,0.010084826155682361,0.09383049735255201
RandomAccessFile.<init>|RandomAccessFile.<init>|TrueTypeFont$1.run,0.03272448945471501,0.0041028475157122895,0.0368273369704273
RandomAccessFile.close0|RandomAccessFile.access$000|RandomAccessFile$1.close,0.03658339378030711,0.004381013291324809,0.04096440707163192
RandomAccessFile.open0|RandomAccessFile.open|RandomAccessFile.<init>,0.05041659160922075,0.006014738295618334,0.05643132990483908
SAXSVGDocumentFactory.createDocument|SAXSVGDocumentFactory.createDocument|XMLAbstractTranscoder.transcode,0.027202144573522224,0.0038441905931620845,0.031046335166684307
SVGAnimatedPathDataSupport.handlePathSegList|SVGPathElementBridge.buildShape|SVGShapeElementBridge.createGraphicsNode,0.03169672714631863,0.004478247925678626,0.03617497507199726
SVGBridgeExtension.registerTags|BridgeContext.registerSVGBridges|BridgeContext.setDocument,0.01908347557352408,0.0021266616489894518,0.021210137222513532
SVGComposite$OverCompositeContext_INT_PACK_UNPRE.precompose_INT_PACK|SVGComposite$AlphaPreCompositeContext_INT_PACK.precompose|SVGComposite$OverCompositeContext_INT_PACK_UNPRE.compose,0.18867984616078298,0.024425389390108042,0.21310523555089103
SVGDOMImplementation$TspanElementFactory.<init>|SVGDOMImplementation.<clinit>|SVGAbstractTranscoder.<init>,0.012576819949857132,0.0020172421990896764,0.014594062148946808
SVGDOMImplementation.<clinit>|SVGAbstractTranscoder.<init>|ImageTranscoder.<init>,0.013330426741333192,0.002082710924221753,0.015413137665554945
SVGDOMImplementation.createCSSEngine|ExtensibleDOMImplementation.createCSSEngine|BridgeContext.initializeDocument,0.028429007355016824,0.003240939894310381,0.0316699472493272
SVGDOMImplementation.createElementNS|SVGOMDocument.createElementNS|SVGDOMImplementation.createDocument,0.038357185585623316,0.004858651371039226,0.04321583695666254
SVGOMGElement.getLocalName|AbstractElement.invalidateElementsByTagName|AbstractElement.nodeAdded,0.017824490529694016,0.002001064763040438,0.019825555292734453
SVGShapeElementBridge.instantiateGraphicsNode|AbstractGraphicsNodeBridge.createGraphicsNode|SVGShapeElementBridge.createGraphicsNode,0.03191790468276751,0.004584403595780555,0.03650230827854807
ShapeSpanIterator.nextSpan|Region.appendSpans|SunGraphics2D.validateCompClip,0.041845785514231536,0.005302197694223244,0.04714798320845478
SinglePixelPackedSampleModel.getPixels|Raster.getPixels|GraphicsUtil.copyData,0.08337436587689312,0.009921368029814248,0.09329573390670737
SinglePixelPackedSampleModel.getPixels|Raster.getPixels|PNGImageEncoder.encodePass,0.21111483247835733,0.022355606748744095,0.23347043922710142
SinglePixelPackedSampleModel.getSamples|Raster.getSamples|AbstractRed.copyBand,0.0677275184715393,0.0060173711839849675,0.07374488965552427
SinglePixelPackedSampleModel.setPixels|WritableRaster.setPixels|GraphicsUtil.copyData,0.18410275490555617,0.021294413291461207,0.20539716819701737
SinglePixelPackedSampleModel.setSamples|WritableRaster.setSamples|AbstractRed.copyBand,0.07804010261123583,0.006569259673833696,0.08460936228506952
SinglePixelPackedSampleModel.setSamples|WritableRaster.setSamples|LookupOp.byteFilter,0.10853724138337882,0.01279203525041537,0.1213292766337942
String.indexOf|String.indexOf|CSSClassCondition.match,0.012908625351651704,0.0015108137103519268,0.01441943906200363
String.indexOf|String.indexOf|ClassLoader.checkName,0.03733533593031613,0.004657399775976035,0.04199273570629216
String.indexOf|String.indexOf|String.indexOf,0.051379825329135716,0.0067029727906358205,0.05808279811977154
String.indexOf|String.indexOf|URLClassPath$FileLoader.getResource,0.06838300000021667,0.0065975000002759365,0.07498050000049261
StyleMap.getValue|CSSEngine.getComputedStyle|CSSEngine.getComputedStyle,0.05054161798866205,0.0051138871844921795,0.055655505173154235
SunFontManager.addToFontList|SunFontManager.registerFontFile|SunFontManager.registerFonts,0.01560192223678011,0.001690133498624887,0.017292055735404998
SurfaceData.initIDs|SurfaceData.<clinit>|SunGraphicsEnvironment.createGraphics,0.046519411765021834,0.005714999999755117,0.05223441176477695
T2KFontScaler.getGlyphImageNative|T2KFontScaler.getGlyphImage|FileFont.getGlyphImage,0.05316438783959532,0.007149553914907914,0.060313941754503234
T2KFontScaler.getGlyphMetricsNative|T2KFontScaler.getGlyphMetrics|FileFont.getGlyphMetrics,0.05563711111123363,0.007286666666914244,0.06292377777814788
Thread.blockedOn|System$2.blockedOn|AbstractInterruptibleChannel.blockedOn,0.03991528693437398,0.004561811205054747,0.04447709813942873
TransformHelper.Transform|DrawImage.renderImageXform|DrawImage.transformImage,0.12280770264255031,0.013246192693625503,0.13605389533617582
Type1Font.initNames|Type1Font.verify|Type1Font.<init>,0.044943782176621365,0.005968920979194564,0.050912703155815926
Type1Font.nextTokenType|Type1Font.initNames|Type1Font.verify,0.07561578389650388,0.010896846959792969,0.08651263085629685
URL.getPath|URLStreamHandler.parseURL|Handler.parseURL,0.04120359742983762,0.005889864418619252,0.04709346184845687
UnixFileSystem.canonicalize0|UnixFileSystem.canonicalize|File.getCanonicalPath,0.03991528693437398,0.004561811205054747,0.04447709813942873
UnixFileSystem.delete0|UnixFileSystem.delete|File.delete,0.1213654068960217,0.01522162254938965,0.13658702944541135
ZipCoder.<init>|ZipCoder.get|ZipFile.<init>,0.035853484849653665,0.00469772727283822,0.04055121212249189
ZipFile.getEntry|ZipFile.getEntry|JarFile.getEntry,0.013953845029193687,0.0009425687916497789,0.014896413820843465
ZipFile.read|ZipFile.access$1400|ZipFile$ZipFileInputStream.read,0.08876263961666495,0.010582125743059105,0.09934476535972406
ZipInputStream.<init>|ZipInputStream.<init>|Benchmark.unpackZipStream,0.031819666666706325,0.0034075000003213067,0.03522716666702763
ZipInputStream.ensureOpen|ZipInputStream.read|Benchmark.fileFromInputStream,0.055320151515126884,0.005145454545003524,0.060465606060130406
