method,package1,package2,dram1,dram2,energy
AWTGVTGlyphVector.computeGlyphLogicalBounds|AWTGVTGlyphVector.getLogicalBounds|GlyphLayout.getUnderlineShape,0.0,0.1260664444412719,0.0,0.01921374999993633,0.14528019444120824
AbstractElement.getAttributeNS|SVGStylableElement.getCSSClass|CSSClassCondition.match,0.03785266076118952,0.0,0.004620103989924898,0.0,0.04247276475111442
AbstractElement.invalidateElementsByTagName|AbstractElement.nodeAdded|AbstractParentNode.appendChild,0.0,0.10447258945325767,0.0,0.011870749083027168,0.11634333853628484
AbstractNode.getXblParentNode|AbstractElement.getCSSParentNode|CSSEngine.getCSSParentNode,0.04170548573887757,0.0,0.00364892979811851,0.0,0.04535441553699608
AbstractParentNode$ElementsByTagNameNS.initialize|AbstractParentNode$ElementsByTagNameNS.initialize|AbstractParentNode$ElementsByTagNameNS.initialize,0.0,0.05501265811925937,0.0,0.007318717948699985,0.062331376067959354
AbstractSVGPathSegList$PathSegListBuilder.linetoRel|PathParser._parsel|PathParser.parsel,0.04866510037234066,0.0,0.004911104342331387,0.0,0.053576204714672046
AffineTransform.transform|RectIterator.currentSegment|Path2D$Double.append,0.0,0.13332100000116046,0.0,0.018980000000131742,0.1523010000012922
Any2sRGBRed.applyLut_INT|Any2LsRGBRed.copyData|PadRed.copyData,0.0,0.04857238095220444,0.0,0.007068571428784967,0.05564095238098941
AttributeInfo.<init>|LineNumberAttribute.<init>|AttributeInfo.read,0.0,0.052015555556863546,0.0,0.00729666666706584,0.05931222222392939
AttributeValues.equals|Font.equals|HashMap.getNode,0.0,0.08215333333646413,0.0,0.012409999999969536,0.09456333333643366
Benchmark.fileFromInputStream|Benchmark.extractFileResource|Benchmark.prepareJars,0.01934523809523809,0.0,0.002695714285870227,0.0,0.022040952381108314
Buffer.nextGetIndex|DirectByteBuffer.get|Type1Font.initNames,0.0,0.05531325000265497,0.0,0.007196250000106375,0.06250950000276134
Buffer.nextGetIndex|DirectByteBuffer.get|Type1Font.nextTokenType,0.0,0.05531325000265497,0.0,0.007196250000106375,0.06250950000276134
BufferedInputStream.<init>|BufferedInputStream.<init>|ClassPool.makeClass,0.05098983654061605,0.0,0.00712764266372069,0.0,0.05811747920433674
BufferedInputStream.read|DataInputStream.readUnsignedByte|ConstPool.readOne,0.0,0.06134814583432065,0.0,0.008250000000013339,0.06959814583433399
BufferedInputStream.read|DataInputStream.readUnsignedShort|ClassFile.read,0.04218093939275466,0.0,0.005587272727346068,0.0,0.04776821212010073
BufferedInputStream.read|DataInputStream.readUnsignedShort|CodeAttribute.<init>,0.0,0.06430386110837892,0.0,0.008744999999736238,0.07304886110811516
BufferedInputStream.read|FilterInputStream.read|DataInputStream.readChar,0.0,0.07580566666244218,0.0,0.011329999999967793,0.08713566666240997
BufferedOutputStream.flush|PrintStream.flush|FilterOutputStream.flush,0.015417037036968397,0.0,0.001737777777668304,0.0,0.0171548148146367
ByteArrayInputStream.available|BufferedInputStream.read|DataInputStream.readFully,0.0,0.07237844883573875,0.0,0.009319238055498232,0.08169768689123699
ByteBuffer.get|DirectByteBuffer.get|HeapByteBuffer.put,0.0,0.09185766666875377,0.0,0.011654999999639887,0.10351266666839365
ByteInterleavedRaster.setPixels|GraphicsUtil.copyData_FALLBACK|GraphicsUtil.copyData,0.0,0.05150017929304029,0.0,0.005658645615379115,0.0571588249084194
CRC.updateCRC|IDATOutputStream.flush|IDATOutputStream.write,0.0,0.03859449999921101,0.0,0.005850000000161041,0.04444449999937205
CSSEngine.getComputedStyle|CSSUtilities.getComputedStyle|PaintServer.convertStroke,0.04641568613847113,0.0,0.0047628775289010605,0.0,0.05117856366737219
Class.forName0|Class.forName|ImagingLib.<clinit>,0.0,0.06505831241104247,0.0,0.007461539473006537,0.07251985188404901
Class.getDeclaredConstructors0|Class.privateGetDeclaredConstructors|Class.getConstructor0,0.03230224242328073,0.0,0.0043272727275369535,0.0,0.036629515150817686
ClassFileAssembler.getLength|AccessorGenerator.emitMethod|MethodAccessorGenerator.emitInvoke,0.0,0.05099670588285389,0.0,0.006787058823272887,0.057783764706126776
ClassLoader.defineClass1|ClassLoader.defineClass|SecureClassLoader.defineClass,0.13155658466374154,0.1690581155022468,0.01622676079630966,0.023059238055823612,0.3399006990181216
ClassLoader.findBootstrapClass|ClassLoader.findBootstrapClassOrNull|ClassLoader.loadClass,0.043902727271029784,0.05209688888862729,0.00608363636390343,0.0075433333331602626,0.10962658585672076
ClassPoolTail.openClassfile|ClassPool.openClassfile|CtClassType.getClassFile3,0.0,0.042868235292296636,0.0,0.004814117646995275,0.04768235293929191
ColorModel.getLinearRGB16TosRGB8LUT|ColorModel.getGray16TosRGB8LUT|ComponentColorModel.setupLUTs,0.0,0.05502760448712709,0.0,0.006977570202202372,0.062005174689329465
ComponentSampleModel.getPixel|Raster.getPixel|BandCombineOp.filter,0.0,0.042110662887591375,0.0,0.005091815086127957,0.047202477973719334
ComponentSampleModel.getPixel|Raster.getPixel|PNGRed.processPixels,0.0,0.03174826134340928,0.0,0.0036000242130719076,0.03534828555648119
CompositeFont.getMapper|CompositeFont.canDisplay|Font.canDisplay,0.0,0.055663999999524094,0.0,0.00863499999953395,0.06429899999905804
CompositeGlyphMapper.charsToGlyphs|StandardGlyphVector.init|StandardGlyphVector.<init>,0.0,0.09925501454004486,0.0,0.016561333093946754,0.11581634763399161
ConcreteTextLayoutFactory.createTextLayout|StrokingTextPainter.getTextChunk|StrokingTextPainter.computeTextRuns,0.0,0.08748399999846393,0.0,0.012754999999742722,0.10023899999820665
ConfigFile.<init>|ConfigFile.<init>|Config.parse,0.005353714285385129,0.0,0.0007885714285727035,0.0,0.006142285713957832
DataBuffer.<init>|DataBufferInt.<init>|SinglePixelPackedSampleModel.createDataBuffer,0.0,0.04433910000152536,0.0,0.005858999999873049,0.05019810000139841
DataInputStream.<init>|CtClassType.<init>|ClassPool.makeClass,0.015349185185321537,0.0,0.0017422222224046922,0.0,0.01709140740772623
DataInputStream.readInt|AttributeInfo.<init>|SignatureAttribute.<init>,0.0,0.09979697619079766,0.0,0.012516428571091507,0.11231340476188917
Deflater.deflateBytes|Deflater.deflate|Deflater.deflate,0.0,5.795877398409173,0.0,0.8203185740128088,6.616195972421982
DestinationType.getTranscoder|SVGConverter.execute|Main.execute,0.04413284848425349,0.0,0.004540606060846135,0.0,0.04867345454509962
DirectByteBuffer.get|Type1Font.nextTokenType|Type1Font.initNames,0.0,0.06805764705709674,0.0,0.009487058823544751,0.0775447058806415
DuctusRenderingEngine.createStrokedShape|BasicStroke.createStrokedShape|StrokeShapePainter.getPaintedArea,0.0,0.0954483157899966,0.0,0.01393736842057255,0.10938568421056916
FcFontManager.getFontPathNative|X11FontManager.getFontPath|SunFontManager.getPlatformFontPath,0.0,0.04475933333257368,0.0,0.005474999999933061,0.05023433333250674
FileFontStrike.getGlyphMetrics|FileFontStrike.getGlyphMetrics|SunLayoutEngine.nativeLayout,0.0,0.08500166666150713,0.0,0.011640000000018821,0.09664166666152595
FileOutputStream.open0|FileOutputStream.open|FileOutputStream.<init>,0.0167875238098315,0.0,0.0023428571429186767,0.0,0.019130380952750176
FileOutputStream.writeBytes|FileOutputStream.write|BufferedOutputStream.flushBuffer,0.08473713888815837,0.0,0.012016666666568199,0.0,0.09675380555472657
FileOutputStream.writeBytes|FileOutputStream.write|BufferedOutputStream.write,0.02311866666665689,0.0,0.0016099999996489107,0.0,0.0247286666663058
Font.defaultLineMetrics|Font.getLineMetrics|AWTGVTFont.getLineMetrics,0.0,0.11921161111038397,0.0,0.015922916666416615,0.1351345277768006
FontFamilyResolver.<clinit>|SVGTextElementBridge.getFontList|SVGTextElementBridge.getAttributeMap,0.0,0.07264033333154253,0.0,0.01067916666700815,0.08331949999855068
FontFamilyResolver.resolve|FontFamilyResolver.resolve|SVGTextElementBridge.getFontList,0.0,0.09189866666565648,0.0,0.012670000000071013,0.10456866666572749
GaussianBlurRed8Bit.boxFilterV|GaussianBlurRed8Bit.copyData|PadRed.copyData,0.0,0.050017435893935785,0.0,0.006315384615355959,0.056332820509291746
GraphicsPrimitiveMgr.initIDs|GraphicsPrimitiveMgr.<clinit>|DrawLine.locate,0.0,0.17268899999423104,0.0,0.02539499999996527,0.19808399999419632
GraphicsUtil.mult_INT_PACK_Data|GraphicsUtil.multiplyAlpha|GraphicsUtil.coerceData,0.0,0.04857238095220444,0.0,0.007068571428784967,0.05564095238098941
ICC_Profile.getInstance|ColorSpace.getInstance|GraphicsUtil.<clinit>,0.0,0.021750208333287446,0.0,0.0035681250003184077,0.025318333333605853
ImagingLib.transformBI|ImagingLib.filter|AffineTransformOp.filter,0.0,0.052015555556863546,0.0,0.00729666666706584,0.05931222222392939
Inflater.inflateBytes|Inflater.inflate|InflaterInputStream.read,0.5283325515870346,0.10728252463562427,0.07567422619036906,0.013972755790994499,0.7252620582040226
Inflater.reset|Inflater.reset|ZipFile.releaseInflater,0.014933259259258327,0.0,0.0019211111110861464,0.0,0.016854370370344474
InputEntity.maybeWhitespace|Parser2.maybeElement|Parser2.content,0.07009418181802506,0.0,0.006901363636808872,0.0,0.07699554545483393
JPEGImageDecoderImpl.allocateDataBuffer|JPEGImageDecoderImpl.readJPEGStream|JPEGImageDecoderImpl.decodeAsBufferedImage,0.0,0.0,0.0,0.0,0.0
JarFile.getManifestFromReference|JarFile.getManifest|TestHarness.<init>,0.027436761904807226,0.0,0.0035085714282883725,0.0,0.030945333333095598
JarFile.initializeVerifier|JarFile.getInputStream|URLClassPath$JarLoader$2.getInputStream,0.04242777777835727,0.0,0.005950000000009621,0.0,0.04837777777836689
Locale.toString|TrueTypeFont.getLCIDFromLocale|TrueTypeFont.getFamilyName,0.0,0.0903200833341139,0.0,0.012274166666732828,0.10259425000084672
Math.abs|PNGRed.paethPredictor|PNGRed.decodePaethFilter,0.0,0.0527924512054292,0.0,0.006617772000369061,0.05941022320579826
MorphologyOp.filter|MorphologyOp.filter|MorphologyRable8Bit.createRendering,0.0,0.36186470476478994,0.0,0.04673223809530476,0.4085969428600947
MorphologyOp.isBetter|MorphologyOp.filter|MorphologyOp.filter,0.0,0.061718095239484676,0.0,0.008614285714516189,0.07033238095400086
NullSurfaceData.<init>|NullSurfaceData.<clinit>|SurfaceData.initIDs,0.0,0.11521400000492575,0.0,0.018229999999675783,0.13344400000460155
NumberParser.parseFloat|PathParser._parsel|PathParser.parsel,0.032706678237530366,0.0,0.0043184588591654366,0.0,0.037025137096695804
Object.hashCode|AttributedCharacterIterator$Attribute.hashCode|AttributeEntry.hashCode,0.0,0.07977300000493415,0.0,0.011695000000448392,0.09146800000538254
PNGEncodeParam.filterRow|PNGImageEncoder.encodePass|PNGImageEncoder.writeIDAT,0.0,0.6298302382700631,0.0,0.08798235644182492,0.7178125947118881
PNGImageEncoder.encodePass|PNGImageEncoder.writeIDAT|PNGImageEncoder.encode,0.0,0.05893286666735851,0.0,0.0080373333330499,0.0669702000004084
PNGRed.decodePaethFilter|PNGRed.decodePass|PNGRed.decodeImage,0.0,0.09742264905420824,0.0,0.013257258373604015,0.11067990742781225
PNGRed.decodePass|PNGRed.decodeImage|PNGRed.parse_IEND_chunk,0.0,0.050203280714982375,0.0,0.005718584872657225,0.0559218655876396
PNGRed.processPixels|PNGRed.decodePass|PNGRed.decodeImage,0.0,0.1993839264258371,0.0,0.026541984278879716,0.22592591070471682
ParsedURL.getHandler|ParsedURL.parseURL|ParsedURL.<init>,0.03230224242328073,0.0,0.0043272727275369535,0.0,0.036629515150817686
Parser2.<init>|XMLReaderImpl.parse|SAXDocumentFactory.createDocument,0.05293972727447522,0.0,0.0065959090905821395,0.0,0.05953563636505736
Parser2.maybeComment|Parser2.maybeMisc|Parser2.parseInternal,0.0,0.06083177777408207,0.0,0.00819000000006377,0.06902177777414584
Parser2.maybeDoctypeDecl|Parser2.parseInternal|Parser2.parse,0.043902727271029784,0.0,0.00608363636390343,0.0,0.049986363634933216
Path2D$Float.expandCoords|Path2D$Float.needRoom|Path2D$Float.lineTo,0.026214793845540787,0.0,0.0024722556281294985,0.0,0.028687049473670286
Path2D$Float.needRoom|Path2D$Float.lineTo|DuctusRenderingEngine$FillAdapter.appendLine,0.0,0.08462484210694877,0.0,0.01142473684210512,0.09604957894905389
PathFiller.writeAlpha8|PathFiller.writeAlpha|Rasterizer.getAlpha,0.0,0.08331300000039239,0.0,0.01420500000009876,0.09751800000049116
PathParser._parsel|PathParser.parsel|PathParser.doParse,0.01742012610813181,0.0,0.0015900960783535249,0.0,0.019010222186485334
PathParser.skipCommaSpaces2|PathParser._parsel|PathParser.parsel,0.04641568613847113,0.0,0.0047628775289010605,0.0,0.05117856366737219
PathStroker.endPath|DuctusRenderingEngine.feedConsumer|DuctusRenderingEngine.createStrokedShape,0.0,0.07322707495342823,0.0,0.010166062843155247,0.08339313779658347
Pattern.closure|Pattern.sequence|Pattern.expr,0.0,0.048905727269646544,0.0,0.007306363636334109,0.05621209090598065
PixelToParallelogramConverter.fill|ValidatePipe.fill|SunGraphics2D.fill,0.0,0.12847900000148607,0.0,0.01923999999962689,0.14771900000111296
Properties.load0|Properties.load|FcFontConfiguration.readFcInfo,0.0,0.12075647222445696,0.0,0.01607374999967861,0.13683022222413557
RandomAccessFile.<init>|RandomAccessFile.<init>|TrueTypeFont$1.run,0.0,0.10911066666206656,0.0,0.013355000000350021,0.12246566666241658
Raster.getPixel|PNGRed.processPixels|PNGRed.decodePass,0.0,0.03174826134340928,0.0,0.0036000242130719076,0.03534828555648119
ResourceBundle$Control.newBundle|ResourceBundle.loadBundle|ResourceBundle.findBundle,0.041478500000367714,0.0,0.005923749999965366,0.0,0.04740225000033308
ResourceBundle.getObject|ResourceBundle.getString|LocalizableSupport.getString,0.04261794444432275,0.0,0.006387500000275597,0.0,0.049005444444598346
SVGAnimatedPathDataSupport.handlePathSegList|SVGPathElementBridge.buildShape|SVGShapeElementBridge.createGraphicsNode,0.1511438743792215,0.0,0.01514009635645452,0.0,0.16628397073567602
SVGComposite$OverCompositeContext_INT_PACK_UNPRE.precompose_INT_PACK|SVGComposite$AlphaPreCompositeContext_INT_PACK.precompose|SVGComposite$OverCompositeContext_INT_PACK_UNPRE.compose,0.0,0.11064694736667566,0.0,0.015205263158254396,0.12585221052493006
SVGDOMImplementation$FilterElementFactory.create|SVGDOMImplementation.createElementNS|SVGOMDocument.createElementNS,0.0,0.046847777780688674,0.0,0.006619999999707539,0.053467777780396214
SVGDOMImplementation.createElementNS|SVGOMDocument.createElementNS|SVGDOMImplementation.createDocument,0.031431166665909886,0.0,0.0028140000002167646,0.0,0.03424516666612665
SVGPathElementBridge.buildShape|SVGShapeElementBridge.createGraphicsNode|GVTBuilder.buildGraphicsNode,0.030191213170646006,0.0,0.0039609293140201824,0.0,0.034152142484666186
ShapeNode.getPrimitiveBounds|AbstractGraphicsNode.getTransformedPrimitiveBounds|AbstractGraphicsNode.getTransformedBounds,0.0,0.0954483157899966,0.0,0.01393736842057255,0.10938568421056916
SignatureFileVerifier.<clinit>|JarFile.initializeVerifier|JarFile.getInputStream,0.04242777777835727,0.0,0.005950000000009621,0.0,0.04837777777836689
SinglePixelPackedSampleModel.getPixels|Raster.getPixels|GraphicsUtil.copyData,0.0,0.029101971203496012,0.0,0.00264772766213236,0.031749698865628374
SinglePixelPackedSampleModel.getPixels|Raster.getPixels|PNGImageEncoder.encodePass,0.0,0.03928633333513668,0.0,0.0060249999999844785,0.04531133333512116
SinglePixelPackedSampleModel.setPixels|WritableRaster.setPixels|GraphicsUtil.copyData,0.0,0.07927039837761891,0.0,0.0101071520219846,0.08937755039960352
SinglePixelPackedSampleModel.setSamples|WritableRaster.setSamples|AbstractRed.copyBand,0.0,0.14874133333408585,0.0,0.02091200000011466,0.16965333333420052
SinglePixelPackedSampleModel.setSamples|WritableRaster.setSamples|LookupOp.byteFilter,0.0,0.07373052631737664,0.0,0.01089789473687568,0.08462842105425232
StrikeCache.getStrikeRef|StrikeCache.getStrikeRef|Font2D.getStrike,0.0,0.09197999999742024,0.0,0.013795000000148622,0.10577499999756886
String.hashCode|Hashtable.get|ClassPool.getCached,0.016364767677103632,0.0,0.00191272727320808,0.0,0.018277494950311713
StringBuffer.append|Parser2.parseLiteral|Parser2.maybeElement,0.0,0.10447258945325767,0.0,0.011870749083027168,0.11634333853628484
SunFontManager.getInstalledFontFamilyNames|SunGraphicsEnvironment.getAvailableFontFamilyNames|SunGraphicsEnvironment.getAvailableFontFamilyNames,0.0,0.04151399999884435,0.0,0.004991249999521743,0.0465052499983661
SunFontManager.initIDs|SunFontManager.access$200|SunFontManager$1.run,0.0,0.042201500000373926,0.0,0.006505714285724804,0.04870721428609873
SunGraphics2D.makeHints|SunGraphics2D.setRenderingHint|GraphicsUtil.createGraphics,0.0,0.05483000000337294,0.0,0.009995000000344591,0.06482500000371753
SunLayoutEngine.nativeLayout|SunLayoutEngine.layout|GlyphLayout$EngineRecord.layout,0.0,0.040100333329367764,0.0,0.005809999999958865,0.04591033332932663
T2KFontScaler.getGlyphImageNative|T2KFontScaler.getGlyphImage|FileFont.getGlyphImage,0.0,0.12333166666697555,0.0,0.01820999999957469,0.14154166666655024
T2KFontScaler.getGlyphMetricsNative|T2KFontScaler.getGlyphMetrics|FileFont.getGlyphMetrics,0.0,0.3151456299658884,0.0,0.04540240685225065,0.3605480368181391
TestHarness.main|Harness.main|NativeMethodAccessorImpl.invoke0,0.010314666666090487,0.0,0.0013600000008106385,0.0,0.011674666666901125
Throwable.fillInStackTrace|Throwable.fillInStackTrace|Throwable.<init>,0.041478500000367714,0.0,0.005923749999965366,0.0,0.04740225000033308
TrueTypeFont.init|TrueTypeFont.<init>|TrueTypeFont.<init>,0.0,0.08523388235377806,0.0,0.010644705882655484,0.09587858823643354
Type1Font.nextTokenType|Type1Font.initNames|Type1Font.verify,0.0,0.19476491176593458,0.0,0.0269186029410294,0.22168351470696399
URLClassLoader.defineClass|URLClassLoader.access$100|URLClassLoader$1.run,0.05009569230717786,0.0,0.006242307692166203,0.0,0.05633799999934406
UnixFileSystem.getBooleanAttributes0|UnixFileSystem.getBooleanAttributes|File.isDirectory,0.0,0.04714622222107007,0.0,0.007606666666914759,0.054752888887984824
UnixFileSystem.list|File.list|File.list,0.0,0.059051500000350636,0.0,0.008216249999804859,0.0672677500001555
Vector.ensureCapacityHelper|Vector.addElement|ClassLoader.addClass,0.014933259259258327,0.0,0.0019211111110861464,0.0,0.016854370370344474
Vector.indexOf|AttributedString.addAttributeRunData|AttributedString.addAttributeImpl,0.0,0.08188899999853068,0.0,0.012344999999792586,0.09423399999832327
X11FontManager.registerFontDir|SunFontManager$2.run|AccessController.doPrivileged,0.0,0.06868923809296185,0.0,0.010599285714739554,0.0792885238077014
ZipFile.read|ZipFile.access$1400|ZipFile$ZipFileInputStream.read,0.012537111111062888,0.0,0.001815555555502349,0.0,0.014352666666565237
ZipInputStream.<init>|ZipInputStream.<init>|Benchmark.unpackZipStream,0.03090422222218573,0.0,0.005398750000141364,0.0,0.0363029722223271
