method,Energy
java.io,51.25520912487165
java.net,18.90647039841693
java.lang,7.608291087975302
com.mysql.jdbc,5.069291599133997
java.util,4.697729592755064
com.oltpbenchmark,2.417687774265429
sun.misc,2.3631356980319054
java.util.regex,1.660733263843735
com.mysql.jdbc.util,1.3624299031053704
org.hsqldb,0.5154950417121076
sun.nio.cs,0.4757533247903094
com.oltpbenchmark.api,0.47047541764077083
java.util.zip,0.3323189117061847
com.oltpbenchmark.benchmarks.twitter.util,0.27500733933615346
sun.reflect,0.23214751224194444
org.hsqldb.jdbc,0.2249292662641902
java.nio,0.169288984868148
com.sun.org.apache.xerces.internal.parsers,0.15004131646535226
com.oltpbenchmark.util,0.147939013591201
ch.ethz.ssh2.util,0.11492975471465681
javassist.bytecode,0.10735618330440638
com.oltpbenchmark.benchmarks.twitter,0.10568325972905104
org.apache.commons.configuration,0.08323686397250549
java.nio.charset,0.08210376287543843
com.sun.org.apache.xerces.internal.impl,0.06830191437962604
com.sun.org.apache.xerces.internal.dom,0.06011262446146328
java.text,0.05929223228503842
java.lang.reflect,0.05332344602812087
sun.util.calendar,0.050453928405961704
org.hsqldb.store,0.03985492981748315
org.hsqldb.persist,0.03764943683714483
java.math,0.03753538603121674
org.apache.commons.collections15.map,0.03586850547834365
java.security,0.03541340028777425
com.oltpbenchmark.catalog,0.033457923378942246
java.util.concurrent,0.02849234517261938
org.apache.commons.jxpath.ri,0.02663555925981074
org.apache.commons.jxpath.ri.compiler,0.023735411678108456
org.apache.log4j.helpers,0.023645004202054516
sun.net,0.022778750266105315
org.apache.commons.jxpath.ri.parser,0.022507669659826812
java.sql,0.022353214375191405
sun.util.locale.provider,0.02217349032962756
org.apache.commons.configuration.tree.xpath,0.021557391167564166
javassist,0.02089922955331766
org.apache.commons.jxpath.ri.model.beans,0.02083371925227199
com.sun.org.apache.xerces.internal.jaxp,0.020472108745879503
org.hsqldb.dbinfo,0.020334510840460653
com.oltpbenchmark.benchmarks.twitter.procedures,0.018654219092874375
java.util.concurrent.atomic,0.01806775919396085
org.apache.commons.lang.text,0.017235765047829494
sun.net.www.protocol.jar,0.01647163692042242
sun.util.resources,0.01567285272106744
chappie,0.015647142714281633
org.apache.log4j,0.0155913779101231
org.hsqldb.index,0.013971231356601624
org.hsqldb.types,0.013583803299756447
com.mysql.jdbc.authentication,0.013581057799889234
sun.instrument,0.012117039066630711
sun.net.spi,0.011987106051001777
org.apache.commons.jxpath.ri.axes,0.011632891783306313
sun.net.www,0.01162568256192503
org.apache.commons.configuration.tree,0.011394597182997047
org.hsqldb.lib,0.01056971668191606
org.apache.commons.cli,0.009528491217519353
org.apache.commons.io,0.009225346826163163
com.sun.org.apache.xerces.internal.impl.validation,0.008923576650670506
sun.net.util,0.00890435579966389
org.apache.log4j.spi,0.008813537267641797
java.util.concurrent.locks,0.008497080636471616
org.hsqldb.navigator,0.008336194802943541
java.beans,0.008223242122164855
jdk.xml.internal,0.007744380758133252
java.lang.ref,0.007428287486157231
com.sun.org.apache.xerces.internal.utils,0.0072332304351899425
sun.text.resources,0.0069620087160800915
javax.xml.parsers,0.006234601668998576
org.hsqldb.resources,0.0054340987517908085
sun.security.provider,0.005399914210913211
org.apache.commons.jxpath.ri.model,0.0050283085659027
javassist.compiler,0.0048297379462979816
org.apache.commons.collections15.keyvalue,0.004364924041276299
com.oltpbenchmark.distributions,0.0031540658085627976
sun.util.locale,0.0015794602732637647
com.sun.org.apache.xerces.internal.impl.dv.dtd,0.0009847491238590847
com.sun.beans,0.0
sun.reflect.generics.parser,0.0
sun.reflect.generics.repository,0.0
