dram,epoch,package,socket
0.0,0,0.0,1
0.0,1,0.0,1
0.1617149999983667,2,1.5942379999905825,1
0.0,3,0.0,1
0.00406499999735388,4,0.032593000010820106,1
0.0,5,0.0,1
0.0,6,0.0,1
0.0,7,0.0,1
0.004080000002431916,8,0.03668199999083299,1
0.0,9,0.0,1
0.03620999999839114,10,0.33813499999814667,1
0.0,11,0.0,1
0.004080000002431916,12,0.0374149999988731,1
0.0,13,0.0,1
0.0,14,0.0,1
0.0,15,0.0,1
0.004019999996671686,16,0.04180900000210386,1
0.0,17,0.0,1
0.004080000002431916,18,0.033263999997871,1
0.0,19,0.0,1
0.022140000000945292,20,0.19854700000723824,1
0.0,21,0.0,1
0.002909999999246793,22,0.03283700000611134,1
0.0,23,0.0,1
0.02282999999806634,24,0.21502699999837205,1
0.0,25,0.0,1
0.016410000003816094,26,0.2282100000011269,1
0.0,27,0.0,1
0.021600000000034925,28,0.23297199998341966,1
0.0,29,0.0,1
0.03451499999573571,30,0.3720090000133496,1
0.0,31,0.0,1
0.002940000002126908,32,0.030090000000200234,1
0.0,33,0.0,1
0.019770000002608867,34,0.2363279999990482,1
0.0,35,0.0,1
0.015224999999190914,36,0.21344000000681262,1
0.0,37,0.0,1
0.023354999997536652,38,0.22857699998712633,1
0.0,39,0.0,1
0.03845999999975902,40,0.3675539999967441,1
0.0,41,0.0,1
0.016199999998207204,42,0.15972900000633672,1
0.0,43,0.0,1
0.016935000003286405,44,0.16125499999907333,1
0.0,45,0.0,1
0.022185000001627486,46,0.21069300000090152,1
0.0,47,0.0,1
0.015299999999115244,48,0.2036740000039572,1
0.0,49,0.0,1
0.14816999999675318,50,1.27276599999459,1
0.0,51,0.0,1
0.002909999999246793,52,0.029968999995617196,1
0.0,53,0.0,1
0.0,54,0.0,1
0.0,55,0.0,1
0.0,56,0.030029000001377426,1
0.0,57,0.0,1
0.004080000002431916,58,0.02899200000683777,1
0.0,59,0.0,1
0.04136999999900581,60,0.315124000000651,1
0.0,61,0.0,1
0.01464000000123633,62,0.12622099999862257,1
0.0,63,0.0,1
0.020984999999200227,64,0.20861800000420772,1
0.0,65,0.0,1
0.015120000000024447,66,0.21118199998454656,1
0.0,67,0.0,1
0.014085000002523884,68,0.22430400001758244,1
0.0,69,0.0,1
0.0240300000004936,70,0.2879639999882784,1
0.0,71,0.0,1
0.00992999999652966,72,0.125,1
0.0,73,0.0,1
0.013980000003357418,74,0.19549499999266118,1
0.0,75,0.0,1
0.015734999997221166,76,0.18902600002184045,1
0.0,77,0.0,1
0.018359999998210697,78,0.22253399998589884,1
0.0,79,0.0,1
0.0354750000005879,80,0.35766600001079496,1
0.0,81,0.0,1
0.015165000000706641,82,0.1331789999967441,1
0.0,83,0.0,1
0.021540000001550652,84,0.26196299999719486,1
0.0,85,0.0,1
0.034379999997327104,86,0.33386199999949895,1
0.0,87,0.0,1
0.03267000000414555,88,0.3065800000040326,1
0.0,89,0.0,1
0.040079999995214166,90,0.42907699999341276,1
0.0,91,0.0,1
0.016875000001164153,92,0.18737800000235438,1
0.0,93,0.0,1
0.026249999998981366,94,0.2540890000091167,1
0.0,95,0.0,1
0.014549999999871943,96,0.2751469999930123,1
0.0,97,0.0,1
0.016335000003891764,98,0.26867700000002515,1
0.0,99,0.0,1
0.03314999999929569,100,0.39703300000110175,1
0.0,101,0.0,1
0.016319999998813728,102,0.19207800000731368,1
0.0,103,0.0,1
0.03252000000065891,104,0.3042599999898812,1
0.0,105,0.0,1
0.03423000000111642,106,0.33258099999511614,1
0.0,107,0.0,1
0.027314999999362044,108,0.2546990000118967,1
0.0,109,0.0,1
0.04093500000089989,110,0.402222000004258,1
0.0,111,0.0,1
0.01969499999904656,112,0.18670699998619966,1
0.0,113,0.0,1
0.035729999999603024,114,0.3306270000030054,1
0.0,115,0.0,1
0.028290000002016313,116,0.262817000009818,1
0.0,117,0.0,1
0.030974999997852137,118,0.3086549999861745,1
0.0,119,0.0,1
0.03883499999938067,120,0.36737100000027567,1
0.0,121,0.0,1
0.023640000003069872,122,0.2125850000011269,1
0.0,123,0.0,1
0.03146999999808031,124,0.289429000011296,1
0.0,125,0.0,1
0.0315599999994447,126,0.299499000000651,1
0.0,127,0.0,1
0.026565000000118744,128,0.2955329999822425,1
0.0,129,0.0,1
0.04249500000150874,130,0.37469500000588596,1
0.0,131,0.0,1
0.02012999999715248,132,0.20373500000278,1
0.0,133,0.0,1
0.03240000000005239,134,0.27355899999383837,1
0.0,135,0.0,1
0.03262499999982538,136,0.2770390000077896,1
0.0,137,0.0,1
0.02727000000231783,138,0.24908399999549147,1
0.0,139,0.0,1
0.047445000000152504,140,0.4776009999914095,1
0.0,141,0.0,1
0.016199999998207204,142,0.15087800001492724,1
0.0,143,0.0,1
0.03625500000271131,144,0.3513189999939641,1
0.0,145,0.0,1
0.028454999996029073,146,0.2532960000098683,1
0.0,147,0.0,1
0.03276000000187196,148,0.33874499998637475,1
0.0,149,0.0,1
0.044205000001966255,150,0.4626459999999497,1
0.0,151,0.0,1
0.020159999996394617,152,0.2049560000159545,1
0.0,153,0.0,1
0.032190000001719454,154,0.3311159999866504,1
0.0,155,0.0,1
0.028154999999969732,156,0.29113800000050105,1
0.0,157,0.0,1
0.036179999999149004,158,0.3673090000083903,1
0.0,159,0.0,1
0.0440100000014354,160,0.4322509999910835,1
0.0,161,0.0,1
0.016274999998131534,162,0.13507099999696948,1
0.0,163,0.0,1
0.02034000000276137,164,0.23053000001527835,1
0.0,165,0.0,1
0.03277499999967404,166,0.34551999998802785,1
0.0,167,0.0,1
0.028214999998454005,168,0.2984619999915594,1
0.0,169,0.0,1
0.048855000000912696,170,0.39032000000588596,1
0.0,171,0.0,1
0.016275000001769513,172,0.14025900000706315,1
0.0,173,0.0,1
0.03259499999694526,174,0.24731400000746362,1
0.0,175,0.0,1
0.03268500000194763,176,0.2378539999917848,1
0.0,177,0.0,1
0.018584999997983687,178,0.22711199999321252,1
0.0,179,0.0,1
0.04144500000256812,180,0.31555200000002515,1
0.0,181,0.0,1
0.020399999997607665,182,0.14776600000914186,1
0.0,183,0.0,1
0.03140999999959604,184,0.2697139999945648,1
0.0,185,0.0,1
0.03148499999952037,186,0.261597000004258,1
0.0,187,0.0,1
0.026190000000497093,188,0.2697749999933876,1
0.0,189,0.0,1
0.042555000003630994,190,0.3873290000046836,1
0.0,191,0.0,1
0.02044499999828986,192,0.1420899999939138,1
0.0,193,0.0,1
0.028050000000803266,194,0.21716300000844058,1
0.0,195,0.0,1
0.02915999999822816,196,0.22308399999747053,1
0.0,197,0.0,1
0.02560500000254251,198,0.22595200000796467,1
0.0,199,0.0,1
0.04258499999923515,200,0.32311999998637475,1
0.0,201,0.0,1
0.01571999999578111,202,0.16540500000701286,1
0.0,203,0.0,1
0.025725000003149034,204,0.2316290000017034,1
0.0,205,0.0,1
0.021074999996926636,206,0.22711100000014994,1
0.0,207,0.0,1
0.025710000005346956,208,0.24090600000636186,1
0.0,209,0.0,1
0.03326999999626423,210,0.29937799999606796,1
0.0,211,0.0,1
0.020325000001321314,212,0.15087800000037532,1
0.0,213,0.0,1
0.027989999998681014,214,0.2133179999946151,1
0.0,215,0.0,1
0.018060000002151355,216,0.17883299999812152,1
0.0,217,0.0,1
0.019365000000107102,218,0.22442699999373872,1
0.0,219,0.0,1
0.028500000000349246,220,0.2756340000050841,1
0.0,221,0.0,1
0.01690499999676831,222,0.13079900000593625,1
0.0,223,0.0,1
0.015825000002223533,224,0.1685179999913089,1
0.0,225,0.0,1
0.020445000001927838,226,0.21649200000683777,1
0.0,227,0.0,1
0.023339999999734573,228,0.22241200000280514,1
0.0,229,0.0,1
0.026789999996253755,230,0.30883799999719486,1
0.0,231,0.0,1
0.013530000000173459,232,0.1406859999988228,1
0.0,233,0.0,1
0.015719999999419088,234,0.24297999999544118,1
0.0,235,0.0,1
0.018149999999877764,236,0.19921900000190362,1
0.0,237,0.0,1
0.016335000003891764,238,0.22638000000733882,1
0.0,239,0.0,1
0.030224999998608837,240,0.3327019999996992,1
0.0,241,0.0,1
0.02050500000041211,242,0.1508179999946151,1
0.0,243,0.0,1
0.02681999999913387,244,0.23956300001009367,1
0.0,245,0.0,1
0.02494500000102562,246,0.225585999985924,1
0.0,247,0.0,1
0.019784999996772967,248,0.23358200000075158,1
0.0,249,0.0,1
0.04423500000120839,250,0.35345399999641813,1
0.0,251,0.0,1
0.020400000001245644,252,0.13940500000899192,1
0.0,253,0.0,1
0.027389999999286374,254,0.21288999999524094,1
0.0,255,0.0,1
0.025634999998146668,256,0.2410890000028303,1
0.0,257,0.0,1
0.023415000003296882,258,0.2486570000037318,1
0.0,259,0.0,1
0.02215499999874737,260,0.2731939999939641,1
0.0,261,0.0,1
0.014565000001312,262,0.14007500000298023,1
0.0,263,0.0,1
0.024509999999281717,264,0.22033700000611134,1
0.0,265,0.0,1
0.019889999999577412,266,0.21875,1
0.0,267,0.0,1
0.028529999999591382,268,0.29327399999601766,1
0.0,269,0.0,1
0.02695500000118045,270,0.2929080000030808,1
0.0,271,0.0,1
0.011669999999867287,272,0.14562999999907333,1
0.0,273,0.0,1
0.022290000000793952,274,0.21899399999529123,1
0.0,275,0.0,1
0.023414999999658903,276,0.216736000002129,1
0.0,277,0.0,1
0.016319999998813728,278,0.21636900000157766,1
0.0,279,0.0,1
0.030360000000655418,280,0.3309330000047339,1
0.0,281,0.0,1
0.01171500000054948,282,0.11254899998311885,1
0.0,283,0.0,1
0.02336999999897671,284,0.22656199999619275,1
0.0,285,0.0,1
0.020475000001169974,286,0.21875,1
0.0,287,0.0,1
0.022724999998899875,288,0.21563700000115205,1
0.0,289,0.0,1
0.019260000000940636,290,0.3015750000049593,1
0.0,291,0.0,1
0.013484999999491265,292,0.14209000000846572,1
0.0,293,0.0,1
0.016335000000253785,294,0.21923800000513438,1
0.0,295,0.0,1
0.015269999999873107,296,0.21496599999954924,1
0.0,297,0.0,1
0.020489999998972053,298,0.19110099998943042,1
0.0,299,0.0,1
0.02455499999996391,300,0.33447300000989344,1
0.0,301,0.0,1
0.014609999998356216,302,0.1508789999934379,1
0.0,303,0.0,1
0.02058000000397442,304,0.205138999997871,1
0.0,305,0.0,1
0.021629999995639082,306,0.2655030000023544,1
0.0,307,0.0,1
0.019260000004578615,308,0.2085570000053849,1
0.0,309,0.0,1
0.03225000000020373,310,0.33001699998567346,1
0.0,311,0.0,1
0.015764999996463303,312,0.1580810000159545,1
0.0,313,0.0,1
0.018060000002151355,314,0.26501499999722,1
0.0,315,0.0,1
0.018074999999953434,316,0.21032699999341276,1
0.0,317,0.0,1
0.014070000001083827,318,0.23681600000418257,1
0.0,319,0.0,1
0.02516999999716063,320,0.36309799998707604,1
0.0,321,0.0,1
0.014610000001994194,322,0.15466400001605507,1
0.0,323,0.0,1
0.0123299999977462,324,0.20141599999624304,1
0.0,325,0.0,1
0.01576500000010128,326,0.2647699999943143,1
0.0,327,0.0,1
0.012180000001535518,328,0.20977800000400748,1
0.0,329,0.0,1
0.021600000000034925,330,0.328125,1
0.0,331,0.0,1
0.00886499999978696,332,0.15069599999696948,1
0.0,333,0.0,1
0.013995000001159497,334,0.24066100000345614,1
0.0,335,0.0,1
0.022199999999429565,336,0.2549440000002505,1
0.0,337,0.0,1
0.02102999999624444,338,0.24774199999228586,1
0.0,339,0.0,1
0.02937000000383705,340,0.36773700000776444,1
0.0,341,0.0,1
0.010575000000244472,342,0.12176500000350643,1
0.0,343,0.0,1
0.014009999998961575,344,0.23876900000323076,1
0.0,345,0.0,1
0.027959999999438878,346,0.24719299998832867,1
0.0,347,0.0,1
0.017550000000483124,348,0.23547300000791438,1
0.0,349,0.0,1
0.03689999999915017,350,0.33215399998880457,1
0.0,351,0.0,1
0.018120000000635628,352,0.15332000001217239,1
0.0,353,0.0,1
0.02179500000056578,354,0.2452389999962179,1
0.0,355,0.0,1
0.018749999999272404,356,0.24273699999321252,1
0.0,357,0.0,1
0.02695500000118045,358,0.23992900000303052,1
0.0,359,0.0,1
0.02621999999973923,360,0.34539800000493415,1
0.0,361,0.0,1
0.011099999999714782,362,0.15649399999529123,1
0.0,363,0.0,1
0.013979999999719439,364,0.24444599999696948,1
0.0,365,0.0,1
0.015210000001388835,366,0.24066199999651872,1
0.0,367,0.0,1
0.019814999999653082,368,0.2456660000170814,1
0.0,369,0.0,1
0.03193499999906635,370,0.339112000001478,1
0.0,371,0.0,1
0.02034000000276137,372,0.16815099999075755,1
0.0,373,0.0,1
0.030329999997775303,374,0.26391700000385754,1
0.0,375,0.0,1
0.024659999999130378,376,0.2418820000020787,1
0.0,377,0.0,1
0.020399999997607665,378,0.21276799999759533,1
0.0,379,0.0,1
0.03726000000460772,380,0.36999500000092667,1
0.0,381,0.0,1
0.016889999995328253,382,0.1549689999956172,1
0.0,383,0.0,1
0.02673000000140746,384,0.24292000000423286,1
0.0,385,0.0,1
0.027450000001408625,386,0.20837399999436457,1
0.0,387,0.0,1
0.032190000001719454,388,0.28009000000020023,1
0.0,389,0.0,1
0.031379999996715924,390,0.28485100000398234,1
0.0,391,0.0,1
0.018990000000485452,392,0.138611000002129,1
0.0,393,0.0,1
0.03247499999997672,394,0.23413099999015685,1
0.0,395,0.0,1
0.035429999999905704,396,0.27423100000305567,1
0.0,397,0.0,1
0.019875000001775334,398,0.21746800000255462,1
0.0,399,0.0,1
0.045344999998633284,400,0.37817399999767076,1
0.0,401,0.0,1
0.01630500000101165,402,0.12390099999902304,1
0.0,403,0.0,1
0.032565000001341105,404,0.24981700000353158,1
0.0,405,0.0,1
0.03637499999967986,406,0.28302000000257976,1
0.0,407,0.0,1
0.028229999996256083,408,0.21868899998662528,1
0.0,409,0.0,1
0.04123500000059721,410,0.34185800001432654,1
0.0,411,0.0,1
0.020385000003443565,412,0.15600599999015685,1
0.0,413,0.0,1
0.03319499999997788,414,0.27136199999949895,1
0.0,415,0.0,1
0.023939999999129213,416,0.2106330000096932,1
0.0,417,0.0,1
0.027959999999438878,418,0.24908399999549147,1
0.0,419,0.0,1
0.048930000000837026,420,0.37042200000723824,1
0.0,421,0.0,1
0.016169999998965068,422,0.12145999999484047,1
0.0,423,0.0,1
0.03140999999959604,424,0.19213899999158457,1
0.0,425,0.0,1
0.026760000000649597,426,0.1895749999966938,1
0.0,427,0.0,1
0.029804999998304993,428,0.20837400000891648,1
0.0,429,0.0,1
0.02321999999912805,430,0.23516900000686292,1
0.0,431,0.0,1
0.020295000002079178,432,0.11975099999108352,1
0.0,433,0.0,1
0.032490000001416774,434,0.19000200000300538,1
0.0,435,0.0,1
0.016379999997298,436,0.18701199999486562,1
0.0,437,0.0,1
0.016920000001846347,438,0.166443000009167,1
0.0,439,0.0,1
0.04658999999810476,440,0.2956540000013774,1
0.0,441,0.0,1
0.020475000001169974,442,0.1373289999901317,1
0.0,443,0.0,1
0.023399999998218846,444,0.19104000000515953,1
0.0,445,0.0,1
0.023310000004130416,446,0.184082000007038,1
0.0,447,0.0,1
0.01984499999889522,448,0.15887499999371357,1
0.0,449,0.0,1
0.03221999999732361,450,0.285277999995742,1
0.0,451,0.0,1
0.01696500000252854,452,0.12054400000488386,1
0.0,453,0.0,1
0.012194999999337597,454,0.1665039999934379,1
0.0,455,0.0,1
0.029610000001412118,456,0.21276900000520982,1
0.0,457,0.0,1
0.02275499999814201,458,0.16424499999266118,1
0.0,459,0.0,1
0.03267000000050757,460,0.29394600000523496,1
0.0,461,0.0,1
0.014549999999871943,462,0.11633299999812152,1
0.0,463,0.0,1
0.02854500000103144,464,0.18823200000042561,1
0.0,465,0.0,1
0.03445500000088941,466,0.22259500001382548,1
0.0,467,0.0,1
0.01224000000001979,468,0.16296399998827837,1
0.0,469,0.0,1
0.044279999998252606,470,0.2912600000126986,1
0.0,471,0.0,1
0.020399999997607665,472,0.1222529999940889,1
0.0,473,0.0,1
0.023909999999887077,474,0.16705399999045767,1
0.0,475,0.0,1
0.02575500000239117,476,0.21301200000743847,1
0.0,477,0.0,1
0.014025000000401633,478,0.16211000000475906,1
0.0,479,0.0,1
0.045569999998406274,480,0.2886960000032559,1
0.0,481,0.0,1
0.016335000003891764,482,0.09490999998524785,1
0.0,483,0.0,1
0.027524999997694977,484,0.1867670000065118,1
0.0,485,0.0,1
0.027959999999438878,486,0.21795700000075158,1
0.0,487,0.0,1
0.024615000002086163,488,0.19122300000162795,1
0.0,489,0.0,1
0.03736499999649823,490,0.28778100000636186,1
0.0,491,0.0,1
0.015180000002146699,492,0.1074829999852227,1
0.0,493,0.0,1
0.03281999999671825,494,0.1915889999945648,1
0.0,495,0.0,1
0.024660000002768356,496,0.18524200000683777,1
0.0,497,0.0,1
0.013950000000477303,498,0.18719499999133404,1
0.0,499,0.0,1
0.03208499999891501,500,0.25903300000936724,1
0.0,501,0.0,1
0.02043000000048778,502,0.12029999999504071,1
0.0,503,0.0,1
0.024449999997159466,504,0.18914800000493415,1
0.0,505,0.0,1
0.016410000003816094,506,0.18762200001219753,1
0.0,507,0.0,1
0.02336999999897671,508,0.18810999998822808,1
0.0,509,0.0,1
0.04327499999999418,510,0.2872320000024047,1
0.0,511,0.0,1
0.015240000000630971,512,0.09845000000495929,1
0.0,513,0.0,1
0.032715000001189765,514,0.19341999998141546,1
0.0,515,0.0,1
0.02576999999655527,516,0.18994100001873448,1
0.0,517,0.0,1
0.032790000001114095,518,0.18926999998802785,1
0.0,519,0.0,1
0.034004999997705454,520,0.24017400000593625,1
0.0,521,0.0,1
0.015120000003662426,522,0.14630100000067614,1
0.0,523,0.0,1
0.029204999998910353,524,0.18579099999624304,1
0.0,525,0.0,1
0.030374999998457497,526,0.18579099999624304,1
0.0,527,0.0,1
0.016320000002451707,528,0.18505900001036935,1
0.0,529,0.0,1
0.027375000001484295,530,0.26806599998963065,1
0.0,531,0.0,1
0.015165000000706641,532,0.10174600001482759,1
0.0,533,0.0,1
0.021584999998594867,534,0.21032699999341276,1
0.0,535,0.0,1
0.01690499999676831,536,0.160887999998522,1
0.0,537,0.0,1
0.01578000000154134,538,0.2064819999941392,1
0.0,539,0.0,1
0.026235000001179287,540,0.2664190000068629,1
0.0,541,0.0,1
0.01164000000062515,542,0.09661799999594223,1
0.0,543,0.0,1
0.022740000000339933,544,0.21112100000027567,1
0.0,545,0.0,1
0.01735499999631429,546,0.17828400000871625,1
0.0,547,0.0,1
0.021660000002157176,548,0.20397899999807123,1
0.0,549,0.0,1
0.043154999999387655,550,0.3282469999976456,1
0.0,551,0.0,1
0.016920000001846347,552,0.12792999998782761,1
0.0,553,0.0,1
0.022784999997384148,554,0.1777950000105193,1
0.0,555,0.0,1
0.026250000002619345,556,0.22051999998802785,1
0.0,557,0.0,1
0.013409999999566935,558,0.16803000001527835,1
0.0,559,0.0,1
0.021014999998442363,560,0.3011479999986477,1
0.0,561,0.0,1
0.014549999999871943,562,0.12817399999767076,1
0.0,563,0.0,1
0.015750000002299203,564,0.17065400000137743,1
0.0,565,0.0,1
0.03035999999701744,566,0.22381599999789614,1
0.0,567,0.0,1
0.012269999999261927,568,0.1683960000082152,1
0.0,569,0.0,1
0.04249500000150874,570,0.30468699999619275,1
0.0,571,0.0,1
0.018135000002075685,572,0.140625,1
0.0,573,0.0,1
0.024539999998523854,574,0.20013500000641216,1
0.0,575,0.0,1
0.026789999999891734,576,0.19036799999594223,1
0.0,577,0.0,1
0.027464999999210704,578,0.20989999998710118,1
0.0,579,0.0,1
0.02448000000003958,580,0.2382810000126483,1
0.0,581,0.0,1
0.015750000002299203,582,0.12048399998457171,1
0.0,583,0.0,1
0.01864499999646796,584,0.18981900000653695,1
0.0,585,0.0,1
0.025590000001102453,586,0.18695100001059473,1
0.0,587,0.0,1
0.018720000003668247,588,0.1846919999952661,1
0.0,589,0.0,1
0.026174999999057036,590,0.26934800000162795,1
0.0,591,0.0,1
0.020384999999805586,592,0.1170049999927869,1
0.0,593,0.0,1
0.021629999995639082,594,0.18444799999997485,1
0.0,595,0.0,1
0.023325000001932494,596,0.18585199999506585,1
0.0,597,0.0,1
0.013950000000477303,598,0.184692000009818,1
0.0,599,0.0,1
0.0261449999998149,600,0.2602539999934379,1
0.0,601,0.0,1
0.018060000002151355,602,0.122986000002129,1
0.0,603,0.0,1
0.02209499999662512,604,0.19622800000070129,1
0.0,605,0.0,1
0.026850000002013985,606,0.19268799999554176,1
0.0,607,0.0,1
0.022049999999580905,608,0.19543500000145286,1
0.0,609,0.0,1
0.03192000000126427,610,0.27752699999837205,1
0.0,611,0.0,1
0.02035499999692547,612,0.09893799999554176,1
0.0,613,0.0,1
0.031425000001036096,614,0.21698000001197215,1
0.0,615,0.0,1
0.019770000002608867,616,0.20464999999967404,1
0.0,617,0.0,1
0.016859999999724096,618,0.1795049999927869,1
0.0,619,0.0,1
0.024434999999357387,620,0.30816600000252947,1
0.0,621,0.0,1
0.008819999999104766,622,0.12670900000375696,1
0.0,623,0.0,1
0.016859999999724096,624,0.1726080000080401,1
0.0,625,0.0,1
0.026279999998223502,626,0.22509699998772703,1
0.0,627,0.0,1
0.0210300000035204,628,0.1970220000075642,1
0.0,629,0.0,1
0.02329499999905238,630,0.25994899999932386,1
0.0,631,0.0,1
0.020160000000032596,632,0.13415500000701286,1
0.0,633,0.0,1
0.026385000001027947,634,0.21624699998938013,1
0.0,635,0.0,1
0.023879999997006962,636,0.18231199998990633,1
0.0,637,0.0,1
0.028560000002471497,638,0.23462000001745764,1
0.0,639,0.0,1
0.04201499999908265,640,0.34332200000062585,1
0.0,641,0.0,1
0.01924499999950058,642,0.14562999999907333,1
0.0,643,0.0,1
0.015149999999266583,644,0.20227100000192877,1
0.0,645,0.0,1
0.02397000000200933,646,0.24847399999271147,1
0.0,647,0.0,1
0.03197999999974854,648,0.23535099999571685,1
0.0,649,0.0,1
0.046619999997346895,650,0.3789680000045337,1
0.0,651,0.0,1
0.009240000003046589,652,0.12890599999809638,1
0.0,653,0.0,1
0.03154499999800464,654,0.2541500000079395,1
0.0,655,0.0,1
0.03246000000217464,656,0.25866699998732656,1
0.0,657,0.0,1
0.03197999999974854,658,0.3002320000086911,1
0.0,659,0.0,1
0.043679999998857966,660,0.4305420000018785,1
0.0,661,0.0,1
0.008160000001225853,662,0.06542999998782761,1
0.0,663,0.0,1
0.03221999999732361,664,0.2630000000062864,1
0.0,665,0.0,1
0.031050000001414446,666,0.2654420000035316,1
0.0,667,0.0,1
0.02673000000140746,668,0.26257400000758935,1
0.0,669,0.0,1
0.03893999999854714,670,0.43975799999316223,1
0.0,671,0.0,1
0.01179000000047381,672,0.09814400000323076,1
0.0,673,0.0,1
0.03246000000217464,674,0.25378499999351334,1
0.0,675,0.0,1
0.030179999997926643,676,0.26330500000040047,1
0.0,677,0.0,1
0.03216000000247732,678,0.2649539999983972,1
0.0,679,0.0,1
0.05078999999750522,680,0.43035900000541005,1
0.0,681,0.0,1
0.012119999999413267,682,0.09796099999221042,1
0.0,683,0.0,1
0.032265000001643784,684,0.264221000004909,1
0.0,685,0.0,1
0.032564999997703126,686,0.2656859999988228,1
0.0,687,0.0,1
0.031740000002173474,688,0.2663579999934882,1
0.0,689,0.0,1
0.052019999999174615,690,0.42889400001149625,1
0.0,691,0.0,1
0.007860000001528533,692,0.06762699999671895,1
0.0,693,0.0,1
0.03619499999695108,694,0.29656999999133404,1
0.0,695,0.0,1
0.032115000001795124,696,0.2669060000043828,1
0.0,697,0.0,1
0.031964999998308485,698,0.2708130000100937,1
0.0,699,0.0,1
0.048105000001669396,700,0.39935299998614937,1
0.0,701,0.0,1
0.016260000000329455,702,0.13214099999458995,1
0.0,703,0.0,1
0.028350000000500586,704,0.22778400000242982,1
0.0,705,0.0,1
0.03313499999785563,706,0.2788690000161296,1
0.0,707,0.0,1
0.029204999998910353,708,0.2385869999998249,1
0.0,709,0.0,1
0.04424999999901047,710,0.3899529999907827,1
0.0,711,0.0,1
0.01224000000365777,712,0.08923400001367554,1
0.0,713,0.0,1
0.028439999998226995,714,0.20507799998449627,1
0.0,715,0.0,1
0.03252000000065891,716,0.23553500001435168,1
0.0,717,0.0,1
0.03207000000111293,718,0.26257299998542294,1
0.0,719,0.0,1
0.0367949999999837,720,0.37738000000535976,1
0.0,721,0.0,1
0.01224000000001979,722,0.0869749999983469,1
0.0,723,0.0,1
0.016934999999648426,724,0.20526100001006853,1
0.0,725,0.0,1
0.016349999998055864,726,0.23699999999371357,1
0.0,727,0.0,1
0.01818000000275788,728,0.2669679999962682,1
0.0,729,0.0,1
0.09665999999924679,730,0.814513999997871,1
0.0,731,0.0,1
0.0038400000012188684,732,0.03338599999551661,1
0.0,733,0.0,1
0.0,734,0.0,1
0.0,735,0.0,1
0.02404499999829568,736,0.19653300000936724,1
0.0,737,0.0,1
0.03154500000164262,738,0.22747800000070129,1
0.0,739,0.0,1
0.04567500000121072,740,0.3446659999899566,1
0.0,741,0.0,1
0.01390499999615713,742,0.12109400000190362,1
0.0,743,0.0,1
0.030314999999973224,744,0.22595200000796467,1
0.0,745,0.0,1
0.021000000000640284,746,0.2295529999973951,1
0.0,747,0.0,1
0.015135000001464505,748,0.23083499999484047,1
0.0,749,0.0,1
0.03202499999679276,750,0.31341600000450853,1
0.0,751,0.0,1
0.014549999999871943,752,0.14184500000556,1
0.0,753,0.0,1
0.024465000002237502,754,0.22473199998785276,1
0.0,755,0.0,1
0.020489999998972053,756,0.1921380000130739,1
0.0,757,0.0,1
0.029429999998683343,758,0.2499390000011772,1
0.0,759,0.0,1
0.04504500000257394,760,0.310486000002129,1
0.0,761,0.0,1
0.013950000000477303,762,0.11431899998569861,1
0.0,763,0.0,1
0.02615999999761698,764,0.25451699999393895,1
0.0,765,0.0,1
0.027615000002697343,766,0.22637900001427624,1
0.0,767,0.0,1
0.024509999999281717,768,0.22412099999201018,1
0.0,769,0.0,1
0.030855000000883592,770,0.3355100000044331,1
0.0,771,0.0,1
0.01645499999722233,772,0.10827699999208562,1
0.0,773,0.0,1
0.03258000000278116,774,0.22448699999949895,1
0.0,775,0.0,1
0.028590000001713634,776,0.19799800000328105,1
0.0,777,0.0,1
0.03641999999672407,778,0.2528690000035567,1
0.0,779,0.0,1
0.05414999999993597,780,0.3740230000112206,1
0.0,781,0.0,1
0.012119999999413267,782,0.09503199998289347,1
0.0,783,0.0,1
0.028529999999591382,784,0.21575900001334958,1
0.0,785,0.0,1
0.03670500000225729,786,0.2698979999986477,1
0.0,787,0.0,1
0.03178499999921769,788,0.21960399999807123,1
0.0,789,0.0,1
0.049094999998487765,790,0.33276399999158457,1
0.0,791,0.0,1
0.01224000000001979,792,0.08380100000067614,1
0.0,793,0.0,1
0.03672000000005937,794,0.24762000000919215,1
0.0,795,0.0,1
0.03205499999967287,796,0.226195999988704,1
0.0,797,0.0,1
0.024059999999735737,798,0.19189400000323076,1
0.0,799,0.0,1
0.05289000000266242,800,0.36102300000493415,1
0.0,801,0.0,1
0.013979999999719439,802,0.10827699999208562,1
0.0,803,0.0,1
0.031500000000960426,804,0.21777300001122057,1
0.0,805,0.0,1
0.027884999999514548,806,0.19464099999458995,1
0.0,807,0.0,1
0.02096999999776017,808,0.22186299999884795,1
0.0,809,0.0,1
0.03772500000195578,810,0.36737100000027567,1
0.0,811,0.0,1
0.012224999998579733,812,0.08514399999694433,1
0.0,813,0.0,1
0.030285000000731088,814,0.25152600000728853,1
0.0,815,0.0,1
0.028080000000045402,816,0.19537299999501556,1
0.0,817,0.0,1
0.024600000000646105,818,0.2255250000016531,1
0.0,819,0.0,1
0.036090000001422595,820,0.308472000004258,1
0.0,821,0.0,1
0.020264999999199063,822,0.15655499999411404,1
0.0,823,0.0,1
0.030285000000731088,824,0.22845500000403263,1
0.0,825,0.0,1
0.031364999998913845,826,0.22735599998850375,1
0.0,827,0.0,1
0.03238499999861233,828,0.21582000001217239,1
0.0,829,0.0,1
0.03851999999824329,830,0.265625,1
0.0,831,0.0,1
0.024420000005193288,832,0.1487429999979213,1
0.0,833,0.0,1
0.030419999995501712,834,0.19409099999757018,1
0.0,835,0.0,1
0.03276000000187196,836,0.19342100000358187,1
0.0,837,0.0,1
0.028604999999515712,838,0.1677849999978207,1
0.0,839,0.0,1
0.03905999999915366,840,0.2656859999988228,1
0.0,841,0.0,1
0.021045000001322478,842,0.15130700000736397,1
0.0,843,0.0,1
0.026835000000573928,844,0.19372500000463333,1
0.0,845,0.0,1
0.022349999999278225,846,0.18988099998387042,1
0.0,847,0.0,1
0.027389999999286374,848,0.16754100000252947,1
0.0,849,0.0,1
0.035654999999678694,850,0.2581180000124732,1
0.0,851,0.0,1
0.021974999999656575,852,0.16284099999757018,1
0.0,853,0.0,1
0.021600000000034925,854,0.1801759999943897,1
0.0,855,0.0,1
0.0354750000005879,856,0.24090600000636186,1
0.0,857,0.0,1
0.032415000001492444,858,0.22119099998963065,1
0.0,859,0.0,1
0.030254999997850973,860,0.24780300000566058,1
0.0,861,0.0,1
0.02224500000011176,862,0.163819000008516,1
0.0,863,0.0,1
0.03559500000119442,864,0.241820999988704,1
0.0,865,0.0,1
0.021540000001550652,866,0.1832880000001751,1
0.0,867,0.0,1
0.0297599999976228,868,0.23669499999959953,1
0.0,869,0.0,1
0.031500000000960426,870,0.2684929999959422,1
0.0,871,0.0,1
0.020399999997607665,872,0.13403400000242982,1
0.0,873,0.0,1
0.02860500000315369,874,0.23138399999879766,1
0.0,875,0.0,1
0.026265000000421423,876,0.18383800001174677,1
0.0,877,0.0,1
0.027989999998681014,878,0.2189329999819165,1
0.0,879,0.0,1
0.03449999999793363,880,0.29779000001144595,1
0.0,881,0.0,1
0.024585000002844026,882,0.1583260000043083,1
0.0,883,0.0,1
0.016950000001088483,884,0.18212800000037532,1
0.0,885,0.0,1
0.021659999998519197,886,0.23620699999446515,1
0.0,887,0.0,1
0.012269999999261927,888,0.18322700000135228,1
0.0,889,0.0,1
0.021600000000034925,890,0.2847900000051595,1
0.0,891,0.0,1
0.012255000001459848,892,0.12609900000097696,1
0.0,893,0.0,1
0.02102999999624444,894,0.20770199998514727,1
0.0,895,0.0,1
0.016395000002376037,896,0.2052010000043083,1
0.0,897,0.0,1
0.016379999997298,898,0.20471099999849685,1
0.0,899,0.0,1
0.021690000001399312,900,0.2702030000073137,1
0.0,901,0.0,1
0.012870000002294546,902,0.1643679999979213,1
0.0,903,0.0,1
0.02329499999905238,904,0.22186299999884795,1
0.0,905,0.0,1
0.0268949999990582,906,0.2160029999940889,1
0.0,907,0.0,1
0.013530000000173459,908,0.21337900000798982,1
0.0,909,0.0,1
0.018660000001545995,910,0.2698359999922104,1
0.0,911,0.0,1
0.019859999996697297,912,0.16601600000285544,1
0.0,913,0.0,1
0.022215000000869622,914,0.2152710000082152,1
0.0,915,0.0,1
0.030405000001337612,916,0.2182009999960428,1
0.0,917,0.0,1
0.028604999999515712,918,0.1970209999999497,1
0.0,919,0.0,1
0.04081500000029337,920,0.3133549999911338,1
0.0,921,0.0,1
0.020984999999200227,922,0.16253600000345614,1
0.0,923,0.0,1
0.021060000002762536,924,0.20971700000518467,1
0.0,925,0.0,1
0.019889999995939434,926,0.21374500000092667,1
0.0,927,0.0,1
0.016485000003740424,928,0.21313499999814667,1
0.0,929,0.0,1
0.030239999996410916,930,0.2622069999924861,1
0.0,931,0.0,1
0.012210000004415633,932,0.13433800000348128,1
0.0,933,0.0,1
0.022814999996626284,934,0.2318119999981718,1
0.0,935,0.0,1
0.016950000001088483,936,0.17651400000613648,1
0.0,937,0.0,1
0.01946999999927357,938,0.22833199999877252,1
0.0,939,0.0,1
0.027540000002773013,940,0.23828099999809638,1
0.0,941,0.0,1
0.014069999997445848,942,0.15869199999724515,1
0.0,943,0.0,1
0.01706999999805703,944,0.2316280000086408,1
0.0,945,0.0,1
0.012420000002748566,946,0.18151900000520982,1
0.0,947,0.0,1
0.015960000000632135,948,0.2295529999973951,1
0.0,949,0.0,1
0.022065000001020962,950,0.26788299999316223,1
0.0,951,0.0,1
0.013514999998733401,952,0.13092100000358187,1
0.0,953,0.0,1
0.01591499999994994,954,0.23058999999193475,1
0.0,955,0.0,1
0.01457999999911408,956,0.18353300000308082,1
0.0,957,0.0,1
0.015269999999873107,958,0.203125,1
0.0,959,0.0,1
0.019949999998061685,960,0.2615360000054352,1
0.0,961,0.0,1
0.01878000000215252,962,0.159667999992962,1
0.0,963,0.0,1
0.020400000001245644,964,0.23785400000633672,1
0.0,965,0.0,1
0.012359999996988336,966,0.18145699999877252,1
0.0,967,0.0,1
0.03672000000369735,968,0.2634280000056606,1
0.0,969,0.0,1
0.032189999998081475,970,0.27148399998259265,1
0.0,0,0.0,2
0.0,1,0.0,2
0.21841499999936786,2,1.82159400000819,2
0.0,3,0.0,2
0.004020000000309665,4,0.037902999989455566,2
0.0,5,0.0,2
0.006240000000616419,6,0.039795000018784776,2
0.0,7,0.0,2
0.0,8,0.0,2
0.0,9,0.0,2
0.042929999999614665,10,0.35711700000683777,2
0.0,11,0.0,2
0.004079999998793937,12,0.033629999990807846,2
0.0,13,0.0,2
0.0,14,0.0,2
0.0,15,0.0,2
0.004049999999551801,16,0.03997799998614937,2
0.0,17,0.0,2
0.004080000002431916,18,0.0353389999945648,2
0.0,19,0.0,2
0.02440500000011525,20,0.21075500003644265,2
0.0,21,0.0,2
0.004079999998793937,22,0.03045599997858517,2
0.0,23,0.0,2
0.028650000000197906,24,0.20452900000964291,2
0.0,25,0.0,2
0.03289500000209955,26,0.2261960000032559,2
0.0,27,0.0,2
0.03713999999672524,28,0.25256399996578693,2
0.0,29,0.0,2
0.0574800000013056,30,0.40570100003969856,2
0.0,31,0.0,2
0.004080000000612927,32,0.0314939999661874,2
0.0,33,0.0,2
0.0327450000004319,34,0.26867600000696257,2
0.0,35,0.0,2
0.0329699999983859,36,0.24694899999303743,2
0.0,37,0.0,2
0.03283500000179629,38,0.23046800002339296,2
0.0,39,0.0,2
0.06161999999858381,40,0.46160899999085814,2
0.0,41,0.0,2
0.018299999999726424,42,0.1229250000033062,2
0.0,43,0.0,2
0.020459999999729916,44,0.1557009999814909,2
0.0,45,0.0,2
0.03282000000217522,46,0.22247300000162795,2
0.0,47,0.0,2
0.03298499999982596,48,0.213928000011947,2
0.0,49,0.0,2
0.14771999999902619,50,1.2282110000087414,2
0.0,51,0.0,2
0.004139999999097199,52,0.031067000003531575,2
0.0,53,0.0,2
0.0,54,0.0,2
0.0,55,0.0,2
0.004080000002431916,56,0.034422999975504354,2
0.0,57,0.0,2
0.004079999996974948,58,0.030762000009417534,2
0.0,59,0.0,2
0.045180000002801535,60,0.36645500001031905,2
0.0,61,0.0,2
0.02051999999821419,62,0.15893599999253638,2
0.0,63,0.0,2
0.032940000000962755,64,0.26507500000298023,2
0.0,65,0.0,2
0.02884499999890977,66,0.2277839999878779,2
0.0,67,0.0,2
0.03702000000157568,68,0.26385499999742024,2
0.0,69,0.0,2
0.04523999999946682,70,0.32025099999736995,2
0.0,71,0.0,2
0.020550000001094304,72,0.14080800002557226,2
0.0,73,0.0,2
0.0329699999983859,74,0.22784399997908622,2
0.0,75,0.0,2
0.02868000000125903,76,0.20947299999534152,2
0.0,77,0.0,2
0.03299999999944703,78,0.24566700001014397,2
0.0,79,0.0,2
0.044969999999011634,80,0.3504020000109449,2
0.0,81,0.0,2
0.01644000000123924,82,0.12463399997795932,2
0.0,83,0.0,2
0.03274499999861291,84,0.26727300000493415,2
0.0,85,0.0,2
0.03682499999922584,86,0.2626950000121724,2
0.0,87,0.0,2
0.03274500000225089,88,0.22711200002231635,2
0.0,89,0.0,2
0.045104999999239226,90,0.31555199998547323,2
0.0,91,0.0,2
0.020399999999426655,92,0.16784699997515418,2
0.0,93,0.0,2
0.02862000000095577,94,0.2586060000176076,2
0.0,95,0.0,2
0.03305999999975029,96,0.24694800001452677,2
0.0,97,0.0,2
0.03289499999846157,98,0.24914499997976236,2
0.0,99,0.0,2
0.04506000000037602,100,0.36303800001041964,2
0.0,101,0.0,2
0.020340000000942382,102,0.17571999999927357,2
0.0,103,0.0,2
0.035789999999906286,104,0.33044400002108887,2
0.0,105,0.0,2
0.037814999999682186,106,0.33807399997022003,2
0.0,107,0.0,2
0.034679999998843414,108,0.28210400001262315,2
0.0,109,0.0,2
0.0609150000000227,110,0.45825200001127087,2
0.0,111,0.0,2
0.031230000002324232,112,0.23260499999742024,2
0.0,113,0.0,2
0.052634999998190324,114,0.38964899998973124,2
0.0,115,0.0,2
0.04303500000060012,116,0.28045599997858517,2
0.0,117,0.0,2
0.0470099999984086,118,0.331787000031909,2
0.0,119,0.0,2
0.061620000002221786,120,0.4043579999997746,2
0.0,121,0.0,2
0.03695999999945343,122,0.24035699997330084,2
0.0,123,0.0,2
0.046155000001817825,124,0.28912299999501556,2
0.0,125,0.0,2
0.0362249999998312,126,0.28094500000588596,2
0.0,127,0.0,2
0.03268499999830965,128,0.27069100001244806,2
0.0,129,0.0,2
0.047070000000530854,130,0.3792719999910332,2
0.0,131,0.0,2
0.025709999998070998,132,0.18286200001602992,2
0.0,133,0.0,2
0.03238500000225031,134,0.25945999997202307,2
0.0,135,0.0,2
0.03250499999921885,136,0.2551880000100937,2
0.0,137,0.0,2
0.02840999999898486,138,0.2404790000000503,2
0.0,139,0.0,2
0.048720000002504094,140,0.4086910000187345,2
0.0,141,0.0,2
0.018314999999347492,142,0.14489799999864772,2
0.0,143,0.0,2
0.04181999999855179,144,0.3385009999910835,2
0.0,145,0.0,2
0.02845500000148604,146,0.24816799999098293,2
0.0,147,0.0,2
0.04493999999795051,148,0.3443610000249464,2
0.0,149,0.0,2
0.05286000000342028,150,0.41082699998514727,2
0.0,151,0.0,2
0.02006999999866821,152,0.18695100001059473,2
0.0,153,0.0,2
0.03659999999945285,154,0.32519499998306856,2
0.0,155,0.0,2
0.03268499999830965,156,0.2478640000044834,2
0.0,157,0.0,2
0.038640000000668806,158,0.31427000000257976,2
0.0,159,0.0,2
0.051120000000082655,160,0.4389650000084657,2
0.0,161,0.0,2
0.01621499999964726,162,0.16595500000403263,2
0.0,163,0.0,2
0.030749999999898137,164,0.2780759999877773,2
0.0,165,0.0,2
0.03988500000014028,166,0.3375240000023041,2
0.0,167,0.0,2
0.024435000002995366,168,0.24731499998597428,2
0.0,169,0.0,2
0.049844999997731065,170,0.47509700001683086,2
0.0,171,0.0,2
0.01848000000063621,172,0.150208000006387,2
0.0,173,0.0,2
0.02861999999913678,174,0.30145299999276176,2
0.0,175,0.0,2
0.03273000000262982,176,0.2912589999905322,2
0.0,177,0.0,2
0.0349949999981618,178,0.2893069999990985,2
0.0,179,0.0,2
0.04500000000007276,180,0.4176640000077896,2
0.0,181,0.0,2
0.020384999999805586,182,0.19256500000483356,2
0.0,183,0.0,2
0.03374999999869033,184,0.3079839999845717,2
0.0,185,0.0,2
0.03372000000308617,186,0.3167109999922104,2
0.0,187,0.0,2
0.03275999999823398,188,0.3103640000044834,2
0.0,189,0.0,2
0.04701000000022759,190,0.4130860000150278,2
0.0,191,0.0,2
0.020490000000791042,192,0.19396999999298714,2
0.0,193,0.0,2
0.032729999997172854,194,0.31536800001049414,2
0.0,195,0.0,2
0.03493500000331551,196,0.33184900000924245,2
0.0,197,0.0,2
0.02863499999875785,198,0.2723989999794867,2
0.0,199,0.0,2
0.05125499999849126,200,0.4949960000230931,2
0.0,201,0.0,2
0.020399999999426655,202,0.20892299999832176,2
0.0,203,0.0,2
0.03378000000157044,204,0.3336790000030305,2
0.0,205,0.0,2
0.029850000000806176,206,0.3043210000032559,2
0.0,207,0.0,2
0.028650000000197906,208,0.27764899999601766,2
0.0,209,0.0,2
0.0489899999993213,210,0.4816899999859743,2
0.0,211,0.0,2
0.02035499999874446,212,0.21301199999288656,2
0.0,213,0.0,2
0.03274500000225089,214,0.34423899999819696,2
0.0,215,0.0,2
0.02876999999898544,216,0.29174799998872913,2
0.0,217,0.0,2
0.0368849999995291,218,0.37255800000275485,2
0.0,219,0.0,2
0.04514999999992142,220,0.45813000001362525,2
0.0,221,0.0,2
0.020385000001624576,222,0.22442700000829063,2
0.0,223,0.0,2
0.028889999997772975,224,0.2949209999933373,2
0.0,225,0.0,2
0.03700500000195461,226,0.3762820000119973,2
0.0,227,0.0,2
0.02863499999875785,228,0.29071099997963756,2
0.0,229,0.0,2
0.04104000000006636,230,0.41522200001054443,2
0.0,231,0.0,2
0.020490000000791042,232,0.19207699998514727,2
0.0,233,0.0,2
0.037004999998316634,234,0.34875500001362525,2
0.0,235,0.0,2
0.02868000000125903,236,0.27148500000475906,2
0.0,237,0.0,2
0.0329249999995227,238,0.3048699999926612,2
0.0,239,0.0,2
0.04935000000114087,240,0.46789599998737685,2
0.0,241,0.0,2
0.02035500000056345,242,0.2104490000056103,2
0.0,243,0.0,2
0.03262499999982538,244,0.3165889999945648,2
0.0,245,0.0,2
0.02855999999883352,246,0.26922600000398234,2
0.0,247,0.0,2
0.032790000001114095,248,0.314942000026349,2
0.0,249,0.0,2
0.048869999998714775,250,0.4614869999641087,2
0.0,251,0.0,2
0.022440000000642613,252,0.19116200003190897,2
0.0,253,0.0,2
0.031575000000884756,254,0.2814329999964684,2
0.0,255,0.0,2
0.03268499999830965,256,0.28845199997886084,2
0.0,257,0.0,2
0.03269999999974971,258,0.28497300000162795,2
0.0,259,0.0,2
0.04498500000045169,260,0.3937990000122227,2
0.0,261,0.0,2
0.020370000002003508,262,0.1841429999913089,2
0.0,263,0.0,2
0.03259499999876425,264,0.2949829999997746,2
0.0,265,0.0,2
0.03277499999967404,266,0.28686500000185333,2
0.0,267,0.0,2
0.03262499999982538,268,0.2926030000089668,2
0.0,269,0.0,2
0.04513499999848136,270,0.3797599999816157,2
0.0,271,0.0,2
0.020415000000866712,272,0.17462200002046302,2
0.0,273,0.0,2
0.03268500000012864,274,0.2683109999925364,2
0.0,275,0.0,2
0.03245999999853666,276,0.26861500000813976,2
0.0,277,0.0,2
0.03276000000369095,278,0.2623289999901317,2
0.0,279,0.0,2
0.04500000000007276,280,0.36785900001996197,2
0.0,281,0.0,2
0.01630499999737367,282,0.17217999999411404,2
0.0,283,0.0,2
0.03274500000225089,284,0.2658700000029057,2
0.0,285,0.0,2
0.028739999997924315,286,0.23760899997432716,2
0.0,287,0.0,2
0.03687000000172702,288,0.30322300002444535,2
0.0,289,0.0,2
0.04501499999969383,290,0.37286399997537956,2
0.0,291,0.0,2
0.02042999999866879,292,0.17144800000824034,2
0.0,293,0.0,2
0.03269999999974971,294,0.27142299999832176,2
0.0,295,0.0,2
0.03276000000005297,296,0.26898199997958727,2
0.0,297,0.0,2
0.02862000000095577,298,0.2390750000195112,2
0.0,299,0.0,2
0.04914000000098895,300,0.39770500001031905,2
0.0,301,0.0,2
0.02036999999836553,302,0.16333000001031905,2
0.0,303,0.0,2
0.028665000001637964,304,0.21899399999529123,2
0.0,305,0.0,2
0.03679499999816471,306,0.28301999997347593,2
0.0,307,0.0,2
0.02863499999875785,308,0.21978800001670606,2
0.0,309,0.0,2
0.041115000001809676,310,0.3435659999959171,2
0.0,311,0.0,2
0.020520000001852168,312,0.1588750000228174,2
0.0,313,0.0,2
0.03712499999892316,314,0.27893099997891113,2
0.0,315,0.0,2
0.028935000000274158,316,0.21636900000157766,2
0.0,317,0.0,2
0.032940000000962755,318,0.24475100002018735,2
0.0,319,0.0,2
0.04955999999765481,320,0.3644409999833442,2
0.0,321,0.0,2
0.02052000000003318,322,0.1278689999890048,2
0.0,323,0.0,2
0.024750000000494765,324,0.24682600001688115,2
0.0,325,0.0,2
0.03695999999763444,326,0.2813719999976456,2
0.0,327,0.0,2
0.02890500000285101,328,0.215942000009818,2
0.0,329,0.0,2
0.045344999998633284,330,0.33673099998850375,2
0.0,331,0.0,2
0.020595000001776498,332,0.15606700000353158,2
0.0,333,0.0,2
0.032789999999295105,334,0.24859599999035709,2
0.0,335,0.0,2
0.03282000000035623,336,0.24963400000706315,2
0.0,337,0.0,2
0.03289499999846157,338,0.24493399998755194,2
0.0,339,0.0,2
0.049230000000534346,340,0.3704839999845717,2
0.0,341,0.0,2
0.016349999999874854,342,0.12622000000556,2
0.0,343,0.0,2
0.032790000001114095,344,0.2526860000216402,2
0.0,345,0.0,2
0.028800000000046566,346,0.2487789999868255,2
0.0,347,0.0,2
0.03298499999982596,348,0.2459110000054352,2
0.0,349,0.0,2
0.04508999999961816,350,0.3743900000117719,2
0.0,351,0.0,2
0.020490000000791042,352,0.16937200000393204,2
0.0,353,0.0,2
0.032789999997476116,354,0.2495119999803137,2
0.0,355,0.0,2
0.03291000000172062,356,0.25091500001144595,2
0.0,357,0.0,2
0.028679999999440042,358,0.21752999999444,2
0.0,359,0.0,2
0.049305000000458676,360,0.36987299998872913,2
0.0,361,0.0,2
0.02057999999851745,362,0.1587520000175573,2
0.0,363,0.0,2
0.03289500000209955,364,0.2507329999934882,2
0.0,365,0.0,2
0.0329249999995227,366,0.2471310000109952,2
0.0,367,0.0,2
0.032865000001038425,368,0.24108899998827837,2
0.0,369,0.0,2
0.04716000000007625,370,0.3417970000009518,2
0.0,371,0.0,2
0.020339999999123393,372,0.15777600000728853,2
0.0,373,0.0,2
0.03276000000005297,374,0.25091500001144595,2
0.0,375,0.0,2
0.03268500000012864,376,0.2505489999894053,2
0.0,377,0.0,2
0.028755000001183362,378,0.2175909999932628,2
0.0,379,0.0,2
0.04891499999757798,380,0.40454099999624304,2
0.0,381,0.0,2
0.020339999999123393,382,0.18042000001878478,2
0.0,383,0.0,2
0.03253500000027998,384,0.26934800000162795,2
0.0,385,0.0,2
0.028514999999970314,386,0.23901299998397008,2
0.0,387,0.0,2
0.03678000000218162,388,0.29522800000268035,2
0.0,389,0.0,2
0.044954999997571576,390,0.38159099998301826,2
0.0,391,0.0,2
0.020625000001018634,392,0.14117499999701977,2
0.0,393,0.0,2
0.03479999999944994,394,0.28009000001475215,2
0.0,395,0.0,2
0.036705000000438304,396,0.3113399999856483,2
0.0,397,0.0,2
0.02868000000125903,398,0.24566700001014397,2
0.0,399,0.0,2
0.04897499999970023,400,0.41955500000040047,2
0.0,401,0.0,2
0.016335000000253785,402,0.1448369999998249,2
0.0,403,0.0,2
0.028604999997696723,404,0.2698969999910332,2
0.0,405,0.0,2
0.03659999999945285,406,0.297608000022592,2
0.0,407,0.0,2
0.032775000001493027,408,0.22521999999298714,2
0.0,409,0.0,2
0.044805000001360895,410,0.35400300001492724,2
0.0,411,0.0,2
0.020384999997986597,412,0.16839599996455945,2
0.0,413,0.0,2
0.0367500000011205,414,0.2960820000153035,2
0.0,415,0.0,2
0.02870999999868218,416,0.2248529999924358,2
0.0,417,0.0,2
0.03284999999959837,418,0.26239100002567284,2
0.0,419,0.0,2
0.051255000002129236,420,0.38757299998542294,2
0.0,421,0.0,2
0.01834499999858963,422,0.13830600000801496,2
0.0,423,0.0,2
0.03490500000043539,424,0.27197199998772703,2
0.0,425,0.0,2
0.03379499999937252,426,0.2657469999976456,2
0.0,427,0.0,2
0.03282000000217522,428,0.2708130000100937,2
0.0,429,0.0,2
0.044969999999011634,430,0.39038099997560494,2
0.0,431,0.0,2
0.020234999998137937,432,0.18048100001760758,2
0.0,433,0.0,2
0.0342000000000553,434,0.31091299999388866,2
0.0,435,0.0,2
0.03265500000270549,436,0.2896119999932125,2
0.0,437,0.0,2
0.0286050000013347,438,0.2514650000084657,2
0.0,439,0.0,2
0.05318999999690277,440,0.4328000000095926,2
0.0,441,0.0,2
0.020460000001548906,442,0.188293999992311,2
0.0,443,0.0,2
0.03282000000035623,444,0.29248000000370666,2
0.0,445,0.0,2
0.03275999999823398,446,0.2846680000075139,2
0.0,447,0.0,2
0.02877000000262342,448,0.24908399998093955,2
0.0,449,0.0,2
0.049394999998185085,450,0.4238900000054855,2
0.0,451,0.0,2
0.021540000001550652,452,0.18933100000140257,2
0.0,453,0.0,2
0.028754999997545383,454,0.2531730000046082,2
0.0,455,0.0,2
0.036705000000438304,456,0.35028099999180995,2
0.0,457,0.0,2
0.028755000001183362,458,0.272400000016205,2
0.0,459,0.0,2
0.04936499999894295,460,0.4777829999802634,2
0.0,461,0.0,2
0.020310000001700246,462,0.19482500001322478,2
0.0,463,0.0,2
0.032864999997400446,464,0.27124000000185333,2
0.0,465,0.0,2
0.036765000000741566,466,0.3572390000044834,2
0.0,467,0.0,2
0.028725000000122236,468,0.27099599997745827,2
0.0,469,0.0,2
0.05107499999940046,470,0.46820000000298023,2
0.0,471,0.0,2
0.016200000000026193,472,0.1615600000077393,2
0.0,473,0.0,2
0.03360000000066066,474,0.32867499999701977,2
0.0,475,0.0,2
0.03672000000187836,476,0.38696299999719486,2
0.0,477,0.0,2
0.028589999998075655,478,0.2995600000140257,2
0.0,479,0.0,2
0.05098500000167405,480,0.5087279999861494,2
0.0,481,0.0,2
0.016379999997298,482,0.16113300001597963,2
0.0,483,0.0,2
0.032625000001644366,484,0.3280640000011772,2
0.0,485,0.0,2
0.032639999999446445,486,0.3270259999844711,2
0.0,487,0.0,2
0.03281999999853724,488,0.3157350000110455,2
0.0,489,0.0,2
0.045180000000982545,490,0.41906799998832867,2
0.0,491,0.0,2
0.0205050000022311,492,0.18798799999058247,2
0.0,493,0.0,2
0.032789999997476116,494,0.3157350000110455,2
0.0,495,0.0,2
0.032790000001114095,496,0.3057860000117216,2
0.0,497,0.0,2
0.03297000000202388,498,0.3022460000065621,2
0.0,499,0.0,2
0.04507499999999709,500,0.4226069999858737,2
0.0,501,0.0,2
0.02044499999828986,502,0.1916510000010021,2
0.0,503,0.0,2
0.03364499999770487,504,0.30053700000280514,2
0.0,505,0.0,2
0.03285000000141736,506,0.2970579999964684,2
0.0,507,0.0,2
0.03291000000172062,508,0.2962039999838453,2
0.0,509,0.0,2
0.046004999998331186,510,0.4114990000089165,2
0.0,511,0.0,2
0.020474999999350985,512,0.1894529999990482,2
0.0,513,0.0,2
0.024525000000721775,514,0.3002930000075139,2
0.0,515,0.0,2
0.032790000001114095,516,0.2954709999903571,2
0.0,517,0.0,2
0.03253499999846099,518,0.30328399999416433,2
0.0,519,0.0,2
0.04107000000294647,520,0.3704830000351649,2
0.0,521,0.0,2
0.024659999999130378,522,0.22686799996881746,2
0.0,523,0.0,2
0.028499999998530257,524,0.30633500003023073,2
0.0,525,0.0,2
0.03672000000005937,526,0.3017579999868758,2
0.0,527,0.0,2
0.03295500000058382,528,0.290099999983795,2
0.0,529,0.0,2
0.04514999999992142,530,0.3544920000131242,2
0.0,531,0.0,2
0.01621500000146625,532,0.18768299999646842,2
0.0,533,0.0,2
0.0368849999995291,534,0.31878700002562255,2
0.0,535,0.0,2
0.032879999997021514,536,0.27368199996999465,2
0.0,537,0.0,2
0.03269999999974971,538,0.28826900001149625,2
0.0,539,0.0,2
0.04516500000136148,540,0.38397200001054443,2
0.0,541,0.0,2
0.016349999999874854,542,0.14654499996686354,2
0.0,543,0.0,2
0.0378450000025623,544,0.3374640000110958,2
0.0,545,0.0,2
0.02878499999860651,546,0.262817000009818,2
0.0,547,0.0,2
0.0328799999988405,548,0.3056030000152532,2
0.0,549,0.0,2
0.049305000000458676,550,0.4368899999826681,2
0.0,551,0.0,2
0.01644000000123924,552,0.14233400000375696,2
0.0,553,0.0,2
0.03799499999877298,554,0.2867429999751039,2
0.0,555,0.0,2
0.036915000000590226,556,0.31530700004077516,2
0.0,557,0.0,2
0.028800000000046566,558,0.24346999995759688,2
0.0,559,0.0,2
0.04933499999970081,560,0.4224240000185091,2
0.0,561,0.0,2
0.016320000000632717,562,0.14654499999596737,2
0.0,563,0.0,2
0.03360000000066066,564,0.28564499999629334,2
0.0,565,0.0,2
0.03614999999990687,566,0.3247069999924861,2
0.0,567,0.0,2
0.02464499999950931,568,0.24743600003421307,2
0.0,569,0.0,2
0.045944999998027924,570,0.39904799999203533,2
0.0,571,0.0,2
0.020445000001927838,572,0.1908570000086911,2
0.0,573,0.0,2
0.03274499999861291,574,0.3030399999988731,2
0.0,575,0.0,2
0.034740000000965665,576,0.2956539999868255,2
0.0,577,0.0,2
0.032639999999446445,578,0.2832029999990482,2
0.0,579,0.0,2
0.04182000000037078,580,0.393372000020463,2
0.0,581,0.0,2
0.022574999999051215,582,0.1848139999783598,2
0.0,583,0.0,2
0.036840000000665896,584,0.3076779999828432,2
0.0,585,0.0,2
0.03659999999945285,586,0.3374640000110958,2
0.0,587,0.0,2
0.03469500000028347,588,0.32153300000936724,2
0.0,589,0.0,2
0.04708500000197091,590,0.42425499999080785,2
0.0,591,0.0,2
0.02027999999700114,592,0.18408200002158992,2
0.0,593,0.0,2
0.03273000000262982,594,0.2881469999847468,2
0.0,595,0.0,2
0.03566999999748077,596,0.29455600000801496,2
0.0,597,0.0,2
0.03268500000012864,598,0.28717100000358187,2
0.0,599,0.0,2
0.04084500000135449,600,0.3891599999915343,2
0.0,601,0.0,2
0.020490000000791042,602,0.180664000014076,2
0.0,603,0.0,2
0.032639999997627456,604,0.2886959999741521,2
0.0,605,0.0,2
0.032640000001265435,606,0.28509499999927357,2
0.0,607,0.0,2
0.03260999999838532,608,0.2845460000098683,2
0.0,609,0.0,2
0.047130000000834116,610,0.39654600000358187,2
0.0,611,0.0,2
0.016260000000329455,612,0.1385489999956917,2
0.0,613,0.0,2
0.03658499999983178,614,0.33599900000263005,2
0.0,615,0.0,2
0.03268500000194763,616,0.3004149999760557,2
0.0,617,0.0,2
0.028500000000349246,618,0.29382300001452677,2
0.0,619,0.0,2
0.04934999999932188,620,0.5021969999943394,2
0.0,621,0.0,2
0.016439999997601262,622,0.16613800002960488,2
0.0,623,0.0,2
0.03487500000119326,624,0.3071289999934379,2
0.0,625,0.0,2
0.03681000000142376,626,0.3234859999793116,2
0.0,627,0.0,2
0.030839999997624545,628,0.24621599999954924,2
0.0,629,0.0,2
0.04734000000098604,630,0.39032000000588596,2
0.0,631,0.0,2
0.020340000000942382,632,0.19018599999253638,2
0.0,633,0.0,2
0.03288000000065949,634,0.3256830000318587,2
0.0,635,0.0,2
0.028664999997999985,636,0.24975599997560494,2
0.0,637,0.0,2
0.03282000000035623,638,0.2797240000218153,2
0.0,639,0.0,2
0.04930499999863969,640,0.4122930000012275,2
0.0,641,0.0,2
0.016320000002451707,642,0.1447139999945648,2
0.0,643,0.0,2
0.03281999999853724,644,0.2777709999936633,2
0.0,645,0.0,2
0.036915000000590226,646,0.30963099998189136,2
0.0,647,0.0,2
0.03056999999898835,648,0.2308960000227671,2
0.0,649,0.0,2
0.049155000000610016,650,0.39422600000398234,2
0.0,651,0.0,2
0.016349999999874854,652,0.13909899999271147,2
0.0,653,0.0,2
0.03269999999974971,654,0.2678839999716729,2
0.0,655,0.0,2
0.03367500000058499,656,0.2599490000284277,2
0.0,657,0.0,2
0.036990000000514556,658,0.29406699998071417,2
0.0,659,0.0,2
0.05320499999834283,660,0.42157000000588596,2
0.0,661,0.0,2
0.008160000003044843,662,0.06964100000914186,2
0.0,663,0.0,2
0.0348599999997532,664,0.2547609999892302,2
0.0,665,0.0,2
0.03268499999830965,666,0.23870799998985603,2
0.0,667,0.0,2
0.03281999999853724,668,0.23803700003190897,2
0.0,669,0.0,2
0.05334000000038941,670,0.3847050000040326,2
0.0,671,0.0,2
0.022365000000718283,672,0.11645499998121522,2
0.0,673,0.0,2
0.05371500000183005,674,0.3587030000053346,2
0.0,675,0.0,2
0.05113499999970372,676,0.29852300000493415,2
0.0,677,0.0,2
0.03562499999861757,678,0.32043500000145286,2
0.0,679,0.0,2
0.052770000000236905,680,0.4008179999946151,2
0.0,681,0.0,2
0.012195000001156586,682,0.09509299998171628,2
0.0,683,0.0,2
0.032715000001189765,684,0.26507500000298023,2
0.0,685,0.0,2
0.028649999998378917,686,0.22784500001580454,2
0.0,687,0.0,2
0.037679999999454594,688,0.27343699999619275,2
0.0,689,0.0,2
0.04897499999970023,690,0.39910900001996197,2
0.0,691,0.0,2
0.008099999999103602,692,0.0714109999826178,2
0.0,693,0.0,2
0.03680999999960477,694,0.29717999999411404,2
0.0,695,0.0,2
0.03274500000225089,696,0.26312300001154654,2
0.0,697,0.0,2
0.0348599999997532,698,0.263611000002129,2
0.0,699,0.0,2
0.05139000000053784,700,0.3961790000030305,2
0.0,701,0.0,2
0.01628999999957159,702,0.13903799996478483,2
0.0,703,0.0,2
0.028664999997999985,704,0.23547400001552887,2
0.0,705,0.0,2
0.03912000000127591,706,0.2977289999835193,2
0.0,707,0.0,2
0.03510000000096625,708,0.26043700001901016,2
0.0,709,0.0,2
0.053384999999252614,710,0.43310600001132116,2
0.0,711,0.0,2
0.012194999999337597,712,0.1140130000130739,2
0.0,713,0.0,2
0.02877000000080443,714,0.2501829999673646,2
0.0,715,0.0,2
0.032715000001189765,716,0.28564500002539717,2
0.0,717,0.0,2
0.03710999999930209,718,0.32531699998071417,2
0.0,719,0.0,2
0.053444999999555876,720,0.4739380000100937,2
0.0,721,0.0,2
0.01224000000001979,722,0.1175539999967441,2
0.0,723,0.0,2
0.028800000000046566,724,0.2546999999904074,2
0.0,725,0.0,2
0.03303000000050815,726,0.285217000026023,2
0.0,727,0.0,2
0.03716999999960535,728,0.3220209999999497,2
0.0,729,0.0,2
0.09858000000167522,730,0.8936769999854732,2
0.0,731,0.0,2
0.004079999996974948,732,0.037597999995341524,2
0.0,733,0.0,2
0.0,734,0.0,2
0.0,735,0.0,2
0.024390000000494183,736,0.25024399999529123,2
0.0,737,0.0,2
0.03292500000134169,738,0.3044430000009015,2
0.0,739,0.0,2
0.045194999998784624,740,0.39428700000280514,2
0.0,741,0.0,2
0.016424999999799184,742,0.13500999999814667,2
0.0,743,0.0,2
0.03283500000179629,744,0.268432999990182,2
0.0,745,0.0,2
0.032939999997324776,746,0.25903300000936724,2
0.0,747,0.0,2
0.03303000000232714,748,0.2562869999965187,2
0.0,749,0.0,2
0.045255000000906875,750,0.3560789999901317,2
0.0,751,0.0,2
0.020474999999350985,752,0.16479500001878478,2
0.0,753,0.0,2
0.033014999997249106,754,0.2550049999845214,2
0.0,755,0.0,2
0.02884500000254775,756,0.2261960000032559,2
0.0,757,0.0,2
0.0369749999990745,758,0.2899780000152532,2
0.0,759,0.0,2
0.045029999999314896,760,0.3530880000034813,2
0.0,761,0.0,2
0.016410000001997105,762,0.13287400000263005,2
0.0,763,0.0,2
0.03713999999672524,764,0.2971189999661874,2
0.0,765,0.0,2
0.03282000000217522,766,0.26458700001239777,2
0.0,767,0.0,2
0.028890000001410954,768,0.22168000001693144,2
0.0,769,0.0,2
0.053444999997736886,770,0.41967799997655675,2
0.0,771,0.0,2
0.016394999998738058,772,0.13562000001547858,2
0.0,773,0.0,2
0.032790000001114095,774,0.3104250000033062,2
0.0,775,0.0,2
0.02884500000254775,776,0.24621499999193475,2
0.0,777,0.0,2
0.03694499999801337,778,0.2900399999925867,2
0.0,779,0.0,2
0.04897500000151922,780,0.3973990000085905,2
0.0,781,0.0,2
0.012299999998504063,782,0.10040299998945557,2
0.0,783,0.0,2
0.032940000000962755,784,0.26117000001249835,2
0.0,785,0.0,2
0.03704999999899883,786,0.2902829999802634,2
0.0,787,0.0,2
0.032790000001114095,788,0.2553100000368431,2
0.0,789,0.0,2
0.04937999999856402,790,0.3976439999823924,2
0.0,791,0.0,2
0.012359999998807325,792,0.10436999998637475,2
0.0,793,0.0,2
0.036990000000514556,794,0.314453000028152,2
0.0,795,0.0,2
0.02862000000277476,796,0.22613599998294376,2
0.0,797,0.0,2
0.03266999999868858,798,0.2769770000013523,2
0.0,799,0.0,2
0.05326500000046508,800,0.4456179999979213,2
0.0,801,0.0,2
0.01645499999904132,802,0.13549800001783296,2
0.0,803,0.0,2
0.028755000001183362,804,0.227599999983795,2
0.0,805,0.0,2
0.03273000000081083,806,0.2622069999924861,2
0.0,807,0.0,2
0.03298499999982596,808,0.25561500003095716,2
0.0,809,0.0,2
0.05342999999811582,810,0.4213259999814909,2
0.0,811,0.0,2
0.01224000000001979,812,0.10162300002411939,2
0.0,813,0.0,2
0.0368849999995291,814,0.28845299998647533,2
0.0,815,0.0,2
0.02817000000140979,816,0.26507500000298023,2
0.0,817,0.0,2
0.03269999999974971,818,0.2695309999980964,2
0.0,819,0.0,2
0.044969999999011634,820,0.36529600000358187,2
0.0,821,0.0,2
0.020160000000032596,822,0.19683799997437745,2
0.0,823,0.0,2
0.03268500000194763,824,0.283997000020463,2
0.0,825,0.0,2
0.033779999997932464,826,0.25305199998547323,2
0.0,827,0.0,2
0.0385950000018056,828,0.32684300001710653,2
0.0,829,0.0,2
0.04096499999832304,830,0.324157999973977,2
0.0,831,0.0,2
0.024360000001252047,832,0.20745800001895986,2
0.0,833,0.0,2
0.03265499999906751,834,0.28771999999298714,2
0.0,835,0.0,2
0.0326550000008865,836,0.2798459999903571,2
0.0,837,0.0,2
0.03073500000027707,838,0.24237100000027567,2
0.0,839,0.0,2
0.046980000000985456,840,0.4151610000117216,2
0.0,841,0.0,2
0.020339999997304403,842,0.18524099999922328,2
0.0,843,0.0,2
0.03658500000165077,844,0.30340599999180995,2
0.0,845,0.0,2
0.032789999997476116,846,0.25714100000914186,2
0.0,847,0.0,2
0.028440000001864973,848,0.23016400000778958,2
0.0,849,0.0,2
0.046080000000074506,850,0.3552849999978207,2
0.0,851,0.0,2
0.03190499999800522,852,0.22515899999416433,2
0.0,853,0.0,2
0.028560000002471497,854,0.24548400001367554,2
0.0,855,0.0,2
0.0387750000008964,856,0.3390499999804888,2
0.0,857,0.0,2
0.029564999997091945,858,0.25,2
0.0,859,0.0,2
0.04182000000218977,860,0.3707270000013523,2
0.0,861,0.0,2
0.027629999998680432,862,0.23285000000032596,2
0.0,863,0.0,2
0.0334050000001298,864,0.320495000021765,2
0.0,865,0.0,2
0.03251999999883992,866,0.31024199997773394,2
0.0,867,0.0,2
0.03672000000187836,868,0.36596699999063276,2
0.0,869,0.0,2
0.036690000000817236,870,0.3380730000208132,2
0.0,871,0.0,2
0.024464999996780534,872,0.22235100000398234,2
0.0,873,0.0,2
0.03667500000119617,874,0.33813499996904284,2
0.0,875,0.0,2
0.03184500000133994,876,0.22729500001878478,2
0.0,877,0.0,2
0.03274499999861291,878,0.2562869999965187,2
0.0,879,0.0,2
0.04522499999984575,880,0.31756600001244806,2
0.0,881,0.0,2
0.020520000001852168,882,0.18713299999944866,2
0.0,883,0.0,2
0.0329699999983859,884,0.24774199997773394,2
0.0,885,0.0,2
0.03295500000240281,886,0.23510800002259202,2
0.0,887,0.0,2
0.03289499999846157,888,0.23785400000633672,2
0.0,889,0.0,2
0.04125000000021828,890,0.2971189999661874,2
0.0,891,0.0,2
0.024659999999130378,892,0.19952399999601766,2
0.0,893,0.0,2
0.028589999999894644,894,0.24407900002552196,2
0.0,895,0.0,2
0.03695999999945343,896,0.29663100000470877,2
0.0,897,0.0,2
0.028830000001107692,898,0.22180199998547323,2
0.0,899,0.0,2
0.04492500000014843,900,0.4049069999891799,2
0.0,901,0.0,2
0.026775000000270666,902,0.21911600002204068,2
0.0,903,0.0,2
0.03236999999899126,904,0.3341070000024047,2
0.0,905,0.0,2
0.036630000000513974,906,0.414305999991484,2
0.0,907,0.0,2
0.02861999999913678,908,0.28894100000616163,2
0.0,909,0.0,2
0.04506000000037602,910,0.41418399999383837,2
0.0,911,0.0,2
0.025410000002011657,912,0.23864799999864772,2
0.0,913,0.0,2
0.032639999997627456,914,0.30719000002136454,2
0.0,915,0.0,2
0.04101000000264321,916,0.35436999998637475,2
0.0,917,0.0,2
0.02816999999777181,918,0.3179929999751039,2
0.0,919,0.0,2
0.05716500000198721,920,0.5026860000216402,2
0.0,921,0.0,2
0.01613999999972293,922,0.2097770000109449,2
0.0,923,0.0,2
0.03671999999824038,924,0.34552000000257976,2
0.0,925,0.0,2
0.028590000001713634,926,0.2337649999826681,2
0.0,927,0.0,2
0.03689999999915017,928,0.28570600002422,2
0.0,929,0.0,2
0.03680999999960477,930,0.31982399997650646,2
0.0,931,0.0,2
0.02441999999973632,932,0.19549499999266118,2
0.0,933,0.0,2
0.03703500000119675,934,0.2813120000064373,2
0.0,935,0.0,2
0.028754999999364372,936,0.21655199999804609,2
0.0,937,0.0,2
0.03289500000028056,938,0.2669680000108201,2
0.0,939,0.0,2
0.0367500000011205,940,0.30468800000380725,2
0.0,941,0.0,2
0.024524999998902786,942,0.1970209999999497,2
0.0,943,0.0,2
0.03285000000141736,944,0.2494509999814909,2
0.0,945,0.0,2
0.03283499999815831,946,0.23168900000746362,2
0.0,947,0.0,2
0.032865000001038425,948,0.23272700002416968,2
0.0,949,0.0,2
0.04100999999900523,950,0.28729299997212365,2
0.0,951,0.0,2
0.024525000000721775,952,0.2008050000295043,2
0.0,953,0.0,2
0.03703499999937776,954,0.26068199999281205,2
0.0,955,0.0,2
0.02868000000125903,956,0.21710199999506585,2
0.0,957,0.0,2
0.03276000000005297,958,0.2715449999959674,2
0.0,959,0.0,2
0.04094999999870197,960,0.37219199998071417,2
0.0,961,0.0,2
0.020415000000866712,962,0.2030640000011772,2
0.0,963,0.0,2
0.02968499999951746,964,0.27472000001580454,2
0.0,965,0.0,2
0.028664999999818974,966,0.26123000000370666,2
0.0,967,0.0,2
0.032639999997627456,968,0.2814329999964684,2
0.0,969,0.0,2
0.040530000002036104,970,0.3222049999749288,2
