dram,epoch,package,socket
0.0,0,0.0,1
0.0,1,0.0,1
0.16538999999829684,2,1.694151999996393,1
0.0,3,0.0,1
0.002909999999246793,4,0.0352790000179084,1
0.0,5,0.0,1
0.0,6,0.0,1
0.0,7,0.0,1
0.004079999998793937,8,0.03723099999479018,1
0.0,9,0.0,1
0.01629000000320957,10,0.20825199999671895,1
0.0,11,0.0,1
0.003479999999399297,12,0.07202199999301229,1
0.0,13,0.0,1
0.0,14,0.0,1
0.0,15,0.0,1
0.0017399999960616697,16,0.037780000013299286,1
0.0,17,0.0,1
0.004080000002431916,18,0.029968999995617196,1
0.0,19,0.0,1
0.020459999999729916,20,0.23120100000232924,1
0.0,21,0.0,1
0.002909999999246793,22,0.032836999991559424,1
0.0,23,0.0,1
0.020460000003367895,24,0.22039800000493415,1
0.0,25,0.0,1
0.018164999997679843,26,0.21771199999784585,1
0.0,27,0.0,1
0.01238999999986845,28,0.2282720000075642,1
0.0,29,0.0,1
0.03277499999967404,30,0.4353019999980461,1
0.0,31,0.0,1
0.006434999999328284,32,0.10211199999321252,1
0.0,33,0.0,1
0.01643999999942025,34,0.2504270000063116,1
0.0,35,0.0,1
0.013395000001764856,36,0.22113099999842234,1
0.0,37,0.0,1
0.014100000000325963,38,0.24633799999719486,1
0.0,39,0.0,1
0.03394499999922118,40,0.4586180000042077,1
0.0,41,0.0,1
0.00878999999986263,42,0.10296599999128375,1
0.0,43,0.0,1
0.01457999999911408,44,0.21173100000305567,1
0.0,45,0.0,1
0.021090000002004672,46,0.23486300000513438,1
0.0,47,0.0,1
0.018299999999726424,48,0.2606809999997495,1
0.0,49,0.0,1
0.15120000000024447,50,1.5316170000005513,1
0.0,51,0.0,1
0.002909999999246793,52,0.030455999993137084,1
0.0,53,0.0,1
0.0029100000028847717,54,0.03259299999626819,1
0.0,55,0.0,1
0.0,56,0.0,1
0.0,57,0.0,1
0.004079999998793937,58,0.033324999996693805,1
0.0,59,0.0,1
0.027959999999438878,60,0.26239000001805834,1
0.0,61,0.0,1
0.009344999998575076,62,0.12597699998877943,1
0.0,63,0.0,1
0.016319999998813728,64,0.24822999999742024,1
0.0,65,0.0,1
0.027975000000878936,66,0.23657200000889134,1
0.0,67,0.0,1
0.02697000000262051,68,0.2432859999971697,1
0.0,69,0.0,1
0.03221999999732361,70,0.3452149999939138,1
0.0,71,0.0,1
0.014670000000478467,72,0.14917000000423286,1
0.0,73,0.0,1
0.016410000000178115,74,0.23461899999529123,1
0.0,75,0.0,1
0.019860000000335276,76,0.2580570000136504,1
0.0,77,0.0,1
0.01877999999851454,78,0.24706999998306856,1
0.0,79,0.0,1
0.04299000000173692,80,0.4525760000105947,1
0.0,81,0.0,1
0.013979999999719439,82,0.13671900000190362,1
0.0,83,0.0,1
0.02981999999974505,84,0.3308099999994738,1
0.0,85,0.0,1
0.03200999999899068,86,0.330932999990182,1
0.0,87,0.0,1
0.028379999999742722,88,0.3159180000075139,1
0.0,89,0.0,1
0.04099499999938416,90,0.4309079999948153,1
0.0,91,0.0,1
0.013950000000477303,92,0.14227300000493415,1
0.0,93,0.0,1
0.03325500000210013,94,0.32452399999601766,1
0.0,95,0.0,1
0.02462999999988824,96,0.2736810000060359,1
0.0,97,0.0,1
0.023385000000416767,98,0.24011300000711344,1
0.0,99,0.0,1
0.03450000000157161,100,0.4157709999853978,1
0.0,101,0.0,1
0.020309999996243278,102,0.19201700000849087,1
0.0,103,0.0,1
0.02606999999989057,104,0.2703860000037821,1
0.0,105,0.0,1
0.04334999999991851,106,0.3635249999933876,1
0.0,107,0.0,1
0.028440000001864973,108,0.26715100000728853,1
0.0,109,0.0,1
0.05407500000001164,110,0.4122309999947902,1
0.0,111,0.0,1
0.020384999999805586,112,0.18975900000077672,1
0.0,113,0.0,1
0.04665000000022701,114,0.31280499999411404,1
0.0,115,0.0,1
0.048644999998941785,116,0.3213499999983469,1
0.0,117,0.0,1
0.03763500000059139,118,0.28631600001244806,1
0.0,119,0.0,1
0.059085000000777654,120,0.4558099999849219,1
0.0,121,0.0,1
0.02470499999981257,122,0.1793220000108704,1
0.0,123,0.0,1
0.03478499999982887,124,0.2702019999996992,1
0.0,125,0.0,1
0.0349949999981618,126,0.3051149999955669,1
0.0,127,0.0,1
0.03435000000172295,128,0.3566280000086408,1
0.0,129,0.0,1
0.04349999999976717,130,0.44213899999158457,1
0.0,131,0.0,1
0.01591499999994994,132,0.14666800000122748,1
0.0,133,0.0,1
0.03139500000179396,134,0.2757560000027297,1
0.0,135,0.0,1
0.036404999998921994,136,0.33514399999694433,1
0.0,137,0.0,1
0.027780000000348082,138,0.27539100000285544,1
0.0,139,0.0,1
0.04859999999825959,140,0.4646000000066124,1
0.0,141,0.0,1
0.01608000000123866,142,0.14575199999671895,1
0.0,143,0.0,1
0.030674999998154817,144,0.2824089999921853,1
0.0,145,0.0,1
0.033914999999979045,146,0.3120729999936884,1
0.0,147,0.0,1
0.03133499999967171,148,0.34680200000002515,1
0.0,149,0.0,1
0.053880000003118766,150,0.5314940000098431,1
0.0,151,0.0,1
0.0120150000002468,152,0.1181639999995241,1
0.0,153,0.0,1
0.034079999997629784,154,0.3342279999924358,1
0.0,155,0.0,1
0.032340000001568114,156,0.2976080000080401,1
0.0,157,0.0,1
0.0312450000019453,158,0.28356900000653695,1
0.0,159,0.0,1
0.04118999999627704,160,0.3833619999932125,1
0.0,161,0.0,1
0.020235000003594905,162,0.18530300000566058,1
0.0,163,0.0,1
0.024884999998903368,164,0.22711199999321252,1
0.0,165,0.0,1
0.03071999999883701,166,0.31878600000345614,1
0.0,167,0.0,1
0.02915999999822816,168,0.235168999992311,1
0.0,169,0.0,1
0.0352950000014971,170,0.3124390000011772,1
0.0,171,0.0,1
0.011699999999109423,172,0.11212099999829661,1
0.0,173,0.0,1
0.028260000002774177,174,0.27008099999511614,1
0.0,175,0.0,1
0.0315599999994447,176,0.24462900000798982,1
0.0,177,0.0,1
0.022289999997155974,178,0.2017820000037318,1
0.0,179,0.0,1
0.04940999999962514,180,0.4165040000079898,1
0.0,181,0.0,1
0.012285000000701984,182,0.10113499998988118,1
0.0,183,0.0,1
0.03651000000172644,184,0.31347700000333134,1
0.0,185,0.0,1
0.029985000001033768,186,0.28149399999529123,1
0.0,187,0.0,1
0.02833499999906053,188,0.25366200000280514,1
0.0,189,0.0,1
0.039615000001504086,190,0.3852539999934379,1
0.0,191,0.0,1
0.011654999998427229,192,0.11651600000914186,1
0.0,193,0.0,1
0.02155499999935273,194,0.2623289999901317,1
0.0,195,0.0,1
0.026160000001254957,196,0.20025599999644328,1
0.0,197,0.0,1
0.025589999997464474,198,0.2064820000086911,1
0.0,199,0.0,1
0.0360450000007404,200,0.3262329999997746,1
0.0,201,0.0,1
0.011655000002065208,202,0.12182600000232924,1
0.0,203,0.0,1
0.025109999998676358,204,0.25244199999724515,1
0.0,205,0.0,1
0.020400000001245644,206,0.1895749999966938,1
0.0,207,0.0,1
0.025634999998146668,208,0.25030499999411404,1
0.0,209,0.0,1
0.0372300000017276,210,0.30529800000658724,1
0.0,211,0.0,1
0.013994999997521518,212,0.10754400001314934,1
0.0,213,0.0,1
0.022170000003825407,214,0.220763999997871,1
0.0,215,0.0,1
0.017489999998360872,216,0.21081599999160971,1
0.0,217,0.0,1
0.022214999997231644,218,0.2004389999929117,1
0.0,219,0.0,1
0.030300000002171146,220,0.30047600000398234,1
0.0,221,0.0,1
0.01164000000062515,222,0.10760500001197215,1
0.0,223,0.0,1
0.018659999997908017,224,0.2037959999870509,1
0.0,225,0.0,1
0.019889999999577412,226,0.19842600001720712,1
0.0,227,0.0,1
0.016335000000253785,228,0.20001199998660013,1
0.0,229,0.0,1
0.03321000000141794,230,0.29455600000801496,1
0.0,231,0.0,1
0.016964999998890562,232,0.12359599999035709,1
0.0,233,0.0,1
0.024510000002919696,234,0.19549499999266118,1
0.0,235,0.0,1
0.019889999995939434,236,0.1983040000195615,1
0.0,237,0.0,1
0.016335000003891764,238,0.19335899998259265,1
0.0,239,0.0,1
0.027329999997164123,240,0.2736210000148276,1
0.0,241,0.0,1
0.01690500000040629,242,0.1304929999896558,1
0.0,243,0.0,1
0.02562000000034459,244,0.196289000014076,1
0.0,245,0.0,1
0.027839999998832354,246,0.21734599999035709,1
0.0,247,0.0,1
0.028425000000424916,248,0.18652299999666866,1
0.0,249,0.0,1
0.03724499999952968,250,0.3486940000002505,1
0.0,251,0.0,1
0.009930000000167638,252,0.09130899999581743,1
0.0,253,0.0,1
0.028560000002471497,254,0.2630000000062864,1
0.0,255,0.0,1
0.028049999997165287,256,0.24304200000187848,1
0.0,257,0.0,1
0.022740000000339933,258,0.199890999996569,1
0.0,259,0.0,1
0.03633000000263564,260,0.31347599999571685,1
0.0,261,0.0,1
0.020339999999123393,262,0.14166300000215415,1
0.0,263,0.0,1
0.02275499999814201,264,0.2603150000068126,1
0.0,265,0.0,1
0.02268000000185566,266,0.20965499999874737,1
0.0,267,0.0,1
0.026789999999891734,268,0.25793499998690095,1
0.0,269,0.0,1
0.028064999998605344,270,0.3517460000148276,1
0.0,271,0.0,1
0.013409999999566935,272,0.14160099999571685,1
0.0,273,0.0,1
0.0204150000026857,274,0.20941199999651872,1
0.0,275,0.0,1
0.017399999996996485,276,0.23803700000280514,1
0.0,277,0.0,1
0.0192300000016985,278,0.25982700000167824,1
0.0,279,0.0,1
0.028665000001637964,280,0.3151849999994738,1
0.0,281,0.0,1
0.010500000000320142,282,0.11731000000145286,1
0.0,283,0.0,1
0.024450000000797445,284,0.2411500000016531,1
0.0,285,0.0,1
0.023384999996778788,286,0.22845399999641813,1
0.0,287,0.0,1
0.01924499999950058,288,0.2329100000060862,1
0.0,289,0.0,1
0.023895000002085,290,0.32989500000257976,1
0.0,291,0.0,1
0.008714999996300321,292,0.13989299998502247,1
0.0,293,0.0,1
0.01749000000199885,294,0.22985800000606105,1
0.0,295,0.0,1
0.02358000000094762,296,0.23815900000045076,1
0.0,297,0.0,1
0.023339999999734573,298,0.22326700000849087,1
0.0,299,0.0,1
0.03272999999899184,300,0.3008419999969192,1
0.0,301,0.0,1
0.011730000001989538,302,0.10180699999909848,1
0.0,303,0.0,1
0.02554500000042026,304,0.20501700000022538,1
0.0,305,0.0,1
0.03140999999595806,306,0.20922899998549838,1
0.0,307,0.0,1
0.027870000005350448,308,0.20520000001124572,1
0.0,309,0.0,1
0.03208499999891501,310,0.2750240000023041,1
0.0,311,0.0,1
0.016814999999041902,312,0.13214099999458995,1
0.0,313,0.0,1
0.024990000001707813,314,0.21209699999599252,1
0.0,315,0.0,1
0.023249999998370185,316,0.21972700001788326,1
0.0,317,0.0,1
0.022110000001703156,318,0.21588099998189136,1
0.0,319,0.0,1
0.03320999999777996,320,0.2983400000084657,1
0.0,321,0.0,1
0.016844999998284038,322,0.13604800000030082,1
0.0,323,0.0,1
0.024450000000797445,324,0.22052000000257976,1
0.0,325,0.0,1
0.020370000002003508,326,0.18572999999742024,1
0.0,327,0.0,1
0.02500499999950989,328,0.234375,1
0.0,329,0.0,1
0.029804999998304993,330,0.28900099999736995,1
0.0,331,0.0,1
0.014535000002069864,332,0.13085899999714456,1
0.0,333,0.0,1
0.024389999998675194,334,0.21704099999624304,1
0.0,335,0.0,1
0.026115000000572763,336,0.1923220000026049,1
0.0,337,0.0,1
0.028500000000349246,338,0.23931900000025053,1
0.0,339,0.0,1
0.042779999999766005,340,0.31274400000984315,1
0.0,341,0.0,1
0.013409999999566935,342,0.14422599998943042,1
0.0,343,0.0,1
0.018060000002151355,344,0.20355299999937415,1
0.0,345,0.0,1
0.023264999999810243,346,0.2717280000069877,1
0.0,347,0.0,1
0.02155499999935273,348,0.22186299999884795,1
0.0,349,0.0,1
0.02990999999747146,350,0.3322140000091167,1
0.0,351,0.0,1
0.014549999999871943,352,0.14446999998472165,1
0.0,353,0.0,1
0.023370000002614688,354,0.22900400000798982,1
0.0,355,0.0,1
0.024975000000267755,356,0.22949299999163486,1
0.0,357,0.0,1
0.019739999999728752,358,0.2287590000050841,1
0.0,359,0.0,1
0.0374100000008184,360,0.34680200000002515,1
0.0,361,0.0,1
0.011654999998427229,362,0.11437999999907333,1
0.0,363,0.0,1
0.015120000000024447,364,0.22937000000092667,1
0.0,365,0.0,1
0.02088000000003376,366,0.2261960000032559,1
0.0,367,0.0,1
0.02267999999821768,368,0.2519529999990482,1
0.0,369,0.0,1
0.03476999999838881,370,0.31683399999747053,1
0.0,371,0.0,1
0.012000000002444722,372,0.1167600000044331,1
0.0,373,0.0,1
0.027975000000878936,374,0.24084499999298714,1
0.0,375,0.0,1
0.027509999999892898,376,0.24572700000135228,1
0.0,377,0.0,1
0.03125999999974738,378,0.24951200000941753,1
0.0,379,0.0,1
0.03847500000119908,380,0.3723759999847971,1
0.0,381,0.0,1
0.013875000000552973,382,0.12652600000728853,1
0.0,383,0.0,1
0.032054999996034894,384,0.25030500000866596,1
0.0,385,0.0,1
0.0246450000013283,386,0.21899399999529123,1
0.0,387,0.0,1
0.03312000000005355,388,0.2894289999967441,1
0.0,389,0.0,1
0.037755000001197914,390,0.3680420000018785,1
0.0,391,0.0,1
0.018059999998513376,392,0.16650300000037532,1
0.0,393,0.0,1
0.026714999999967404,394,0.27496399999654386,1
0.0,395,0.0,1
0.032865000001038425,396,0.2759399999922607,1
0.0,397,0.0,1
0.027360000000044238,398,0.25909400000819005,1
0.0,399,0.0,1
0.04409999999916181,400,0.4198000000033062,1
0.0,401,0.0,1
0.01195499999812455,402,0.10205099999438971,1
0.0,403,0.0,1
0.024990000001707813,404,0.22491400000581052,1
0.0,405,0.0,1
0.028500000000349246,406,0.290833000006387,1
0.0,407,0.0,1
0.02500500000314787,408,0.2208249999966938,1
0.0,409,0.0,1
0.03493499999603955,410,0.3751219999830937,1
0.0,411,0.0,1
0.016770000001997687,412,0.1581420000147773,1
0.0,413,0.0,1
0.020339999999123393,414,0.21997099999862257,1
0.0,415,0.0,1
0.0294450000001234,416,0.2698969999910332,1
0.0,417,0.0,1
0.02329499999905238,418,0.23107900000468362,1
0.0,419,0.0,1
0.030300000002171146,420,0.30316200001107063,1
0.0,421,0.0,1
0.015749999998661224,422,0.12878399998589884,1
0.0,423,0.0,1
0.02321999999912805,424,0.20422400000097696,1
0.0,425,0.0,1
0.02374500000223634,426,0.18377699999837205,1
0.0,427,0.0,1
0.02320499999768799,428,0.20550500000535976,1
0.0,429,0.0,1
0.04531499999939115,430,0.3544309999997495,1
0.0,431,0.0,1
0.0058200000021315645,432,0.048095999998622574,1
0.0,433,0.0,1
0.023354999997536652,434,0.20141599999624304,1
0.0,435,0.0,1
0.026190000004135072,436,0.24432399999932386,1
0.0,437,0.0,1
0.02725500000087777,438,0.17553700000280514,1
0.0,439,0.0,1
0.02974499999618274,440,0.2743530000007013,1
0.0,441,0.0,1
0.014565000001312,442,0.12847900000633672,1
0.0,443,0.0,1
0.02448000000003958,444,0.20349099999293685,1
0.0,445,0.0,1
0.018720000000030268,446,0.20208700001239777,1
0.0,447,0.0,1
0.01756500000192318,448,0.19903599999088328,1
0.0,449,0.0,1
0.028739999997924315,450,0.2711180000042077,1
0.0,451,0.0,1
0.014610000001994194,452,0.12475600000470877,1
0.0,453,0.0,1
0.023339999996096594,454,0.2032469999830937,1
0.0,455,0.0,1
0.01749000000199885,456,0.2011720000009518,1
0.0,457,0.0,1
0.024450000000797445,458,0.2248530000069877,1
0.0,459,0.0,1
0.030914999999367865,460,0.2752690000052098,1
0.0,461,0.0,1
0.01569000000017695,462,0.12658699999155942,1
0.0,463,0.0,1
0.02336999999897671,464,0.2079470000026049,1
0.0,465,0.0,1
0.022649999998975545,466,0.17291200000909157,1
0.0,467,0.0,1
0.029699999999138527,468,0.2243049999960931,1
0.0,469,0.0,1
0.034290000003238674,470,0.27752599999075755,1
0.0,471,0.0,1
0.02028000000063912,472,0.14447100000688806,1
0.0,473,0.0,1
0.021000000000640284,474,0.2145989999989979,1
0.0,475,0.0,1
0.02260499999829335,476,0.19378699999651872,1
0.0,477,0.0,1
0.02712000000246917,478,0.25299100000120234,1
0.0,479,0.0,1
0.029249999999592546,480,0.3122549999970943,1
0.0,481,0.0,1
0.014549999999871943,482,0.14209000000846572,1
0.0,483,0.0,1
0.019289999996544793,484,0.19787600000563543,1
0.0,485,0.0,1
0.0192300000016985,486,0.2570189999823924,1
0.0,487,0.0,1
0.01869000000078813,488,0.21984900000097696,1
0.0,489,0.0,1
0.026249999998981366,490,0.28363000000535976,1
0.0,491,0.0,1
0.009959999999409774,492,0.13238599999749567,1
0.0,493,0.0,1
0.012255000001459848,494,0.1763910000154283,1
0.0,495,0.0,1
0.021614999997837003,496,0.23205599999346305,1
0.0,497,0.0,1
0.012345000002824236,498,0.17443799998727627,1
0.0,499,0.0,1
0.021104999996168772,500,0.3159790000063367,1
0.0,501,0.0,1
0.009360000003653113,502,0.10449199999857228,1
0.0,503,0.0,1
0.01690499999676831,504,0.23059099999954924,1
0.0,505,0.0,1
0.016920000001846347,506,0.18158000000403263,1
0.0,507,0.0,1
0.015299999999115244,508,0.20214799999666866,1
0.0,509,0.0,1
0.02621999999973923,510,0.33245899999747053,1
0.0,511,0.0,1
0.007635000001755543,512,0.07830800001102034,1
0.0,513,0.0,1
0.014054999999643769,514,0.21209699999599252,1
0.0,515,0.0,1
0.014054999999643769,516,0.22052000000257976,1
0.0,517,0.0,1
0.015794999999343418,518,0.2363279999990482,1
0.0,519,0.0,1
0.022860000000946457,520,0.2839359999925364,1
0.0,521,0.0,1
0.008730000001378357,522,0.1330560000060359,1
0.0,523,0.0,1
0.015209999997750856,524,0.18231200000445824,1
0.0,525,0.0,1
0.023339999999734573,526,0.2243659999949159,1
0.0,527,0.0,1
0.02102999999988242,528,0.21209699999599252,1
0.0,529,0.0,1
0.03265500000270549,530,0.3580930000025546,1
0.0,531,0.0,1
0.01164000000062515,532,0.120972000004258,1
0.0,533,0.0,1
0.02216999999654945,534,0.2370599999994738,1
0.0,535,0.0,1
0.026760000000649597,536,0.23614499998802785,1
0.0,537,0.0,1
0.023324999998294516,538,0.22851600001740735,1
0.0,539,0.0,1
0.020475000001169974,540,0.31481899999198504,1
0.0,541,0.0,1
0.0087149999999383,542,0.14367700000002515,1
0.0,543,0.0,1
0.05311500000243541,544,0.39086899999529123,1
0.0,545,0.0,1
0.00804000000061933,546,0.05548100000305567,1
0.0,547,0.0,1
0.031604999996488914,548,0.25518799999554176,1
0.0,549,0.0,1
0.03777000000263797,550,0.3636479999986477,1
0.0,551,0.0,1
0.012900000001536682,552,0.11071700000320561,1
0.0,553,0.0,1
0.026204999994661193,554,0.2644050000089919,1
0.0,555,0.0,1
0.021540000001550652,556,0.20642099999531638,1
0.0,557,0.0,1
0.03185999999914202,558,0.2623290000046836,1
0.0,559,0.0,1
0.03220500000315951,560,0.31634499998472165,1
0.0,561,0.0,1
0.00998999999865191,562,0.14007600001059473,1
0.0,563,0.0,1
0.012344999999186257,564,0.20202599999902304,1
0.0,565,0.0,1
0.023940000002767192,566,0.2628169999952661,1
0.0,567,0.0,1
0.020489999998972053,568,0.19940199999837205,1
0.0,569,0.0,1
0.03202500000043074,570,0.37133799999719486,1
0.0,571,0.0,1
0.01465499999903841,572,0.15521200001239777,1
0.0,573,0.0,1
0.020459999999729916,574,0.20416299998760223,1
0.0,575,0.0,1
0.026310000001103617,576,0.2586060000176076,1
0.0,577,0.0,1
0.014745000000402797,578,0.19665499999246094,1
0.0,579,0.0,1
0.030464999999821885,580,0.29052799999772105,1
0.0,581,0.0,1
0.014609999998356216,582,0.13574199999857228,1
0.0,583,0.0,1
0.02276999999958207,584,0.24346899999363814,1
0.0,585,0.0,1
0.015749999998661224,586,0.1948240000056103,1
0.0,587,0.0,1
0.019320000003062887,588,0.2214360000070883,1
0.0,589,0.0,1
0.02741999999852851,590,0.33196999999927357,1
0.0,591,0.0,1
0.01457999999911408,592,0.147460999985924,1
0.0,593,0.0,1
0.026265000004059402,594,0.27264400001149625,1
0.0,595,0.0,1
0.015899999998509884,596,0.21167000000423286,1
0.0,597,0.0,1
0.020564999998896383,598,0.2627559999964433,1
0.0,599,0.0,1
0.0232800000012503,600,0.3029790000000503,1
0.0,601,0.0,1
0.011114999997516861,602,0.14959699999599252,1
0.0,603,0.0,1
0.013995000001159497,604,0.24139400001149625,1
0.0,605,0.0,1
0.014054999999643769,606,0.24359099999128375,1
0.0,607,0.0,1
0.01591499999994994,608,0.26391599999624304,1
0.0,609,0.0,1
0.01765499999964959,610,0.292237000001478,1
0.0,611,0.0,1
0.008760000000620494,612,0.1500850000011269,1
0.0,613,0.0,1
0.017595000001165317,614,0.24084500000753906,1
0.0,615,0.0,1
0.01990499999737949,616,0.24499499998637475,1
0.0,617,0.0,1
0.014505000002827728,618,0.2227170000114711,1
0.0,619,0.0,1
0.028049999997165287,620,0.3790900000021793,1
0.0,621,0.0,1
0.008880000001227017,622,0.1542349999945145,1
0.0,623,0.0,1
0.021045000001322478,624,0.2534790000063367,1
0.0,625,0.0,1
0.023234999996930128,626,0.2620849999948405,1
0.0,627,0.0,1
0.02434500000163098,628,0.24145499999576714,1
0.0,629,0.0,1
0.026939999999740394,630,0.3684090000024298,1
0.0,631,0.0,1
0.01613999999972293,632,0.14092999999411404,1
0.0,633,0.0,1
0.03655500000240863,634,0.3186030000069877,1
0.0,635,0.0,1
0.027824999997392297,636,0.28692700000829063,1
0.0,637,0.0,1
0.018000000000029104,638,0.256651999996393,1
0.0,639,0.0,1
0.039465000001655426,640,0.43457099999068305,1
0.0,641,0.0,1
0.011024999999790452,642,0.17974799999501556,1
0.0,643,0.0,1
0.022049999999580905,644,0.28619400001480244,1
0.0,645,0.0,1
0.01984499999889522,646,0.2424929999979213,1
0.0,647,0.0,1
0.03086999999868567,648,0.308472000004258,1
0.0,649,0.0,1
0.03432000000248081,650,0.38690099999075755,1
0.0,651,0.0,1
0.014549999999871943,652,0.17993199999909848,1
0.0,653,0.0,1
0.019800000001851004,654,0.2813110000133747,1
0.0,655,0.0,1
0.02846999999746913,656,0.2505489999894053,1
0.0,657,0.0,1
0.026235000001179287,658,0.3096930000028806,1
0.0,659,0.0,1
0.03539999999702559,660,0.36907899999641813,1
0.0,661,0.0,1
0.020400000001245644,662,0.164429000011296,1
0.0,663,0.0,1
0.025035000002390007,664,0.22924799998872913,1
0.0,665,0.0,1
0.03433500000028289,666,0.3014530000073137,1
0.0,667,0.0,1
0.022424999999202555,668,0.22943099998519756,1
0.0,669,0.0,1
0.04456500000014785,670,0.36920200000167824,1
0.0,671,0.0,1
0.020250000001396984,672,0.17071500000020023,1
0.0,673,0.0,1
0.027674999997543637,674,0.26458699999784585,1
0.0,675,0.0,1
0.03530999999929918,676,0.2990730000019539,1
0.0,677,0.0,1
0.029085000001941808,678,0.23400800001400057,1
0.0,679,0.0,1
0.04372499999954016,680,0.36785899999085814,1
0.0,681,0.0,1
0.020099999997910345,682,0.16558900001109578,1
0.0,683,0.0,1
0.03688500000134809,684,0.2941279999940889,1
0.0,685,0.0,1
0.028109999999287538,686,0.23028599999088328,1
0.0,687,0.0,1
0.03072000000247499,688,0.26855400000931695,1
0.0,689,0.0,1
0.04867499999818392,690,0.3730470000009518,1
0.0,691,0.0,1
0.023685000000114087,692,0.17376699998567346,1
0.0,693,0.0,1
0.024675000000570435,694,0.2356570000119973,1
0.0,695,0.0,1
0.037680000001273584,696,0.31896999999298714,1
0.0,697,0.0,1
0.026774999998451676,698,0.2751459999999497,1
0.0,699,0.0,1
0.046770000000833534,700,0.453125,1
0.0,701,0.0,1
0.008159999997587875,702,0.06628400000045076,1
0.0,703,0.0,1
0.02268000000185566,704,0.2980960000131745,1
0.0,705,0.0,1
0.02870999999868218,706,0.2603149999922607,1
0.0,707,0.0,1
0.03183000000353786,708,0.252013999997871,1
0.0,709,0.0,1
0.04832999999780441,710,0.38000499999907333,1
0.0,711,0.0,1
0.01578000000154134,712,0.11920200000167824,1
0.0,713,0.0,1
0.027734999999665888,714,0.21502699999837205,1
0.0,715,0.0,1
0.03515999999945052,716,0.2800290000013774,1
0.0,717,0.0,1
0.019199999998818384,718,0.21112100000027567,1
0.0,719,0.0,1
0.048570000002655433,720,0.3897699999943143,1
0.0,721,0.0,1
0.013859999999112915,722,0.12262000000919215,1
0.0,723,0.0,1
0.027899999997316627,724,0.2078849999961676,1
0.0,725,0.0,1
0.0360450000007404,726,0.26379399999859743,1
0.0,727,0.0,1
0.031814999998459825,728,0.2467039999901317,1
0.0,729,0.0,1
0.039840000001277076,730,0.3096320000040578,1
0.0,731,0.0,1
0.023550000001705484,732,0.17498800001339987,1
0.0,733,0.0,1
0.0334949999996752,734,0.2608029999973951,1
0.0,735,0.0,1
0.03642000000036205,736,0.2594600000011269,1
0.0,737,0.0,1
0.018584999997983687,738,0.21002199999929871,1
0.0,739,0.0,1
0.04777500000272994,740,0.35510299999441486,1
0.0,741,0.0,1
0.013724999997066334,742,0.12451199999486562,1
0.0,743,0.0,1
0.02922000000035041,744,0.2716670000081649,1
0.0,745,0.0,1
0.027089999999589054,746,0.2126459999999497,1
0.0,747,0.0,1
0.02442000000155531,748,0.24066199999651872,1
0.0,749,0.0,1
0.048480000001291046,750,0.3682859999971697,1
0.0,751,0.0,1
0.07066499999928055,752,0.4159550000040326,1
0.0,753,0.0,1
0.005879999996977858,754,0.03179900000395719,1
0.0,755,0.0,1
0.03190500000346219,756,0.3410040000017034,1
0.0,757,0.0,1
0.026204999998299172,758,0.22839299999759533,1
0.0,759,0.0,1
0.040515000000596046,760,0.29937799999606796,1
0.0,761,0.0,1
0.024134999999660067,762,0.1780389999912586,1
0.0,763,0.0,1
0.033629999998083804,764,0.22961400001076981,1
0.0,765,0.0,1
0.02787000000171247,766,0.235168999992311,1
0.0,767,0.0,1
0.02666999999928521,768,0.24023400001169648,1
0.0,769,0.0,1
0.030675000001792796,770,0.2934569999924861,1
0.0,771,0.0,1
0.02336999999897671,772,0.18304499999794643,1
0.0,773,0.0,1
0.03177000000141561,774,0.2363279999990482,1
0.0,775,0.0,1
0.02441999999791733,776,0.23345900001004338,1
0.0,777,0.0,1
0.023220000002766028,778,0.23260499999742024,1
0.0,779,0.0,1
0.03716999999960535,780,0.3001709999953164,1
0.0,781,0.0,1
0.02252999999836902,782,0.19995100000232924,1
0.0,783,0.0,1
0.026760000000649597,784,0.2507330000080401,1
0.0,785,0.0,1
0.02681999999913387,786,0.24780199999804609,1
0.0,787,0.0,1
0.026760000000649597,788,0.2290649999922607,1
0.0,789,0.0,1
0.03661499999725493,790,0.3253180000028806,1
0.0,791,0.0,1
0.011595000003580935,792,0.11865200000465848,1
0.0,793,0.0,1
0.030839999995805556,794,0.2602539999934379,1
0.0,795,0.0,1
0.025560000005498296,796,0.23364299999957439,1
0.0,797,0.0,1
0.02036999999836553,798,0.23217699999804609,1
0.0,799,0.0,1
0.04117499999847496,800,0.3374640000110958,1
0.0,801,0.0,1
0.015090000000782311,802,0.12384000000020023,1
0.0,803,0.0,1
0.027314999999362044,804,0.26263399999879766,1
0.0,805,0.0,1
0.013530000000173459,806,0.19067399998311885,1
0.0,807,0.0,1
0.018195000000559958,808,0.25293000001693144,1
0.0,809,0.0,1
0.01750499999980093,810,0.27947999999742024,1
0.0,811,0.0,1
0.011084999998274725,812,0.13763399999879766,1
0.0,813,0.0,1
0.0192300000016985,814,0.2432249999983469,1
0.0,815,0.0,1
0.01803000000290922,816,0.19042999998782761,1
0.0,817,0.0,1
0.02893499999845517,818,0.215332000007038,1
0.0,819,0.0,1
0.03544499999770778,820,0.2963260000105947,1
0.0,821,0.0,1
0.014520000000629807,822,0.14977999999246094,1
0.0,823,0.0,1
0.020370000002003508,824,0.24682600000232924,1
0.0,825,0.0,1
0.02043000000048778,826,0.20190400000137743,1
0.0,827,0.0,1
0.023339999996096594,828,0.24444599999696948,1
0.0,829,0.0,1
0.0344100000038452,830,0.3328249999904074,1
0.0,831,0.0,1
0.014594999996916158,832,0.1520989999989979,1
0.0,833,0.0,1
0.016260000000329455,834,0.215332000007038,1
0.0,835,0.0,1
0.022124999999505235,836,0.21295200000167824,1
0.0,837,0.0,1
0.018674999999348074,838,0.20483400000375696,1
0.0,839,0.0,1
0.0333600000012666,840,0.29711899999529123,1
0.0,841,0.0,1
0.013410000003204914,842,0.14569100001244806,1
0.0,843,0.0,1
0.0204299999968498,844,0.21380599998519756,1
0.0,845,0.0,1
0.019799999998213025,846,0.21368400000210386,1
0.0,847,0.0,1
0.01743000000351458,848,0.21160900000541005,1
0.0,849,0.0,1
0.029099999999743886,850,0.2675170000002254,1
0.0,851,0.0,1
0.020925000000715954,852,0.17919999999867287,1
0.0,853,0.0,1
0.02675999999701162,854,0.21917699999175966,1
0.0,855,0.0,1
0.01984499999889522,856,0.21350100000563543,1
0.0,857,0.0,1
0.02793000000383472,858,0.21966499999689404,1
0.0,859,0.0,1
0.031964999998308485,860,0.29992700001457706,1
0.0,861,0.0,1
0.014474999999947613,862,0.1407469999830937,1
0.0,863,0.0,1
0.030104999998002313,864,0.217346000004909,1
0.0,865,0.0,1
0.031200000001263106,866,0.21563800000876654,1
0.0,867,0.0,1
0.02674500000284752,868,0.21697999998286832,1
0.0,869,0.0,1
0.02908499999830383,870,0.26635700001497753,1
0.0,871,0.0,1
0.02089499999783584,872,0.169861000002129,1
0.0,873,0.0,1
0.03027000000292901,874,0.2153319999924861,1
0.0,875,0.0,1
0.03238499999861233,876,0.21447700000135228,1
0.0,877,0.0,1
0.02898000000277534,878,0.21856700000353158,1
0.0,879,0.0,1
0.034229999997478444,880,0.2460939999873517,1
0.0,881,0.0,1
0.028874999999970896,882,0.21429500001249835,1
0.0,883,0.0,1
0.031739999998535495,884,0.2655019999947399,1
0.0,885,0.0,1
0.028410000002622837,886,0.29583800000546034,1
0.0,887,0.0,1
0.02344499999890104,888,0.20989999998710118,1
0.0,889,0.0,1
0.04333500000211643,890,0.34881600001244806,1
0.0,891,0.0,1
0.021584999998594867,892,0.17071500000020023,1
0.0,893,0.0,1
0.031199999997625127,894,0.27325399999972433,1
0.0,895,0.0,1
0.021000000000640284,896,0.27490299999772105,1
0.0,897,0.0,1
0.02502000000094995,898,0.3215329999948153,1
0.0,899,0.0,1
0.0268949999990582,900,0.37115500000072643,1
0.0,901,0.0,1
0.011729999998351559,902,0.18042000000423286,1
0.0,903,0.0,1
0.01224000000365777,904,0.21087599999736995,1
0.0,905,0.0,1
0.01427999999941676,906,0.23944099999789614,1
0.0,907,0.0,1
0.01749000000199885,908,0.2581180000124732,1
0.0,909,0.0,1
0.04423499999757041,910,0.45635999999649357,1
0.0,911,0.0,1
0.017820000000938307,912,0.20080500000040047,1
0.0,913,0.0,1
0.014189999998052372,914,0.29608199998619966,1
0.0,915,0.0,1
0.01426500000161468,916,0.29364000001805834,1
0.0,917,0.0,1
0.014219999997294508,918,0.29394499998306856,1
0.0,919,0.0,1
0.017700000000331784,920,0.3640140000061365,1
0.0,921,0.0,1
0.010680000003048917,922,0.2228999999933876,1
0.0,923,0.0,1
0.01419000000169035,924,0.29461700000683777,1
0.0,925,0.0,1
0.014234999998734565,926,0.29772899999807123,1
0.0,927,0.0,1
0.014294999997218838,928,0.29870700000901707,1
0.0,929,0.0,1
0.019575000002078013,930,0.41210899998259265,1
0.0,931,0.0,1
0.011039999997592531,932,0.1967770000192104,1
0.0,933,0.0,1
0.014220000000932487,934,0.3091429999913089,1
0.0,935,0.0,1
0.012360000000626314,936,0.2654420000035316,1
0.0,937,0.0,1
0.016050000001996523,938,0.34668000000237953,1
0.0,939,0.0,1
0.03088500000012573,940,0.4191279999940889,1
0.0,941,0.0,1
0.0,0,0.0,2
0.0,1,0.0,2
0.22559999999975844,2,1.8032229999953415,2
0.0,3,0.0,2
0.004140000000916189,4,0.03204300001380034,2
0.0,5,0.0,2
0.0,6,0.0,2
0.0,7,0.0,2
0.004079999996974948,8,0.03289800000493415,2
0.0,9,0.0,2
0.028740000001562294,10,0.22229000000515953,2
0.0,11,0.0,2
0.004080000000612927,12,0.03442399998311885,2
0.0,13,0.0,2
0.0,14,0.0,2
0.0,15,0.0,2
0.004140000000916189,16,0.032043999992311,2
0.0,17,0.0,2
0.004079999996974948,18,0.03155499999411404,2
0.0,19,0.0,2
0.028635000000576838,20,0.25775099999736995,2
0.0,21,0.0,2
0.004140000000916189,22,0.03216600001906045,2
0.0,23,0.0,2
0.02868000000125903,24,0.22930899998755194,2
0.0,25,0.0,2
0.032879999997021514,26,0.25231899999198504,2
0.0,27,0.0,2
0.02877000000262342,28,0.20813000001362525,2
0.0,29,0.0,2
0.05755499999759195,30,0.44647200001054443,2
0.0,31,0.0,2
0.01224000000001979,32,0.10412599999108352,2
0.0,33,0.0,2
0.03288000000247848,34,0.2511600000143517,2
0.0,35,0.0,2
0.02884499999890977,36,0.22949199998402037,2
0.0,37,0.0,2
0.03299999999944703,38,0.24645999999484047,2
0.0,39,0.0,2
0.05753999999978987,40,0.46746800001710653,2
0.0,41,0.0,2
0.020459999999729916,42,0.15502999999444,2
0.0,43,0.0,2
0.02472000000307162,44,0.1997069999924861,2
0.0,45,0.0,2
0.032879999997021514,46,0.2703240000118967,2
0.0,47,0.0,2
0.03304500000194821,48,0.3118289999838453,2
0.0,49,0.0,2
0.16037999999934982,50,1.2932130000262987,2
0.0,51,0.0,2
0.004139999999097199,52,0.029235999973025173,2
0.0,53,0.0,2
0.0041250000012951205,54,0.03308100000140257,2
0.0,55,0.0,2
0.0,56,0.0,2
0.0,57,0.0,2
0.004080000000612927,58,0.03582799999276176,2
0.0,59,0.0,2
0.03298499999982596,60,0.24548300003516488,2
0.0,61,0.0,2
0.016559999998207786,62,0.12078799997107126,2
0.0,63,0.0,2
0.037140000002182205,64,0.26849400001810864,2
0.0,65,0.0,2
0.02876999999716645,66,0.2146610000054352,2
0.0,67,0.0,2
0.03298499999982596,68,0.2603149999922607,2
0.0,69,0.0,2
0.049230000002353336,70,0.42974799999501556,2
0.0,71,0.0,2
0.01643999999942025,72,0.1448369999998249,2
0.0,73,0.0,2
0.032940000000962755,74,0.27392500001587905,2
0.0,75,0.0,2
0.032939999997324776,76,0.26867699998547323,2
0.0,77,0.0,2
0.03304500000194821,78,0.2695309999980964,2
0.0,79,0.0,2
0.04914000000098895,80,0.4432379999780096,2
0.0,81,0.0,2
0.016379999997298,82,0.15252699999837205,2
0.0,83,0.0,2
0.032640000001265435,84,0.30792200000723824,2
0.0,85,0.0,2
0.02861999999913678,86,0.3210450000187848,2
0.0,87,0.0,2
0.03274500000225089,88,0.31695499998750165,2
0.0,89,0.0,2
0.04507499999999709,90,0.42626999999629334,2
0.0,91,0.0,2
0.02059499999813852,92,0.18627900001592934,2
0.0,93,0.0,2
0.03268500000012864,94,0.28717100000358187,2
0.0,95,0.0,2
0.03258000000096217,96,0.28362999999080785,2
0.0,97,0.0,2
0.02855999999883352,98,0.23950199998216704,2
0.0,99,0.0,2
0.049095000002125744,100,0.4124759999976959,2
0.0,101,0.0,2
0.020399999999426655,102,0.16998300002887845,2
0.0,103,0.0,2
0.02846999999928812,104,0.24011199999949895,2
0.0,105,0.0,2
0.03976499999953376,106,0.3322139999945648,2
0.0,107,0.0,2
0.02960999999959313,108,0.27636699998402037,2
0.0,109,0.0,2
0.04447500000060245,110,0.43451000002096407,2
0.0,111,0.0,2
0.024509999999281717,112,0.1984859999793116,2
0.0,113,0.0,2
0.05521500000031665,114,0.3392330000351649,2
0.0,115,0.0,2
0.03757500000028813,116,0.3012699999671895,2
0.0,117,0.0,2
0.02853000000141037,118,0.2654420000035316,2
0.0,119,0.0,2
0.04892999999719905,120,0.4468990000023041,2
0.0,121,0.0,2
0.020415000000866712,122,0.17962700000498444,2
0.0,123,0.0,2
0.02854499999921245,124,0.26184099999954924,2
0.0,125,0.0,2
0.03269999999974971,126,0.3103019999980461,2
0.0,127,0.0,2
0.03702000000157568,128,0.31543000001693144,2
0.0,129,0.0,2
0.04486500000166416,130,0.4028319999924861,2
0.0,131,0.0,2
0.02035499999692547,132,0.177916999993613,2
0.0,133,0.0,2
0.024510000001100707,134,0.24200500000733882,2
0.0,135,0.0,2
0.036780000000362634,136,0.3038939999823924,2
0.0,137,0.0,2
0.028440000000045984,138,0.25720200000796467,2
0.0,139,0.0,2
0.04867500000000291,140,0.4385990000155289,2
0.0,141,0.0,2
0.016154999999344,142,0.19604499998968095,2
0.0,143,0.0,2
0.03253500000209897,144,0.26861499997903593,2
0.0,145,0.0,2
0.03244499999891559,146,0.30841100003453903,2
0.0,147,0.0,2
0.03254999999990105,148,0.305724999983795,2
0.0,149,0.0,2
0.05287499999940337,150,0.4877930000075139,2
0.0,151,0.0,2
0.01629000000139058,152,0.1535639999783598,2
0.0,153,0.0,2
0.02848499999890919,154,0.26788400002988055,2
0.0,155,0.0,2
0.028739999999743304,156,0.2786250000062864,2
0.0,157,0.0,2
0.0328349999999773,158,0.2641599999915343,2
0.0,159,0.0,2
0.045030000001133885,160,0.38006600001244806,2
0.0,161,0.0,2
0.02051999999821419,162,0.16955599997891113,2
0.0,163,0.0,2
0.03290999999990163,164,0.2667240000155289,2
0.0,165,0.0,2
0.03290999999990163,166,0.2698969999910332,2
0.0,167,0.0,2
0.02877000000080443,168,0.2670899999793619,2
0.0,169,0.0,2
0.04521000000022468,170,0.37780800001928583,2
0.0,171,0.0,2
0.020609999999578577,172,0.13494799999170937,2
0.0,173,0.0,2
0.03290999999990163,174,0.3078010000172071,2
0.0,175,0.0,2
0.028830000001107692,176,0.2703239999827929,2
0.0,177,0.0,2
0.028725000000122236,178,0.23870899999747053,2
0.0,179,0.0,2
0.04919999999947322,180,0.43444800001452677,2
0.0,181,0.0,2
0.008159999999406864,182,0.10522500000661239,2
0.0,183,0.0,2
0.03280500000073516,184,0.29925499999080785,2
0.0,185,0.0,2
0.028635000000576838,186,0.27087399997981265,2
0.0,187,0.0,2
0.02863499999875785,188,0.24682600001688115,2
0.0,189,0.0,2
0.04912499999954889,190,0.41088899999158457,2
0.0,191,0.0,2
0.01636500000131491,192,0.13964799998211674,2
0.0,193,0.0,2
0.037005000000135624,194,0.297303000028478,2
0.0,195,0.0,2
0.028754999999364372,196,0.24645999999484047,2
0.0,197,0.0,2
0.03277499999967404,198,0.28851299997768365,2
0.0,199,0.0,2
0.04912499999954889,200,0.4420160000154283,2
0.0,201,0.0,2
0.016395000002376037,202,0.14434800000162795,2
0.0,203,0.0,2
0.036854999998467974,204,0.3216559999855235,2
0.0,205,0.0,2
0.028650000000197906,206,0.25225800002226606,2
0.0,207,0.0,2
0.03284999999959837,208,0.28503400000045076,2
0.0,209,0.0,2
0.04927499999939755,210,0.43652399998973124,2
0.0,211,0.0,2
0.01644000000123924,212,0.15228199999546632,2
0.0,213,0.0,2
0.03695999999945343,214,0.322083000006387,2
0.0,215,0.0,2
0.02870999999868218,216,0.2534790000063367,2
0.0,217,0.0,2
0.03289500000209955,218,0.2882079999835696,2
0.0,219,0.0,2
0.04914000000098895,220,0.4385990000155289,2
0.0,221,0.0,2
0.016409999998359126,222,0.14703299998654984,2
0.0,223,0.0,2
0.03289499999846157,224,0.27935800002887845,2
0.0,225,0.0,2
0.03290999999990163,226,0.2811280000023544,2
0.0,227,0.0,2
0.03291000000353961,228,0.2814329999673646,2
0.0,229,0.0,2
0.044969999997192645,230,0.3980710000032559,2
0.0,231,0.0,2
0.022559999999430147,232,0.18225100002018735,2
0.0,233,0.0,2
0.03280500000255415,234,0.2862549999845214,2
0.0,235,0.0,2
0.03283499999815831,236,0.28833000001031905,2
0.0,237,0.0,2
0.03292500000134169,238,0.2926640000077896,2
0.0,239,0.0,2
0.045194999998784624,240,0.40179400000488386,2
0.0,241,0.0,2
0.020474999999350985,242,0.18670699998619966,2
0.0,243,0.0,2
0.03276000000187196,244,0.2919920000131242,2
0.0,245,0.0,2
0.03285000000141736,246,0.30706799996551126,2
0.0,247,0.0,2
0.032789999997476116,248,0.2661130000196863,2
0.0,249,0.0,2
0.053220000001601875,250,0.48199500000919215,2
0.0,251,0.0,2
0.01643999999942025,252,0.14495799998985603,2
0.0,253,0.0,2
0.03262499999982538,254,0.2705079999868758,2
0.0,255,0.0,2
0.02869499999906111,256,0.2648930000141263,2
0.0,257,0.0,2
0.02861999999913678,258,0.22961400001076981,2
0.0,259,0.0,2
0.04491000000234635,260,0.36047399998642504,2
0.0,261,0.0,2
0.020339999997304403,262,0.16894499998306856,2
0.0,263,0.0,2
0.03715500000180327,264,0.2926640000077896,2
0.0,265,0.0,2
0.02870999999868218,266,0.22222900000633672,2
0.0,267,0.0,2
0.03290999999990163,268,0.2654409999959171,2
0.0,269,0.0,2
0.049530000002050656,270,0.39318899999489076,2
0.0,271,0.0,2
0.02051999999821419,272,0.16424600000027567,2
0.0,273,0.0,2
0.03274500000225089,274,0.26049800001783296,2
0.0,275,0.0,2
0.02869499999906111,276,0.23394700000062585,2
0.0,277,0.0,2
0.03695999999945343,278,0.2907720000075642,2
0.0,279,0.0,2
0.04512000000067928,280,0.3666990000056103,2
0.0,281,0.0,2
0.01637999999911699,282,0.129027999995742,2
0.0,283,0.0,2
0.03273000000081083,284,0.2711189999827184,2
0.0,285,0.0,2
0.03284999999959837,286,0.25762899999972433,2
0.0,287,0.0,2
0.0328349999999773,288,0.2583619999932125,2
0.0,289,0.0,2
0.04522499999984575,290,0.3626710000098683,2
0.0,291,0.0,2
0.020534999999654246,292,0.1635740000056103,2
0.0,293,0.0,2
0.03269999999974971,294,0.28362999999080785,2
0.0,295,0.0,2
0.03464999999960128,296,0.31225600000470877,2
0.0,297,0.0,2
0.032640000001265435,298,0.30810600001132116,2
0.0,299,0.0,2
0.049020000000382424,300,0.46917699999175966,2
0.0,301,0.0,2
0.016319999998813728,302,0.15301499998895451,2
0.0,303,0.0,2
0.03232500000012806,304,0.32507299998542294,2
0.0,305,0.0,2
0.03348000000187312,306,0.3659060000209138,2
0.0,307,0.0,2
0.03470999999990454,308,0.31903099999180995,2
0.0,309,0.0,2
0.045029999997495906,310,0.42810000001918525,2
0.0,311,0.0,2
0.02028000000063912,312,0.21398999998928048,2
0.0,313,0.0,2
0.034590000001117005,314,0.3314200000022538,2
0.0,315,0.0,2
0.03257999999914318,316,0.32861399999819696,2
0.0,317,0.0,2
0.03258000000096217,318,0.319275000016205,2
0.0,319,0.0,2
0.04500000000007276,320,0.4519649999856483,2
0.0,321,0.0,2
0.020384999999805586,322,0.19891400000778958,2
0.0,323,0.0,2
0.03260999999838532,324,0.31774899997981265,2
0.0,325,0.0,2
0.0286050000013347,326,0.2797240000218153,2
0.0,327,0.0,2
0.03686999999808904,328,0.338988999981666,2
0.0,329,0.0,2
0.0451950000024226,330,0.41198699999949895,2
0.0,331,0.0,2
0.02050499999859312,332,0.19110100000398234,2
0.0,333,0.0,2
0.032865000001038425,334,0.30597000001580454,2
0.0,335,0.0,2
0.02848499999890919,336,0.2846679999784101,2
0.0,337,0.0,2
0.037755000001197914,338,0.34069799998542294,2
0.0,339,0.0,2
0.04694999999992433,340,0.39678900002036244,2
0.0,341,0.0,2
0.02059499999813852,342,0.17791800000122748,2
0.0,343,0.0,2
0.02877000000262342,344,0.24523899998166598,2
0.0,345,0.0,2
0.03674999999930151,346,0.3137820000119973,2
0.0,347,0.0,2
0.028635000000576838,348,0.24566600000252947,2
0.0,349,0.0,2
0.045119999998860294,350,0.3899539999838453,2
0.0,351,0.0,2
0.020460000001548906,352,0.17828400002326816,2
0.0,353,0.0,2
0.032639999997627456,354,0.2806390000041574,2
0.0,355,0.0,2
0.03274500000225089,356,0.27752699999837205,2
0.0,357,0.0,2
0.032804999997097184,358,0.2806400000117719,2
0.0,359,0.0,2
0.051180000002204906,360,0.4240719999943394,2
0.0,361,0.0,2
0.01643999999942025,362,0.13641399997868575,2
0.0,363,0.0,2
0.03297000000020489,364,0.25634700001683086,2
0.0,365,0.0,2
0.03277499999967404,366,0.26684599998407066,2
0.0,367,0.0,2
0.037140000000363216,368,0.2921140000107698,2
0.0,369,0.0,2
0.045180000000982545,370,0.3619999999937136,2
0.0,371,0.0,2
0.016394999998738058,372,0.13720700002158992,2
0.0,373,0.0,2
0.03289499999846157,374,0.2629389999783598,2
0.0,375,0.0,2
0.03269999999974971,376,0.2760009999910835,2
0.0,377,0.0,2
0.03285000000141736,378,0.2589110000117216,2
0.0,379,0.0,2
0.04934999999932188,380,0.3892829999967944,2
0.0,381,0.0,2
0.016349999999874854,382,0.13348300001234747,2
0.0,383,0.0,2
0.03282000000217522,384,0.2562869999965187,2
0.0,385,0.0,2
0.02869499999906111,386,0.22344999999040738,2
0.0,387,0.0,2
0.037065000000438886,388,0.2853999999933876,2
0.0,389,0.0,2
0.045044999998935964,390,0.3587040000129491,2
0.0,391,0.0,2
0.020520000001852168,392,0.16204799999832176,2
0.0,393,0.0,2
0.03281999999853724,394,0.25128199998289347,2
0.0,395,0.0,2
0.032339999999749125,396,0.27337599999736995,2
0.0,397,0.0,2
0.03483000000233005,398,0.30999800001154654,2
0.0,399,0.0,2
0.05732999999781896,400,0.5780640000011772,2
0.0,401,0.0,2
0.008220000001529115,402,0.07226500002434477,2
0.0,403,0.0,2
0.028650000000197906,404,0.2313239999639336,2
0.0,405,0.0,2
0.03686999999808904,406,0.289245000021765,2
0.0,407,0.0,2
0.028800000000046566,408,0.22540299998945557,2
0.0,409,0.0,2
0.0494250000010652,410,0.38269100000616163,2
0.0,411,0.0,2
0.020399999999426655,412,0.16137700001127087,2
0.0,413,0.0,2
0.028740000001562294,414,0.22674499999266118,2
0.0,415,0.0,2
0.036779999996724655,416,0.29840100000728853,2
0.0,417,0.0,2
0.03292500000134169,418,0.25848399999085814,2
0.0,419,0.0,2
0.04521000000204367,420,0.3717039999901317,2
0.0,421,0.0,2
0.016379999997298,422,0.16723600000841543,2
0.0,423,0.0,2
0.03253500000027998,424,0.29315199999837205,2
0.0,425,0.0,2
0.03169500000149128,426,0.2661130000196863,2
0.0,427,0.0,2
0.03470999999990454,428,0.3257449999800883,2
0.0,429,0.0,2
0.0569999999988795,430,0.5960080000222661,2
0.0,431,0.0,2
0.008159999999406864,432,0.08477799998945557,2
0.0,433,0.0,2
0.03268500000012864,434,0.33172600000398234,2
0.0,435,0.0,2
0.03672000000187836,436,0.35907000000588596,2
0.0,437,0.0,2
0.03259499999876425,438,0.2747189999790862,2
0.0,439,0.0,2
0.04303499999878113,440,0.43701200000941753,2
0.0,441,0.0,2
0.02035500000238244,442,0.19543500000145286,2
0.0,443,0.0,2
0.032789999999295105,444,0.31292699999175966,2
0.0,445,0.0,2
0.028740000001562294,446,0.3150630000163801,2
0.0,447,0.0,2
0.03283499999815831,448,0.30957099999068305,2
0.0,449,0.0,2
0.044969999999011634,450,0.43456999998306856,2
0.0,451,0.0,2
0.022500000000945874,452,0.19403100002091378,2
0.0,453,0.0,2
0.03258000000096217,454,0.3110959999903571,2
0.0,455,0.0,2
0.032654999997248524,456,0.299682999990182,2
0.0,457,0.0,2
0.0325200000024779,458,0.30932600001688115,2
0.0,459,0.0,2
0.04605000000083237,460,0.42352300000493415,2
0.0,461,0.0,2
0.024540000000342843,462,0.19134499999927357,2
0.0,463,0.0,2
0.03269999999974971,464,0.3010859999922104,2
0.0,465,0.0,2
0.03280499999891617,466,0.2620849999948405,2
0.0,467,0.0,2
0.03874500000165426,468,0.33606000000145286,2
0.0,469,0.0,2
0.04570499999681488,470,0.4151000000128988,2
0.0,471,0.0,2
0.0253050000010262,472,0.19079599998076446,2
0.0,473,0.0,2
0.028679999999440042,474,0.3014530000218656,2
0.0,475,0.0,2
0.028440000000045984,476,0.2493889999750536,2
0.0,477,0.0,2
0.03664500000195403,478,0.3220220000075642,2
0.0,479,0.0,2
0.04522499999984575,480,0.3894039999868255,2
0.0,481,0.0,2
0.02042999999866879,482,0.1751710000098683,2
0.0,483,0.0,2
0.028800000000046566,484,0.22723400001996197,2
0.0,485,0.0,2
0.036915000000590226,486,0.2994989999860991,2
0.0,487,0.0,2
0.03277499999967404,488,0.26178000000072643,2
0.0,489,0.0,2
0.04522499999984575,490,0.36938499999814667,2
0.0,491,0.0,2
0.016499999999723514,492,0.12878400000045076,2
0.0,493,0.0,2
0.032940000000962755,494,0.27410899999085814,2
0.0,495,0.0,2
0.0329249999995227,496,0.32250999999814667,2
0.0,497,0.0,2
0.028800000000046566,498,0.24292000001878478,2
0.0,499,0.0,2
0.045419999998557614,500,0.39288299999316223,2
0.0,501,0.0,2
0.016485000000102445,502,0.13464299999759533,2
0.0,503,0.0,2
0.03694500000165135,504,0.3098759999847971,2
0.0,505,0.0,2
0.02057999999851745,506,0.25830100002349354,2
0.0,507,0.0,2
0.032940000000962755,508,0.28503400000045076,2
0.0,509,0.0,2
0.053384999999252614,510,0.4750359999889042,2
0.0,511,0.0,2
0.012420000000929576,512,0.10321099997963756,2
0.0,513,0.0,2
0.032865000001038425,514,0.28955100002349354,2
0.0,515,0.0,2
0.03299999999944703,516,0.28887899999972433,2
0.0,517,0.0,2
0.03718499999922642,518,0.31555200001457706,2
0.0,519,0.0,2
0.045270000000527943,520,0.40411399997537956,2
0.0,521,0.0,2
0.016499999999723514,522,0.1445310000272002,2
0.0,523,0.0,2
0.03280500000073516,524,0.2930909999704454,2
0.0,525,0.0,2
0.03290999999990163,526,0.281189000030281,2
0.0,527,0.0,2
0.03288000000065949,528,0.28637699998216704,2
0.0,529,0.0,2
0.045119999998860294,530,0.4328000000095926,2
0.0,531,0.0,2
0.02058000000033644,532,0.140625,2
0.0,533,0.0,2
0.03295499999876483,534,0.2846680000075139,2
0.0,535,0.0,2
0.028650000000197906,536,0.23199399997247383,2
0.0,537,0.0,2
0.03694500000165135,538,0.29724200000055134,2
0.0,539,0.0,2
0.045329999999012216,540,0.36523399999714456,2
0.0,541,0.0,2
0.020640000000639702,542,0.16546600000583567,2
0.0,543,0.0,2
0.08896499999900698,544,0.5943609999958426,2
0.0,545,0.0,2
0.011160000000018044,546,0.08026100002462044,2
0.0,547,0.0,2
0.042705000001660665,548,0.2603759999910835,2
0.0,549,0.0,2
0.044804999997722916,550,0.41876199998660013,2
0.0,551,0.0,2
0.01644000000123924,552,0.13024900000891648,2
0.0,553,0.0,2
0.0368849999995291,554,0.2852169999969192,2
0.0,555,0.0,2
0.02862000000095577,556,0.22521999999298714,2
0.0,557,0.0,2
0.03905999999915366,558,0.2832029999990482,2
0.0,559,0.0,2
0.04524000000128581,560,0.3567510000139009,2
0.0,561,0.0,2
0.02051999999821419,562,0.16223099999479018,2
0.0,563,0.0,2
0.028890000001410954,564,0.2199710000131745,2
0.0,565,0.0,2
0.0370199999979377,566,0.2831420000002254,2
0.0,567,0.0,2
0.028800000000046566,568,0.22466999999596737,2
0.0,569,0.0,2
0.0494250000010652,570,0.3823250000132248,2
0.0,571,0.0,2
0.016395000000557047,572,0.16277999998419546,2
0.0,573,0.0,2
0.028829999999288702,574,0.22106999999959953,2
0.0,575,0.0,2
0.03289500000209955,576,0.28295900000375696,2
0.0,577,0.0,2
0.02885999999853084,578,0.22076399996876717,2
0.0,579,0.0,2
0.045119999998860294,580,0.3620600000140257,2
0.0,581,0.0,2
0.02058000000033644,582,0.16107200001715682,2
0.0,583,0.0,2
0.037154999999984284,584,0.28570599999511614,2
0.0,585,0.0,2
0.028860000002168817,586,0.22259499999927357,2
0.0,587,0.0,2
0.03299999999944703,588,0.23754900001222268,2
0.0,589,0.0,2
0.04546499999742082,590,0.32195999997202307,2
0.0,591,0.0,2
0.02058000000215543,592,0.14434800000162795,2
0.0,593,0.0,2
0.028980000000956352,594,0.22583100001793355,2
0.0,595,0.0,2
0.033014999997249106,596,0.22643999999854714,2
0.0,597,0.0,2
0.037140000000363216,598,0.256041999993613,2
0.0,599,0.0,2
0.04133999999976368,600,0.28906300000380725,2
0.0,601,0.0,2
0.020700000000942964,602,0.14428700000280514,2
0.0,603,0.0,2
0.03307499999937136,604,0.23113999998895451,2
0.0,605,0.0,2
0.03310500000225147,606,0.22943099998519756,2
0.0,607,0.0,2
0.033104999996794504,608,0.22638000003644265,2
0.0,609,0.0,2
0.045480000002498855,610,0.31689399998867884,2
0.0,611,0.0,2
0.02057999999851745,612,0.14227299997583032,2
0.0,613,0.0,2
0.03299999999944703,614,0.225525000016205,2
0.0,615,0.0,2
0.03298500000164495,616,0.22711200002231635,2
0.0,617,0.0,2
0.028889999997772975,618,0.19537299999501556,2
0.0,619,0.0,2
0.04956000000311178,620,0.3424079999967944,2
0.0,621,0.0,2
0.020684999999502907,622,0.14385999998194166,2
0.0,623,0.0,2
0.03304499999831023,624,0.2232660000154283,2
0.0,625,0.0,2
0.03299999999944703,626,0.22644100000616163,2
0.0,627,0.0,2
0.02862000000277476,628,0.21142499998677522,2
0.0,629,0.0,2
0.05020499999773165,630,0.41803000000072643,2
0.0,631,0.0,2
0.016320000002451707,632,0.13104300000122748,2
0.0,633,0.0,2
0.03803999999763619,634,0.2566520000109449,2
0.0,635,0.0,2
0.032639999999446445,636,0.2537849999789614,2
0.0,637,0.0,2
0.028860000000349828,638,0.19470200000796467,2
0.0,639,0.0,2
0.04926000000159547,640,0.37451200000941753,2
0.0,641,0.0,2
0.020625000001018634,642,0.13470399999641813,2
0.0,643,0.0,2
0.02863499999875785,644,0.2404790000000503,2
0.0,645,0.0,2
0.02855999999883352,646,0.2302239999989979,2
0.0,647,0.0,2
0.03682500000104483,648,0.28973399999085814,2
0.0,649,0.0,2
0.04507499999999709,650,0.3627930000075139,2
0.0,651,0.0,2
0.020459999999729916,652,0.17102099998737685,2
0.0,653,0.0,2
0.03282000000035623,654,0.25561500000185333,2
0.0,655,0.0,2
0.028800000000046566,656,0.1920160000154283,2
0.0,657,0.0,2
0.036929999998392304,658,0.2540900000021793,2
0.0,659,0.0,2
0.04489500000272528,660,0.33538799997768365,2
0.0,661,0.0,2
0.020399999999426655,662,0.16571000003023073,2
0.0,663,0.0,2
0.02855999999883352,664,0.23736599998665042,2
0.0,665,0.0,2
0.036779999998543644,666,0.3383179999946151,2
0.0,667,0.0,2
0.028665000001637964,668,0.22851600000285544,2
0.0,669,0.0,2
0.04471499999999651,670,0.40466299999388866,2
0.0,671,0.0,2
0.020459999999729916,672,0.18975799999316223,2
0.0,673,0.0,2
0.03284999999959837,674,0.3096310000109952,2
0.0,675,0.0,2
0.03262499999982538,676,0.3234260000172071,2
0.0,677,0.0,2
0.03259500000240223,678,0.33605899996473454,2
0.0,679,0.0,2
0.04493999999795051,680,0.43634100002236664,2
0.0,681,0.0,2
0.02052000000003318,682,0.15923999997903593,2
0.0,683,0.0,2
0.036854999998467974,684,0.29864500000257976,2
0.0,685,0.0,2
0.028560000002471497,686,0.2402350000338629,2
0.0,687,0.0,2
0.03259499999876425,688,0.2515259999781847,2
0.0,689,0.0,2
0.044969999999011634,690,0.3547969999781344,2
0.0,691,0.0,2
0.020460000003367895,692,0.16156000003684312,2
0.0,693,0.0,2
0.02876999999898544,694,0.22393799998098984,2
0.0,695,0.0,2
0.038940000000366126,696,0.29840100000728853,2
0.0,697,0.0,2
0.03298499999800697,698,0.2518920000002254,2
0.0,699,0.0,2
0.05439000000114902,700,0.4360350000206381,2
0.0,701,0.0,2
0.008159999999406864,702,0.06909199996152893,2
0.0,703,0.0,2
0.03690000000096916,704,0.29022200001054443,2
0.0,705,0.0,2
0.034965000000738655,706,0.30798300000606105,2
0.0,707,0.0,2
0.03262499999982538,708,0.33715900001698174,2
0.0,709,0.0,2
0.051059999997960404,710,0.5426019999722484,2
0.0,711,0.0,2
0.0172050000019226,712,0.19928000000072643,2
0.0,713,0.0,2
0.035954999997557024,714,0.29504400002770126,2
0.0,715,0.0,2
0.03960000000006403,716,0.3763429999817163,2
0.0,717,0.0,2
0.02862000000277476,718,0.2736199999926612,2
0.0,719,0.0,2
0.054959999999482534,720,0.5355840000265744,2
0.0,721,0.0,2
0.016259999998510466,722,0.16357399997650646,2
0.0,723,0.0,2
0.041355000001203734,724,0.3530880000034813,2
0.0,725,0.0,2
0.04933499999970081,726,0.4320679999946151,2
0.0,727,0.0,2
0.03265499999906751,728,0.3016970000171568,2
0.0,729,0.0,2
0.04971000000114145,730,0.4425659999833442,2
0.0,731,0.0,2
0.021375000000261934,732,0.180664000014076,2
0.0,733,0.0,2
0.03476999999838881,734,0.27825899998424575,2
0.0,735,0.0,2
0.032565000001341105,736,0.281983000022592,2
0.0,737,0.0,2
0.03276000000005297,738,0.2737419999903068,2
0.0,739,0.0,2
0.051944999997431296,740,0.42919999998412095,2
0.0,741,0.0,2
0.016320000002451707,742,0.13220200000796467,2
0.0,743,0.0,2
0.03671999999824038,744,0.24706999998306856,2
0.0,745,0.0,2
0.028350000000500586,746,0.2947390000335872,2
0.0,747,0.0,2
0.03274500000225089,748,0.29095399999641813,2
0.0,749,0.0,2
0.048719999998866115,750,0.4260260000010021,2
0.0,751,0.0,2
0.06214499999805412,752,0.3914179999846965,2
0.0,753,0.0,2
0.006120000001828885,754,0.040161000011721626,2
0.0,755,0.0,2
0.036540000000968575,756,0.2821049999911338,2
0.0,757,0.0,2
0.033179999998537824,758,0.2553100000077393,2
0.0,759,0.0,2
0.04099500000120315,760,0.3255000000062864,2
0.0,761,0.0,2
0.024525000000721775,762,0.21490500000072643,2
0.0,763,0.0,2
0.03251999999883992,764,0.31164599998737685,2
0.0,765,0.0,2
0.03275999999823398,766,0.28906199999619275,2
0.0,767,0.0,2
0.03786000000036438,768,0.2948000000033062,2
0.0,769,0.0,2
0.04092000000127882,770,0.30481000000145286,2
0.0,771,0.0,2
0.024540000000342843,772,0.2146599999978207,2
0.0,773,0.0,2
0.03259499999876425,774,0.261597000004258,2
0.0,775,0.0,2
0.03276000000005297,776,0.24987800000235438,2
0.0,777,0.0,2
0.032940000000962755,778,0.24371300000348128,2
0.0,779,0.0,2
0.040979999999763095,780,0.29815699998289347,2
0.0,781,0.0,2
0.024539999998523854,782,0.18524200000683777,2
0.0,783,0.0,2
0.028664999999818974,784,0.22570800001267344,2
0.0,785,0.0,2
0.03703499999937776,786,0.25512699998216704,2
0.0,787,0.0,2
0.032715000001189765,788,0.249206000007689,2
0.0,789,0.0,2
0.04513500000030035,790,0.32586700000683777,2
0.0,791,0.0,2
0.016499999999723514,792,0.11389099998632446,2
0.0,793,0.0,2
0.03284999999959837,794,0.31774999998742715,2
0.0,795,0.0,2
0.028739999999743304,796,0.2595209999999497,2
0.0,797,0.0,2
0.03798000000278989,798,0.37786900001810864,2
0.0,799,0.0,2
0.04589999999916472,800,0.46551500001805834,2
0.0,801,0.0,2
0.016319999998813728,802,0.14666699996450916,2
0.0,803,0.0,2
0.03689999999915017,804,0.3110960000194609,2
0.0,805,0.0,2
0.02877000000262342,806,0.2270509999943897,2
0.0,807,0.0,2
0.032789999997476116,808,0.2990109999955166,2
0.0,809,0.0,2
0.041205000001355074,810,0.3131720000237692,2
0.0,811,0.0,2
0.02050500000041211,812,0.16009499997016974,2
0.0,813,0.0,2
0.0328799999988405,814,0.2813719999976456,2
0.0,815,0.0,2
0.02868000000125903,816,0.257569000008516,2
0.0,817,0.0,2
0.036779999998543644,818,0.34991400002036244,2
0.0,819,0.0,2
0.046905000001061126,820,0.48889199999393895,2
0.0,821,0.0,2
0.02058000000033644,822,0.1795039999706205,2
0.0,823,0.0,2
0.03695999999945343,824,0.3115850000176579,2
0.0,825,0.0,2
0.028679999999440042,826,0.2721550000132993,2
0.0,827,0.0,2
0.03277499999967404,828,0.30548099998850375,2
0.0,829,0.0,2
0.04117500000029395,830,0.3789680000045337,2
0.0,831,0.0,2
0.0246450000013283,832,0.2146599999978207,2
0.0,833,0.0,2
0.0328799999988405,834,0.29870600000140257,2
0.0,835,0.0,2
0.03276000000187196,836,0.3370360000117216,2
0.0,837,0.0,2
0.0328799999988405,838,0.258849999983795,2
0.0,839,0.0,2
0.04104000000006636,840,0.31915299998945557,2
0.0,841,0.0,2
0.024584999999206048,842,0.20318600002792664,2
0.0,843,0.0,2
0.03288000000065949,844,0.2717290000000503,2
0.0,845,0.0,2
0.03281999999853724,846,0.2652589999779593,2
0.0,847,0.0,2
0.03280500000255415,848,0.29864500000257976,2
0.0,849,0.0,2
0.0408900000002177,850,0.37786800001049414,2
0.0,851,0.0,2
0.024479999998220592,852,0.23693899999489076,2
0.0,853,0.0,2
0.03349500000149419,854,0.34558100000140257,2
0.0,855,0.0,2
0.032639999997627456,856,0.3208619999932125,2
0.0,857,0.0,2
0.0326550000008865,858,0.3571769999980461,2
0.0,859,0.0,2
0.04385999999976775,860,0.4524540000129491,2
0.0,861,0.0,2
0.020324999999502324,862,0.21563700001570396,2
0.0,863,0.0,2
0.036840000000665896,864,0.35119699998176657,2
0.0,865,0.0,2
0.0555000000003929,866,0.4706420000002254,2
0.0,867,0.0,2
0.02748000000065076,868,0.3533929999975953,2
0.0,869,0.0,2
0.05170499999803724,870,0.5573729999887291,2
0.0,871,0.0,2
0.03583500000058848,872,0.3098149999859743,2
0.0,873,0.0,2
0.040455000000292785,874,0.3538810000172816,2
0.0,875,0.0,2
0.05305500000213215,876,0.4592899999988731,2
0.0,877,0.0,2
0.0389999999988504,878,0.35504200001014397,2
0.0,879,0.0,2
0.06121499999790103,880,0.5126339999842457,2
0.0,881,0.0,2
0.05416500000137603,882,0.36248800001339987,2
0.0,883,0.0,2
0.06463499999881606,884,0.37994300000718795,2
0.0,885,0.0,2
0.056595000001834705,886,0.43457099999068305,2
0.0,887,0.0,2
0.028140000000348664,888,0.24865700001828372,2
0.0,889,0.0,2
0.06552000000010594,890,0.4326779999828432,2
0.0,891,0.0,2
0.030524999998306157,892,0.22851600000285544,2
0.0,893,0.0,2
0.04185000000143191,894,0.34326200000941753,2
0.0,895,0.0,2
0.046769999999014544,896,0.3545529999828432,2
0.0,897,0.0,2
0.04392000000007101,898,0.3551020000013523,2
0.0,899,0.0,2
0.06026999999994587,900,0.46173099998850375,2
0.0,901,0.0,2
0.020265000001018052,902,0.12866200003190897,2
0.0,903,0.0,2
0.0370199999979377,904,0.1884159999608528,2
0.0,905,0.0,2
0.032940000000962755,906,0.1784670000197366,2
0.0,907,0.0,2
0.037215000000287546,908,0.20770199998514727,2
0.0,909,0.0,2
0.06770999999935157,910,0.5509040000033565,2
0.0,911,0.0,2
0.02757000000201515,912,0.2444450000184588,2
0.0,913,0.0,2
0.0329249999995227,914,0.34881600001244806,2
0.0,915,0.0,2
0.033029999998689163,916,0.3486329999868758,2
0.0,917,0.0,2
0.03299999999944703,918,0.35284400000819005,2
0.0,919,0.0,2
0.04117500000029395,920,0.43536399997537956,2
0.0,921,0.0,2
0.024809999998979038,922,0.26324500000919215,2
0.0,923,0.0,2
0.03303000000232714,924,0.3402709999936633,2
0.0,925,0.0,2
0.028830000001107692,926,0.30383300001267344,2
0.0,927,0.0,2
0.03712499999892316,928,0.3931270000175573,2
0.0,929,0.0,2
0.04118999999809603,930,0.43658499998855405,2
0.0,931,0.0,2
0.02478000000155589,932,0.25848399999085814,2
0.0,933,0.0,2
0.03303000000050815,934,0.34942600000067614,2
0.0,935,0.0,2
0.028860000000349828,936,0.29107700000167824,2
0.0,937,0.0,2
0.037154999998165295,938,0.39306599998963065,2
0.0,939,0.0,2
0.045255000000906875,940,0.47668500000145286,2
0.0,941,0.0,2
