dram,epoch,package,socket
0.0,0,0.0,1
0.0,1,0.0,1
0.1220099999991362,2,1.020751999996719,1
0.0,3,0.0,1
0.00397500000326545,4,0.02935799999977462,1
0.0,5,0.0,1
0.00781499999720836,6,0.060729999997420236,1
0.0,7,0.0,1
0.003974999999627471,8,0.026794000004883856,1
0.0,9,0.0,1
0.02749500000209082,10,0.21026599999458995,1
0.0,11,0.0,1
0.0038399999975808896,12,0.0311280000169063,1
0.0,13,0.0,1
0.0038399999975808896,14,0.031127999987802468,1
0.0,15,0.0,1
0.0038700000040989835,16,0.030457000000751577,1
0.0,17,0.0,1
0.0038099999983387534,18,0.030456000007689,1
0.0,19,0.0,1
0.030825000001641456,20,0.2385260000010021,1
0.0,21,0.0,1
0.007665000000997679,22,0.05590799999481533,1
0.0,23,0.0,1
0.003944999996747356,24,0.027159999997820705,1
0.0,25,0.0,1
0.0038849999982630834,26,0.03118900000117719,1
0.0,27,0.0,1
0.0040200000039476436,28,0.02844300000288058,1
0.0,29,0.0,1
0.0324449999970966,30,0.2316889999929117,1
0.0,31,0.0,1
0.004080000002431916,32,0.02795400000468362,1
0.0,33,0.0,1
0.0,34,0.0,1
0.0,35,0.0,1
0.004079999998793937,36,0.02844300000288058,1
0.0,37,0.0,1
0.0,38,0.0,1
0.0,39,0.0,1
0.026190000000497093,40,0.203125,1
0.0,41,0.0,1
0.008099999999103602,42,0.06341499999689404,1
0.0,43,0.0,1
0.01628999999957159,44,0.12121599999954924,1
0.0,45,0.0,1
0.0,46,0.0,1
0.0,47,0.0,1
0.004080000002431916,48,0.02838099999644328,1
0.0,49,0.0,1
0.022049999999580905,50,0.17626999999629334,1
0.0,51,0.0,1
0.004079999998793937,52,0.030456000007689,1
0.0,53,0.0,1
0.004080000002431916,54,0.030395999987376854,1
0.0,55,0.0,1
0.0040349999981117435,56,0.02758800001174677,1
0.0,57,0.0,1
0.004124999999476131,58,0.02514599999994971,1
0.0,59,0.0,1
0.02043000000048778,60,0.14166300000215415,1
0.0,61,0.0,1
0.008160000001225853,62,0.06280500000866596,1
0.0,63,0.0,1
0.0040650000009918585,64,0.032836999991559424,1
0.0,65,0.0,1
0.004049999999551801,66,0.034912000002805144,1
0.0,67,0.0,1
0.0,68,0.0,1
0.0,69,0.0,1
0.032339999997930136,70,0.256835999985924,1
0.0,71,0.0,1
0.004079999998793937,72,0.027466000014101155,1
0.0,73,0.0,1
0.0038400000012188684,74,0.03961199999321252,1
0.0,75,0.0,1
0.0038400000012188684,76,0.03777999999874737,1
0.0,77,0.0,1
0.0,78,0.0,1
0.0,79,0.0,1
0.023729999997158302,80,0.2567140000028303,1
0.0,81,0.0,1
0.00804000000061933,82,0.07122800000070129,1
0.0,83,0.0,1
0.004035000001749722,84,0.03558399999747053,1
0.0,85,0.0,1
0.0,86,0.0,1
0.0,87,0.0,1
0.003929999998945277,88,0.03637699999671895,1
0.0,89,0.0,1
0.01599000000351225,90,0.13665800000308082,1
0.0,91,0.0,1
0.0038399999975808896,92,0.03619299999263603,1
0.0,93,0.0,1
0.004020000000309665,94,0.035035000008065253,1
0.0,95,0.0,1
0.004079999998793937,96,0.03161599999293685,1
0.0,97,0.0,1
0.004020000000309665,98,0.03466800000751391,1
0.0,99,0.0,1
0.027930000000196742,100,0.2410890000028303,1
0.0,101,0.0,1
0.004020000000309665,102,0.031432999996468425,1
0.0,103,0.0,1
0.0040650000009918585,104,0.03118900000117719,1
0.0,105,0.0,1
0.0,106,0.0,1
0.0,107,0.0,1
0.0040349999981117435,108,0.033263999997871,1
0.0,109,0.0,1
0.02832000000125845,110,0.2528069999971194,1
0.0,111,0.0,1
0.008099999999103602,112,0.06890900000871625,1
0.0,113,0.0,1
0.004020000000309665,114,0.037902999989455566,1
0.0,115,0.0,1
0.003974999999627471,116,0.0393680000124732,1
0.0,117,0.0,1
0.0,118,0.0,1
0.0,119,0.0,1
0.028064999998605344,120,0.2575069999875268,1
0.0,121,0.0,1
0.007860000001528533,122,0.07177700000465848,1
0.0,123,0.0,1
0.0120150000002468,124,0.10949699999764562,1
0.0,125,0.0,1
0.03222000000096159,126,0.29858400000375696,1
0.0,127,0.0,1
0.030299999998533167,128,0.29846200000611134,1
0.0,129,0.0,1
0.05988000000070315,130,0.5714719999959925,1
0.0,131,0.0,1
0.00804000000061933,132,0.07366999999794643,1
0.0,133,0.0,1
0.03026999999929103,134,0.2922359999938635,1
0.0,135,0.0,1
0.024375000000873115,136,0.24560600001132116,1
0.0,137,0.0,1
0.03223499999876367,138,0.2993770000030054,1
0.0,139,0.0,1
0.046545000001060544,140,0.4248659999866504,1
0.0,141,0.0,1
0.013979999999719439,142,0.1276849999994738,1
0.0,143,0.0,1
0.0204299999968498,144,0.2242440000118222,1
0.0,145,0.0,1
0.029760000004898757,146,0.27893000000040047,1
0.0,147,0.0,1
0.024359999999433057,148,0.24584999999206048,1
0.0,149,0.0,1
0.03184499999770196,150,0.3627319999941392,1
0.0,151,0.0,1
0.014609999998356216,152,0.1738280000136001,1
0.0,153,0.0,1
0.015720000003057066,154,0.2337039999983972,1
0.0,155,0.0,1
0.015885000000707805,156,0.29937699998845346,1
0.0,157,0.0,1
0.0174299999998766,158,0.265625,1
0.0,159,0.0,1
0.022049999999580905,160,0.3627930000075139,1
0.0,161,0.0,1
0.016950000001088483,162,0.16070500000205357,1
0.0,163,0.0,1
0.022649999998975545,164,0.22668500000145286,1
0.0,165,0.0,1
0.01922999999806052,166,0.2998049999878276,1
0.0,167,0.0,1
0.024509999999281717,168,0.2785030000086408,1
0.0,169,0.0,1
0.019199999998818384,170,0.35913100000470877,1
0.0,171,0.0,1
0.01104000000123051,172,0.16186499998730142,1
0.0,173,0.0,1
0.01698000000033062,174,0.23254400001314934,1
0.0,175,0.0,1
0.01411500000176602,176,0.2588499999983469,1
0.0,177,0.0,1
0.015764999996463303,178,0.28967300000658724,1
0.0,179,0.0,1
0.025215000001480803,180,0.37060599999676924,1
0.0,181,0.0,1
0.007020000000920845,182,0.13348299999779556,1
0.0,183,0.0,1
0.014039999998203712,184,0.25390699999115895,1
0.0,185,0.0,1
0.018120000004273606,186,0.2871090000116965,1
0.0,187,0.0,1
0.012194999995699618,188,0.22412099999201018,1
0.0,189,0.0,1
0.01936500000374508,190,0.3477180000045337,1
0.0,191,0.0,1
0.012209999997139676,192,0.1677849999978207,1
0.0,193,0.0,1
0.014055000003281748,194,0.2527470000059111,1
0.0,195,0.0,1
0.018659999997908017,196,0.24969499999133404,1
0.0,197,0.0,1
0.019710000000486616,198,0.2540889999945648,1
0.0,199,0.0,1
0.017639999998209532,200,0.3363650000101188,1
0.0,201,0.0,1
0.008760000000620494,202,0.15600599999015685,1
0.0,203,0.0,1
0.014159999998810235,204,0.24023400001169648,1
0.0,205,0.0,1
0.014220000000932487,206,0.24304199998732656,1
0.0,207,0.0,1
0.014100000000325963,208,0.23999000000185333,1
0.0,209,0.0,1
0.021300000000337604,210,0.3551030000089668,1
0.0,211,0.0,1
0.009360000000015134,212,0.11975100000563543,1
0.0,213,0.0,1
0.01411500000176602,214,0.2465819999924861,1
0.0,215,0.0,1
0.018659999997908017,216,0.2926020000013523,1
0.0,217,0.0,1
0.02172000000064145,218,0.2582399999955669,1
0.0,219,0.0,1
0.024510000002919696,220,0.43914799999038223,1
0.0,221,0.0,1
0.009989999995013932,222,0.17059300001710653,1
0.0,223,0.0,1
0.014100000000325963,224,0.2553099999931874,1
0.0,225,0.0,1
0.012225000002217712,226,0.21801799999957439,1
0.0,227,0.0,1
0.015960000000632135,228,0.2887570000020787,1
0.0,229,0.0,1
0.02515499999935855,230,0.37945599999511614,1
0.0,231,0.0,1
0.0087149999999383,232,0.1690669999952661,1
0.0,233,0.0,1
0.012299999998504063,234,0.22052000000257976,1
0.0,235,0.0,1
0.0186150000008638,236,0.2575070000166306,1
0.0,237,0.0,1
0.019275000002380693,238,0.29180899998755194,1
0.0,239,0.0,1
0.019274999998742715,240,0.36035200000333134,1
0.0,241,0.0,1
0.008699999998498242,242,0.16455100000894163,1
0.0,243,0.0,1
0.014549999999871943,244,0.23199399998702575,1
0.0,245,0.0,1
0.027840000002470333,246,0.2937019999953918,1
0.0,247,0.0,1
0.029699999999138527,248,0.33520500001031905,1
0.0,249,0.0,1
0.043679999998857966,250,0.44989000000350643,1
0.0,251,0.0,1
0.015735000000859145,252,0.20422299999336246,1
0.0,253,0.0,1
0.016019999999116408,254,0.25500499999907333,1
0.0,255,0.0,1
0.01644000000305823,256,0.2900999999983469,1
0.0,257,0.0,1
0.019364999996469123,258,0.31695600000966806,1
0.0,259,0.0,1
0.019440000000031432,260,0.38970999998855405,1
0.0,261,0.0,1
0.007140000001527369,262,0.13897700000961777,1
0.0,263,0.0,1
0.012419999999110587,264,0.2777099999948405,1
0.0,265,0.0,1
0.017564999998285202,266,0.26934800000162795,1
0.0,267,0.0,1
0.01404000000184169,268,0.2521969999943394,1
0.0,269,0.0,1
0.021315000001777662,270,0.38000499999907333,1
0.0,271,0.0,1
0.009360000000015134,272,0.12493900000117719,1
0.0,273,0.0,1
0.015284999997675186,274,0.2553100000077393,1
0.0,275,0.0,1
0.019770000002608867,276,0.2806389999896055,1
0.0,277,0.0,1
0.016439999995782273,278,0.27746600001410116,1
0.0,279,0.0,1
0.02755500000057509,280,0.44799799998872913,1
0.0,281,0.0,1
0.007590000001073349,282,0.10034200000518467,1
0.0,283,0.0,1
0.014159999998810235,284,0.25714099999458995,1
0.0,285,0.0,1
0.012405000001308508,286,0.2576300000073388,1
0.0,287,0.0,1
0.019664999999804422,288,0.24884000000020023,1
0.0,289,0.0,1
0.021089999998366693,290,0.39099099999293685,1
0.0,291,0.0,1
0.010530000003200257,292,0.132569000008516,1
0.0,293,0.0,1
0.015390000000479631,294,0.26110799999150913,1
0.0,295,0.0,1
0.01766999999745167,296,0.26501499999722,1
0.0,297,0.0,1
0.011730000001989538,298,0.2296749999950407,1
0.0,299,0.0,1
0.03998999999748776,300,0.42755100000067614,1
0.0,301,0.0,1
0.0054000000018277206,302,0.13061500001640525,1
0.0,303,0.0,1
0.014025000000401633,304,0.2277839999878779,1
0.0,305,0.0,1
0.01608000000123866,306,0.2873530000069877,1
0.0,307,0.0,1
0.014099999996687984,308,0.2610469999926863,1
0.0,309,0.0,1
0.024090000002615852,310,0.36932399999932386,1
0.0,311,0.0,1
0.013544999997975538,312,0.16522200001054443,1
0.0,313,0.0,1
0.01253999999971711,314,0.22930900000210386,1
0.0,315,0.0,1
0.02517000000079861,316,0.2950439999840455,1
0.0,317,0.0,1
0.011760000001231674,318,0.227723000003607,1
0.0,319,0.0,1
0.03041999999913969,320,0.3995360000117216,1
0.0,321,0.0,1
0.012360000000626314,322,0.16137699999671895,1
0.0,323,0.0,1
0.0186150000008638,324,0.2446289999934379,1
0.0,325,0.0,1
0.014699999999720603,326,0.21698000001197215,1
0.0,327,0.0,1
0.024000000001251465,328,0.2907709999999497,1
0.0,329,0.0,1
0.03313499999785563,330,0.3629149999906076,1
0.0,331,0.0,1
0.011669999999867287,332,0.12872300000162795,1
0.0,333,0.0,1
0.026235000001179287,334,0.2899780000007013,1
0.0,335,0.0,1
0.015749999998661224,336,0.22399900000891648,1
0.0,337,0.0,1
0.02441999999791733,338,0.2679449999850476,1
0.0,339,0.0,1
0.03442500000164728,340,0.4414060000126483,1
0.0,341,0.0,1
0.01171500000054948,342,0.12921099999221042,1
0.0,343,0.0,1
0.014580000002752058,344,0.22399900000891648,1
0.0,345,0.0,1
0.017699999996693805,346,0.24975599999015685,1
0.0,347,0.0,1
0.0174299999998766,348,0.2596440000052098,1
0.0,349,0.0,1
0.023925000001327135,350,0.361388999997871,1
0.0,351,0.0,1
0.008819999999104766,352,0.14965799999481533,1
0.0,353,0.0,1
0.021014999998442363,354,0.23999000000185333,1
0.0,355,0.0,1
0.018765000000712462,356,0.24163800000678748,1
0.0,357,0.0,1
0.018795000003592577,358,0.2580569999990985,1
0.0,359,0.0,1
0.029249999999592546,360,0.3763429999962682,1
0.0,361,0.0,1
0.011759999997593695,362,0.13146999999298714,1
0.0,363,0.0,1
0.021059999999124557,364,0.2518920000147773,1
0.0,365,0.0,1
0.0308100000002014,366,0.25250199998845346,1
0.0,367,0.0,1
0.031230000000505242,368,0.2545780000073137,1
0.0,369,0.0,1
0.038430000000516884,370,0.3818360000004759,1
0.0,371,0.0,1
0.017970000000786968,372,0.17352300000493415,1
0.0,373,0.0,1
0.018884999997681007,374,0.24859599999035709,1
0.0,375,0.0,1
0.01584000000366359,376,0.21728499999153428,1
0.0,377,0.0,1
0.016949999997450504,378,0.2805790000129491,1
0.0,379,0.0,1
0.02636999999958789,380,0.34057600000232924,1
0.0,381,0.0,1
0.01344000000244705,382,0.15814200000022538,1
0.0,383,0.0,1
0.015390000000479631,384,0.2487179999880027,1
0.0,385,0.0,1
0.015240000000630971,386,0.24462900000798982,1
0.0,387,0.0,1
0.015179999994870741,388,0.25299100000120234,1
0.0,389,0.0,1
0.02058000000397442,390,0.33862300000328105,1
0.0,391,0.0,1
0.012809999996534316,392,0.12420599999313708,1
0.0,393,0.0,1
0.021750000003521563,394,0.2697760000010021,1
0.0,395,0.0,1
0.012524999998277053,396,0.20898399999714456,1
0.0,397,0.0,1
0.016950000001088483,398,0.2853400000021793,1
0.0,399,0.0,1
0.019440000000031432,400,0.34081999999762047,1
0.0,401,0.0,1
0.008249999998952262,402,0.12060500000370666,1
0.0,403,0.0,1
0.02050500000041211,404,0.2731329999951413,1
0.0,405,0.0,1
0.014699999999720603,406,0.203125,1
0.0,407,0.0,1
0.015315000000555301,408,0.24090499999874737,1
0.0,409,0.0,1
0.022365000000718283,410,0.3449709999986226,1
0.0,411,0.0,1
0.00713999999788939,412,0.11785900000541005,1
0.0,413,0.0,1
0.01599000000351225,414,0.26239000000350643,1
0.0,415,0.0,1
0.01247999999759486,416,0.20373500000278,1
0.0,417,0.0,1
0.01653000000078464,418,0.24017399999138433,1
0.0,419,0.0,1
0.021359999998821877,420,0.34527600000728853,1
0.0,421,0.0,1
0.010634999998728745,422,0.11425699999381322,1
0.0,423,0.0,1
0.014220000000932487,424,0.22729500000423286,1
0.0,425,0.0,1
0.014220000000932487,426,0.22790600000007544,1
0.0,427,0.0,1
0.01427999999941676,428,0.23297099999035709,1
0.0,429,0.0,1
0.021150000000488944,430,0.3456420000002254,1
0.0,431,0.0,1
0.00713999999788939,432,0.11694300001545344,1
0.0,433,0.0,1
0.01419000000169035,434,0.22503699999651872,1
0.0,435,0.0,1
0.012480000001232838,436,0.22772199999599252,1
0.0,437,0.0,1
0.014159999998810235,438,0.22815000000991859,1
0.0,439,0.0,1
0.01787999999942258,440,0.3118889999896055,1
0.0,441,0.0,1
0.008880000001227017,442,0.14025899999251124,1
0.0,443,0.0,1
0.012419999999110587,444,0.199707000007038,1
0.0,445,0.0,1
0.024900000000343425,446,0.27008099999511614,1
0.0,447,0.0,1
0.023339999999734573,448,0.28247000000556,1
0.0,449,0.0,1
0.017625000000407454,450,0.31079099999624304,1
0.0,451,0.0,1
0.011220000000321306,452,0.15033000000403263,1
0.0,453,0.0,1
0.01714499999798136,454,0.27661100000841543,1
0.0,455,0.0,1
0.012420000002748566,456,0.20233199998619966,1
0.0,457,0.0,1
0.026504999997996492,458,0.2839349999994738,1
0.0,459,0.0,1
0.022860000000946457,460,0.33990500000072643,1
0.0,461,0.0,1
0.00998999999865191,462,0.1521610000054352,1
0.0,463,0.0,1
0.012360000000626314,464,0.20867900000303052,1
0.0,465,0.0,1
0.014160000002448214,466,0.27825899999879766,1
0.0,467,0.0,1
0.01766999999745167,468,0.26379399999859743,1
0.0,469,0.0,1
0.029865000000427244,470,0.3656009999976959,1
0.0,471,0.0,1
0.009360000000015134,472,0.12213099999644328,1
0.0,473,0.0,1
0.014294999997218838,474,0.2221680000075139,1
0.0,475,0.0,1
0.016020000002754387,476,0.2471919999952661,1
0.0,477,0.0,1
0.01240499999767053,478,0.2009890000044834,1
0.0,479,0.0,1
0.023595000002387678,480,0.35778799999388866,1
0.0,481,0.0,1
0.008879999997589039,482,0.15240500000072643,1
0.0,483,0.0,1
0.019320000003062887,484,0.22509800000989344,1
0.0,485,0.0,1
0.01766999999745167,486,0.24884000000020023,1
0.0,487,0.0,1
0.026850000002013985,488,0.2856449999817414,1
0.0,489,0.0,1
0.03275999999823398,490,0.45062200000393204,1
0.0,491,0.0,1
0.012914999999338761,492,0.1535040000017034,1
0.0,493,0.0,1
0.028650000000197906,494,0.35894700000062585,1
0.0,495,0.0,1
0.019335000000864966,496,0.2744139999995241,1
0.0,497,0.0,1
0.024000000001251465,498,0.3166510000010021,1
0.0,499,0.0,1
0.021210000002611196,500,0.3947140000091167,1
0.0,501,0.0,1
0.007079999995767139,502,0.12884499999927357,1
0.0,503,0.0,1
0.0163650000031339,504,0.23901399999158457,1
0.0,505,0.0,1
0.014219999997294508,506,0.24627699999837205,1
0.0,507,0.0,1
0.0141299999995681,508,0.24566600000252947,1
0.0,509,0.0,1
0.020609999999578577,510,0.3376469999930123,1
0.0,511,0.0,1
0.008880000001227017,512,0.155456000007689,1
0.0,513,0.0,1
0.013605000000097789,514,0.24267600000894163,1
0.0,515,0.0,1
0.014220000000932487,516,0.24298100000305567,1
0.0,517,0.0,1
0.016394999998738058,518,0.26806699999724515,1
0.0,519,0.0,1
0.019500000002153683,520,0.36108400000375696,1
0.0,521,0.0,1
0.00893999999971129,522,0.15679899998940527,1
0.0,523,0.0,1
0.015390000000479631,524,0.2458489999989979,1
0.0,525,0.0,1
0.014189999998052372,526,0.24401900000520982,1
0.0,527,0.0,1
0.024960000002465677,528,0.28314199998567346,1
0.0,529,0.0,1
0.04012499999953434,530,0.5714110000117216,1
0.0,531,0.0,1
0.01397999999608146,532,0.184875999999349,1
0.0,533,0.0,1
0.02688000000125612,534,0.35235600000305567,1
0.0,535,0.0,1
0.018195000000559958,536,0.32421799999428913,1
0.0,537,0.0,1
0.020370000002003508,538,0.2669069999974454,1
0.0,539,0.0,1
0.03463499999998021,540,0.5053709999920102,1
0.0,541,0.0,1
0.007559999998193234,542,0.11200000000826549,1
0.0,543,0.0,1
0.022860000000946457,544,0.3192750000016531,1
0.0,545,0.0,1
0.030029999998077983,546,0.35546800000884105,1
0.0,547,0.0,1
0.03252000000065891,548,0.3526619999902323,1
0.0,549,0.0,1
0.04118999999991502,550,0.4611199999926612,1
0.0,551,0.0,1
0.020400000001245644,552,0.1873780000169063,1
0.0,553,0.0,1
0.021045000001322478,554,0.24957299999368843,1
0.0,555,0.0,1
0.02162999999927706,556,0.2839959999982966,1
0.0,557,0.0,1
0.018209999998362036,558,0.22509799999534152,1
0.0,559,0.0,1
0.024060000003373716,560,0.3452150000084657,1
0.0,561,0.0,1
0.01240499999767053,562,0.15301499998895451,1
0.0,563,0.0,1
0.0240300000004936,564,0.289429000011296,1
0.0,565,0.0,1
0.012299999998504063,566,0.2282709999853978,1
0.0,567,0.0,1
0.014220000000932487,568,0.24688700000115205,1
0.0,569,0.0,1
0.03492000000187545,570,0.3958130000100937,1
0.0,571,0.0,1
0.012810000000172295,572,0.1393439999956172,1
0.0,573,0.0,1
0.015240000000630971,574,0.27075199999671895,1
0.0,575,0.0,1
0.016334999996615807,576,0.25366200000280514,1
0.0,577,0.0,1
0.021045000001322478,578,0.2600710000115214,1
0.0,579,0.0,1
0.029204999998910353,580,0.3883659999992233,1
0.0,581,0.0,1
0.009375000001455192,582,0.12969999999040738,1
0.0,583,0.0,1
0.024525000000721775,584,0.2710570000053849,1
0.0,585,0.0,1
0.023324999998294516,586,0.2825319999974454,1
0.0,587,0.0,1
0.026925000001938315,588,0.28100600000470877,1
0.0,589,0.0,1
0.035504999996192055,590,0.38769499999762047,1
0.0,591,0.0,1
0.015824999998585554,592,0.153625999999349,1
0.0,593,0.0,1
0.028650000000197906,594,0.2269889999879524,1
0.0,595,0.0,1
0.031050000001414446,596,0.3219000000099186,1
0.0,597,0.0,1
0.026340000000345754,598,0.23956299999554176,1
0.0,599,0.0,1
0.03154500000164262,600,0.38128600000345614,1
0.0,601,0.0,1
0.014534999998431886,602,0.15051300000050105,1
0.0,603,0.0,1
0.013995000001159497,604,0.2580569999990985,1
0.0,605,0.0,1
0.022124999999505235,606,0.26098600000841543,1
0.0,607,0.0,1
0.02682000000277185,608,0.24493400000210386,1
0.0,609,0.0,1
0.027404999997088453,610,0.34216299999388866,1
0.0,611,0.0,1
0.020414999999047723,612,0.17205799999646842,1
0.0,613,0.0,1
0.021660000002157176,614,0.2119749999983469,1
0.0,615,0.0,1
0.029715000000578584,616,0.29791300000215415,1
0.0,617,0.0,1
0.016919999998208368,618,0.2466430000058608,1
0.0,619,0.0,1
0.055335000000923174,620,0.5972289999917848,1
0.0,621,0.0,1
0.00803999999698135,622,0.07678200000373181,1
0.0,623,0.0,1
0.02854500000466942,624,0.2819829999934882,1
0.0,625,0.0,1
0.021989999997458654,626,0.2846070000086911,1
0.0,627,0.0,1
0.021660000002157176,628,0.27752600000530947,1
0.0,629,0.0,1
0.024600000000646105,630,0.35906999999133404,1
0.0,631,0.0,1
0.010424999996757833,632,0.11981199998990633,1
0.0,633,0.0,1
0.014054999999643769,634,0.23107900001923554,1
0.0,635,0.0,1
0.014774999999644933,636,0.21246399999654386,1
0.0,637,0.0,1
0.021674999999959255,638,0.2894279999891296,1
0.0,639,0.0,1
0.02637000000322587,640,0.3599250000115717,1
0.0,641,0.0,1
0.007694999996601837,642,0.08947699998680037,1
0.0,643,0.0,1
0.012405000001308508,644,0.2370000000082655,1
0.0,645,0.0,1
0.018224999999802094,646,0.2672119999915594,1
0.0,647,0.0,1
0.014699999999720603,648,0.1934200000105193,1
0.0,649,0.0,1
0.021045000001322478,650,0.3031009999976959,1
0.0,651,0.0,1
0.007095000000845175,652,0.13562000000092667,1
0.0,653,0.0,1
0.015764999996463303,654,0.24523900001076981,1
0.0,655,0.0,1
0.012330000001384178,656,0.19012499999371357,1
0.0,657,0.0,1
0.02800500000375905,658,0.2275389999995241,1
0.0,659,0.0,1
0.023879999997006962,660,0.2942499999917345,1
0.0,661,0.0,1
0.011280000002443558,662,0.13263000000733882,1
0.0,663,0.0,1
0.015254999994795071,664,0.21160799999779556,1
0.0,665,0.0,1
0.013950000000477303,666,0.21154800000658724,1
0.0,667,0.0,1
0.018660000005183974,668,0.21710199999506585,1
0.0,669,0.0,1
0.019289999996544793,670,0.30120899999747053,1
0.0,671,0.0,1
0.0087149999999383,672,0.13568099999974947,1
0.0,673,0.0,1
0.07036499999958323,674,0.49633799999719486,1
0.0,675,0.0,1
0.003810000001976732,676,0.03479000000515953,1
0.0,677,0.0,1
0.03190499999982421,678,0.2661739999894053,1
0.0,679,0.0,1
0.031425000001036096,680,0.2962039999983972,1
0.0,681,0.0,1
0.016379999997298,682,0.1699220000009518,1
0.0,683,0.0,1
0.017460000002756715,684,0.22766100001172163,1
0.0,685,0.0,1
0.02908499999830383,686,0.22772199999599252,1
0.0,687,0.0,1
0.026835000000573928,688,0.24066199999651872,1
0.0,689,0.0,1
0.018674999999348074,690,0.29321300001174677,1
0.0,691,0.0,1
0.02217000000018743,692,0.17425499999080785,1
0.0,693,0.0,1
0.0232800000012503,694,0.2214349999994738,1
0.0,695,0.0,1
0.027930000000196742,696,0.22467100000358187,1
0.0,697,0.0,1
0.021075000000564614,698,0.22601300000678748,1
0.0,699,0.0,1
0.02036999999836553,700,0.3133549999911338,1
0.0,701,0.0,1
0.016274999998131534,702,0.11328099999809638,1
0.0,703,0.0,1
0.021525000000110595,704,0.2588500000128988,1
0.0,705,0.0,1
0.014070000001083827,706,0.2297969999781344,1
0.0,707,0.0,1
0.012194999999337597,708,0.20050100001390092,1
0.0,709,0.0,1
0.019215000000258442,710,0.35150099999736995,1
0.0,711,0.0,1
0.008744999999180436,712,0.14459300000453368,1
0.0,713,0.0,1
0.012269999999261927,714,0.19866900000488386,1
0.0,715,0.0,1
0.015735000004497124,716,0.25506599999789614,1
0.0,717,0.0,1
0.012284999997064006,718,0.2003779999940889,1
0.0,719,0.0,1
0.019425000002229353,720,0.33941699999559205,1
0.0,721,0.0,1
0.0087149999999383,722,0.1480710000032559,1
0.0,723,0.0,1
0.012314999996306142,724,0.19854700000723824,1
0.0,725,0.0,1
0.025649999999586726,726,0.21081599999160971,1
0.0,727,0.0,1
0.02095500000359607,728,0.21563700000115205,1
0.0,729,0.0,1
0.02207999999882304,730,0.2695309999980964,1
0.0,731,0.0,1
0.017459999999118736,732,0.18048100000305567,1
0.0,733,0.0,1
0.013979999999719439,734,0.21429499999794643,1
0.0,735,0.0,1
0.015195000003586756,736,0.20727500000793952,1
0.0,737,0.0,1
0.023414999999658903,738,0.21112099998572376,1
0.0,739,0.0,1
0.03295499999876483,740,0.34472599999571685,1
0.0,741,0.0,1
0.019874999998137355,742,0.19738800000050105,1
0.0,743,0.0,1
0.027900000000954606,744,0.28552200000558514,1
0.0,745,0.0,1
0.01757999999972526,746,0.2514649999939138,1
0.0,747,0.0,1
0.014145000001008157,748,0.2302250000066124,1
0.0,749,0.0,1
0.02275500000177999,750,0.3218380000034813,1
0.0,751,0.0,1
0.009434999996301485,752,0.11682199999631848,1
0.0,753,0.0,1
0.01591500000358792,754,0.2626950000121724,1
0.0,755,0.0,1
0.014009999998961575,756,0.23376499999722,1
0.0,757,0.0,1
0.014009999998961575,758,0.23284899999271147,1
0.0,759,0.0,1
0.023999999997613486,760,0.3260490000102436,1
0.0,761,0.0,1
0.01576500000373926,762,0.15411399998993147,1
0.0,763,0.0,1
0.02216999999654945,764,0.2742920000018785,1
0.0,765,0.0,1
0.01983000000109314,766,0.26611299999058247,1
0.0,767,0.0,1
0.014009999998961575,768,0.25024500001745764,1
0.0,769,0.0,1
0.019275000002380693,770,0.3253169999952661,1
0.0,771,0.0,1
0.012299999998504063,772,0.15161099999386352,1
0.0,773,0.0,1
0.012330000001384178,774,0.20190500000899192,1
0.0,775,0.0,1
0.01576500000010128,776,0.2636709999933373,1
0.0,777,0.0,1
0.012210000000777654,778,0.2011720000009518,1
0.0,779,0.0,1
0.024600000000646105,780,0.33197100000688806,1
0.0,781,0.0,1
0.009374999997817213,782,0.11193800000182819,1
0.0,783,0.0,1
0.014025000000401633,784,0.24383599999418948,1
0.0,785,0.0,1
0.01238999999986845,786,0.190124000000651,1
0.0,787,0.0,1
0.01577999999790336,788,0.24157699999341276,1
0.0,789,0.0,1
0.014070000004721805,790,0.24438500001269858,1
0.0,791,0.0,1
0.016439999995782273,792,0.1644289999967441,1
0.0,793,0.0,1
0.014010000002599554,794,0.21581999998306856,1
0.0,795,0.0,1
0.014084999998885905,796,0.21740700001828372,1
0.0,797,0.0,1
0.01404000000184169,798,0.21813999999722,1
0.0,799,0.0,1
0.025200000000040745,800,0.31286600000748876,1
0.0,801,0.0,1
0.01690499999676831,802,0.16357399997650646,1
0.0,803,0.0,1
0.018735000001470326,804,0.2302860000054352,1
0.0,805,0.0,1
0.014070000001083827,806,0.23199500000919215,1
0.0,807,0.0,1
0.01576500000010128,808,0.2457880000001751,1
0.0,809,0.0,1
0.015810000000783475,810,0.2452999999950407,1
0.0,811,0.0,1
0.010544999997364357,812,0.1609500000049593,1
0.0,813,0.0,1
0.014175000000250293,814,0.21588099999644328,1
0.0,815,0.0,1
0.013995000001159497,816,0.21795700000075158,1
0.0,817,0.0,1
0.014100000000325963,818,0.2194210000016028,1
0.0,819,0.0,1
0.019889999995939434,820,0.2723390000028303,1
0.0,821,0.0,1
0.010545000004640315,822,0.17205799999646842,1
0.0,823,0.0,1
0.014025000000401633,824,0.21588200000405777,1
0.0,825,0.0,1
0.012284999997064006,826,0.19280999999318738,1
0.0,827,0.0,1
0.01585500000146567,828,0.23986800000420772,1
0.0,829,0.0,1
0.015839999996387633,830,0.27215600000636186,1
0.0,831,0.0,1
0.010560000002442393,832,0.1657100000011269,1
0.0,833,0.0,1
0.014025000000401633,834,0.2153929999913089,1
0.0,835,0.0,1
0.014085000002523884,836,0.21453899999323767,1
0.0,837,0.0,1
0.016379999997298,838,0.220153999995091,1
0.0,839,0.0,1
0.01750499999980093,840,0.2669060000189347,1
0.0,841,0.0,1
0.010575000000244472,842,0.16155999999318738,1
0.0,843,0.0,1
0.012269999999261927,844,0.1869509999960428,1
0.0,845,0.0,1
0.01585500000146567,846,0.23974599999201018,1
0.0,847,0.0,1
0.014009999998961575,848,0.21154800000658724,1
0.0,849,0.0,1
0.01756500000192318,850,0.2613530000089668,1
0.0,851,0.0,1
0.01578000000154134,852,0.13842699999804609,1
0.0,853,0.0,1
0.015824999998585554,854,0.23327699999208562,1
0.0,855,0.0,1
0.012269999999261927,856,0.19024600001284853,1
0.0,857,0.0,1
0.01584000000002561,858,0.23883099999511614,1
0.0,859,0.0,1
0.019274999998742715,860,0.23205499998584855,1
0.0,861,0.0,1
0.0105150000017602,862,0.15979100001277402,1
0.0,863,0.0,1
0.015794999999343418,864,0.24426200000743847,1
0.0,865,0.0,1
0.012360000000626314,866,0.19122299998707604,1
0.0,867,0.0,1
0.02155499999935273,868,0.23565699999744538,1
0.0,869,0.0,1
0.014175000000250293,870,0.21179200000187848,1
0.0,871,0.0,1
0.012419999999110587,872,0.15783700000611134,1
0.0,873,0.0,1
0.005385000000387663,874,0.1290889999945648,1
0.0,875,0.0,1
0.012480000001232838,876,0.16662600000563543,1
0.0,877,0.0,1
0.013380000000324799,878,0.1665039999934379,1
0.0,879,0.0,1
0.0072000000000116415,880,0.17273000000568572,1
0.0,881,0.0,1
0.0,882,0.07580500000040047,1
0.0,883,0.0,1
0.00803999999698135,884,0.14666800000122748,1
0.0,885,0.0,1
0.01074000000153319,886,0.1508789999934379,1
0.0,887,0.0,1
0.007020000000920845,888,0.123596000004909,1
0.0,889,0.0,1
0.0,890,0.13073699999949895,1
0.0,891,0.0,1
0.0035849999985657632,892,0.10070799999812152,1
0.0,893,0.0,1
0.0,894,0.08410700000240467,1
0.0,895,0.0,1
0.010725000000093132,896,0.1467889999912586,1
0.0,897,0.0,1
0.015165000000706641,898,0.17633100000966806,1
0.0,899,0.0,1
0.012450000001990702,900,0.1739499999966938,1
0.0,901,0.0,1
0.0071250000000873115,902,0.10967999999411404,1
0.0,903,0.0,1
0.011594999996304978,904,0.15594500000588596,1
0.0,905,0.0,1
0.010695000000850996,906,0.15594499999133404,1
0.0,907,0.0,1
0.01246499999979278,908,0.1561280000169063,1
0.0,909,0.0,1
0.013380000000324799,910,0.19201599998632446,1
0.0,911,0.0,1
0.011760000001231674,912,0.13562100000854116,1
0.0,913,0.0,1
0.014159999998810235,914,0.17614699999103323,1
0.0,915,0.0,1
0.023414999999658903,916,0.18969700000889134,1
0.0,917,0.0,1
0.015269999999873107,918,0.19451899999694433,1
0.0,919,0.0,1
0.022260000001551816,920,0.2927860000054352,1
0.0,921,0.0,1
0.010575000000244472,922,0.16387899999972433,1
0.0,923,0.0,1
0.01652999999714666,924,0.25714099999458995,1
0.0,925,0.0,1
0.014175000000250293,926,0.25311299999884795,1
0.0,927,0.0,1
0.01404000000184169,928,0.24218800000380725,1
0.0,929,0.0,1
0.015944999999192078,930,0.26379399999859743,1
0.0,931,0.0,1
0.010560000002442393,932,0.16009499999927357,1
0.0,933,0.0,1
0.022184999997989507,934,0.2114259999943897,1
0.0,935,0.0,1
0.019889999999577412,936,0.2280880000180332,1
0.0,937,0.0,1
0.017520000001240987,938,0.24584999999206048,1
0.0,939,0.0,1
0.0228449999995064,940,0.28759699998772703,1
0.0,941,0.0,1
0.01584000000002561,942,0.24688800000876654,1
0.0,943,0.0,1
0.027389999999286374,944,0.3150630000018282,1
0.0,945,0.0,1
0.02608499999769265,946,0.28509499999927357,1
0.0,947,0.0,1
0.03303000000232714,948,0.3668830000096932,1
0.0,949,0.0,1
0.03592500000013388,950,0.37194799998542294,1
0.0,951,0.0,1
0.02801999999792315,952,0.28228699999453966,1
0.0,953,0.0,1
0.03162000000156695,954,0.3695070000103442,1
0.0,955,0.0,1
0.027525000001332955,956,0.3389889999962179,1
0.0,957,0.0,1
0.03637499999967986,958,0.41564999999536667,1
0.0,959,0.0,1
0.036089999997784616,960,0.4096070000086911,1
0.0,961,0.0,1
0.02845500000330503,962,0.3217770000046585,1
0.0,963,0.0,1
0.031289999998989515,964,0.36242700000002515,1
0.0,965,0.0,1
0.024404999996477272,966,0.3310549999878276,1
0.0,967,0.0,1
0.014655000002676388,968,0.2600090000050841,1
0.0,969,0.0,1
0.029115000001183944,970,0.3457029999990482,1
0.0,971,0.0,1
0.013350000001082662,972,0.25653100000636186,1
0.0,973,0.0,1
0.012434999996912666,974,0.25,1
0.0,975,0.0,1
0.02493000000322354,976,0.31488099999842234,1
0.0,977,0.0,1
0.023774999997840496,978,0.23046799999428913,1
0.0,979,0.0,1
0.027989999998681014,980,0.33050599999842234,1
0.0,981,0.0,1
0.020370000002003508,982,0.23730400000931695,1
0.0,983,0.0,1
0.02149499999723048,984,0.22875999999814667,1
0.0,985,0.0,1
0.02050500000405009,986,0.28906299998925533,1
0.0,987,0.0,1
0.012839999999414431,988,0.22650099999736995,1
0.0,989,0.0,1
0.019260000000940636,990,0.2785650000150781,1
0.0,991,0.0,1
0.012299999998504063,992,0.19512899999972433,1
0.0,993,0.0,1
0.017009999999572756,994,0.23968499999318738,1
0.0,995,0.0,1
0.012299999998504063,996,0.1855470000009518,1
0.0,997,0.0,1
0.017009999999572756,998,0.23968499999318738,1
0.0,999,0.0,1
0.017625000000407454,1000,0.20880100000067614,1
0.0,1001,0.0,1
0.013575000000855653,1002,0.17578200000571087,1
0.0,1003,0.0,1
0.016020000002754387,1004,0.23144500001217239,1
0.0,1005,0.0,1
0.016889999995328253,1006,0.18371599998499732,1
0.0,0,0.0,2
0.0,1,0.0,2
0.1830599999993865,2,1.6374519999953918,2
0.0,3,0.0,2
0.006165000000692089,4,0.04565400001592934,2
0.0,5,0.0,2
0.0061499999992520316,6,0.04834000000846572,2
0.0,7,0.0,2
0.006225000000995351,8,0.04901099999551661,2
0.0,9,0.0,2
0.047280000000682776,10,0.3724979999824427,2
0.0,11,0.0,2
0.006119999998190906,12,0.049987000005785376,2
0.0,13,0.0,2
0.006180000002132147,14,0.048218000010820106,2
0.0,15,0.0,2
0.006134999999630963,16,0.04724099999293685,2
0.0,17,0.0,2
0.006134999999630963,18,0.05230700000538491,2
0.0,19,0.0,2
0.04805999999916821,20,0.3974610000150278,2
0.0,21,0.0,2
0.006105000000388827,22,0.05187999998452142,2
0.0,23,0.0,2
0.006150000001071021,24,0.05139199999393895,2
0.0,25,0.0,2
0.006194999998115236,26,0.047790000011445954,2
0.0,27,0.0,2
0.006134999999630963,28,0.05346699999063276,2
0.0,29,0.0,2
0.0313800000003539,30,0.40545699998619966,2
0.0,31,0.0,2
0.006240000000616419,32,0.04852300000493415,2
0.0,33,0.0,2
0.005175000000235741,34,0.049316000018734485,2
0.0,35,0.0,2
0.0,36,0.0,2
0.0,37,0.0,2
0.004079999998793937,38,0.04919399999198504,2
0.0,39,0.0,2
0.029549999999289867,40,0.3381960000260733,2
0.0,41,0.0,2
0.004020000002128654,42,0.0524899999727495,2
0.0,43,0.0,2
0.020459999999729916,44,0.20062300001154654,2
0.0,45,0.0,2
0.004019999998490675,46,0.04779099998995662,2
0.0,47,0.0,2
0.004080000000612927,48,0.047119000024395064,2
0.0,49,0.0,2
0.02629499999966356,50,0.2704459999804385,2
0.0,51,0.0,2
0.006240000000616419,52,0.04571599999326281,2
0.0,53,0.0,2
0.006240000000616419,54,0.04693599999882281,2
0.0,55,0.0,2
0.006240000000616419,56,0.04614200000651181,2
0.0,57,0.0,2
0.0050849999988713535,58,0.04663100000470877,2
0.0,59,0.0,2
0.021240000001853332,60,0.2106330000096932,2
0.0,61,0.0,2
0.005129999997734558,62,0.04632500000298023,2
0.0,63,0.0,2
0.004080000000612927,64,0.04846199997700751,2
0.0,65,0.0,2
0.004019999998490675,66,0.053222999995341524,2
0.0,67,0.0,2
0.005130000001372537,68,0.049621000012848526,2
0.0,69,0.0,2
0.03911999999945692,70,0.3466799999878276,2
0.0,71,0.0,2
0.01119000000107917,72,0.09259000001475215,2
0.0,73,0.0,2
0.006105000000388827,74,0.051635999989230186,2
0.0,75,0.0,2
0.0,76,0.0,2
0.0,77,0.0,2
0.006194999998115236,78,0.04809600001317449,2
0.0,79,0.0,2
0.0431700000026467,80,0.3601069999858737,2
0.0,81,0.0,2
0.00623999999697844,82,0.05090400000335649,2
0.0,83,0.0,2
0.005130000001372537,84,0.04919399999198504,2
0.0,85,0.0,2
0.006180000002132147,86,0.051208000018959865,2
0.0,87,0.0,2
0.0061499999992520316,88,0.04681400000117719,2
0.0,89,0.0,2
0.024809999998979038,90,0.1875609999988228,2
0.0,91,0.0,2
0.006090000000767759,92,0.047485999995842576,2
0.0,93,0.0,2
0.003719999998793355,94,0.04870600000140257,2
0.0,95,0.0,2
0.006269999999858555,96,0.04119899999932386,2
0.0,97,0.0,2
0.0,98,0.0,2
0.0,99,0.0,2
0.049545000001671724,100,0.40331999998306856,2
0.0,101,0.0,2
0.006240000000616419,102,0.04730200002086349,2
0.0,103,0.0,2
0.0,104,0.0,2
0.0,105,0.0,2
0.00623999999697844,106,0.04882799999904819,2
0.0,107,0.0,2
0.005010000002585002,108,0.056274999980814755,2
0.0,109,0.0,2
0.04125000000021828,110,0.3577880000229925,2
0.0,111,0.0,2
0.006224999999176362,112,0.053893999982392415,2
0.0,113,0.0,2
0.00623999999879743,114,0.051146999991033226,2
0.0,115,0.0,2
0.006180000000313157,116,0.04931700002634898,2
0.0,117,0.0,2
0.006194999999934225,118,0.051513000013073906,2
0.0,119,0.0,2
0.04107000000112748,120,0.36663899998529814,2
0.0,121,0.0,2
0.01224000000001979,122,0.10375899999053217,2
0.0,123,0.0,2
0.01840499999889289,124,0.15515200002118945,2
0.0,125,0.0,2
0.04508999999961816,126,0.4132689999823924,2
0.0,127,0.0,2
0.04209000000082597,128,0.4116820000053849,2
0.0,129,0.0,2
0.08983500000067579,130,0.7735589999938384,2
0.0,131,0.0,2
0.0061649999988731,132,0.05291800000122748,2
0.0,133,0.0,2
0.04095000000052096,134,0.4092409999866504,2
0.0,135,0.0,2
0.035865000001649605,136,0.34661800001049414,2
0.0,137,0.0,2
0.04508999999779917,138,0.3812869999965187,2
0.0,139,0.0,2
0.05904000000009546,140,0.5346070000086911,2
0.0,141,0.0,2
0.01209000000017113,142,0.12335199999506585,2
0.0,143,0.0,2
0.032640000001265435,144,0.31835899999714456,2
0.0,145,0.0,2
0.036690000000817236,146,0.3489990000089165,2
0.0,147,0.0,2
0.029429999996864353,148,0.2801519999920856,2
0.0,149,0.0,2
0.049830000001747976,150,0.4864499999966938,2
0.0,151,0.0,2
0.016319999998813728,152,0.14489699999103323,2
0.0,153,0.0,2
0.032790000001114095,154,0.29254200001014397,2
0.0,155,0.0,2
0.037005000000135624,156,0.32244899999932386,2
0.0,157,0.0,2
0.02861999999913678,158,0.27587800001492724,2
0.0,159,0.0,2
0.04516500000136148,160,0.366210999985924,2
0.0,161,0.0,2
0.020174999999653664,162,0.1692509999847971,2
0.0,163,0.0,2
0.03269999999974971,164,0.27209500002209097,2
0.0,165,0.0,2
0.03674999999930151,166,0.3037719999847468,2
0.0,167,0.0,2
0.028560000000652508,168,0.2559809999947902,2
0.0,169,0.0,2
0.045105000001058215,170,0.3855590000166558,2
0.0,171,0.0,2
0.020339999997304403,172,0.1773070000053849,2
0.0,173,0.0,2
0.03282000000217522,174,0.27758799999719486,2
0.0,175,0.0,2
0.032879999997021514,176,0.2570189999823924,2
0.0,177,0.0,2
0.03276000000369095,178,0.2851559999980964,2
0.0,179,0.0,2
0.045194999998784624,180,0.33935600001132116,2
0.0,181,0.0,2
0.02058000000033644,182,0.13336199999321252,2
0.0,183,0.0,2
0.032939999997324776,184,0.21197500001289882,2
0.0,185,0.0,2
0.03298500000346394,186,0.21795599997858517,2
0.0,187,0.0,2
0.032879999997021514,188,0.22326700002304278,2
0.0,189,0.0,2
0.04536000000007334,190,0.2913819999957923,2
0.0,191,0.0,2
0.02058000000033644,192,0.13171399998827837,2
0.0,193,0.0,2
0.02471999999943364,194,0.20996100001502782,2
0.0,195,0.0,2
0.03787499999998545,196,0.2687370000057854,2
0.0,197,0.0,2
0.03355500000179745,198,0.2555549999815412,2
0.0,199,0.0,2
0.045119999998860294,200,0.36157200002344325,2
0.0,201,0.0,2
0.020520000001852168,202,0.1692499999771826,2
0.0,203,0.0,2
0.028800000000046566,204,0.2356570000119973,2
0.0,205,0.0,2
0.0369749999990745,206,0.27868700001272373,2
0.0,207,0.0,2
0.028740000001562294,208,0.22387699998216704,2
0.0,209,0.0,2
0.04936499999712396,210,0.37261900000157766,2
0.0,211,0.0,2
0.016320000002451707,212,0.13525400002254173,2
0.0,213,0.0,2
0.03673499999786145,214,0.317321999988053,2
0.0,215,0.0,2
0.028800000000046566,216,0.19928000000072643,2
0.0,217,0.0,2
0.032865000001038425,218,0.23889099998632446,2
0.0,219,0.0,2
0.04925999999977648,220,0.3226929999946151,2
0.0,221,0.0,2
0.016499999999723514,222,0.1324460000032559,2
0.0,223,0.0,2
0.028935000000274158,224,0.17504900001222268,2
0.0,225,0.0,2
0.03299999999944703,226,0.20379699999466538,2
0.0,227,0.0,2
0.03702000000157568,228,0.249206000007689,2
0.0,229,0.0,2
0.04501499999787484,230,0.3320309999980964,2
0.0,231,0.0,2
0.016560000001845765,232,0.10778799999388866,2
0.0,233,0.0,2
0.03312000000005355,234,0.20977799998945557,2
0.0,235,0.0,2
0.03288000000065949,236,0.21167000001878478,2
0.0,237,0.0,2
0.033104999998613494,238,0.21893299999646842,2
0.0,239,0.0,2
0.04140000000006694,240,0.2988279999990482,2
0.0,241,0.0,2
0.02028000000063912,242,0.1616830000129994,2
0.0,243,0.0,2
0.0329249999995227,244,0.22375399997690693,2
0.0,245,0.0,2
0.03269999999974971,246,0.23272800000268035,2
0.0,247,0.0,2
0.03276000000005297,248,0.2241820000053849,2
0.0,249,0.0,2
0.04500000000007276,250,0.30529799999203533,2
0.0,251,0.0,2
0.020459999999729916,252,0.12805100000696257,2
0.0,253,0.0,2
0.032939999999143765,254,0.2133179999946151,2
0.0,255,0.0,2
0.03305999999975029,256,0.210694000008516,2
0.0,257,0.0,2
0.032865000001038425,258,0.21411100000841543,2
0.0,259,0.0,2
0.04949999999917054,260,0.3070069999957923,2
0.0,261,0.0,2
0.016500000001542503,262,0.1040039999934379,2
0.0,263,0.0,2
0.02885999999853084,264,0.18170099999406375,2
0.0,265,0.0,2
0.03276000000005297,266,0.2446899999922607,2
0.0,267,0.0,2
0.028739999999743304,268,0.21569800001452677,2
0.0,269,0.0,2
0.053595000003042514,270,0.38617000001249835,2
0.0,271,0.0,2
0.017459999999118736,272,0.11657699997886084,2
0.0,273,0.0,2
0.028904999997394043,274,0.21008300001267344,2
0.0,275,0.0,2
0.03700500000195461,276,0.26269499998306856,2
0.0,277,0.0,2
0.028739999999743304,278,0.21362300001783296,2
0.0,279,0.0,2
0.05349000000023807,280,0.3830569999990985,2
0.0,281,0.0,2
0.016410000000178115,282,0.12524399999529123,2
0.0,283,0.0,2
0.033090000000811415,284,0.23999000000185333,2
0.0,285,0.0,2
0.028889999997772975,286,0.20379699999466538,2
0.0,287,0.0,2
0.036915000000590226,288,0.27404799999203533,2
0.0,289,0.0,2
0.04529999999977008,290,0.33093200001167133,2
0.0,291,0.0,2
0.01638000000093598,292,0.12085000000661239,2
0.0,293,0.0,2
0.037904999997408595,294,0.26178000000072643,2
0.0,295,0.0,2
0.028560000002471497,296,0.17742900000303052,2
0.0,297,0.0,2
0.03297000000020489,298,0.21710199999506585,2
0.0,299,0.0,2
0.05334000000038941,300,0.3532709999999497,2
0.0,301,0.0,2
0.01643999999942025,302,0.1204229999857489,2
0.0,303,0.0,2
0.028739999997924315,304,0.20935000001918525,2
0.0,305,0.0,2
0.03726000000278873,306,0.23132399999303743,2
0.0,307,0.0,2
0.028800000000046566,308,0.18890300000202842,2
0.0,309,0.0,2
0.0495599999994738,310,0.3058479999890551,2
0.0,311,0.0,2
0.016544999998586718,312,0.10748199999216013,2
0.0,313,0.0,2
0.03295500000058382,314,0.205932999990182,2
0.0,315,0.0,2
0.03282000000035623,316,0.2050170000293292,2
0.0,317,0.0,2
0.03298499999800697,318,0.21154799999203533,2
0.0,319,0.0,2
0.04896000000371714,320,0.3187869999965187,2
0.0,321,0.0,2
0.02057999999669846,322,0.13635200000135228,2
0.0,323,0.0,2
0.026835000000573928,324,0.21575900001334958,2
0.0,325,0.0,2
0.03297000000202388,326,0.24572799997986294,2
0.0,327,0.0,2
0.032714999999370775,328,0.26592999999411404,2
0.0,329,0.0,2
0.05102999999871827,330,0.41601600003195927,2
0.0,331,0.0,2
0.01749000000017986,332,0.13854999997420236,2
0.0,333,0.0,2
0.03276000000005297,334,0.2720940000144765,2
0.0,335,0.0,2
0.03475500000058673,336,0.29595999998855405,2
0.0,337,0.0,2
0.033690000000206055,338,0.3002320000086911,2
0.0,339,0.0,2
0.05527500000061991,340,0.4398800000199117,2
0.0,341,0.0,2
0.016319999998813728,342,0.15014699997846037,2
0.0,343,0.0,2
0.03288000000065949,344,0.29437200000393204,2
0.0,345,0.0,2
0.024600000000646105,346,0.25036599999293685,2
0.0,347,0.0,2
0.036854999998467974,348,0.32440199999837205,2
0.0,349,0.0,2
0.044880000001285225,350,0.37811300001339987,2
0.0,351,0.0,2
0.02057999999851745,352,0.1713869999803137,2
0.0,353,0.0,2
0.032864999999219435,354,0.2364499999966938,2
0.0,355,0.0,2
0.036540000000968575,356,0.3021240000089165,2
0.0,357,0.0,2
0.028665000001637964,358,0.23577900000964291,2
0.0,359,0.0,2
0.049169999998412095,360,0.4064329999964684,2
0.0,361,0.0,2
0.016334999998434796,362,0.14837599999736995,2
0.0,363,0.0,2
0.03682500000104483,364,0.3099979999824427,2
0.0,365,0.0,2
0.06586500000048545,366,0.3482660000154283,2
0.0,367,0.0,2
0.05459999999948195,368,0.30426099998294376,2
0.0,369,0.0,2
0.057435000000623404,370,0.4019770000304561,2
0.0,371,0.0,2
0.026460000000952277,372,0.1680909999704454,2
0.0,373,0.0,2
0.028754999999364372,374,0.21484400003100745,2
0.0,375,0.0,2
0.033989999999903375,376,0.24438499996904284,2
0.0,377,0.0,2
0.03680999999960477,378,0.2788080000318587,2
0.0,379,0.0,2
0.04509000000143715,380,0.3743289999838453,2
0.0,381,0.0,2
0.02058000000033644,382,0.15814200000022538,2
0.0,383,0.0,2
0.028679999997621053,384,0.21612500000628643,2
0.0,385,0.0,2
0.03672000000187836,386,0.27490300001227297,2
0.0,387,0.0,2
0.028500000000349246,388,0.21325699999579228,2
0.0,389,0.0,2
0.049319999998260755,390,0.3607780000020284,2
0.0,391,0.0,2
0.016335000000253785,392,0.1040039999934379,2
0.0,393,0.0,2
0.033015000000887085,394,0.20037899998715147,2
0.0,395,0.0,2
0.032940000000962755,396,0.20861800000420772,2
0.0,397,0.0,2
0.032729999997172854,398,0.22552499998710118,2
0.0,399,0.0,2
0.049620000001596054,400,0.3101190000306815,2
0.0,401,0.0,2
0.01637999999911699,402,0.11926299997139722,2
0.0,403,0.0,2
0.03282000000217522,404,0.24279799999203533,2
0.0,405,0.0,2
0.033854999997856794,406,0.25164800000493415,2
0.0,407,0.0,2
0.03288000000065949,408,0.2544550000166055,2
0.0,409,0.0,2
0.04536000000007334,410,0.38568199999281205,2
0.0,411,0.0,2
0.016499999999723514,412,0.12261900000157766,2
0.0,413,0.0,2
0.032714999999370775,414,0.24353100001462735,2
0.0,415,0.0,2
0.028860000000349828,416,0.2466429999913089,2
0.0,417,0.0,2
0.03299999999944703,418,0.24432299999170937,2
0.0,419,0.0,2
0.04544999999961874,420,0.3387450000154786,2
0.0,421,0.0,2
0.020670000001700828,422,0.15637199999764562,2
0.0,423,0.0,2
0.028979999999137362,424,0.2128299999749288,2
0.0,425,0.0,2
0.03720000000066648,426,0.27734400003100745,2
0.0,427,0.0,2
0.02885999999853084,428,0.21453799997107126,2
0.0,429,0.0,2
0.04966500000045926,430,0.37554999999701977,2
0.0,431,0.0,2
0.02065500000207976,432,0.15576100003090687,2
0.0,433,0.0,2
0.0289199999988341,434,0.21032799998647533,2
0.0,435,0.0,2
0.037140000000363216,436,0.2723380000097677,2
0.0,437,0.0,2
0.0289199999988341,438,0.21197599999140948,2
0.0,439,0.0,2
0.04957499999909487,440,0.3660880000097677,2
0.0,441,0.0,2
0.020700000000942964,442,0.15118499999516644,2
0.0,443,0.0,2
0.02892000000065309,444,0.211180999991484,2
0.0,445,0.0,2
0.039104999998016865,446,0.2647710000164807,2
0.0,447,0.0,2
0.024600000000646105,448,0.2141109999793116,2
0.0,449,0.0,2
0.04542000000219559,450,0.32305899998755194,2
0.0,451,0.0,2
0.020640000000639702,452,0.14502000002539717,2
0.0,453,0.0,2
0.03299999999944703,454,0.23138400001334958,2
0.0,455,0.0,2
0.033029999998689163,456,0.23113999998895451,2
0.0,457,0.0,2
0.037140000000363216,458,0.2603759999910835,2
0.0,459,0.0,2
0.04514999999992142,460,0.32025099999736995,2
0.0,461,0.0,2
0.016319999998813728,462,0.11627200001385063,2
0.0,463,0.0,2
0.03276000000187196,464,0.24584999997750856,2
0.0,465,0.0,2
0.036839999998846906,466,0.26324500000919215,2
0.0,467,0.0,2
0.02868000000125903,468,0.20263600000180304,2
0.0,469,0.0,2
0.04505999999855703,470,0.328125,2
0.0,471,0.0,2
0.020340000000942382,472,0.16461199999321252,2
0.0,473,0.0,2
0.032865000001038425,474,0.260803000011947,2
0.0,475,0.0,2
0.03284999999959837,476,0.2634280000056606,2
0.0,477,0.0,2
0.03276000000005297,478,0.247986000002129,2
0.0,479,0.0,2
0.04523999999946682,480,0.35504099997342564,2
0.0,481,0.0,2
0.02057999999851745,482,0.1427010000043083,2
0.0,483,0.0,2
0.02868000000125903,484,0.19537299999501556,2
0.0,485,0.0,2
0.028500000000349246,486,0.1888430000108201,2
0.0,487,0.0,2
0.036765000000741566,488,0.24231000000145286,2
0.0,489,0.0,2
0.04907999999704771,490,0.3334960000065621,2
0.0,491,0.0,2
0.016260000002148445,492,0.11395199998514727,2
0.0,493,0.0,2
0.03280499999891617,494,0.21032700000796467,2
0.0,495,0.0,2
0.03267000000232656,496,0.2086799999815412,2
0.0,497,0.0,2
0.02854499999921245,498,0.18756100002792664,2
0.0,499,0.0,2
0.053699999998571,500,0.3363639999879524,2
0.0,501,0.0,2
0.01644000000123924,502,0.10650700001860969,2
0.0,503,0.0,2
0.03281999999853724,504,0.20696999999927357,2
0.0,505,0.0,2
0.0348599999997532,506,0.21044899997650646,2
0.0,507,0.0,2
0.03288000000065949,508,0.211914000014076,2
0.0,509,0.0,2
0.04528500000014901,510,0.2922979999857489,2
0.0,511,0.0,2
0.020640000000639702,512,0.13726800002041273,2
0.0,513,0.0,2
0.028905000001032022,514,0.18316599997342564,2
0.0,515,0.0,2
0.03695999999945343,516,0.23468000002321787,2
0.0,517,0.0,2
0.028679999997621053,518,0.18267899999045767,2
0.0,519,0.0,2
0.044880000001285225,520,0.29394499998306856,2
0.0,521,0.0,2
0.020399999999426655,522,0.13311800002702512,2
0.0,523,0.0,2
0.03701999999975669,524,0.23724300001049414,2
0.0,525,0.0,2
0.033015000000887085,526,0.20703099996899255,2
0.0,527,0.0,2
0.028514999999970314,528,0.18158000000403263,2
0.0,529,0.0,2
0.05647499999940919,530,0.3388670000131242,2
0.0,531,0.0,2
0.014400000000023283,532,0.08129900001222268,2
0.0,533,0.0,2
0.0367500000011205,534,0.2481079999706708,2
0.0,535,0.0,2
0.02878499999860651,536,0.18145800003549084,2
0.0,537,0.0,2
0.03268500000012864,538,0.21191399998497218,2
0.0,539,0.0,2
0.0451950000024226,540,0.3151850000140257,2
0.0,541,0.0,2
0.016319999998813728,542,0.10180699999909848,2
0.0,543,0.0,2
0.03689999999915017,544,0.2336420000065118,2
0.0,545,0.0,2
0.02944500000194239,546,0.18914799997583032,2
0.0,547,0.0,2
0.03476999999838881,548,0.21014399998239242,2
0.0,549,0.0,2
0.048030000001745066,550,0.2853400000312831,2
0.0,551,0.0,2
0.020459999999729916,552,0.11028999998234212,2
0.0,553,0.0,2
0.03269999999974971,554,0.18841599998995662,2
0.0,555,0.0,2
0.03680999999960477,556,0.23327600001357496,2
0.0,557,0.0,2
0.028499999998530257,558,0.18975799999316223,2
0.0,559,0.0,2
0.04530000000158907,560,0.28826900001149625,2
0.0,561,0.0,2
0.02058000000033644,562,0.13763499999186024,2
0.0,563,0.0,2
0.033689999998387066,564,0.25817800001823343,2
0.0,565,0.0,2
0.03282000000035623,566,0.21356199998990633,2
0.0,567,0.0,2
0.028740000001562294,568,0.20617699998547323,2
0.0,569,0.0,2
0.054194999998799176,570,0.43841600001906045,2
0.0,571,0.0,2
0.02028000000063912,572,0.18487500000628643,2
0.0,573,0.0,2
0.032789999997476116,574,0.2744139999849722,2
0.0,575,0.0,2
0.032640000001265435,576,0.2723999999871012,2
0.0,577,0.0,2
0.03268500000012864,578,0.2628180000174325,2
0.0,579,0.0,2
0.04094999999870197,580,0.377013999997871,2
0.0,581,0.0,2
0.016320000002451707,582,0.13671799999428913,2
0.0,583,0.0,2
0.03673499999968044,584,0.3075570000219159,2
0.0,585,0.0,2
0.030839999999443535,586,0.24035599999479018,2
0.0,587,0.0,2
0.03665999999975611,588,0.30419899997650646,2
0.0,589,0.0,2
0.04588499999954365,590,0.3720710000197869,2
0.0,591,0.0,2
0.022440000000642613,592,0.17199699999764562,2
0.0,593,0.0,2
0.029430000000502332,594,0.24078299998654984,2
0.0,595,0.0,2
0.03665999999975611,596,0.304444000008516,2
0.0,597,0.0,2
0.03170999999929336,598,0.24157700000796467,2
0.0,599,0.0,2
0.058709999999337015,600,0.41143799998098984,2
0.0,601,0.0,2
0.025725000001330045,602,0.17132600001059473,2
0.0,603,0.0,2
0.0315599999994447,604,0.23913500001071952,2
0.0,605,0.0,2
0.048495000000912114,606,0.30944899999303743,2
0.0,607,0.0,2
0.03793500000028871,608,0.2413329999835696,2
0.0,609,0.0,2
0.049994999997579725,610,0.37591500001144595,2
0.0,611,0.0,2
0.021570000002611778,612,0.16882300001452677,2
0.0,613,0.0,2
0.03251999999883992,614,0.2652589999779593,2
0.0,615,0.0,2
0.03787499999998545,616,0.2708740000089165,2
0.0,617,0.0,2
0.03665999999975611,618,0.27410899999085814,2
0.0,619,0.0,2
0.06934500000170374,620,0.477539000014076,2
0.0,621,0.0,2
0.01231499999994412,622,0.07269299999461509,2
0.0,623,0.0,2
0.03665999999975611,624,0.27075200001127087,2
0.0,625,0.0,2
0.03570000000036089,626,0.24957300000824034,2
0.0,627,0.0,2
0.03277499999967404,628,0.23480199999175966,2
0.0,629,0.0,2
0.04937999999856402,630,0.35394299996551126,2
0.0,631,0.0,2
0.01749000000017986,632,0.12969900001189671,2
0.0,633,0.0,2
0.028814999999667634,634,0.1942140000173822,2
0.0,635,0.0,2
0.03280500000255415,636,0.22534199999063276,2
0.0,637,0.0,2
0.039179999997941195,638,0.24572800000896677,2
0.0,639,0.0,2
0.055334999999104184,640,0.3403319999924861,2
0.0,641,0.0,2
0.012300000000323053,642,0.08001700000022538,2
0.0,643,0.0,2
0.03297000000202388,644,0.22039800000493415,2
0.0,645,0.0,2
0.02884499999890977,646,0.21905499999411404,2
0.0,647,0.0,2
0.032939999999143765,648,0.217956000007689,2
0.0,649,0.0,2
0.045269999998708954,650,0.30279600000358187,2
0.0,651,0.0,2
0.020700000000942964,652,0.13555899998755194,2
0.0,653,0.0,2
0.03277499999967404,654,0.22137399998609908,2
0.0,655,0.0,2
0.032940000000962755,656,0.21478300000308082,2
0.0,657,0.0,2
0.036615000000892906,658,0.21350100002018735,2
0.0,659,0.0,2
0.04703999999946973,660,0.3002929999784101,2
0.0,661,0.0,2
0.01652999999896565,662,0.10723900003358722,2
0.0,663,0.0,2
0.03777000000081898,664,0.24572699997224845,2
0.0,665,0.0,2
0.028740000001562294,666,0.22924900002544746,2
0.0,667,0.0,2
0.034814999997252016,668,0.2189329999673646,2
0.0,669,0.0,2
0.04506000000219501,670,0.2994990000152029,2
0.0,671,0.0,2
0.016349999999874854,672,0.11273199997958727,2
0.0,673,0.0,2
0.0784799999983079,674,0.43231200001901016,2
0.0,675,0.0,2
0.009030000001075678,676,0.054749000002630055,2
0.0,677,0.0,2
0.04110000000036962,678,0.26409899999271147,2
0.0,679,0.0,2
0.0408000000006723,680,0.29443300000275485,2
0.0,681,0.0,2
0.024479999998220592,682,0.14886500002467074,2
0.0,683,0.0,2
0.0366600000015751,684,0.22045899997465312,2
0.0,685,0.0,2
0.033839999998235726,686,0.17254600001615472,2
0.0,687,0.0,2
0.03672000000187836,688,0.2269289999967441,2
0.0,689,0.0,2
0.04096500000014203,690,0.24072299999534152,2
0.0,691,0.0,2
0.02441999999973632,692,0.14312699998845346,2
0.0,693,0.0,2
0.03374999999869033,694,0.17327900000964291,2
0.0,695,0.0,2
0.04186500000105298,696,0.2214969999913592,2
0.0,697,0.0,2
0.028800000000046566,698,0.1724850000173319,2
0.0,699,0.0,2
0.04516500000136148,700,0.26995799998985603,2
0.0,701,0.0,2
0.023489999995945254,702,0.12817400001222268,2
0.0,703,0.0,2
0.03900000000066939,704,0.2162479999824427,2
0.0,705,0.0,2
0.028949999999895226,706,0.16803000000072643,2
0.0,707,0.0,2
0.03289500000209955,708,0.19995100001688115,2
0.0,709,0.0,2
0.045044999998935964,710,0.29180899998755194,2
0.0,711,0.0,2
0.016320000002451707,712,0.09747300000162795,2
0.0,713,0.0,2
0.03275999999823398,714,0.19384799999534152,2
0.0,715,0.0,2
0.03281999999853724,716,0.19116200000280514,2
0.0,717,0.0,2
0.03288000000247848,718,0.20013400001334958,2
0.0,719,0.0,2
0.04937999999674503,720,0.292907999973977,2
0.0,721,0.0,2
0.016560000003664754,722,0.09539800000493415,2
0.0,723,0.0,2
0.032939999997324776,724,0.1942140000173822,2
0.0,725,0.0,2
0.03269999999974971,726,0.19061199997668155,2
0.0,727,0.0,2
0.038880000001881854,728,0.26605299999937415,2
0.0,729,0.0,2
0.040979999999763095,730,0.2857050000166055,2
0.0,731,0.0,2
0.024359999999433057,732,0.18664599998737685,2
0.0,733,0.0,2
0.03086999999868567,734,0.201111000002129,2
0.0,735,0.0,2
0.036840000000665896,736,0.24902300001122057,2
0.0,737,0.0,2
0.030690000001413864,738,0.22235100000398234,2
0.0,739,0.0,2
0.052244999998947605,740,0.36505100000067614,2
0.0,741,0.0,2
0.022725000000718865,742,0.14666800000122748,2
0.0,743,0.0,2
0.03282000000035623,744,0.27746599999954924,2
0.0,745,0.0,2
0.0289199999988341,746,0.18786599999293685,2
0.0,747,0.0,2
0.037065000000438886,748,0.24401799999759533,2
0.0,749,0.0,2
0.041190000001734006,750,0.2597050000040326,2
0.0,751,0.0,2
0.02050499999859312,752,0.1331789999967441,2
0.0,753,0.0,2
0.037065000000438886,754,0.2364499999966938,2
0.0,755,0.0,2
0.028800000000046566,756,0.1813350000011269,2
0.0,757,0.0,2
0.032939999999143765,758,0.2410890000173822,2
0.0,759,0.0,2
0.04530000000158907,760,0.28735399997094646,2
0.0,761,0.0,2
0.016319999998813728,762,0.10516300002927892,2
0.0,763,0.0,2
0.036855000000286964,764,0.23736599998665042,2
0.0,765,0.0,2
0.028890000001410954,766,0.180664000014076,2
0.0,767,0.0,2
0.037004999998316634,768,0.23449699999764562,2
0.0,769,0.0,2
0.045255000000906875,770,0.2801519999920856,2
0.0,771,0.0,2
0.016499999999723514,772,0.10217200001352467,2
0.0,773,0.0,2
0.032879999997021514,774,0.20043999998597428,2
0.0,775,0.0,2
0.03282000000217522,776,0.20245299997623079,2
0.0,777,0.0,2
0.03304500000012922,778,0.20459000000846572,2
0.0,779,0.0,2
0.04529999999977008,780,0.2771000000066124,2
0.0,781,0.0,2
0.02058000000033644,782,0.12597600001026876,2
0.0,783,0.0,2
0.032940000000962755,784,0.2072760000010021,2
0.0,785,0.0,2
0.03299999999944703,786,0.19714299999759533,2
0.0,787,0.0,2
0.03701999999975669,788,0.23126299999421462,2
0.0,789,0.0,2
0.032940000000962755,790,0.224791999993613,2
0.0,791,0.0,2
0.024779999997917912,792,0.14965800000936724,2
0.0,793,0.0,2
0.03297000000202388,794,0.20165999999153428,2
0.0,795,0.0,2
0.028814999999667634,796,0.20288100000470877,2
0.0,797,0.0,2
0.032939999997324776,798,0.20135499999742024,2
0.0,799,0.0,2
0.04117500000029395,800,0.2506110000249464,2
0.0,801,0.0,2
0.025740000000951113,802,0.1531979999563191,2
0.0,803,0.0,2
0.028800000000046566,804,0.17456000001402572,2
0.0,805,0.0,2
0.03725999999915075,806,0.21557699999539182,2
0.0,807,0.0,2
0.03282000000217522,808,0.2037350000173319,2
0.0,809,0.0,2
0.04110000000036962,810,0.24682599998777732,2
0.0,811,0.0,2
0.024674999998751446,812,0.14971900000819005,2
0.0,813,0.0,2
0.03300000000126602,814,0.19763199999579228,2
0.0,815,0.0,2
0.0289199999988341,816,0.17102099998737685,2
0.0,817,0.0,2
0.03694500000165135,818,0.226745000021765,2
0.0,819,0.0,2
0.03703499999937776,820,0.22680699999909848,2
0.0,821,0.0,2
0.024659999999130378,822,0.15435799999977462,2
0.0,823,0.0,2
0.037080000000059954,824,0.2216189999890048,2
0.0,825,0.0,2
0.02876999999898544,826,0.18298300000606105,2
0.0,827,0.0,2
0.03686999999990803,828,0.23071299999719486,2
0.0,829,0.0,2
0.041130000001430744,830,0.24615500000072643,2
0.0,831,0.0,2
0.02470499999981257,832,0.1500850000011269,2
0.0,833,0.0,2
0.02884499999890977,834,0.17376700000022538,2
0.0,835,0.0,2
0.037140000000363216,836,0.21826200000941753,2
0.0,837,0.0,2
0.028679999999440042,838,0.17632999998750165,2
0.0,839,0.0,2
0.045270000000527943,840,0.27978599999914877,2
0.0,841,0.0,2
0.016500000001542503,842,0.12896699999691918,2
0.0,843,0.0,2
0.032879999997021514,844,0.19989000001805834,2
0.0,845,0.0,2
0.03304500000194821,846,0.19732700000167824,2
0.0,847,0.0,2
0.036929999998392304,848,0.2297969999781344,2
0.0,849,0.0,2
0.03702000000157568,850,0.22595200000796467,2
0.0,851,0.0,2
0.02471999999943364,852,0.15197800000896677,2
0.0,853,0.0,2
0.037140000000363216,854,0.22039800000493415,2
0.0,855,0.0,2
0.02884499999890977,856,0.17236299999058247,2
0.0,857,0.0,2
0.03288000000065949,858,0.20202600001357496,2
0.0,859,0.0,2
0.04114499999923282,860,0.2519529999990482,2
0.0,861,0.0,2
0.02472000000125263,862,0.14709499999298714,2
0.0,863,0.0,2
0.0329699999983859,864,0.1992189999727998,2
0.0,865,0.0,2
0.03305999999975029,866,0.19738800002960488,2
0.0,867,0.0,2
0.03291000000353961,868,0.19854700000723824,2
0.0,869,0.0,2
0.03874499999801628,870,0.23284899999271147,2
0.0,871,0.0,2
0.015269999998054118,872,0.1425779999990482,2
0.0,873,0.0,2
0.004140000000916189,874,0.13671900000190362,2
0.0,875,0.0,2
0.010020000001532026,876,0.1563109999988228,2
0.0,877,0.0,2
0.014909999999872525,878,0.1645509999943897,2
0.0,879,0.0,2
0.005819999998493586,880,0.18157899999641813,2
0.0,881,0.0,2
0.005940000000919099,882,0.08679200001643039,2
0.0,883,0.0,2
0.007619999998496496,884,0.1489869999641087,2
0.0,885,0.0,2
0.005850000001373701,886,0.15521300002001226,2
0.0,887,0.0,2
0.0141299999995681,888,0.13275099999736995,2
0.0,889,0.0,2
0.009720000000015716,890,0.1418460000131745,2
0.0,891,0.0,2
0.008550000000468572,892,0.13030999997863546,2
0.0,893,0.0,2
0.0018000000000029104,894,0.10363800002960488,2
0.0,895,0.0,2
0.008280000000013388,896,0.15496799995889887,2
0.0,897,0.0,2
0.01765500000146858,898,0.18676700003561564,2
0.0,899,0.0,2
0.012600000000020373,900,0.17926099998294376,2
0.0,901,0.0,2
0.00413999999727821,902,0.11755300001823343,2
0.0,903,0.0,2
0.010560000002442393,904,0.15545699998619966,2
0.0,905,0.0,2
0.0026099999995494727,906,0.15478499999153428,2
0.0,907,0.0,2
0.008219999999710126,908,0.16339100000914186,2
0.0,909,0.0,2
0.01171500000054948,910,0.19683899998199195,2
0.0,911,0.0,2
0.018239999999423162,912,0.12414500000886619,2
0.0,913,0.0,2
0.005879999998796848,914,0.15588400000706315,2
0.0,915,0.0,2
0.03141000000323402,916,0.19110100000398234,2
0.0,917,0.0,2
0.032579999997324194,918,0.21636999998008832,2
0.0,919,0.0,2
0.04190999999991618,920,0.2697749999933876,2
0.0,921,0.0,2
0.024660000002768356,922,0.15234400003100745,2
0.0,923,0.0,2
0.03269999999974971,924,0.2100219999847468,2
0.0,925,0.0,2
0.03281999999853724,926,0.20269700000062585,2
0.0,927,0.0,2
0.03280500000073516,928,0.20916800000122748,2
0.0,929,0.0,2
0.04110000000036962,930,0.25158700000611134,2
0.0,931,0.0,2
0.024599999998827116,932,0.1553950000088662,2
0.0,933,0.0,2
0.033614999998462736,934,0.22351099998923019,2
0.0,935,0.0,2
0.015240000000630971,936,0.1738279999990482,2
0.0,937,0.0,2
0.03035999999883643,938,0.1838990000251215,2
0.0,939,0.0,2
0.021615000001474982,940,0.1951289999706205,2
0.0,941,0.0,2
0.01930500000162283,942,0.1505740000284277,2
0.0,943,0.0,2
0.027899999999135616,944,0.1734619999770075,2
0.0,945,0.0,2
0.026325000000724685,946,0.1500860000087414,2
0.0,947,0.0,2
0.025979999996707193,948,0.19952299998840317,2
0.0,949,0.0,2
0.037740000001576846,950,0.22479300000122748,2
0.0,951,0.0,2
0.02863499999875785,952,0.15362500000628643,2
0.0,953,0.0,2
0.03678000000218162,954,0.20971699999063276,2
0.0,955,0.0,2
0.02845500000148604,956,0.18658499998855405,2
0.0,957,0.0,2
0.03776999999899999,958,0.2443230000208132,2
0.0,959,0.0,2
0.03475500000058673,960,0.24444599999696948,2
0.0,961,0.0,2
0.028500000000349246,962,0.188293999992311,2
0.0,963,0.0,2
0.03262499999982538,964,0.21069300003000535,2
0.0,965,0.0,2
0.03269999999974971,966,0.1883549999911338,2
0.0,967,0.0,2
0.028739999997924315,968,0.16754099997342564,2
0.0,969,0.0,2
0.04093500000271888,970,0.23120100001688115,2
0.0,971,0.0,2
0.028739999996105325,972,0.16125500001362525,2
0.0,973,0.0,2
0.028740000001562294,974,0.1550289999868255,2
0.0,975,0.0,2
0.036840000000665896,976,0.21099900000263005,2
0.0,977,0.0,2
0.028440000000045984,978,0.16332999998121522,2
0.0,979,0.0,2
0.04096500000014203,980,0.22235100000398234,2
0.0,981,0.0,2
0.028679999999440042,982,0.15588400000706315,2
0.0,983,0.0,2
0.02868000000125903,984,0.15741000001435168,2
0.0,985,0.0,2
0.028979999997318373,986,0.19012399998609908,2
0.0,987,0.0,2
0.019320000001243898,988,0.1487429999979213,2
0.0,989,0.0,2
0.017550000000483124,990,0.18914800000493415,2
0.0,991,0.0,2
0.026279999998223502,992,0.1615600000077393,2
0.0,993,0.0,2
0.03269999999974971,994,0.2022700000088662,2
0.0,995,0.0,2
0.03288000000247848,996,0.2038579999934882,2
0.0,997,0.0,2
0.032864999999219435,998,0.2058099999849219,2
0.0,999,0.0,2
0.03701999999975669,1000,0.226379999978235,2
0.0,1001,0.0,2
0.028800000000046566,1002,0.1791990000056103,2
0.0,1003,0.0,2
0.03719999999884749,1004,0.22381600001244806,2
0.0,1005,0.0,2
0.0286050000013347,1006,0.20294200000353158,2
