dram,epoch,package,socket
0.0,0,0.0,1
0.0,1,0.0,1
0.15742500000123982,2,1.807373000003281,1
0.0,3,0.0,1
0.0017399999996996485,4,0.03161700000055134,1
0.0,5,0.0,1
0.0,6,0.0,1
0.0,7,0.0,1
0.0028500000007625204,8,0.03704799999832176,1
0.0,9,0.0,1
0.015689999996538972,10,0.21990999999979977,1
0.0,11,0.0,1
0.0029100000028847717,12,0.03155500000866596,1
0.0,13,0.0,1
0.004079999998793937,14,0.03210399999807123,1
0.0,15,0.0,1
0.0,16,0.0,1
0.0,17,0.0,1
0.004080000002431916,18,0.03625499998452142,1
0.0,19,0.0,1
0.017564999998285202,20,0.16931200001272373,1
0.0,21,0.0,1
0.002909999999246793,22,0.02795400000468362,1
0.0,23,0.0,1
0.01577999999790336,24,0.2222899999906076,1
0.0,25,0.0,1
0.01863000000230386,26,0.24279800000658724,1
0.0,27,0.0,1
0.013530000000173459,28,0.1779779999924358,1
0.0,29,0.0,1
0.03269999999974971,30,0.3532110000087414,1
0.0,31,0.0,1
0.008835000000544824,32,0.07794199998897966,1
0.0,33,0.0,1
0.01404000000184169,34,0.20385700001497753,1
0.0,35,0.0,1
0.024029999996855622,36,0.2678219999943394,1
0.0,37,0.0,1
0.015210000001388835,38,0.21179200000187848,1
0.0,39,0.0,1
0.03567000000111875,40,0.42437799999606796,1
0.0,41,0.0,1
0.010949999999866122,42,0.09185799999977462,1
0.0,43,0.0,1
0.012224999998579733,44,0.14446999999927357,1
0.0,45,0.0,1
0.019290000000182772,46,0.23858599999221042,1
0.0,47,0.0,1
0.012225000002217712,48,0.1757810000126483,1
0.0,49,0.0,1
0.14852999999857275,50,1.4378059999871766,1
0.0,51,0.0,1
0.004020000000309665,52,0.033142000014777295,1
0.0,53,0.0,1
0.004079999998793937,54,0.024474999998346902,1
0.0,55,0.0,1
0.0,56,0.0,1
0.0,57,0.0,1
0.004020000000309665,58,0.029052999991108663,1
0.0,59,0.0,1
0.025050000000192085,60,0.17913800000678748,1
0.0,61,0.0,1
0.013500000000931323,62,0.12335199999506585,1
0.0,63,0.0,1
0.014100000000325963,64,0.189513999997871,1
0.0,65,0.0,1
0.014100000000325963,66,0.19708200001332443,1
0.0,67,0.0,1
0.014039999998203712,68,0.19818199999281205,1
0.0,69,0.0,1
0.021614999997837003,70,0.28839100000914186,1
0.0,71,0.0,1
0.008250000002590241,72,0.11846899999363814,1
0.0,73,0.0,1
0.014100000000325963,74,0.18463099999644328,1
0.0,75,0.0,1
0.013995000001159497,76,0.2003790000017034,1
0.0,77,0.0,1
0.012359999996988336,78,0.17266799999924842,1
0.0,79,0.0,1
0.030930000000807922,80,0.34484900000097696,1
0.0,81,0.0,1
0.008849999998346902,82,0.08367900000303052,1
0.0,83,0.0,1
0.016350000001693843,84,0.20538299999316223,1
0.0,85,0.0,1
0.02787000000171247,86,0.24133299999812152,1
0.0,87,0.0,1
0.032640000001265435,88,0.21624800001154654,1
0.0,89,0.0,1
0.037904999997408595,90,0.30944799999997485,1
0.0,91,0.0,1
0.016335000000253785,92,0.12445099999604281,1
0.0,93,0.0,1
0.025560000001860317,94,0.2458489999989979,1
0.0,95,0.0,1
0.03195000000050641,96,0.2923589999991236,1
0.0,97,0.0,1
0.026804999997693812,98,0.25793399999383837,1
0.0,99,0.0,1
0.03145500000027823,100,0.31066899999859743,1
0.0,101,0.0,1
0.022184999997989507,102,0.19659500000125263,1
0.0,103,0.0,1
0.02148000000306638,104,0.20959399999992456,1
0.0,105,0.0,1
0.032414999997854466,106,0.2650760000105947,1
0.0,107,0.0,1
0.02862000000095577,108,0.3036500000016531,1
0.0,109,0.0,1
0.037904999997408595,110,0.4104609999922104,1
0.0,111,0.0,1
0.019125000002532033,112,0.19110100000398234,1
0.0,113,0.0,1
0.02275499999814201,114,0.278625999999349,1
0.0,115,0.0,1
0.021000000000640284,116,0.25665299998945557,1
0.0,117,0.0,1
0.02860500000315369,118,0.3164059999980964,1
0.0,119,0.0,1
0.032189999998081475,120,0.35839799999666866,1
0.0,121,0.0,1
0.010559999998804415,122,0.1290900000021793,1
0.0,123,0.0,1
0.017550000000483124,124,0.2689210000098683,1
0.0,125,0.0,1
0.025710000001708977,126,0.2792970000009518,1
0.0,127,0.0,1
0.024539999998523854,128,0.285277999995742,1
0.0,129,0.0,1
0.04275000000052387,130,0.46215800000936724,1
0.0,131,0.0,1
0.009944999997969717,132,0.10943599999882281,1
0.0,133,0.0,1
0.024584999999206048,134,0.29235799999150913,1
0.0,135,0.0,1
0.029175000003306195,136,0.3056650000071386,1
0.0,137,0.0,1
0.032639999997627456,138,0.30126899998867884,1
0.0,139,0.0,1
0.04951500000242959,140,0.48999000000185333,1
0.0,141,0.0,1
0.011069999996834667,142,0.1100470000092173,1
0.0,143,0.0,1
0.026775000002089655,144,0.28088299999944866,1
0.0,145,0.0,1
0.017489999998360872,146,0.2827759999927366,1
0.0,147,0.0,1
0.023400000001856824,148,0.2758179999946151,1
0.0,149,0.0,1
0.036840000000665896,150,0.47375500001362525,1
0.0,151,0.0,1
0.008744999999180436,152,0.09845000000495929,1
0.0,153,0.0,1
0.01464000000123633,154,0.21160899999085814,1
0.0,155,0.0,1
0.017039999998814892,156,0.26513600000180304,1
0.0,157,0.0,1
0.014100000000325963,158,0.24292000000423286,1
0.0,159,0.0,1
0.021600000000034925,160,0.34344499999133404,1
0.0,161,0.0,1
0.012869999998656567,162,0.13525400000798982,1
0.0,163,0.0,1
0.025140000001556473,164,0.31292699999175966,1
0.0,165,0.0,1
0.02464499999769032,166,0.26934800000162795,1
0.0,167,0.0,1
0.013410000003204914,168,0.235778999995091,1
0.0,169,0.0,1
0.030389999996259576,170,0.4040530000056606,1
0.0,171,0.0,1
0.011760000004869653,172,0.12585500000568572,1
0.0,173,0.0,1
0.029249999999592546,174,0.24639799998840317,1
0.0,175,0.0,1
0.018089999997755513,176,0.2783820000040578,1
0.0,177,0.0,1
0.012855000000854488,178,0.21917699999175966,1
0.0,179,0.0,1
0.02335500000117463,180,0.37249800001154654,1
0.0,181,0.0,1
0.01345499999661115,182,0.1541129999968689,1
0.0,183,0.0,1
0.013634999999339925,184,0.21624799999699462,1
0.0,185,0.0,1
0.024060000003373716,186,0.2940669999952661,1
0.0,187,0.0,1
0.014699999999720603,188,0.2235720000026049,1
0.0,189,0.0,1
0.023460000000341097,190,0.35705600000801496,1
0.0,191,0.0,1
0.007079999995767139,192,0.11535599999479018,1
0.0,193,0.0,1
0.01996500000313972,194,0.23199500000919215,1
0.0,195,0.0,1
0.017520000001240987,196,0.2234500000049593,1
0.0,197,0.0,1
0.016499999997904524,198,0.22534099999757018,1
0.0,199,0.0,1
0.029429999998683343,200,0.3358159999916097,1
0.0,201,0.0,1
0.008220000003348105,202,0.11529499999596737,1
0.0,203,0.0,1
0.028109999999287538,204,0.24487300000328105,1
0.0,205,0.0,1
0.017759999998816056,206,0.2227790000033565,1
0.0,207,0.0,1
0.014219999997294508,208,0.22161799999594223,1
0.0,209,0.0,1
0.02478000000337488,210,0.3316650000051595,1
0.0,211,0.0,1
0.007709999998041894,212,0.0856939999939641,1
0.0,213,0.0,1
0.02410500000041793,214,0.2656859999988228,1
0.0,215,0.0,1
0.013500000000931323,216,0.19720399999641813,1
0.0,217,0.0,1
0.01607999999760068,218,0.24707100000523496,1
0.0,219,0.0,1
0.02410500000405591,220,0.32025099999736995,1
0.0,221,0.0,1
0.00819000000046799,222,0.11383100000966806,1
0.0,223,0.0,1
0.025064999997994164,224,0.2838739999860991,1
0.0,225,0.0,1
0.014595000000554137,226,0.21551500001805834,1
0.0,227,0.0,1
0.01584000000002561,228,0.2759399999922607,1
0.0,229,0.0,1
0.02172000000064145,230,0.3165889999945648,1
0.0,231,0.0,1
0.01171500000054948,232,0.12042300000030082,1
0.0,233,0.0,1
0.01584000000002561,234,0.2560420000081649,1
0.0,235,0.0,1
0.01569000000017695,236,0.21380599999974947,1
0.0,237,0.0,1
0.020534999999654246,238,0.29919499999959953,1
0.0,239,0.0,1
0.022890000000188593,240,0.3417970000009518,1
0.0,241,0.0,1
0.011744999999791617,242,0.11492899998847861,1
0.0,243,0.0,1
0.02569499999663094,244,0.2402950000105193,1
0.0,245,0.0,1
0.025710000001708977,246,0.28826899999694433,1
0.0,247,0.0,1
0.01584000000002561,248,0.22650200000498444,1
0.0,249,0.0,1
0.022349999999278225,250,0.36517299998376984,1
0.0,251,0.0,1
0.00998999999865191,252,0.15051300000050105,1
0.0,253,0.0,1
0.012420000002748566,254,0.2037960000016028,1
0.0,255,0.0,1
0.01577999999790336,256,0.2655030000023544,1
0.0,257,0.0,1
0.01224000000001979,258,0.21099900000263005,1
0.0,259,0.0,1
0.023475000001781154,260,0.36169400000653695,1
0.0,261,0.0,1
0.007019999997282866,262,0.12188700000115205,1
0.0,263,0.0,1
0.016560000003664754,264,0.23962399999436457,1
0.0,265,0.0,1
0.014339999997901032,266,0.23626700000022538,1
0.0,267,0.0,1
0.014220000000932487,268,0.24011299999256153,1
0.0,269,0.0,1
0.019425000002229353,270,0.3305050000199117,1
0.0,271,0.0,1
0.00998999999865191,272,0.14672899998549838,1
0.0,273,0.0,1
0.015269999999873107,274,0.2424310000060359,1
0.0,275,0.0,1
0.012419999999110587,276,0.20751999999629334,1
0.0,277,0.0,1
0.016019999999116408,278,0.2650140000041574,1
0.0,279,0.0,1
0.019560000000637956,280,0.3287969999946654,1
0.0,281,0.0,1
0.007140000001527369,282,0.1168210000032559,1
0.0,283,0.0,1
0.016019999999116408,284,0.2745969999959925,1
0.0,285,0.0,1
0.014159999998810235,286,0.2410890000028303,1
0.0,287,0.0,1
0.016470000002300367,288,0.24169899999105837,1
0.0,289,0.0,1
0.019034999997529667,290,0.29718000000866596,1
0.0,291,0.0,1
0.010620000000926666,292,0.18292300000030082,1
0.0,293,0.0,1
0.014264999997976702,294,0.23547299999336246,1
0.0,295,0.0,1
0.014235000002372544,296,0.23620700000901707,1
0.0,297,0.0,1
0.014220000000932487,298,0.23516799999924842,1
0.0,299,0.0,1
0.019514999999955762,300,0.32781999999133404,1
0.0,301,0.0,1
0.008835000000544824,302,0.15447999999742024,1
0.0,303,0.0,1
0.012374999998428393,304,0.21008300001267344,1
0.0,305,0.0,1
0.015960000000632135,306,0.26525900000706315,1
0.0,307,0.0,1
0.012299999998504063,308,0.211180999991484,1
0.0,309,0.0,1
0.021090000002004672,310,0.36376999999629334,1
0.0,311,0.0,1
0.00998999999865191,312,0.16290300000400748,1
0.0,313,0.0,1
0.012435000000550644,314,0.21356200000445824,1
0.0,315,0.0,1
0.01591499999994994,316,0.27477999999246094,1
0.0,317,0.0,1
0.01247999999759486,318,0.20959500000753906,1
0.0,319,0.0,1
0.021315000001777662,320,0.3695669999870006,1
0.0,321,0.0,1
0.008805000001302687,322,0.15740999999979977,1
0.0,323,0.0,1
0.014759999998204876,324,0.21630900001036935,1
0.0,325,0.0,1
0.018270000000484288,326,0.27941899999859743,1
0.0,327,0.0,1
0.01238999999986845,328,0.21234100000583567,1
0.0,329,0.0,1
0.019560000000637956,330,0.33605999998690095,1
0.0,331,0.0,1
0.010620000000926666,332,0.1866450000088662,1
0.0,333,0.0,1
0.01697999999669264,334,0.2174070000037318,1
0.0,335,0.0,1
0.020370000002003508,336,0.27697799999441486,1
0.0,337,0.0,1
0.013530000000173459,338,0.2139889999962179,1
0.0,339,0.0,1
0.03432000000248081,340,0.34741200000280514,1
0.0,341,0.0,1
0.01811999999699765,342,0.16204900000593625,1
0.0,343,0.0,1
0.015825000002223533,344,0.29589799999666866,1
0.0,345,0.0,1
0.020549999997456325,346,0.23083499999484047,1
0.0,347,0.0,1
0.01404000000184169,348,0.26672400000097696,1
0.0,349,0.0,1
0.027014999999664724,350,0.39917000000423286,1
0.0,351,0.0,1
0.011760000001231674,352,0.13085899999714456,1
0.0,353,0.0,1
0.023324999998294516,354,0.27282699999341276,1
0.0,355,0.0,1
0.02899500000057742,356,0.2607419999985723,1
0.0,357,0.0,1
0.03319499999997788,358,0.314513999997871,1
0.0,359,0.0,1
0.03210000000035507,360,0.36316000000806525,1
0.0,361,0.0,1
0.011654999998427229,362,0.13067600000067614,1
0.0,363,0.0,1
0.023370000002614688,364,0.26129100000252947,1
0.0,365,0.0,1
0.021150000000488944,366,0.26330599999346305,1
0.0,367,0.0,1
0.019859999996697297,368,0.25994899999932386,1
0.0,369,0.0,1
0.04234500000166008,370,0.3536370000074385,1
0.0,371,0.0,1
0.012224999998579733,372,0.15460199999506585,1
0.0,373,0.0,1
0.0232800000012503,374,0.2479250000033062,1
0.0,375,0.0,1
0.019259999997302657,376,0.21222000000125263,1
0.0,377,0.0,1
0.020459999999729916,378,0.2764889999962179,1
0.0,379,0.0,1
0.037830000001122244,380,0.34613000000535976,1
0.0,381,0.0,1
0.01629000000320957,382,0.16101099998923019,1
0.0,383,0.0,1
0.021779999995487742,384,0.21313500001269858,1
0.0,385,0.0,1
0.027509999999892898,386,0.2794189999840455,1
0.0,387,0.0,1
0.023925000001327135,388,0.252624000000651,1
0.0,389,0.0,1
0.03387000000293483,390,0.3720090000133496,1
0.0,391,0.0,1
0.00878999999986263,392,0.12280299999110866,1
0.0,393,0.0,1
0.0204299999968498,394,0.21545400000468362,1
0.0,395,0.0,1
0.019320000003062887,396,0.27154600000358187,1
0.0,397,0.0,1
0.015389999996841652,398,0.24175999998988118,1
0.0,399,0.0,1
0.02517000000079861,400,0.35278300000936724,1
0.0,401,0.0,1
0.011204999998881249,402,0.1528929999913089,1
0.0,403,0.0,1
0.013410000003204914,404,0.2249149999988731,1
0.0,405,0.0,1
0.02059499999813852,406,0.295471000004909,1
0.0,407,0.0,1
0.015810000000783475,408,0.2288210000115214,1
0.0,409,0.0,1
0.023520000002463348,410,0.40185499998915475,1
0.0,411,0.0,1
0.009449999997741543,412,0.13403300000936724,1
0.0,413,0.0,1
0.015960000000632135,414,0.26403799999388866,1
0.0,415,0.0,1
0.012419999999110587,416,0.258973000003607,1
0.0,417,0.0,1
0.01598999999987427,418,0.2940059999964433,1
0.0,419,0.0,1
0.01946999999927357,420,0.3667600000044331,1
0.0,421,0.0,1
0.005339999999705469,422,0.13635299999441486,1
0.0,423,0.0,1
0.015315000000555301,424,0.26330500000040047,1
0.0,425,0.0,1
0.01411500000176602,426,0.2611089999991236,1
0.0,427,0.0,1
0.01427999999577878,428,0.3055420000018785,1
0.0,429,0.0,1
0.01938000000154716,430,0.3674920000048587,1
0.0,431,0.0,1
0.007140000001527369,432,0.13085999999020714,1
0.0,433,0.0,1
0.01427999999941676,434,0.25921600000583567,1
0.0,435,0.0,1
0.015224999999190914,436,0.2642820000037318,1
0.0,437,0.0,1
0.014220000000932487,438,0.253417999992962,1
0.0,439,0.0,1
0.021195000001171138,440,0.3899539999983972,1
0.0,441,0.0,1
0.007020000000920845,442,0.1277470000059111,1
0.0,443,0.0,1
0.0123299999977462,444,0.25298999999358784,1
0.0,445,0.0,1
0.018720000000030268,446,0.2493290000129491,1
0.0,447,0.0,1
0.014070000001083827,448,0.2445679999946151,1
0.0,449,0.0,1
0.0210449999976845,450,0.37670900000375696,1
0.0,451,0.0,1
0.0070500000001629815,452,0.12408399999549147,1
0.0,453,0.0,1
0.014054999999643769,454,0.24761999999464024,1
0.0,455,0.0,1
0.01411500000176602,456,0.24645999999484047,1
0.0,457,0.0,1
0.0123299999977462,458,0.21569800001452677,1
0.0,459,0.0,1
0.03597000000445405,460,0.37261999999464024,1
0.0,461,0.0,1
0.015749999998661224,462,0.15924000000813976,1
0.0,463,0.0,1
0.025590000001102453,464,0.2684939999890048,1
0.0,465,0.0,1
0.020534999999654246,466,0.22186299999884795,1
0.0,467,0.0,1
0.02044499999828986,468,0.279236000002129,1
0.0,469,0.0,1
0.03325500000210013,470,0.3587640000041574,1
0.0,471,0.0,1
0.016889999998966232,472,0.16027899998880457,1
0.0,473,0.0,1
0.02164500000071712,474,0.22235100001853425,1
0.0,475,0.0,1
0.027449999997770647,476,0.2951049999828683,1
0.0,477,0.0,1
0.02043000000048778,478,0.21746800000255462,1
0.0,479,0.0,1
0.03140999999959604,480,0.3845209999999497,1
0.0,481,0.0,1
0.020400000001245644,482,0.1609500000049593,1
0.0,483,0.0,1
0.023310000000492437,484,0.25915499999246094,1
0.0,485,0.0,1
0.020399999997607665,486,0.2384650000021793,1
0.0,487,0.0,1
0.026250000002619345,488,0.30407700000796467,1
0.0,489,0.0,1
0.03440999999656924,490,0.3619380000018282,1
0.0,491,0.0,1
0.016950000001088483,492,0.16717599998810329,1
0.0,493,0.0,1
0.01757999999972526,494,0.21997000000556,1
0.0,495,0.0,1
0.026340000003983732,496,0.28448499999649357,1
0.0,497,0.0,1
0.025109999998676358,498,0.22125300001061987,1
0.0,499,0.0,1
0.03674999999930151,500,0.3609619999915594,1
0.0,501,0.0,1
0.014565000001312,502,0.16351300000678748,1
0.0,503,0.0,1
0.02267999999821768,504,0.28125,1
0.0,505,0.0,1
0.01924499999950058,506,0.22259499998472165,1
0.0,507,0.0,1
0.025125000000116415,508,0.2880860000150278,1
0.0,509,0.0,1
0.02621999999973923,510,0.35717799999110866,1
0.0,511,0.0,1
0.01464000000123633,512,0.1624139999912586,1
0.0,513,0.0,1
0.022709999997459818,514,0.2247930000157794,1
0.0,515,0.0,1
0.024450000000797445,516,0.25164800000493415,1
0.0,517,0.0,1
0.025635000001784647,518,0.252013999997871,1
0.0,519,0.0,1
0.03547499999694992,520,0.35900899999251124,1
0.0,521,0.0,1
0.012810000000172295,522,0.16332999999576714,1
0.0,523,0.0,1
0.023339999999734573,524,0.2545769999996992,1
0.0,525,0.0,1
0.029040000001259614,526,0.2526860000070883,1
0.0,527,0.0,1
0.025710000001708977,528,0.25323499999649357,1
0.0,529,0.0,1
0.03554999999687425,530,0.3593140000011772,1
0.0,531,0.0,1
0.01578000000154134,532,0.16290300000400748,1
0.0,533,0.0,1
0.025649999999586726,534,0.2567739999940386,1
0.0,535,0.0,1
0.02802000000156113,536,0.25988800000050105,1
0.0,537,0.0,1
0.024600000000646105,538,0.24963400000706315,1
0.0,539,0.0,1
0.03208499999891501,540,0.35296599999128375,1
0.0,541,0.0,1
0.015719999999419088,542,0.167237000001478,1
0.0,543,0.0,1
0.02569500000026892,544,0.2510980000079144,1
0.0,545,0.0,1
0.02908499999830383,546,0.2617189999873517,1
0.0,547,0.0,1
0.026760000004287576,548,0.276428000011947,1
0.0,549,0.0,1
0.03328499999770429,550,0.3574219999863999,1
0.0,551,0.0,1
0.01689000000260421,552,0.16424600000027567,1
0.0,553,0.0,1
0.020489999995334074,554,0.2213740000152029,1
0.0,555,0.0,1
0.025200000000040745,556,0.2859499999904074,1
0.0,557,0.0,1
0.023370000002614688,558,0.2533570000086911,1
0.0,559,0.0,1
0.030374999998457497,560,0.30255100000067614,1
0.0,561,0.0,1
0.01922999999806052,562,0.159057999990182,1
0.0,563,0.0,1
0.028500000000349246,564,0.28564400000323076,1
0.0,565,0.0,1
0.02614500000345288,566,0.21545400000468362,1
0.0,567,0.0,1
0.026249999998981366,568,0.24768099999346305,1
0.0,569,0.0,1
0.03853499999968335,570,0.3993530000007013,1
0.0,571,0.0,1
0.01576500000010128,572,0.17163099999015685,1
0.0,573,0.0,1
0.02500499999950989,574,0.2384030000102939,1
0.0,575,0.0,1
0.024600000000646105,576,0.2521359999955166,1
0.0,577,0.0,1
0.021135000002686866,578,0.2650150000117719,1
0.0,579,0.0,1
0.030824999998003477,580,0.3786009999894304,1
0.0,581,0.0,1
0.01690500000040629,582,0.17028800000844058,1
0.0,583,0.0,1
0.023459999996703118,584,0.27014199999393895,1
0.0,585,0.0,1
0.029099999999743886,586,0.27410900000541005,1
0.0,587,0.0,1
0.024525000000721775,588,0.2766109999938635,1
0.0,589,0.0,1
0.023940000002767192,590,0.38739000000350643,1
0.0,591,0.0,1
0.01238999999986845,592,0.17346200000611134,1
0.0,593,0.0,1
0.024509999999281717,594,0.2684330000047339,1
0.0,595,0.0,1
0.030240000000048894,596,0.27007999998750165,1
0.0,597,0.0,1
0.02321999999912805,598,0.2684939999890048,1
0.0,599,0.0,1
0.03498000000035972,600,0.41046100000676233,1
0.0,601,0.0,1
0.012764999999490101,602,0.13879400001314934,1
0.0,603,0.0,1
0.023310000000492437,604,0.2791749999887543,1
0.0,605,0.0,1
0.023385000000416767,606,0.2730710000032559,1
0.0,607,0.0,1
0.022199999999429565,608,0.2786869999981718,1
0.0,609,0.0,1
0.03225000000020373,610,0.37817399999767076,1
0.0,611,0.0,1
0.012285000000701984,612,0.17272900001262315,1
0.0,613,0.0,1
0.024599999997008126,614,0.2753909999883035,1
0.0,615,0.0,1
0.02343000000109896,616,0.2711790000030305,1
0.0,617,0.0,1
0.02217000000018743,618,0.27349900000263005,1
0.0,619,0.0,1
0.0331800000021758,620,0.37683100000140257,1
0.0,621,0.0,1
0.015734999997221166,622,0.1677239999989979,1
0.0,623,0.0,1
0.020459999999729916,624,0.232361000002129,1
0.0,625,0.0,1
0.025095000004512258,626,0.2943119999981718,1
0.0,627,0.0,1
0.024584999999206048,628,0.2660520000063116,1
0.0,629,0.0,1
0.02749499999845284,630,0.3757929999846965,1
0.0,631,0.0,1
0.018824999999196734,632,0.181458000006387,1
0.0,633,0.0,1
0.022740000000339933,634,0.24145499999576714,1
0.0,635,0.0,1
0.02629500000330154,636,0.30798300000606105,1
0.0,637,0.0,1
0.015884999997069826,638,0.23346000000310596,1
0.0,639,0.0,1
0.031440000002476154,640,0.3877559999964433,1
0.0,641,0.0,1
0.011669999996229308,642,0.17449999999371357,1
0.0,643,0.0,1
0.0204150000026857,644,0.29296800000884105,1
0.0,645,0.0,1
0.020399999997607665,646,0.22229000000515953,1
0.0,647,0.0,1
0.018210000002000015,648,0.2549439999856986,1
0.0,649,0.0,1
0.03701999999975669,650,0.3806160000094678,1
0.0,651,0.0,1
0.017970000000786968,652,0.1494749999983469,1
0.0,653,0.0,1
0.018059999998513376,654,0.21111999999266118,1
0.0,655,0.0,1
0.02673000000140746,656,0.24304200000187848,1
0.0,657,0.0,1
0.03493499999967753,658,0.2852180000045337,1
0.0,659,0.0,1
0.03886499999862281,660,0.38067600000067614,1
0.0,661,0.0,1
0.01164000000062515,662,0.1400139999896055,1
0.0,663,0.0,1
0.025860000001557637,664,0.2738039999967441,1
0.0,665,0.0,1
0.03409499999906984,666,0.2996830000047339,1
0.0,667,0.0,1
0.027089999999589054,668,0.2527460000128485,1
0.0,669,0.0,1
0.043019999997341074,670,0.4377449999883538,1
0.0,671,0.0,1
0.016875000001164153,672,0.1819450000039069,1
0.0,673,0.0,1
0.021540000001550652,674,0.2868659999949159,1
0.0,675,0.0,1
0.025665000001026783,676,0.2857660000154283,1
0.0,677,0.0,1
0.027599999997619307,678,0.2836309999838704,1
0.0,679,0.0,1
0.0500400000018999,680,0.4328000000095926,1
0.0,681,0.0,1
0.01502999999866006,682,0.1412960000016028,1
0.0,683,0.0,1
0.028679999999440042,684,0.28369199999724515,1
0.0,685,0.0,1
0.032790000001114095,686,0.2825310000043828,1
0.0,687,0.0,1
0.030225000002246816,688,0.28228800000215415,1
0.0,689,0.0,1
0.04003499999816995,690,0.3939209999953164,1
0.0,691,0.0,1
0.020234999999956926,692,0.18163999999524094,1
0.0,693,0.0,1
0.031289999998989515,694,0.3049319999990985,1
0.0,695,0.0,1
0.028290000002016313,696,0.26727300000493415,1
0.0,697,0.0,1
0.03611999999702675,698,0.3385009999910835,1
0.0,699,0.0,1
0.10546500000054948,700,0.6217040000046836,1
0.0,701,0.0,1
0.005819999998493586,702,0.04040500000701286,1
0.0,703,0.0,1
0.02929500000391272,704,0.2587889999995241,1
0.0,705,0.0,1
0.03570000000036089,706,0.31231699998897966,1
0.0,707,0.0,1
0.03254999999990105,708,0.2777710000082152,1
0.0,709,0.0,1
0.038054999997257255,710,0.3524780000007013,1
0.0,711,0.0,1
0.019320000003062887,712,0.17236399999819696,1
0.0,713,0.0,1
0.04990499999621534,714,0.3187249999900814,1
0.0,715,0.0,1
0.027825000001030276,716,0.24029600000358187,1
0.0,717,0.0,1
0.032040000001870794,718,0.2797850000060862,1
0.0,719,0.0,1
0.05281499999910011,720,0.429320999988704,1
0.0,721,0.0,1
0.022515000000566943,722,0.17218000000866596,1
0.0,723,0.0,1
0.03973499999847263,724,0.23895300000731368,1
0.0,725,0.0,1
0.03724499999952968,726,0.2719729999953415,1
0.0,727,0.0,1
0.03514500000164844,728,0.2687370000057854,1
0.0,729,0.0,1
0.053970000000845175,730,0.44256599999789614,1
0.0,731,0.0,1
0.015540000000328291,732,0.13757399999303743,1
0.0,733,0.0,1
0.030989999999292195,734,0.2694700000138255,1
0.0,735,0.0,1
0.028005000000121072,736,0.24157699999341276,1
0.0,737,0.0,1
0.032339999997930136,738,0.27062999999907333,1
0.0,739,0.0,1
0.04610999999931664,740,0.40942399999767076,1
0.0,741,0.0,1
0.018990000000485452,742,0.16320799999812152,1
0.0,743,0.0,1
0.023715000002994202,744,0.21954299999924842,1
0.0,745,0.0,1
0.023429999997460982,746,0.23614500000257976,1
0.0,747,0.0,1
0.023414999999658903,748,0.23962400000891648,1
0.0,749,0.0,1
0.03342000000338885,750,0.33264199999393895,1
0.0,751,0.0,1
0.015809999997145496,752,0.15301499998895451,1
0.0,753,0.0,1
0.022979999997915,754,0.2640990000072634,1
0.0,755,0.0,1
0.01593000000139,756,0.20672599998943042,1
0.0,757,0.0,1
0.015330000001995359,758,0.24231000001600478,1
0.0,759,0.0,1
0.025200000000040745,760,0.3131710000016028,1
0.0,761,0.0,1
0.010125000000698492,762,0.13549800000328105,1
0.0,763,0.0,1
0.017039999998814892,764,0.19940199999837205,1
0.0,765,0.0,1
0.02365500000087195,766,0.27416999998968095,1
0.0,767,0.0,1
0.02013000000079046,768,0.25653100000636186,1
0.0,769,0.0,1
0.019559999996999977,770,0.32958900000085123,1
0.0,771,0.0,1
0.008925000001909211,772,0.14532499999040738,1
0.0,773,0.0,1
0.016560000000026776,774,0.22528099999180995,1
0.0,775,0.0,1
0.01427999999941676,776,0.22772200001054443,1
0.0,777,0.0,1
0.014220000000932487,778,0.23407000000588596,1
0.0,779,0.0,1
0.018990000000485452,780,0.2899780000007013,1
0.0,781,0.0,1
0.008879999997589039,782,0.15386999999464024,1
0.0,783,0.0,1
0.016124999998282874,784,0.2689200000022538,1
0.0,785,0.0,1
0.012480000001232838,786,0.2134399999922607,1
0.0,787,0.0,1
0.015960000000632135,788,0.25512700001127087,1
0.0,789,0.0,1
0.02005500000086613,790,0.2838749999937136,1
0.0,791,0.0,1
0.00893999999971129,792,0.14019799999368843,1
0.0,793,0.0,1
0.01607999999760068,794,0.2539060000126483,1
0.0,795,0.0,1
0.012420000002748566,796,0.20092799999110866,1
0.0,797,0.0,1
0.014039999998203712,798,0.223387999998522,1
0.0,799,0.0,1
0.023010000000795117,800,0.3123780000023544,1
0.0,801,0.0,1
0.00893999999971129,802,0.17425599999842234,1
0.0,803,0.0,1
0.012299999998504063,804,0.1983029999973951,1
0.0,805,0.0,1
0.014220000004570466,806,0.22027600000728853,1
0.0,807,0.0,1
0.01427999999577878,808,0.21710199999506585,1
0.0,809,0.0,1
0.020670000001700828,810,0.30517500000132713,1
0.0,811,0.0,1
0.00999000000228989,812,0.14294499999959953,1
0.0,813,0.0,1
0.014294999997218838,814,0.2254640000028303,1
0.0,815,0.0,1
0.014220000000932487,816,0.2214349999994738,1
0.0,817,0.0,1
0.014100000000325963,818,0.22064200000022538,1
0.0,819,0.0,1
0.021749999999883585,820,0.3134769999887794,1
0.0,821,0.0,1
0.011249999999563443,822,0.15509000001475215,1
0.0,823,0.0,1
0.014100000000325963,824,0.23486399999819696,1
0.0,825,0.0,1
0.01608000000123866,826,0.24700899999879766,1
0.0,827,0.0,1
0.012344999995548278,828,0.19860800000606105,1
0.0,829,0.0,1
0.018825000002834713,830,0.2766119999869261,1
0.0,831,0.0,1
0.011760000001231674,832,0.17095900001004338,1
0.0,833,0.0,1
0.014159999998810235,834,0.2283939999906579,1
0.0,835,0.0,1
0.014220000000932487,836,0.22717199999897275,1
0.0,837,0.0,1
0.014099999996687984,838,0.22735600000305567,1
0.0,839,0.0,1
0.01713000000381726,840,0.24896300000546034,1
0.0,841,0.0,1
0.014744999996764818,842,0.1989130000001751,1
0.0,843,0.0,1
0.014220000004570466,844,0.22393799999554176,1
0.0,845,0.0,1
0.016379999997298,846,0.22882099999696948,1
0.0,847,0.0,1
0.014159999998810235,848,0.2276609999971697,1
0.0,849,0.0,1
0.02125499999965541,850,0.2830200000171317,1
0.0,851,0.0,1
0.015180000002146699,852,0.18334999999206048,1
0.0,853,0.0,1
0.014175000000250293,854,0.2289429999946151,1
0.0,855,0.0,1
0.014219999997294508,856,0.22930900000210386,1
0.0,857,0.0,1
0.014160000002448214,858,0.22650099999736995,1
0.0,859,0.0,1
0.023909999999887077,860,0.25988800000050105,1
0.0,861,0.0,1
0.027374999997846317,862,0.20770300000731368,1
0.0,0,0.0,2
0.0,1,0.0,2
0.22687500000029104,2,1.7895509999943897,2
0.0,3,0.0,2
0.004080000000612927,4,0.03497300000162795,2
0.0,5,0.0,2
0.0,6,0.0,2
0.0,7,0.0,2
0.004079999998793937,8,0.0358890000206884,2
0.0,9,0.0,2
0.02862000000095577,10,0.2215569999825675,2
0.0,11,0.0,2
0.004079999998793937,12,0.034057999990182,2
0.0,13,0.0,2
0.004020000002128654,14,0.036743000004207715,2
0.0,15,0.0,2
0.0,16,0.0,2
0.0,17,0.0,2
0.00413999999727821,18,0.027588000026298687,2
0.0,19,0.0,2
0.02058000000033644,20,0.19323699999949895,2
0.0,21,0.0,2
0.004080000000612927,22,0.03082299997913651,2
0.0,23,0.0,2
0.03690000000096916,24,0.2647710000164807,2
0.0,25,0.0,2
0.03269999999974971,26,0.23522899998351932,2
0.0,27,0.0,2
0.028829999999288702,28,0.1854250000033062,2
0.0,29,0.0,2
0.05328000000008615,30,0.39141800001380034,2
0.0,31,0.0,2
0.012300000000323053,32,0.11193899999489076,2
0.0,33,0.0,2
0.03269999999974971,34,0.2511600000143517,2
0.0,35,0.0,2
0.04100999999900523,36,0.30609099997673184,2
0.0,37,0.0,2
0.03290999999990163,38,0.23931900001480244,2
0.0,39,0.0,2
0.05730000000039581,40,0.44732599999406375,2
0.0,41,0.0,2
0.016320000000632717,42,0.1282960000098683,2
0.0,43,0.0,2
0.02052000000003318,44,0.13653599997633137,2
0.0,45,0.0,2
0.0370199999979377,46,0.2451170000131242,2
0.0,47,0.0,2
0.028860000002168817,48,0.19903599997633137,2
0.0,49,0.0,2
0.17122500000004948,50,1.309997000003932,2
0.0,51,0.0,2
0.004079999998793937,52,0.033448000001953915,2
0.0,53,0.0,2
0.004080000000612927,54,0.03198200001497753,2
0.0,55,0.0,2
0.0,56,0.0,2
0.0,57,0.0,2
0.004079999998793937,58,0.035216999996919185,2
0.0,59,0.0,2
0.028664999999818974,60,0.23449699999764562,2
0.0,61,0.0,2
0.020534999999654246,62,0.15875299999606796,2
0.0,63,0.0,2
0.03282000000217522,64,0.2503660000220407,2
0.0,65,0.0,2
0.03284999999959837,66,0.23986800000420772,2
0.0,67,0.0,2
0.03298499999982596,68,0.2182009999814909,2
0.0,69,0.0,2
0.04524000000128581,70,0.3300170000002254,2
0.0,71,0.0,2
0.020640000000639702,72,0.14819300000090152,2
0.0,73,0.0,2
0.03299999999944703,74,0.2166750000033062,2
0.0,75,0.0,2
0.032864999997400446,76,0.26818899999489076,2
0.0,77,0.0,2
0.02892000000247208,78,0.19104000000515953,2
0.0,79,0.0,2
0.04925999999977648,80,0.4101559999980964,2
0.0,81,0.0,2
0.016259999998510466,82,0.19628899998497218,2
0.0,83,0.0,2
0.034965000000738655,84,0.27868600000510924,2
0.0,85,0.0,2
0.037544999999227,86,0.40136799999163486,2
0.0,87,0.0,2
0.03259500000058324,88,0.33764600002905354,2
0.0,89,0.0,2
0.040979999999763095,90,0.47070299996994436,2
0.0,91,0.0,2
0.01638000000093598,92,0.16137700001127087,2
0.0,93,0.0,2
0.03260999999838532,94,0.32110599998850375,2
0.0,95,0.0,2
0.03259500000240223,96,0.36377000002539717,2
0.0,97,0.0,2
0.03269999999974971,98,0.30602999997790903,2
0.0,99,0.0,2
0.04081499999847438,100,0.3959960000065621,2
0.0,101,0.0,2
0.02440500000011525,102,0.24346900000819005,2
0.0,103,0.0,2
0.029550000001108856,104,0.30670200000167824,2
0.0,105,0.0,2
0.03457499999967695,106,0.3661499999871012,2
0.0,107,0.0,2
0.0348599999997532,108,0.3845819999987725,2
0.0,109,0.0,2
0.0449399999997695,110,0.46551500001805834,2
0.0,111,0.0,2
0.016200000000026193,112,0.22186300001339987,2
0.0,113,0.0,2
0.0328349999999773,114,0.31585699997958727,2
0.0,115,0.0,2
0.033914999999979045,116,0.3078010000172071,2
0.0,117,0.0,2
0.036765000000741566,118,0.35369799999170937,2
0.0,119,0.0,2
0.04490999999870837,120,0.4451909999770578,2
0.0,121,0.0,2
0.016499999999723514,122,0.14044200000353158,2
0.0,123,0.0,2
0.03276000000005297,124,0.30395500001031905,2
0.0,125,0.0,2
0.03262499999982538,126,0.30859299999428913,2
0.0,127,0.0,2
0.03273000000081083,128,0.2926030000089668,2
0.0,129,0.0,2
0.053219999999782885,130,0.4728999999933876,2
0.0,131,0.0,2
0.012300000000323053,132,0.11694400000851601,2
0.0,133,0.0,2
0.03268499999830965,134,0.2936399999889545,2
0.0,135,0.0,2
0.028560000002471497,136,0.31341500001144595,2
0.0,137,0.0,2
0.0295349999996688,138,0.3225709999969695,2
0.0,139,0.0,2
0.04891500000121596,140,0.4916990000056103,2
0.0,141,0.0,2
0.013334999999642605,142,0.11737100000027567,2
0.0,143,0.0,2
0.03995999999824562,144,0.3255000000062864,2
0.0,145,0.0,2
0.03258000000096217,146,0.28509600000688806,2
0.0,147,0.0,2
0.028560000000652508,148,0.23944099998334423,2
0.0,149,0.0,2
0.053159999999479624,150,0.5542600000044331,2
0.0,151,0.0,2
0.012224999998579733,152,0.11743099999148399,2
0.0,153,0.0,2
0.02861999999913678,154,0.2637329999997746,2
0.0,155,0.0,2
0.03667500000119617,156,0.34429999999701977,2
0.0,157,0.0,2
0.032939999999143765,158,0.28295900000375696,2
0.0,159,0.0,2
0.04506000000037602,160,0.36370799998985603,2
0.0,161,0.0,2
0.01643999999942025,162,0.12243700001272373,2
0.0,163,0.0,2
0.03288000000247848,164,0.3172600000107195,2
0.0,165,0.0,2
0.03269999999974971,166,0.3195199999900069,2
0.0,167,0.0,2
0.028454999997848063,168,0.28613200000836514,2
0.0,169,0.0,2
0.04919999999947322,170,0.43719500000588596,2
0.0,171,0.0,2
0.012360000002445304,172,0.13653599997633137,2
0.0,173,0.0,2
0.032700000001568696,174,0.32165500000701286,2
0.0,175,0.0,2
0.0370199999979377,176,0.33508300001267344,2
0.0,177,0.0,2
0.02876999999898544,178,0.25225799999316223,2
0.0,179,0.0,2
0.04926000000159547,180,0.4518439999956172,2
0.0,181,0.0,2
0.016439999997601262,182,0.15673799999058247,2
0.0,183,0.0,2
0.03282000000217522,184,0.3012690000177827,2
0.0,185,0.0,2
0.0368849999995291,186,0.339782999973977,2
0.0,187,0.0,2
0.028800000000046566,188,0.2596440000052098,2
0.0,189,0.0,2
0.04509000000143715,190,0.4346310000109952,2
0.0,191,0.0,2
0.016559999998207786,192,0.13281300000380725,2
0.0,193,0.0,2
0.03274499999861291,194,0.2941889999783598,2
0.0,195,0.0,2
0.03282000000217522,196,0.3178710000065621,2
0.0,197,0.0,2
0.03281999999853724,198,0.33050499999080785,2
0.0,199,0.0,2
0.04506000000037602,200,0.4530030000023544,2
0.0,201,0.0,2
0.016410000001997105,202,0.2105720000108704,2
0.0,203,0.0,2
0.032654999997248524,204,0.3451530000020284,2
0.0,205,0.0,2
0.03288000000247848,206,0.3176880000100937,2
0.0,207,0.0,2
0.033104999998613494,208,0.3093269999953918,2
0.0,209,0.0,2
0.04544999999961874,210,0.4760130000067875,2
0.0,211,0.0,2
0.012420000000929576,212,0.11511199999949895,2
0.0,213,0.0,2
0.036929999998392304,214,0.35888700000941753,2
0.0,215,0.0,2
0.02058000000215543,216,0.27679399997578,2
0.0,217,0.0,2
0.03710999999930209,218,0.3460090000007767,2
0.0,219,0.0,2
0.041205000001355074,220,0.4325560000143014,2
0.0,221,0.0,2
0.016499999999723514,222,0.16345199997886084,2
0.0,223,0.0,2
0.037829999997484265,224,0.3707270000013523,2
0.0,225,0.0,2
0.028560000002471497,226,0.2972420000296552,2
0.0,227,0.0,2
0.03690000000096916,228,0.3786619999737013,2
0.0,229,0.0,2
0.04540499999711756,230,0.4645989999989979,2
0.0,231,0.0,2
0.016320000002451707,232,0.15850900002988055,2
0.0,233,0.0,2
0.03892499999892607,234,0.36456299998098984,2
0.0,235,0.0,2
0.028604999999515712,236,0.2757559999881778,2
0.0,237,0.0,2
0.036840000000665896,238,0.3435060000338126,2
0.0,239,0.0,2
0.04520999999840569,240,0.42266899996320717,2
0.0,241,0.0,2
0.01636500000131491,242,0.15631100002792664,2
0.0,243,0.0,2
0.033615000000281725,244,0.31170599997858517,2
0.0,245,0.0,2
0.03461999999854015,246,0.31420900000375696,2
0.0,247,0.0,2
0.03276000000005297,248,0.282043999992311,2
0.0,249,0.0,2
0.04919999999947322,250,0.4002069999987725,2
0.0,251,0.0,2
0.02058000000033644,252,0.17688000001362525,2
0.0,253,0.0,2
0.028740000001562294,254,0.239196999988053,2
0.0,255,0.0,2
0.03695999999945343,256,0.3015140000206884,2
0.0,257,0.0,2
0.02861999999913678,258,0.23351999997976236,2
0.0,259,0.0,2
0.049080000000685686,260,0.41003400000045076,2
0.0,261,0.0,2
0.01645500000086031,262,0.12878500000806525,2
0.0,263,0.0,2
0.03276000000005297,264,0.27148399999714456,2
0.0,265,0.0,2
0.03375000000050932,266,0.2709350000077393,2
0.0,267,0.0,2
0.032864999999219435,268,0.26251199998660013,2
0.0,269,0.0,2
0.04513500000030035,270,0.3666380000067875,2
0.0,271,0.0,2
0.020399999999426655,272,0.1636970000108704,2
0.0,273,0.0,2
0.03280499999891617,274,0.24627699999837205,2
0.0,275,0.0,2
0.02868000000125903,276,0.21966499998234212,2
0.0,277,0.0,2
0.037080000000059954,278,0.2755740000284277,2
0.0,279,0.0,2
0.04531499999757216,280,0.33184800000162795,2
0.0,281,0.0,2
0.016500000001542503,282,0.12048299997695722,2
0.0,283,0.0,2
0.036915000000590226,284,0.2788089999812655,2
0.0,285,0.0,2
0.03380999999899359,286,0.24871800001710653,2
0.0,287,0.0,2
0.03282000000217522,288,0.2443850000272505,2
0.0,289,0.0,2
0.041144999997413834,290,0.3044429999717977,2
0.0,291,0.0,2
0.02472000000307162,292,0.17773500000475906,2
0.0,293,0.0,2
0.028800000000046566,294,0.24694800001452677,2
0.0,295,0.0,2
0.032864999997400446,296,0.24798599997302517,2
0.0,297,0.0,2
0.03277499999967404,298,0.24548300000606105,2
0.0,299,0.0,2
0.04513500000211934,300,0.33258100002422,2
0.0,301,0.0,2
0.020534999999654246,302,0.15112299998872913,2
0.0,303,0.0,2
0.028739999999743304,304,0.217956000007689,2
0.0,305,0.0,2
0.0368849999995291,306,0.27307199998176657,2
0.0,307,0.0,2
0.028665000001637964,308,0.21197500001289882,2
0.0,309,0.0,2
0.04900499999712338,310,0.3717039999901317,2
0.0,311,0.0,2
0.02043000000230677,312,0.16247500001918525,2
0.0,313,0.0,2
0.02861999999913678,314,0.21588199998950586,2
0.0,315,0.0,2
0.03689999999915017,316,0.26727300000493415,2
0.0,317,0.0,2
0.028739999999743304,318,0.20342999999411404,2
0.0,319,0.0,2
0.04906500000106462,320,0.34814399998867884,2
0.0,321,0.0,2
0.020640000000639702,322,0.14886500002467074,2
0.0,323,0.0,2
0.030899999999746797,324,0.21606499998597428,2
0.0,325,0.0,2
0.03705000000081782,326,0.2684319999825675,2
0.0,327,0.0,2
0.02885999999853084,328,0.2049560000305064,2
0.0,329,0.0,2
0.04529999999977008,330,0.33068899996578693,2
0.0,331,0.0,2
0.02471999999943364,332,0.1744990000152029,2
0.0,333,0.0,2
0.028725000000122236,334,0.2167970000009518,2
0.0,335,0.0,2
0.037755000001197914,336,0.31701699999393895,2
0.0,337,0.0,2
0.028740000001562294,338,0.22692800001823343,2
0.0,339,0.0,2
0.04400999999779742,340,0.36254899998311885,2
0.0,341,0.0,2
0.021525000000110595,342,0.16278099999180995,2
0.0,343,0.0,2
0.03276000000005297,344,0.2708740000089165,2
0.0,345,0.0,2
0.02861999999913678,346,0.270386000018334,2
0.0,347,0.0,2
0.03276000000187196,348,0.2664179999846965,2
0.0,349,0.0,2
0.04897499999970023,350,0.4011840000166558,2
0.0,351,0.0,2
0.012285000000701984,352,0.09899900000891648,2
0.0,353,0.0,2
0.034664999999222346,354,0.30291799997212365,2
0.0,355,0.0,2
0.043904999998630956,356,0.24096699999063276,2
0.0,357,0.0,2
0.039915000001201406,358,0.25292900000931695,2
0.0,359,0.0,2
0.04492500000014843,360,0.3388680000207387,2
0.0,361,0.0,2
0.020159999998213607,362,0.1501459999999497,2
0.0,363,0.0,2
0.03276000000005297,364,0.24505599998519756,2
0.0,365,0.0,2
0.028664999999818974,366,0.2417600000044331,2
0.0,367,0.0,2
0.03456000000005588,368,0.23870899999747053,2
0.0,369,0.0,2
0.06247500000063155,370,0.33184800000162795,2
0.0,371,0.0,2
0.020460000001548906,372,0.15600600000470877,2
0.0,373,0.0,2
0.03456000000005588,374,0.25640899999416433,2
0.0,375,0.0,2
0.03446999999869149,376,0.2120969999814406,2
0.0,377,0.0,2
0.03672000000187836,378,0.27325399999972433,2
0.0,379,0.0,2
0.054959999999482534,380,0.3264160000253469,2
0.0,381,0.0,2
0.029774999999062857,382,0.15002499998081475,2
0.0,383,0.0,2
0.028500000000349246,384,0.21624700000393204,2
0.0,385,0.0,2
0.0428699999993114,386,0.27063000001362525,2
0.0,387,0.0,2
0.0316499999989901,388,0.20941199996741489,2
0.0,389,0.0,2
0.05497500000092259,390,0.38873300002887845,2
0.0,391,0.0,2
0.017309999999270076,392,0.11834700001054443,2
0.0,393,0.0,2
0.028275000000576256,394,0.21807799997623079,2
0.0,395,0.0,2
0.04313999999976659,396,0.2696540000033565,2
0.0,397,0.0,2
0.02862000000095577,398,0.21142500001587905,2
0.0,399,0.0,2
0.04918499999985215,400,0.3276369999803137,2
0.0,401,0.0,2
0.02052000000003318,402,0.13049300000420772,2
0.0,403,0.0,2
0.02868000000125903,404,0.18866000001435168,2
0.0,405,0.0,2
0.03214499999739928,406,0.2290039999934379,2
0.0,407,0.0,2
0.019140000000334112,408,0.15252699999837205,2
0.0,409,0.0,2
0.04927500000121654,410,0.310486000002129,2
0.0,411,0.0,2
0.016469999998662388,412,0.10583499999484047,2
0.0,413,0.0,2
0.03288000000065949,414,0.21581999998306856,2
0.0,415,0.0,2
0.0329249999995227,416,0.21783400001004338,2
0.0,417,0.0,2
0.03300000000126602,418,0.21820100001059473,2
0.0,419,0.0,2
0.045419999998557614,420,0.3228759999910835,2
0.0,421,0.0,2
0.016499999999723514,422,0.10772699999506585,2
0.0,423,0.0,2
0.028739999999743304,424,0.22839400000520982,2
0.0,425,0.0,2
0.03295500000240281,426,0.2749020000046585,2
0.0,427,0.0,2
0.0289199999988341,428,0.21173099998850375,2
0.0,429,0.0,2
0.049620000001596054,430,0.3109130000229925,2
0.0,431,0.0,2
0.016499999999723514,432,0.10467500000959262,2
0.0,433,0.0,2
0.03298499999982596,434,0.2252199999638833,2
0.0,435,0.0,2
0.03305999999975029,436,0.21173100001760758,2
0.0,437,0.0,2
0.0330599999979313,438,0.20892299999832176,2
0.0,439,0.0,2
0.049530000002050656,440,0.3090209999936633,2
0.0,441,0.0,2
0.016544999998586718,442,0.09973200000240467,2
0.0,443,0.0,2
0.03303000000050815,444,0.20861800000420772,2
0.0,445,0.0,2
0.033015000000887085,446,0.2167970000009518,2
0.0,447,0.0,2
0.028800000000046566,448,0.18847599998116493,2
0.0,449,0.0,2
0.05371499999819207,450,0.3422240000218153,2
0.0,451,0.0,2
0.012405000001308508,452,0.08111599998665042,2
0.0,453,0.0,2
0.0370199999979377,454,0.2510990000155289,2
0.0,455,0.0,2
0.03297000000202388,456,0.2357180000108201,2
0.0,457,0.0,2
0.028860000000349828,458,0.20440599997527897,2
0.0,459,0.0,2
0.049005000000761356,460,0.4013060000143014,2
0.0,461,0.0,2
0.020459999999729916,462,0.17633099999511614,2
0.0,463,0.0,2
0.02869499999906111,464,0.24890099998447113,2
0.0,465,0.0,2
0.032939999999143765,466,0.26812799999606796,2
0.0,467,0.0,2
0.03695999999945343,468,0.2975460000161547,2
0.0,469,0.0,2
0.04122000000279513,470,0.3227539999934379,2
0.0,471,0.0,2
0.016499999999723514,472,0.16003400000045076,2
0.0,473,0.0,2
0.03284999999959837,474,0.28369199999724515,2
0.0,475,0.0,2
0.034964999998919666,476,0.28216500001144595,2
0.0,477,0.0,2
0.0326550000008865,478,0.3179320000053849,2
0.0,479,0.0,2
0.04925999999795749,480,0.45544499999959953,2
0.0,481,0.0,2
0.022440000000642613,482,0.19256600001244806,2
0.0,483,0.0,2
0.02868000000125903,484,0.2505489999894053,2
0.0,485,0.0,2
0.032639999997627456,486,0.30133099999511614,2
0.0,487,0.0,2
0.032940000000962755,488,0.27532899999641813,2
0.0,489,0.0,2
0.04506000000037602,490,0.37652600000728853,2
0.0,491,0.0,2
0.020520000001852168,492,0.169861000002129,2
0.0,493,0.0,2
0.032864999999219435,494,0.2622069999924861,2
0.0,495,0.0,2
0.0247799999997369,496,0.25,2
0.0,497,0.0,2
0.03282000000035623,498,0.24957300000824034,2
0.0,499,0.0,2
0.045419999998557614,500,0.33465499998419546,2
0.0,501,0.0,2
0.020625000001018634,502,0.15081800002371892,2
0.0,503,0.0,2
0.03295500000058382,504,0.24853499999153428,2
0.0,505,0.0,2
0.03281999999853724,506,0.2518930000078399,2
0.0,507,0.0,2
0.03708000000187894,508,0.2790519999980461,2
0.0,509,0.0,2
0.04121999999915715,510,0.3123170000035316,2
0.0,511,0.0,2
0.02058000000033644,512,0.15631099996971898,2
0.0,513,0.0,2
0.032639999997627456,514,0.2538450000283774,2
0.0,515,0.0,2
0.028665000001637964,516,0.21752999999444,2
0.0,517,0.0,2
0.036780000000362634,518,0.27136199999949895,2
0.0,519,0.0,2
0.04104000000006636,520,0.33245799998985603,2
0.0,521,0.0,2
0.020459999999729916,522,0.154236000002129,2
0.0,523,0.0,2
0.03300000000126602,524,0.22680699999909848,2
0.0,525,0.0,2
0.033989999999903375,526,0.22265599999809638,2
0.0,527,0.0,2
0.0329699999983859,528,0.22198499998194166,2
0.0,529,0.0,2
0.04745999999977357,530,0.3020630000391975,2
0.0,531,0.0,2
0.016499999999723514,532,0.11029099996085279,2
0.0,533,0.0,2
0.03708000000187894,534,0.25360100000398234,2
0.0,535,0.0,2
0.032865000001038425,536,0.22235100000398234,2
0.0,537,0.0,2
0.029714999996940605,538,0.1933590000262484,2
0.0,539,0.0,2
0.04542000000219559,540,0.32586699997773394,2
0.0,541,0.0,2
0.02057999999851745,542,0.13897700002416968,2
0.0,543,0.0,2
0.03288000000065949,544,0.2260740000056103,2
0.0,545,0.0,2
0.02878499999860651,546,0.19457999998121522,2
0.0,547,0.0,2
0.03702000000157568,548,0.24896299999090843,2
0.0,549,0.0,2
0.04538999999749649,550,0.30261199999949895,2
0.0,551,0.0,2
0.020535000003292225,552,0.1405640000011772,2
0.0,553,0.0,2
0.02471999999943364,554,0.1956789999967441,2
0.0,555,0.0,2
0.036930000000211294,556,0.2531730000046082,2
0.0,557,0.0,2
0.028860000000349828,558,0.18994199999724515,2
0.0,559,0.0,2
0.04520999999840569,560,0.30194100001244806,2
0.0,561,0.0,2
0.02051999999821419,562,0.14233400000375696,2
0.0,563,0.0,2
0.036690000000817236,564,0.2807609999726992,2
0.0,565,0.0,2
0.024495000003298628,566,0.23944100001244806,2
0.0,567,0.0,2
0.03266999999868858,568,0.3031009999976959,2
0.0,569,0.0,2
0.04925999999795749,570,0.4353030000056606,2
0.0,571,0.0,2
0.016500000001542503,572,0.13928200001828372,2
0.0,573,0.0,2
0.0327450000004319,574,0.20934999999008141,2
0.0,575,0.0,2
0.03298499999982596,576,0.22424399998271838,2
0.0,577,0.0,2
0.032940000000962755,578,0.22113000001991168,2
0.0,579,0.0,2
0.04538999999749649,580,0.30139199999393895,2
0.0,581,0.0,2
0.02058000000033644,582,0.13775599998189136,2
0.0,583,0.0,2
0.03305999999975029,584,0.22344999999040738,2
0.0,585,0.0,2
0.03300000000126602,586,0.2238770000403747,2
0.0,587,0.0,2
0.0330599999979313,588,0.21996999997645617,2
0.0,589,0.0,2
0.04542000000219559,590,0.29980500001693144,2
0.0,591,0.0,2
0.020640000000639702,592,0.13738999998895451,2
0.0,593,0.0,2
0.03299999999944703,594,0.22430400000303052,2
0.0,595,0.0,2
0.032700000001568696,596,0.2684939999890048,2
0.0,597,0.0,2
0.02870999999868218,598,0.24090599999180995,2
0.0,599,0.0,2
0.045029999997495906,600,0.4372560000338126,2
0.0,601,0.0,2
0.020460000003367895,602,0.1896969999652356,2
0.0,603,0.0,2
0.03274499999861291,604,0.29980500001693144,2
0.0,605,0.0,2
0.02855999999883352,606,0.23834199999691918,2
0.0,607,0.0,2
0.03708000000187894,608,0.27471900000819005,2
0.0,609,0.0,2
0.0452549999972689,610,0.3328859999892302,2
0.0,611,0.0,2
0.020700000000942964,612,0.1528929999913089,2
0.0,613,0.0,2
0.028800000000046566,614,0.22198500001104549,2
0.0,615,0.0,2
0.037080000000059954,616,0.279236000002129,2
0.0,617,0.0,2
0.03298499999982596,618,0.2459709999966435,2
0.0,619,0.0,2
0.04516500000136148,620,0.345763999997871,2
0.0,621,0.0,2
0.016409999998359126,622,0.11987299998872913,2
0.0,623,0.0,2
0.03285000000141736,624,0.24206600000616163,2
0.0,625,0.0,2
0.03907499999877473,626,0.29791200000909157,2
0.0,627,0.0,2
0.028755000001183362,628,0.22308399999747053,2
0.0,629,0.0,2
0.04944000000068627,630,0.3871460000227671,2
0.0,631,0.0,2
0.020414999997228733,632,0.1549679999880027,2
0.0,633,0.0,2
0.030674999999973807,634,0.22814999998081475,2
0.0,635,0.0,2
0.036990000000514556,636,0.2947989999956917,2
0.0,637,0.0,2
0.028874999999970896,638,0.22717300002113916,2
0.0,639,0.0,2
0.04186500000105298,640,0.36853100001462735,2
0.0,641,0.0,2
0.02052000000003318,642,0.16174299997510388,2
0.0,643,0.0,2
0.034889999998995336,644,0.3198850000044331,2
0.0,645,0.0,2
0.028830000001107692,646,0.2506100000173319,2
0.0,647,0.0,2
0.03381000000081258,648,0.2861329999868758,2
0.0,649,0.0,2
0.05114999999932479,650,0.42309599998407066,2
0.0,651,0.0,2
0.017475000000558794,652,0.14025900003616698,2
0.0,653,0.0,2
0.03268499999830965,654,0.2926020000013523,2
0.0,655,0.0,2
0.0345450000022538,656,0.2868649999727495,2
0.0,657,0.0,2
0.03694499999983236,658,0.28515700000571087,2
0.0,659,0.0,2
0.04484999999840511,660,0.3931270000175573,2
0.0,661,0.0,2
0.02044500000010885,662,0.17706299998098984,2
0.0,663,0.0,2
0.04084500000135449,664,0.30743399998755194,2
0.0,665,0.0,2
0.07324499999958789,666,0.3790290000324603,2
0.0,667,0.0,2
0.04717499999969732,668,0.2684319999825675,2
0.0,669,0.0,2
0.052034999998795683,670,0.449097000004258,2
0.0,671,0.0,2
0.020460000001548906,672,0.17736800000420772,2
0.0,673,0.0,2
0.03803999999763619,674,0.27893100000801496,2
0.0,675,0.0,2
0.03276000000369095,676,0.2465819999924861,2
0.0,677,0.0,2
0.029624999999214197,678,0.22265599996899255,2
0.0,679,0.0,2
0.0571799999979703,680,0.4086910000187345,2
0.0,681,0.0,2
0.020400000001245644,682,0.1698000000033062,2
0.0,683,0.0,2
0.03373499999906926,684,0.2777099999948405,2
0.0,685,0.0,2
0.03477000000202679,686,0.24090600002091378,2
0.0,687,0.0,2
0.03980999999839696,688,0.30554199998732656,2
0.0,689,0.0,2
0.044955000001209555,690,0.37274200000683777,2
0.0,691,0.0,2
0.020459999999729916,692,0.16992099999333732,2
0.0,693,0.0,2
0.03367500000058499,694,0.27947999999742024,2
0.0,695,0.0,2
0.03374999999869033,696,0.24633799999719486,2
0.0,697,0.0,2
0.03883499999938067,698,0.3034060000209138,2
0.0,699,0.0,2
0.09343500000068161,700,0.6352539999934379,2
0.0,701,0.0,2
0.006120000001828885,702,0.039124000002630055,2
0.0,703,0.0,2
0.03725999999915075,704,0.22332699998514727,2
0.0,705,0.0,2
0.04810499999803142,706,0.3366700000187848,2
0.0,707,0.0,2
0.03351000000293425,708,0.26013199996668845,2
0.0,709,0.0,2
0.051044999998339335,710,0.40374700000393204,2
0.0,711,0.0,2
0.028739999999743304,712,0.1780399999988731,2
0.0,713,0.0,2
0.05446500000107335,714,0.34338400000706315,2
0.0,715,0.0,2
0.03478499999982887,716,0.27673300000606105,2
0.0,717,0.0,2
0.04100999999900523,718,0.2929690000019036,2
0.0,719,0.0,2
0.06581999999980326,720,0.3980710000032559,2
0.0,721,0.0,2
0.0286950000008801,722,0.18121399998199195,2
0.0,723,0.0,2
0.04904999999962456,724,0.3002930000075139,2
0.0,725,0.0,2
0.0481500000005326,726,0.2928459999966435,2
0.0,727,0.0,2
0.04798499999924388,728,0.2963260000105947,2
0.0,729,0.0,2
0.07039499999882537,730,0.4728389999945648,2
0.0,731,0.0,2
0.022320000001855078,732,0.10790999999153428,2
0.0,733,0.0,2
0.03900000000066939,734,0.29455600000801496,2
0.0,735,0.0,2
0.04094999999870197,736,0.2966920000035316,2
0.0,737,0.0,2
0.048329999999623396,738,0.2929690000019036,2
0.0,739,0.0,2
0.04703999999946973,740,0.39709399998537265,2
0.0,741,0.0,2
0.022409999999581487,742,0.1800539999967441,2
0.0,743,0.0,2
0.03363000000172178,744,0.2730710000032559,2
0.0,745,0.0,2
0.03275999999823398,746,0.24780300000566058,2
0.0,747,0.0,2
0.032940000000962755,748,0.24639899999601766,2
0.0,749,0.0,2
0.04529999999977008,750,0.3374640000110958,2
0.0,751,0.0,2
0.02058000000215543,752,0.1481320000020787,2
0.0,753,0.0,2
0.03299999999944703,754,0.22332699998514727,2
0.0,755,0.0,2
0.03305999999975029,756,0.24951200000941753,2
0.0,757,0.0,2
0.028979999997318373,758,0.19177299999864772,2
0.0,759,0.0,2
0.04948500000318745,760,0.320860999985598,2
0.0,761,0.0,2
0.020684999999502907,762,0.1315920000197366,2
0.0,763,0.0,2
0.02885999999853084,764,0.1944579999835696,2
0.0,765,0.0,2
0.03715500000180327,766,0.2744750000128988,2
0.0,767,0.0,2
0.028979999999137362,768,0.1869509999814909,2
0.0,769,0.0,2
0.04963499999939813,770,0.31945800004177727,2
0.0,771,0.0,2
0.020699999999123975,772,0.13079799996921793,2
0.0,773,0.0,2
0.02892000000247208,774,0.19067400001222268,2
0.0,775,0.0,2
0.03704999999899883,776,0.24523999998928048,2
0.0,777,0.0,2
0.0289199999988341,778,0.18170099999406375,2
0.0,779,0.0,2
0.04131000000052154,780,0.2660520000208635,2
0.0,781,0.0,2
0.024840000000040163,782,0.15856999999959953,2
0.0,783,0.0,2
0.03312000000187254,784,0.24700899998424575,2
0.0,785,0.0,2
0.028979999997318373,786,0.18652300001122057,2
0.0,787,0.0,2
0.03726000000096974,788,0.23962399997981265,2
0.0,789,0.0,2
0.037140000000363216,790,0.23803800001041964,2
0.0,791,0.0,2
0.02479500000117696,792,0.16094900001189671,2
0.0,793,0.0,2
0.03720000000066648,794,0.24688799999421462,2
0.0,795,0.0,2
0.0289199999988341,796,0.190734000003431,2
0.0,797,0.0,2
0.03485999999793421,798,0.2791750000033062,2
0.0,799,0.0,2
0.04116000000067288,800,0.30395500001031905,2
0.0,801,0.0,2
0.024660000002768356,802,0.16021799997542985,2
0.0,803,0.0,2
0.03275999999823398,804,0.24053900002036244,2
0.0,805,0.0,2
0.03290999999990163,806,0.21569799998542294,2
0.0,807,0.0,2
0.02876999999898544,808,0.23736600001575425,2
0.0,809,0.0,2
0.04110000000036962,810,0.27777099996455945,2
0.0,811,0.0,2
0.020699999999123975,812,0.1764530000218656,2
0.0,813,0.0,2
0.03288000000065949,814,0.23956300001009367,2
0.0,815,0.0,2
0.03290999999990163,816,0.23614500000257976,2
0.0,817,0.0,2
0.02877000000262342,818,0.2548209999804385,2
0.0,819,0.0,2
0.04115999999885389,820,0.33184900000924245,2
0.0,821,0.0,2
0.02471999999943364,822,0.18109099997673184,2
0.0,823,0.0,2
0.028739999999743304,824,0.2152710000227671,2
0.0,825,0.0,2
0.03288000000065949,826,0.20434599998407066,2
0.0,827,0.0,2
0.03289500000028056,828,0.20813000001362525,2
0.0,829,0.0,2
0.0369749999990745,830,0.2574460000032559,2
0.0,831,0.0,2
0.02884499999890977,832,0.20428399997763336,2
0.0,833,0.0,2
0.03277499999967404,834,0.2452400000183843,2
0.0,835,0.0,2
0.03282000000217522,836,0.21710199999506585,2
0.0,837,0.0,2
0.03266999999868858,838,0.26946999999927357,2
0.0,839,0.0,2
0.03288000000065949,840,0.2979740000155289,2
0.0,841,0.0,2
0.02861999999913678,842,0.24835199999506585,2
0.0,843,0.0,2
0.028500000000349246,844,0.27471900000819005,2
0.0,845,0.0,2
0.03980999999839696,846,0.4010619999899063,2
0.0,847,0.0,2
0.02869500000269909,848,0.2331539999868255,2
0.0,849,0.0,2
0.04529999999977008,850,0.32965100000728853,2
0.0,851,0.0,2
0.024540000000342843,852,0.16546600000583567,2
0.0,853,0.0,2
0.0289199999988341,854,0.19067400001222268,2
0.0,855,0.0,2
0.03701999999975669,856,0.24713199998950586,2
0.0,857,0.0,2
0.024599999998827116,858,0.18359299999428913,2
0.0,859,0.0,2
0.04116000000249187,860,0.2590339999878779,2
0.0,861,0.0,2
0.02876999999898544,862,0.18353200002457015,2
