method,package1,package2,dram1,dram2,energy
avrora.arch.legacy,0.1557443266389212,0.2862438712739173,0.01563480671815222,0.03404768387122947,0.4916706885022202
avrora.sim,0.10973250579913699,0.18028894834767503,0.012360240370479673,0.023842824868004483,0.3262245193852962
avrora.sim.clock,0.07135388254650743,0.3722259465874145,0.007970840182358739,0.04493272253254091,0.4964833918488215
avrora.sim.mcu,0.052759638709586956,0.0,0.007125677419225535,0.0,0.05988531612881249
avrora.sim.radio,0.0,0.0,0.0,0.0,0.0
avrora.syntax.elf,0.019714333334074283,0.0,0.0023312500000732444,0.0,0.022045583334147526
cck.help,0.021865833334838197,0.0,0.0023299999999532397,0.0,0.024195833334791438
cck.util,0.07639318382287313,0.0,0.0065050735296894105,0.0,0.08289825735256254
javassist.bytecode,0.020685833333118357,0.0,0.0013599999999011438,0.0,0.0220458333330195
org.dacapo.harness,0.07809327696033469,0.0,0.00501654411765034,0.0,0.08310982107798504
sun.misc,0.09415183333476308,0.0,0.008180000001023775,0.0,0.10233183333578685
sun.net.www.protocol.jar,0.045667470588894366,0.0,0.0031447058821618607,0.0,0.04881217647105623
sun.security.util,0.05065672549130349,0.0,0.004548823529844146,0.0,0.05520554902114764
