method,package1,package2,dram1,dram2,energy
ADC$ControlRegister.stopConversion,0.0,0.0,0.0,0.0,0.0
Arithmetic.uword,0.0,0.0,0.0,0.0,0.0
AtmelInterpreter$IORegBehavior.read,0.0,0.0,0.0,0.0,0.0
AtmelInterpreter$IORegBehavior.write,0.0,0.0,0.0,0.0,0.0
AtmelInterpreter$SREGBehavior.write,0.0,0.0,0.0,0.0,0.0
AtmelInterpreter.commit,0.0,0.0,0.0,0.0,0.0
AtmelInterpreter.fireAfterWrite,0.0,0.0,0.0,0.0,0.0
AtmelInterpreter.getRegisterByte,0.041338438745269664,0.0,0.006464273504650172,0.0,0.04780271224991983
AtmelInterpreter.getSP,0.0,0.0,0.0,0.0,0.0
AtmelInterpreter.readSRAM,0.0,0.0,0.0,0.0,0.0
AtmelInterpreter.setIORegBit,0.022075555555592024,0.0,0.003174712643764603,0.0,0.025250268199356628
AtmelInterpreter.setSP,0.0,0.0,0.0,0.0,0.0
AtmelInterpreter.writeDataByte,0.0,0.0,0.0,0.0,0.0
AtmelInterpreter.writeRegisterByte,0.0,0.0,0.0,0.0,0.0
AtmelInterpreter.writeSRAM,0.0,0.0,0.0,0.0,0.0
AtmelInterpreter.writeVolatile,0.0,0.0,0.0,0.0,0.0
CC1000Radio$SPITicker.fire,0.0,0.0,0.0,0.0,0.0
Config.parse,0.0,0.06597965693505133,0.0,0.01039409425376852,0.07637375118881984
ConfigFile.<init>,0.0,0.06597965693505133,0.0,0.01039409425376852,0.07637375118881984
DefaultMCU$Pin.write,0.025971494252673952,0.0,0.003983908045693065,0.0,0.029955402298367018
DeltaQueue$Link.fire,0.0,0.0,0.0,0.0,0.0
DeltaQueue.advance,0.06307874867270513,0.0,0.005228558466538845,0.0,0.06830730713924398
DeltaQueue.free,0.0,0.0,0.0,0.0,0.0
DeltaQueue.insertEvent,0.0,0.0,0.0,0.0,0.0
DeltaQueue.newEventList,0.0,0.0,0.0,0.0,0.0
DeltaQueue.newLink,0.0,0.0,0.0,0.0,0.0
DerivedClock.insertEvent,0.0,0.0,0.0,0.0,0.0
DisabledAlgorithmConstraints$Constraints.<init>,0.0,0.03968161126613852,0.0,0.005552771041164429,0.04523438230730295
ELFDataInputStream.read_Elf32_Word,0.0,0.0353216961728125,0.0,0.004707034379219857,0.040028730552032356
ELFParser.read,0.0,0.015593719782379252,0.0,0.002361970365795788,0.01795569014817504
LegacyDisassembler.disassemble,0.0,0.049558605906062016,0.0,0.006678863220225378,0.056237469126287395
LegacyInstr$BRCC.accept,0.0,0.0,0.0,0.0,0.0
LegacyInstr$CPI.accept,0.0,0.0,0.0,0.0,0.0
LegacyInstr$LDS.accept,0.0,0.0,0.0,0.0,0.0
LegacyInstr$POP.accept,0.0,0.22375499999907333,0.0,0.024539999998523854,0.2482949999975972
LegacyInstr$RETI.accept,0.0,0.0,0.0,0.0,0.0
LegacyInstr$STS.accept,0.0,0.0,0.0,0.0,0.0
LegacyInterpreter.fastLoop,0.0,0.12165317174765353,0.0,0.013183786613374222,0.13483695836102774
LegacyInterpreter.runLoop,0.0,0.03814700000657467,0.0,0.004046250000101281,0.04219325000667595
LegacyInterpreter.uword,0.0,0.029345308053089707,0.0,0.0026004314896906325,0.03194573954278034
LegacyInterpreter.visit,0.0,0.0,0.0,0.0,0.0
LegacyRegister.getNumber,0.041338438745269664,0.0,0.006464273504650172,0.0,0.04780271224991983
Main.<clinit>,0.0,0.03968161126613852,0.0,0.005552771041164429,0.04523438230730295
MainClock.advance,0.022075555555592024,0.04955033333195994,0.003174712643764603,0.006172499999896293,0.08097310153121286
MainClock.skipAhead,0.0,0.0,0.0,0.0,0.0
Medium$BasicArbitrator.mergeTransmissions,0.0,0.0,0.0,0.0,0.0
Medium$Receiver$Ticker.deliverByte,0.0,0.0,0.0,0.0,0.0
Medium$Receiver.earliestNewTransmission,0.030147586480193767,0.0,0.0025509158901901047,0.0,0.032698502370383874
Medium$Receiver.getIntersection,0.0,0.0,0.0,0.0,0.0
MulticastFSMProbe.fireBeforeTransition,0.0,0.0,0.0,0.0,0.0
PacketMonitor$Mon.renderByte,0.0696709195236137,0.0,0.007223802609574242,0.0,0.07689472213318795
RegisterUtil$BoolView.setValue,0.0,0.0,0.0,0.0,0.0
RippleSynchronizer$NotifyEvent.fire,0.0,0.0,0.0,0.0,0.0
RippleSynchronizer.advance,0.037502250000216016,0.04184559999965132,0.0023006249998616113,0.005270400000154042,0.08691887499988298
RippleSynchronizer.notifyLink,0.0,0.0,0.0,0.0,0.0
RippleSynchronizer.waitForLink,0.0,0.0,0.0,0.0,0.0
RippleSynchronizer.waitForNeighbors,0.05305485000208137,0.0,0.0035730000003241008,0.0,0.05662785000240547
Segment.direct_read,0.0,0.0,0.0,0.0,0.0
SimUtil.toIDTimeString,0.03451235264412103,0.0,0.002319117970919843,0.0,0.03683147061504087
TestHarness.main,0.0,0.087229428718812,0.0,0.013110234611345428,0.10033966333015742
UTF_8$Encoder.encodeLoop,0.0,0.0,0.0,0.0,0.0
