method,package1,package2,dram1,dram2,energy
java.io,0.37149177429409586,1.1076502486269728,0.030127756884885674,0.1485227496806898,1.657792529486644
java.lang,0.8795769384457555,0.8042561151200093,0.07885550356688441,0.1041472778268523,1.8668358349595013
java.nio.charset,0.0,0.07143133333496128,0.0,0.0109599999996135,0.08239133333457478
java.util,0.1372782425384841,0.1871297333263404,0.007243437889396503,0.023352500000449555,0.35500391375467055
java.util.jar,0.0,0.09039300000101017,0.0,0.0095350000004449,0.09992800000145506
java.util.regex,0.0,0.05564366666173252,0.0,0.008230000000063834,0.06387366666179635
java.util.zip,0.0,0.5150853027868532,0.0,0.06469900000036735,0.5797843027872205
