method,package1,package2,dram1,dram2,energy
BufferedInputStream,0.05004461454687431,0.0,0.007404999298883473,0.0,0.05744961384575779
ClassLoader,0.037668999999975014,0.0,0.005247499999920061,0.0,0.04291649999989507
FileOutputStream,0.9395979061815933,0.6711815478670813,0.07537981516419223,0.09046379758040506,1.7766230667932719
HashMap,0.0,0.08074949999718227,0.0,0.009187500000280123,0.0899369999974624
Inflater,0.004804285717130239,0.0,0.0005828571432045593,0.0,0.005387142860334798
LinkedList,0.0,0.0,0.0,0.0,0.0
Object,0.6003027292335139,0.6294732718163268,0.04462636362808982,0.08389337500110784,1.3582957396790387
String,0.0,0.0,0.0,0.0,0.0
UnixFileSystem,0.032073833334531315,0.0,0.004070000000259218,0.0,0.036143833334790536
