method,package1,package2,dram1,dram2,energy
ArrayList.rangeCheck,0.0,0.03663030581897032,0.0,0.0042655793549878605,0.040895885173958174
Arrays.copyOf,0.0,0.0480568612642262,0.0,0.005614734991235251,0.05367159625546145
Arrays.fill,0.0,0.06034480996671316,0.0,0.009126372894359771,0.06947118286107293
BufferedInputStream.read,0.0,0.1383640484085919,0.0,0.015293888937030266,0.15365793734562216
BufferedWriter.newLine,0.0,0.0,0.0,0.0,0.0
Class.getDeclaredConstructors0,0.0,0.04162947742519848,0.0,0.005829704518064979,0.047459181943263457
ClassLoader.defineClass1,0.0,0.3968568506452461,0.0,0.053578990411559696,0.4504358410568058
FileOutputStream.close,0.0,0.01909514286255996,0.0,0.002331428571259104,0.021426571433819062
FileOutputStream.close0,0.0,0.14524666666855207,0.0,0.020195833333471254,0.16544250000202332
FileOutputStream.write,0.46132261390619084,0.16257132455749637,0.03716513649838745,0.018792990562481883,0.6798520655245566
FileOutputStream.writeBytes,0.0,0.172927047611059,0.0,0.024872857142500357,0.19779990475355935
Formatter$FormatSpecifier.print,0.0,0.0,0.0,0.0,0.0
HashMap.getNode,0.0652966703703256,0.12729393784050294,0.005774833333122876,0.015485141076848202,0.21385058262079962
Inflater.inflateBytes,0.0,0.3748132646337509,0.0,0.05002859369563965,0.4248418583293906
Inflater.needsDictionary,0.0,0.057442857143801776,0.0,0.008232857143281891,0.06567571428708367
LinkedList$ListItr.hasNext,0.0,0.014478770300976296,0.0,0.0018550806402203345,0.01633385094119663
LinkedList.listIterator,0.0,0.0,0.0,0.0,0.0
Long.toString,0.0,0.0,0.0,0.0,0.0
Manifest.getMainAttributes,0.0,0.06455424497087169,0.0,0.007786783181140903,0.07234102815201258
Object.notifyAll,0.014141850000305569,0.0,0.0013207500000135045,0.0,0.015462600000319073
Object.wait,0.39147738755766454,0.08135363613351534,0.02958858319872201,0.009848293752701812,0.5122679006426037
PrintStream.write,0.0,0.0,0.0,0.0,0.0
RandomAccessFile.read0,0.0,0.06034480996671316,0.0,0.009126372894359771,0.06947118286107293
String.substring,0.0,0.0973916666698642,0.0,0.010859999999108064,0.10825166666897226
Thread.currentThread,0.0,0.03663030581897032,0.0,0.0042655793549878605,0.040895885173958174
Thread.start0,0.0,0.0,0.0,0.0,0.0
UnixFileSystem.delete,0.0,0.0973916666698642,0.0,0.010859999999108064,0.10825166666897226
UnixFileSystem.delete0,0.0,0.02199300000211224,0.0,0.002740000000509705,0.024733000002621946
UnixFileSystem.getBooleanAttributes0,0.0,0.11251642137014553,0.0,0.015094186335216205,0.12761060770536173
Vector.addElement,0.0,0.04162947742519848,0.0,0.005829704518064979,0.047459181943263457
