method,package1,package2,dram1,dram2,energy
AtmelInterpreter,0.04208348362021208,0.16690722222524024,0.0031196813127687233,0.024633333333440532,0.23674372049166156
AtmelInterpreter$IORegBehavior,0.0092023639330545,0.01936341666684408,0.00111845695550956,0.002736249999846525,0.032420487555254666
AtmelInterpreter$SREGBehavior,0.13277477072833985,0.0,0.009144046863504339,0.0,0.1419188175918442
DefaultMCU$Pin,0.0,0.0,0.0,0.0,0.0
DeltaQueue,0.0,0.1915100175490551,0.0,0.02634851973707834,0.21785853728613344
ExternalFlash$PA3Output,0.0,0.09249103125421244,0.0,0.010293749999846112,0.10278478125405856
FileOutputStream,0.45592705414430446,0.7699377550986224,0.035914459828042894,0.101825615572006,1.363604884642976
FiniteStateMachine,0.0,0.0,0.0,0.0,0.0
HashMap,0.08148015879749432,0.032577128206284195,0.009297325226103256,0.004190769231055851,0.1275453814609376
LegacyInstr$BRNE,0.0,0.0,0.0,0.0,0.0
LegacyInstr$DEC,0.0,0.0,0.0,0.0,0.0
LegacyInstr$MOV,0.0,0.0,0.0,0.0,0.0
LegacyInstr$NOP,0.020094036420864332,0.02193936363486997,0.0016831637066621284,0.002989090909150863,0.046705654671547296
LegacyInstr$ST,0.0,0.0,0.0,0.0,0.0
LegacyInterpreter,0.029993790899688993,0.23661762819825433,0.002111668508363967,0.03259026923339824,0.30131335683970556
LegacyRegister,0.0,0.0,0.0,0.0,0.0
LinkedList,0.10553417440443502,0.0,0.011927011610078569,0.0,0.1174611860145136
LinkedList$ListItr,0.0,0.0,0.0,0.0,0.0
MainClock,0.0,0.050018249996355735,0.0,0.007200000000011642,0.057218249996367376
Medium$Receiver,0.033841388045579054,0.03942880000104197,0.0028173070453883387,0.0048990000006597255,0.08098649509266909
Medium$Receiver$Ticker,0.0,0.0,0.0,0.0,0.0
MulticastFSMProbe,0.06740732900291843,0.0,0.004509176257381281,0.0,0.07191650526029972
Object,0.4108900142235627,0.441805885668365,0.040625435955221605,0.05716190073678334,0.9504832365839325
PacketMonitor$Mon,0.0,0.0,0.0,0.0,0.0
PrintStream,0.0,0.0,0.0,0.0,0.0
RippleSynchronizer,0.0,0.05262459999648855,0.0,0.007329000000390806,0.05995359999687936
RippleSynchronizer$NotifyEvent,0.0,0.033854166666666664,0.0,0.0047800000002098395,0.0386341666668765
SPI,0.008667167030462605,0.0,0.0006168825387736183,0.0,0.009284049569236223
StringUtil,0.0,0.0,0.0,0.0,0.0
