method,hits
AccelerationStructureFactory.create,2
AppContext$2.run,2
AttributeInfo.<init>,2
Benchmark.<init>,2
Benchmark.fileFromInputStream,4
BoundingBox.getMaximum,8
BoundingIntervalHierarchy.intersect,168
BucketRenderer.refineSamples,2
BucketRenderer.renderBucket,12
ByteInterleavedRaster.getDataElements,2
CertificateSerialNumber.<init>,2
ClassPool.makeClass,2
Color.blend,8
Color.copy,6
Color.madd,2
ConfigFile.<init>,2
ConstPool.readOne,2
DSA.generateV,4
DerInputBuffer.getTime,2
DisabledAlgorithmConstraints.<init>,2
FieldInfo.read,2
FileCacheImageInputStream.<init>,2
Geometry.intersect,2
Geometry.prepareShadingState,2
IIORegistry.registerStandardSpis,2
ImageTypeSpecifier.createBufferedImage,2
ImageTypeSpecifier.createComponentCM,4
Instance.intersect,8
InstanceList.intersectPrimitive,4
InstantGI.getIrradiance,14
IntArray.add,2
IntegerInfo.<init>,2
IntersectionState.getStack,4
IntersectionState.getStackTop,2
IntersectionState.setIntersection,2
KDTree.buildTree,22
KDTree.intersect,162
LightSample.setRadiance,8
LightSample.setShadowRay,8
LightServer$1.run,6
LoggingSupport.getLogger,4
Matrix4.transformPX,6
Matrix4.transformPY,2
Matrix4.transformPZ,6
NullAccelerator.intersect,6
PNGImageReader.readImage,2
ParameterList$InterpolationType.valueOf,2
Ray.<init>,14
Ray.getMax,10
Ray.getMin,4
Ray.isInside,6
Ray.setMax,4
Ray.transform,32
RenderObjectMap.update,2
Resource.getBytes,2
SHA.implCompress,2
Scene.trace,6
ServiceRegistry.getSubRegistries,2
ShadingState.addSample,2
ShadingState.getPoint,2
SignerInfo.verify,2
Solvers.solveQuadric,2
Sphere.intersectPrimitive,4
SunToolkit.initEQ,2
TestHarness.<init>,2
TestHarness.main,2
TriangleMesh$WaldTriangle.intersect,64
TriangleMesh.intersectPrimitive,28
TriangleMeshLight$TriangleLight.getSamples,50
URLClassPath$JarLoader$2.getManifest,2
URLClassPath$JarLoader.getClassPath,2
URLClassPath$JarLoader.getJarFile,2
Vector3.dot,4
X500Name.parseDER,2
