method,hits
AlgorithmDecomposer.<clinit>,2
AlgorithmId.decodeParams,2
AppContext$2.run,2
AppContext.getAppContext,2
AttributeInfo.<init>,2
Benchmark.<init>,8
Benchmark.fileFromInputStream,4
BoundingBox.getMinimum,2
BoundingIntervalHierarchy.intersect,146
BucketRenderer.renderBucket,16
Camera.getRay,2
Chaperone.retire,1
ClassFile.read,2
ClassPool.makeClass,4
Color.blend,8
Color.copy,8
Color.madd,2
CompileError.<init>,2
ConfigFileTokenManager.jjMoveNfa_0,2
DSA.generateV,4
DacapoClassLoader.loadClass,2
DerInputStream.readVector,2
FileCacheImageInputStream.read,2
Geometry.intersect,6
ImageReader.getDestination,2
ImageTypeSpecifier.createComponentCM,2
InputStreamImageInputStreamSpi.createInputStreamInstance,2
Instance.intersect,8
InstanceList.getNumPrimitives,2
InstanceList.intersectPrimitive,4
InstantGI.getIrradiance,20
IntersectionState.getStack,2
IntersectionState.getStackTop,2
KDTree.buildTree,36
KDTree.intersect,134
KDTree.radix12,2
Launcher$AppClassLoader.loadClass,2
LightSample.setRadiance,2
LightSample.setShadowRay,6
LightSample.traceShadow,2
LoggingSupport.getLogger,4
Matrix4.transformPX,2
NullAccelerator.intersect,6
PNGImageReader.getImageTypes,2
PNGImageReaderSpi.createReaderInstance,2
PerfCounter.get,2
PinholeLens.getRay,2
PlatformLogger$JavaLoggerProxy.<clinit>,2
Ray.<init>,12
Ray.isInside,14
Ray.transform,26
Resource.getBytes,2
Scene.trace,2
Scene.traceShadow,4
ServiceRegistry.getServiceProviders,2
ShadingState.faceforward,2
ShadingState.getNormal,2
ShadingState.getPoint,6
ShadingState.initLightSamples,2
ShadingState.traceShadow,2
SignerInfo.verify,2
Sphere.intersectPrimitive,4
Sunflow.<init>,2
TriangleMesh$WaldTriangle.intersect,82
TriangleMesh.getPoint,2
TriangleMesh.intersectPrimitive,12
TriangleMeshLight$TriangleLight.getSamples,58
TriangleMeshLight$TriangleLight.intersectTriangleKensler,6
TriangleMeshLight.access$1100,2
Utf8Info.<init>,2
Vector3.dot,12
