method,package1,package2,dram1,dram2,energy
AppContext$2.run|AppContext$2.run|AccessController.doPrivileged,0.0,0.03633941603344824,0.0,0.004967920166999261,0.0413073362004475
Benchmark$BenchmarkScene.buildCornellBox|Benchmark$BenchmarkScene.build|Benchmark$BenchmarkScene.<init>,0.0,0.03021220602190535,0.0,0.0032195570400116624,0.033431763061917016
BoundingBox.getMaximum|KDTree.intersect|Geometry.intersect,0.022153680499801,0.04444399679029402,0.004716022167117212,0.006384166882869435,0.07769786634008168
BoundingIntervalHierarchy.intersect|Scene.trace|LightServer.traceRefraction,0.0,0.012175832916114949,0.0,0.0016100250626369568,0.013785857978751906
BoundingIntervalHierarchy.intersect|Scene.trace|Scene.traceShadow,0.5990211431579877,0.4069354902205638,0.08416032976224878,0.04717956462173337,1.1372965277625338
BucketRenderer.refineSamples|BucketRenderer.refineSamples|BucketRenderer.refineSamples,0.011868699879838998,0.0,0.0017974823794075574,0.0,0.013666182259246555
BucketRenderer.refineSamples|BucketRenderer.refineSamples|BucketRenderer.renderBucket,0.03325282372812267,0.0,0.0047369160490443474,0.0,0.03798973977716701
BucketRenderer.renderBucket|BucketRenderer.access$300|BucketRenderer$BucketThread.run,0.025787654418231783,0.0,0.005087849706896982,0.0,0.030875504125128767
Color.black|ShadingState.diffuse|DiffuseShader.getRadiance,0.0,0.009784031250336948,0.0,0.001282716346071748,0.011066747596408695
Color.blend|Color.blend|InstantGI.getIrradiance,0.02309634462291905,0.010729568764766963,0.003198639906002553,0.0013037325174535758,0.03832828581114214
Color.copy|LightSample.setRadiance|TriangleMeshLight$TriangleLight.getSamples,0.09434021402278847,0.02374769522611226,0.01253901769893733,0.0034536859207570424,0.1340806128685951
ContentInfo.<clinit>|PKCS7.parse|PKCS7.parse,0.0,0.02860875802056765,0.0,0.0032013056324575982,0.031810063653025245
DisabledAlgorithmConstraints$Constraints.<init>|DisabledAlgorithmConstraints.<init>|DisabledAlgorithmConstraints.<init>,0.0,0.03534967697698867,0.0,0.004732745177990958,0.040082422154979626
FileCacheImageInputStream.<init>|InputStreamImageInputStreamSpi.createInputStreamInstance|ImageIO.createImageInputStream,0.0,0.03587127893427407,0.0,0.00530001332517678,0.04117129225945085
Geometry.intersect|Instance.intersect|InstanceList.intersectPrimitive,0.1240072247485259,0.04442777031323843,0.01604268511283906,0.006326284383694163,0.19080396455829754
ImageIO.getImageReaders|ImageIO.read|ImageIO.read,0.0,0.03587127893427407,0.0,0.00530001332517678,0.04117129225945085
ImageReaderSpi.<clinit>|IIORegistry.registerStandardSpis|IIORegistry.<init>,0.0,0.004682007352037815,0.0,0.0005023692306942133,0.0051843765827320285
InputStreamImageInputStreamSpi.createInputStreamInstance|ImageIO.createImageInputStream|ImageIO.read,0.0,0.04004103678888108,0.0,0.004565726954804363,0.04460676374368544
Instance.intersect|InstanceList.intersectPrimitive|BoundingIntervalHierarchy.intersect,0.043516245436479556,0.08023875336343941,0.004435738364267781,0.009987263478622659,0.1381780006428094
InstanceList.intersectPrimitive|BoundingIntervalHierarchy.intersect|Scene.trace,0.015867975799283108,0.016635811722546544,0.0016334193854826665,0.002435789247018332,0.03657299615433065
InstantGI.getIrradiance|LightServer.getIrradiance|ShadingState.getIrradiance,0.09173892577977283,0.014491730078115678,0.011736680831858283,0.0017048416754883136,0.11967217836523511
IntersectionState.getStackTop|KDTree.intersect|Geometry.intersect,0.0,0.0009771672110892237,0.0,9.781065679554284e-05,0.0010749778678847666
JPEGImageReaderSpi.<init>|IIORegistry.registerStandardSpis|IIORegistry.<init>,0.0,0.0206875068574054,0.0,0.00257630473891432,0.02326381159631972
KDTree.buildTree|KDTree.buildTree|KDTree.buildTree,0.0,0.46469802304236973,0.0,0.051140601946625265,0.515838624988995
KDTree.buildTree|KDTree.build|Geometry.build,0.0,0.01493809683853322,0.0,0.0013252818759447533,0.016263378714477972
KDTree.intersect|Geometry.intersect|Instance.intersect,0.5412801689560591,0.41204404206612494,0.0678576918910273,0.05618946362466831,1.0773713665378795
LightSample.setShadowRay|TriangleMeshLight$TriangleLight.getSamples|LightServer.initLightSamples,0.04479143079236373,0.003434214338549934,0.006178961030210171,0.0003685698448275404,0.05477317600595138
Matrix4.transformPX|Ray.transform|Instance.intersect,0.006217288963497707,0.021134682756508726,0.0008619987774984402,0.0032007181991874265,0.0314146886966923
Matrix4.transformPZ|Ray.transform|Instance.intersect,0.07578913513508097,0.031245932962384843,0.011035135135210334,0.0030755227595281624,0.1211457259922043
NullAccelerator.intersect|Geometry.intersect|Instance.intersect,0.012862839576414944,0.0,0.0022677870388612678,0.0,0.015130626615276213
ObjectIdentifier.pack7Oid|ObjectIdentifier.pack7Oid|ObjectIdentifier.init,0.0,0.07334026942181111,0.0,0.008801249909010279,0.0821415193308214
OrthoNormalBasis.flipW|ShadingState.faceforward|DiffuseShader.getRadiance,0.0055840979729570184,0.0,0.0009180313267820198,0.0,0.006502129299739038
QMC.<clinit>|LightServer$1.run|Thread.run,0.0,0.0,0.0,0.0,0.0
QMC.halton|BucketRenderer.computeSubPixel|BucketRenderer.refineSamples,0.011287316351711957,0.0,0.0011927280978322942,0.0,0.012480044449544252
QMC.halton|ShadingState.getRandom|TriangleMeshLight$TriangleLight.getSamples,0.01093827349337839,0.0,0.0013185087410181636,0.0,0.012256782234396553
Ray.<init>|InstantGI.getIrradiance|LightServer.getIrradiance,0.0998237291045806,0.0694943123877883,0.017123107136422816,0.0080956531861393,0.19453680181493102
Ray.<init>|TriangleMeshLight$TriangleLight.getSamples|LightServer.initLightSamples,0.016336460378260864,0.03699616186228888,0.002260348789627396,0.005200216186221884,0.06079318721639902
Ray.getMax|BoundingIntervalHierarchy.intersect|Scene.trace,0.031829285831937185,0.009784031250336948,0.004746379830137408,0.001282716346071748,0.047642413258483285
Ray.getMax|Instance.intersect|InstanceList.intersectPrimitive,0.01275627173694787,0.0,0.001193673926928968,0.0,0.013949945663876839
Ray.getMin|BoundingIntervalHierarchy.intersect|Scene.trace,0.0,0.029485355969356968,0.0,0.0027500622363750412,0.03223541820573201
Ray.isInside|TriangleMesh$WaldTriangle.intersect|TriangleMesh.intersectPrimitive,0.04170072092033794,0.0009771672110892237,0.0045252996459270636,9.781065679554284e-05,0.047300998434149776
Ray.setMax|Instance.intersect|InstanceList.intersectPrimitive,0.010533848133683086,0.0,0.0011810810810693347,0.0,0.01171492921475242
Ray.setMax|TriangleMesh$WaldTriangle.intersect|TriangleMesh.intersectPrimitive,0.02310944306332871,0.0,0.003412018845236588,0.0,0.0265214619085653
Ray.transform|Instance.intersect|InstanceList.intersectPrimitive,0.18710945877607368,0.10685110926532022,0.02704613218308885,0.010548047977608761,0.3315547482020915
Scene.traceShadow|ShadingState.traceShadow|LightSample.traceShadow,0.024006176990284653,0.0,0.003583915560466423,0.0,0.027590092550751077
ShadingState.addSample|TriangleMeshLight$TriangleLight.getSamples|LightServer.initLightSamples,0.0,0.0019880357910834834,0.0,0.00026142366670202783,0.0022494594577855114
ShadingState.getPoint|TriangleMeshLight$TriangleLight.getSamples|LightServer.initLightSamples,0.0,0.025269280157923985,0.0,0.0034887013843899247,0.02875798154231391
Solvers.solveQuadric|Sphere.intersectPrimitive|NullAccelerator.intersect,0.002015149435216593,0.0,0.0002751026666151851,0.0,0.0022902521018317783
Sphere.intersectPrimitive|NullAccelerator.intersect|Geometry.intersect,0.028886211773173867,0.0,0.002494612648492494,0.0,0.03138082442166636
TriangleMesh$WaldTriangle.intersect|TriangleMesh.intersectPrimitive|KDTree.intersect,0.3962527257880134,0.19274360210453512,0.052681430527124984,0.025983728334710313,0.6676614867543839
TriangleMesh$WaldTriangle.intersect|TriangleMesh.intersectPrimitive|NullAccelerator.intersect,0.033092676776037465,0.0,0.0033586266863554043,0.0,0.03645130346239287
TriangleMesh.intersectPrimitive|KDTree.intersect|Geometry.intersect,0.15805236203949796,0.030971135797145083,0.021638839432847487,0.004236261240332856,0.21489859850982337
TriangleMesh.intersectPrimitive|NullAccelerator.intersect|Geometry.intersect,0.006019910776075143,0.0,0.0013486972861794047,0.0,0.0073686080622545475
TriangleMeshLight$TriangleLight.getSamples,0.02647984104305482,0.002266151682386135,0.003585245993435156,0.0002649117485602328,0.032596150467436344
TriangleMeshLight$TriangleLight.getSamples|LightServer.initLightSamples|ShadingState.initLightSamples,0.05729564473179907,0.08028634497104518,0.007901947250576063,0.009061191738540414,0.15454512869196071
TriangleMeshLight$TriangleLight.intersectTriangleKensler|TriangleMeshLight$TriangleLight.getSamples|LightServer.initLightSamples,0.026190866666729564,0.0,0.003971333333255543,0.0,0.030162199999985106
TriangleMeshLight.access$2900|TriangleMeshLight$TriangleLight.getSamples|LightServer.initLightSamples,0.015867975799283108,0.0,0.0016334193854826665,0.0,0.017501395184765775
Vector3.dot|TriangleMeshLight$TriangleLight.getSamples|LightServer.initLightSamples,0.018991213518097568,0.03485683733877015,0.00216958525341316,0.004666021154064988,0.060683657264345874
