method,package1,package2,dram1,dram2,energy
BoundingBox.getMaximum|BoundingIntervalHierarchy.intersect|Scene.trace,0.0,0.0009359856383061344,0.0,0.00013356382977245301,0.0010695494680785873
BoundingBox.getMaximum|KDTree.intersect|Geometry.intersect,0.07451408337296235,0.013854769798129678,0.008239652259401428,0.0017078378013401776,0.09831634323183364
BoundingIntervalHierarchy.build|Scene.render|SunflowAPI.render,0.0,0.06605736661044911,0.0,0.0066984305613232145,0.07275579717177233
BoundingIntervalHierarchy.intersect|Scene.trace|LightServer.getRadiance,0.0,0.023621274474709894,0.0,0.003648043743360838,0.027269318218070732
BoundingIntervalHierarchy.intersect|Scene.trace|Scene.traceShadow,0.3878919863610648,0.7267949404337746,0.04262531639424458,0.11420120975711091,1.2715134529461949
BucketRenderer.computeSubPixel|BucketRenderer.refineSamples|BucketRenderer.renderBucket,0.0,0.02062171043708292,0.0,0.0025214798241555924,0.02314319026123851
BucketRenderer.refineSamples|BucketRenderer.refineSamples|BucketRenderer.refineSamples,0.0377550713887429,0.0,0.0045671847399142125,0.0,0.042322256128657115
BucketRenderer.refineSamples|BucketRenderer.renderBucket|BucketRenderer.access$300,0.0,0.01810574707589541,0.0,0.0022907746533870838,0.020396521729282493
BucketRenderer.renderBucket|BucketRenderer.access$300|BucketRenderer$BucketThread.run,0.0006925578159386885,0.015017090407952157,6.956211912246262e-05,0.0017570186335432133,0.017536228976556524
Cache.newSoftMemoryCache|X509Factory.<clinit>|Class.forName0,0.0,0.0196684106049772,0.0,0.00222346610717984,0.02189187671215704
Color.blend|Color.blend|InstantGI.getIrradiance,0.0,0.01905378098905591,0.0,0.002984109966695318,0.022037890955751226
Color.blend|InstantGI.getIrradiance|LightServer.getIrradiance,0.023308486425612045,0.0,0.0021402903468684532,0.0,0.0254487767724805
Color.copy|LightSample.setRadiance|TriangleMeshLight$TriangleLight.getSamples,0.024595405480281336,0.013410725902857835,0.0022628883860831756,0.0019337384741146663,0.04220275824333702
Geometry.intersect|Instance.intersect|InstanceList.intersectPrimitive,0.023308486425612045,0.0,0.0021402903468684532,0.0,0.0254487767724805
ImageReader.getDestination|PNGImageReader.readImage|PNGImageReader.read,0.0,0.0021111424710696077,0.0,0.00021285675099728068,0.0023239992220668885
Instance.intersect|InstanceList.intersectPrimitive|BoundingIntervalHierarchy.intersect,0.04104245768821984,0.038315004200042156,0.005431119305701075,0.005236748192263615,0.09002532938622669
InstanceList.intersectPrimitive|BoundingIntervalHierarchy.intersect|Scene.trace,0.0,0.0439170848965703,0.0,0.007099435060641774,0.05101651995721207
InstantGI.getIrradiance|LightServer.getIrradiance|ShadingState.getIrradiance,0.021808374462309214,0.0,0.0029979193548305997,0.0,0.024806293817139814
IntersectionState.getStackTop|BoundingIntervalHierarchy.intersect|Scene.trace,0.0,0.037215434904416735,0.0,0.005363391254670391,0.042578826159087126
IntersectionState.getStackTop|KDTree.intersect|Geometry.intersect,0.027974081631364986,0.01870683527466367,0.0039453061221212575,0.0016617037643212626,0.05228792679247118
IntersectionState.hit|Scene.traceShadow|ShadingState.traceShadow,0.021808374462309214,0.0,0.0029979193548305997,0.0,0.024806293817139814
KDTree.buildTree|KDTree.buildTree|KDTree.build,0.057771368420952436,0.0,0.00492000000055046,0.0,0.0626913684215029
KDTree.buildTree|KDTree.buildTree|KDTree.buildTree,0.1695107368439877,0.8890182468447678,0.012776842104932781,0.08909266353682602,1.1603984893305144
KDTree.intersect|Geometry.intersect|Instance.intersect,0.6544927894543957,0.5659410276744384,0.07299992353968193,0.07152827019224985,1.364962010860766
KDTree.unpackSplitType|KDTree.buildTree|KDTree.build,0.061651789476041136,0.0,0.006808421052961707,0.0,0.06846021052900285
LightSample.setRadiance|TriangleMeshLight$TriangleLight.getSamples|LightServer.initLightSamples,0.0010914921232454467,0.0,0.00015207051758678257,0.0,0.0012435626408322292
LightSample.setShadowRay|TriangleMeshLight$TriangleLight.getSamples|LightServer.initLightSamples,0.017965703451124335,0.0,0.0016761867706594346,0.0,0.01964189022178377
Matrix4.transformPX|Ray.transform|Instance.intersect,0.01993608163261064,0.0,0.0019398979592161983,0.0,0.021875979591826838
Matrix4.transformPZ|Ray.transform|Instance.intersect,0.007916374644773402,0.0,0.0007548134319960656,0.0,0.008671188076769467
NullAccelerator.intersect|Geometry.intersect|Instance.intersect,0.01704865501030131,0.03601430255991525,0.0022913308571258463,0.004275305351537374,0.05962959377887978
PKCS7.parseSignedData|PKCS7.parse|PKCS7.parse,0.0,0.03108467246168001,0.0,0.002963080072479665,0.034047752534159675
PNGImageReader.<init>|PNGImageReaderSpi.createReaderInstance|ImageReaderSpi.createReaderInstance,0.0,0.058911584898944734,0.0,0.005807781968466856,0.06471936686741159
QMC.<clinit>|LightServer$1.run|Thread.run,0.0,0.0,0.0,0.0,0.0
QMC.halton|ShadingState.<init>|ShadingState.createState,0.0,0.01870683527466367,0.0,0.0016617037643212626,0.02036853903898493
Ray.<init>|InstantGI.getIrradiance|LightServer.getIrradiance,0.08395273016577467,0.02116964996273317,0.010966095515111945,0.002629075926387199,0.11871755157000699
Ray.getMax|BoundingIntervalHierarchy.intersect|Scene.trace,0.0090170906973579,0.0,0.001226825581347099,0.0,0.010243916278704999
Ray.getMax|KDTree.intersect|Geometry.intersect,0.0,0.017697674913991008,0.0,0.002248936152598152,0.01994661106658916
Ray.getMin|BoundingIntervalHierarchy.intersect|Scene.trace,0.004119274509767089,0.02050135305664158,0.0003923529411087442,0.0032290344112463954,0.02824201491876381
Ray.isInside|TriangleMesh$WaldTriangle.intersect|TriangleMesh.intersectPrimitive,0.018811744568211615,0.032662872308667636,0.0024361658668307427,0.0050021175595157605,0.058912900303225754
Ray.transform|Instance.intersect|InstanceList.intersectPrimitive,0.23083281328857663,0.13499417274015757,0.026461869433305557,0.019733327190398244,0.41202218265243795
ShadingState.addSample|TriangleMeshLight$TriangleLight.getSamples|LightServer.initLightSamples,0.021808374462309214,0.0,0.0029979193548305997,0.0,0.024806293817139814
ShadingState.getPoint|TriangleMeshLight$TriangleLight.getSamples|LightServer.initLightSamples,0.0,0.01307734304259782,0.0,0.0019530164120228602,0.01503035945462068
ShadingState.traceShadow|InstantGI.getIrradiance|LightServer.getIrradiance,0.010747578394229752,0.0,0.0015618229557777352,0.0,0.012309401350007488
TriangleMesh$WaldTriangle.intersect|TriangleMesh.intersectPrimitive|KDTree.intersect,0.1826499354111244,0.24196308101067973,0.021847333356626877,0.0331387800495874,0.47959912982801844
TriangleMesh$WaldTriangle.intersect|TriangleMesh.intersectPrimitive|NullAccelerator.intersect,0.0,0.029276756568806274,0.0,0.003921982247386209,0.03319873881619248
TriangleMesh.getPoint|TriangleMesh$WaldTriangle.<init>|TriangleMesh$WaldTriangle.<init>,0.05217816541452815,0.0,0.0055705263155523006,0.0,0.05774869173008045
TriangleMesh.getPoint|TriangleMeshLight.access$3000|TriangleMeshLight$TriangleLight.getSamples,0.0,0.03796340363874697,0.0,0.0051389594751767185,0.04310236311392369
TriangleMesh.intersectPrimitive|KDTree.intersect|Geometry.intersect,0.016860541757588676,0.06804867378998006,0.0018289440793087576,0.008315001248777161,0.09505316087565466
TriangleMesh.intersectPrimitive|NullAccelerator.intersect|Geometry.intersect,0.01691179407610171,0.0,0.001553249874650292,0.0,0.018465043950752002
TriangleMeshLight$TriangleLight.getSamples,0.0,0.05306811244218322,0.0,0.007655580496610021,0.06072369293879324
TriangleMeshLight$TriangleLight.getSamples|LightServer.initLightSamples|ShadingState.initLightSamples,0.06910130842765479,0.12389898943149427,0.009661740803123127,0.01828206385028959,0.2209441025125618
TriangleMeshLight$TriangleLight.intersectTriangleKensler|TriangleMeshLight$TriangleLight.getSamples|LightServer.initLightSamples,0.01993608163261064,0.0,0.0021909183673489343,0.0,0.022126999999959575
Vector3.<init>|TriangleMeshLight$TriangleLight.getSamples|LightServer.initLightSamples,0.006069643527145304,0.0,0.0006114821763930662,0.0,0.00668112570353837
Vector3.dot|GlassShader.getRadiance|LightServer.getRadiance,0.0090170906973579,0.0,0.001226825581347099,0.0,0.010243916278704999
Vector3.dot|TriangleMeshLight$TriangleLight.getSamples|LightServer.initLightSamples,0.04361674892461843,0.014537160783336766,0.0059958387096611995,0.002168391044995335,0.06631813946261172
