method,package1,package2,dram1,dram2,energy
Arrays.copyOfRange|String.<init>|DataInputStream.readUTF,0.0,0.08994590674377187,0.0,0.01219968395341641,0.10214559069718827
BigInteger.multiplyToLen|BigInteger.implMontgomeryMultiply|BigInteger.montgomeryMultiply,0.0,0.07394563749435566,0.0,0.007524664749034605,0.08147030224339026
BufferedInputStream.read|DataInputStream.readUnsignedShort|DataInputStream.readUTF,0.0,0.0,0.0,0.0,0.0
Class.forName0|Class.forName|TestHarness.findClass,0.0,0.04541876566731026,0.0,0.005149566510898573,0.05056833217820884
ClassLoader.defineClass1|ClassLoader.defineClass|SecureClassLoader.defineClass,0.0,0.0744803559601742,0.0,0.00958308706180504,0.08406344302197924
ColorSpace.getInstance|ImageTypeSpecifier.<clinit>|PNGImageReader.getImageTypes,0.0,0.021771297287971496,0.0,0.003241774703820265,0.02501307199179176
EventQueue.<clinit>|Class.forName0|Class.forName,0.0,0.08994590674377187,0.0,0.01219968395341641,0.10214559069718827
FileOutputStream.writeBytes|FileOutputStream.write|BufferedOutputStream.write,0.0,0.038770906266864184,0.0,0.00454369024619809,0.04331459651306228
LogManager.<init>|LogManager.<init>|LogManager$1.run,0.0,0.04979424550679104,0.0,0.007572098050023025,0.05736634355681407
LogManager.readPrimordialConfiguration|LogManager.access$800|LogManager$2.run,0.0,0.04979424550679104,0.0,0.007572098050023025,0.05736634355681407
LoggingProxyImpl.getLogger|LoggingSupport.getLogger|PlatformLogger$JavaLoggerProxy.<init>,0.0,0.05127488510192196,0.0,0.007602382306865195,0.05887726740878716
Math.min|InstantGI.getIrradiance|LightServer.getIrradiance,0.0,0.0054744217152499185,0.0,0.0006199449252656513,0.00609436664051557
RandomAccessFile.<init>|FileCacheImageInputStream.<init>|InputStreamImageInputStreamSpi.createInputStreamInstance,0.0,0.061034596516754525,0.0,0.008042730638491945,0.06907732715524648
StrictMath.acos|Math.acos|TriangleMeshLight$TriangleLight.getSamples,0.0030434421906236518,0.06550753873090977,0.0004588919877717452,0.00817896129467841,0.07718883420398356
StringTokenizer.skipDelimiters|StringTokenizer.hasMoreTokens|URL.getURLStreamHandler,0.0,0.038770906266864184,0.0,0.00454369024619809,0.04331459651306228
Throwable.getStackTraceElement|Throwable.getOurStackTrace|Throwable.getStackTrace,0.0,0.01520691071522638,0.0,0.0018627321428929073,0.017069642858119287
URL.<init>|URL.<init>|URLClassPath$JarLoader.checkResource,0.0,0.041846920280251616,0.0,0.00558217539429319,0.047429095674544806
