method,package1,package2,dram1,dram2,energy
BigInteger.addOne|BigInteger.montReduce|BigInteger.implMontgomerySquare,0.0,0.02364711594376443,0.0,0.0029202173915320487,0.02656733333529648
BufferedInputStream.<init>|BufferedInputStream.<init>|ClassPool.makeClass,0.0,0.0,0.0,0.0,0.0
BufferedInputStream.read|DataInputStream.readUnsignedShort|CodeAttribute.<init>,0.0,0.054795999998330236,0.0,0.005435555555676626,0.06023155555400686
BufferedInputStream.read|DataInputStream.readUnsignedShort|DataInputStream.readUTF,0.0,0.01859899999743158,0.0,0.0026277272729864553,0.021226727270418036
BufferedInputStream.read|DataInputStream.readUnsignedShort|StringInfo.<init>,0.0,0.014720545454606918,0.0,0.0018654545452921989,0.016585999999899115
ClassLoader.defineClass1|ClassLoader.defineClass|SecureClassLoader.defineClass,0.0,0.0,0.0,0.0,0.0
ComponentColorModel.extractComponent|ComponentColorModel.getRGBComponent|ComponentColorModel.getRed,0.0,0.009163466667652958,0.0,0.001093333333523737,0.010256800001176694
ComponentSampleModel.createDataBuffer|Raster.createWritableRaster|ImageTypeSpecifier.createBufferedImage,0.0,0.0660859999989043,0.0,0.009296250000261352,0.07538224999916565
DataBuffer.<clinit>|ImageTypeSpecifier.createComponentCM|ImageTypeSpecifier$Interleaved.<init>,0.0,0.025115999997069597,0.0,0.003059999999095453,0.02817599999616505
DataInputStream.readUTF|DataInputStream.readUTF|Utf8Info.<init>,0.0,0.0660859999989043,0.0,0.009296250000261352,0.07538224999916565
Float.intBitsToFloat|BoundingIntervalHierarchy.intersect|Scene.trace,0.013451085611747543,0.0,0.001918787554125348,0.0,0.015369873165872891
Inflater.inflateBytes|Inflater.inflate|InflaterInputStream.read,0.0,0.11421200000040699,0.0,0.016447500001049775,0.13065950000145676
Logger.getPlatformLogger|LoggingProxyImpl.getLogger|LoggingSupport.getLogger,0.0,0.026652000000467524,0.0,0.0036566666664536265,0.03030866666692115
Pattern.newSlice|Pattern.atom|Pattern.sequence,0.0,0.05805975000112085,0.0,0.008205000000089058,0.0662647500012099
StrictMath.acos|Math.acos|TriangleMeshLight$TriangleLight.getSamples,0.036176990878055454,0.010289268340896064,0.004531923331423602,0.001466036035754425,0.05246421858612955
System.nanoTime|ClassLoader.loadClass|Launcher$AppClassLoader.loadClass,0.0,0.0,0.0,0.0,0.0
WeakHashMap.eq|WeakHashMap.remove|ZipFile$ZipFileInflaterInputStream.close,0.0,0.061218250004458234,0.0,0.009236249999048596,0.07045450000350684
ZipFile.getEntry|ZipFile.getEntry|JarFile.getEntry,0.0,0.0248684444425938,0.0,0.003655000000031173,0.02852344444262497
