method,package1,package2,dram1,dram2,energy
AppContext$2.run,0.11724059821539241,0.0,0.008571874999991753,0.0,0.12581247321538416
Benchmark.<init>,0.041839378299493434,0.0,0.0033957471789526467,0.0,0.04523512547844608
BigInteger.addOne,0.035096608052655305,0.0,0.003213095224598853,0.0,0.03830970327725416
BigInteger.implSquareToLen,0.035096608052655305,0.0,0.003213095224598853,0.0,0.03830970327725416
BigInteger.multiplyToLen,0.030126695313746357,0.0,0.0030891929855921506,0.0,0.03321588829933851
BoundingBox.getMaximum,0.00016494862604321599,0.0,1.369175627423459e-05,0.0,0.00017864038231745058
BoundingIntervalHierarchy.intersect,0.748682815335437,0.8927757220311814,0.10101736108584812,0.1121868785553483,1.8546627770078148
BucketRenderer$ImageSample.processed,0.04149102428478872,0.0,0.005315137374828727,0.0,0.04680616165961745
BucketRenderer.renderBucket,0.0008412927120603818,0.0,9.220430107351632e-05,0.0,0.0009334970131338981
BufferedImage.getRGB,0.039316506699820335,0.0,0.002788132361581713,0.0,0.04210463906140205
BufferedInputStream.read,0.056355760876203184,0.0,0.00417859500736096,0.0,0.060534355883564143
Chaperone.retire,0.0,0.0,0.0,0.0,0.0
Class.forName0,0.0343291365404477,0.0,0.0022519700603780644,0.0,0.03658110660082576
ClassPool.getCached,0.00937145833328638,0.0,0.0007953124998039129,0.0,0.010166770833090293
Color.copy,0.0,0.018811218326254917,0.0,0.001973039149819573,0.02078425747607449
Color.mul,0.011108324999845029,0.0,0.0013782499999554904,0.0,0.012486574999800519
ConfigFile.<init>,0.009908333333441988,0.0,0.0009699999997489307,0.0,0.010878333333190918
DataInputStream.readUnsignedShort,0.0795785767854568,0.0,0.00650011292643415,0.0,0.08607868971189095
DerInputStream.getUnalignedBitString,0.026642402993852097,0.0,0.0015341516968134204,0.0,0.028176554690665517
FastHashMap$Entry.<init>,0.014893465845283432,0.0,0.0013936586124411036,0.0,0.016287124457724535
FileOutputStream.writeBytes,0.0888266666685619,0.0,0.009710000000874668,0.0,0.09853666666943657
Files.createTempFile,0.033203142857278815,0.0,0.002665714285415431,0.0,0.03586885714269425
Geometry.intersect,0.12965894739414857,0.02231619217238934,0.01665614561077958,0.003200659491188975,0.17183194466850646
IIORegistry.registerStandardSpis,0.02927071428608282,0.0,0.0020035714286288048,0.0,0.03127428571471162
ISO_8859_1.newEncoder,0.021105371729939496,0.0,0.002084938136218524,0.0,0.02319030986615802
ImageTypeSpecifier$Interleaved.<init>,0.0276773870508273,0.0,0.001877030308677468,0.0,0.029554417359504766
ImageTypeSpecifier.createBufferedImage,0.04928771310409795,0.0,0.003235764161874783,0.0,0.05252347726597273
Inflater.inflateBytes,0.07436366568837352,0.0,0.006453844181902219,0.0,0.08081750987027574
Instance.intersect,0.032375612832771634,0.0,0.0038409403774861193,0.0,0.036216553210257754
InstanceList.intersectPrimitive,0.0,0.02231619217238934,0.0,0.003200659491188975,0.025516851663578317
InstantGI$PointLightStore.store,0.0,0.0035178721227380623,0.0,0.00039744245521414575,0.003915314577952208
InstantGI.getIrradiance,0.07189072875997417,0.06518863748884904,0.009092682174062018,0.009393123908485021,0.15556517233137024
IntersectionState.getStack,0.016292384066521406,0.0,0.0021697812572258005,0.0,0.018462165323747205
IntersectionState.getStackTop,0.0,0.02473363805672434,0.0,0.0025139387582116834,0.027247576814936024
IntersectionState.hit,0.04081508663098855,0.009483496188324872,0.005196417112309328,0.0013490644490445707,0.05684406438066732
IntersectionState.setIntersection,0.0,0.008482350000122095,0.0,0.0012292499999603025,0.009711600000082397
KDTree.buildTree,0.0,0.49440810784461275,0.0,0.05254029411666053,0.5469484019612733
KDTree.intersect,0.7155614006747296,0.9907118693762856,0.09198774348275875,0.13225595393650516,1.9305169674702791
LightSample.setRadiance,0.021196394444527356,0.03258265299547207,0.0025791999999314106,0.004017595569390557,0.06037584300932139
LightSample.setShadowRay,0.013334234042633128,0.007298550369171422,0.00204861702126862,0.0008404147296299081,0.02352181616270308
LogManager.loadLoggerHandlers,0.018590312499024243,0.0,0.0015218749998287724,0.0,0.020112187498853015
Logger.<init>,0.020910833333497667,0.0,0.0014625000001918427,0.0,0.02237333333368951
Matrix4.transformPX,0.03635164939789925,0.001797684500176786,0.004925527907584356,0.00026171066331989924,0.04333657246898028
Matrix4.transformPZ,0.010928199767799232,0.0,0.0015104529616696346,0.0,0.012438652729468867
NormalizerBase.<clinit>,0.02720781896142149,0.0,0.0015905109152570332,0.0,0.028798329876678522
NullAccelerator.intersect,0.01189479508909374,0.05514839230939767,0.0014001964285577225,0.007709703599131193,0.07615308742618032
PNGImageReader.<init>,0.007737352924770831,0.0,0.0008756005853760774,0.0,0.008612953510146909
PNGImageReader.getDefaultReadParam,0.007737352924770831,0.0,0.0008756005853760774,0.0,0.008612953510146909
PNGImageReaderSpi.createReaderInstance,0.036480524788510674,0.0,0.003254820968714598,0.0,0.039735345757225274
ParseUtil.encodePath,0.0,0.0,0.0,0.0,0.0
Pattern.closure,0.038172395832892406,0.0,0.00285624999984672,0.0,0.04102864583273912
Pattern.newSlice,0.07377100000060939,0.0,0.007369999999355059,0.0,0.08114099999996445
QMC.halton,0.010795406707203678,0.0,0.0013150701219274195,0.0,0.012110476829131097
Ray.<init>,0.12359455740390535,0.11134262166044136,0.015074434348596377,0.015400947801434374,0.26541256121437745
Ray.getMax,0.05841086060946099,0.025422130495068956,0.008136840647501802,0.002893323191551421,0.09486315494358316
Ray.getMin,0.0,0.015320433908174837,0.0,0.0015220307490940515,0.01684246465726889
Ray.isInside,0.0285324573330181,0.030796195191287807,0.0036655267928025767,0.0036731550519220075,0.0666673343690305
Ray.normalize,0.0019392033334750321,0.0,0.00025016666664467064,0.0,0.002189370000119703
Ray.transform,0.331226467246665,0.08942985655873206,0.043337155548365563,0.010258900632281891,0.4742523799860446
Scene.trace,0.007998242113038541,0.0,0.0011595451210972922,0.0,0.009157787234135833
Scene.traceShadow,0.0006529974671616387,0.01593278657382873,8.775500806690552e-05,0.0022514616760701475,0.01892500072512742
ShadingState.traceShadow,0.016271800232272916,0.0,0.002206620209046956,0.0,0.018478420441319872
Sphere.intersectPrimitive,0.0,0.01664604545327496,0.0,0.002217272726821565,0.018863318180096525
StreamCloser.createCloseAction,0.033203142857278815,0.0,0.002665714285415431,0.0,0.03586885714269425
StrictMath.acos,0.026318571676381797,0.10255261949894307,0.0036121148650868585,0.014411157826631271,0.146894463867043
TriangleMesh$WaldTriangle.intersect,0.24391174431218304,0.30895442593805766,0.03149587986149412,0.04040690369427767,0.6247689538060125
TriangleMesh.intersectPrimitive,0.06072875816682954,0.2187769819521156,0.008203572657327662,0.0290239374871332,0.31673325026340604
TriangleMesh.prepareShadingState,0.0,0.0,0.0,0.0,0.0
TriangleMeshLight$TriangleLight.getSamples,0.18892317482118695,0.12741857681667415,0.024753664739180035,0.01676713302154944,0.3578625493985906
TriangleMeshLight$TriangleLight.intersectTriangleKensler,0.0,0.000995365924152737,0.0,0.0,0.000995365924152737
Unsafe.getInt,0.024658905149937016,0.0,0.001639988928755446,0.0,0.026298894078692462
Vector3.dot,0.007998242113038541,0.0,0.0011595451210972922,0.0,0.009157787234135833
Vector3.normalize,0.0,0.012580106494186278,0.0,0.0015831818183704108,0.014163288312556688
X509CertImpl.parse,0.07909851333984748,0.0,0.00481705499762269,0.0,0.08391556833747017
