method,package1,package2,dram1,dram2,energy
com.sun.imageio.plugins.jpeg,0.025374400000631188,0.0,0.0018779999998514547,0.0,0.02725240000048264
com.sun.imageio.plugins.png,0.08004666666642556,0.0,0.006938888889433455,0.0,0.08698555555585902
java.io,0.13660224848647362,0.0,0.01241763636320353,0.0,0.14901988484967715
java.lang,0.19504152909994055,0.0430731865661127,0.020846620703354697,0.0047070822775947315,0.2636684186470027
java.math,0.03502218055554193,0.0,0.003978541666987843,0.0,0.039000722222529774
java.util,0.03802863030101765,0.0,0.003931818181974284,0.0,0.041960448482991936
java.util.jar,0.03556316666557298,0.0,0.0027199999998022877,0.0,0.03828316666537527
java.util.logging,0.05983272727021495,0.0,0.00467272727264296,0.0,0.06450545454285792
java.util.zip,0.124340833335494,0.0,0.011225500000242996,0.0,0.135566333335737
javassist,0.03055574999962118,0.0,0.0027524999995875987,0.0,0.03330824999920878
javassist.bytecode,0.02783575757568928,0.0,0.0021363636364130248,0.0,0.029972121212102305
javax.imageio,0.03534370370390308,0.0,0.0034833333329179032,0.0,0.038827037036820986
org.dacapo.harness,0.03198233333629711,0.0,0.00322750000062418,0.0,0.03520983333692129
org.sunflow,0.035306461538241886,0.0,0.0023400000002136673,0.0,0.03764646153845555
org.sunflow.core,0.6790868614277915,0.44044209099000886,0.09073311824150723,0.05550828778447382,1.2657703584437816
org.sunflow.core.accel,0.9966249407911751,2.204539017257655,0.13367823244602692,0.23874690526307263,3.5735890957579297
org.sunflow.core.gi,0.07278353131594137,0.06108264148410911,0.010111989398806457,0.007354234556397935,0.15133239675525487
org.sunflow.core.light,0.017569913453087713,0.02501760301898606,0.0025326132128224393,0.0030231926334078046,0.04814332231830402
org.sunflow.core.primitive,0.40765559123573,0.23881316184993126,0.05666188044780934,0.028481936746784568,0.7316125702802552
org.sunflow.core.renderer,0.0354725072765614,0.005761717913631147,0.0048825363825604545,0.0007120136054636077,0.04682877517821661
org.sunflow.image,0.004014032194958773,0.0,0.0005663853658933942,0.0,0.0045804175608521675
org.sunflow.math,0.10242937324867643,0.04633920363410279,0.014465775253909975,0.0055224058161553536,0.16875675795284453
org.sunflow.system,0.008609696969594523,0.0,0.0008818181821411461,0.0,0.009491515151735668
sun.awt,0.04503573333495296,0.0,0.00497000000080637,0.0,0.050005733335759334
sun.misc,0.058436515151477186,0.0,0.0054136363635762155,0.0,0.0638501515150534
sun.nio.fs,0.05063648148077644,0.0,0.004363888888797697,0.0,0.055000370369574135
sun.security.provider,0.03502218055554193,0.0,0.003978541666987843,0.0,0.039000722222529774
sun.security.util,0.03761111110927433,0.0,0.004506666667617133,0.0,0.04211777777689146
