method,package1,package2,dram1,dram2,energy
AppContext$2.run,0.06330953370005454,0.0,0.0050454712260618335,0.0,0.06835500492611638
Benchmark.<init>,0.04759262126948742,0.0,0.00426424976172318,0.0,0.0518568710312106
BigInteger.implMulAdd,0.062320971868869764,0.0,0.004070110237106361,0.0,0.06639108210597612
BigInteger.modInverse,0.062320971868869764,0.0,0.004070110237106361,0.0,0.06639108210597612
BoundingBox.getMaximum,0.036273886253281595,0.0784008747338775,0.0038012361110967815,0.011563645021545327,0.1300396421198012
BoundingBox.getMinimum,0.004867332736512334,0.0,0.00042340787129592456,0.0,0.005290740607808259
BoundingIntervalHierarchy.intersect,0.28014673485795555,0.3348763640598456,0.03409565826395469,0.045380621741375624,0.6944993789231314
BucketRenderer$ImageSample.sampled,0.015422555173142097,0.0,0.0022447466464855753,0.0,0.01766730181962767
BucketRenderer.refineSamples,0.0073272144527438115,0.009293676056617708,0.0007058822106915886,0.0013724519846133325,0.018699224704666437
BucketRenderer.renderBucket,0.03347169999906327,0.031040379760581018,0.003439499999876716,0.003981720040805413,0.07193329980032642
BufferedInputStream.read,0.1567498499501835,0.0,0.014937906161018435,0.0,0.17168775611120196
ClassLoader.defineClass1,0.0,0.0,0.0,0.0,0.0
Color.black,0.001280990337725092,0.0,0.00014513117935460406,0.0,0.001426121517079696
Color.blend,0.0,0.0719297849715512,0.0,0.009408744429663734,0.08133852940121493
Color.copy,0.0037475802835632795,0.0391933982559913,0.0004659838454917717,0.006066402667059924,0.049473365052106276
Color.madd,0.0,0.018379343653403383,0.0,0.003310216718350448,0.021689560371753833
CtBehavior.insertBefore,0.02645629959616324,0.0,0.0019428151999581113,0.0,0.028399114796121352
DataBuffer.<clinit>,0.054780786743864586,0.0,0.0049112061753996145,0.0,0.0596919929192642
DisabledAlgorithmConstraints$Constraints.<init>,0.050596827447716805,0.0,0.004927276885564597,0.0,0.0555241043332814
Float.intBitsToFloat,0.0,0.00358743956052415,0.0,0.0004317032967048276,0.004019142857228978
Geometry.intersect,0.029591046296437936,0.07037107716897134,0.0024860149573087613,0.009989744064694986,0.11243788248741302
IIORegistry.<clinit>,0.044734912877586235,0.0,0.0038394815950824326,0.0,0.04857439447266867
Inflater.inflateBytes,0.11012765467566947,0.0,0.006554348694709922,0.0,0.11668200337037939
Instance.intersect,0.03824064792677347,0.057721679787381845,0.004157845596994617,0.007361871136619505,0.10748204444776943
InstanceList.intersectPrimitive,0.07188304030407186,0.006518317967744968,0.007700139947097379,0.0008642898638044316,0.08696578808271864
InstantGI.getIrradiance,0.006607847576766933,0.08344428808925254,0.0008690665032754927,0.010457539174342294,0.10137874134363725
KDTree.buildTree,0.0,0.22968720455685288,0.0,0.02798295458603168,0.25767015914288455
KDTree.intersect,0.5140542658419107,0.6700400390332605,0.05909054484252645,0.0974768816129504,1.3406617313306481
KDTree.unpackSplitType,0.0,0.0039377400361978185,0.0,0.00047223236648271836,0.004409972402680537
LightSample.setRadiance,0.005634316445512604,0.0,0.0006546864826935956,0.0,0.0062890029282061995
LightSample.setShadowRay,0.0,0.02387132432399872,0.0,0.003946621621572696,0.027817945945571416
LogManager.loadLoggerHandlers,0.04973412826401248,0.0,0.0035927914468404857,0.0,0.05332691971085297
Logger.getPlatformLogger,0.03796699736368447,0.0,0.002442082871762882,0.0,0.04040908023544735
LoggingProxyImpl.getLogger,0.04213699116957145,0.0,0.0034313955024612877,0.0,0.04556838667203274
LoggingSupport.<clinit>,0.04213699116957145,0.0,0.0034313955024612877,0.0,0.04556838667203274
Math.min,0.013149931034322122,0.0,0.001123965517261491,0.0,0.014273896551583613
Matrix4.transformP,0.0,0.029272958689475062,0.0,0.0037912179487516093,0.033064176638226674
Matrix4.transformPZ,0.016577133333258744,0.0,0.0022333333333436813,0.0,0.018810466666602424
NullAccelerator.intersect,0.026086955465944785,0.0,0.002533846153993855,0.0,0.02862080161993864
QMC.<clinit>,0.0,0.0,0.0,0.0,0.0
Raster.createWritableRaster,0.02243583817442429,0.0,0.001424897172608788,0.0,0.023860735347033077
Ray.<init>,0.03859643146362135,0.061851925935952116,0.003962842836384224,0.008861852274426013,0.1132730525103837
Ray.getMax,0.015357005441784147,0.008065748132206505,0.0012181853372219334,0.0009458626003614133,0.025586801511573998
Ray.isInside,0.0,0.021125530657750104,0.0,0.0030257763997529924,0.024151307057503096
Ray.setMax,0.0010104382071333556,0.0,0.0001221321864925694,0.0,0.001132570393625925
Ray.transform,0.05956066965895385,0.0490668975550596,0.0061599656907901845,0.00658058658294602,0.12136811948774966
Scene.getRadiance,0.02567817777809169,0.0,0.0027470000000094945,0.0,0.028425177778101187
ShadingState.addSample,0.03629136318039456,0.03120666924263597,0.004807391480072874,0.005165030156113851,0.07747045405921725
ShadingState.createPhotonState,0.0,0.0,0.0,0.0,0.0
ShadingState.getShader,0.0,0.03186874679887325,0.0,0.0048076414957472615,0.03667638829462051
SignatureFileVerifier.<clinit>,0.050596827447716805,0.0,0.004927276885564597,0.0,0.0555241043332814
Solvers.solveQuadric,0.02359905882336783,0.0,0.002703235294486113,0.0,0.026302294117853946
Sphere.intersectPrimitive,0.05496493184550805,0.024630759988033248,0.005027113237745996,0.003858356890357944,0.08848116196164522
StrictMath.acos,0.05694815943186367,0.054251453160440395,0.005557455766248236,0.008059814785321362,0.12481688314387367
String.equals,0.03796699736368447,0.0,0.002442082871762882,0.0,0.04040908023544735
System.arraycopy,0.04283350381833339,0.0,0.0027308593711362922,0.0,0.04556436318946968
Timer.<init>,0.0,0.0,0.0,0.0,0.0
Toolkit.initAssistiveTechnologies,0.03236425635909261,0.0,0.002869191331117889,0.0,0.0352334476902105
TriangleMesh$WaldTriangle.intersect,0.16594396125669608,0.33031835768525364,0.01879678967114618,0.04748956456439445,0.5625486731774904
TriangleMesh.intersectPrimitive,0.09193367829387582,0.0012947131497707402,0.010521364898867621,0.00017398399189302372,0.10392374033440721
TriangleMesh.prepareShadingState,0.0,0.006655872689574842,0.0,0.0009744364937585631,0.007630309183333405
TriangleMeshLight$TriangleLight.getSamples,0.2525832360808623,0.10862059128038162,0.027199266864072962,0.016889459468724968,0.4052925536940418
TriangleMeshLight$TriangleLight.intersectTriangleKensler,0.0,0.024630759988033248,0.0,0.003858356890357944,0.02848911687839119
Vector3.dot,0.03927580521090519,0.002728895076110017,0.004515020689734466,0.0003750113636614873,0.04689473234041116
X509CertInfo.parse,0.08546359085533704,0.0,0.005679219539885429,0.0,0.09114281039522247
X509Factory.<clinit>,0.09245483154152076,0.0,0.0065839153504414685,0.0,0.09903874689196222
X509Factory.engineGenerateCertificate,0.08546359085533704,0.0,0.005679219539885429,0.0,0.09114281039522247
ZipCoder.toString,0.03662537178374736,0.0,0.003455223752973456,0.0,0.04008059553672082
ZipFile.read,0.06385730590916336,0.0,0.006360924294174927,0.0,0.07021823020333828
