method,package1,package2,dram1,dram2,energy
AppContext$2,0.0,0.048651777776992984,0.0,0.0073200000002139436,0.055971777777206924
Benchmark,0.00941314222003096,0.0,0.0007720850893978763,0.0,0.010185227309428837
BigInteger,0.0,0.02364711594376443,0.0,0.0029202173915320487,0.02656733333529648
BoundingBox,0.03026302840909096,0.0,0.003964653730862152,0.0,0.034227682139953114
BoundingIntervalHierarchy,0.5678679478278641,0.4348284391763616,0.06767879921510087,0.04718640680522821,1.1175615930245548
BucketRenderer,0.0006962905600254301,0.029211299083238104,6.07399129393801e-05,0.0034051005739153123,0.03337343013011823
BucketRenderer$ImageSample,0.01930830106312164,0.01818610207756515,0.0020460610740889625,0.002858170731726111,0.04239863494650186
BufferedInputStream,0.0,0.08811554545036875,0.0,0.00992873737395528,0.09804428282432402
ByteArrayAccess,0.0,0.02374004347602486,0.0,0.003341739130163384,0.027081782606188244
ByteInterleavedRaster,0.0,0.029692888888530437,0.0,0.0032573333333453373,0.032950222221875776
Callback,0.0,0.0,0.0,0.0,0.0
ClassLoader,0.0,0.0,0.0,0.0,0.0
Color,0.05060657742198599,0.039628229798369816,0.0059036407362248805,0.00504408222053375,0.10118253017711443
ComponentColorModel,0.0,0.009163466667652958,0.0,0.001093333333523737,0.010256800001176694
ComponentSampleModel,0.0,0.0660859999989043,0.0,0.009296250000261352,0.07538224999916565
DataBuffer,0.0,0.025115999997069597,0.0,0.003059999999095453,0.02817599999616505
DataInputStream,0.0,0.0660859999989043,0.0,0.009296250000261352,0.07538224999916565
Float,0.013451085611747543,0.0,0.001918787554125348,0.0,0.015369873165872891
Geometry,0.028924795038860664,0.0,0.002588761811104139,0.0,0.031513556849964805
Inflater,0.0,0.11421200000040699,0.0,0.016447500001049775,0.13065950000145676
InputStreamImageInputStreamSpi,0.0,0.026990421052017297,0.0,0.0034484210524456816,0.03043884210446298
Instance,0.0,0.009163170312045124,0.0,0.0014525442849392272,0.010615714596984351
InstanceList,0.004671899197236065,0.03408289655183988,0.0006610319134658661,0.005059655172427201,0.044475482834969014
InstantGI,0.10539418927619129,0.09642079949736408,0.015928434182799038,0.01385527706864988,0.2315987000250043
IntersectionState,0.027057703210498413,0.0,0.002825377292711607,0.0,0.02988308050321002
KDTree,0.48908936675162307,0.7640205084277336,0.056191287871163904,0.09830839858186316,1.4076095616323838
LightSample,0.04925293286364049,0.0,0.005735894827338524,0.0,0.054988827690979014
Logger,0.0,0.026652000000467524,0.0,0.0036566666664536265,0.03030866666692115
MathUtils,0.019267225175140814,0.014117753086378075,0.0020013926580901807,0.0022071296297001,0.03759350054930917
Matrix4,0.024182975705809243,0.03130141738637995,0.0027230514083783955,0.003831400498951372,0.06203884499951896
NullAccelerator,0.01579901090865447,0.04269499074522157,0.003509672727351162,0.0044974171664937624,0.06650109154772096
PNGImageReaderSpi,0.0,0.1025237499998184,0.0,0.012296250000872531,0.11482000000069094
Pattern,0.0,0.05805975000112085,0.0,0.008205000000089058,0.0662647500012099
PinholeLens,0.006071614799367342,0.0,0.0010556262183655915,0.0,0.0071272410177329335
PlatformLogger$JavaLoggerProxy,0.0,0.011922111110632409,0.0,0.0013650000000779985,0.013287111110710407
QMC,0.01532523365948219,0.041324367570514615,0.0018582782562648753,0.004473729729746796,0.06298160921600848
Ray,0.26339728176890764,0.43019576038571244,0.030509789290933325,0.05294916714536247,0.7770519985909159
Reflection,0.0,0.059372000003349974,0.0,0.008234999999331194,0.06760700000268116
ShadingState,0.014478445932467846,0.028385567378803753,0.0023494821299544517,0.0034805851247214116,0.048694080565947456
Solvers,0.0,0.026160403700836027,0.0,0.004039781328896375,0.0302001850297324
StrictMath,0.036176990878055454,0.010289268340896064,0.004531923331423602,0.001466036035754425,0.05246421858612955
System,0.0,0.0,0.0,0.0,0.0
TriangleMesh,0.08151417408902681,0.062110631763278,0.009054267679757587,0.006986409985044108,0.1596654835171065
TriangleMesh$WaldTriangle,0.32418557162463335,0.21957032758388206,0.045895197108262946,0.03057998119441411,0.6202310775111924
TriangleMeshLight$TriangleLight,0.11043411511075849,0.13203857456119283,0.013171532437027608,0.020116809188246817,0.27576103129722573
Vector3,0.04486341444972086,0.0068396628349020345,0.005946213016216266,0.0009661302682503555,0.05861542056908951
WeakHashMap,0.0,0.061218250004458234,0.0,0.009236249999048596,0.07045450000350684
ZipFile,0.0,0.0248684444425938,0.0,0.003655000000031173,0.02852344444262497
