method,package1,package2,dram1,dram2,energy
BoundingBox.getMaximum,0.015859881996605523,0.0,0.0017771940838648616,0.0,0.017637076080470385
BoundingIntervalHierarchy.intersect,0.5528325819728412,0.672055085589588,0.05439531512510606,0.1053243897062194,1.3846073723937546
BucketRenderer$ImageSample.<init>,0.0,0.006363018707451046,0.0,0.0006623724489671287,0.007025391156418175
BucketRenderer.renderBucket,0.000843026403726901,0.0,8.638400246821382e-05,0.0,0.0009294104061951147
BufferedInputStream.read,0.0,0.0,0.0,0.0,0.0
Color.<init>,0.0,0.0021101397651679074,0.0,0.00032415584417436693,0.002434295609342274
Color.blend,0.0,0.02741220006851245,0.0,0.004114677587235344,0.0315268776557478
Color.copy,0.0009761964133932963,0.002318678518188082,0.0001523539076543886,0.0003248666666062221,0.0037720955058419894
Color.madd,0.0,0.0,0.0,0.0,0.0
Enum.ordinal,0.0015382300885183756,0.0,0.00015104298357828695,0.0,0.0016892730720966627
Geometry.intersect,0.015472733398096985,0.06254850302008984,0.0014768005990037551,0.009259548966383648,0.08875758598357422
Instance.intersect,0.0433006359703402,0.015110762890534068,0.004763203828214314,0.0014887521457243784,0.06466335483481296
InstanceList.intersectPrimitive,0.04121292372120132,0.0,0.0034242101054875653,0.0,0.044637133826688886
InstantGI.getIrradiance,0.016124098639907415,0.03489652138135882,0.0016564561292407882,0.0045431400560389116,0.05722021620654593
IntersectionState.getStack,0.0,0.057434637379640587,0.0,0.010024967860088427,0.06745960523972902
IntersectionState.getStackTop,0.0,0.0006939038559554798,0.0,0.00010555806919589188,0.0007994619251513718
IntersectionState.setIntersection,0.010779354168497521,0.0,0.001311425161954818,0.0,0.012090779330452339
KDTree.buildTree,0.0,0.052673637227581206,0.0,0.005509698605927521,0.05818333583350873
KDTree.intersect,0.5629679323758381,0.8406406444559793,0.06325822895777199,0.12231717434086802,1.5891839801304573
LightSample.setShadowRay,0.0012927397895140102,0.009125471380182543,0.00015628751255411868,0.001321969696983318,0.01189646837923399
LightServer.getIrradiance,0.0,0.04814899432763692,0.0,0.007079863868368736,0.055228858196005655
Math.atan2,0.0,0.0,0.0,0.0,0.0
Matrix4.transformPX,0.0,0.026478532359755582,0.0,0.0038337167706775773,0.03031224913043316
Matrix4.transformPZ,0.05489939835947829,0.026350158029927153,0.005785740949894709,0.004848859501270966,0.09188415684057112
NullAccelerator.intersect,0.019851755951178482,0.04814899432763692,0.002302241695289088,0.007079863868368736,0.07738285584247322
Object.<init>,0.0,0.020798067227221183,0.0,0.0032445378153987945,0.02404260504261998
OrthoNormalBasis.makeFromWV,0.0,0.06254850302008984,0.0,0.009259548966383648,0.07180805198647348
QMC.<clinit>,0.0,0.0,0.0,0.0,0.0
Ray.<init>,0.08868667981241314,0.11889832297927316,0.010485510270162531,0.017991535413603363,0.2360620484754522
Ray.getMax,0.07973382798644235,0.02051719128979791,0.0071490594165316765,0.003253832295295485,0.11065391098806741
Ray.isInside,0.034952446140819424,0.0667579165954495,0.004029386570101238,0.01148507043275191,0.11722481973912208
Ray.transform,0.2705396675196249,0.29252072811774343,0.027958705346780778,0.044147073610072106,0.6351661745942212
Scene.trace,0.010779354168497521,0.0,0.001311425161954818,0.0,0.012090779330452339
ShadingState.addSample,0.0,0.013074926828267051,0.0,0.0019536585365663413,0.015028585364833393
ShadingState.getRandom,0.03367113007030769,0.0,0.004781145870613528,0.0,0.03845227594092122
ShadingState.getRay,0.0,0.0278760046779848,0.0,0.004500210526186907,0.03237621520417171
ShadingState.traceShadow,0.0,0.0016966229609249575,0.0,0.00023542367375240956,0.001932046634677367
Sphere.intersectPrimitive,0.002496233463516109,0.015385131267174869,0.0003059663731977051,0.0021660845070867467,0.02035341561097543
StrictMath.acos,0.0,0.014414615694890682,0.0,0.0021015694164633527,0.016516185111354033
Throwable.getStackTraceElement,0.0,0.0,0.0,0.0,0.0
TriangleMesh$WaldTriangle.intersect,0.2655114967184659,0.2012043576918932,0.029965038883924613,0.028439671178191905,0.5251205644724757
TriangleMesh.intersectPrimitive,0.048662847358165826,0.06522226883764339,0.005594725538321615,0.008313706640571308,0.12779354837470214
TriangleMeshLight$TriangleLight.getSamples,0.11744526698306118,0.17934692122759047,0.013474934364887545,0.025004657881335206,0.33527178045687445
TriangleMeshLight$TriangleLight.intersectTriangleKensler,0.008611982495191392,0.0,0.0009295389109759651,0.0,0.009541521406167357
Vector3.<init>,0.0,0.06254850302008984,0.0,0.009259548966383648,0.07180805198647348
Vector3.dot,0.039750198177420454,0.033381054214791976,0.0046235591264700724,0.004692575324893509,0.08244738684357601
Vector3.normalize,0.0,0.009125471380182543,0.0,0.001321969696983318,0.01044744107716586
