method,package1,package2,dram1,dram2,energy
AbstractAlgorithmConstraints.getAlgorithms,0.0,0.06748466666370707,0.0,0.011000000001028336,0.07848466666473541
AppContext$2.run,0.0,0.07371000000178657,0.0,0.0109599999996135,0.08467000000140007
AttributeInfo.read,0.0,0.0,0.0,0.0,0.0
Benchmark.<init>,0.0,0.0,0.0,0.0,0.0
Benchmark.fileFromInputStream,0.0,0.0694376666676059,0.0,0.0109599999996135,0.0803976666672194
BoundingBox.getMaximum,0.0,0.0,0.0,0.0,0.0
BoundingIntervalHierarchy.intersect,0.09677876370190093,0.26784838030952296,0.004091192546390092,0.04719235760958908,0.415910694167403
BucketRenderer.renderBucket,0.0,0.0,0.0,0.0,0.0
BytecodeDescriptor.unparseSig,0.0,0.06160500000017539,0.0,0.009945000000395035,0.07155000000057042
Chaperone.retire,0.0,0.0,0.0,0.0,0.0
Color.blend,0.0,0.018805946356165098,0.0,0.0030961487855202443,0.02190209514168534
Color.copy,0.0,0.0,0.0,0.0,0.0
Color.madd,0.0,0.01756212474054511,0.0,0.0027600623699732363,0.020322187110518346
ConstPool.readOne,0.0,0.0,0.0,0.0,0.0
ContentInfo.<clinit>,0.0,0.0,0.0,0.0,0.0
DSA.generateV,0.0,0.07888888896480976,0.0,0.010864267735399214,0.08975315670020897
DSA.generateW,0.0,0.06794179844803032,0.0,0.009714555883333949,0.07765635433136427
FileCacheImageInputStream.<init>,0.0,0.04709874999965298,0.0,0.0068250000003899905,0.05392375000004297
Geometry.intersect,0.0,0.024043280325524607,0.0,0.004267174207535068,0.028310454533059675
ImageTypeSpecifier$Packed.<init>,0.0,0.0398966666640869,0.0,0.005460000000311993,0.045356666664398894
Instance.intersect,0.0074735964648177545,0.003238414019382947,0.00027250291148546424,0.0005669560436259776,0.011551469439312144
InstanceList.intersectPrimitive,0.0,0.007853651162931359,0.0,0.0013674418604391258,0.009221093023370486
InstantGI.getIrradiance,0.03506961480745511,0.014902082984234307,0.002003679773316142,0.0022503176584117955,0.05422569522341736
IntersectionState.getStackTop,0.0,0.0020955429339752623,0.0,0.00038231486558786264,0.002477857799563125
JarURLConnection.getInputStream,0.0,0.058745793741098014,0.0,0.007875820995083473,0.06662161473618149
KDTree.buildTree,0.17862584105574683,0.0,0.01085339631102149,0.0,0.18947923736676833
KDTree.intersect,0.4519574937043149,0.3495394516997625,0.0249536436865449,0.06311349950668863,0.889564088597311
KDTree.radix12,0.0,0.0,0.0,0.0,0.0
LightSample.setShadowRay,0.0,0.0,0.0,0.0,0.0
LightServer.getShader,0.0,0.00614415750845214,0.0,0.0011559976841542276,0.0073001551926063675
LoggingSupport.getLogger,0.0,0.0,0.0,0.0,0.0
LongVector.addElement,0.0,0.0,0.0,0.0,0.0
Matrix4.transformPX,0.0,0.007108256410365591,0.0,0.0010553846152153057,0.008163641025580896
Matrix4.transformPY,0.0,0.0,0.0,0.0,0.0
Matrix4.transformPZ,0.05802979231038465,0.0,0.0033262546241305565,0.0,0.061356046934515206
MemberrefInfo.<init>,0.0,0.0,0.0,0.0,0.0
MethodInfo.read,0.0,0.0,0.0,0.0,0.0
NullAccelerator.intersect,0.0,0.02021108121120191,0.0,0.003646848347374986,0.023857929558576893
PNGImageReader.<init>,0.0,0.0,0.0,0.0,0.0
Point3.<init>,0.020261512759082445,0.0,0.0009107372883985245,0.0,0.02117225004748097
Ray.<init>,0.02326993625934597,0.01924232410101104,0.0010352541119520572,0.003314141890941102,0.046861656363250175
Ray.getMax,0.043365522264461095,0.023065749999990327,0.002012010516878944,0.004475454545503123,0.07291873732683347
Ray.getMin,0.0,0.0,0.0,0.0,0.0
Ray.isInside,0.022779250808368727,0.0,0.001276903121038272,0.0,0.024056153929407
Ray.setMax,0.0,0.0,0.0,0.0,0.0
Ray.transform,0.14075119252745594,0.10531566388650442,0.007637842919899423,0.017975973617137687,0.2716806729509975
Resource.getBytes,0.0,0.0,0.0,0.0,0.0
Scene.traceShadow,0.0,0.0,0.0,0.0,0.0
ServiceRegistry.<init>,0.0,0.07989229166469157,0.0,0.01330000000052678,0.09319229166521835
ShadingState.addSample,0.0,0.0,0.0,0.0,0.0
ShadingState.diffuse,0.014046604651179392,0.0,0.0006055813954485213,0.0,0.014652186046627914
ShadingState.getGeoNormal,0.012329103448227498,0.0,0.00048827586227883426,0.0,0.012817379310506333
ShadingState.traceShadow,0.0,0.00527078095675021,0.0,0.0009590325437992117,0.006229813500549422
Sphere.intersectPrimitive,0.008611218351407665,0.0,0.00035653126591291614,0.0,0.008967749617320582
Sunflow.<init>,0.0,0.0,0.0,0.0,0.0
TestHarness.rmdir,0.0,0.0,0.0,0.0,0.0
TriangleMesh$WaldTriangle.intersect,0.1273002328411338,0.1513067567071301,0.005050745731362818,0.02749519151309488,0.3111529267927216
TriangleMesh.intersectPrimitive,0.010700998674274022,0.0,0.0004417145383180873,0.0,0.011142713212592109
TriangleMesh.prepareShadingState,0.06240037300873095,0.0,0.005337793963454372,0.0,0.06773816697218532
TriangleMeshLight$TriangleLight.getSamples,0.07666696876152372,0.0942323267842615,0.0029572320265048796,0.01764537114741537,0.19150189871970547
TriangleMeshLight$TriangleLight.intersectTriangleKensler,0.0,0.02353249027519506,0.0,0.004219326840542547,0.02775181711573761
TriangleMeshLight.access$2900,0.0,0.011476666062355744,0.0,0.0020450208277566955,0.01352168689011244
URLClassPath$FileLoader.getResource,0.0,0.0,0.0,0.0,0.0
URLClassPath$JarLoader$2.getInputStream,0.0,0.06749186322090091,0.0,0.010264084463702972,0.07775594768460388
Utf8Info.<init>,0.0,0.0,0.0,0.0,0.0
Vector3.<init>,0.0,0.0,0.0,0.0,0.0
Vector3.dot,0.0,0.03424686504035808,0.0,0.006287252761030126,0.04053411780138821
Vector3.length,0.0,0.0,0.0,0.0,0.0
