method,package1,package2,dram1,dram2,energy
AppContext$2.run,0.04921053120230051,0.0,0.0034000319982605645,0.0,0.052610563200561074
Benchmark.<init>,0.1597857728558779,0.0,0.010840254177258061,0.0,0.17062602703313595
Benchmark.fileFromInputStream,0.02691462155726477,0.0,0.0020165660479411645,0.0,0.028931187605205935
BoundingBox.getMaximum,0.012176806526790294,0.0,0.0005340909088488522,0.0,0.012710897435639145
BoundingBox.getMinimum,0.0,0.0,0.0,0.0,0.0
BoundingIntervalHierarchy.intersect,0.15687849404337062,0.2010706721508473,0.007887510914715012,0.0364947513738652,0.4023314284827981
BucketRenderer.refineSamples,0.0022360212582352252,0.0,0.0001031970121348084,0.0,0.0023392182703700338
BucketRenderer.renderBucket,0.0,0.0,0.0,0.0,0.0
ByteInterleavedRaster.putByteData,0.07424395977891933,0.0,0.0050698260394889325,0.0,0.07931378581840826
Chaperone.retire,0.0,0.0,0.0,0.0,0.0
ClassFile.addMethod2,0.04182535747195895,0.0,0.0011437146813401988,0.0,0.04296907215329915
ClassPool.makeClass,0.05796645285222339,0.0,0.003054522754830587,0.0,0.061020975607053975
Color.<init>,0.020656573905840848,0.0,0.001223710919961674,0.0,0.021880284825802523
Color.blend,0.0,0.02089022448995003,0.0,0.003856836734707847,0.024747061224657876
Color.copy,0.0,0.0,0.0,0.0,0.0
Color.mul,0.0,0.0,0.0,0.0,0.0
CommandLineArgs.extractBenchmarkSet,0.0,0.0,0.0,0.0,0.0
Config.parse,0.0,0.0,0.0,0.0,0.0
CtClassType.getMethod0,0.06895990663300301,0.0,0.003371779398424229,0.0,0.07233168603142724
DSA.generateV,0.06833603214406178,0.0,0.004577189716157715,0.0,0.0729132218602195
DSA.generateW,0.0,0.0,0.0,0.0,0.0
DacapoClassLoader.loadClass,0.0,0.0,0.0,0.0,0.0
DerInputStream.readVector,0.0,0.0,0.0,0.0,0.0
Disposer.add,0.0,0.0,0.0,0.0,0.0
FileCacheImageInputStream.<init>,0.0,0.0,0.0,0.0,0.0
FileURLConnection.getPermission,0.0,0.0,0.0,0.0,0.0
Geometry.intersect,0.0,0.0,0.0,0.0,0.0
Handler.parseURL,0.0,0.0,0.0,0.0,0.0
IIORegistry.getDefaultInstance,0.0,0.0,0.0,0.0,0.0
IIORegistry.registerStandardSpis,0.0,0.0,0.0,0.0,0.0
ImageTypeSpecifier$Interleaved.<init>,0.03694249169208524,0.0,0.0028213357665527413,0.0,0.039763827458637976
ImageTypeSpecifier.createBufferedImage,0.043722013293936296,0.0,0.003164456152679574,0.0,0.04688646944661587
Instance.getModifier,0.0,0.0,0.0,0.0,0.0
Instance.intersect,0.04125584462800766,0.0,0.0016117285772757053,0.0,0.042867573205283366
Instance.prepareShadingState,0.0,0.0,0.0,0.0,0.0
InstanceList.intersectPrimitive,0.0,0.0,0.0,0.0,0.0
InstantGI.getIrradiance,0.0,0.04869934521068807,0.0,0.009406498801419114,0.05810584401210718
IntersectionState.getStackTop,0.007833059954686491,0.0,0.0003355486429567323,0.0,0.008168608597643224
JarURLConnection.getInputStream,0.0,0.0,0.0,0.0,0.0
KDTree.buildTree,0.0,0.6580237037044382,0.0,0.09121166666389198,0.7492353703683302
KDTree.intersect,0.4806679597423621,0.2712479192126821,0.02585380937311218,0.04637260793849474,0.8241422962666511
Launcher$AppClassLoader.loadClass,0.05655246468916244,0.0,0.0038969890255047476,0.0,0.06044945371466719
LightSample.setShadowRay,0.0,0.0,0.0,0.0,0.0
LoggingSupport.getLogger,0.0,0.0,0.0,0.0,0.0
Matrix4.transformPX,0.007594494316607106,0.0,0.00033967549401207984,0.0,0.007934169810619186
Matrix4.transformPY,0.0,0.0,0.0,0.0,0.0
Matrix4.transformPZ,0.012338082194287406,0.008788405487460451,0.0005608123936687594,0.001535350609651132,0.02322265068506775
MemberrefInfo.<init>,0.05327809297004965,0.0,0.004666610463107108,0.0,0.05794470343315676
MethodInfo.read,0.0,0.0,0.0,0.0,0.0
NullAccelerator.intersect,0.024315703636295406,0.010242049866421635,0.0009837615664247856,0.0018484587049481735,0.03738997377409001
PKCS7.parseSignedData,0.0,0.0,0.0,0.0,0.0
PNGImageReader.getDefaultReadParam,0.0,0.0,0.0,0.0,0.0
QMC.<clinit>,0.0,0.0,0.0,0.0,0.0
QMC.halton,0.0,0.0,0.0,0.0,0.0
Ray.<init>,0.0,0.025917451602900574,0.0,0.004683090820018504,0.030600542422919076
Ray.getMax,0.0,0.03180326857452577,0.0,0.006513896532717358,0.03831716510724313
Ray.getMin,0.0,0.0,0.0,0.0,0.0
Ray.isInside,0.0,0.020003532095378383,0.0,0.0033426712683615953,0.02334620336373998
Ray.setMax,0.0,0.0,0.0,0.0,0.0
Ray.transform,0.06423205378791115,0.055884625470790435,0.0033690732747570333,0.011040978248564258,0.13452673078202287
Resource.getBytes,0.0,0.0,0.0,0.0,0.0
Scene.trace,0.044205997151006246,0.0,0.0021479230765175366,0.0,0.046353920227523784
Scene.traceShadow,0.0,0.0,0.0,0.0,0.0
ShadingState.getPoint,0.0,0.0,0.0,0.0,0.0
SignatureFileVerifier.processImpl,0.0,0.0,0.0,0.0,0.0
SignatureFileVerifier.updateSigners,0.0,0.0,0.0,0.0,0.0
Solvers.solveQuadric,0.0,0.0,0.0,0.0,0.0
Sphere.intersectPrimitive,0.0,0.0,0.0,0.0,0.0
SubImageInputStream.read,0.0,0.0,0.0,0.0,0.0
SunToolkit.initEQ,0.0,0.0,0.0,0.0,0.0
TestHarness.twoDecimalPlaces,0.0,0.0,0.0,0.0,0.0
TriangleMesh$WaldTriangle.intersect,0.09019627090410227,0.1275055426676147,0.004954902245899745,0.02258060964760579,0.24523732546522253
TriangleMesh.getPoint,0.027203815384564223,0.0,0.0017196923075691582,0.0,0.028923507692133383
TriangleMesh.intersectPrimitive,0.01866295518849185,0.0,0.0008521751526423613,0.0,0.01951513034113421
TriangleMeshLight$TriangleLight.getSamples,0.12649384951835518,0.017598740289740455,0.006088242970458208,0.0027391011797321257,0.15291993395828596
TriangleMeshLight$TriangleLight.intersectTriangleKensler,0.0,0.0,0.0,0.0,0.0
URLClassPath$JarLoader.checkResource,0.07810884581186013,0.0,0.004821258977007791,0.0,0.08293010478886792
UTF_8$Decoder.decode,0.0,0.0,0.0,0.0,0.0
Utf8Info.<init>,0.041748227777653586,0.0,0.001965309000343136,0.0,0.04371353677799672
Vector3.<init>,0.010328151238496916,0.0,0.00047998044339035646,0.0,0.010808131681887273
Vector3.dot,0.0,0.0,0.0,0.0,0.0
Vector3.length,0.0,0.0,0.0,0.0,0.0
X509Factory.engineGenerateCertPath,0.07562097374544363,0.0,0.004557595258285311,0.0,0.08017856900372894
