method,hits
AppContext$2.run,1
Benchmark$BenchmarkScene.buildCornellBox,1
Benchmark.<init>,1
BoundingBox.getMaximum,2
BoundingBox.getMinimum,2
BoundingIntervalHierarchy.intersect,86
BucketRenderer.renderBucket,5
Chaperone.retire,1
ClassInfo.<init>,1
Color.blend,1
Color.mul,1
CommandLineArgs.<clinit>,1
ConfigFile.<init>,1
DSA.generateV,2
DSA.generateW,1
DacapoClassLoader.loadClass,3
Geometry.intersect,7
ImageTypeSpecifier.createBufferedImage,1
Instance.intersect,6
InstanceList.getNumPrimitives,1
InstanceList.intersectPrimitive,1
InstantGI.getIrradiance,15
IntersectionState.getStack,1
KDTree.build,1
KDTree.buildTree,18
KDTree.intersect,61
Launcher$AppClassLoader.loadClass,3
LightSample.setRadiance,1
LightSample.setShadowRay,2
LightServer$1.run,1
LoggingSupport.getLogger,1
Matrix4.transformPX,3
Matrix4.transformPY,1
Matrix4.transformPZ,6
NullAccelerator.intersect,1
OrthoNormalBasis.makeFromW,1
PKCS9Attribute.<clinit>,1
PNGImageReader.decodePass,1
PNGImageReaderSpi.createReaderInstance,1
QMC.<clinit>,1
QMC.halton,1
RAFImageInputStreamSpi.<clinit>,1
RDN.<init>,1
Ray.<init>,6
Ray.getMax,2
Ray.getMin,1
Ray.isInside,3
Ray.transform,19
Scene.<init>,1
Scene.traceShadow,1
ShadingState.addSample,1
ShadingState.init,1
Solvers.solveQuadric,1
Sphere.intersectPrimitive,1
SunToolkit.initEQ,1
SunflowAPI.options,1
TestHarness.main,1
TriangleMesh$WaldTriangle.intersect,37
TriangleMesh.getPoint,2
TriangleMesh.intersectPrimitive,5
TriangleMeshLight$TriangleLight.getSamples,17
TriangleMeshLight.access$2900,1
Utf8Info.<init>,1
Vector3.dot,1
X509CertInfo.parse,1
X509Factory.<clinit>,1
