method,hits
BezierMesh.getPatchPoint,1
BoundingBox.getMaximum,1
BoundingBox.getMinimum,1
BoundingIntervalHierarchy.intersect,64
BucketRenderer$ImageSample.checkNanInf,1
BucketRenderer.renderBucket,5
Color.<init>,1
Color.blend,2
Color.copy,2
Color.isNan,1
Color.madd,1
Config.parse,1
ConstPool.write,1
Geometry.intersect,9
ImageIO.<clinit>,1
InnerClassesAttribute.<init>,1
InputStreamImageInputStreamSpi.createInputStreamInstance,1
Instance.intersect,3
Instance.update,1
InstanceList.getNumPrimitives,1
InstanceList.intersectPrimitive,2
InstantGI.getIrradiance,5
IntersectionState.setIntersection,1
KDTree$BuildTask.<init>,1
KDTree.buildTree,23
KDTree.intersect,83
KDTree.radix12,1
KDTree.unpackObject,1
LightSample.setShadowRay,3
LightServer.getRadiance,1
LightServer.getScene,1
Matrix4.transformPX,2
Matrix4.transformPY,1
Matrix4.transformPZ,1
NullAccelerator.intersect,3
PNGImageReader.<init>,1
PNGImageReaderSpi.createReaderInstance,1
PlatformLogger$JavaLoggerProxy.<clinit>,1
QMC.halton,1
Ray.<init>,5
Ray.getMax,5
Ray.getMin,1
Ray.isInside,5
Ray.transform,12
SHA.implCompress,1
Scene.traceShadow,2
ShadingState.addSample,2
ShadingState.getPoint,1
ShadingState.traceShadow,2
Sphere.intersectPrimitive,1
SubRegistry.<init>,1
SunToolkit.initEQ,1
TriangleMesh$WaldTriangle.intersect,41
TriangleMesh.getPoint,2
TriangleMesh.intersectPrimitive,8
TriangleMeshLight$TriangleLight.getSamples,21
TriangleMeshLight$TriangleLight.intersectTriangleKensler,1
TriangleMeshLight.access$2900,1
Vector3.dot,1
X509CertImpl.parse,1
