method,package1,package2,dram1,dram2,energy
AppContext$2.run|AppContext$2.run|AccessController.doPrivileged,0.05871342251713602,0.0,0.004590290661593337,0.0,0.06330371317872936
Benchmark.<init>|NativeConstructorAccessorImpl.newInstance0|NativeConstructorAccessorImpl.newInstance,0.0,0.0,0.0,0.0,0.0
Benchmark.kernelMain|NativeMethodAccessorImpl.invoke0|NativeMethodAccessorImpl.invoke,0.2412309753880923,0.0,0.016937354975932798,0.0,0.2581683303640251
BoundingBox.getMaximum|KDTree.intersect|Geometry.intersect,0.0,0.0,0.0,0.0,0.0
BoundingIntervalHierarchy.intersect|Scene.trace|Scene.traceShadow,0.3368946842250599,0.12358159229464527,0.015862624206587753,0.02159034837298262,0.49792924909927555
BucketRenderer$ImageSample.processed|BucketRenderer.refineSamples|BucketRenderer.renderBucket,0.004508093023232082,0.0,0.0002054651162917401,0.0,0.004713558139523823
BucketRenderer$ImageSample.sampled|BucketRenderer.refineSamples|BucketRenderer.renderBucket,0.0,0.0,0.0,0.0,0.0
BucketRenderer.refineSamples|BucketRenderer.refineSamples|BucketRenderer.refineSamples,0.024987772893687327,0.0,0.0010689285716067296,0.0,0.02605670146529406
BucketRenderer.renderBucket|BucketRenderer.access$300|BucketRenderer$BucketThread.run,0.0,0.0,0.0,0.0,0.0
CodeAttribute.<init>|AttributeInfo.read|CodeAttribute.<init>,0.0,0.0,0.0,0.0,0.0
Color.blend|InstantGI.getIrradiance|LightServer.getIrradiance,0.0,0.0,0.0,0.0,0.0
Color.madd|BucketRenderer.renderBucket|BucketRenderer.access$300,0.0,0.0,0.0,0.0,0.0
Color.madd|InstantGI.getIrradiance|LightServer.getIrradiance,0.0,0.0109580243900759,0.0,0.0019715853658697864,0.012929609755945686
Config.printThreadModel|TestHarness.runBenchmark|TestHarness.main,0.0,0.0,0.0,0.0,0.0
ConstPool.readOne|ConstPool.read|ConstPool.<init>,0.07213439829790341,0.0,0.0055695926361766755,0.0,0.07770399093408009
Geometry.intersect|Instance.intersect|InstanceList.intersectPrimitive,0.030783079723799848,0.006417209302314806,0.001317031613210781,0.001175930232674609,0.03969325087200005
ISO_8859_1$Encoder.implReplaceWith|CharsetEncoder.replaceWith|CharsetEncoder.<init>,0.0,0.0,0.0,0.0,0.0
ImageIO.getImageReaders|ImageIO.read|ImageIO.read,0.03677925803815202,0.0,0.002755296696909611,0.0,0.03953455473506163
InputStreamImageInputStreamSpi.createInputStreamInstance|ImageIO.createImageInputStream|ImageIO.read,0.0,0.0,0.0,0.0,0.0
Instance.intersect|InstanceList.intersectPrimitive|BoundingIntervalHierarchy.intersect,0.030157046511598055,0.04278092820675923,0.0013259302325232692,0.00632469811421892,0.08058860306509946
InstantGI.getIrradiance|LightServer.getIrradiance|ShadingState.getIrradiance,0.03350661246113422,0.03136540893235321,0.0015344796804238833,0.005732802853260369,0.0721393039271717
IntersectionState.getStackTop|BoundingIntervalHierarchy.intersect|Scene.trace,0.0,0.0,0.0,0.0,0.0
IntersectionState.getStackTop|KDTree.intersect|Geometry.intersect,0.0,0.0109580243900759,0.0,0.0019715853658697864,0.012929609755945686
KDTree.buildTree|KDTree.buildTree|KDTree.buildTree,0.0,0.08582057970815568,0.0,0.009495652172346663,0.09531623188050234
KDTree.buildTree|KDTree.build|Geometry.build,0.0,0.17325130434904204,0.0,0.017769565216123894,0.19102086956516592
KDTree.intersect|Geometry.intersect|Instance.intersect,0.14633759268019417,0.2647022372214289,0.006133901582229633,0.04771403771717455,0.4648877692010272
LightSample.setShadowRay|TriangleMeshLight$TriangleLight.getSamples|LightServer.initLightSamples,0.0,0.0,0.0,0.0,0.0
LightServer$1.run|Thread.run|end.end,0.0,0.0,0.0,0.0,0.0
LightServer.getRadiance|Scene.getRadiance|BucketRenderer.computeSubPixel,0.0,0.0,0.0,0.0,0.0
Matrix4.transformPX|Ray.transform|Instance.intersect,0.0,0.03751853512696315,0.0,0.0065164674254956706,0.04403500255245882
Matrix4.transformPZ|Ray.transform|Instance.intersect,0.0,0.0,0.0,0.0,0.0
NormalizerBase.<clinit>|Normalizer.normalize|AVA.toRFC2253CanonicalString,0.052039399344802534,0.0,0.0038275300920103407,0.0,0.05586692943681287
NullAccelerator.intersect|Geometry.intersect|Instance.intersect,0.0,0.0014231463412615107,0.0,0.0002469512195292315,0.0016700975607907421
PKCS9Attribute.<clinit>|AVAKeyword.<clinit>|AVA.toKeyword,0.0,0.0,0.0,0.0,0.0
Point3.normal|TriangleMesh.prepareShadingState|Geometry.prepareShadingState,0.02582955319140889,0.0,0.0011795744680096099,0.0,0.0270091276594185
QMC.<clinit>|LightServer$1.run|Thread.run,0.0,0.0,0.0,0.0,0.0
QMC.halton|BucketRenderer.computeSubPixel|BucketRenderer.refineSamples,0.013550886548873974,0.0,0.0004657438855899628,0.0,0.014016630434463937
RAFImageInputStreamSpi.<clinit>|IIORegistry.registerStandardSpis|IIORegistry.<init>,0.0,0.0,0.0,0.0,0.0
Ray.<init>|GlassShader.getRadiance|LightServer.getRadiance,0.0,0.0,0.0,0.0,0.0
Ray.<init>|InstantGI.getIrradiance|LightServer.getIrradiance,0.01633177526137345,0.0,0.0007486724738935773,0.0,0.017080447735267026
Ray.<init>|TriangleMeshLight$TriangleLight.getSamples|LightServer.initLightSamples,0.0,0.0,0.0,0.0,0.0
Ray.getDirection|GlassShader.getRadiance|LightServer.getRadiance,0.0207940773808072,0.0,0.0008675892851052983,0.0,0.0216616666659125
Ray.getMax|BoundingIntervalHierarchy.intersect|Scene.trace,0.0,0.0,0.0,0.0,0.0
Ray.getMax|Instance.intersect|InstanceList.intersectPrimitive,0.0,0.0,0.0,0.0,0.0
Ray.getMax|InstantGI.getIrradiance|LightServer.getIrradiance,0.0,0.0,0.0,0.0,0.0
Ray.getMax|KDTree.intersect|Geometry.intersect,0.01819810087744643,0.003474853523125889,0.0006918421053374082,0.0005885196112597005,0.02295331611716943
Ray.isInside|TriangleMesh$WaldTriangle.intersect|TriangleMesh.intersectPrimitive,0.05975950091388264,0.06109063540756407,0.003023093906000332,0.01143854011042493,0.13531177033787198
Ray.setMax|Instance.intersect|InstanceList.intersectPrimitive,0.0,0.0,0.0,0.0,0.0
Ray.transform|Instance.intersect|InstanceList.intersectPrimitive,0.05528200131610358,0.0,0.002305657822238811,0.0,0.05758765913834239
ShadingState.addSample|TriangleMeshLight$TriangleLight.getSamples|LightServer.initLightSamples,0.0,0.0303097046615145,0.0,0.005846979116742254,0.03615668377825675
ShadingState.createState|LightServer.getRadiance|Scene.getRadiance,0.0,0.0,0.0,0.0,0.0
ShadingState.getPoint|TriangleMeshLight$TriangleLight.getSamples|LightServer.initLightSamples,0.017960103161469128,0.0,0.0007349445146711505,0.0,0.01869504767614028
ShadingState.traceShadow|InstantGI.getIrradiance|LightServer.getIrradiance,0.0,0.00489706976745028,0.0,0.0008554009024746969,0.005752470669924977
Solvers.solveQuadric|Sphere.intersectPrimitive|NullAccelerator.intersect,0.0,0.0,0.0,0.0,0.0
Sphere.intersectPrimitive|NullAccelerator.intersect|Geometry.intersect,0.1083527500004493,0.0,0.0053324999989854405,0.0,0.11368524999943475
SunflowAPI.reset|SunflowAPI.<init>|Benchmark$BenchmarkScene.<init>,0.07036055120871516,0.0,0.005083864019503287,0.0,0.07544441522821844
TestHarness.twoDecimalPlaces|TestHarness.<clinit>|Harness.main,0.0,0.0,0.0,0.0,0.0
TriangleMesh$WaldTriangle.intersect|TriangleMesh.intersectPrimitive|KDTree.intersect,0.33230801731207077,0.23245148876206373,0.015507248290591519,0.038438783911316485,0.6187055382760425
TriangleMesh$WaldTriangle.intersect|TriangleMesh.intersectPrimitive|NullAccelerator.intersect,0.0,0.0,0.0,0.0,0.0
TriangleMesh.intersectPrimitive|KDTree.intersect|Geometry.intersect,0.03211466122654614,0.04922329141454713,0.001575048468255521,0.009432811341206108,0.0923458124505549
TriangleMesh.prepareShadingState|Geometry.prepareShadingState|Instance.prepareShadingState,0.008933555016178471,0.0,0.00048476655140923487,0.0,0.009418321567587706
TriangleMeshLight$TriangleLight.getSamples,0.011159699718973766,0.015951391304438206,0.00045268133263448606,0.0030560869566650817,0.030619859312711536
TriangleMeshLight$TriangleLight.getSamples|LightServer.initLightSamples|ShadingState.initLightSamples,0.06102133643307388,0.08322801467535848,0.002251600364922617,0.015124172115533855,0.1616251235888888
TriangleMeshLight.access$2600|TriangleMeshLight$TriangleLight.getSamples|LightServer.initLightSamples,0.02599436235851264,0.0,0.0015753583664658024,0.0,0.02756972072497844
Vector3.<clinit>|Benchmark$BenchmarkScene.buildCornellBox|Benchmark$BenchmarkScene.build,0.05947488957414685,0.0,0.004505411080294089,0.0,0.06398030065444094
Vector3.div|TriangleMeshLight$TriangleLight.getSamples|LightServer.initLightSamples,0.023828268292673763,0.014541401612639731,0.0009439024390037336,0.0025603185485271107,0.04187389089284434
Vector3.dot|TriangleMeshLight$TriangleLight.getSamples|LightServer.initLightSamples,0.0,0.0,0.0,0.0,0.0
Vector3.length|TriangleMeshLight$TriangleLight.getSamples|LightServer.initLightSamples,0.0,0.015326841711340513,0.0,0.0023647590511370093,0.017691600762477524
X509Factory.engineGenerateCertificate|CertificateFactory.generateCertificate|PKCS7.parseSignedData,0.0,0.0,0.0,0.0,0.0
