method,package1,package2,dram1,dram2,energy
Attributes.read,0.0,0.0,0.0,0.0,0.0
BigInteger.mulAdd,0.05714900000020861,0.0,0.0041799999986930425,0.0,0.06132899999890165
BufferedInputStream.read,0.0,0.0,0.0,0.0,0.0
Class.getConstructor0,0.0,0.0,0.0,0.0,0.0
ClassLoader.defineClass1,0.0,0.0,0.0,0.0,0.0
ComponentColorModel.extractComponent,0.033499714286465726,0.0,0.002040000002515236,0.0,0.035539714288980964
ComponentColorModel.getNormalizedComponents,0.08684428571411575,0.0,0.00610285714044169,0.0,0.09294714285455744
DataBuffer.<clinit>,0.0,0.0,0.0,0.0,0.0
Inflater.inflateBytes,0.0,0.0717900078272089,0.0,0.010329542733613684,0.08211955056082258
Logger.getPlatformLogger,0.0,0.0,0.0,0.0,0.0
LoggingProxyImpl.getLogger,0.0,0.07314240653863836,0.0,0.01050876550317787,0.08365117204181624
MutableBigInteger.mulsub,0.0,0.0,0.0,0.0,0.0
Normalizer.normalize,0.0,0.0,0.0,0.0,0.0
Object.<init>,0.0,0.0,0.0,0.0,0.0
Pattern.newSlice,0.0,0.0,0.0,0.0,0.0
StrictMath.acos,0.03011683418644428,0.03653576844834309,0.0018617590681535075,0.006671738519546317,0.07518610022248719
Thread.init,0.009565273156352928,0.0,0.0005805699668447024,0.0,0.01014584312319763
ZipFile$ZipFileInflaterInputStream.fill,0.0,0.0,0.0,0.0,0.0
ZipFile.getEntry,0.0,0.0,0.0,0.0,0.0
