method,package1,package2,dram1,dram2,energy
BigInteger.implMulAdd|BigInteger.mulAdd|BigInteger.montReduce,0.07092916158905499,0.0,0.004829630139609857,0.0,0.07575879172866484
BigInteger.multiplyToLen|BigInteger.implMontgomeryMultiply|BigInteger.montgomeryMultiply,0.055237081953732836,0.0,0.0032285012760960635,0.0,0.0584655832298289
BufferedInputStream.read|DataInputStream.readUnsignedShort|DataInputStream.readUTF,0.039394201983376335,0.0,0.002419653128958868,0.0,0.0418138551123352
BufferedWriter.ensureOpen|BufferedWriter.write|PrintWriter.write,0.0,0.0,0.0,0.0,0.0
Class.forName0|Class.forName|TestHarness.findClass,0.0,0.0,0.0,0.0,0.0
ClassLoader$NativeLibrary.load|ClassLoader.loadLibrary0|ClassLoader.loadLibrary,0.05474487027715416,0.0,0.0033908958337801514,0.0,0.058135766110934316
ClassLoader.defineClass1|ClassLoader.defineClass|SecureClassLoader.defineClass,0.0590143082472277,0.0,0.0030560547372609995,0.0,0.062070362984488696
Collections$UnmodifiableCollection.size|ResourceBundle.loadBundle|ResourceBundle.findBundle,0.0,0.0,0.0,0.0,0.0
DataBuffer.<clinit>|ImageTypeSpecifier.createComponentCM|ImageTypeSpecifier$Interleaved.<init>,0.050407050304349985,0.0,0.004001245751241621,0.0,0.0544082960555916
DataInputStream.readUTF|DataInputStream.readUTF|Utf8Info.<init>,0.08208957968996551,0.0,0.005268986941089525,0.0,0.08735856663105504
DataInputStream.readUnsignedShort|ClassInfo.<init>|ConstPool.readOne,0.0,0.0,0.0,0.0,0.0
Float.floatToRawIntBits|BoundingIntervalHierarchy.intersect|Scene.trace,0.0,0.06934675779858487,0.0,0.012673566023113323,0.0820203238216982
Inflater.inflateBytes|Inflater.inflate|InflaterInputStream.read,0.051586064895886345,0.0,0.0037454793773964994,0.0,0.055331544273282844
Normalizer.normalize|AVA.toRFC2253CanonicalString|RDN.toRFC2253StringInternal,0.059728083552317374,0.0,0.004020447894029561,0.0,0.06374853144634693
Object.<init>|Vector3.<init>|TriangleMeshLight$TriangleLight.getSamples,0.0,0.0,0.0,0.0,0.0
StrictMath.acos|Math.acos|TriangleMeshLight$TriangleLight.getSamples,0.024862328591467173,0.06484179205402243,0.0011373304850792443,0.010324179405914805,0.10116563053648366
URLClassLoader.findClass|ClassLoader.loadClass|Launcher$AppClassLoader.loadClass,0.05895688032489384,0.0,0.004549407487353325,0.0,0.06350628781224717
