method,hits
AppContext$2.run,1
BaseLocale$Cache.createObject,1
Benchmark$BenchmarkScene.buildCornellBox,1
BigInteger.implMulAddCheck,1
BigInteger.modInverse,1
BigInteger.multiplyToLen,1
BoundingBox.getMaximum,1
BoundingIntervalHierarchy.intersect,61
BucketRenderer$ImageSample.bilerp,1
BucketRenderer$ImageSample.sampled,1
BucketRenderer$ImageSample.set,1
BucketRenderer.refineSamples,1
BucketRenderer.renderBucket,5
BufferedImage.<init>,1
BufferedInputStream.<init>,1
BufferedInputStream.read,1
ByteInterleavedRaster.getDataElements,1
CalendarSystem.<clinit>,1
Camera.updateCameraMatrix,1
Class.getDeclaredConstructors0,1
ClassLoader.findBootstrapClass,1
Color.blend,5
Color.copy,5
ColorSpace.getInstance,1
ComponentColorModel.getRed,1
Config.parse,1
ConfigFile.configOption,1
ConstPool.makeItemsCache,1
Disposer.<clinit>,1
FileCacheImageInputStream.<init>,1
FileOutputStream.writeBytes,1
FilePermission.<init>,1
Formatter$FormatSpecifier.conversion,1
Geometry.intersect,9
IIORegistry.getDefaultInstance,1
Inflater.inflateBytes,1
InputStreamImageInputStreamSpi.createInputStreamInstance,1
Instance.intersect,4
InstantGI.getIrradiance,8
IntersectionState.getStack,2
IntersectionState.getStackTop,4
IntersectionState.hit,3
IntersectionState.setIntersection,1
KDTree$BuildTask.<init>,1
KDTree.buildTree,5
KDTree.intersect,70
KDTree.radix12,2
LightSample.setRadiance,1
LightSample.setShadowRay,3
LightServer$1.run,1
Logger.<init>,1
MapMaker.make,1
Matrix4.transformPX,2
NullAccelerator.intersect,2
Object.<init>,1
PNGImageReader.<init>,1
PNGImageReaderSpi.createReaderInstance,1
PartiallyOrderedSet.add,1
Pattern.escape,1
QMC.halton,1
Ray.<init>,11
Ray.getMax,10
Ray.isInside,7
Ray.setMax,1
Ray.transform,5
Reference.<init>,1
Scene.getRadiance,1
Scene.render,1
Scene.traceShadow,1
ShadingState.addSample,1
ShadingState.createState,1
ShadingState.getPoint,1
ShadingState.init,1
ShadingState.traceShadow,2
Sphere.intersectPrimitive,2
StrictMath.acos,3
String.hashCode,1
TriangleMesh$WaldTriangle.intersect,41
TriangleMesh.intersectPrimitive,8
TriangleMeshLight$TriangleLight.getSamples,26
TriangleMeshLight$TriangleLight.intersectTriangleKensler,1
Vector3.dot,3
Vector3.normalize,1
X509Factory.engineGenerateCertificate,1
