time,sys_package,sys_dram,sock1_app_package,sock1_app_dram,sock2_app_package,sock2_app_dram
0,0.0,0.0,0.0,0.0,0.0,0.0
1,0.0,0.0,0.0,0.0,0.0,0.0
2,0.0,0.0,0.0,0.0,0.0,0.0
3,0.0,0.0,0.0,0.0,0.0,0.0
4,0.0,0.0,0.0,0.0,0.0,0.0
5,0.0,0.0,0.0,0.0,0.0,0.0
6,0.0,0.0,0.0,0.0,0.0,0.0
7,0.0,0.0,0.0,0.0,0.0,0.0
8,0.0,0.0,0.0,0.0,0.0,0.0
9,0.0,0.0,0.0,0.0,0.0,0.0
10,0.07162364794103564,0.006932640324930234,0.05386922768839175,0.003842211460390507,0.0828856666679106,0.009560000001026006
11,0.0,0.0,0.0,0.0,0.0,0.0
12,0.009768580423370987,0.001011018490190902,0.008089300877864783,0.0005707185186054107,0.01043700000203292,0.0013799999990927365
13,0.0,0.0,0.0,0.0,0.0,0.0
14,0.01064374201168052,0.0009975356654006126,0.008469565408901342,0.0005689787908487746,0.011759666665360177,0.0013550000003306195
15,0.0,0.0,0.0,0.0,0.0,0.0
16,0.0,0.0,0.0,0.0,0.0,0.0
17,0.0,0.0,0.0,0.0,0.0,0.0
18,0.011231179556558403,0.0010961900258457313,0.011114326092129955,0.0007334519435410477,0.010152000002563,0.0013799999990927365
19,0.0,0.0,0.0,0.0,0.0,0.0
20,0.10557782252418782,0.010145814233612603,0.007446132938584606,0.0005297893732330206,0.07664499999737018,0.010721250000642613
21,0.0,0.0,0.0,0.0,0.0,0.0
22,0.03053485289363539,0.002758614797025098,0.007249521000940138,0.0005096577120776519,0.01606750000246393,0.0020475000001169974
23,0.0,0.0,0.0,0.0,0.0,0.0
24,0.11597262885622274,0.011430559442667427,0.008856454762823995,0.0006526257580677323,0.05323799999860057,0.008250000000771252
25,0.0,0.0,0.0,0.0,0.0,0.0
26,0.10975867996450957,0.009572541246484299,0.0076934766198979015,0.0005915191202874874,0.04553200000009383,0.005201250000027358
27,0.0,0.0,0.0,0.0,0.0,0.0
28,0.1070182106714633,0.008944374928365237,0.007968085733689194,0.0005954111635936022,0.04290774999753921,0.004627500000424335
29,0.0,0.0,0.0,0.0,0.0,0.0
30,0.14319922162450685,0.014570589395970838,0.00696586722250361,0.0005247469839957108,0.12290466667036525,0.01682499999878928
31,0.0,0.0,0.0,0.0,0.0,0.0
32,0.03001315979741964,0.002823607792389599,0.00525035946401766,0.0003939903708468864,0.02148433333301606,0.002755000001343433
33,0.0,0.0,0.0,0.0,0.0,0.0
34,0.12155436214303665,0.011676178027915849,0.0102660247178779,0.0007663504910343296,0.0776366666686954,0.010999999998603016
35,0.0,0.0,0.0,0.0,0.0,0.0
36,0.11708837383391554,0.010082062873171014,0.008746287720803481,0.0006485931511400452,0.06205233332972662,0.007399999999809855
37,0.0,0.0,0.0,0.0,0.0,0.0
38,0.1000219145190955,0.004735179319612836,0.010971953976959856,0.0004978666928990706,0.05194100000032146,0.002749999999650754
39,0.0,0.0,0.0,0.0,0.0,0.0
40,0.13447866945843368,0.012160934269395872,0.009523750158412768,0.0006907747358440223,0.1140340000007806,0.013085000001107495
41,0.0,0.0,0.0,0.0,0.0,0.0
42,0.03201152013486008,0.0028573044711962614,0.005872475660320854,0.00041481236838852777,0.021911666665497855,0.0027399999986907155
43,0.0,0.0,0.0,0.0,0.0,0.0
44,0.13153145144816025,0.013019678894753525,0.008179076636825265,0.0006595131461628196,0.09267166666783548,0.012300000002142042
45,0.0,0.0,0.0,0.0,0.0,0.0
46,0.10637316469377928,0.011718046124893109,0.005675177183170563,0.0005013820293828841,0.07147199999841783,0.010954999997920822
47,0.0,0.0,0.0,0.0,0.0,0.0
48,0.10579789470862275,0.011079804180203292,0.00981763979663517,0.0008958784717202582,0.07346599999921939,0.009555000001758645
49,0.0,0.0,0.0,0.0,0.0,0.0
50,0.19937038107950128,0.027775677770746198,0.04452001826434741,0.00415603234751719,0.0,0.0
51,0.0,0.0,0.0,0.0,0.0,0.0
52,0.05986160850149813,0.0074950196312435,0.02355867641113364,0.0019367914747013795,0.0,0.0
53,0.0,0.0,0.0,0.0,0.0,0.0
54,0.12879466131383693,0.0167454232729303,0.04924620081001385,0.0040395650876378355,0.0,0.0
55,0.0,0.0,0.0,0.0,0.0,0.0
56,0.10186437264723805,0.012936965599944207,0.0430429251235225,0.0028482937494394085,0.0,0.0
57,0.0,0.0,0.0,0.0,0.0,0.0
58,0.1188543592204649,0.014331232975902136,0.03662727862166471,0.0024342687744592275,0.0,0.0
59,0.0,0.0,0.0,0.0,0.0,0.0
60,0.2458192542681551,0.025251388114124158,0.05835187243982646,0.0014316968352656786,0.0,0.0
61,0.0,0.0,0.0,0.0,0.0,0.0
62,0.03674348854477595,0.0032843712016758157,0.014125587406055861,0.0003808256006310671,0.0,0.0
63,0.0,0.0,0.0,0.0,0.0,0.0
64,1.3009088908798447,0.14700325374154052,0.21833636735190512,0.0021247701547028822,0.0,0.0
65,0.0,0.0,0.0,0.0,0.0,0.0
66,0.0,0.0,0.0,0.0,0.0,0.0
67,0.0,0.0,0.0,0.0,0.0,0.0
68,0.003908584465481421,0.0003286905886354086,0.007414132806405339,0.000623488042251712,0.0,0.0
69,0.0,0.0,0.0,0.0,0.0,0.0
70,0.08748439672702689,0.011267794126490097,0.01619453601104592,0.0013444731869322012,0.0,0.0
71,0.0,0.0,0.0,0.0,0.0,0.0
72,0.020142313899818683,0.0021512915405583265,0.006348619948903132,0.00046052439699149764,0.0,0.0
73,0.0,0.0,0.0,0.0,0.0,0.0
74,0.0,0.0002097578113005371,0.0,0.000530090782386526,0.0,0.0
75,0.0,0.0,0.0,0.0,0.0,0.0
76,0.13732828560652793,0.013254921384915627,0.024772405117521157,0.0019969819814620203,0.0,0.0
77,0.0,0.0,0.0,0.0,0.0,0.0
78,0.15453260336588043,0.015935591246240145,0.03191009452068045,0.0007985287095477342,0.0,0.0
79,0.0,0.0,0.0,0.0,0.0,0.0
80,0.186577428009912,0.02291522085981152,0.03799344886379942,0.00044008988575376494,0.0,0.0
81,0.0,0.0,0.0,0.0,0.0,0.0
82,0.07652436613388758,0.008653333333010474,0.023777488341481336,0.0,0.0,0.0
83,0.0,0.0,0.0,0.0,0.0,0.0
84,0.11942567900860375,0.01469333333403079,0.037067158364084585,0.0,0.0,0.0
85,0.0,0.0,0.0,0.0,0.0,0.0
86,0.1283860258228589,0.013082009527591643,0.03908141051643296,0.0005348326552541225,0.0,0.0
87,0.0,0.0,0.0,0.0,0.0,0.0
88,0.12578151562117418,0.015669037078568152,0.043160021452122874,0.0021240693998527726,0.0,0.0
89,0.0,0.0,0.0,0.0,0.0,0.0
90,0.019845420360687455,0.0016897896049409215,0.04268353223925009,0.0036343996634570163,0.0,0.0
91,0.0,0.0,0.0,0.0,0.0,0.0
92,0.08266470412629064,0.010050241330246693,0.03055226762261752,0.0025816154657271953,0.0,0.0
93,0.0,0.0,0.0,0.0,0.0,0.0
94,0.10077160673856178,0.011911225268391671,0.04313220036754004,0.0034629957177595987,0.0,0.0
95,0.0,0.0,0.0,0.0,0.0,0.0
96,0.13866351850228514,0.015196756609153872,0.04539453935823565,0.0034159532164314455,0.0,0.0
97,0.0,0.0,0.0,0.0,0.0,0.0
98,0.13221454978124048,0.01565729945558692,0.044465646010472884,0.0034221487000654608,0.0,0.0
99,0.0,0.0,0.0,0.0,0.0,0.0
100,0.2282013163859459,0.023789326391023345,0.06180334719583983,0.004936865250453024,0.0,0.0
101,0.0,0.0,0.0,0.0,0.0,0.0
102,0.14978071484915775,0.012414009135727964,0.04640223481190847,0.0035705856696343925,0.0,0.0
103,0.0,0.0,0.0,0.0,0.0,0.0
104,0.18610721666511992,0.018586329933479067,0.05917595671346649,0.004765605948391449,0.0,0.0
105,0.0,0.0,0.0,0.0,0.0,0.0
106,0.17776541766716436,0.01659008072668617,0.06133789388380334,0.004920956915588357,0.0,0.0
107,0.0,0.0,0.0,0.0,0.0,0.0
108,0.009530541359853378,0.0009924648909146263,0.007288741829497565,0.00056559776304589,0.0,0.0
109,0.0,0.0,0.0,0.0,0.0,0.0
110,0.20935266540717476,0.025808770602259553,0.12333391614433302,0.008852333114602135,0.0,0.0
111,0.0,0.0,0.0,0.0,0.0,0.0
112,0.015708789511832702,0.001966498504319378,0.01479838846619649,0.0004892568366294144,0.0,0.0
113,0.0,0.0,0.0,0.0,0.0,0.0
114,0.09040814940022651,0.009427381615764924,0.02630878283130075,0.0020671532126289053,0.0,0.0
115,0.0,0.0,0.0,0.0,0.0,0.0
116,0.10111740033910344,0.011171973873662543,0.04044653462288697,0.0031307051984058054,0.0,0.0
117,0.0,0.0,0.0,0.0,0.0,0.0
118,0.09484778740979759,0.01062895140678764,0.03058007185149557,0.002047028238568517,0.0,0.0
119,0.0,0.0,0.0,0.0,0.0,0.0
120,0.33893054596785954,0.036304728764535034,0.09911359325477052,0.007590181970961813,0.0,0.0
121,0.0,0.0,0.0,0.0,0.0,0.0
122,0.020741309010947267,0.002265974337156856,0.010603582624733359,0.0008567397748876261,0.0,0.0
123,0.0,0.0,0.0,0.0,0.0,0.0
124,0.16263207816988234,0.018411100397789842,0.061303845394959505,0.00420353058060429,0.0,0.0
125,0.0,0.0,0.0,0.0,0.0,0.0
126,0.14010080094644634,0.01663537594758248,0.061169718255466514,0.004805901541284996,0.0,0.0
127,0.0,0.0,0.0,0.0,0.0,0.0
128,0.11024859914951698,0.013701961545391292,0.07720847675982578,0.006541943602327616,0.15261850000024424,0.021652499999618158
129,0.0,0.0,0.0,0.0,0.0,0.0
130,0.006195701702848392,0.0007916135590442017,0.03787545390082898,0.002077952127907105,0.17255919131244551,0.02397570264415034
131,0.0,0.0,0.0,0.0,0.0,0.0
132,0.00037590815509174776,5.176405906242544e-05,0.0016153421984393178,7.095744679626224e-05,0.008185338083951886,0.0015527406657636932
133,0.0,0.0,0.0,0.0,0.0,0.0
134,0.0003471310431175125,5.225207568801408e-05,0.0014330677084331,7.187499992748296e-05,0.007723294092664137,0.0015666600402064234
135,0.0,0.0,0.0,0.0,0.0,0.0
136,0.003494619620928261,0.0005150960311506386,0.014832775510178763,0.0007248979592838379,0.07838571596080299,0.015490409907054059
137,0.0,0.0,0.0,0.0,0.0,0.0
138,0.001369369927457344,0.00018847795441261008,0.005667551020451356,0.0003391836736617343,0.031204699956152982,0.005486389267743914
139,0.0,0.0,0.0,0.0,0.0,0.0
140,0.008561494472620204,0.0011389488306730014,0.11464486838630036,0.005726166822107612,0.2224327466679582,0.038140307691542294
141,0.0,0.0,0.0,0.0,0.0,0.0
142,0.001133279274628427,0.00013950559169132509,0.013579938237509564,0.000672612790075714,0.026093099487240968,0.004460615386070015
143,0.0,0.0,0.0,0.0,0.0,0.0
144,0.0005715397358307516,7.013945319680841e-05,0.007004776923247758,0.00034836156404479936,0.012971796923606562,0.0022303076910499767
145,0.0,0.0,0.0,0.0,0.0,0.0
146,0.0044730508732257635,0.0004864950202153587,0.056019148734158176,0.002724265917774355,0.09849420718074092,0.015010584615326169
147,0.0,0.0,0.0,0.0,0.0,0.0
148,0.005534890403612937,0.0006274186462107967,0.07154750451822287,0.0030442883977949077,0.11751088820476956,0.01989270769149208
149,0.0,0.0,0.0,0.0,0.0,0.0
150,0.027668664208719225,0.0030410749864971647,0.5383761564946684,0.02474353752746413,0.5767802743884667,0.09728597561195604
151,0.0,0.0,0.0,0.0,0.0,0.0
152,0.002047005326722786,0.0002608499841083487,0.038379474699723685,0.002630199038707647,0.03660054877954969,0.006426676827686606
153,0.0,0.0,0.0,0.0,0.0,0.0
154,0.0022218096783410577,0.0002169074412954165,0.039594773963428656,0.0008786255863357157,0.04146286585215954,0.0063672256111181585
155,0.0,0.0,0.0,0.0,0.0,0.0
156,0.0010818676598152725,0.00011923285413923589,0.019638998491705847,0.0008788771629886453,0.019909024390804785,0.0031925304871792165
157,0.0,0.0,0.0,0.0,0.0,0.0
158,0.004091911423591092,0.00042864918303391324,0.07644826058431031,0.0034651515240184984,0.07143539634165699,0.011141158536302985
159,0.0,0.0,0.0,0.0,0.0,0.0
160,0.029585524919009065,0.003209407558274025,0.5298741463420588,0.024292682927164324,0.6577302614144785,0.10474986782601284
161,0.0,0.0,0.0,0.0,0.0,0.0
162,0.002112966478902448,0.0002319482806820313,0.03778243902360839,0.0017560975592038248,0.048855946756590184,0.00786298729674232
163,0.0,0.0,0.0,0.0,0.0,0.0
164,0.0021709830623265645,0.0002320234624058792,0.03802048780482613,0.001756097562753073,0.051133277078326614,0.007881584615430998
165,0.0,0.0,0.0,0.0,0.0,0.0
166,0.013588132599582959,0.0014907703719443763,0.24598634146258974,0.010448780482941558,0.3123364432719247,0.05162800046629049
167,0.0,0.0,0.0,0.0,0.0,0.0
168,0.002274267606379278,0.00024364585775774037,0.043885853660091345,0.001697560978865978,0.049257792864141885,0.008419697114121764
169,0.0,0.0,0.0,0.0,0.0,0.0
170,0.017084565554970503,0.0020004671143017743,0.3227532011567385,0.018723224684666986,0.37183067085739224,0.0680015050693829
171,0.0,0.0,0.0,0.0,0.0,0.0
172,0.0225772263466872,0.0026263186124827927,0.41658477501377056,0.01978250173155561,0.4423719171758377,0.08368617164030216
173,0.0,0.0,0.0,0.0,0.0,0.0
174,0.0005606992068243342,8.611399080376932e-05,0.009961895532086606,0.0010476083995654044,0.01140918235030654,0.0022947451093610948
175,0.0,0.0,0.0,0.0,0.0,0.0
176,0.000541294322944333,6.598007012735848e-05,0.010165767758407674,0.0007517823344160165,0.0104006111679574,0.0018156961306729307
177,0.0,0.0,0.0,0.0,0.0,0.0
178,0.00026769454966026296,4.502185952716136e-05,0.0,0.0,0.010795910322787546,0.0018156961306729307
179,0.0,0.0,0.0,0.0,0.0,0.0
180,0.053364224890228434,0.006343411814062033,0.9666358675997234,0.04550666426992422,1.2136170731696998,0.21038048780344362
181,0.0,0.0,0.0,0.0,0.0,0.0
182,0.0009759220740661475,0.00013330332318771501,0.018214995410877927,0.0008791728163771001,0.02164487805069857,0.004492682925135853
183,0.0,0.0,0.0,0.0,0.0,0.0
184,0.0010416310596394105,0.0001197609196814168,0.017911537608228115,0.000878926112555106,0.024562926828810137,0.003951219515307102
185,0.0,0.0,0.0,0.0,0.0,0.0
186,0.0010510625655143968,0.00011902946010189037,0.019492384210793565,0.0008789811745766287,0.02343170731697549,0.003921951219814307
187,0.0,0.0,0.0,0.0,0.0,0.0
188,0.0009717178101361308,0.00012012697539381072,0.017191096578706,0.000878665809409116,0.02244926829362379,0.003965853659504252
189,0.0,0.0,0.0,0.0,0.0,0.0
190,0.01063421012651378,0.0011838270701713814,0.20287488054460126,0.009553904832179955,0.23285874418544086,0.039653372092458124
191,0.0,0.0,0.0,0.0,0.0,0.0
192,0.0015977093499169879,0.00021001165795350284,0.01890112094514451,0.0008485680119771302,0.04718602325755095,0.007926279070298461
193,0.0,0.0,0.0,0.0,0.0,0.0
194,0.00046667497616071924,2.2020472285034688e-05,0.01861943665683975,0.0008785746179021496,0.0,0.0
195,0.0,0.0,0.0,0.0,0.0,0.0
196,0.0005840930231876648,9.348837201562059e-05,0.0,0.0,0.024531906973881926,0.003926511624656066
197,0.0,0.0,0.0,0.0,0.0,0.0
198,0.0010184956148938718,0.0001159816236721746,0.019742068678877338,0.0008488694438316943,0.021998232561007938,0.003977790697569809
199,0.0,0.0,0.0,0.0,0.0,0.0
200,0.011066157057304776,0.0013196000172319565,0.19696922251696936,0.009590733036560247,0.2545312195114802,0.043624390247448276
201,0.0,0.0,0.0,0.0,0.0,0.0
202,0.000996942924217189,0.00012031728590220701,0.018085687039170153,0.0008786805754227757,0.022598048778557457,0.003973170728053582
203,0.0,0.0,0.0,0.0,0.0,0.0
204,0.0009857555495708316,0.00012031830754865165,0.017434683881197763,0.0008789365901887206,0.02277658537112563,0.003973170731602828
205,0.0,0.0,0.0,0.0,0.0,0.0
206,0.0004148616170767462,2.0985580877963666e-05,0.017369941202006876,0.0008786503521552724,0.0,0.0
207,0.0,0.0,0.0,0.0,0.0,0.0
208,0.0010321894639873175,0.00011961673614118906,0.019850976242220746,0.0008497305877076085,0.022329756097084416,0.003973170735152074
209,0.0,0.0,0.0,0.0,0.0,0.0
210,0.01327497489944565,0.0015672036657110593,0.23192229773084386,0.01070253183578184,0.3007097560954963,0.05206097560869417
211,0.0,0.0,0.0,0.0,0.0,0.0
212,0.0016903651013456095,0.00021620022385415767,0.019600028419524247,0.0008192968203153984,0.04820292682824203,0.007836585363980797
213,0.0,0.0,0.0,0.0,0.0,0.0
214,0.005224261153556993,0.0006045670172597952,0.09162899211633556,0.004200686075293983,0.11432926829268296,0.01984390244171841
215,0.0,0.0,0.0,0.0,0.0,0.0
216,0.007890592115590702,0.0008785961489771957,0.14787663498918774,0.006718008554792235,0.1630980487793638,0.02821463414342938
217,0.0,0.0,0.0,0.0,0.0,0.0
218,0.008503718763880983,0.0009666109626873289,0.14824747127548152,0.00671658604845391,0.1871843902477938,0.03173414634458333
219,0.0,0.0,0.0,0.0,0.0,0.0
220,0.019204704645202936,0.0022719547988992142,0.3289913503729742,0.015189522747344336,0.44076292682935997,0.07576097561069196
221,0.0,0.0,0.0,0.0,0.0,0.0
222,0.0010388253410107268,0.00011821854862986507,0.01937318555181103,0.0008597567484406773,0.02334243902246604,0.003958536583856429
223,0.0,0.0,0.0,0.0,0.0,0.0
224,0.004165218097302335,0.00047592027526106954,0.07650933939046625,0.003397673383912465,0.0917014634135895,0.01586341463446776
225,0.0,0.0,0.0,0.0,0.0,0.0
226,0.010392325937465134,0.0011903046751929824,0.18518669361558968,0.008626125004741695,0.23586390243996516,0.03960731707260625
227,0.0,0.0,0.0,0.0,0.0,0.0
228,0.006253936870001888,0.000713329996971209,0.11285103113594987,0.005155836709166286,0.14008292682730122,0.023729268293941345
229,0.0,0.0,0.0,0.0,0.0,0.0
230,0.03902156073841963,0.004242048336512948,0.7390588987251158,0.033830520079569416,0.86045835095133,0.14253250528454908
231,0.0,0.0,0.0,0.0,0.0,0.0
232,0.0012024511880238391,0.00015317266137845513,0.017899112723283227,0.0008091492440045795,0.030715496828580227,0.00541427061281373
233,0.0,0.0,0.0,0.0,0.0,0.0
234,0.000463882282679205,5.4692266118180305e-05,0.008644998526341579,0.00041122056321751636,0.010067124735801748,0.0018080866807135487
235,0.0,0.0,0.0,0.0,0.0,0.0
236,0.0004740632680224335,5.435819865104513e-05,0.00872448886120325,0.0004013809193356497,0.010405655391120512,0.001804756871476301
237,0.0,0.0,0.0,0.0,0.0,0.0
238,0.005052360323745696,0.0005461968909773214,0.09950124795486161,0.004082420963489206,0.10424613107941115,0.01808419661637273
239,0.0,0.0,0.0,0.0,0.0,0.0
240,0.030203224278658687,0.0036670957394661892,0.555470023255915,0.027837209302666692,0.6767416838435584,0.1197531326595851
241,0.0,0.0,0.0,0.0,0.0,0.0
242,0.015446933927858394,0.0016140710867536896,0.2899411395354587,0.013010232556383885,0.34162629135257266,0.05215433787286662
243,0.0,0.0,0.0,0.0,0.0,0.0
244,0.0017462133369541956,0.0002166507805154252,0.020448139535336276,0.0008497674417137822,0.050231091437204424,0.007834421875702978
245,0.0,0.0,0.0,0.0,0.0,0.0
246,0.0010484561341237422,0.00014635447839485364,0.01880867441836609,0.0008790697665549385,0.02395902413800274,0.005003146310688995
247,0.0,0.0,0.0,0.0,0.0,0.0
248,0.0005024767441534285,2.0232558136042424e-05,0.021104023254443986,0.0008497674417137822,0.0,0.0
249,0.0,0.0,0.0,0.0,0.0,0.0
250,0.013341121616413187,0.0017074921472779857,0.24201617647229484,0.011617647057802048,0.27089802129624674,0.04700879705490277
251,0.0,0.0,0.0,0.0,0.0,0.0
252,0.00197265944618585,0.00027920528776837123,0.022409313723805037,0.0008529411763233574,0.04866605716353998,0.008368553183332355
253,0.0,0.0,0.0,0.0,0.0,0.0
254,0.0017243508469366297,0.00018925547276038926,0.04326323529562169,0.001764705880572471,0.027434339095287218,0.004916652502030057
255,0.0,0.0,0.0,0.0,0.0,0.0
256,0.002099169054925139,0.00030802542632207364,0.023875490194982637,0.0,0.051702270034575254,0.009820567273394924
257,0.0,0.0,0.0,0.0,0.0,0.0
258,0.0012778966591095397,0.00018240391778881894,0.022050490197751255,0.001455882357178923,0.026707929268480528,0.004891890521409109
259,0.0,0.0,0.0,0.0,0.0,0.0
260,0.029302558046369387,0.004026665578168881,0.26591851162721275,0.015618604650971838,0.3188098770379599,0.06015746628996798
261,0.0,0.0,0.0,0.0,0.0,0.0
262,0.0031537048341127856,0.00042987825934840475,0.018565100774901304,0.0006204651135774404,0.041926808157339686,0.007230983005948964
263,0.0,0.0,0.0,0.0,0.0,0.0
264,0.0018950563721691156,0.00022894471872061744,0.01789043410945153,0.0006204651161719677,0.019843391773444883,0.00361993307238686
265,0.0,0.0,0.0,0.0,0.0,0.0
266,0.0019871673554829883,0.00022983964643125568,0.019370279069631194,0.0006204651187664954,0.020324163457555545,0.003636092453326873
267,0.0,0.0,0.0,0.0,0.0,0.0
268,0.0008056692072904393,2.788109748700101e-05,0.018238465115676134,0.0006311627890230626,0.0,0.0
269,0.0,0.0,0.0,0.0,0.0,0.0
270,0.02453007229674995,0.00287174369579692,0.22182073913047695,0.0076043478253742915,0.27398403116220954,0.04790571185148599
271,0.0,0.0,0.0,0.0,0.0,0.0
272,0.005100572992030235,0.000580065766207523,0.04819386956549589,0.001721739132177469,0.05518317275896102,0.009516059425120035
273,0.0,0.0,0.0,0.0,0.0,0.0
274,0.002476121981163617,0.00029048020178878937,0.023935999998724103,0.0008608695643488318,0.026323494920566962,0.004766443011218221
275,0.0,0.0,0.0,0.0,0.0,0.0
276,0.0024867770053951794,0.0002893020279581797,0.02279821739284671,0.0008608695643488318,0.027507304697404814,0.004744276335842854
277,0.0,0.0,0.0,0.0,0.0,0.0
278,0.005346175991157692,0.0006345896215783,0.09805204444338511,0.003461333338378206,0.11280886567643669,0.020115029307155866
279,0.0,0.0,0.0,0.0,0.0,0.0
280,0.03958286384909163,0.005223879576453853,0.6979452325248185,0.029966159334599833,0.8772873384041522,0.16454444084778974
281,0.0,0.0,0.0,0.0,0.0,0.0
282,0.0013959681462858606,0.00019008845594468618,0.024123837206553995,0.0009729136907747201,0.03290446609608934,0.0063822074776332186
283,0.0,0.0,0.0,0.0,0.0,0.0
284,0.0004496146864748265,6.911909372780523e-05,0.008242578637402189,0.00033162657929028237,0.010209417057333345,0.0023388930247796426
285,0.0,0.0,0.0,0.0,0.0,0.0
286,0.0006695073838180453,7.022146555995274e-05,0.017060310360624626,0.0006522610042285502,0.011265523870143656,0.0021168279646736287
287,0.0,0.0,0.0,0.0,0.0,0.0
288,0.0007666411962687679,0.00011956120950794821,0.008794238427779273,0.0003206012052448845,0.021732959379079535,0.004253843664627632
289,0.0,0.0,0.0,0.0,0.0,0.0
290,0.0313059798414123,0.0039263944780906996,0.5676314651168786,0.022709302327542858,0.7100957796819773,0.13513441906860127
291,0.0,0.0,0.0,0.0,0.0,0.0
292,0.005962588506218286,0.0007534730607146208,0.10757616279053844,0.00438802324889937,0.135862975810725,0.025924156487934797
293,0.0,0.0,0.0,0.0,0.0,0.0
294,0.003674147716301263,0.00046626020346836246,0.06635267441869962,0.0025566279090166654,0.08373951927393511,0.01620906589211818
295,0.0,0.0,0.0,0.0,0.0,0.0
296,0.004066740700180349,0.0004475983750659634,0.08641304651060043,0.0034576744236441896,0.08025109839201812,0.014589025761240463
297,0.0,0.0,0.0,0.0,0.0,0.0
298,0.0018664090094261507,0.0002789896987914302,0.020984372093787604,0.0008790697665549385,0.05460383256655979,0.010309650801073104
299,0.0,0.0,0.0,0.0,0.0,0.0
300,0.03614204615930783,0.004810499626228719,0.6050894962441715,0.025127162761423565,0.8273894594533128,0.15350594594752157
301,0.0,0.0,0.0,0.0,0.0,0.0
302,0.003178142717120804,0.00031868197893476216,0.05583183799281314,0.0037693812928564505,0.0814767567620997,0.009822162163579158
303,0.0,0.0,0.0,0.0,0.0,0.0
304,0.001675117821503176,0.0002551797364573969,0.020593275358327643,0.0007384600965765416,0.0509229729741,0.009924324321390662
305,0.0,0.0,0.0,0.0,0.0,0.0
306,0.0014975877416243517,0.00015245310753454847,0.037721619287956684,0.00152810187473207,0.028089729728054475,0.004947567568239254
307,0.0,0.0,0.0,0.0,0.0,0.0
308,0.0016641784920788162,0.0002539518431343752,0.019294882510265503,0.0007383245856984156,0.05163567567384188,0.009873243244254735
309,0.0,0.0,0.0,0.0,0.0,0.0
310,0.01918606020471988,0.002450666562245393,0.35080363495537265,0.01307045372336453,0.40350665714317324,0.07405199999879444
311,0.0,0.0,0.0,0.0,0.0,0.0
312,0.005770962833466574,0.0008221954509089434,0.08768885044789414,0.004614248762828011,0.1340576285706317,0.02468400000195418
313,0.0,0.0,0.0,0.0,0.0,0.0
314,0.0016446641220565958,0.00018187441237007475,0.04360823544841723,0.0017335559092047784,0.024991457142875467,0.004954285712821208
315,0.0,0.0,0.0,0.0,0.0,0.0
316,0.0012816823644895277,0.0001643178607840127,0.02298694250136263,0.0008815513988950334,0.02727382857015721,0.004961571429573397
317,0.0,0.0,0.0,0.0,0.0,0.0
318,0.0007306857142663959,8.678571425012446e-05,0.0,0.0,0.024843314285057466,0.002950714284504233
319,0.0,0.0,0.0,0.0,0.0,0.0
320,0.032724102958711754,0.0036080479855431597,0.6246319476029883,0.029768361200651676,0.7156634104091764,0.12412261209552389
321,0.0,0.0,0.0,0.0,0.0,0.0
322,0.0009225578973218419,9.66623400031278e-05,0.02031505276858145,0.0007498327781941745,0.018149165220028806,0.003598940469599651
323,0.0,0.0,0.0,0.0,0.0,0.0
324,0.00105462411880178,0.00011640552712336532,0.024408306576616974,0.0007248383529615956,0.019288559856245557,0.004553408730060006
325,0.0,0.0,0.0,0.0,0.0,0.0
326,0.0009910301819163717,0.00011649667747442698,0.020976155333714344,0.0007498327751632017,0.020535085089534943,0.004526067690875592
327,0.0,0.0,0.0,0.0,0.0,0.0
328,0.0010164334467735884,0.00011634741450514569,0.019603128203657044,0.0007498327751632017,0.02341608019060679,0.004519611016671607
329,0.0,0.0,0.0,0.0,0.0,0.0
330,0.010974789040436585,0.00119844498107304,0.2236675128216843,0.007804615382412571,0.22357946393282258,0.04363068366478577
331,0.0,0.0,0.0,0.0,0.0,0.0
332,0.0025265727845659924,0.0002685182911381445,0.049508641024985055,0.0017246153835843026,0.05376774646114806,0.00980408556811157
333,0.0,0.0,0.0,0.0,0.0,0.0
334,0.0006424358974375839,2.307692305364001e-05,0.024412564102628192,0.0008769230760383201,0.0,0.0
335,0.0,0.0,0.0,0.0,0.0,0.0
336,0.0006404140085847568,0.00011165742192928579,0.0,0.0,0.0281361312112374,0.004905588934654134
337,0.0,0.0,0.0,0.0,0.0,0.0
338,0.0013465342547294263,0.00013413323716365458,0.025929153845656673,0.0008476923146353768,0.02918039598805173,0.004912936065462878
339,0.0,0.0,0.0,0.0,0.0,0.0
340,0.026485205102970193,0.002662801073728138,0.5259260949268758,0.017876170208335717,0.5325837109816665,0.09233842416140195
341,0.0,0.0,0.0,0.0,0.0,0.0
342,0.0052708501398788694,0.0006049279839555368,0.11037434806331288,0.004590474629442655,0.1174912081495227,0.02182916867547992
343,0.0,0.0,0.0,0.0,0.0,0.0
344,0.0010859437771742544,0.00012451829153785552,0.023577662848824166,0.001327201310644664,0.02334382915044267,0.004098781578083777
345,0.0,0.0,0.0,0.0,0.0,0.0
346,0.0005277328623714237,3.1860282667306394e-05,0.02243699945426362,0.001354566288721888,0.0,0.0
347,0.0,0.0,0.0,0.0,0.0,0.0
348,0.015155443430750537,0.0015974874770360852,0.3238010889254761,0.011356464810281372,0.33113603283926213,0.058430862920871934
349,0.0,0.0,0.0,0.0,0.0,0.0
350,0.013514082474982803,0.001590187657950345,0.24364917948780473,0.00919307691947324,0.31178755901765676,0.059188484584003595
351,0.0,0.0,0.0,0.0,0.0,0.0
352,0.0018382795618176009,0.00021655384521530307,0.04479949999767997,0.002992500001710142,0.02896827636961833,0.006054399054307016
353,0.0,0.0,0.0,0.0,0.0,0.0
354,0.029285351338652732,0.0031874170988081055,0.5111318918922759,0.019279459462661578,0.6041589233189406,0.10619268621065565
355,0.0,0.0,0.0,0.0,0.0,0.0
356,0.00133430505622946,0.0001419088918607861,0.024258648649068886,0.0008756756747921778,0.027686899809944654,0.004929266226034029
357,0.0,0.0,0.0,0.0,0.0,0.0
358,0.0013706059892439372,0.00014738214551741018,0.024110756756665467,0.0008756756783318327,0.029410323406572944,0.00516387885854365
359,0.0,0.0,0.0,0.0,0.0,0.0
360,0.038954170572321034,0.00423630977061123,0.7125854999994772,0.038264999995590195,0.6659349365894787,0.12134780619768293
361,0.0,0.0,0.0,0.0,0.0,0.0
362,0.002092950665211874,0.0003116502881976809,0.021529354839473068,0.0008419354837256364,0.046308638567270646,0.009548766426491254
363,0.0,0.0,0.0,0.0,0.0,0.0
364,0.001383467097931651,0.00015377907325758784,0.020909516129435236,0.0008709677410567361,0.02310169570075305,0.0041980092910747936
365,0.0,0.0,0.0,0.0,0.0,0.0
366,0.0013902884537523835,0.00017158881587559196,0.020732419355138726,0.0008709677410567361,0.02236830793736444,0.004560516837955504
367,0.0,0.0,0.0,0.0,0.0,0.0
368,0.004562762111944707,0.0005096656174593716,0.06556354838516375,0.0025838709693597325,0.06887161627809103,0.012270020757900098
369,0.0,0.0,0.0,0.0,0.0,0.0
370,0.02136177547780485,0.0025874539803909208,0.2978516363637578,0.012050909092508711,0.36472811148852197,0.06689645016024742
371,0.0,0.0,0.0,0.0,0.0,0.0
372,0.0022963694685367475,0.00022794639853698,0.044922000000951805,0.0017699999989417847,0.028484963820240603,0.005509419038137681
373,0.0,0.0,0.0,0.0,0.0,0.0
374,0.013618015026025455,0.001692672417487842,0.1748066129033348,0.006887903226954457,0.23520398413111565,0.04416834423770567
375,0.0,0.0,0.0,0.0,0.0,0.0
376,0.01285690008305153,0.0013627497144073075,0.17819200000121785,0.007139999997889392,0.20899139182780785,0.03398255626808069
377,0.0,0.0,0.0,0.0,0.0,0.0
378,0.013039919966035513,0.0015291589056458065,0.17142855172303448,0.006893793108435506,0.20881923702209435,0.038728754035501065
379,0.0,0.0,0.0,0.0,0.0,0.0
380,0.020814389986698323,0.002257405623494945,0.2779353194728912,0.011490365110041562,0.32951657250383304,0.055898383593449216
381,0.0,0.0,0.0,0.0,0.0,0.0
382,0.002241022724114728,0.00032870425893002415,0.01864577079110986,0.0008306288024073875,0.05184138937570069,0.009842277534782513
383,0.0,0.0,0.0,0.0,0.0,0.0
384,0.01230927458552695,0.0014626850527910543,0.1571060547672168,0.0065619675443904695,0.20897493593626898,0.038321409931854344
385,0.0,0.0,0.0,0.0,0.0,0.0
386,0.012528457313887836,0.0013465507066114267,0.15958455882200373,0.006589655173823433,0.21321050540622719,0.03469328778772257
387,0.0,0.0,0.0,0.0,0.0,0.0
388,0.013464452782830438,0.0015754963827271894,0.17786393002066253,0.007420283972873254,0.20723047112467624,0.038184224729499665
389,0.0,0.0,0.0,0.0,0.0,0.0
390,0.02317666211253552,0.002886498844766446,0.3073219354835952,0.013478225806583427,0.3390996531309852,0.06390533902159742
391,0.0,0.0,0.0,0.0,0.0,0.0
392,0.002627565186866212,0.00039855906361478303,0.02120467741934267,0.000841935487246261,0.048766693161404605,0.009406671071491375
393,0.0,0.0,0.0,0.0,0.0,0.0
394,0.011798649150564219,0.0015935709022082117,0.1422904838721977,0.005995161288498617,0.155581809758095,0.0307328025963142
395,0.0,0.0,0.0,0.0,0.0,0.0
396,0.013550221274541063,0.0018208523281730133,0.1628458064512796,0.006851612906170737,0.17903061739020645,0.03510207587863137
397,0.0,0.0,0.0,0.0,0.0,0.0
398,0.014296276349126016,0.001862056757620456,0.18853750000016598,0.008009999994101237,0.1763217850209273,0.035104097747355886
399,0.0,0.0,0.0,0.0,0.0,0.0
400,0.027351848181272412,0.003588278727020838,0.2930797037029319,0.011967222227313973,0.3248857509723665,0.06320094892203622
401,0.0,0.0,0.0,0.0,0.0,0.0
402,0.0021037496522328144,0.00024628585870426644,0.026153500000873457,0.0014549999941664284,0.02262083141061539,0.0039215838352878694
403,0.0,0.0,0.0,0.0,0.0,0.0
404,0.01754922562181893,0.0021307358102405196,0.1903379999985191,0.010080000003654277,0.16434205468085622,0.029229770817992967
405,0.0,0.0,0.0,0.0,0.0,0.0
406,0.017533850852142267,0.0019672029598725442,0.17891021739104995,0.00593999999957463,0.1605902111918106,0.028990289141819746
407,0.0,0.0,0.0,0.0,0.0,0.0
408,0.019308500077569964,0.0022512489634976493,0.19111160869721536,0.007640217392295395,0.16111179983842877,0.028879942087690104
409,0.0,0.0,0.0,0.0,0.0,0.0
410,0.02738480236252586,0.003266943879716864,0.2563239130423703,0.011112391304619528,0.19090572232001413,0.03351084770082026
411,0.0,0.0,0.0,0.0,0.0,0.0
412,0.005153729517584584,0.000696844119753023,0.0388794999998936,0.0018000000018218998,0.028771758718017123,0.005225301909339981
413,0.0,0.0,0.0,0.0,0.0,0.0
414,0.022241239487250066,0.0026771836104805087,0.15576150000015332,0.0071174999939103145,0.12033492834419011,0.019326875134516606
415,0.0,0.0,0.0,0.0,0.0,0.0
416,0.020408867627033544,0.002161220650931551,0.14825747368491934,0.006764210531209278,0.10127891921152676,0.014855526583385334
417,0.0,0.0,0.0,0.0,0.0,0.0
418,0.02351089030706355,0.0028588937174419218,0.1469567368418977,0.006764210524316263,0.12741127318276027,0.02061530980595537
419,0.0,0.0,0.0,0.0,0.0,0.0
420,0.03195953816372893,0.0037218008083098617,0.16524576923055487,0.009542076923557593,0.22074886063287114,0.03551859357957373
421,0.0,0.0,0.0,0.0,0.0,0.0
422,0.00863150631306097,0.001007035203268519,0.03906323076970204,0.003227538461102925,0.05535569441178922,0.008174489647473963
423,0.0,0.0,0.0,0.0,0.0,0.0
424,0.02723021355807128,0.002909011028135019,0.10758054999987507,0.004998000001069157,0.12940987487177796,0.019391548743544575
425,0.0,0.0,0.0,0.0,0.0,0.0
426,0.026226276867234388,0.0028532044674867965,0.0969655909087702,0.003999545451899228,0.11385502745913689,0.019130960880608464
427,0.0,0.0,0.0,0.0,0.0,0.0
428,0.027207778497992777,0.0030417546831565867,0.10550819999989472,0.005019000000538653,0.11277352797497481,0.019568565304562628
429,0.0,0.0,0.0,0.0,0.0,0.0
430,0.03791136403225547,0.004353856634611015,0.10080529652001778,0.004977613368865729,0.17191583333139226,0.028343750000203723
431,0.0,0.0,0.0,0.0,0.0,0.0
432,0.01715950130178797,0.002082280418891253,0.0362724436260244,0.003143873770738058,0.07000921875373933,0.011088281252114033
433,0.0,0.0,0.0,0.0,0.0,0.0
434,0.03800977371478617,0.003789544452753763,0.07131597459861405,0.0038085540432768387,0.11579137499938953,0.016081874998235435
435,0.0,0.0,0.0,0.0,0.0,0.0
436,0.03404413090180175,0.003066946113808068,0.07412710162946304,0.004751970946527854,0.08910374999868509,0.010687500000130969
437,0.0,0.0,0.0,0.0,0.0,0.0
438,0.04227731592619552,0.003979093661864876,0.046004235915678315,0.0031919600475763736,0.1138455000009344,0.013781249999738066
439,0.0,0.0,0.0,0.0,0.0,0.0
440,0.06511852890260429,0.006499118209031344,0.05535720136474211,0.00414959530128747,0.15363799999759067,0.017988000001059847
441,0.0,0.0,0.0,0.0,0.0,0.0
442,0.03325734359316004,0.0034092889566624627,0.03272232975060072,0.002783703347813712,0.0862120000019786,0.010170000001380686
443,0.0,0.0,0.0,0.0,0.0,0.0
444,0.06569236554654573,0.006660684307663223,0.06851914332590502,0.005079191299206459,0.07975266666714256,0.010289999998349229
445,0.0,0.0,0.0,0.0,0.0,0.0
446,0.08375631531698599,0.008298723834456019,0.004429263261790049,0.00023863061850925806,0.08333333333333333,0.013745000001411729
447,0.0,0.0,0.0,0.0,0.0,0.0
448,0.09120007538459773,0.004475454545503122,0.003896991884787431,0.0,0.0813596666654727,0.010940000000118744
449,0.0,0.0,0.0,0.0,0.0,0.0
450,0.23229512070632446,0.02922000000087012,0.08483516500387167,0.0,0.0,0.0
