method,package1,package2,dram1,dram2,energy
chappie,0.0,0.0,0.0,0.0,0.0
com.sun.jmx.mbeanserver,0.228701148848749,0.0,0.03326861348977825,0.0,0.26196976233852726
com.yammer.metrics.reporting,0.026217424244598737,0.0,0.003077272726703526,0.0,0.029294696971302263
edu.cmu.graphchi,2.3559123246258253,43.803889298057626,0.3949944248338669,5.801710652675741,52.356506700193066
edu.cmu.graphchi.apps,0.011788248936273317,0.5132408096611387,0.0015768136731564538,0.07217210786191022,0.5987779801324786
edu.cmu.graphchi.datablocks,0.08816872752166115,1.457312440671477,0.01741117369149748,0.3067274352677739,1.8696197771524097
edu.cmu.graphchi.engine,1.7139929726087182,1.6494113812225821,0.32281566685712326,0.3156851491322402,4.001905169820664
edu.cmu.graphchi.engine.auxdata,3.791265781310668,0.7939292312975359,0.6235498313833349,0.15493477510061185,5.363679619092151
edu.cmu.graphchi.shards,0.002441572537871422,0.0,0.00042595173480831667,0.0,0.0028675242726797384
edu.cmu.graphchi.vertexdata,0.0,0.014693399500176962,0.0,0.003957703057437624,0.018651102557614586
javassist.bytecode,0.06515367878777342,0.0,0.009339454544886282,0.0,0.07449313333265971
javax.management,0.08052586666696396,0.0,0.013147999999637248,0.0,0.09367386666660121
javax.management.openmbean,0.03174742424038634,0.0,0.004974999999720955,0.0,0.03672242424010729
sun.management,0.024598259258372883,0.0,0.0037177777777051904,0.0,0.028316037036078073
sun.misc,0.22098811111667332,0.0,0.03657083333389352,0.0,0.2575589444505668
sun.util.calendar,0.04001194444653164,0.0,0.005683333333258309,0.0,0.04569527777978995
sun.util.locale.provider,0.0663755555595142,0.0,0.010266666667020117,0.0,0.07664222222653432
ucar.unidata.io,0.2399702501543719,0.12766906578101322,0.04928739159994053,0.025906113096372606,0.44283282063169827
