method,package1,package2,dram1,dram2,energy
CalendarProviderImpl.getInstance|Calendar.createCalendar|Calendar.getInstance,0.034977333333032816,0.0,0.004930000000361663,0.0,0.03990733333339448
ChiLogger.getLogger|Pagerank.<clinit>|NativeMethodAccessorImpl.invoke0,0.0,0.0,0.0,0.0,0.0
ChiPointer.<init>|VertexData.getVertexValuePtr|GraphChiEngine.initVertices,0.05795732293076301,0.0,0.007463955531482688,0.0,0.0654212784622457
ChiVertex.<init>|GraphChiEngine.initVertices|GraphChiEngine.run,4.40276952744964,0.359073348627028,0.7493238250457511,0.06274975811690026,5.573916459239319
ChiVertex.getValue|Pagerank.update|GraphChiEngine$3.run,1.5706841939870548,0.0,0.2057979185249901,0.0,1.776482112512045
ChiVertex.numOutEdges|Pagerank.update|GraphChiEngine$3.run,0.003408361572317781,0.0008787601015411941,0.0006243665892436649,0.0002550328797955487,0.005166521142898188
ChiVertex.setDataPtr|GraphChiEngine.initVertices|GraphChiEngine.run,0.14104674312510146,0.0,0.020713660744765675,0.0,0.16176040386986712
CtClassType.getClassFile3|CtClassType.getClassFile2|CtClassType.getInterfaces,0.034977333333032816,0.0,0.004930000000361663,0.0,0.03990733333339448
CtClassType.setClassFile|CtClassType.getClassFile3|CtClassType.getClassFile2,0.0374192307667377,0.0,0.004419230769249574,0.0,0.041838461535987276
DataBlockManager.dereference|ChiVertex.getValue|Pagerank.update,0.0011741538465110256,0.009291267383033795,0.000262073578545045,0.0019002058363880052,0.012627700644477869
DataBlockManager.getRawBlock|DataBlockManager.dereference|ChiVertex.getValue,0.0,0.4523276590024664,0.0,0.06918051598537724,0.5215081749878436
DataBlockManager.getRawBlock|DataBlockManager.dereference|VertexAggregator.foreach,0.0,0.20215838879245665,0.0,0.041325015017895,0.24348340381035166
DataBlockManager.getRawBlock|DataBlockManager.writeValue|ChiVertex.setValue,14.910902056641469,0.04277178705135719,1.7560609812076167,0.010641734663475216,16.72037655956392
DataBlockManager.writeValue|ChiVertex.setValue|Pagerank.update,6.662556204921638,0.0,0.7742373088856712,0.0,7.436793513807309
DateFormatProviderImpl.getInstance|DateFormatProviderImpl.getTimeInstance|DateFormat.get,0.03587259999864424,0.0,0.005204999999841675,0.0,0.04107759999848592
DegreeData.getDegree|GraphChiEngine.determineNextWindow|GraphChiEngine.run,1.0880978584178833,0.08884246802587645,0.16781088255578605,0.017068878020246536,1.3618200870197923
DegreeData.getDegree|GraphChiEngine.initVertices|GraphChiEngine.run,1.5185617547759653,0.09500160749881126,0.2630827064069946,0.014225008414152997,1.890871077095924
DegreeData.load|GraphChiEngine.determineNextWindow|GraphChiEngine.run,0.11437378819910399,0.0010420291236123381,0.01714464783697102,0.0002432266411383728,0.1328036918008257
ExponentiallyDecayingSample.update|ExponentiallyDecayingSample.update|Histogram.update,0.05261291461468857,0.0,0.006976635098666971,0.0,0.05958954971335554
ExtendedPlatformComponent.isUnlockCommercialFeaturesEnabled|ExtendedPlatformComponent.shouldRegisterCMMBean|ExtendedPlatformComponent.getMXBeans,0.05349386666590969,0.0,0.0065760000000914766,0.0,0.060069866666001163
FloatConverter.getValue|FloatConverter.getValue|DataBlockManager.dereference,0.0,0.03954678384059971,0.0,0.009162469803610879,0.04870925364421059
FloatConverter.setValue|FloatConverter.setValue|DataBlockManager.writeValue,0.020339224311683866,0.0,0.004609012642769691,0.0,0.024948236954453556
GraphChiContext.getIteration|Pagerank.update|GraphChiEngine$3.run,0.007803605292704211,0.0,0.0008691335485832811,0.0,0.008672738841287492
GraphChiEngine$2.run|Executors$RunnableAdapter.call|FutureTask.run,0.8956934286853089,0.034635825442285655,0.21281121797720304,0.009332302780268394,1.1524727748850658
GraphChiEngine$3.run|Executors$RunnableAdapter.call|FutureTask.run,6.826060954697224,0.3742252489969908,0.8078467685887796,0.07869619942233033,8.086829171705325
GraphChiEngine.determineNextWindow|GraphChiEngine.run|Pagerank.main,0.45936459140671465,0.0031664996544691635,0.06122883502437217,0.0006249869971047483,0.5243849130826608
GraphChiEngine.initVertices|GraphChiEngine.run|Pagerank.main,2.8434344889681267,0.16391929039095687,0.47499991526740887,0.02818705679394241,3.510540751420435
ImmutableDescriptor.makeMap|ImmutableDescriptor.makeMap|ImmutableDescriptor.<init>,0.038912307694912524,0.0,0.005630769230685054,0.0,0.04454307692559758
JMX.isMXBeanInterface|MXBeanSupport.findMXBeanInterface|Introspector.getMXBeanInterface,0.03534400000129469,0.0,0.003978461538141485,0.0,0.03932246153943617
JmxMBeanServer.<init>|JmxMBeanServer.newMBeanServer|MBeanServerBuilder.newMBeanServer,0.03616092307940842,0.0,0.004887692307910095,0.0,0.041048615387318514
Launcher$AppClassLoader.loadClass|ClassLoader.loadClass|Meter.<init>,0.050076088888777626,0.0,0.004898666667415657,0.0,0.054974755556193286
LocaleResources.getCalendarData|CalendarDataProviderImpl.getFirstDayOfWeek|CalendarDataUtility$CalendarWeekParameterGetter.getObject,0.030541866664619496,0.0,0.004217999999915871,0.0,0.034759866664535365
LoggerFactory.<clinit>|JmxReporter.<clinit>|Metrics.<clinit>,0.05977757575844103,0.0,0.008227272726688885,0.0,0.06800484848512992
MBeanIntrospector.<init>|MXBeanIntrospector.<init>|MXBeanIntrospector.<clinit>,0.0394509090895581,0.0,0.004549999999708785,0.0,0.04400090908926689
MBeanIntrospector.getMethods|MBeanAnalyzer.initMaps|MBeanAnalyzer.<init>,0.08820749495638242,0.0,0.01008303030287818,0.0,0.0982905252592606
MXBeanMappingFactory.<clinit>|ConvertingMethod.<init>|ConvertingMethod.from,0.0394509090895581,0.0,0.004549999999708785,0.0,0.04400090908926689
MemberrefInfo.<init>|InterfaceMethodrefInfo.<init>|ConstPool.readOne,0.0374192307667377,0.0,0.004419230769249574,0.0,0.041838461535987276
MemoryShard.loadVertices|GraphChiEngine.loadBeforeUpdates|GraphChiEngine.run,0.0,0.0,0.0,0.0,0.0
MethodInfo.read|MethodInfo.<init>|ClassFile.read,0.033023787876696915,0.0,0.003988636364021769,0.0,0.03701242424071868
NOPLoggerFactory.getLogger|LoggerFactory.getLogger|LoggerFactory.getLogger,0.05977757575844103,0.0,0.008227272726688885,0.0,0.06800484848512992
NumberFormatProviderImpl.getInstance|NumberFormatProviderImpl.getIntegerInstance|NumberFormat.getInstance,0.03297519999711464,0.0,0.0037599999996018596,0.0,0.0367351999967165
OpenMBeanAttributeInfoSupport.check|OpenMBeanAttributeInfoSupport.<init>|MXBeanIntrospector.getMBeanAttributeInfo,0.03818393939802649,0.0,0.003911363636496279,0.0,0.04209530303452277
Pagerank.update|GraphChiEngine$3.run|Executors$RunnableAdapter.call,0.24783262470010498,0.27898148688461377,0.037885035529900316,0.042056648415310996,0.60675579552993
RandomAccessFile.read_|RandomAccessFile.readBuffer|RandomAccessFile.seek,0.0,0.03926818774927502,0.0,0.008399445788496744,0.047667633537771766
RandomAccessFile.read_|RandomAccessFile.readBytes|RandomAccessFile.read,0.286251515765294,0.1821818999092408,0.036159238608515346,0.03541571135560079,0.540008365638651
RandomAccessFile.writeBytes|RandomAccessFile.write|VertexData.releaseAndCommit,0.07459068858120105,0.05358366838064253,0.01742417682536753,0.00990933603203027,0.1555078698192414
Repository.<init>|Repository.<init>|JmxMBeanServer.<init>,0.023014923074067786,0.0,0.0031384615386531763,0.0,0.026153384612720963
StandardMBean.<clinit>|ManagementFactory$2.run|ManagementFactory$2.run,0.03534400000129469,0.0,0.003978461538141485,0.0,0.03932246153943617
ThreadCoreMapInjector.isRunnable|ThreadCoreMapInjector.transform|TransformerManager.transform,0.07975242424325904,0.0,0.010450000000039861,0.0,0.0902024242432989
Toplist$1.callback|Toplist$1.callback|VertexAggregator.foreach,0.0,0.040169793558987296,0.0,0.00879507919560683,0.04896487275459413
Toplist$1.callback|VertexAggregator.foreach|Toplist.topListFloat,0.0,0.06037697154566386,0.0,0.013332737126745091,0.07370970867240895
UTF_8$Decoder.decodeLoop|CharsetDecoder.decode|StreamDecoder.implRead,0.0,0.0,0.0,0.0,0.0
Utf8Info.<init>|ConstPool.readOne|ConstPool.read,0.19946719192625775,0.0,0.02660348484853169,0.0,0.22607067677478945
VertexAggregator.foreach|Toplist.topListFloat|Pagerank.main,0.0,0.2794090525721707,0.0,0.055936761759181754,0.33534581433135247
VertexData$1.hasNext|VertexAggregator.foreach|Toplist.topListFloat,0.0,0.03987475495505042,0.0,0.00801233837221051,0.04788709332726093
VertexData$1.next|VertexData$1.next|VertexAggregator.foreach,0.0,0.07163592561718801,0.0,0.015641589626145824,0.08727751524333384
VertexData.getVertexValuePtr|GraphChiEngine.initVertices|GraphChiEngine.run,0.9083810513911317,0.08130062060108069,0.15129265100477957,0.012131044316558582,1.1531053673135505
VertexData.getVertexValuePtr|VertexAggregator.foreach|Toplist.topListFloat,0.0,0.03942663636071142,0.0,0.005846644403388645,0.04527328076410007
ZoneInfoFile.getZoneInfo|ZoneInfoFile.getZoneInfo0|ZoneInfoFile.getZoneInfo,0.07332366667105816,0.0,0.009559999999813345,0.0,0.0828836666708715
