method,package1,package2,dram1,dram2,energy
ChiPointer.<init>|VertexData.getVertexValuePtr|GraphChiEngine.initVertices,0.23599914839861363,0.0,0.038224258551912235,0.0,0.2742234069505259
ChiVertex.<init>|GraphChiEngine.initVertices|GraphChiEngine.run,3.701947973798398,0.34386129506942736,0.5758766769077975,0.03519192570282815,4.656877871478451
ChiVertex.getValue|Pagerank.update|GraphChiEngine$3.run,0.0,0.0008765030515463473,0.0,0.00021165319453363943,0.0010881562460799867
ChiVertex.numOutEdges|Pagerank.update|GraphChiEngine$3.run,0.01189694957158872,0.0009444376471116604,0.003816587034231122,0.000192956392519017,0.01685093064545052
ChiVertex.setDataPtr|GraphChiEngine.initVertices|GraphChiEngine.run,0.08479624137879567,0.0021924175339995784,0.013988257277876568,0.00023189006089672864,0.10120880625156856
ChiVertex.setValue|Pagerank.update|GraphChiEngine$3.run,0.06572451181191495,0.06328930200680245,0.011315590169311425,0.009244830390863656,0.14957423437889247
ConstPool.readOne|ConstPool.read|ConstPool.<init>,0.04503300382350524,0.0,0.006167116332296985,0.0,0.05120012015580222
DataBlockManager.dereference|ChiVertex.getValue|Pagerank.update,0.025195593528607625,0.06989527187951826,0.004718375232549138,0.010257227371847725,0.11006646801252276
DataBlockManager.dereference|VertexAggregator.foreach|Toplist.topListFloat,0.007104249999732322,0.05356607025087411,0.0010028124999431989,0.006872744623608771,0.0685458773741584
DataBlockManager.getRawBlock|DataBlockManager.dereference|ChiVertex.getValue,1.476721305555623,0.019365584378322854,0.19106527777778493,0.00349044765180946,1.6906426153635403
DataBlockManager.getRawBlock|DataBlockManager.dereference|VertexAggregator.foreach,0.01197730608974881,0.0,0.0017138381409537947,0.0,0.013691144230702603
DataBlockManager.getRawBlock|DataBlockManager.writeValue|ChiVertex.setValue,0.02320264724606732,0.035187475163550024,0.006486587034210763,0.007080090155319286,0.07195679959914739
DataBlockManager.writeValue|ChiVertex.setValue|Pagerank.update,0.12999707104228073,0.06618751064316472,0.03276779766414304,0.009935818345397618,0.2388881976949861
DateFormatProviderImpl.getInstance|DateFormatProviderImpl.getTimeInstance|DateFormat.get,0.0,0.0,0.0,0.0,0.0
DecimalFormatSymbolsProviderImpl.getInstance|DecimalFormatSymbols.getInstance|NumberFormatProviderImpl.getInstance,0.0,0.0,0.0,0.0,0.0
DegreeData.getDegree|GraphChiEngine.determineNextWindow|GraphChiEngine.run,0.6421085548586869,0.07454361078048664,0.1017687729519678,0.015452914682348351,0.8338738532734897
DegreeData.getDegree|GraphChiEngine.initVertices|GraphChiEngine.run,1.1707153328889957,0.12020622129922555,0.17574390901986786,0.013650287089464835,1.480315750297554
DegreeData.load|GraphChiEngine.determineNextWindow|GraphChiEngine.run,1.3992498174955117,0.04434926258052959,0.2008323469974488,0.009656182065243966,1.654087609138734
DiagnosticCommandImpl.getDiagnosticCommandInfo|DiagnosticCommandImpl.getMBeanInfo|DefaultMBeanServerInterceptor.getNewMBeanClassName,0.048014657618426076,0.0,0.005949332719444076,0.0,0.05396399033787015
ExtendedPlatformComponent.isUnlockCommercialFeaturesEnabled|ExtendedPlatformComponent.shouldRegisterCMMBean|ExtendedPlatformComponent.getMXBeans,0.038042877000528816,0.0,0.003931632927016924,0.0,0.04197450992754574
FloatConverter.getValue|FloatConverter.getValue|DataBlockManager.dereference,1.5153550676374163,0.0,0.198920279775419,0.0,1.7142753474128354
FloatConverter.setValue|FloatConverter.setValue|DataBlockManager.writeValue,0.0,0.0006418451612849057,0.0,0.00010335483872744766,0.0007452000000123534
GraphChiEngine$2.run|Executors$RunnableAdapter.call|FutureTask.run,0.0973929098726582,3.3815340372027944,0.014167072493784835,0.5957606810304188,4.088854700599656
GraphChiEngine$3.run|Executors$RunnableAdapter.call|FutureTask.run,0.42181142941306315,3.6008771581459196,0.09117137199936234,0.6344048829906607,4.7482648425490055
GraphChiEngine.determineNextWindow|GraphChiEngine.run|Pagerank.main,0.15878052029389064,0.049889255938076096,0.021466820644776775,0.010588748490241287,0.2407253453669848
GraphChiEngine.execUpdates|GraphChiEngine.run|Pagerank.main,1.476721305555623,0.0,0.19106527777778493,0.0,1.6677865833334078
GraphChiEngine.initVertices|GraphChiEngine.run|Pagerank.main,1.2627811287513617,0.2108141445627862,0.1973899772197445,0.021302295423159527,1.6922875459570519
ImmutableDescriptor.<init>|ImmutableDescriptor.<init>|ImmutableDescriptor.<clinit>,0.03858965923038615,0.0,0.0051390263013827734,0.0,0.043728685531768924
ImmutableDescriptor.makeMap|ImmutableDescriptor.makeMap|ImmutableDescriptor.<init>,0.03858965923038615,0.0,0.0051390263013827734,0.0,0.043728685531768924
JMX.isMXBeanInterface|MXBeanSupport.findMXBeanInterface|Introspector.getMXBeanInterface,0.02921769365556623,0.0,0.0038186876755381474,0.0,0.03303638133110438
JmxProperties.<clinit>|DefaultMBeanServerInterceptor.registerDynamicMBean|DefaultMBeanServerInterceptor.registerObject,0.009124169136953889,0.0,0.00110745974060326,0.0,0.010231628877557148
JmxReporter.<init>|JmxReporter.startDefault|Metrics.<clinit>,0.03613129278341585,0.0,0.004420735934634882,0.0,0.040552028718050734
Launcher$AppClassLoader.loadClass|ClassLoader.loadClass|MetricsRegistry.<init>,0.0,0.0,0.0,0.0,0.0
MBeanIntrospector.getMethods|MBeanAnalyzer.initMaps|MBeanAnalyzer.<init>,0.04532099515065592,0.0,0.005268810585442011,0.0,0.050589805736097934
MBeanServerBuilder.newMBeanServerDelegate|MBeanServerFactory.newMBeanServer|MBeanServerFactory.createMBeanServer,0.03548793562603668,0.0,0.004425497090931307,0.0,0.039913432716967984
MBeanServerDelegate.<clinit>|JmxMBeanServer.newMBeanServerDelegate|MBeanServerBuilder.newMBeanServerDelegate,0.04503300382350524,0.0,0.006167116332296985,0.0,0.05120012015580222
MXBeanIntrospector.mFrom|MXBeanIntrospector.mFrom|MBeanAnalyzer.initMaps,0.027329843278737564,0.0,0.0033476669350989002,0.0,0.030677510213836464
MXBeanIntrospector.typeName|MXBeanIntrospector.typeName|MXBeanIntrospector.originalTypeString,0.04894564299423855,0.0,0.0058446100573711895,0.0,0.05479025305160974
MXBeanSupport.getMBeanIntrospector|MBeanSupport.<init>|MXBeanSupport.<init>,0.027329843278737564,0.0,0.0033476669350989002,0.0,0.030677510213836464
MXBeanSupport.transitiveInterfaces|MXBeanSupport.transitiveInterfaces|MXBeanSupport.transitiveInterfaces,0.04402592394088996,0.0,0.00509230244958756,0.0,0.04911822639047752
MemoryShard.loadAdjChunk|MemoryShard.access$000|MemoryShard$1.run,0.0,0.029733542311005643,0.0,0.004397407622827867,0.03413094993383351
Pagerank.update|GraphChiEngine$3.run|Executors$RunnableAdapter.call,0.03807355429836379,0.007804433867719335,0.006603094003679105,0.0010788884054680347,0.05355997057523026
RandomAccessFile.read_|RandomAccessFile.readBytes|RandomAccessFile.read,0.1904006221116217,0.0,0.04146386280352351,0.0,0.23186448491514522
RandomAccessFile.writeBytes|RandomAccessFile.write|VertexData.releaseAndCommit,0.1137861083887594,0.02508173076919495,0.01907371185706709,0.005530955128219481,0.16347250614324094
StreamEncoder.writeBytes|StreamEncoder.implFlushBuffer|StreamEncoder.implFlush,0.0,0.0,0.0,0.0,0.0
Toplist$1.callback|Toplist$1.callback|VertexAggregator.foreach,0.0,0.017471300000033805,0.0,0.0020624999999199643,0.01953379999995377
Toplist$1.callback|VertexAggregator.foreach|Toplist.topListFloat,0.0,0.05717445770604035,0.0,0.0071650107528861105,0.06433946845892646
Utf8Info.<init>|ConstPool.readOne|ConstPool.read,0.02921769365556623,0.0,0.0038186876755381474,0.0,0.03303638133110438
VertexAggregator.foreach|Toplist.topListFloat|Pagerank.main,0.012677222222986596,0.08511842168457578,0.001645555555485232,0.010629411290267928,0.11007061075331553
VertexData$1.next|VertexData$1.next|VertexAggregator.foreach,0.007049562499863289,0.19981646428573832,0.0009984374999779295,0.030983035714260556,0.23884749999984012
VertexData.getVertexValuePtr|GraphChiEngine.initVertices|GraphChiEngine.run,0.39374375639436,0.034719071402294535,0.0597993132078735,0.0032712881852051696,0.4915334291897332
VertexData.getVertexValuePtr|VertexAggregator.foreach|Toplist.topListFloat,0.006941458333434031,0.015714533333407922,0.0010703125000569949,0.0022100000000338893,0.02593630416693284
