method,package1,package2,dram1,dram2,energy
AttributeInfo,0.0,0.06393553510061162,0.0,0.007981256721137378,0.071916791821749
CalendarDataUtility,0.0,0.038539315396279944,0.0,0.005141649016093969,0.043680964412373915
Chaperone,0.0,0.0,0.0,0.0,0.0
ChiPointer,0.0,0.02473944065691685,0.0,0.005902852683146962,0.03064229334006381
ChiVertex,1.5608525011530683,2.8041907988749974,0.30885982533566064,0.5015937514743656,5.175496876838091
CodeAttribute,0.0,0.11748870991085736,0.0,0.01622628157553746,0.13371499148639482
ConstPool,0.0,0.0375023187473826,0.0,0.004983627567680135,0.042485946315062736
DataBlockManager,0.049544620701484444,0.07259000274897429,0.011980013005094966,0.010794577411773098,0.14490921386732677
DefaultMXBeanMappingFactory,0.0,0.05017139709375528,0.0,0.006057894974951269,0.05622929206870655
DegreeData,0.5243525340457578,45.35168209101824,0.10513532361169417,5.6000924959015945,51.581262444577284
FloatConverter,0.0051537833710114615,0.012721327559190967,0.000726450296387232,0.002402390817276046,0.021003952043865706
GraphChiEngine,0.39524203878158076,11.796467307963697,0.08083481164409131,1.6291025227179579,13.901646681107326
GraphChiEngine$2,0.10790861548053338,0.21921677842061618,0.026481573137115362,0.03499144946318366,0.3885984165014486
GraphChiEngine$3,0.11922382068936474,0.34442410860060024,0.03501840094784225,0.0556924430860257,0.554358773323833
ImmutableDescriptor,0.0,0.0789519423376443,0.0,0.010735965343867733,0.08968790768151202
Introspector,0.0,0.038105045793952866,0.0,0.006042095838109971,0.044147141632062833
JmxReporter,0.0,0.10542643924375186,0.0,0.015215345139763853,0.12064178438351572
LocaleData$1,0.0,0.16217785114204292,0.0,0.020213521404262157,0.18239137254630508
MBeanInfo,0.0,0.04096705619510184,0.0,0.005166961257386125,0.04613401745248796
MBeanServerBuilder,0.0,0.011521917772148794,0.0,0.0017490684672212676,0.013270986239370062
MBeanServerDelegate,0.0,0.03631907451577257,0.0,0.005948706507656783,0.04226778102342935
MBeanServerDelegateImpl,0.0,0.03631907451577257,0.0,0.005948706507656783,0.04226778102342935
MXBeanIntrospector,0.0,0.08838164087193473,0.0,0.012136069679851067,0.1005177105517858
MXBeanSupport,0.0,0.038105045793952866,0.0,0.006042095838109971,0.044147141632062833
MemoryPoolImpl,0.0,0.042699955170293596,0.0,0.005981088574456674,0.04868104374475027
MemoryShard,0.0,0.0,0.0,0.0,0.0
Metrics$1,0.0,0.07927846613267792,0.0,0.010148106870637663,0.08942657300331558
NameAndTypeInfo,0.0,0.04705662789201072,0.0,0.007069312657068605,0.05412594054907932
NumberFormatProviderImpl,0.0,0.17442564440817057,0.0,0.021674207656044924,0.19609985206421549
Pagerank,0.04418501458748485,0.0552602740645194,0.005408411464920391,0.008255610591008175,0.11310931070793281
RandomAccessFile,0.09900906614047483,0.24031492393817436,0.015881313776365053,0.054095987349600354,0.4093012912046146
Resource,0.0,0.08782827024911244,0.0,0.01148947502578617,0.09931774527489862
StreamEncoder,0.0,0.0,0.0,0.0,0.0
TimerContext,0.006274239849489422,0.0,0.0007564434567583524,0.0,0.007030683306247775
Toplist$1,0.0,0.015277733465217498,0.0,0.0029058504714540804,0.018183583936671577
VertexAggregator,0.0,0.03657919963690243,0.0,0.006882629864086418,0.043461829500988855
VertexData,0.12955471142100183,0.5372533393219524,0.024960619655879427,0.09018233673407074,0.7819510071329044
VertexData$1,0.0,0.007181666667141447,0.0,0.001380000000305396,0.008561666667446843
