method,hits
$Proxy1.<clinit>,2
Chaperone.main,2
ChiLogger$SingleLineFormatter.format,2
ChiLogger.getLogger,2
ChiPointer.<init>,16
ChiVertex.<init>,492
ChiVertex.getValue,4
ChiVertex.numOutEdges,4
ChiVertex.setDataPtr,14
ChiVertex.setValue,8
ClassLoadingImpl.getObjectName,2
DataBlockManager.allocateBlock,2
DataBlockManager.dereference,20
DataBlockManager.getRawBlock,18
DataBlockManager.writeValue,8
DateFormatProviderImpl.getInstance,2
DecimalFormatSymbolsProviderImpl.getInstance,2
DefaultMXBeanMappingFactory.<clinit>,2
DefaultMXBeanMappingFactory.makeCompositeMapping,2
DegreeData.getDegree,196
DegreeData.load,2
FloatConverter.getValue,6
FloatConverter.setValue,6
GLIBC.getThreadId,2
GraphChiContext.getIteration,2
GraphChiEngine$2.run,70
GraphChiEngine$3.run,146
GraphChiEngine.determineNextWindow,46
GraphChiEngine.initVertices,264
ImmutableDescriptor.<init>,2
ImmutableDescriptor.makeMap,2
Introspector.findMBeanInterface,2
Introspector.getMXBeanInterface,2
JRELocaleProviderAdapter.getDateFormatSymbolsProvider,2
JmxMBeanServer.<init>,4
JmxReporter.<init>,2
LoggerFactory.<clinit>,2
MBeanAnalyzer.eliminateCovariantMethods,2
MBeanNotificationInfo.<init>,2
MBeanServerBuilder.newMBeanServerDelegate,2
MemoryShard.loadAdjChunk,4
NOPLoggerFactory.getLogger,2
NotificationBroadcasterSupport.<clinit>,2
NumberFormatProviderImpl.getInstance,2
Pagerank.update,22
ParallelListResourceBundle.handleKeySet,2
RandomAccessFile.read_,10
RandomAccessFile.writeBytes,34
Repository.addMoiToTb,4
Resource.getBytes,2
ThreadPools.newScheduledThreadPool,2
Toplist$1.callback,2
URLUtil.urlNoFragString,2
VertexAggregator.foreach,6
VertexData$1.next,2
VertexData.getVertexValuePtr,116
