method,package1,package2,dram1,dram2,energy
AnnotationParser,0.069198499993945,0.0,0.007188749999841094,0.0,0.0763872499937861
ChiPointer,0.1218878205875786,0.1775737178677979,0.0198121792943679,0.04058179485034218,0.3598555126000866
ChiVertex,7.387166886417414,2.633349430086781,1.0465034714907124,0.5799995522653003,11.647019340260208
ClassFile,0.05289721212378054,0.0,0.007112727272077322,0.0,0.06000993939585786
DataBlockManager,0.18390131594717682,0.0889780612059722,0.030619116387410612,0.021081989729973303,0.32458048327053296
DefaultMBeanServerInterceptor,0.05289721212378054,0.0,0.007112727272077322,0.0,0.06000993939585786
DefaultMXBeanMappingFactory,0.018841759258605262,0.0,0.0024513888891104013,0.0,0.021293148147715664
DegreeData,2.8651025624497652,1.3767223508578144,0.45710318302330255,0.28279807794364464,4.981726174274527
FloatConverter,0.0,0.004873221428559711,0.0,0.0009684642857142274,0.005841685714273938
GraphChiEngine,3.067847043694221,0.9319428977847563,0.45804764161597,0.19786226968768578,4.655699852782633
GraphChiEngine$2,0.0,0.04934926313148868,0.0,0.009829266083001617,0.059178529214490294
GraphChiEngine$3,0.23660224641579533,0.3911861464073474,0.03813753309074117,0.08047338187010326,0.7463993077839871
JRELocaleProviderAdapter,0.026591000001644716,0.0,0.003729999999147063,0.0,0.030321000000791777
JmxMBeanServer,0.03259636363663682,0.0,0.003941818181016116,0.0,0.03653818181765294
MBeanAnalyzer,0.06394949999230448,0.0,0.008234999999331194,0.0,0.07218449999163568
MBeanServerBuilder,0.07642351515647589,0.0,0.00866545454658935,0.0,0.08508896970306523
MemoryShard,0.05213876109065316,0.0,0.007258268186974402,0.0,0.05939702927762756
NumberFormatProviderImpl,0.05886488889033595,0.0,0.008103333332756948,0.0,0.0669682222230929
ObjectName,0.05511660605781908,0.0,0.006858181818670622,0.0,0.061974787876489704
Pagerank,0.010600806882502263,0.06036544549699282,0.0020308685015076977,0.015093044059858085,0.08809016494086087
StackMapTable$Walker,0.0,0.0,0.0,0.0,0.0
Toplist$1,0.01178849603282901,0.0,0.0027475278164716477,0.0,0.014536023849300656
VertexAggregator,0.1687322303676814,0.0,0.03480002170246551,0.0,0.2035322520701469
VertexData,0.4101872801013115,0.3686914898814901,0.06911336978229644,0.07869082574774182,0.9266829655128398
