method,package1,package2,dram1,dram2,energy
com.sun.jmx.mbeanserver,0.17890909984831688,0.0,0.027712754377353897,0.0,0.20662185422567078
com.yammer.metrics.stats,0.028239221685067695,0.0,0.003633362891227607,0.0,0.031872584576295306
edu.cmu.graphchi,1.534032222676545,1.1224764016581743,0.2334748317291764,0.24976130050141104,3.139744756565307
edu.cmu.graphchi.apps,0.02034468692649669,0.023769909712172008,0.0033483798706209953,0.004195918148837067,0.05165889465812676
edu.cmu.graphchi.datablocks,0.055025815266322796,0.5263239262084327,0.010134896866017915,0.0869388118336606,0.678423450174434
edu.cmu.graphchi.engine,4.446604258511455,1.6839636568889216,0.7345180690135203,0.3333681282345801,7.198454112648477
edu.cmu.graphchi.engine.auxdata,1.5223961155448176,0.8341044901734649,0.2264298671740248,0.15376789993765982,2.7366983728299665
edu.cmu.graphchi.vertexdata,0.0,0.16490416363208027,0.0,0.018054460369202715,0.182958624001283
javassist.bytecode,0.14615026449006804,0.0,0.021333921831626128,0.0,0.16748418632169418
javax.management,0.1907112206336099,0.0,0.03130805227373428,0.0,0.2220192729073442
org.slf4j.helpers,0.07012053285098804,0.0,0.009556535960699986,0.0,0.07967706881168803
sun.misc,0.0,0.048545115146975015,0.0,0.004197064473974397,0.05274217962094941
sun.reflect.annotation,0.035329258290592455,0.0,0.0032464877205067044,0.0,0.03857574601109916
sun.util.calendar,0.057145528446397274,0.0,0.006274012475763791,0.0,0.06341954092216107
sun.util.locale.provider,0.06990293856902954,0.0,0.010344402196205256,0.0,0.08024734076523479
sun.util.resources,0.06990293856902954,0.0,0.010344402196205256,0.0,0.08024734076523479
