method,package1,package2,dram1,dram2,energy
chappie,0.0,0.008711521139123619,0.0,0.001229922695166624,0.009941443834290242
com.sun.jmx.mbeanserver,0.3078067407391413,0.0,0.04269777777867771,0.0,0.35050451851781905
com.yammer.metrics.stats,0.05157835293885356,0.0,0.006198823528964069,0.0,0.057777176467817624
edu.cmu.graphchi,28.488914033274092,0.5567378594623654,2.9858540919397365,0.14103956779623297,32.17254555247243
edu.cmu.graphchi.apps,0.015092791303838742,0.03561665327476627,0.0030112239844124105,0.009054200880262538,0.06277486944327997
edu.cmu.graphchi.datablocks,0.07388170290066709,0.08254103384111958,0.01330523732429135,0.016662040392952594,0.1863900144590306
edu.cmu.graphchi.engine,2.6175279215118445,0.7727264086342802,0.41125426893338785,0.15232699514287995,3.953835594222393
edu.cmu.graphchi.engine.auxdata,2.4696764644984257,0.18689500324408959,0.33487355323255125,0.0489029386694683,3.040347959644535
edu.cmu.graphchi.util,0.0,0.017817383265482684,0.0,0.0026142511777536535,0.020431634443236337
edu.cmu.graphchi.vertexdata,0.0,0.03491387752503569,0.0,0.005233123966442435,0.040147001491478124
javassist.bytecode,0.03580728888822098,0.0,0.004384000000492152,0.0,0.040191288888713136
javax.management,0.07317724444696472,0.0,0.010194666666858313,0.0,0.08337191111382303
org.slf4j.helpers,0.03464622222301032,0.0,0.005847999999403126,0.0,0.040494222222413445
sun.management,0.07633090909979673,0.0,0.011199999999283164,0.0,0.08753090909907989
sun.reflect.annotation,0.046129111110025794,0.0,0.006279999999808043,0.0,0.05240911110983384
sun.util.calendar,0.07165533333318308,0.0,0.010940000000118744,0.0,0.08259533333330182
sun.util.resources,0.10601800001071145,0.0,0.013639999999819942,0.0,0.1196580000105314
