method,package1,package2,dram1,dram2,energy
AnnotationParser.parseSig|AnnotationParser.parseAnnotation2|AnnotationParser.parseAnnotations2,0.03287672446407506,0.0,0.004271266904435961,0.0,0.03714799136851102
ChiPointer.<init>|VertexData.getVertexValuePtr|GraphChiEngine.initVertices,0.0,0.005873478479364059,0.0,0.0008458691648521374,0.0067193476442161965
ChiVertex.<init>|GraphChiEngine.initVertices|GraphChiEngine.run,1.4541912442471037,2.423191301676586,0.2833734836319289,0.5440686640410931,4.704824693596712
ChiVertex.getValue|Pagerank.update|GraphChiEngine$3.run,0.011167765972397247,0.014703290369210184,0.0022721999999416056,0.0027406429176551096,0.030883899259204147
ChiVertex.numInEdges|Pagerank.update|GraphChiEngine$3.run,0.0,0.02158067530686141,0.0,0.003614072400469376,0.025194747707330784
ChiVertex.numOutEdges|Pagerank.update|GraphChiEngine$3.run,0.07412744814467101,0.0014899577897346267,0.016840368130703935,0.0001904861234279559,0.09264826018853753
ChiVertex.setDataPtr|GraphChiEngine.initVertices|GraphChiEngine.run,0.04339102119704301,0.0643721764912008,0.010442516546431014,0.014390442208180164,0.132596156442855
ChiVertex.setValue|Pagerank.update|GraphChiEngine$3.run,0.02967409631303887,0.028110795056885365,0.006470683553883387,0.004927222432663543,0.06918279735647116
ClassFile.read|ClassFile.<init>|CtClassType.<init>,0.018957263840085094,0.0,0.0032197516172139734,0.0,0.022177015457299068
CodeAttribute.<init>|AttributeInfo.read|CodeAttribute.<init>,0.018957263840085094,0.0,0.0032197516172139734,0.0,0.022177015457299068
CoreReflectionFactory.makeTypeVariable|Reifier.visitFormalTypeParameter|FormalTypeParameter.accept,0.03582013143796098,0.0,0.0049205324808394325,0.0,0.04074066391880041
DataBlockManager.dereference|ChiVertex.getValue|Pagerank.update,0.030505318322653116,0.06634156543497008,0.00804478914035852,0.014303308624658886,0.11919498152264059
DataBlockManager.dereference|VertexAggregator.foreach|Toplist.topListFloat,0.0,0.018493666672535863,0.0,0.0033600000012180917,0.021853666673753956
DataBlockManager.getRawBlock|DataBlockManager.dereference|VertexAggregator.foreach,0.0,0.0061443333300606655,0.0,0.0005799999998998827,0.006724333329960548
DataBlockManager.getRawBlock|DataBlockManager.writeValue|ChiVertex.setValue,0.0,0.017548568235227463,0.0,0.0025883194129450865,0.02013688764817255
DataBlockManager.writeValue|ChiVertex.setValue|Pagerank.update,0.06733246740404637,0.014826844866733553,0.014959048261583277,0.0032781378519750387,0.10039649838433823
DefaultMBeanServerInterceptor.registerDynamicMBean|DefaultMBeanServerInterceptor.registerObject|DefaultMBeanServerInterceptor.registerMBean,0.023287380063184454,0.0,0.0035800626368299587,0.0,0.026867442700014413
DefaultMXBeanMappingFactory.<clinit>|MXBeanMappingFactory.<clinit>|ConvertingMethod.<init>,0.024488400411026873,0.0,0.0037223709042892685,0.0,0.02821077131531614
DegreeData.getDegree|GraphChiEngine.determineNextWindow|GraphChiEngine.run,1.159675056723379,0.6573576370555606,0.1609417746952309,0.1424231574230694,2.1203976258972395
DegreeData.getDegree|GraphChiEngine.initVertices|GraphChiEngine.run,0.23151236578536596,2.0030852022412216,0.04180601065477135,0.4459166583544418,2.7223202370358006
DegreeData.load|GraphChiEngine.determineNextWindow|GraphChiEngine.run,0.0,0.08453823774550885,0.0,0.021294297514891557,0.1058325352604004
FloatConverter.setValue|FloatConverter.setValue|DataBlockManager.writeValue,0.0,0.005543721897486564,0.0,0.001259144456318487,0.006802866353805051
GraphChiContext.getIteration|Pagerank.update|GraphChiEngine$3.run,0.012829648503880353,0.014687118178857437,0.0028994570508310094,0.004412828141056406,0.034829051874625205
GraphChiEngine$2.run|Executors$RunnableAdapter.call|FutureTask.run,0.17129531153987768,0.0,0.04227844881398307,0.0,0.21357376035386075
GraphChiEngine$3.run|Executors$RunnableAdapter.call|FutureTask.run,0.2588604683371444,0.2044318120418497,0.06852528635599117,0.04153940333918708,0.5733569700741723
GraphChiEngine.determineNextWindow|GraphChiEngine.run|Pagerank.main,0.4596054991528103,0.37026571074018233,0.0644632561749922,0.076454453589118,0.9707889196571027
GraphChiEngine.initVertices|GraphChiEngine.run|Pagerank.main,0.6129729461432718,2.9588296974865425,0.12680960029251262,0.567958360346255,4.266570604268582
ImmutableDescriptor.makeMap|ImmutableDescriptor.makeMap|ImmutableDescriptor.<init>,0.04976760639239952,0.0,0.007365570607705473,0.0,0.05713317700010499
ImmutableDescriptor.union|DescriptorCache.union|MBeanIntrospector$MBeanInfoMaker.makeMBeanInfo,0.029386961647477595,0.0,0.00428013175060471,0.0,0.033667093398082305
JarFileFactory.getCachedJarFile|JarFileFactory.get|JarURLConnection.connect,0.03582013143796098,0.0,0.0049205324808394325,0.0,0.04074066391880041
JmxMBeanServer.<init>|JmxMBeanServer.newMBeanServer|MBeanServerBuilder.newMBeanServer,0.0599316810514508,0.0,0.010107485333350867,0.0,0.07003916638480168
MBeanNotificationInfo.<init>|MBeanNotificationInfo.<init>|MBeanServerDelegate.<clinit>,0.048825046150817196,0.0,0.00730011148955288,0.0,0.05612515764037008
MXBeanIntrospector.<init>|MXBeanIntrospector.<clinit>|MXBeanSupport.getMBeanIntrospector,0.02448084598584041,0.0,0.003679197121565093,0.0,0.028160043107405504
MXBeanSupport.register|StandardMBean.preRegister|DefaultMBeanServerInterceptor.preRegister,0.05300607694721659,0.0,0.007382047700326533,0.0,0.060388124647543125
MemoryShard.loadAdjChunk|MemoryShard.access$000|MemoryShard$1.run,0.0,0.0,0.0,0.0,0.0
Metrics.<clinit>|GraphChiEngine.<init>|Pagerank.main,0.04136533383435001,0.0,0.006897748869231519,0.0,0.048263082703581525
NotificationBroadcasterSupport.<clinit>|MBeanServerDelegate.<init>|MBeanServerDelegateImpl.<init>,0.04976760639239952,0.0,0.007365570607705473,0.0,0.05713317700010499
NumberFormatProviderImpl.getInstance|NumberFormatProviderImpl.getIntegerInstance|NumberFormat.getInstance,0.04548092399770223,0.0,0.0068697053432749036,0.0,0.05235062934097714
Pagerank.update|GraphChiEngine$3.run|Executors$RunnableAdapter.call,0.014587292117841258,0.03848830403758477,0.0026913399827389484,0.006425242852730358,0.06219217899089533
RandomAccessFile.readFully|DegreeData.load|GraphChiEngine.determineNextWindow,0.045158662806720415,0.0,0.011068737100337112,0.0,0.056227399907057524
SignatureParser.parsePackageNameAndSimpleClassTypeSignature|SignatureParser.parseClassTypeSignature|SignatureParser.parseFieldTypeSignature,0.029386961647477595,0.0,0.00428013175060471,0.0,0.033667093398082305
Toplist$1.callback|Toplist$1.callback|VertexAggregator.foreach,0.0,0.01800533332667934,0.0,0.0017599999991944058,0.019765333325873748
Unsafe.park|LockSupport.park|AbstractQueuedSynchronizer$ConditionObject.await,0.0,0.032739299998502246,0.0,0.00738450000026205,0.040123799998764295
VertexAggregator.foreach|Toplist.topListFloat|Pagerank.main,0.0,0.03381333331344649,0.0,0.0035200000020267908,0.03733333331547328
VertexData$1.next|VertexData$1.next|VertexAggregator.foreach,0.0,0.0,0.0,0.0,0.0
VertexData.getVertexValuePtr|GraphChiEngine.initVertices|GraphChiEngine.run,0.27348163559047717,0.44677904488746156,0.05531544410325126,0.09875189664606722,0.8743280212272573
