method,package1,package2,dram1,dram2,energy
ArrayList,14.91015632543846,0.5970366007694601,1.7559542894782945,0.10058528041171752,17.36373249609793
BufferedInputStream,0.2351963317780824,0.0,0.029959533800054765,0.0,0.2651558655781372
Calendar$Builder,0.034977333333032816,0.0,0.004930000000361663,0.0,0.03990733333339448
Class,0.1235514949576771,0.0,0.014061491841019666,0.0,0.13761298679869677
ClassLoader,0.050076088888777626,0.0,0.004898666667415657,0.0,0.054974755556193286
DataInputStream,0.06969121212464277,0.0,0.009981818182109924,0.0,0.0796730303067527
Float,0.009106821174171668,0.13250171227124102,0.0010416217613643736,0.02362010956205164,0.16627026476882872
Integer,0.0,0.03146613205820072,0.0,0.0068465104305389934,0.038312642488739716
Logger,0.0,0.0,0.0,0.0,0.0
Object,0.0,0.0,0.0,0.0,0.0
RandomAccessFile,0.36084220434649505,0.27503375603915836,0.053583415433882876,0.053724493176127805,0.7431838689956641
SimpleDateFormat,0.03587259999864424,0.0,0.005204999999841675,0.0,0.04107759999848592
System,0.11437378819910399,0.0010420291236123381,0.01714464783697102,0.0002432266411383728,0.1328036918008257
ThreadLocalRandom,0.05261291461468857,0.0,0.006976635098666971,0.0,0.05958954971335554
TreeSet,0.0,0.040169793558987296,0.0,0.00879507919560683,0.04896487275459413
