method,package1,package2,dram1,dram2,energy
ArrayList.<init>,0.0,0.0,0.0,0.0,0.0
ArrayList.elementData,0.0019669648467011587,0.028677580372093094,0.00017887951690455568,0.006488125711069083,0.03731155044676789
ArrayList.rangeCheck,0.014350929887117938,0.0015578571428271795,0.0016651475958502078,0.00047714285721581066,0.018051077483011137
BufferedInputStream.read,0.0,0.19743084336500544,0.0,0.02631197105930906,0.22374281442431448
Class.createAnnotationData,0.0,0.03803063525357031,0.0,0.0055158811667342005,0.043546516420304514
Class.getDeclaredConstructors0,0.0,0.040653304450896634,0.0,0.0052033720673193146,0.04585667651821595
ClassLoader.findBootstrapClass,0.0,0.039869571639726,0.0,0.0051415002421440125,0.045011071881870014
DataInputStream.readUnsignedShort,0.0,0.033300337843490346,0.0,0.004882330211335724,0.03818266805482607
Float.<init>,0.0,0.0005895454545555946,0.0,7.022727273083133e-05,0.000659772727286426
Float.floatValue,0.0007185190162895818,0.017112036363654295,9.975232461759656e-05,0.0025628181818650444,0.02049312588642652
Float.valueOf,0.0013121841230474948,0.5152444877041849,0.00017746216177760455,0.07369755065189264,0.5904316846409026
LinkedBlockingQueue.offer,0.0,0.0,0.0,0.0,0.0
ManagementFactory.getPlatformMBeanServer,0.0,0.029944045869528174,0.0,0.003619016824039988,0.03356306269356816
RandomAccessFile.readBytes,0.0756859058197304,0.3196373870238134,0.014078950755835618,0.0741156725679703,0.4835179161673497
RandomAccessFile.writeBytes,0.15518768283140685,0.034953462913151864,0.024570739124338048,0.006478585667081789,0.22119047053597854
System.arraycopy,0.08092496265105882,0.0,0.014675292790447594,0.0,0.09560025544150641
TreeSet.size,0.0,0.0,0.0,0.0,0.0
