method,package1,package2,dram1,dram2,energy
ArrayList.elementData,0.0035255999997554515,0.020911120148375695,0.0008181818182492861,0.0033079291816171643,0.028562831147997597
ArrayList.rangeCheck,0.09653147665334127,0.06205412589826794,0.019513952282723786,0.00931639782372913,0.18741595265806216
AttributeInfo.read,0.08744299999671057,0.0,0.012300000000929382,0.0,0.09974299999763996
BufferedInputStream.read,0.03181960000268494,0.0,0.004381999999653393,0.0,0.03620160000233833
ChiPointer.<init>,0.0,0.011542549635556097,0.0,0.0015361090358594171,0.013078658671415513
ChiVertex.<init>,2.4445036483043414,2.101156952939791,0.3915479896381283,0.37196661775382295,5.309175208636083
ChiVertex.getValue,0.0,0.0010220800970828683,0.0,0.00010478921460445517,0.0011268693116873235
ChiVertex.numInEdges,0.0022362020923766108,0.0,0.0002582147924034184,0.0,0.0024944168847800294
ChiVertex.numOutEdges,0.02893234741112943,0.008066660921530697,0.00684026225071447,0.001411118501699318,0.045250389085073915
ChiVertex.setDataPtr,0.0,0.05792387188740511,0.0,0.012963657793379903,0.07088752968078502
ChiVertex.setValue,0.00043571291855674536,0.007334300106006325,9.588516744396216e-05,0.0010859650052921681,0.008951863197299199
Class.createAnnotationData,0.05649833333639737,0.0,0.00886999999784166,0.0,0.06536833333423903
Class.getDeclaredMethods0,0.07580566666244218,0.0,0.010559999997591753,0.0,0.08636566666003392
ClassLoader.findBootstrapClass,0.04917800000015026,0.0,0.0060099999997570795,0.0,0.05518799999990734
Currency.<clinit>,0.030973333329893653,0.0,0.0038280000003093543,0.0,0.03480133333020301
DataBlockManager.dereference,0.010019680440711939,0.12641628892351664,0.001502975206596462,0.017227912940739557,0.1551668575115646
DataBlockManager.getRawBlock,0.012792450306079638,0.09906511548096011,0.002380193333687653,0.01392169044679786,0.12815944956752526
DataBlockManager.writeValue,0.024766618793891835,0.01286714494694855,0.006713353434114222,0.002279216645811347,0.046626333820765954
DegreeData.getDegree,2.812864095704578,1.0542166248910456,0.38326485620802464,0.1808412997526908,4.43118687655634
ExponentiallyDecayingSample.<init>,0.07127142857228005,0.0,0.008168571428021614,0.0,0.07944000000030167
Float.<init>,0.008540012813935093,0.011785189107949904,0.00154959140767106,0.0013383086570878339,0.02321310198664389
Float.floatValue,0.0,0.004538938426830026,0.0,0.0006040266445520377,0.0051429650713820645
Float.valueOf,0.0,0.030660054139911706,0.0,0.003797421702763731,0.03445747584267544
FloatConverter.setValue,0.0,0.0007491422872706298,0.0,0.0001441755319203676,0.0008933178191909974
FormatData.getContents,0.022338933334685864,0.0,0.0027440000005299224,0.0,0.025082933335215787
GraphChiEngine$2.run,0.20676956691822576,0.38744289222942085,0.035771574216029806,0.06513466150775987,0.6951186948714363
GraphChiEngine$3.run,0.16262558155798965,0.15098844552260324,0.03710365369279591,0.027062086050028838,0.37777976682341763
GraphChiEngine.determineNextWindow,0.6734260543024039,0.13225789400870883,0.08252998515697135,0.01996502852370744,0.9081789619917915
GraphChiEngine.initVertices,0.9047645993722874,0.7178303623811947,0.15231764048993227,0.1163026624625503,1.8912152647059646
GregorianCalendar.computeFields,0.0,0.05922433333398657,0.0,0.010260000000319753,0.06948433333430633
ImmutableDescriptor.makeMap,0.06750499999907333,0.0,0.00919874999908643,0.0,0.07670374999815976
Integer.valueOf,0.0,0.015041825740901769,0.0,0.0021205957002945726,0.01716242144119634
JmxMBeanServer.<init>,0.04998775000422029,0.0,0.0072000000000116415,0.0,0.05718775000423193
JmxMBeanServer.newMBeanServerDelegate,0.02687074999994366,0.0,0.004095000000233995,0.0,0.030965750000177653
MBeanInfo.<init>,0.05322249999881025,0.0,0.007065000000693544,0.0,0.060287499999503794
MBeanIntrospector$PerInterfaceMap.<init>,0.07253000000491738,0.0,0.010625000000194024,0.0,0.0831550000051114
ManagementFactory$2.run,0.05649833333639737,0.0,0.00886999999784166,0.0,0.06536833333423903
MemoryShard.loadAdjChunk,0.0,0.007907363725976127,0.0,0.0017305653872341123,0.00963792911321024
Metrics.<clinit>,0.030493199999909845,0.0,0.004381999999653393,0.0,0.03487519999956324
MetricsRegistry.notifyMetricAdded,0.07831685714856054,0.0,0.00941142857066422,0.0,0.08772828571922477
NumberFormatProviderImpl.getInstance,0.030973333329893653,0.0,0.0038280000003093543,0.0,0.03480133333020301
Pagerank.update,0.0022362020923766108,0.008903959906294563,0.0002582147924034184,0.0012596780044887646,0.012658054795563357
RandomAccessFile.readBytes,0.1888830842946505,0.11150509502117278,0.03037630718559631,0.02459324367046241,0.355357730171882
RandomAccessFile.writeBytes,0.06789043695308106,0.04601014298881462,0.008172878114110218,0.006253168367554621,0.12832662642356052
Repository.<init>,0.04998775000422029,0.0,0.0072000000000116415,0.0,0.05718775000423193
SPILocaleProviderAdapter$1.run,0.010721999996652205,0.0,0.0013600000008106385,0.0,0.012081999997462843
System.arraycopy,0.0,0.0,0.0,0.0,0.0
Thread.start0,0.0,0.0097853260780821,0.0,0.001998842103582297,0.011784168181664396
Throwable.fillInStackTrace,0.07854342857275956,0.0,0.012728571428202223,0.0,0.09127200000096178
Toplist$1.callback,0.0,0.05028599074786114,0.0,0.007022382696350133,0.05730837344421127
TreeMap.navigableKeySet,0.06750499999907333,0.0,0.00919874999908643,0.0,0.07670374999815976
TreeSet.size,0.0,0.013480429478832816,0.0,0.0019258496184856968,0.015406279097318513
Util.newObjectName,0.05322249999881025,0.0,0.007065000000693544,0.0,0.060287499999503794
VertexAggregator.foreach,0.0,0.07252420368163884,0.0,0.009853818190292064,0.0823780218719309
VertexData$1.hasNext,0.0,0.013261334068145371,0.0,0.001785884076915682,0.015047218145061053
VertexData$1.next,0.0,0.03480359630010898,0.0,0.004710116642424745,0.039513712942533724
VertexData.getVertexValuePtr,0.5195624313623918,0.1727733122625612,0.08643996862644367,0.025858937900157763,0.8046346501515544
ZipFile$ZipFileInputStream.close,0.0,0.00845175977955788,0.0,0.0011688365093612866,0.009620596288919167
ZipFile.getEntry,0.0,0.013731149935581754,0.0,0.0019172955433164785,0.015648445478898234
ZipFile.read,0.010768407682146866,0.0,0.0016537771071787146,0.0,0.01242218478932558
