dram,epoch,package,socket
0.0,0,0.0,1
0.0,1,0.0,1
0.20630999999957567,2,1.4806509999980335,1
0.0,3,0.0,1
0.004140000000916189,4,0.03674400000272726,1
0.0,5,0.0,1
0.00413999999727821,6,0.03344699999979639,1
0.0,7,0.0,1
0.004080000002431916,8,0.034667999998418964,1
0.0,9,0.0,1
0.02876999999898544,10,0.2254640000010113,1
0.0,11,0.0,1
0.004139999999097199,12,0.03161600000021281,1
0.0,13,0.0,1
0.0,14,0.0,1
0.0,15,0.0,1
0.004140000000916189,16,0.03192099999978382,1
0.0,17,0.0,1
0.004140000000916189,18,0.030822999999145395,1
0.0,19,0.0,1
0.03299999999944703,20,0.2427979999993113,1
0.0,21,0.0,1
0.008279999998194398,22,0.05767800000103307,1
0.0,23,0.0,1
0.03720000000066648,24,0.2723390000010113,1
0.0,25,0.0,1
0.03288000000065949,26,0.24896199999966484,1
0.0,27,0.0,1
0.028860000000349828,28,0.22192399999767076,1
0.0,29,0.0,1
0.05778000000100292,30,0.3910520000026736,1
0.0,31,0.0,1
0.00826500000039232,32,0.06011999999827822,1
0.0,33,0.0,1
0.03305999999975029,34,0.22283900000184076,1
0.0,35,0.0,1
0.0329699999983859,36,0.22692899999856309,1
0.0,37,0.0,1
0.033015000000887085,38,0.21002199999929871,1
0.0,39,0.0,1
0.06588000000010652,40,0.4597170000015467,1
0.0,41,0.0,1
0.004079999998793937,42,0.03320300000086718,1
0.0,43,0.0,1
0.02884500000254775,44,0.1937259999995149,1
0.0,45,0.0,1
0.03298499999800697,46,0.21643000000040047,1
0.0,47,0.0,1
0.03297000000020489,48,0.21228099999825645,1
0.0,49,0.0,1
0.17665500000111933,50,1.34405500000139,1
0.0,51,0.0,1
0.004140000000916189,52,0.02673300000060408,1
0.0,53,0.0,1
0.0,54,0.0,1
0.0,55,0.0,1
0.00413999999727821,56,0.02911399999902642,1
0.0,57,0.0,1
0.0,58,0.0,1
0.0,59,0.0,1
0.02457000000140397,60,0.18475299999954586,1
0.0,61,0.0,1
0.020565000000715372,62,0.153931000000739,1
0.0,63,0.0,1
0.02471999999943364,64,0.18853799999851617,1
0.0,65,0.0,1
0.03299999999944703,66,0.21539300000040384,1
0.0,67,0.0,1
0.037140000000363216,68,0.2413329999999405,1
0.0,69,0.0,1
0.04963499999939813,70,0.3415519999998651,1
0.0,71,0.0,1
0.016560000000026776,72,0.10546900000008463,1
0.0,73,0.0,1
0.028980000000956352,74,0.18280000000049768,1
0.0,75,0.0,1
0.03307499999937136,76,0.21667499999966822,1
0.0,77,0.0,1
0.0330599999979313,78,0.2579349999996339,1
0.0,79,0.0,1
0.045255000002725865,80,0.32952900000236696,1
0.0,81,0.0,1
0.016499999999723514,82,0.1266479999976582,1
0.0,83,0.0,1
0.033014999997249106,84,0.2686150000008638,1
0.0,85,0.0,1
0.0371850000028644,86,0.30444399999942107,1
0.0,87,0.0,1
0.03305999999975029,88,0.29309099999954924,1
0.0,89,0.0,1
0.041279999997641426,90,0.4025259999998525,1
0.0,91,0.0,1
0.02065500000207976,92,0.19793700000082026,1
0.0,93,0.0,1
0.03305999999975029,94,0.3170170000012149,1
0.0,95,0.0,1
0.03299999999944703,96,0.32018999999854714,1
0.0,97,0.0,1
0.03305999999975029,98,0.3039550000012241,1
0.0,99,0.0,1
0.04131000000234053,100,0.37597699999969336,1
0.0,101,0.0,1
0.024779999997917912,102,0.22296099999948638,1
0.0,103,0.0,1
0.03305999999975029,104,0.30004900000130874,1
0.0,105,0.0,1
0.03312000000187254,106,0.3035889999973733,1
0.0,107,0.0,1
0.03304499999831023,108,0.3027960000017629,1
0.0,109,0.0,1
0.041205000001355074,110,0.4235229999976582,1
0.0,111,0.0,1
0.020699999999123975,112,0.19531200000164972,1
0.0,113,0.0,1
0.03312000000005355,114,0.30682400000114285,1
0.0,115,0.0,1
0.0330599999979313,116,0.3142699999989418,1
0.0,117,0.0,1
0.033090000000811415,118,0.30718999999953667,1
0.0,119,0.0,1
0.049455000002126326,120,0.4617920000018785,1
0.0,121,0.0,1
0.012419999999110587,122,0.15167199999996228,1
0.0,123,0.0,1
0.02892000000065309,124,0.2576909999988857,1
0.0,125,0.0,1
0.03712500000074215,126,0.3294060000007448,1
0.0,127,0.0,1
0.03284999999959837,128,0.31524700000045414,1
0.0,129,0.0,1
0.04943999999704829,130,0.44988999999804946,1
0.0,131,0.0,1
0.016500000001542503,132,0.1451420000012149,1
0.0,133,0.0,1
0.033014999999068095,134,0.2889400000003661,1
0.0,135,0.0,1
0.02884500000254775,136,0.2509769999978744,1
0.0,137,0.0,1
0.037229999998089625,138,0.32501200000115205,1
0.0,139,0.0,1
0.0495599999994738,140,0.4384760000011738,1
0.0,141,0.0,1
0.01644000000123924,142,0.14172399999915797,1
0.0,143,0.0,1
0.03305999999975029,144,0.27313199999844073,1
0.0,145,0.0,1
0.028814999999667634,146,0.2540900000003603,1
0.0,147,0.0,1
0.037140000000363216,148,0.33361800000056974,1
0.0,149,0.0,1
0.053594999999404536,150,0.4714960000019346,1
0.0,151,0.0,1
0.008249999998952262,152,0.0773929999977554,1
0.0,153,0.0,1
0.03708000000187894,154,0.32684300000073563,1
0.0,155,0.0,1
0.03303000000050815,156,0.2830200000007608,1
0.0,157,0.0,1
0.028860000000349828,158,0.23248299999795563,1
0.0,159,0.0,1
0.04959000000053493,160,0.4050900000020192,1
0.0,161,0.0,1
0.02065499999844178,162,0.17254699999830336,1
0.0,163,0.0,1
0.02892000000065309,164,0.22485300000153075,1
0.0,165,0.0,1
0.033014999999068095,166,0.25903399999879184,1
0.0,167,0.0,1
0.03299999999944703,168,0.2585450000005949,1
0.0,169,0.0,1
0.04948500000136846,170,0.3910520000008546,1
0.0,171,0.0,1
0.016439999997601262,172,0.15710399999807123,1
0.0,173,0.0,1
0.028874999999970896,174,0.23632800000086718,1
0.0,175,0.0,1
0.03292500000134169,176,0.25353999999970256,1
0.0,177,0.0,1
0.033090000000811415,178,0.28881900000124006,1
0.0,179,0.0,1
0.04123499999877822,180,0.35382100000060746,1
0.0,181,0.0,1
0.016470000002300367,182,0.1230459999969753,1
0.0,183,0.0,1
0.037140000000363216,184,0.29150400000253285,1
0.0,185,0.0,1
0.028800000000046566,186,0.23211699999774282,1
0.0,187,0.0,1
0.03305999999975029,188,0.26000999999996566,1
0.0,189,0.0,1
0.0495599999994738,190,0.38800000000082946,1
0.0,191,0.0,1
0.012359999998807325,192,0.09503200000108336,1
0.0,193,0.0,1
0.03712499999892316,194,0.26940900000045076,1
0.0,195,0.0,1
0.03303000000232714,196,0.2406619999983377,1
0.0,197,0.0,1
0.028874999999970896,198,0.2127680000012333,1
0.0,199,0.0,1
0.04942499999924621,200,0.3773200000014185,1
0.0,201,0.0,1
0.020609999999578577,202,0.14208999999755179,1
0.0,203,0.0,1
0.03304499999831023,204,0.23815900000045076,1
0.0,205,0.0,1
0.028860000003987807,206,0.2096559999990859,1
0.0,207,0.0,1
0.03713999999672524,208,0.2667840000012802,1
0.0,209,0.0,1
0.045405000000755535,210,0.3370969999996305,1
0.0,211,0.0,1
0.02059499999995751,212,0.15716599999905156,1
0.0,213,0.0,1
0.03310500000043248,214,0.23303200000009383,1
0.0,215,0.0,1
0.028980000000956352,216,0.2093510000013339,1
0.0,217,0.0,1
0.037064999998619896,218,0.2772819999991043,1
0.0,219,0.0,1
0.045345000000452274,220,0.3251349999991362,1
0.0,221,0.0,1
0.016500000001542503,222,0.11474600000110513,1
0.0,223,0.0,1
0.037229999998089625,224,0.25384499999927357,1
0.0,225,0.0,1
0.028905000001032022,226,0.21398900000167487,1
0.0,227,0.0,1
0.03289499999846157,228,0.24487299999964307,1
0.0,229,0.0,1
0.04948500000136846,230,0.3679809999994177,1
0.0,231,0.0,1
0.02057999999851745,232,0.1471560000009049,1
0.0,233,0.0,1
0.03307500000119035,234,0.2255249999998341,1
0.0,235,0.0,1
0.02885999999853084,236,0.21581999999762047,1
0.0,237,0.0,1
0.03295500000058382,238,0.23565700000290235,1
0.0,239,0.0,1
0.049530000002050656,240,0.3458859999991546,1
0.0,241,0.0,1
0.016514999997525592,242,0.12603799999851617,1
0.0,243,0.0,1
0.037140000000363216,244,0.2592160000003787,1
0.0,245,0.0,1
0.03297000000202388,246,0.25103800000215415,1
0.0,247,0.0,1
0.028860000000349828,248,0.20629899999767076,1
0.0,249,0.0,1
0.045344999998633284,250,0.3510129999995115,1
0.0,251,0.0,1
0.02058000000033644,252,0.1414790000017092,1
0.0,253,0.0,1
0.03305999999975029,254,0.2401739999986603,1
0.0,255,0.0,1
0.03295500000058382,256,0.23358100000041304,1
0.0,257,0.0,1
0.033014999997249106,258,0.23626700000204437,1
0.0,259,0.0,1
0.04536000000371132,260,0.33044499999778054,1
0.0,261,0.0,1
0.020639999997001723,262,0.1457510000000184,1
0.0,263,0.0,1
0.03297000000202388,264,0.23285000000032596,1
0.0,265,0.0,1
0.03299999999944703,266,0.2342529999987164,1
0.0,267,0.0,1
0.0289199999988341,268,0.20062200000029407,1
0.0,269,0.0,1
0.04959000000053493,270,0.3416749999996682,1
0.0,271,0.0,1
0.020565000000715372,272,0.154236000002129,1
0.0,273,0.0,1
0.03305999999975029,274,0.2372430000013992,1
0.0,275,0.0,1
0.032940000000962755,276,0.23254399999859743,1
0.0,277,0.0,1
0.033029999998689163,278,0.24194399999942107,1
0.0,279,0.0,1
0.04546499999923981,280,0.30291699999906996,1
0.0,281,0.0,1
0.020700000000942964,282,0.14221200000065437,1
0.0,283,0.0,1
0.03295500000058382,284,0.23315399999955844,1
0.0,285,0.0,1
0.03299999999944703,286,0.2165530000002036,1
0.0,287,0.0,1
0.028815000001486624,288,0.18316700000104902,1
0.0,289,0.0,1
0.04945499999848835,290,0.3449090000012802,1
0.0,291,0.0,1
0.02058000000033644,292,0.14599599999746715,1
0.0,293,0.0,1
0.03305999999975029,294,0.2273559999994177,1
0.0,295,0.0,1
0.028949999999895226,296,0.20636000000376953,1
0.0,297,0.0,1
0.03703499999937776,298,0.2803959999964718,1
0.0,299,0.0,1
0.04529999999977008,300,0.33148200000323413,1
0.0,301,0.0,1
0.01651500000116357,302,0.12487799999689742,1
0.0,303,0.0,1
0.033090000000811415,304,0.2415770000006887,1
0.0,305,0.0,1
0.03725999999915075,306,0.2595819999987725,1
0.0,307,0.0,1
0.028965000001335284,308,0.19958500000393542,1
0.0,309,0.0,1
0.04543499999817868,310,0.35559099999954924,1
0.0,311,0.0,1
0.01645500000086031,312,0.12158199999794306,1
0.0,313,0.0,1
0.037139999998544226,314,0.26037600000017846,1
0.0,315,0.0,1
0.028980000000956352,316,0.19043000000056054,1
0.0,317,0.0,1
0.033090000000811415,318,0.20446699999956763,1
0.0,319,0.0,1
0.04952999999841268,320,0.3475959999996121,1
0.0,321,0.0,1
0.016470000000481377,322,0.12225300000136485,1
0.0,323,0.0,1
0.03305999999975029,324,0.23284899999998743,1
0.0,325,0.0,1
0.03304500000012922,326,0.2321780000002036,1
0.0,327,0.0,1
0.03719999999884749,328,0.25372299999980896,1
0.0,329,0.0,1
0.04543500000363565,330,0.3186039999982313,1
0.0,331,0.0,1
0.016559999998207786,332,0.11047300000245741,1
0.0,333,0.0,1
0.032940000000962755,334,0.23992899999939254,1
0.0,335,0.0,1
0.033089999997173436,336,0.2343139999975392,1
0.0,337,0.0,1
0.03310500000225147,338,0.23370400000203517,1
0.0,339,0.0,1
0.04537499999969441,340,0.33136000000013155,1
0.0,341,0.0,1
0.020609999999578577,342,0.1472780000003695,1
0.0,343,0.0,1
0.03304500000194821,344,0.24676499999986845,1
0.0,345,0.0,1
0.032939999997324776,346,0.2370599999994738,1
0.0,347,0.0,1
0.03303000000050815,348,0.24127199999929871,1
0.0,349,0.0,1
0.0454650000010588,350,0.32403599999997823,1
0.0,351,0.0,1
0.020624999999199645,352,0.15496800000073563,1
0.0,353,0.0,1
0.028874999999970896,354,0.215820999999778,1
0.0,355,0.0,1
0.03720000000066648,356,0.26257299999997485,1
0.0,357,0.0,1
0.03304499999831023,358,0.24267600000166567,1
0.0,359,0.0,1
0.045405000002574525,360,0.3282469999994646,1
0.0,361,0.0,1
0.016559999998207786,362,0.12133799999901385,1
0.0,363,0.0,1
0.037140000000363216,364,0.27124000000185333,1
0.0,365,0.0,1
0.03300000000126602,366,0.24829099999806203,1
0.0,367,0.0,1
0.024779999997917912,368,0.20629899999948975,1
0.0,369,0.0,1
0.049530000000231666,370,0.3168939999995928,1
0.0,371,0.0,1
0.016410000000178115,372,0.10748300000159361,1
0.0,373,0.0,1
0.03719999999884749,374,0.24432399999932386,1
0.0,375,0.0,1
0.033015000000887085,376,0.21331799999825307,1
0.0,377,0.0,1
0.028965000001335284,378,0.1810300000015559,1
0.0,379,0.0,1
0.04945499999848835,380,0.31805399999939254,1
0.0,381,0.0,1
0.016514999999344582,382,0.13238499999897613,1
0.0,383,0.0,1
0.02898000000277534,384,0.18194600000060746,1
0.0,385,0.0,1
0.037140000000363216,386,0.26055900000028487,1
0.0,387,0.0,1
0.02878499999860651,388,0.19274900000164052,1
0.0,389,0.0,1
0.0454650000010588,390,0.28845299999920826,1
0.0,391,0.0,1
0.020624999999199645,392,0.13970900000094844,1
0.0,393,0.0,1
0.033014999999068095,394,0.26019299999825307,1
0.0,395,0.0,1
0.028860000002168817,396,0.20208699999966484,1
0.0,397,0.0,1
0.032864999997400446,398,0.21356200000082026,1
0.0,399,0.0,1
0.0495150000006106,400,0.31634499999927357,1
0.0,401,0.0,1
0.02065500000026077,402,0.14862100000027567,1
0.0,403,0.0,1
0.028949999999895226,404,0.19946299999901385,1
0.0,405,0.0,1
0.032940000000962755,406,0.23815900000045076,1
0.0,407,0.0,1
0.03720000000066648,408,0.26794400000108,1
0.0,409,0.0,1
0.04125000000021828,410,0.3031620000001567,1
0.0,411,0.0,1
0.020624999999199645,412,0.15167199999996228,1
0.0,413,0.0,1
0.033104999998613494,414,0.23541299999851617,1
0.0,415,0.0,1
0.03299999999944703,416,0.23516899999958696,1
0.0,417,0.0,1
0.028905000001032022,418,0.24121000000377535,1
0.0,419,0.0,1
0.045509999999922,420,0.32647799999904237,1
0.0,421,0.0,1
0.02058000000033644,422,0.15087800000037532,1
0.0,423,0.0,1
0.032939999999143765,424,0.2413940000005823,1
0.0,425,0.0,1
0.033014999999068095,426,0.23193399999581743,1
0.0,427,0.0,1
0.032940000000962755,428,0.24499500000274566,1
0.0,429,0.0,1
0.0454650000010588,430,0.3165900000003603,1
0.0,431,0.0,1
0.016560000000026776,432,0.11907900000005611,1
0.0,433,0.0,1
0.03718499999922642,434,0.26922599999852537,1
0.0,435,0.0,1
0.03303000000050815,436,0.23089600000093924,1
0.0,437,0.0,1
0.03304499999831023,438,0.23797599999852537,1
0.0,439,0.0,1
0.045509999999922,440,0.3146980000019539,1
0.0,441,0.0,1
0.016470000002300367,442,0.127623999998832,1
0.0,443,0.0,1
0.037154999998165295,444,0.26275600000008126,1
0.0,445,0.0,1
0.03304500000194821,446,0.23504700000012235,1
0.0,447,0.0,1
0.028829999997469713,448,0.19848600000113947,1
0.0,449,0.0,1
0.04959000000053493,450,0.3475949999974546,1
0.0,451,0.0,1
0.016485000000102445,452,0.12066700000286801,1
0.0,453,0.0,1
0.037215000000287546,454,0.2654419999980746,1
0.0,455,0.0,1
0.03299999999944703,456,0.23938000000089232,1
0.0,457,0.0,1
0.02884500000254775,458,0.21136399999886635,1
0.0,459,0.0,1
0.04951499999697262,460,0.3586430000013934,1
0.0,461,0.0,1
0.016470000002300367,462,0.11675999999897613,1
0.0,463,0.0,1
0.037140000000363216,464,0.26648000000204775,1
0.0,465,0.0,1
0.028979999999137362,466,0.20251399999688147,1
0.0,467,0.0,1
0.0329249999995227,468,0.2413330000017595,1
0.0,469,0.0,1
0.049530000000231666,470,0.35784899999816844,1
0.0,471,0.0,1
0.016544999998586718,472,0.11743200000273646,1
0.0,473,0.0,1
0.03300000000126602,474,0.23931900000025053,1
0.0,475,0.0,1
0.03712499999892316,476,0.2788089999994554,1
0.0,477,0.0,1
0.028935000000274158,478,0.21087599999918893,1
0.0,479,0.0,1
0.049455000000307336,480,0.346068999999261,1
0.0,481,0.0,1
0.016500000001542503,482,0.1160280000003695,1
0.0,483,0.0,1
0.0329699999983859,484,0.24639900000147463,1
0.0,485,0.0,1
0.03717000000142434,486,0.2566530000003695,1
0.0,487,0.0,1
0.02885999999853084,488,0.20928899999853456,1
0.0,489,0.0,1
0.04543499999999767,490,0.32666100000096776,1
0.0,491,0.0,1
0.016470000002300367,492,0.14892499999950815,1
0.0,493,0.0,1
0.033014999997249106,494,0.21667499999966822,1
0.0,495,0.0,1
0.03297000000202388,496,0.21502699999837205,1
0.0,497,0.0,1
0.033029999998689163,498,0.23468000000139,1
0.0,499,0.0,1
0.04536000000189233,500,0.3010870000016439,1
0.0,501,0.0,1
0.020609999999578577,502,0.14868099999875994,1
0.0,503,0.0,1
0.03295499999876483,504,0.2424929999979213,1
0.0,505,0.0,1
0.03303000000050815,506,0.23815900000045076,1
0.0,507,0.0,1
0.03718499999922642,508,0.25781300000016927,1
0.0,509,0.0,1
0.041205000001355074,510,0.3045650000003661,1
0.0,511,0.0,1
0.020624999999199645,512,0.14398200000141514,1
0.0,513,0.0,1
0.03305999999975029,514,0.21655299999838462,1
0.0,515,0.0,1
0.03303000000232714,516,0.2344360000006418,1
0.0,517,0.0,1
0.03299999999944703,518,0.22113000000172178,1
0.0,519,0.0,1
0.041279999997641426,520,0.3049319999990985,1
0.0,521,0.0,1
0.024750000000494765,522,0.17639099999905739,1
0.0,523,0.0,1
0.03295500000058382,524,0.2515260000000126,1
0.0,525,0.0,1
0.028860000000349828,526,0.20770300000003772,1
0.0,527,0.0,1
0.037140000000363216,528,0.27160600000024715,1
0.0,529,0.0,1
0.04544999999961874,530,0.33831800000007206,1
0.0,531,0.0,1
0.016499999999723514,532,0.122375999999349,1
0.0,533,0.0,1
0.03295499999876483,534,0.24719200000254204,1
0.0,535,0.0,1
0.03712499999892316,536,0.282959000000119,1
0.0,537,0.0,1
0.028860000003987807,538,0.20318599999700382,1
0.0,539,0.0,1
0.049544999998033745,540,0.36969000000135566,1
0.0,541,0.0,1
0.020640000000639702,542,0.15045200000167824,1
0.0,543,0.0,1
0.028874999999970896,544,0.2136839999966469,1
0.0,545,0.0,1
0.03712500000074215,546,0.27136200000131794,1
0.0,547,0.0,1
0.03307499999937136,548,0.2388920000012149,1
0.0,549,0.0,1
0.037079999998240964,550,0.30267299999832176,1
0.0,551,0.0,1
0.020640000000639702,552,0.14819300000090152,1
0.0,553,0.0,1
0.03305999999975029,554,0.24322599999868544,1
0.0,555,0.0,1
0.037154999999984284,556,0.26531900000009045,1
0.0,557,0.0,1
0.028935000000274158,558,0.2168580000015936,1
0.0,559,0.0,1
0.04534500000227126,560,0.3392340000009426,1
0.0,561,0.0,1
0.020699999999123975,562,0.15167199999996228,1
0.0,563,0.0,1
0.03712500000074215,564,0.26403799999934563,1
0.0,565,0.0,1
0.02885999999853084,566,0.20574999999917054,1
0.0,567,0.0,1
0.033090000000811415,568,0.24530000000049768,1
0.0,569,0.0,1
0.04960499999833701,570,0.35357699999804026,1
0.0,571,0.0,1
0.016545000002224697,572,0.11938399999962712,1
0.0,573,0.0,1
0.029564999997091945,574,0.24688800000330957,1
0.0,575,0.0,1
0.02358000000094762,576,0.2302849999996397,1
0.0,577,0.0,1
0.023640000001250883,578,0.21050999999897613,1
0.0,579,0.0,1
0.04064999999900465,580,0.3097539999998844,1
0.0,581,0.0,1
0.020684999999502907,582,0.14862000000175613,1
0.0,583,0.0,1
0.03298499999982596,584,0.24475099999835948,1
0.0,585,0.0,1
0.03310500000225147,586,0.23272700000052282,1
0.0,587,0.0,1
0.024824999998600106,588,0.20587200000045414,1
0.0,589,0.0,1
0.048404999999547726,590,0.35656699999890407,1
0.0,591,0.0,1
0.020685000001321896,592,0.14385999999831256,1
0.0,593,0.0,1
0.028949999999895226,594,0.22845500000221364,1
0.0,595,0.0,1
0.0289199999988341,596,0.17883299999812152,1
0.0,597,0.0,1
0.037140000000363216,598,0.22998000000188767,1
0.0,599,0.0,1
0.045494999998481944,600,0.2811279999987164,1
0.0,601,0.0,1
0.012360000000626314,602,0.10418700000082026,1
0.0,603,0.0,1
0.037215000000287546,604,0.23052999999890744,1
0.0,605,0.0,1
0.03307499999937136,606,0.2073369999998249,1
0.0,607,0.0,1
0.02892000000247208,608,0.17944300000090152,1
0.0,609,0.0,1
0.04948499999954947,610,0.33624300000155927,1
0.0,611,0.0,1
0.016560000000026776,612,0.1362909999988915,1
0.0,613,0.0,1
0.03298499999800697,614,0.2179569999989326,1
0.0,615,0.0,1
0.024840000001859153,616,0.1790770000006887,1
0.0,617,0.0,1
0.03718499999922642,618,0.25317399999948975,1
0.0,619,0.0,1
0.04549500000211992,620,0.31909100000120816,1
0.0,621,0.0,1
0.020639999997001723,622,0.13891599999988102,1
0.0,623,0.0,1
0.028905000001032022,624,0.17932199999995646,1
0.0,625,0.0,1
0.037140000000363216,626,0.23297099999763304,1
0.0,627,0.0,1
0.0289199999988341,628,0.18420400000286463,1
0.0,629,0.0,1
0.03710999999930209,630,0.2901000000001659,1
0.0,631,0.0,1
0.02479500000117696,632,0.15740999999979977,1
0.0,633,0.0,1
0.028860000000349828,634,0.19763199999943026,1
0.0,635,0.0,1
0.033015000000887085,636,0.2220450000004348,1
0.0,637,0.0,1
0.028829999997469713,638,0.22625799999877927,1
0.0,639,0.0,1
0.04132500000014261,640,0.29425000000082946,1
0.0,641,0.0,1
0.020670000001700828,642,0.1307379999980185,1
0.0,643,0.0,1
0.0329699999983859,644,0.20660400000269874,1
0.0,645,0.0,1
0.03717000000324333,646,0.25335699999959616,1
0.0,647,0.0,1
0.028829999997469713,648,0.20031699999890407,1
0.0,649,0.0,1
0.04537499999969441,650,0.3207400000010239,1
0.0,651,0.0,1
0.020640000000639702,652,0.1499020000010205,1
0.0,653,0.0,1
0.03305999999975029,654,0.22558599999865692,1
0.0,655,0.0,1
0.033015000000887085,656,0.21050999999897613,1
0.0,657,0.0,1
0.03304499999831023,658,0.23138400000061665,1
0.0,659,0.0,1
0.04956000000311178,660,0.31286700000055134,1
0.0,661,0.0,1
0.01645499999722233,662,0.1187129999998433,1
0.0,663,0.0,1
0.03310500000225147,664,0.22943099999974947,1
0.0,665,0.0,1
0.033014999999068095,666,0.23785399999906076,1
0.0,667,0.0,1
0.033029999998689163,668,0.23992899999939254,1
0.0,669,0.0,1
0.04537499999969441,670,0.3170170000012149,1
0.0,671,0.0,1
0.020684999999502907,672,0.14813200000025972,1
0.0,673,0.0,1
0.03298500000346394,674,0.24560600000040722,1
0.0,675,0.0,1
0.028814999997848645,676,0.22198499999831256,1
0.0,677,0.0,1
0.037065000000438886,678,0.2800900000020192,1
0.0,679,0.0,1
0.04538999999931548,680,0.346068999999261,1
0.0,681,0.0,1
0.02066999999988184,682,0.15417499999966822,1
0.0,683,0.0,1
0.028830000001107692,684,0.22222899999906076,1
0.0,685,0.0,1
0.037154999999984284,686,0.28210500000204775,1
0.0,687,0.0,1
0.028904999999213032,688,0.22271699999873817,1
0.0,689,0.0,1
0.04940999999962514,690,0.38519300000007206,1
0.0,691,0.0,1
0.020685000001321896,692,0.15393000000040047,1
0.0,693,0.0,1
0.03295499999876483,694,0.2522590000007767,1
0.0,695,0.0,1
0.028890000001410954,696,0.22228999999788357,1
0.0,697,0.0,1
0.037140000000363216,698,0.2708130000028177,1
0.0,699,0.0,1
0.04132500000014261,700,0.3011470000001282,1
0.0,701,0.0,1
0.020624999999199645,702,0.1555789999983972,1
0.0,703,0.0,1
0.028829999999288702,704,0.2500609999988228,1
0.0,705,0.0,1
0.03306000000156928,706,0.24499500000092667,1
0.0,707,0.0,1
0.03299999999944703,708,0.24523899999985588,1
0.0,709,0.0,1
0.04948499999954947,710,0.36865299999954004,1
0.0,711,0.0,1
0.02057999999851745,712,0.15356400000200665,1
0.0,713,0.0,1
0.028980000000956352,714,0.21783499999946798,1
0.0,715,0.0,1
0.03303000000232714,716,0.24951099999816506,1
0.0,717,0.0,1
0.032954999996945844,718,0.24902400000064517,1
0.0,719,0.0,1
0.049470000001747394,720,0.37384000000020023,1
0.0,721,0.0,1
0.016499999999723514,722,0.1254270000008546,1
0.0,723,0.0,1
0.032939999999143765,724,0.25201399999969,1
0.0,725,0.0,1
0.028860000002168817,726,0.2525640000021667,1
0.0,727,0.0,1
0.03298499999800697,728,0.24835199999688484,1
0.0,729,0.0,1
0.045345000000452274,730,0.34112500000082946,1
0.0,731,0.0,1
0.020670000001700828,732,0.1532599999991362,1
0.0,733,0.0,1
0.03299999999944703,734,0.24804699999913282,1
0.0,735,0.0,1
0.03295499999876483,736,0.2480470000009518,1
0.0,737,0.0,1
0.03303000000050815,738,0.24536100000113947,1
0.0,739,0.0,1
0.049469999998109415,740,0.36254900000130874,1
0.0,741,0.0,1
0.01644000000123924,742,0.11712599999918893,1
0.0,743,0.0,1
0.03295500000058382,744,0.23205599999892002,1
0.0,745,0.0,1
0.033104999998613494,746,0.23138400000061665,1
0.0,747,0.0,1
0.03712500000074215,748,0.2572019999988697,1
0.0,749,0.0,1
0.0822150000003603,750,0.5832520000003569,1
0.0,751,0.0,1
0.004080000000612927,752,0.02771000000029744,1
0.0,753,0.0,1
0.008189999998649,754,0.06085200000052282,1
0.0,755,0.0,1
0.028649999998378917,756,0.21148700000048848,1
0.0,757,0.0,1
0.03715500000180327,758,0.2609250000004977,1
0.0,759,0.0,1
0.04115999999885389,760,0.2913209999969695,1
0.0,761,0.0,1
0.024690000002010493,762,0.171875,1
0.0,763,0.0,1
0.02885999999853084,764,0.19958500000211643,1
0.0,765,0.0,1
0.037140000000363216,766,0.23785399999906076,1
0.0,767,0.0,1
0.024750000000494765,768,0.18322799999987183,1
0.0,769,0.0,1
0.04133999999976368,770,0.2952880000011646,1
0.0,771,0.0,1
0.024825000000419095,772,0.1737669999984064,1
0.0,773,0.0,1
0.028904999999213032,774,0.20404000000053202,1
0.0,775,0.0,1
0.03712499999892316,776,0.2579349999996339,1
0.0,777,0.0,1
0.028905000001032022,778,0.20159899999998743,1
0.0,779,0.0,1
0.05356500000198139,780,0.3819580000017595,1
0.0,781,0.0,1
0.012374999998428393,782,0.0846560000009049,1
0.0,783,0.0,1
0.03292500000134169,784,0.23229999999966822,1
0.0,785,0.0,1
0.037140000000363216,786,0.2601309999990917,1
0.0,787,0.0,1
0.028889999997772975,788,0.20141599999988102,1
0.0,789,0.0,1
0.04957499999909487,790,0.3408820000004198,1
0.0,791,0.0,1
0.020625000001018634,792,0.12426699999741686,1
0.0,793,0.0,1
0.02892000000065309,794,0.17559800000162795,1
0.0,795,0.0,1
0.03297000000020489,796,0.21673599999849102,1
0.0,797,0.0,1
0.0330599999979313,798,0.20684800000344694,1
0.0,799,0.0,1
0.0454650000010588,800,0.30395599999974365,1
0.0,801,0.0,1
0.020609999999578577,802,0.12786799999776122,1
0.0,803,0.0,1
0.03303000000050815,804,0.22418200000174693,1
0.0,805,0.0,1
0.03305999999975029,806,0.2098999999998341,1
0.0,807,0.0,1
0.03718499999922642,808,0.24646000000029744,1
0.0,809,0.0,1
0.0412350000024162,810,0.2739870000004885,1
0.0,811,0.0,1
0.024734999999054708,812,0.15313699999751407,1
0.0,813,0.0,1
0.028785000000425498,814,0.18170199999985925,1
0.0,815,0.0,1
0.033015000000887085,816,0.20605500000237953,1
0.0,817,0.0,1
0.03304499999831023,818,0.21862699999837787,1
0.0,819,0.0,1
0.045480000000679865,820,0.2870490000004793,1
0.0,821,0.0,1
0.02057999999851745,822,0.14599600000110513,1
0.0,823,0.0,1
0.03298500000346394,824,0.2299799999982497,1
0.0,825,0.0,1
0.03304499999831023,826,0.22863799999868206,1
0.0,827,0.0,1
0.028980000000956352,828,0.20001200000115205,1
0.0,829,0.0,1
0.04543499999999767,830,0.3147590000007767,1
0.0,831,0.0,1
0.024809999998979038,832,0.16955500000040047,1
0.0,833,0.0,1
0.02885999999853084,834,0.20342999999775202,1
0.0,835,0.0,1
0.03717000000324333,836,0.24847500000032596,1
0.0,837,0.0,1
0.028979999997318373,838,0.1816400000006979,1
0.0,839,0.0,1
0.04539000000113447,840,0.2880860000022949,1
0.0,841,0.0,1
0.02471999999761465,842,0.15435799999795563,1
0.0,843,0.0,1
0.028874999999970896,844,0.1830439999994269,1
0.0,845,0.0,1
0.037065000002257875,846,0.23785400000269874,1
0.0,847,0.0,1
0.028964999999516294,848,0.18249599999762722,1
0.0,849,0.0,1
0.04125000000021828,850,0.2593379999998433,1
0.0,851,0.0,1
0.024734999999054708,852,0.15838600000097358,1
0.0,853,0.0,1
0.03720000000066648,854,0.23559600000044156,1
0.0,855,0.0,1
0.028905000001032022,856,0.18249499999910768,1
0.0,857,0.0,1
0.03304499999831023,858,0.2121580000002723,1
0.0,859,0.0,1
0.04536000000007334,860,0.29363999999804946,1
0.0,861,0.0,1
0.024840000000040163,862,0.1606450000017503,1
0.0,863,0.0,1
0.02479500000117696,864,0.18835399999989022,1
0.0,865,0.0,1
0.037229999999908614,866,0.23663400000077672,1
0.0,867,0.0,1
0.02892000000065309,868,0.1833490000008169,1
0.0,869,0.0,1
0.041279999997641426,870,0.2634280000002036,1
0.0,871,0.0,1
0.028935000000274158,872,0.18560799999795563,1
0.0,873,0.0,1
0.028905000001032022,874,0.1874390000011772,1
0.0,875,0.0,1
0.03303000000050815,876,0.21411099999932048,1
0.0,877,0.0,1
0.033029999998689163,878,0.2189939999989292,1
0.0,879,0.0,1
0.041340000001582666,880,0.2638550000010582,1
0.0,881,0.0,1
0.0247799999997369,882,0.15692200000012235,1
0.0,883,0.0,1
0.03300000000126602,884,0.19152799999937997,1
0.0,885,0.0,1
0.0329249999995227,886,0.19238299999960873,1
0.0,887,0.0,1
0.033104999998613494,888,0.17535400000087975,1
0.0,889,0.0,1
0.04129500000090047,890,0.2166750000014872,1
0.0,891,0.0,1
0.024825000000419095,892,0.13159099999938917,1
0.0,893,0.0,1
0.03305999999975029,894,0.1777959999999439,1
0.0,895,0.0,1
0.032940000000962755,896,0.17614700000012817,1
0.0,897,0.0,1
0.033104999996794504,898,0.1759039999997185,1
0.0,899,0.0,1
0.04122000000279513,900,0.21972599999935483,1
0.0,901,0.0,1
0.024764999996477854,902,0.13043199999810895,1
0.0,903,0.0,1
0.028965000001335284,904,0.1700440000022354,1
0.0,905,0.0,1
0.03304500000194821,906,0.17333999999937078,1
0.0,907,0.0,1
0.028889999997772975,908,0.1470339999996213,1
0.0,909,0.0,1
0.04543500000181666,910,0.23754900000130874,1
0.0,911,0.0,1
0.024809999998979038,912,0.13134699999864097,1
0.0,913,0.0,1
0.028890000001410954,914,0.1535650000005262,1
0.0,915,0.0,1
0.03131999999823165,916,0.19506800000090152,1
0.0,917,0.0,1
0.014144999999189167,918,0.14428699999734818,1
0.0,919,0.0,1
0.02538000000095053,920,0.23486400000183494,1
0.0,921,0.0,1
0.01765500000146858,922,0.12158199999976205,1
0.0,923,0.0,1
0.02537999999913154,924,0.14855900000111433,1
0.0,925,0.0,1
0.03355499999997846,926,0.18719499999861,1
0.0,927,0.0,1
0.028740000001562294,928,0.1477050000012241,1
0.0,929,0.0,1
0.041204999997717096,930,0.25103799999851617,1
0.0,0,0.0,2
0.0,1,0.0,2
0.24531000000024505,2,1.3043820000166306,2
0.0,3,0.0,2
0.005175000000235741,4,0.03070099999604281,2
0.0,5,0.0,2
0.006239999999706924,6,0.03167699999175966,2
0.0,7,0.0,2
0.006225000000085856,8,0.03369100000418257,2
0.0,9,0.0,2
0.03848999999991065,10,0.19628999999258667,2
0.0,11,0.0,2
0.005190000000766304,12,0.03204300001380034,2
0.0,13,0.0,2
0.0,14,0.0,2
0.0,15,0.0,2
0.004109999998945568,16,0.026122999988729134,2
0.0,17,0.0,2
0.0,18,0.0,2
0.0,19,0.0,2
0.04666500000075757,20,0.2658079999964684,2
0.0,21,0.0,2
0.010379999999713618,22,0.061096000004909,2
0.0,23,0.0,2
0.0368399999997564,24,0.24292000000423286,2
0.0,25,0.0,2
0.04140000000006694,26,0.24859599999035709,2
0.0,27,0.0,2
0.034139999999752035,28,0.1746220000059111,2
0.0,29,0.0,2
0.06024000000070373,30,0.3696899999922607,2
0.0,31,0.0,2
0.01036500000009255,32,0.06781000000773929,2
0.0,33,0.0,2
0.032564999999522115,34,0.21209699999599252,2
0.0,35,0.0,2
0.04573500000060449,36,0.26116999999794643,2
0.0,37,0.0,2
0.03713999999945372,38,0.21435500000370666,2
0.0,39,0.0,2
0.08931000000029599,40,0.454528999995091,2
0.0,41,0.0,2
0.005189999999856809,42,0.028808000017306767,2
0.0,43,0.0,2
0.032009999999900174,44,0.15948499999649357,2
0.0,45,0.0,2
0.027569999999286665,46,0.17712399999436457,2
0.0,47,0.0,2
0.04329000000052474,48,0.17144799999368843,2
0.0,49,0.0,2
0.2850750000006883,50,1.435791000010795,2
0.0,51,0.0,2
0.0062549999993279926,52,0.026855999996769242,2
0.0,53,0.0,2
0.0,54,0.0,2
0.0,55,0.0,2
0.006225000000085856,56,0.02886900000157766,2
0.0,57,0.0,2
0.0,58,0.0,2
0.0,59,0.0,2
0.03433500000028289,60,0.17620899999747053,2
0.0,61,0.0,2
0.026939999999740394,62,0.09552000000257976,2
0.0,63,0.0,2
0.04257000000052358,64,0.21789499999431428,2
0.0,65,0.0,2
0.04945499999939784,66,0.25,2
0.0,67,0.0,2
0.05569500000001426,68,0.22161900000355672,2
0.0,69,0.0,2
0.05580000000009022,70,0.3288570000004256,2
0.0,71,0.0,2
0.0174299999998766,72,0.1114510000043083,2
0.0,73,0.0,2
0.028694999999970605,74,0.17645199999969918,2
0.0,75,0.0,2
0.03611999999975524,76,0.20556699999724515,2
0.0,77,0.0,2
0.05410500000107277,78,0.2390739999973448,2
0.0,79,0.0,2
0.06319499999881373,80,0.3192140000028303,2
0.0,81,0.0,2
0.020730000001094595,82,0.13085999999020714,2
0.0,83,0.0,2
0.04670999999871128,84,0.2355340000067372,2
0.0,85,0.0,2
0.051615000001220324,86,0.30877699999837205,2
0.0,87,0.0,2
0.047700000000077125,88,0.26245100000232924,2
0.0,89,0.0,2
0.062039999999797146,90,0.33673099998850375,2
0.0,91,0.0,2
0.031139999999140855,92,0.1683960000082152,2
0.0,93,0.0,2
0.04992000000038388,94,0.2459110000054352,2
0.0,95,0.0,2
0.04997999999977765,96,0.23541199999453966,2
0.0,97,0.0,2
0.044504999999844586,98,0.23388700000941753,2
0.0,99,0.0,2
0.05377500000031432,100,0.3154299999878276,2
0.0,101,0.0,2
0.037260000000060245,102,0.21105900000839029,2
0.0,103,0.0,2
0.04776000000038039,104,0.28234900000097696,2
0.0,105,0.0,2
0.038264999999228166,106,0.21173099998850375,2
0.0,107,0.0,2
0.05188500000076601,108,0.24548300000606105,2
0.0,109,0.0,2
0.07822499999929278,110,0.40124500000092667,2
0.0,111,0.0,2
0.03616500000043743,112,0.18646300000546034,2
0.0,113,0.0,2
0.06560999999965134,114,0.30200199999671895,2
0.0,115,0.0,2
0.06271500000002561,116,0.32714799999666866,2
0.0,117,0.0,2
0.06480000000010477,118,0.29394599999068305,2
0.0,119,0.0,2
0.09785999999985506,120,0.4840690000128234,2
0.0,121,0.0,2
0.03277500000058353,122,0.1487429999979213,2
0.0,123,0.0,2
0.05747999999948661,124,0.25762899999972433,2
0.0,125,0.0,2
0.06543000000056054,126,0.371765999996569,2
0.0,127,0.0,2
0.04978500000015629,128,0.324707000007038,2
0.0,129,0.0,2
0.07481999999890832,130,0.4634400000068126,2
0.0,131,0.0,2
0.024735000000873697,132,0.13427699999010656,2
0.0,133,0.0,2
0.049425000000155705,134,0.2716059999947902,2
0.0,135,0.0,2
0.04331999999976688,136,0.22790600000007544,2
0.0,137,0.0,2
0.04930499999954918,138,0.342346000004909,2
0.0,139,0.0,2
0.07597500000065338,140,0.4305420000018785,2
0.0,141,0.0,2
0.026939999999740394,142,0.1685789999901317,2
0.0,143,0.0,2
0.05151000000023487,144,0.29791300000215415,2
0.0,145,0.0,2
0.04514999999992142,146,0.2764279999973951,2
0.0,147,0.0,2
0.061754999999720894,148,0.3818969999992987,2
0.0,149,0.0,2
0.07779000000027736,150,0.5523070000053849,2
0.0,151,0.0,2
0.012300000000323053,152,0.08825699999579228,2
0.0,153,0.0,2
0.059879999999793654,154,0.39007500000298023,2
0.0,155,0.0,2
0.05056499999955122,156,0.3179329999984475,2
0.0,157,0.0,2
0.04135500000029424,158,0.23412999999709427,2
0.0,159,0.0,2
0.07444499999928667,160,0.4265140000206884,2
0.0,161,0.0,2
0.032985000000735454,162,0.19207799999276176,2
0.0,163,0.0,2
0.04585499999939202,164,0.254027999995742,2
0.0,165,0.0,2
0.04986000000008062,166,0.2899170000018785,2
0.0,167,0.0,2
0.04995000000053551,168,0.2445679999946151,2
0.0,169,0.0,2
0.07603500000004715,170,0.3573000000033062,2
0.0,171,0.0,2
0.030134999999972933,172,0.13348400000541005,2
0.0,173,0.0,2
0.04363499999999476,174,0.193541999993613,2
0.0,175,0.0,2
0.050024999999550346,176,0.22161900000355672,2
0.0,177,0.0,2
0.056295000000318396,178,0.25,2
0.0,179,0.0,2
0.06629999999950087,180,0.3410640000074636,2
0.0,181,0.0,2
0.024960000000646687,182,0.1345829999918351,2
0.0,183,0.0,2
0.049814999999398424,184,0.25384499999927357,2
0.0,185,0.0,2
0.04968000000098982,186,0.26458699999784585,2
0.0,187,0.0,2
0.04873499999939668,188,0.2730110000120476,2
0.0,189,0.0,2
0.07471499999974185,190,0.3884269999980461,2
0.0,191,0.0,2
0.016545000000405707,192,0.09338399999251124,2
0.0,193,0.0,2
0.05396999999993568,194,0.2760619999899063,2
0.0,195,0.0,2
0.04745999999977357,196,0.28186000000278,2
0.0,197,0.0,2
0.04359000000022206,198,0.2478640000044834,2
0.0,199,0.0,2
0.07144499999958498,200,0.4104010000010021,2
0.0,201,0.0,2
0.03132000000005064,202,0.17132499998842832,2
0.0,203,0.0,2
0.047999999999774445,204,0.26800600001297425,2
0.0,205,0.0,2
0.042585000000144646,206,0.23474099999293685,2
0.0,207,0.0,2
0.045780000000377186,208,0.2763670000131242,2
0.0,209,0.0,2
0.06439500000033149,210,0.366210999985924,2
0.0,211,0.0,2
0.029174999999668216,212,0.1583249999966938,2
0.0,213,0.0,2
0.04354499999953987,214,0.23883100000966806,2
0.0,215,0.0,2
0.04062000000067201,216,0.2180169999919599,2
0.0,217,0.0,2
0.047595000000001164,218,0.2874149999988731,2
0.0,219,0.0,2
0.06460499999957392,220,0.3428950000088662,2
0.0,221,0.0,2
0.022920000000340224,222,0.12176599999656901,2
0.0,223,0.0,2
0.05104499999924883,224,0.28747500000463333,2
0.0,225,0.0,2
0.03733500000089407,226,0.21502699999837205,2
0.0,227,0.0,2
0.0489899999993213,228,0.2519529999990482,2
0.0,229,0.0,2
0.06652500000018335,230,0.3666990000056103,2
0.0,231,0.0,2
0.025859999999738648,232,0.154236000002129,2
0.0,233,0.0,2
0.042585000000144646,234,0.23406999999133404,2
0.0,235,0.0,2
0.031110000000808213,236,0.21185300000070129,2
0.0,237,0.0,2
0.04256999999961408,238,0.24224900000263005,2
0.0,239,0.0,2
0.06427499999972497,240,0.3652949999959674,2
0.0,241,0.0,2
0.025094999999964784,242,0.13195800001267344,2
0.0,243,0.0,2
0.05331000000023778,244,0.2760619999899063,2
0.0,245,0.0,2
0.04162499999983993,246,0.2636720000009518,2
0.0,247,0.0,2
0.040605000000141445,248,0.24292000000423286,2
0.0,249,0.0,2
0.06784500000048865,250,0.3600460000016028,2
0.0,251,0.0,2
0.028079999999135907,252,0.15502900000137743,2
0.0,253,0.0,2
0.04689000000053056,254,0.2503059999871766,2
0.0,255,0.0,2
0.047969999999622814,256,0.23852500000793952,2
0.0,257,0.0,2
0.04256999999961408,258,0.23699999999371357,2
0.0,259,0.0,2
0.06471000000055938,260,0.33789000000979286,2
0.0,261,0.0,2
0.02809499999966647,262,0.15399199999228586,2
0.0,263,0.0,2
0.04254000000037195,264,0.24731400000746362,2
0.0,265,0.0,2
0.042510000000220316,266,0.26599099999293685,2
0.0,267,0.0,2
0.04187999999976455,268,0.23022499999206048,2
0.0,269,0.0,2
0.06977999999980966,270,0.36627200001385063,2
0.0,271,0.0,2
0.02595000000019354,272,0.15191699999559205,2
0.0,273,0.0,2
0.04254000000037195,274,0.2384030000102939,2
0.0,275,0.0,2
0.0429149999999936,276,0.24298099998850375,2
0.0,277,0.0,2
0.04373999999916123,278,0.2418210000032559,2
0.0,279,0.0,2
0.06256500000017695,280,0.34313999999722,2
0.0,281,0.0,2
0.021824999999807915,282,0.12182600000232924,2
0.0,283,0.0,2
0.04561500000090746,284,0.2705690000002505,2
0.0,285,0.0,2
0.0349949999990713,286,0.23553399999218527,2
0.0,287,0.0,2
0.03099000000020169,288,0.2072760000010021,2
0.0,289,0.0,2
0.06216000000040367,290,0.36773700000776444,2
0.0,291,0.0,2
0.029129999999895517,292,0.1563109999988228,2
0.0,293,0.0,2
0.03853499999968335,294,0.21026600000914186,2
0.0,295,0.0,2
0.04144499999983964,296,0.24639899998146575,2
0.0,297,0.0,2
0.05545499999971071,298,0.2724000000016531,2
0.0,299,0.0,2
0.05718000000069878,300,0.34136900000157766,2
0.0,301,0.0,2
0.02297999999973399,302,0.12176500000350643,2
0.0,303,0.0,2
0.04135500000029424,304,0.245972000004258,2
0.0,305,0.0,2
0.04250999999931082,306,0.2779539999901317,2
0.0,307,0.0,2
0.029670000000805885,308,0.2139889999962179,2
0.0,309,0.0,2
0.0676499999999578,310,0.3742070000153035,2
0.0,311,0.0,2
0.020729999999275606,312,0.12377899998682551,2
0.0,313,0.0,2
0.045480000000679865,314,0.27795400001923554,2
0.0,315,0.0,2
0.03295499999967433,316,0.21374599997943733,2
0.0,317,0.0,2
0.03280500000073516,318,0.23455800001102034,2
0.0,319,0.0,2
0.06323999999949592,320,0.3818360000004759,2
0.0,321,0.0,2
0.019650000000183354,322,0.12683100000140257,2
0.0,323,0.0,2
0.04577999999946769,324,0.2512810000043828,2
0.0,325,0.0,2
0.04039500000089902,326,0.24566699999559205,2
0.0,327,0.0,2
0.037110000000211585,328,0.27880800000275485,2
0.0,329,0.0,2
0.06470999999874039,330,0.3511969999963185,2
0.0,331,0.0,2
0.012360000000626314,332,0.12304700000095181,2
0.0,333,0.0,2
0.037964999999530846,334,0.2452999999950407,2
0.0,335,0.0,2
0.04257000000052358,336,0.2501219999976456,2
0.0,337,0.0,2
0.04030499999953463,338,0.26391599999624304,2
0.0,339,0.0,2
0.05899500000032276,340,0.34246800001710653,2
0.0,341,0.0,2
0.03112500000042928,342,0.1727299999911338,2
0.0,343,0.0,2
0.03518999999960215,344,0.26855399999476504,2
0.0,345,0.0,2
0.039240000000063446,346,0.2519540000066627,2
0.0,347,0.0,2
0.041459999999460706,348,0.2504880000051344,2
0.0,349,0.0,2
0.05701500000031956,350,0.34484799999336246,2
0.0,351,0.0,2
0.025890000000799773,352,0.15338200000405777,2
0.0,353,0.0,2
0.036209999999300635,354,0.2261960000032559,2
0.0,355,0.0,2
0.05216999999993277,356,0.2725219999992987,2
0.0,357,0.0,2
0.0435749999996915,358,0.24969499999133404,2
0.0,359,0.0,2
0.055935000000317814,360,0.3520509999943897,2
0.0,361,0.0,2
0.026880000000346627,362,0.15783700000611134,2
0.0,363,0.0,2
0.039329999999608845,364,0.24560500000370666,2
0.0,365,0.0,2
0.04254000000037195,366,0.2499390000011772,2
0.0,367,0.0,2
0.042674999999690044,368,0.24444599999696948,2
0.0,369,0.0,2
0.052740000000085274,370,0.34613000000535976,2
0.0,371,0.0,2
0.023954999999659776,372,0.1453860000037821,2
0.0,373,0.0,2
0.04132500000014261,374,0.2933349999948405,2
0.0,375,0.0,2
0.03391500000088854,376,0.24005100000067614,2
0.0,377,0.0,2
0.028754999999364372,378,0.2161869999981718,2
0.0,379,0.0,2
0.060134999999718275,380,0.4014889999962179,2
0.0,381,0.0,2
0.027060000000346918,382,0.16741899999033194,2
0.0,383,0.0,2
0.03206999999929394,384,0.2409670000197366,2
0.0,385,0.0,2
0.048855000000912696,386,0.30957099999068305,2
0.0,387,0.0,2
0.029729999999290158,388,0.23327599999902304,2
0.0,389,0.0,2
0.04727999999977328,390,0.3825680000009015,2
0.0,391,0.0,2
0.024825000000419095,392,0.17883299999812152,2
0.0,393,0.0,2
0.0475349999996979,394,0.3431400000117719,2
0.0,395,0.0,2
0.031845000000430446,396,0.2534789999917848,2
0.0,397,0.0,2
0.0328349999999773,398,0.27075199999671895,2
0.0,399,0.0,2
0.05364000000008673,400,0.4115600000077393,2
0.0,401,0.0,2
0.02801999999974214,402,0.17169199998897966,2
0.0,403,0.0,2
0.031845000000430446,404,0.2350460000016028,2
0.0,405,0.0,2
0.04247999999915919,406,0.27496399999654386,2
0.0,407,0.0,2
0.043455000000903965,408,0.3016350000107195,2
0.0,409,0.0,2
0.05176500000015949,410,0.3494269999937387,2
0.0,411,0.0,2
0.025889999998980784,412,0.1711419999919599,2
0.0,413,0.0,2
0.04149000000052183,414,0.2512820000119973,2
0.0,415,0.0,2
0.045780000000377186,416,0.24438499999814667,2
0.0,417,0.0,2
0.046904999999242136,418,0.24566600000252947,2
0.0,419,0.0,2
0.05478000000039174,420,0.33941699999559205,2
0.0,421,0.0,2
0.02590500000042084,422,0.15985100000398234,2
0.0,423,0.0,2
0.04362000000037369,424,0.24035599999479018,2
0.0,425,0.0,2
0.048164999999244174,426,0.2358399999939138,2
0.0,427,0.0,2
0.04359000000022206,428,0.24359100000583567,2
0.0,429,0.0,2
0.058514999999715656,430,0.3364869999932125,2
0.0,431,0.0,2
0.025094999999964784,432,0.12445100001059473,2
0.0,433,0.0,2
0.047805000000153086,434,0.269042999992962,2
0.0,435,0.0,2
0.042585000000144646,436,0.2417600000044331,2
0.0,437,0.0,2
0.036029999999300344,438,0.23687799999606796,2
0.0,439,0.0,2
0.06255000000055588,440,0.3422850000060862,2
0.0,441,0.0,2
0.020759999999427237,442,0.12414499999431428,2
0.0,443,0.0,2
0.04773000000113825,444,0.27215600000636186,2
0.0,445,0.0,2
0.04373999999916123,446,0.23876899998867884,2
0.0,447,0.0,2
0.037365000000136206,448,0.2044680000108201,2
0.0,449,0.0,2
0.06442500000048312,450,0.3626100000110455,2
0.0,451,0.0,2
0.017429999998967105,452,0.11608899998827837,2
0.0,453,0.0,2
0.04332000000067637,454,0.26873799999884795,2
0.0,455,0.0,2
0.034064999999827705,456,0.24066100000345614,2
0.0,457,0.0,2
0.03484500000013213,458,0.20800800000142772,2
0.0,459,0.0,2
0.06316499999957159,460,0.3668829999951413,2
0.0,461,0.0,2
0.019620000000941218,462,0.11913999999524094,2
0.0,463,0.0,2
0.04663499999878695,464,0.2683110000070883,2
0.0,465,0.0,2
0.04479000000083033,466,0.2683099999994738,2
0.0,467,0.0,2
0.037409999999908905,468,0.21148700000776444,2
0.0,469,0.0,2
0.06664499999988038,470,0.38983199998619966,2
0.0,471,0.0,2
0.0174299999998766,472,0.1208489999989979,2
0.0,473,0.0,2
0.040365000000747386,474,0.24078400000871625,2
0.0,475,0.0,2
0.044444999999541324,476,0.27209500000753906,2
0.0,477,0.0,2
0.03405000000020664,478,0.20672599998943042,2
0.0,479,0.0,2
0.05482499999925494,480,0.36785899999085814,2
0.0,481,0.0,2
0.020745000000715663,482,0.11975100000563543,2
0.0,483,0.0,2
0.04366500000014639,484,0.24627600000530947,2
0.0,485,0.0,2
0.038204999998924905,486,0.23382600001059473,2
0.0,487,0.0,2
0.04147499999999127,488,0.2386479999840958,2
0.0,489,0.0,2
0.05268000000069151,490,0.32507299999997485,2
0.0,491,0.0,2
0.02595000000019354,492,0.1453250000049593,2
0.0,493,0.0,2
0.035085000000435684,494,0.24096599999757018,2
0.0,495,0.0,2
0.03604499999892141,496,0.23321600000781473,2
0.0,497,0.0,2
0.04369500000029802,498,0.23333699999784585,2
0.0,499,0.0,2
0.05051999999977852,500,0.3173220000026049,2
0.0,501,0.0,2
0.026910000000498258,502,0.1521599999832688,2
0.0,503,0.0,2
0.044774999999390275,504,0.23346000000310596,2
0.0,505,0.0,2
0.04068000000097527,506,0.2349240000039572,2
0.0,507,0.0,2
0.04880999999932101,508,0.26812799999606796,2
0.0,509,0.0,2
0.058469999999942956,510,0.30181900001480244,2
0.0,511,0.0,2
0.021525000000110595,512,0.14971899999363814,2
0.0,513,0.0,2
0.0341100000005099,514,0.24273699999321252,2
0.0,515,0.0,2
0.039374999999381544,516,0.2350460000016028,2
0.0,517,0.0,2
0.03610500000013417,518,0.23486300000513438,2
0.0,519,0.0,2
0.04882499999985157,520,0.30267400000593625,2
0.0,521,0.0,2
0.03438000000096508,522,0.18231199998990633,2
0.0,523,0.0,2
0.051764999999249994,524,0.2703240000118967,2
0.0,525,0.0,2
0.038460000000668515,526,0.22888199998124037,2
0.0,527,0.0,2
0.03919499999938125,528,0.29107700001623016,2
0.0,529,0.0,2
0.05907000000024709,530,0.3355099999898812,2
0.0,531,0.0,2
0.024959999999737192,532,0.12823499999649357,2
0.0,533,0.0,2
0.03835499999968306,534,0.23522900001262315,2
0.0,535,0.0,2
0.05104500000106782,536,0.2677010000043083,2
0.0,537,0.0,2
0.046799999999166175,538,0.20739699999103323,2
0.0,539,0.0,2
0.06502500000078726,540,0.36242700000002515,2
0.0,541,0.0,2
0.02474999999958527,542,0.14715600000636186,2
0.0,543,0.0,2
0.043800000000373984,544,0.206542999992962,2
0.0,545,0.0,2
0.04546499999923981,546,0.26586899999529123,2
0.0,547,0.0,2
0.03510000000005675,548,0.20434500000556,2
0.0,549,0.0,2
0.07463999999981752,550,0.39862100000027567,2
0.0,551,0.0,2
0.02500499999950989,552,0.12573200000042561,2
0.0,553,0.0,2
0.03922500000044238,554,0.23553499999979977,2
0.0,555,0.0,2
0.04978500000015629,556,0.267638999997871,2
0.0,557,0.0,2
0.03958500000044296,558,0.2113039999967441,2
0.0,559,0.0,2
0.060284999999566935,560,0.3389279999973951,2
0.0,561,0.0,2
0.024840000000040163,562,0.15332100000523496,2
0.0,563,0.0,2
0.03912000000036642,564,0.23834199999691918,2
0.0,565,0.0,2
0.03502500000013242,566,0.2396850000077393,2
0.0,567,0.0,2
0.038159999999152205,568,0.25103699999453966,2
0.0,569,0.0,2
0.06976500000109809,570,0.3797000000049593,2
0.0,571,0.0,2
0.022889999999279098,572,0.12518299999646842,2
0.0,573,0.0,2
0.04254000000037195,574,0.2513429999962682,2
0.0,575,0.0,2
0.036089999999603606,576,0.24670400000468362,2
0.0,577,0.0,2
0.033884999999827414,578,0.23523000000568572,2
0.0,579,0.0,2
0.0508350000000064,580,0.32910099999571685,2
0.0,581,0.0,2
0.02583000000049651,582,0.1590580000047339,2
0.0,583,0.0,2
0.04582499999924039,584,0.24859599999035709,2
0.0,585,0.0,2
0.0414600000003702,586,0.24487300000328105,2
0.0,587,0.0,2
0.04143000000021857,588,0.25909400000819005,2
0.0,589,0.0,2
0.050790000000233704,590,0.37542799999937415,2
0.0,591,0.0,2
0.02588999999989028,592,0.171875,2
0.0,593,0.0,2
0.04037999999945896,594,0.2492669999919599,2
0.0,595,0.0,2
0.024765000000115833,596,0.21545400000468362,2
0.0,597,0.0,2
0.03704999999990832,598,0.276612000001478,2
0.0,599,0.0,2
0.046349999999620195,600,0.3477169999969192,2
0.0,601,0.0,2
0.01644000000123924,602,0.12536599999293685,2
0.0,603,0.0,2
0.03712499999983265,604,0.2791140000044834,2
0.0,605,0.0,2
0.03287999999975,606,0.246582000007038,2
0.0,607,0.0,2
0.028904999999213032,608,0.2160639999929117,2
0.0,609,0.0,2
0.06130500000108441,610,0.3778689999890048,2
0.0,611,0.0,2
0.022619999998823914,612,0.1595460000098683,2
0.0,613,0.0,2
0.038160000000971195,614,0.24780299999110866,2
0.0,615,0.0,2
0.028800000000046566,616,0.21002200001385063,2
0.0,617,0.0,2
0.04673999999977241,618,0.2776480000029551,2
0.0,619,0.0,2
0.0635549999997238,620,0.3629159999836702,2
0.0,621,0.0,2
0.02297999999973399,622,0.13018800001009367,2
0.0,623,0.0,2
0.03289500000028056,624,0.24072200000227895,2
0.0,625,0.0,2
0.03789000000051601,626,0.2957159999932628,2
0.0,627,0.0,2
0.041729999999006395,628,0.24261400000250433,2
0.0,629,0.0,2
0.05587500000001455,630,0.38897700000961777,2
0.0,631,0.0,2
0.03318000000126631,632,0.2243039999884786,2
0.0,633,0.0,2
0.03839999999945576,634,0.2446289999934379,2
0.0,635,0.0,2
0.04477500000029977,636,0.277832000007038,2
0.0,637,0.0,2
0.038264999999228166,638,0.27630699999281205,2
0.0,639,0.0,2
0.05383500000061758,640,0.3858640000107698,2
0.0,641,0.0,2
0.022710000000188302,642,0.17944300000090152,2
0.0,643,0.0,2
0.033914999999979045,644,0.275208000006387,2
0.0,645,0.0,2
0.047819999999774154,646,0.304930999991484,2
0.0,647,0.0,2
0.03323999999975058,648,0.24810799999977462,2
0.0,649,0.0,2
0.06246000000010099,650,0.38891599999624304,2
0.0,651,0.0,2
0.030270000000200525,652,0.17840600000636186,2
0.0,653,0.0,2
0.04468499999984488,654,0.27893099999346305,2
0.0,655,0.0,2
0.037260000000060245,656,0.2797850000060862,2
0.0,657,0.0,2
0.04039499999998952,658,0.2778319999924861,2
0.0,659,0.0,2
0.06128999999964435,660,0.4188840000133496,2
0.0,661,0.0,2
0.024959999999737192,662,0.1468509999976959,2
0.0,663,0.0,2
0.043560000000979926,664,0.2786859999905573,2
0.0,665,0.0,2
0.036164999999527936,666,0.2831420000002254,2
0.0,667,0.0,2
0.0469199999997727,668,0.2769780000089668,2
0.0,669,0.0,2
0.06841500000064116,670,0.3864750000066124,2
0.0,671,0.0,2
0.03117000000020198,672,0.17773399998259265,2
0.0,673,0.0,2
0.04993499999909545,674,0.2559200000105193,2
0.0,675,0.0,2
0.04351500000029773,676,0.22381599999789614,2
0.0,677,0.0,2
0.0562500000005457,678,0.28997799998614937,2
0.0,679,0.0,2
0.06614999999965221,680,0.36645500001031905,2
0.0,681,0.0,2
0.03286500000012893,682,0.16760299999441486,2
0.0,683,0.0,2
0.042554999999993015,684,0.22808800000348128,2
0.0,685,0.0,2
0.054944999999861466,686,0.2921760000026552,2
0.0,687,0.0,2
0.04364999999961583,688,0.23376400000415742,2
0.0,689,0.0,2
0.07381500000064989,690,0.4050910000078147,2
0.0,691,0.0,2
0.03016499999921507,692,0.16839599997911137,2
0.0,693,0.0,2
0.04392000000007101,694,0.22796600002038758,2
0.0,695,0.0,2
0.05080499999985477,696,0.2662959999870509,2
0.0,697,0.0,2
0.055560000000696164,698,0.29583800000546034,2
0.0,699,0.0,2
0.06194999999934225,700,0.3205560000060359,2
0.0,701,0.0,2
0.03403500000058557,702,0.1583859999955166,2
0.0,703,0.0,2
0.049769999999625725,704,0.2532959999953164,2
0.0,705,0.0,2
0.04998000000068714,706,0.24713200000405777,2
0.0,707,0.0,2
0.04375499999969179,708,0.2500609999988228,2
0.0,709,0.0,2
0.07456499999989319,710,0.37878399998589884,2
0.0,711,0.0,2
0.03307499999937136,712,0.16003400001500268,2
0.0,713,0.0,2
0.0434400000012829,714,0.21704099999624304,2
0.0,715,0.0,2
0.049739999999474094,716,0.24755899999581743,2
0.0,717,0.0,2
0.048344999999244465,718,0.24951100000180304,2
0.0,719,0.0,2
0.07859999999982392,720,0.3554080000030808,2
0.0,721,0.0,2
0.03168000000096072,722,0.17089900000428315,2
0.0,723,0.0,2
0.04945499999939784,724,0.24963299998489674,2
0.0,725,0.0,2
0.05376000000069325,726,0.2730110000120476,2
0.0,727,0.0,2
0.05059499999970285,728,0.27941899999859743,2
0.0,729,0.0,2
0.06743999999980588,730,0.34600799999316223,2
0.0,731,0.0,2
0.03082500000073196,732,0.1601560000126483,2
0.0,733,0.0,2
0.05573999999978696,734,0.2825929999962682,2
0.0,735,0.0,2
0.0435749999996915,736,0.23040800000308082,2
0.0,737,0.0,2
0.05148000000008324,738,0.2555539999884786,2
0.0,739,0.0,2
0.07722000000012486,740,0.3817140000028303,2
0.0,741,0.0,2
0.021719999999731954,742,0.12951600000087637,2
0.0,743,0.0,2
0.04040999999961059,744,0.24591099999088328,2
0.0,745,0.0,2
0.042405000000144355,746,0.25091500001144595,2
0.0,747,0.0,2
0.052620000000388245,748,0.28002999999444,2
0.0,749,0.0,2
0.14906999999948312,750,0.7037960000016028,2
0.0,751,0.0,2
0.0,752,0.0,2
0.0,753,0.0,2
0.02061000000048807,754,0.11016900000686292,2
0.0,755,0.0,2
0.05048999999962689,756,0.2833859999955166,2
0.0,757,0.0,2
0.0574800000003961,758,0.28350800000771414,2
0.0,759,0.0,2
0.05912999999964086,760,0.3051759999943897,2
0.0,761,0.0,2
0.03657000000021071,762,0.1815799999894807,2
0.0,763,0.0,2
0.04140000000006694,764,0.2131950000184588,2
0.0,765,0.0,2
0.046379999999771826,766,0.2739869999932125,2
0.0,767,0.0,2
0.028710000000501168,768,0.2120359999971697,2
0.0,769,0.0,2
0.05383499999970809,770,0.3396000000066124,2
0.0,771,0.0,2
0.028830000000198197,772,0.1841429999913089,2
0.0,773,0.0,2
0.0321299999995972,774,0.21154800000658724,2
0.0,775,0.0,2
0.0488100000002305,776,0.27343699999619275,2
0.0,777,0.0,2
0.035160000000360014,778,0.2107549999927869,2
0.0,779,0.0,2
0.06400499999926978,780,0.4061280000169063,2
0.0,781,0.0,2
0.02185500000086904,782,0.1297599999816157,2
0.0,783,0.0,2
0.03301499999997759,784,0.23608400000375696,2
0.0,785,0.0,2
0.046574999999393185,786,0.29992700000002515,2
0.0,787,0.0,2
0.031965000000127475,788,0.19342100000358187,2
0.0,789,0.0,2
0.046080000000074506,790,0.3425290000013774,2
0.0,791,0.0,2
0.021584999999504362,792,0.145262999998522,2
0.0,793,0.0,2
0.02884500000072876,794,0.18975900000077672,2
0.0,795,0.0,2
0.033884999999827414,796,0.2246700000105193,2
0.0,797,0.0,2
0.03286500000012893,798,0.21655299999110866,2
0.0,799,0.0,2
0.04613999999946827,800,0.30541999998968095,2
0.0,801,0.0,2
0.02055000000018481,802,0.14086900000984315,2
0.0,803,0.0,2
0.03269999999974971,804,0.2092899999988731,2
0.0,805,0.0,2
0.03302999999959866,806,0.20495600000140257,2
0.0,807,0.0,2
0.03706500000134838,808,0.23248299999977462,2
0.0,809,0.0,2
0.04108499999892956,810,0.2669670000032056,2
0.0,811,0.0,2
0.024705000000722066,812,0.15740999998524785,2
0.0,813,0.0,2
0.028814999999667634,814,0.1832890000223415,2
0.0,815,0.0,2
0.03397500000028231,816,0.20880099998612422,2
0.0,817,0.0,2
0.032714999999370775,818,0.20812999999907333,2
0.0,819,0.0,2
0.047280000000682776,820,0.3159180000075139,2
0.0,821,0.0,2
0.02588999999989028,822,0.16448900000250433,2
0.0,823,0.0,2
0.04709999999977299,824,0.2622679999913089,2
0.0,825,0.0,2
0.036014999999679276,826,0.2611089999991236,2
0.0,827,0.0,2
0.02448000000003958,828,0.19213900000613648,2
0.0,829,0.0,2
0.04606500000045344,830,0.2880850000074133,2
0.0,831,0.0,2
0.02559000000019296,832,0.16400199999043252,2
0.0,833,0.0,2
0.02861999999913678,834,0.1819460000115214,2
0.0,835,0.0,2
0.03264000000035594,836,0.23547299997881055,2
0.0,837,0.0,2
0.028844999999819265,838,0.1792610000120476,2
0.0,839,0.0,2
0.04514999999992142,840,0.28491199998825323,2
0.0,841,0.0,2
0.024705000000722066,842,0.15625,2
0.0,843,0.0,2
0.028725000000122236,844,0.18298300000606105,2
0.0,845,0.0,2
0.03701999999975669,846,0.23309300000255462,2
0.0,847,0.0,2
0.02992499999982101,848,0.18090900000242982,2
0.0,849,0.0,2
0.041159999999763386,850,0.2606809999997495,2
0.0,851,0.0,2
0.025710000000799482,852,0.1813959999999497,2
0.0,853,0.0,2
0.0289199999988341,854,0.2608639999962179,2
0.0,855,0.0,2
0.028860000000349828,856,0.197693000009167,2
0.0,857,0.0,2
0.02884500000072876,858,0.23406999999133404,2
0.0,859,0.0,2
0.04543499999999767,860,0.31561299999884795,2
0.0,861,0.0,2
0.02474999999958527,862,0.16748000000370666,2
0.0,863,0.0,2
0.028830000000198197,864,0.20428499999979977,2
0.0,865,0.0,2
0.037035000000287255,866,0.2600709999969695,2
0.0,867,0.0,2
0.028904999999213032,868,0.1997680000058608,2
0.0,869,0.0,2
0.04111499999999069,870,0.28491200000280514,2
0.0,871,0.0,2
0.028785000000425498,872,0.2024539999983972,2
0.0,873,0.0,2
0.028844999999819265,874,0.2018429999880027,2
0.0,875,0.0,2
0.03286500000012893,876,0.23132299999997485,2
0.0,877,0.0,2
0.0329249999995227,878,0.2282110000087414,2
0.0,879,0.0,2
0.04108500000074855,880,0.2893060000060359,2
0.0,881,0.0,2
0.02464499999950931,882,0.1739499999966938,2
0.0,883,0.0,2
0.047520000000076834,884,0.24066199999651872,2
0.0,885,0.0,2
0.04253999999946245,886,0.23724400000355672,2
0.0,887,0.0,2
0.033045000001038716,888,0.22161799999594223,2
0.0,889,0.0,2
0.041099999999460124,890,0.2923589999991236,2
0.0,891,0.0,2
0.024660000000039872,892,0.1752930000075139,2
0.0,893,0.0,2
0.03298499999982596,894,0.22918699998990633,2
0.0,895,0.0,2
0.0329249999995227,896,0.22900400000798982,2
0.0,897,0.0,2
0.03288000000065949,898,0.2290039999934379,2
0.0,899,0.0,2
0.03701999999975669,900,0.2911980000062613,2
0.0,901,0.0,2
0.024690000000191503,902,0.17480500000237953,2
0.0,903,0.0,2
0.03300000000035652,904,0.22863800000050105,2
0.0,905,0.0,2
0.03295499999967433,906,0.22375499999907333,2
0.0,907,0.0,2
0.028905000000122527,908,0.19848599999386352,2
0.0,909,0.0,2
0.04518000000007305,910,0.3171390000061365,2
0.0,911,0.0,2
0.024615000000267173,912,0.17382799998449627,2
0.0,913,0.0,2
0.028874999999970896,914,0.19934100001410116,2
0.0,915,0.0,2
0.03703499999937776,916,0.2588499999983469,2
0.0,917,0.0,2
0.0287400000006528,918,0.19921799999428913,2
0.0,919,0.0,2
0.045254999999087886,920,0.31750499999907333,2
0.0,921,0.0,2
0.024660000000039872,922,0.1732180000108201,2
0.0,923,0.0,2
0.028785000000425498,924,0.20013399999879766,2
0.0,925,0.0,2
0.03704999999990832,926,0.26336699999228586,2
0.0,927,0.0,2
0.03202500000043074,928,0.20159900000726338,2
0.0,929,0.0,2
0.04842000000007829,930,0.266418999992311,2
