method,package1,package2,dram1,dram2,energy
avrora.arch.legacy,0.17749669135708598,0.2783377333351786,0.022191568997942404,0.04450100000010732,0.5225269936903143
avrora.monitors,0.0,0.0,0.0,0.0,0.0
avrora.sim,0.06001977020469074,0.19275348528246855,0.005667983880646114,0.03528150437045026,0.29372274373825563
avrora.sim.clock,1.091895146075206,1.0089714412645607,0.1244908290188394,0.1689081236195091,2.3942655399781154
avrora.sim.mcu,0.04207451630255796,0.09567159259017056,0.00492604177227651,0.01014222222231722,0.15281437288732228
avrora.sim.output,0.0,0.0,0.0,0.0,0.0
avrora.sim.radio,0.06336909776743294,0.055501333335996605,0.008330658441962013,0.01040000000011787,0.13760108954550943
avrora.sim.state,0.0,0.0,0.0,0.0,0.0
cck.elf,0.0,0.2359416666634691,0.0,0.03446499999942412,0.27040666666289326
cck.text,0.040944402090241167,0.2028504999980214,0.003773138629080197,0.03164249999963431,0.27921054071697704
cck.util,0.0,0.15132666666856187,0.0,0.030010000000099048,0.1813366666686609
javassist.bytecode,0.0,0.30039466666494263,0.0,0.04320250000046144,0.3435971666654041
org.dacapo.harness,0.5253866382909348,2.642576779097574,0.06028902746366974,0.4576674452844288,3.6859198901366073
sun.misc,0.0,0.1297336111100675,0.0,0.023883333333287737,0.15361694444335525
sun.net.www,0.0,0.03966266666733039,0.0,0.0054799999999583324,0.04514266666728872
sun.net.www.protocol.file,0.0,0.0619166666648299,0.0,0.011166666666516296,0.0730833333313462
sun.net.www.protocol.jar,0.0,0.2876582873576212,0.0,0.04812806896568705,0.3357863563233083
sun.security.util,0.0,0.068013333332298,0.0,0.016694999999648037,0.08470833333194604
