method,package1,package2,dram1,dram2,energy
avrora,0.05699174999972456,0.0,0.00825375000022177,0.0,0.06524549999994633
avrora.arch.legacy,0.07250971428549659,0.03291001472162287,0.006182857142924885,0.0056490509717343155,0.11725163712177866
avrora.core,0.026355619047535583,0.0,0.002251428571027992,0.0,0.028607047618563575
avrora.monitors,0.0,0.0,0.0,0.0,0.0
avrora.sim,0.2194272042944192,0.15481345734757482,0.023783156955155114,0.026748195598868804,0.4247720141960179
avrora.sim.clock,0.7728169867133822,0.17105615836404375,0.07956390338807338,0.025248228877482574,1.048685277342982
avrora.sim.mcu,0.1468107037038593,0.008203692987352032,0.015214074073496087,0.0017617685009324558,0.17199023926563986
avrora.sim.output,0.0,0.0,0.0,0.0,0.0
avrora.sim.radio,0.0,0.056546299646473196,0.0,0.011612817094685455,0.06815911674115865
avrora.sim.util,0.04028705882442677,0.0,0.0050894117649637775,0.0,0.045376470589390545
cck.elf,0.09619142857125206,0.0,0.00845428571483353,0.0,0.10464571428608559
cck.help,0.042744999999740685,0.0,0.006204999999681604,0.0,0.04894999999942229
cck.text,0.033823666666952086,0.0,0.005509999999958382,0.0,0.03933366666691047
cck.util,0.0664263333328563,0.0,0.009619999999510279,0.0,0.07604633333236659
javassist.bytecode,0.08691263809562638,0.0,0.011668857142831258,0.0,0.09858149523845763
org.dacapo.harness,2.2091776762426085,0.49456323947062686,0.26541871073264744,0.08420753063757974,3.0533671570834624
org.dacapo.parser,0.05869146666712673,0.0,0.007520000000173845,0.0,0.06621146666730057
sun.misc,0.23410566666730334,0.0,0.0338196428561527,0.0,0.26792530952345606
sun.net.www.protocol.file,0.03500159999991107,0.0,0.003865999999834458,0.0,0.03886759999974553
sun.nio.cs,0.03649911111117237,0.0,0.003946666666403568,0.0,0.040445777777575936
sun.security.util,0.06886800000089957,0.0,0.009619999999510279,0.0,0.07848800000040985
