method,package1,package2,dram1,dram2,energy
ATMega128.<init>|Mica2$Factory.newPlatform|Simulation$Node.instantiate,0.03651456147322176,0.0,0.005212639605204331,0.0,0.04172720107842609
ATMegaFamily$PortRegister.write|AtmelInterpreter$IORegBehavior.write|AtmelInterpreter.writeVolatile,0.021399551846981703,0.0,0.0013909640011211214,0.0,0.022790515848102825
Arithmetic.getBitField|ATMega128.getSleepMode|AtmelMicrocontroller.sleep,0.0,0.0,0.0,0.0,0.0
Arithmetic.word|LegacyDisassembler.disassembleLegacy|LegacyDisassembler.disassemble,0.04073356674873367,0.0,0.00636538345708741,0.0,0.04709895020582108
AtmelInterpreter$IORegBehavior.read|AtmelInterpreter.readVolatile|AtmelInterpreter.readSRAM,0.0,0.0,0.0,0.0,0.0
AtmelInterpreter$SREGBehavior.write|AtmelInterpreter.writeVolatile|AtmelInterpreter.writeSRAM,0.0,0.0,0.0,0.0,0.0
AtmelInterpreter.commit|LegacyInterpreter.fastLoop|LegacyInterpreter.runLoop,0.0,0.0543949673912088,0.0,0.009065380435043588,0.06346034782625239
AtmelInterpreter.getRegisterByte|AtmelInterpreter.getRegisterWord|LegacyInterpreter.visit,0.0,0.0,0.0,0.0,0.0
AtmelInterpreter.getRegisterByte|LegacyInterpreter.visit|LegacyInstr$CP.accept,0.0,0.0,0.0,0.0,0.0
AtmelInterpreter.getRegisterByte|LegacyInterpreter.visit|LegacyInstr$CPC.accept,0.0,0.0,0.0,0.0,0.0
AtmelInterpreter.getRegisterByte|LegacyInterpreter.visit|LegacyInstr$OUT.accept,0.0,0.0,0.0,0.0,0.0
AtmelInterpreter.getRegisterByte|LegacyInterpreter.visit|LegacyInstr$PUSH.accept,0.0,0.0,0.0,0.0,0.0
AtmelInterpreter.getSP|AtmelInterpreter.popByte|LegacyInterpreter.visit,0.0,0.0,0.0,0.0,0.0
AtmelInterpreter.getSP|AtmelInterpreter.pushByte|LegacyInterpreter.visit,0.0,0.2336119999963557,0.0,0.030967499999860593,0.2645794999962163
AtmelInterpreter.popByte|LegacyInterpreter.visit|LegacyInstr$POP.accept,0.0,0.0,0.0,0.0,0.0
AtmelInterpreter.readVolatile|AtmelInterpreter.readSRAM|AtmelInterpreter.getIORegisterByte,0.0,0.0,0.0,0.0,0.0
AtmelInterpreter.setSP|AtmelInterpreter.popByte|LegacyInterpreter.visit,0.0,0.09781360360667914,0.0,0.01112972972966852,0.10894333333634766
AtmelInterpreter.writeRegisterByte|LegacyInterpreter.visit|LegacyInstr$ROR.accept,0.054401978423279436,0.0,0.009274542736927452,0.0,0.06367652116020689
AtmelInterpreter.writeSRAM|AtmelInterpreter.writeDataByte|AtmelInterpreter.pushByte,0.0,0.0,0.0,0.0,0.0
AtmelInterpreter.writeSRAM|AtmelInterpreter.writeIORegisterByte|LegacyInterpreter.visit,0.0,0.0,0.0,0.0,0.0
AtmelInterpreter.writeVolatile|AtmelInterpreter.writeSRAM|AtmelInterpreter.setIORegBit,0.012655625481825231,0.0,0.0017395232884769973,0.0,0.014395148770302228
AttributeInfo.<init>|LocalVariableAttribute.<init>|AttributeInfo.read,0.03417154294284635,0.0,0.005760518849300318,0.0,0.039932061792146666
AttributeInfo.read|CodeAttribute.<init>|AttributeInfo.read,0.03417154294284635,0.0,0.005760518849300318,0.0,0.039932061792146666
Avrora.iterate|Benchmark.run|TestHarness.runBenchmark,0.14735339189402286,0.0,0.019045795452800388,0.0,0.16639918734682324
Benchmark.fileFromInputStream|Benchmark.extractFileResource|Benchmark.prepareJars,0.10674563911294035,0.0,0.015969208931909926,0.0,0.12271484804485028
Benchmark.fileFromInputStream|Benchmark.unpackZipStream|Benchmark.unpackZipFileResource,0.16270613041071164,0.0,0.02754994650329282,0.0,0.19025607691400445
Benchmark.unpackZipStream|Benchmark.unpackZipFileResource|Benchmark.prepare,0.025064649320413364,0.0,0.004232521729050538,0.0,0.029297171049463902
CC1000Radio$Receiver.nextByte|Medium$Receiver$Ticker.deliverByte|Medium$Receiver$Ticker.fireLocked,0.0,0.0,0.0,0.0,0.0
CodeAttribute.<init>|AttributeInfo.read|CodeAttribute.<init>,0.009718037824822631,0.0,0.0014305308408143914,0.0,0.011148568665637022
CodeSegment.load|ReprogrammableCodeSegment$Factory.newCodeSegment|AtmelInterpreter.<init>,0.034156375475543586,0.0,0.0036676870904225694,0.0,0.037824062565966154
ConfigFileTokenManager.getNextToken|ConfigFile.jj_consume_token|ConfigFile.config,0.03712044818091348,0.0,0.0052282656246348935,0.0,0.042348713805548374
ConstPool.readOne|ConstPool.read|ConstPool.<init>,0.008865083453515344,0.0,0.0014748275205503866,0.0,0.010339910974065732
DacapoClassLoader.loadClass|ClassLoader.loadClass|ELFParser.read,0.0630074288609941,0.0,0.00988739182564908,0.0,0.07289482068664319
DacapoClassLoader.loadClass|ClassLoader.loadClass|LegacyArchitecture.getDisassembler,0.05934823046542988,0.0,0.00931777167404748,0.0,0.06866600213947735
DacapoClassLoader.loadClass|ClassLoader.loadClass|Mica2$Factory.newPlatform,0.04703830479433255,0.0,0.0067653925080467725,0.0,0.05380369730237932
DefaultMCU$Pin.write|ATMegaFamily$PortRegister.write|AtmelInterpreter$IORegBehavior.write,0.012655625481825231,0.0,0.0017395232884769973,0.0,0.014395148770302228
DeltaQueue$Link.fire|DeltaQueue.advanceSlow|DeltaQueue.advance,0.0,0.11288449999847215,0.0,0.018157499999688298,0.13104199999816046
DeltaQueue.advance|MainClock.advance|AtmelInterpreter.commit,0.0,0.2211782857027304,0.0,0.035065714285207966,0.25624399998793834
DeltaQueue.insertAfter|DeltaQueue.insertEvent|MainClock.insertEvent,0.0,0.0,0.0,0.0,0.0
DeltaQueue.insertEvent|MainClock.insertEvent|CC1000Radio$SPITicker.fire,0.02896436099257502,0.0,0.0030603945880666025,0.0,0.03202475558064162
DeltaQueue.insertEvent|MainClock.insertEvent|Medium$Receiver$Ticker.fireUnlocked,0.0,0.0,0.0,0.0,0.0
DeltaQueue.newEventList|DeltaQueue.access$000|DeltaQueue$Link.add,0.0,0.0,0.0,0.0,0.0
ELFDataInputStream.read_1|ELFDataInputStream.read_4|ELFDataInputStream.read_Elf32_Word,0.033745189202106146,0.0,0.005100681885901052,0.0,0.038845871088007196
FiniteStateMachine.fireBefore|FiniteStateMachine.transition|AtmelMicrocontroller.wakeup,0.0,0.0,0.0,0.0,0.0
FormattedFloatingDecimal.<clinit>|Formatter$FormatSpecifier.print|Formatter$FormatSpecifier.print,0.08303435988466552,0.0,0.0127172930092912,0.0,0.09575165289395672
Handler.hostsEqual|URLStreamHandler.sameFile|URLStreamHandler.equals,0.05150081165454201,0.0,0.009377941457007623,0.0,0.06087875311154964
IOUtils.readFully|JarFile.getBytes|JarFile.checkForSpecialAttributes,0.0639714557564863,0.0,0.010947928023916108,0.0,0.07491938378040242
JarURLConnection.getInputStream|URL.openStream|ClassLoader.getSystemResourceAsStream,0.007651865332509925,0.0,0.0012831367837322846,0.0,0.00893500211624221
Launcher$AppClassLoader.loadClass|ClassLoader.loadClass|TestHarness.main,0.03009589289264853,0.0,0.004514402255241227,0.0,0.034610295147889755
LegacyDisassembler.decode_SBIW_0|LegacyDisassembler.decode_11|LegacyDisassembler.decode_21,0.04073356674873367,0.0,0.00636538345708741,0.0,0.04709895020582108
LegacyInstr$CP.accept|LegacyInterpreter.fastLoop|LegacyInterpreter.runLoop,0.0,0.07879927026790667,0.0,0.012704351351478821,0.0915036216193855
LegacyInstr$CPC.accept|LegacyInterpreter.fastLoop|LegacyInterpreter.runLoop,0.0,0.0,0.0,0.0,0.0
LegacyInstr$EOR.accept|LegacyInterpreter.fastLoop|LegacyInterpreter.runLoop,0.0,0.0,0.0,0.0,0.0
LegacyInstr$LDS.accept|LegacyInterpreter.fastLoop|LegacyInterpreter.runLoop,0.0,0.0,0.0,0.0,0.0
LegacyInstr$PUSH.accept|LegacyInterpreter.fastLoop|LegacyInterpreter.runLoop,0.0,0.0,0.0,0.0,0.0
LegacyInstr$SUB.accept|LegacyInterpreter.fastLoop|LegacyInterpreter.runLoop,0.0,0.0,0.0,0.0,0.0
LegacyInterpreter.fastLoop|LegacyInterpreter.runLoop|AtmelInterpreter.start,0.0386835592274624,0.0,0.004545893977667467,0.0,0.04322945320512987
LegacyInterpreter.visit|LegacyInstr$COM.accept|LegacyInterpreter.fastLoop,0.0,0.04831687387339624,0.0,0.00779472972956412,0.05611160360296036
LegacyInterpreter.visit|LegacyInstr$CP.accept|LegacyInterpreter.fastLoop,0.011106504865537672,0.0,0.0013935026589862222,0.0,0.012500007524523895
LegacyInterpreter.visit|LegacyInstr$CPC.accept|LegacyInterpreter.fastLoop,0.0,0.06394575652147581,0.0,0.010801304347826416,0.07474706086930223
LegacyInterpreter.visit|LegacyInstr$CPI.accept|LegacyInterpreter.fastLoop,0.0,0.0,0.0,0.0,0.0
LegacyInterpreter.visit|LegacyInstr$IN.accept|LegacyInterpreter.fastLoop,0.0,0.0,0.0,0.0,0.0
LegacyInterpreter.visit|LegacyInstr$LDS.accept|LegacyInterpreter.fastLoop,0.0,0.0,0.0,0.0,0.0
LegacyInterpreter.visit|LegacyInstr$MOV.accept|LegacyInterpreter.fastLoop,0.0,0.0,0.0,0.0,0.0
LegacyInterpreter.visit|LegacyInstr$NOP.accept|LegacyInterpreter.fastLoop,0.0,0.0,0.0,0.0,0.0
LegacyInterpreter.visit|LegacyInstr$POP.accept|LegacyInterpreter.fastLoop,0.0,0.0,0.0,0.0,0.0
LegacyInterpreter.visit|LegacyInstr$PUSH.accept|LegacyInterpreter.fastLoop,0.0,0.0,0.0,0.0,0.0
LegacyInterpreter.visit|LegacyInstr$SUBI.accept|LegacyInterpreter.fastLoop,0.0,0.0,0.0,0.0,0.0
LegacyRegister.getNumber|AtmelInterpreter.getRegisterByte|LegacyInterpreter.visit,0.0,0.0,0.0,0.0,0.0
LocaleData$1.run|LocaleData$1.run|AccessController.doPrivileged,0.03592902315916436,0.0,0.006341263999643335,0.0,0.04227028715880769
LongVector.addElement|ConstPool.addItem0|ConstPool.read,0.04679235442239412,0.0,0.008135772477132071,0.0,0.05492812689952619
MainClock.advance|AtmelInterpreter.commit|LegacyInterpreter.fastLoop,0.05279178745785929,0.0,0.006127817693848124,0.0,0.05891960515170742
Medium$Receiver$Ticker.deliverByte|Medium$Receiver$Ticker.fireLocked|Medium$Receiver$Ticker.fire,0.02023196792452356,0.11288298333214092,0.003014034279401397,0.014481874999895204,0.15061086053596107
Medium$Receiver$Ticker.deliverByte|Medium$Receiver$Ticker.fireUnlocked|Medium$Receiver$Ticker.fire,0.0,0.0,0.0,0.0,0.0
Medium$Receiver$Ticker.fire|DeltaQueue$Link.fire|DeltaQueue.skipAhead,0.0,0.0,0.0,0.0,0.0
Medium$Receiver.access$100|Medium$Receiver$Ticker.fireUnlocked|Medium$Receiver$Ticker.fire,0.0,0.21525066666557294,0.0,0.02658499999991666,0.2418356666654896
Medium$Receiver.earliestNewTransmission|Medium$Receiver.access$100|Medium$Receiver$Ticker.fireUnlocked,0.0,0.4028389444396856,0.0,0.06386444444463753,0.4667033888843231
Medium$TXRX.getBitNum|Medium$Receiver$Ticker.fireUnlocked|Medium$Receiver$Ticker.fire,0.0,0.0,0.0,0.0,0.0
MemberrefInfo.<init>|MethodrefInfo.<init>|ConstPool.readOne,0.0630074288609941,0.0,0.00988739182564908,0.0,0.07289482068664319
Mica2.addDevices|Mica2.<init>|Mica2$Factory.newPlatform,0.02959847356507737,0.0,0.003334173763297174,0.0,0.032932647328374545
MulticastFSMProbe.fireBeforeTransition|FiniteStateMachine.fireBefore|FiniteStateMachine.transition,0.019457834439236456,0.0,0.002863449634915748,0.0,0.022321284074152205
Option$List.parseString|Option$List.<init>|Options.newOptionList,0.0,0.0,0.0,0.0,0.0
PacketMonitor$Mon.append|PacketMonitor$Mon.fireAfterReceive|Medium$Probe$List.fireAfterReceive,0.0,0.0,0.0,0.0,0.0
PacketMonitor$Mon.clear|PacketMonitor$Mon.fireAfterReceiveEnd|Medium$Probe$List.fireAfterReceiveEnd,0.0,0.0,0.0,0.0,0.0
PacketMonitor.newMonitor|Simulation$Node.addMonitors|Simulation.instantiateNodes,0.034156375475543586,0.0,0.0036676870904225694,0.0,0.037824062565966154
RegisterUtil$BoolView.getValue|SPI$TransferEvent.enableTransfer|SPI$SPDReg$TransmitRegister.write,0.0,0.0,0.0,0.0,0.0
Resource.getBytes|URLClassLoader.defineClass|URLClassLoader.access$100,0.345048215785411,0.0,0.05291842847815197,0.0,0.397966644263563
RippleSynchronizer$NotifyEvent.currentWaitLink|RippleSynchronizer$NotifyEvent.access$100|RippleSynchronizer.waitForNeighbors,0.0,0.0,0.0,0.0,0.0
RippleSynchronizer$NotifyEvent.fire|DeltaQueue$Link.fire|DeltaQueue.skipAhead,0.0,0.0,0.0,0.0,0.0
RippleSynchronizer.advance|RippleSynchronizer.access$000|RippleSynchronizer$NotifyEvent.fire,0.0,0.04909450000030285,0.0,0.008609999999820999,0.057704500000123844
RippleSynchronizer.advance|RippleSynchronizer.waitForNeighbors|Medium$Receiver.waitForNeighbors,0.0,0.0,0.0,0.0,0.0
RippleSynchronizer.notifyLink|RippleSynchronizer.advance|RippleSynchronizer.waitForNeighbors,0.03502057325243148,0.062398333335295326,0.0052181372781287365,0.010970000000270376,0.11360704386612593
RippleSynchronizer.waitForLink|RippleSynchronizer.waitFor|RippleSynchronizer.waitForNeighbors,0.38488510965335276,0.6610465265889428,0.04970655461848068,0.11184049999952472,1.207478690860301
RippleSynchronizer.waitForNeighbors|Medium$Receiver.waitForNeighbors|Medium$Receiver.access$000,0.04509888189147046,0.19185707406830732,0.005033840428464742,0.027607777776750112,0.26959757416499264
SPI$TransferEvent.enableTransfer|SPI$SPDReg$TransmitRegister.write|SPI$SPDReg.write,0.0,0.06855774999712594,0.0,0.012269999999944048,0.08082774999706999
SPI.receive|SPI.exchange|CC1000Radio$SPITicker.fire,0.0,0.0,0.0,0.0,0.0
SensorSimulation.process|SimAction.run|Main.runAction,0.02860673280240433,0.0,0.005260532616681368,0.0,0.0338672654190857
SimAction.run|Main.runAction|Main.main,0.052123594225096485,0.0,0.007640346535282258,0.0,0.05976394076037874
SimPrinter.printBuffer|LEDMonitor$Mon.fireAfterTransition|MulticastFSMProbe.fireAfterTransition,0.0,0.1931090666676432,0.0,0.021711333333759183,0.21482040000140237
SimPrinter.printBuffer|PacketMonitor$Mon.fireAfterReceiveEnd|Medium$Probe$List.fireAfterReceiveEnd,0.0,0.0,0.0,0.0,0.0
StreamEncoder.implFlushBuffer|StreamEncoder.flushBuffer|OutputStreamWriter.flushBuffer,0.0,0.0,0.0,0.0,0.0
StreamEncoder.writeBytes|StreamEncoder.implFlushBuffer|StreamEncoder.flushBuffer,0.0,0.21525066666557294,0.0,0.02658499999991666,0.2418356666654896
TeeOutputStream.write|FilterOutputStream.write|PrintStream.write,0.8323846350701009,1.2316277694507773,0.10757425622500331,0.1952016076392049,2.3667882683850863
TestHarness.rmdir|TestHarness.rmdir|TestHarness.rmdir,0.056359338977116084,0.0,0.00847761360730085,0.0,0.06483695258441693
TransactionalList.isEmpty|LegacyInterpreter.runLoop|AtmelInterpreter.start,0.0,0.0,0.0,0.0,0.0
Utf8Info.<init>|ConstPool.readOne|ConstPool.read,0.1832824150531872,0.0,0.025387059452443725,0.0,0.20866947450563095
