method,package1,package2,dram1,dram2,energy
ADC$ControlRegister.write|AtmelInterpreter$IORegBehavior.write|AtmelInterpreter.writeVolatile,0.0,0.0,0.0,0.0,0.0
AlgorithmDecomposer.<clinit>|DisabledAlgorithmConstraints.<init>|SignatureFileVerifier.<clinit>,0.04360448538586268,0.0,0.007887869283707303,0.0,0.05149235466956999
AtmelInterpreter.getRegisterByte|AtmelInterpreter.getRegisterWord|LegacyInterpreter.visit,0.0,0.0,0.0,0.0,0.0
AtmelInterpreter.getRegisterByte|LegacyInterpreter.visit|LegacyInstr$PUSH.accept,0.0,0.0,0.0,0.0,0.0
AtmelInterpreter.getSP|AtmelInterpreter.popByte|LegacyInterpreter.visit,0.0,0.03655033119412235,0.0,0.005237915919166354,0.041788247113288705
AtmelInterpreter.popByte|LegacyInterpreter.visit|LegacyInstr$POP.accept,0.0,0.0,0.0,0.0,0.0
AtmelInterpreter.readSRAM|AtmelInterpreter.getDataByte|AtmelInterpreter.popByte,0.0,0.0,0.0,0.0,0.0
AtmelInterpreter.setSP|AtmelInterpreter.popByte|LegacyInterpreter.visit,0.0,0.0,0.0,0.0,0.0
AtmelInterpreter.writeRegisterByte|LegacyInterpreter.visit|LegacyInstr$LPMD.accept,0.03696235294121246,0.0,0.003472058824092314,0.0,0.040434411765304774
AtmelInterpreter.writeRegisterByte|LegacyInterpreter.visit|LegacyInstr$SBC.accept,0.0,0.0,0.0,0.0,0.0
AtmelInterpreter.writeSRAM|AtmelInterpreter.writeDataByte|AtmelInterpreter.pushByte,0.0,0.0,0.0,0.0,0.0
AtmelInterpreter.writeVolatile|AtmelInterpreter.writeSRAM|AtmelInterpreter.writeIORegisterByte,0.023076489583464383,0.0,0.002803125000127693,0.0,0.025879614583592076
Benchmark.fileFromInputStream|Benchmark.extractFileResource|Benchmark.prepareJars,0.06708257995726671,0.0,0.008250778030315941,0.0,0.07533335798758266
Benchmark.fileFromInputStream|Benchmark.unpackZipStream|Benchmark.unpackZipFileResource,0.3956799394118803,0.0,0.05688599437208816,0.0,0.4525659337839685
Benchmark.unpackZipStream|Benchmark.unpackZipFileResource|Benchmark.prepare,0.007311291978928239,0.0,0.0009774742777894784,0.0,0.008288766256717718
CC1000Radio$Receiver.nextByte|Medium$Receiver$Ticker.deliverByte|AtmelInterpreter$IORegBehavior.write,0.0,0.0,0.0,0.0,0.0
ClassMap.getSortedList|HelpCategory.addOptionValueSection|Defaults.addActions,0.04107918456013142,0.0,0.00607143550761698,0.0,0.047150620067748394
ConfigFile.<init>|ConfigFile.<init>|Config.parse,0.03321625705244268,0.0,0.0037126963921228526,0.0,0.03692895344456553
ConfigFile.jj_consume_token|ConfigFile.config|ConfigFile.configFile,0.03321625705244268,0.0,0.0037126963921228526,0.0,0.03692895344456553
ConstPool.readOne|ConstPool.read|ConstPool.<init>,0.035448276604483187,0.0,0.004726649504976012,0.0,0.0401749261094592
DacapoClassLoader.loadClass|ClassLoader.loadClass|Class.forName0,0.06276984627503451,0.0,0.01056318962008315,0.0,0.07333303589511767
DacapoClassLoader.loadClass|ClassLoader.loadClass|Defaults.addMonitors,0.056771226366855124,0.0,0.010348782639846465,0.0,0.06712000900670159
DacapoClassLoader.loadClass|ClassLoader.loadClass|Defaults.addSimulations,0.04099978559698535,0.0,0.006626984793840125,0.0,0.047626770390825475
DacapoClassLoader.loadClass|ClassLoader.loadClass|Main.runAction,0.35951893723455364,0.0,0.04551957294408654,0.0,0.4050385101786402
Defaults.addActions|Defaults.getAction|Main.runAction,0.00412239744744078,0.0,0.0006145520661159452,0.0,0.004736949513556725
DeltaQueue.advance|MainClock.advance|AtmelInterpreter.commit,0.0,0.10833528778616837,0.0,0.015857748891854408,0.12419303667802278
DeltaQueue.insertEvent|MainClock.insertEvent|DerivedClock.insertEvent,0.0,0.0,0.0,0.0,0.0
DeltaQueue.insertEvent|MainClock.insertEvent|Medium$Receiver$Ticker.fireUnlocked,0.04020177777809092,0.0,0.005221666667113014,0.0,0.04542344444520394
DeltaQueue.skipAhead|MainClock.skipAhead|LegacyInterpreter.sleepLoop,0.0,0.0,0.0,0.0,0.0
ELFStringTable.getString|ELFDumpAction.getName|ELFParser.addSymbols,0.060383632493221664,0.0,0.008797406125869552,0.0,0.06918103861909122
FiniteStateMachine.fireAfter|FiniteStateMachine.transition|AtmelMicrocontroller.wakeup,0.0,0.10449490047257648,0.0,0.01376877482710929,0.11826367529968577
FiniteStateMachine.transition|AtmelMicrocontroller.sleep|LegacyInterpreter.enterSleepMode,0.025406933333336688,0.0,0.0027600000001257287,0.0,0.028166933333462416
InterruptTable.post|AtmelInterpreter.setPosted|SPI.postSPIInterrupt,0.0,0.0,0.0,0.0,0.0
Launcher$AppClassLoader.loadClass|ClassLoader.loadClass|TestHarness.main,0.004572810201601898,0.0,0.0005239375152374114,0.0,0.005096747716839309
LegacyDisassembler.decode_JMP_0|LegacyDisassembler.decode_20|LegacyDisassembler.decode_21,0.06589833436007453,0.0,0.00904195047670968,0.0,0.07494028483678421
LegacyInstr$CPSE.accept|LegacyInterpreter.fastLoop|LegacyInterpreter.runLoop,0.13779365714295375,0.0,0.014894142857415969,0.0,0.15268780000036972
LegacyInstr$LDS.accept|LegacyInterpreter.fastLoop|LegacyInterpreter.runLoop,0.02543324999978722,0.0,0.0018719999996392289,0.0,0.027305249999426448
LegacyInstr$PUSH.accept|LegacyInterpreter.fastLoop|LegacyInterpreter.runLoop,0.0,0.0,0.0,0.0,0.0
LegacyInstr$STS.accept|LegacyInterpreter.fastLoop|LegacyInterpreter.runLoop,0.0,0.0,0.0,0.0,0.0
LegacyInstr$SWAP.<init>|LegacyInstr$SWAP.<clinit>|LegacyDisassembler.decode_SWAP_0,0.06589833436007453,0.0,0.00904195047670968,0.0,0.07494028483678421
LegacyInterpreter.fastLoop|LegacyInterpreter.runLoop|AtmelInterpreter.start,0.05449473684214018,0.0,0.006947368421319161,0.0,0.06144210526345934
LegacyInterpreter.sleepLoop|LegacyInterpreter.runLoop|AtmelInterpreter.start,0.0,0.0,0.0,0.0,0.0
LegacyInterpreter.visit|LegacyInstr$CPC.accept|LegacyInterpreter.fastLoop,0.0,0.0,0.0,0.0,0.0
LegacyInterpreter.visit|LegacyInstr$CPI.accept|LegacyInterpreter.fastLoop,0.0,0.0,0.0,0.0,0.0
LegacyInterpreter.visit|LegacyInstr$CPSE.accept|LegacyInterpreter.fastLoop,0.03150245454575765,0.0,0.0028206818181140325,0.0,0.03432313636387168
LegacyInterpreter.visit|LegacyInstr$IN.accept|LegacyInterpreter.fastLoop,0.0,0.0,0.0,0.0,0.0
LegacyInterpreter.visit|LegacyInstr$OUT.accept|LegacyInterpreter.fastLoop,0.0,0.0,0.0,0.0,0.0
LegacyRegister.getNumber|AtmelInterpreter.getRegisterByte|AtmelInterpreter.getRegisterWord,0.0,0.0465348043375458,0.0,0.009002796770679755,0.05553760110822556
MainClock.advance|AtmelInterpreter.commit|LegacyInterpreter.fastLoop,0.03864208333369688,0.0,0.0035979166669272275,0.0,0.04224000000062411
Medium$BasicArbitrator.mergeTransmissions|Medium$Receiver$Ticker.deliverByte|Medium$Receiver$Ticker.fireLocked,0.0,0.0,0.0,0.0,0.0
Medium$Receiver$Ticker.deliverByte|Medium$Receiver$Ticker.fireLocked|Medium$Receiver$Ticker.fire,0.0,0.0,0.0,0.0,0.0
Medium$Receiver.earliestNewTransmission|Medium$Receiver.access$100|Medium$Receiver$Ticker.fireUnlocked,0.07518024999990303,0.0,0.008392499999899883,0.0,0.08357274999980291
Medium$Receiver.getIntersection|Medium$Receiver.access$200|Medium$Receiver$Ticker.deliverByte,0.0,0.0,0.0,0.0,0.0
MulticastFSMProbe.fireBeforeTransition|FiniteStateMachine.fireBefore|FiniteStateMachine.transition,0.0,0.0,0.0,0.0,0.0
Option$List.parseString|Option$List.<init>|Options.newOptionList,0.06276984627503451,0.0,0.01056318962008315,0.0,0.07333303589511767
PacketMonitor$Mon.appendTime|PacketMonitor$Mon.renderPacket|PacketMonitor$Mon.fireAfterReceiveEnd,0.0,0.0,0.0,0.0,0.0
Resource.getBytes|URLClassLoader.defineClass|URLClassLoader.access$100,0.0573337874914048,0.0,0.007583419015115755,0.0,0.06491720650652055
RippleSynchronizer$NotifyEvent.currentWaitLink|RippleSynchronizer$NotifyEvent.access$100|RippleSynchronizer.waitForNeighbors,0.0,0.0,0.0,0.0,0.0
RippleSynchronizer$NotifyEvent.fire|DeltaQueue$Link.fire|DeltaQueue.skipAhead,0.0,0.0,0.0,0.0,0.0
RippleSynchronizer.advance|RippleSynchronizer.waitForNeighbors|Medium$Receiver.waitForNeighbors,0.0,0.0,0.0,0.0,0.0
RippleSynchronizer.notifyLink|RippleSynchronizer.advance|RippleSynchronizer.waitForNeighbors,0.013122545454528085,0.058760930188191125,0.001881818181738543,0.011884650605837035,0.08564994443029479
RippleSynchronizer.waitForLink|RippleSynchronizer.waitFor|RippleSynchronizer.waitForNeighbors,0.2997095619525787,1.073701083766831,0.03400990331156489,0.17732215950837993,1.5847427085393546
RippleSynchronizer.waitForNeighbors|Medium$Receiver.waitForNeighbors|Medium$Receiver.access$000,0.07012726666695623,0.07242523255378741,0.008169999999760572,0.012976287899534679,0.16369878712003888
SPI.exchange|CC1000Radio$SPITicker.fire|DeltaQueue$Link.fire,0.0,0.0,0.0,0.0,0.0
StreamEncoder.write|OutputStreamWriter.write|BufferedWriter.flushBuffer,0.0,0.0,0.0,0.0,0.0
StringUtil.appendFract|StringUtil.toFixedFloat|PacketMonitor$Mon.appendTime,0.0,0.0,0.0,0.0,0.0
StringUtil.space|StringUtil.justify|StringUtil.justify,0.0,0.0,0.0,0.0,0.0
StringUtil.toList|Option$List.parseString|Option$List.<init>,0.04099978559698535,0.0,0.006626984793840125,0.0,0.047626770390825475
TeeOutputStream.write|FilterOutputStream.write|PrintStream.write,0.3981010288316029,0.4584360743583824,0.04963848190905017,0.07709952969182794,0.9832751147908635
Terminal.println|SimPrinter.printBuffer|PacketMonitor$Mon.fireAfterReceiveEnd,0.0,0.04229249812231292,0.0,0.007032810017189631,0.049325308139502554
TestHarness.rmdir|TestHarness.rmdir|TestHarness.makeCleanScratch,0.02398857642787514,0.0,0.002504980312811273,0.0,0.026493556740686413
TestHarness.rmdir|TestHarness.rmdir|TestHarness.rmdir,0.0489863982382587,0.0,0.006456936882191959,0.0,0.05544333512045066
Timer8Bit$BufferedRegister.read|Timer8Bit.tickerStart|Timer8Bit.access$000,0.013122545454528085,0.0,0.001881818181738543,0.0,0.015004363636266628
URLClassPath$JarLoader$2.getInputStream|Resource.cachedInputStream|Resource.getByteBuffer,0.056771226366855124,0.0,0.010348782639846465,0.0,0.06712000900670159
URLClassPath$JarLoader$2.getManifest|URLClassLoader.defineClass|URLClassLoader.access$100,0.0,0.0,0.0,0.0,0.0
