method,package1,package2,dram1,dram2,energy
AtmelInterpreter.commit,0.021012995902235748,0.05540724080709236,0.0024122732330983435,0.01257437199231326,0.09140688193473971
AtmelInterpreter.getRegisterByte,0.0,0.0,0.0,0.0,0.0
AtmelInterpreter.getSP,0.027315904973434363,0.0,0.002917678088147232,0.0,0.030233583061581595
AtmelInterpreter.readSRAM,0.019623768761211986,0.0,0.0015022485640918196,0.0,0.021126017325303805
AtmelInterpreter.readVolatile,0.0,0.034105214482999066,0.0,0.007013786087948919,0.041119000570947986
AtmelInterpreter.setSP,0.0,0.0,0.0,0.0,0.0
AtmelInterpreter.writeRegisterByte,0.0,0.0,0.0,0.0,0.0
AtmelInterpreter.writeSRAM,0.0,0.0,0.0,0.0,0.0
AtmelMicrocontroller.wakeup,0.0,0.05409600000040463,0.0,0.008388461538393479,0.06248446153879811
CC1000Radio$Transmitter.nextByte,0.0,0.0,0.0,0.0,0.0
ClassPool.get0,0.0,0.03751633333255692,0.0,0.0065650000002885145,0.04408133333284543
ClassPool.makeClass,0.0,0.04915760000003501,0.0,0.009504000000015365,0.05866160000005037
Config.parse,0.0,0.05195320000057108,0.0,0.007803000000058091,0.05975620000062917
ConfigFile.<init>,0.0,0.05195320000057108,0.0,0.007803000000058091,0.05975620000062917
CtClassType.getClassFile3,0.0,0.03249456638056983,0.0,0.0053222982801840926,0.03781686466075392
DefaultMCU$Pin.write,0.0,0.015136727272130716,0.0,0.002788636363633982,0.017925363635764698
DeltaQueue$Link.fire,0.0,0.0,0.0,0.0,0.0
DeltaQueue.advance,0.0,0.0,0.0,0.0,0.0
DeltaQueue.insertEvent,0.0,0.0,0.0,0.0,0.0
DeltaQueue.newEventList,0.0,0.15500181818259245,0.0,0.028302272727490738,0.1833040909100832
DeltaQueue.newLink,0.0,0.0,0.0,0.0,0.0
DisabledAlgorithmConstraints$Constraints.<init>,0.0,0.12230088889029705,0.0,0.019479999999829384,0.14178088889012644
ELFParser.disassembleSection,0.0,0.07967099999950733,0.0,0.012724999999894257,0.09239599999940158
FiniteStateMachine.fireBefore,0.0,0.0,0.0,0.0,0.0
InterruptTable.enable,0.0,0.0,0.0,0.0,0.0
LegacyDisassembler.decode_POP_0,0.0,0.07967099999950733,0.0,0.012724999999894257,0.09239599999940158
LegacyInstr$CLI.accept,0.0,0.0,0.0,0.0,0.0
LegacyInstr$PUSH.accept,0.0,0.0,0.0,0.0,0.0
LegacyInterpreter.fastLoop,0.07277788819939196,0.06954681818288835,0.00999584451068292,0.013735909090924411,0.16605645998388763
LegacyInterpreter.runLoop,0.034419464286007236,0.0,0.005164285714077518,0.0,0.03958375000008475
LegacyInterpreter.sleepLoop,0.0,0.0,0.0,0.0,0.0
LegacyInterpreter.visit,0.0,0.0,0.0,0.0,0.0
MainClock.advance,0.06331920285533693,0.0,0.009144206427234408,0.0,0.07246340928257133
MainClock.getCount,0.0,0.0,0.0,0.0,0.0
Medium$Receiver.earliestNewTransmission,0.0,0.0360442499993951,0.0,0.005543999999918015,0.04158824999931312
Medium$Receiver.getIntersection,0.0,0.0,0.0,0.0,0.0
Mica2.addDevices,0.0,0.05620305555364919,0.0,0.008345833333452094,0.06454888888710128
MulticastFSMProbe.fireBeforeTransition,0.0,0.0,0.0,0.0,0.0
PacketMonitor$Mon.appendTime,0.0,0.0,0.0,0.0,0.0
PacketMonitor$Mon.clear,0.0,0.0,0.0,0.0,0.0
PacketMonitor$Mon.fireAfterReceive,0.029320586083529027,0.0,0.003158142042203609,0.0,0.03247872812573264
RippleSynchronizer$NotifyEvent.fire,0.0,0.0,0.0,0.0,0.0
RippleSynchronizer.advance,0.04580841115341528,0.0,0.004574458978152386,0.0,0.05038287013156767
RippleSynchronizer.waitForLink,0.0,0.07295861827113982,0.0,0.01242410938745161,0.08538272765859144
RippleSynchronizer.waitForNeighbors,0.0,0.08816964902032895,0.0,0.013820624699048259,0.1019902737193772
SPI$SPDReg.read,0.0,0.0,0.0,0.0,0.0
SPI$SPSReg.clearSPIF,0.0,0.0,0.0,0.0,0.0
SensorSimulation.newNode,0.0,0.11788869231233362,0.0,0.019008846153598987,0.1368975384659326
SimPrinter.printBuffer,0.0,0.0,0.0,0.0,0.0
Terminal.println,0.0,0.0,0.0,0.0,0.0
