method,package1,package2,dram1,dram2,energy
ATMegaFamily$PortRegister.write,0.0181719306152985,0.0,0.002207320181294828,0.0,0.020379250796593328
AtmelInterpreter.commit,0.017080603537883068,0.057352777777446635,0.0014944838814553846,0.010773333333418122,0.08670119853020321
AtmelInterpreter.fireAfterWrite,0.0,0.0,0.0,0.0,0.0
AtmelInterpreter.fireBeforeWrite,0.042939166666807665,0.0,0.004173499999190729,0.0,0.04711266666599839
AtmelInterpreter.getRegisterByte,0.0,0.03294724083981525,0.0,0.006506837703764019,0.03945407854357927
AtmelInterpreter.getSP,0.0,0.0,0.0,0.0,0.0
AtmelInterpreter.readSRAM,0.0,0.03703884444354723,0.0,0.005849333333268683,0.04288817777681591
AtmelInterpreter.setPosted,0.0,0.03904199999912331,0.0,0.00762000000001232,0.04666199999913563
AtmelInterpreter.toSRAM,0.0,0.0,0.0,0.0,0.0
AtmelInterpreter.writeRegisterByte,0.0,0.02637262222253614,0.0,0.0045319999999871175,0.030904622222523256
AtmelInterpreter.writeSRAM,0.0,0.0,0.0,0.0,0.0
CC1000Radio.<init>,0.0,0.055501333335996605,0.0,0.01040000000011787,0.06590133333611448
DefaultMCU$Pin.write,0.023902585687259455,0.0,0.002718721590981682,0.0,0.026621307278241135
DeltaQueue.advance,0.0,0.18963649999932386,0.0,0.033292500000243315,0.22292899999956717
DeltaQueue.newEventList,0.0,0.0,0.0,0.0,0.0
DeltaQueue.newLink,0.0,0.021532437461411924,0.0,0.003323179926622413,0.024855617388034337
FiniteStateMachine.transition,0.0,0.0,0.0,0.0,0.0
Handler.hostsEqual,0.0,0.0619166666648299,0.0,0.011166666666516296,0.0730833333313462
InterruptTable.disableAll,0.0,0.0,0.0,0.0,0.0
LegacyDisassembler.decode_JMP_0,0.0,0.0744627777789396,0.0,0.012058333333394936,0.08652111111233454
LegacyDisassembler.decode_MULS_0,0.0,0.13262933333559582,0.0,0.019615000000158037,0.15224433333575385
LegacyInstr$BRNE.accept,0.0,0.0,0.0,0.0,0.0
LegacyInstr$OUT.accept,0.0,0.0,0.0,0.0,0.0
LegacyInstr$POP.accept,0.0,0.0,0.0,0.0,0.0
LegacyInstr$PUSH.accept,0.030949028118977782,0.0,0.0037892616325041688,0.0,0.03473828975148195
LegacyInstr$SBIW.accept,0.0,0.0,0.0,0.0,0.0
LegacyInterpreter.enterSleepMode,0.0,0.0,0.0,0.0,0.0
LegacyInterpreter.fastLoop,0.017080603537883068,0.034206777777095944,0.0014944838814553846,0.006978333333285667,0.05976019852972006
LegacyInterpreter.runLoop,0.08251199999972414,0.0,0.01240312500044638,0.0,0.09491512500017052
LegacyInterpreter.visit,0.046955059700501,0.03703884444354723,0.00450469848353647,0.005849333333268683,0.09434793596085339
MainClock.advance,0.0,0.0,0.0,0.0,0.0
Medium$Receiver$Ticker.deliverByte,0.0,0.0,0.0,0.0,0.0
Medium$Receiver$Ticker.fireUnlocked,0.0,0.0,0.0,0.0,0.0
Medium$Receiver.earliestNewTransmission,0.06336909776743294,0.0,0.008330658441962013,0.0,0.07169975620939495
Medium.getCorruptedBits,0.0,0.0,0.0,0.0,0.0
Option$List.parseString,0.0,0.07322200000150282,0.0,0.016975000000153763,0.09019700000165659
Option$Str.set,0.0,0.07810466666705906,0.0,0.013034999999945285,0.09113966666700435
PacketMonitor$Mon.renderByte,0.0,0.0,0.0,0.0,0.0
ParseUtil.encodePath,0.0,0.03966266666733039,0.0,0.0054799999999583324,0.04514266666728872
RegisterUtil$BoolView.getValue,0.0,0.0,0.0,0.0,0.0
RippleSynchronizer$NotifyEvent.currentWaitLink,0.0,0.0,0.0,0.0,0.0
RippleSynchronizer$NotifyEvent.fire,0.10817879999958678,0.0,0.013193999999202788,0.0,0.12137279999878957
RippleSynchronizer$WaitLink.<init>,0.0,0.0,0.0,0.0,0.0
RippleSynchronizer.advance,0.02628574999986692,0.03365377151556583,0.002710000000054909,0.006378481711400931,0.06902800322688858
RippleSynchronizer.notifyLink,0.0,0.0,0.0,0.0,0.0
RippleSynchronizer.waitForLink,0.0,0.07931785252061806,0.0,0.012790049185926588,0.09210790170654465
RippleSynchronizer.waitForNeighbors,0.0,0.0,0.0,0.0,0.0
SPI$TransferEvent.enableTransfer,0.0,0.0,0.0,0.0,0.0
SimPrinter.printBuffer,0.0,0.0,0.0,0.0,0.0
StringUtil.space,0.0,0.0,0.0,0.0,0.0
USART.<init>,0.0,0.09567159259017056,0.0,0.01014222222231722,0.10581381481248778
