method,hits
Arithmetic.getBit,2
Arithmetic.uword,2
AtmelInterpreter$SREGBehavior.read,2
AtmelInterpreter$SREGBehavior.write,2
AtmelInterpreter.commit,18
AtmelInterpreter.getRegisterByte,6
AtmelInterpreter.getSP,2
AtmelInterpreter.readSRAM,6
AtmelInterpreter.readVolatile,4
AtmelInterpreter.setSP,2
AtmelInterpreter.writeSRAM,2
AtmelInterpreter.writeVolatile,2
CC1000Radio$Receiver.nextByte,2
CtClassType.<init>,2
DefaultMCU$Pin.write,4
Defaults$AutoProgramReader.read,2
DeltaQueue$EventList.<init>,2
DeltaQueue$Link.fire,2
DeltaQueue.advance,6
DeltaQueue.insertAfter,2
DeltaQueue.insertEvent,2
DeltaQueue.newEventList,2
DeltaQueue.newLink,2
FiniteStateMachine.transition,2
InterruptTable.enableAll,2
InterruptTable.post,2
LegacyDisassembler.decode_EOR_0,2
LegacyInstr$LDI.accept,2
LegacyInstr$SEC.accept,2
LegacyInterpreter.fastLoop,22
LegacyInterpreter.runLoop,4
LegacyInterpreter.visit,26
MainClock.advance,10
Medium$BasicArbitrator.mergeTransmissions,2
Medium$Receiver$Ticker.deliverByte,4
Medium$Receiver$Ticker.fireUnlocked,6
Medium$Receiver.earliestNewTransmission,16
MulticastFSMProbe.fireBeforeTransition,2
PacketMonitor$Mon.renderPacket,2
Resource.cachedInputStream,2
RippleSynchronizer$NotifyEvent.currentWaitLink,2
RippleSynchronizer.advance,14
RippleSynchronizer.waitForLink,8
RippleSynchronizer.waitForNeighbors,18
SignatureFileVerifier.<clinit>,2
SimPrinter.printBuffer,2
