method,hits
AbstractStringBuilder.ensureCapacityInternal,2
AccessController.doPrivileged,2
ApplicationShutdownHooks.<clinit>,2
BufferedInputStream.read,2
BufferedWriter.min,2
BufferedWriter.write,2
ByteArrayInputStream.<init>,2
CharacterData.of,2
ClassLoader.defineClass1,2
FileOutputStream.open0,2
FileOutputStream.write,296
Finalizer.add,2
Formatter.<init>,2
HashMap.getNode,26
Inflater.inflateBytes,4
Inflater.reset,2
LinkedList$ListItr.hasNext,2
LinkedList$ListItr.next,4
LinkedList.listIterator,4
Object.<init>,2
Object.notifyAll,24
Object.wait,216
System.getSecurityManager,2
System.nanoTime,4
URLClassLoader.isSealed,2
UnixFileSystem.delete0,2
