method,package1,package2,dram1,dram2,energy
AbstractStringBuilder,0.0,0.0,0.0,0.0,0.0
AccessController,0.03500159999991107,0.0,0.003865999999834458,0.0,0.03886759999974553
Attributes$Name,0.02186066666702876,0.0,0.0034425000003466266,0.0,0.025303166667375386
Buffer,0.0,0.0,0.0,0.0,0.0
BufferedInputStream,0.033823666666952086,0.0,0.005509999999958382,0.0,0.03933366666691047
CharacterData,0.033823666666952086,0.0,0.005509999999958382,0.0,0.03933366666691047
CharsetEncoder,0.03649911111117237,0.0,0.003946666666403568,0.0,0.040445777777575936
ClassLoader,0.17827499999938956,0.0,0.024779642856715543,0.0,0.2030546428561051
FileDescriptor,0.1834310000000793,0.0,0.02328500000051766,0.0,0.20671600000059698
FileOutputStream,1.0403108929097622,0.4676919259857675,0.12101956787391699,0.07975632789066912,1.7087787146601159
HashMap,0.04550047619063878,0.0075234413702785575,0.0068785714289073705,0.0012255023936902324,0.061127991383514935
Inflater,0.3848983119057222,0.0,0.0482834285720249,0.0,0.4331817404777471
JarFile,0.043759238095108656,0.0,0.006285714285608956,0.0,0.050044952380717614
Manifest$FastInputStream,0.06886800000089957,0.0,0.009619999999510279,0.0,0.07848800000040985
Object,0.7070528182149888,0.12504398960993177,0.0705637934973054,0.01773542460429166,0.9203960259265177
RandomAccessFile,0.05231580952386139,0.0,0.004520000000151672,0.0,0.05683580952401306
StringBuffer,0.0,0.0,0.0,0.0,0.0
UnixFileSystem,0.13236933333258397,0.0,0.012801999999889327,0.0,0.14517133333247328
ZipCoder,0.24500024999967232,0.0,0.03035750000056699,0.0,0.2753577500002393
ZipFile,0.0664263333328563,0.0,0.009619999999510279,0.0,0.07604633333236659
ZipInputStream,0.016113250000216794,0.0,0.0014850000002297747,0.0,0.01759825000044657
