method,package1,package2,dram1,dram2,energy
java.io,1.2462021256596916,0.6211888106925211,0.14252061352935957,0.10238783472014432,2.1122993846017164
java.lang,1.461081033041836,0.5801374572322758,0.16989341848571826,0.1002672655577462,2.311379174317576
java.security,0.03903708333344487,0.0,0.004928125000181656,0.0,0.04396520833362653
java.util,0.21489771356392762,0.0,0.026550631714650587,0.0,0.2414483452785782
java.util.regex,0.07342550000157644,0.0,0.008835000000544824,0.0,0.08226050000212126
java.util.zip,0.10539459523802394,0.0,0.009618571428854054,0.0,0.115013166666878
