method,package1,package2,dram1,dram2,energy
avrora,0.0,0.03693650000059279,0.0,0.009282500000002377,0.046219000000595166
avrora.arch.legacy,0.2019112161854904,0.360951599300149,0.02401232707799421,0.06007477686987749,0.6469499194335111
avrora.monitors,0.0,0.0,0.0,0.0,0.0
avrora.sim,0.15461881818062084,0.15111933046141163,0.01870170063585052,0.022165301724099067,0.3466051510019821
avrora.sim.clock,0.1306846919840193,0.13899260300113528,0.019256961161074948,0.026581148678829408,0.3155154048250589
avrora.sim.mcu,0.02757221161358973,0.029910674285409708,0.0029004910296601878,0.005733942857145197,0.06611731978580483
avrora.sim.output,0.04418655467335467,0.0,0.006049114281340563,0.0,0.05023566895469523
avrora.sim.radio,0.09095353826496588,0.1239320000022417,0.016042394732624518,0.02179500000011103,0.25272293299994314
avrora.sim.util,0.0,0.0,0.0,0.0,0.0
cck.util,0.0,0.0,0.0,0.0,0.0
java.io,0.8236627039111064,0.749961089321779,0.11181957059881897,0.129377747519904,1.8148211113516084
java.lang,0.529567315029362,1.0588580147353979,0.07500340010385244,0.18126420657537265,1.844692936443985
java.util,0.10657093823463631,0.0818493518497605,0.014134421095997546,0.013891388888724678,0.21644610006911905
java.util.zip,0.0,0.31355377941401774,0.0,0.05385350406476618,0.36740728347878393
javassist,0.0,0.0,0.0,0.0,0.0
sun.misc,0.0,0.04166666666666666,0.0,0.008242499999899641,0.0499091666665663
sun.security.util,0.0,0.05248118518351542,0.0,0.00816888888867753,0.060650074072192944
