method,package1,package2,dram1,dram2,energy
AbstractStringBuilder.<init>|StringBuffer.<init>|SimPrinter.getBuffer,0.0,0.0,0.0,0.0,0.0
AccessController.doPrivileged|FilePermission.init|FilePermission.<init>,0.03500159999991107,0.0,0.003865999999834458,0.0,0.03886759999974553
Arithmetic.getBit|Arithmetic.getBitField|ATMega128.getSleepMode,0.0,0.0,0.0,0.0,0.0
AtmelInterpreter$SREGBehavior.write|AtmelInterpreter.writeVolatile|AtmelInterpreter.writeSRAM,0.0,0.0,0.0,0.0,0.0
AtmelInterpreter.commit|LegacyInterpreter.fastLoop|LegacyInterpreter.runLoop,0.0,0.04041912535470429,0.0,0.008212459573039916,0.048631584927744206
AtmelInterpreter.fireAfterWrite|AtmelInterpreter.writeSRAM|AtmelInterpreter.writeDataByte,0.0,0.0,0.0,0.0,0.0
AtmelInterpreter.fireBeforeWrite|AtmelInterpreter.writeSRAM|AtmelInterpreter.writeIORegisterByte,0.0,0.0,0.0,0.0,0.0
AtmelInterpreter.getRegisterByte|LegacyInterpreter.visit|LegacyInstr$LSR.accept,0.0,0.0,0.0,0.0,0.0
AtmelInterpreter.getRegisterByte|LegacyInterpreter.visit|LegacyInstr$PUSH.accept,0.0,0.0,0.0,0.0,0.0
AtmelInterpreter.getSP|AtmelInterpreter.pushByte|LegacyInterpreter.visit,0.04735312500012394,0.0,0.0066562500001055005,0.0,0.05400937500022944
AtmelInterpreter.popByte|LegacyInterpreter.visit|LegacyInstr$RET.accept,0.0,0.0,0.0,0.0,0.0
AtmelInterpreter.pushByte|LegacyInterpreter.visit|LegacyInstr$CALL.accept,0.0,0.0,0.0,0.0,0.0
AtmelInterpreter.pushByte|LegacyInterpreter.visit|LegacyInstr$PUSH.accept,0.04664599999932762,0.0,0.004316250000101718,0.0,0.05096224999942934
AtmelInterpreter.setSP|AtmelInterpreter.pushByte|LegacyInterpreter.visit,0.0,0.11439433199287052,0.0,0.018535736025828888,0.13293006801869942
AtmelInterpreter.writeRegisterByte|LegacyInterpreter.visit|LegacyInstr$LDS.accept,0.0570678333339553,0.0,0.005902500000047439,0.0,0.06297033333400273
AtmelInterpreter.writeSRAM|AtmelInterpreter.writeDataByte|AtmelInterpreter.pushByte,0.0,0.0,0.0,0.0,0.0
AtmelInterpreter.writeVolatile|AtmelInterpreter.writeSRAM|AtmelInterpreter.writeDataByte,0.0,0.0,0.0,0.0,0.0
AttributeInfo.<init>|BootstrapMethodsAttribute.<init>|AttributeInfo.read,0.0441779047621475,0.0,0.005062857143154057,0.0,0.04924076190530156
AttributeInfo.read|FieldInfo.read|FieldInfo.<init>,0.008911066666526798,0.0,0.0010959999997188182,0.0,0.010007066666245616
Attributes$Name.hashCode|HashMap.hash|HashMap.get,0.02186066666702876,0.0,0.0034425000003466266,0.0,0.025303166667375386
Benchmark.initialize|Benchmark.<init>|Benchmark.<init>,0.0269694666666813,0.0,0.004392000000128367,0.0,0.03136146666680967
Buffer.flip|StreamEncoder.writeBytes|StreamEncoder.implFlushBuffer,0.0,0.0,0.0,0.0,0.0
BufferedInputStream.read|DataInputStream.readUnsignedShort|DataInputStream.readUTF,0.033823666666952086,0.0,0.005509999999958382,0.0,0.03933366666691047
CharacterData.of|Character.getType|Character.isDigit,0.033823666666952086,0.0,0.005509999999958382,0.0,0.03933366666691047
CharsetEncoder.<init>|CharsetEncoder.<init>|UTF_8$Encoder.<init>,0.03649911111117237,0.0,0.003946666666403568,0.0,0.040445777777575936
ClassLoader.defineClass1|ClassLoader.defineClass|SecureClassLoader.defineClass,0.17827499999938956,0.0,0.024779642856715543,0.0,0.2030546428561051
CodeSegment.load|ReprogrammableCodeSegment$Factory.newCodeSegment|AtmelInterpreter.<init>,0.06836024596101234,0.0,0.006908156954900458,0.0,0.0752684029159128
Config.parse|TestHarness.<init>|TestHarness.main,0.029345733333563363,0.0,0.0037600000000869225,0.0,0.033105733333650286
ConfigFile.<init>|ConfigFile.<init>|Config.parse,0.029345733333563363,0.0,0.0037600000000869225,0.0,0.033105733333650286
DefaultMCU$Pin.printWrite|DefaultMCU$Pin.write|ATMegaFamily$PortRegister.write,0.0,0.0,0.0,0.0,0.0
DefaultMCU$Pin.write|ATMegaFamily$PortRegister.write|AtmelInterpreter$IORegBehavior.write,0.0,0.008203692987352032,0.0,0.0017617685009324558,0.009965461488284488
Defaults.addActions|Defaults.getAction|Main.runAction,0.0,0.0,0.0,0.0,0.0
DeltaQueue$EventList.<init>|DeltaQueue.newEventList|DeltaQueue.access$000,0.0,0.0,0.0,0.0,0.0
DeltaQueue$Link.fire|DeltaQueue.skipAhead|MainClock.skipAhead,0.0,0.0,0.0,0.0,0.0
DeltaQueue.advance|MainClock.advance|AtmelInterpreter.commit,0.0,0.0,0.0,0.0,0.0
DeltaQueue.free|DeltaQueue.skipAhead|MainClock.skipAhead,0.0,0.0,0.0,0.0,0.0
DeltaQueue.insertEvent|MainClock.insertEvent|CC1000Radio$SPITicker.fire,0.0,0.0,0.0,0.0,0.0
DeltaQueue.insertEvent|MainClock.insertEvent|DerivedClock.insertEvent,0.0,0.0,0.0,0.0,0.0
DeltaQueue.insertEvent|MainClock.insertEvent|Medium$Receiver$Ticker.fireUnlocked,0.0,0.0,0.0,0.0,0.0
DeltaQueue.skipAhead|MainClock.skipAhead|LegacyInterpreter.sleepLoop,0.02026369230775461,0.0,0.002121538461860604,0.0,0.022385230769615214
DisabledAlgorithmConstraints.<init>|DisabledAlgorithmConstraints.<init>|SignatureFileVerifier.<clinit>,0.06886800000089957,0.0,0.009619999999510279,0.0,0.07848800000040985
EEPROM.<init>|ATMega128.installDevices|ATMega128.<init>,0.1468107037038593,0.0,0.015214074073496087,0.0,0.16202477777735538
ELFSymbolTable.read|ELFLoader.readSymbolTables|ELFParser.loadSymbolTables,0.043875619047390665,0.0,0.003934285714681858,0.0,0.04780990476207252
FileDescriptor.closeAll|FileOutputStream.close|FilterOutputStream.close,0.1834310000000793,0.0,0.02328500000051766,0.0,0.20671600000059698
FileOutputStream.close0|FileOutputStream.access$000|FileOutputStream$1.close,0.011372999999972912,0.0,0.0013750000004317069,0.0,0.012748000000404618
FileOutputStream.open0|FileOutputStream.open|FileOutputStream.<init>,0.05854799999951865,0.0,0.007046249999802967,0.0,0.06559424999932162
FileOutputStream.writeBytes|FileOutputStream.write|BufferedOutputStream.write,0.16290274999937537,0.0,0.020036249999520805,0.0,0.18293899999889618
FileOutputStream.write|FileOutputStream.write|TeeOutputStream.write,0.8074871429108953,0.4676919259857675,0.09256206787416152,0.07975632789066912,1.4474974646614933
HashMap.getNode|HashMap.get|RippleSynchronizer.waitForNeighbors,0.04550047619063878,0.0075234413702785575,0.0068785714289073705,0.0012255023936902324,0.061127991383514935
HashMap.hash|HashMap.get|RippleSynchronizer.waitForNeighbors,0.0,0.0,0.0,0.0,0.0
HelpCategory.addListSection|HelpCategory.addOptionValueSection|Defaults.addActions,0.042744999999740685,0.0,0.006204999999681604,0.0,0.04894999999942229
Inflater.getRemaining|ZipInputStream.readEnd|ZipInputStream.read,0.05473325000048135,0.0,0.0063374999999723505,0.0,0.0610707500004537
Inflater.inflateBytes|Inflater.inflate|InflaterInputStream.read,0.2754318119047595,0.0,0.03560842857208021,0.0,0.3110402404768397
Inflater.inflate|InflaterInputStream.read|ZipInputStream.read,0.05473325000048135,0.0,0.0063374999999723505,0.0,0.0610707500004537
JarFile.getInputStream|URLClassPath$JarLoader$2.getInputStream|Resource.cachedInputStream,0.043759238095108656,0.0,0.006285714285608956,0.0,0.050044952380717614
LegacyInstr$CP.accept|LegacyInterpreter.fastLoop|LegacyInterpreter.runLoop,0.0,0.0,0.0,0.0,0.0
LegacyInstr$LDI.<clinit>|LegacyDisassembler.decode_LDI_0|LegacyDisassembler.decode_root0,0.07250971428549659,0.0,0.006182857142924885,0.0,0.07869257142842147
LegacyInstr$LPMD.accept|LegacyInterpreter.fastLoop|LegacyInterpreter.runLoop,0.0,0.0,0.0,0.0,0.0
LegacyInterpreter.fastLoop|LegacyInterpreter.runLoop|AtmelInterpreter.start,0.0,0.03291001472162287,0.0,0.0056490509717343155,0.03855906569335718
LegacyInterpreter.invokeInterrupt|LegacyInterpreter.runLoop|AtmelInterpreter.start,0.0,0.0,0.0,0.0,0.0
LegacyInterpreter.runLoop|AtmelInterpreter.start|Simulator.start,0.0,0.0,0.0,0.0,0.0
LegacyInterpreter.visit|LegacyInstr$CALL.accept|LegacyInterpreter.fastLoop,0.0,0.0,0.0,0.0,0.0
LegacyInterpreter.visit|LegacyInstr$CPI.accept|LegacyInterpreter.fastLoop,0.0,0.0,0.0,0.0,0.0
LegacyInterpreter.visit|LegacyInstr$PUSH.accept|LegacyInterpreter.fastLoop,0.0,0.0,0.0,0.0,0.0
LegacyInterpreter.visit|LegacyInstr$RETI.accept|LegacyInterpreter.fastLoop,0.0,0.0,0.0,0.0,0.0
LegacyInterpreter.visit|LegacyInstr$SBIW.accept|LegacyInterpreter.fastLoop,0.0,0.0,0.0,0.0,0.0
LegacyRegister.getNumber|AtmelInterpreter.getRegisterByte|LegacyInterpreter.visit,0.0,0.0,0.0,0.0,0.0
Main.parseOptions|Main.main|NativeMethodAccessorImpl.invoke0,0.05699174999972456,0.0,0.00825375000022177,0.0,0.06524549999994633
Manifest$FastInputStream.readLine|Manifest$FastInputStream.readLine|Attributes.read,0.06886800000089957,0.0,0.009619999999510279,0.0,0.07848800000040985
Medium$Receiver$Ticker.fireUnlocked|Medium$Receiver$Ticker.fire|DeltaQueue$Link.fire,0.0,0.0,0.0,0.0,0.0
Medium$Receiver$Ticker.fire|DeltaQueue$Link.fire|DeltaQueue.skipAhead,0.0,0.037124055084560036,0.0,0.0072441631207024034,0.04436821820526244
Medium$Receiver.earliestNewTransmission|Medium$Receiver.access$100|Medium$Receiver$Ticker.fireUnlocked,0.0,0.01942224456191316,0.0,0.004368653973983051,0.02379089853589621
MulticastFSMProbe.fireBeforeTransition|FiniteStateMachine.fireBefore|FiniteStateMachine.transition,0.0,0.0,0.0,0.0,0.0
Object.notifyAll|RippleSynchronizer.notifyLink|RippleSynchronizer.advance,0.10657185185118577,0.0,0.00960000000001552,0.0,0.1161718518512013
Object.wait|Object.wait|RippleSynchronizer.waitForLink,0.600480966363803,0.12504398960993177,0.060963793497289885,0.01773542460429166,0.8042241740753163
Option$List.parseString|Option$List.<init>|Options.newOptionList,0.0664263333328563,0.0,0.009619999999510279,0.0,0.07604633333236659
Program.writeInstr|ELFParser.disassembleSection|ELFParser.loadSections,0.026355619047535583,0.0,0.002251428571027992,0.0,0.028607047618563575
RandomAccessFile.read0|RandomAccessFile.read|ELFDataInputStream.read_1,0.05231580952386139,0.0,0.004520000000151672,0.0,0.05683580952401306
RippleSynchronizer$NotifyEvent.fire|DeltaQueue$Link.fire|DeltaQueue.skipAhead,0.0,0.0,0.0,0.0,0.0
RippleSynchronizer.advance|RippleSynchronizer.waitForNeighbors|Medium$Receiver.waitForNeighbors,0.0,0.038488727383833424,0.0,0.006287301879500678,0.0447760292633341
RippleSynchronizer.notifyLink|RippleSynchronizer.advance|RippleSynchronizer.waitForNeighbors,0.0,0.0,0.0,0.0,0.0
RippleSynchronizer.waitForLink|RippleSynchronizer.waitFor|RippleSynchronizer.waitForNeighbors,0.0,0.0,0.0,0.0,0.0
RippleSynchronizer.waitForNeighbors|Medium$Receiver.waitForNeighbors|Medium$Receiver.access$000,0.0,0.0,0.0,0.0,0.0
SPI.receive|SPI.exchange|CC1000Radio$SPITicker.fire,0.0,0.0,0.0,0.0,0.0
SimPrinter.printBuffer|PacketMonitor$Mon.fireAfterReceiveEnd|Medium$Probe$List.fireAfterReceiveEnd,0.0,0.0,0.0,0.0,0.0
StringBuffer.append|PacketMonitor$Mon.renderPacket|PacketMonitor$Mon.fireAfterReceiveEnd,0.0,0.0,0.0,0.0,0.0
TeeOutputStream.write|FilterOutputStream.write|PrintStream.write,0.0,0.0268713134848594,0.0,0.004451202746910619,0.03132251623177002
TestHarness.main|Harness.main|NativeMethodAccessorImpl.invoke0,0.03500159999991107,0.0,0.003865999999834458,0.0,0.03886759999974553
TestHarness.twoDecimalPlaces|TestHarness.<clinit>|Harness.main,0.0,0.0,0.0,0.0,0.0
TransactionalList.isEmpty|LegacyInterpreter.runLoop|AtmelInterpreter.start,0.04028705882442677,0.0,0.0050894117649637775,0.0,0.045376470589390545
UnixFileSystem.delete0|UnixFileSystem.delete|File.delete,0.012064666666750174,0.0,0.0009800000001026394,0.0,0.013044666666852814
UnixFileSystem.getBooleanAttributes0|UnixFileSystem.getBooleanAttributes|File.isDirectory,0.12030466666583378,0.0,0.011821999999786687,0.0,0.13212666666562048
ZipCoder.decoder|ZipCoder.toString|ZipInputStream.readLOC,0.1834310000000793,0.0,0.02328500000051766,0.0,0.20671600000059698
ZipCoder.toString|ZipInputStream.readLOC|ZipInputStream.getNextEntry,0.06156924999959301,0.0,0.007072500000049331,0.0,0.06864174999964234
ZipFile.getEntryBytes|ZipFile.getZipEntry|ZipFile.getEntry,0.0664263333328563,0.0,0.009619999999510279,0.0,0.07604633333236659
ZipInputStream.<init>|ZipInputStream.<init>|Benchmark.unpackZipStream,0.016113250000216794,0.0,0.0014850000002297747,0.0,0.01759825000044657
