method,package1,package2,dram1,dram2,energy
avrora.arch.legacy,0.10719735248539919,0.14921781818239568,0.015160130224760437,0.02646090909081867,0.29803620998337393
avrora.monitors,0.029320586083529027,0.0,0.003158142042203609,0.0,0.03247872812573264
avrora.sim,0.0679526696368821,0.08951245529009143,0.006832199885337395,0.01958815808026218,0.1838854828925731
avrora.sim.clock,0.1091276140087522,0.3161300854740612,0.013718665405386795,0.054547006813990606,0.4935233717021908
avrora.sim.mcu,0.0,0.06923272727253535,0.0,0.01117709790202746,0.08040982517456281
avrora.sim.output,0.0,0.0,0.0,0.0,0.0
avrora.sim.platform,0.0,0.05620305555364919,0.0,0.008345833333452094,0.06454888888710128
avrora.sim.radio,0.0,0.0360442499993951,0.0,0.005543999999918015,0.04158824999931312
avrora.sim.types,0.0,0.11788869231233362,0.0,0.019008846153598987,0.1368975384659326
avrora.sim.util,0.0,0.0,0.0,0.0,0.0
avrora.syntax.elf,0.0,0.07967099999950733,0.0,0.012724999999894257,0.09239599999940158
cck.text,0.0,0.0,0.0,0.0,0.0
java.io,0.41490209483859297,1.4629248592743664,0.04393171205865409,0.23306343588047465,2.1548221020520884
java.lang,0.5443570454374407,1.0904023724321261,0.06325836395043903,0.1798274247119802,1.877845206531986
java.net,0.0,0.2339952444447489,0.0,0.03810066666663058,0.2720959111113795
java.security,0.0,0.03751633333255692,0.0,0.0065650000002885145,0.04408133333284543
java.text,0.0,0.0,0.0,0.0,0.0
java.util,0.0,0.07394434415606566,0.0,0.013638964946948417,0.08758330910301407
java.util.zip,0.0,0.3057579333340982,0.0,0.048970000000250966,0.35472793333434915
javassist,0.0,0.11916849971316176,0.0,0.02139129828048797,0.14055979799364973
org.dacapo.parser,0.0,0.10390640000114217,0.0,0.015606000000116181,0.11951240000125835
sun.security.util,0.0,0.12230088889029705,0.0,0.019479999999829384,0.14178088889012644
