method,package1,package2,dram1,dram2,energy
AbstractDOMParser.startDocument,0.0,0.0,0.0,0.0,0.0
Benchmark.fileFromInputStream,0.0,0.40945912222213576,0.0,0.06982777777607058,0.47928689999820634
Binding.isValidBinding,0.0,0.0012521543745585581,0.0,0.000271068915625117,0.001523223290183675
BlockScope.getBinding,0.010116764705890091,0.0,0.0008597647058195434,0.0,0.010976529411709636
Bootstrap.init,0.0,0.07271333333240666,0.0,0.012380000000121072,0.08509333333252773
Chaperone.retire,0.0,0.0,0.0,0.0,0.0
ClassFile.<init>,0.0018434245765777497,0.0,0.00013798957921557596,0.0,0.0019814141557933256
ClassFile.addAttribute,0.0,0.0,0.0,0.0,0.0
ClassFile.read,0.0,0.04450680000009015,0.0,0.006575999999768101,0.05108279999985825
ClassFileStruct.utf8At,0.005608266990289071,0.0,0.00045983009710026337,0.0,0.006068097087389334
ClassPool.makeClass,0.0,0.0,0.0,0.0,0.0
Client.run,0.0,0.0,0.0,0.0,0.0
Compiler.initializeParser,0.003963611650481838,0.0,0.00029475728153856924,0.0,0.004258368932020407
CoyoteAdapter.postParseRequest,0.0,0.0,0.0,0.0,0.0
DefaultMBeanServerInterceptor.createClassLoaderContext,0.0,0.0,0.0,0.0,0.0
DefaultMBeanServerInterceptor.registerMBean,0.0,0.0,0.0,0.0,0.0
DefaultSocketFactory.createSocket,0.0,0.0,0.0,0.0,0.0
DigestBase.engineUpdate,0.0,0.009800295454459212,0.0,0.0018736363635980524,0.011673931818057265
Digester.getRules,0.0,0.05757666666371127,0.0,0.010999999998603016,0.0685766666623143
Digester.ignorableWhitespace,0.0,0.022668399999383842,0.0,0.004310999999870546,0.02697939999925439
DirectJDKLog.<init>,0.0,0.0,0.0,0.0,0.0
DirectJDKLog.log,0.0,0.0,0.0,0.0,0.0
DisabledAlgorithmConstraints$Constraints.<init>,0.0,0.051013200001762016,0.0,0.007397999998647721,0.05841120000040974
ELResolverImpl.<clinit>,0.0,0.010096355083127156,0.0,0.0018087062366597133,0.011905061319786869
EPollArrayWrapper.epollWait,0.0,0.0,0.0,0.0,0.0
EPollSelectorImpl.doSelect,0.0,0.007643795030998494,0.0,0.0015369875774854755,0.00918078260848397
ErrorReportValve.getPartialServletStackTrace,0.0,0.0,0.0,0.0,0.0
FileDispatcherImpl.preClose0,0.0,0.00268959386974792,0.0,0.000458237547876425,0.003147831417624345
FileDispatcherImpl.read0,0.0,0.0,0.0,0.0,0.0
Function.invoke,0.0,0.0,0.0,0.0,0.0
GeneratedMethodAccessor31.invoke,0.0,0.0,0.0,0.0,0.0
GeneratedMethodAccessor32.invoke,0.0,0.007129360747656341,0.0,0.001538579439293924,0.008667940186950265
Generator$GenerateVisitor.getTagHandlerInfo,0.0,0.0,0.0,0.0,0.0
Header.toExternalForm,0.0,0.0,0.0,0.0,0.0
HttpConnection.closeSocketAndStreams,0.0,0.0,0.0,0.0,0.0
HttpParser.readRawLine,0.0,0.0,0.0,0.0,0.0
IOUtil.drain,0.003823439917470291,0.003388517647074289,0.00033184523632496057,0.0006600000000189004,0.00820380280088844
ImmutableDescriptor.<init>,0.0,0.0,0.0,0.0,0.0
ImmutableDescriptor.makeMap,0.0,0.05714900000020861,0.0,0.00960000000001552,0.06674900000022413
IntrospectionUtils.setProperty,0.0,0.0545246666612608,0.0,0.007375000001047738,0.06189966666230854
JDTCompiler$1.findType,0.0,0.00072099671596168,0.0,0.00015931034481141617,0.0008803070607730962
JDTCompiler$1.isPackage,0.0,0.0,0.0,0.0,0.0
JspServletWrapper.getServlet,0.0,0.0,0.0,0.0,0.0
JspServletWrapper.handleJspException,0.0,0.0,0.0,0.0,0.0
JspServletWrapper.service,0.0,0.0,0.0,0.0,0.0
JstlBaseTLV.isJspTag,0.0,0.0,0.0,0.0,0.0
Launcher$AppClassLoader.loadClass,0.0,0.07277425000271856,0.0,0.011622500000764072,0.08439675000348264
Localizer.<clinit>,0.0021019273252480693,0.0,0.00012072592350240349,0.0,0.0022226532487504727
LookupEnvironment.buildTypeBindings,0.0006879805825290142,0.0,5.708737868207587e-05,0.0,0.0007450679612110901
LookupEnvironment.createArrayType,0.0,0.0,0.0,0.0,0.0
LookupEnvironment.methodVerifier,0.00042443446602315736,0.0,6.029126214926488e-05,0.0,0.00048472572817242224
MBeanAnalyzer.eliminateCovariantMethods,0.0,0.06693500000255881,0.0,0.009594999998322844,0.07653000000088166
MBeanInfo.<init>,0.0,0.0,0.0,0.0,0.0
Mark.<init>,0.0,0.012983450072860832,0.0,0.0023526690789623726,0.015336119151823206
MemberrefInfo.<init>,0.0,0.0457031999991159,0.0,0.005564999999478459,0.05126819999859436
MethodInfo.createMethod,0.0,0.0,0.0,0.0,0.0
NameAndTypeInfo.<init>,0.0,0.0,0.0,0.0,0.0
NamedNodeMapImpl.findNamePoint,0.0,0.0,0.0,0.0,0.0
NamingException.<init>,0.0,0.0007906273201595274,0.0,0.00013599130254961887,0.0009266186227091462
Native.invokeInt,0.0,0.0,0.0,0.0,0.0
NioEndpoint$Poller.run,0.0,0.0,0.0,0.0,0.0
Options.hasOption,0.0,0.0,0.0,0.0,0.0
Page.fetch,0.005772916257539454,0.0005013277329643817,0.000432077413567881,7.956052204422594e-05,0.006785881926115942
Page.stringDigest,0.0,0.003605592592560433,0.0,0.0007622222221897696,0.0043678148147502024
Page.writeLog,0.0,0.0,0.0,0.0,0.0
Parser.consumeRule,0.00035037793667032835,0.0,2.252298262376605e-05,0.0,0.0003729009192940944
Parser.consumeToken,0.0,0.0,0.0,0.0,0.0
Parser.initTables,0.0016392932038638939,0.0,0.00012570873786722428,0.0,0.0017650019417311182
Parser.parse,0.0,0.0,0.0,0.0,0.0
Protocol.equals,0.01251398062468619,0.0,0.0012158954039716136,0.0,0.013729876028657804
Reflection.getCallerClass,0.0,0.0,0.0,0.0,0.0
Request.<init>,0.0,0.0,0.0,0.0,0.0
RequestUtil.<clinit>,0.0,0.01722240000048519,0.0,0.0025560000009136282,0.01977840000139882
RequestUtil.filter,0.0043636385541821615,0.00346251000298432,0.00019156626504228776,0.0006853387972948728,0.008703053619503642
Resource.getBytes,0.0,0.0571493333336548,0.0,0.0109599999996135,0.0681093333332683
SAXParserImpl.<init>,0.0,0.0,0.0,0.0,0.0
Scanner.scanIdentifierOrKeyword,0.0,0.0,0.0,0.0,0.0
ServerSocketChannelImpl.accept0,0.0,0.013583330329164898,0.0,0.0029955442786226572,0.016578874607787557
ServletException.<init>,0.0,0.0,0.0,0.0,0.0
SimpleLog.isLevelEnabled,0.0,0.0,0.0,0.0,0.0
SocketOptionRegistry$RegistryKey.hashCode,0.0,0.0,0.0,0.0,0.0
StandardContext.resourcesStart,0.0,0.0,0.0,0.0,0.0
StandardContext.start,0.0,0.0,0.0,0.0,0.0
StandardHost.start,0.0,0.03573299999989104,0.0,0.005080499999894528,0.04081349999978557
StandardWrapper.<init>,0.0,0.032741527273108,0.0,0.007409454546657137,0.04015098181976514
StandardWrapper.loadServlet,0.0,0.0,0.0,0.0,0.0
StreamEncoder.write,0.0,0.0,0.0,0.0,0.0
StreamEncoder.writeBytes,0.0,0.0,0.0,0.0,0.0
StringManager.getString,0.0,0.0,0.0,0.0,0.0
TeeOutputStream.write,0.009590991436226009,0.03846819468010243,0.0010004636807523014,0.007267835353203401,0.05632748515028414
TestHarness.rmdir,0.0,0.044079599999531635,0.0,0.007437000000209081,0.05151659999974072
TldConfig.getJarPaths,0.0,0.05201325000007273,0.0,0.007644374999927095,0.059657624999999825
TldConfig.tldScanJar,0.0,0.0,0.0,0.0,0.0
URI.getScheme,0.0,0.0,0.0,0.0,0.0
URI.parseUriReference,0.0,0.0,0.0,0.0,0.0
URLClassPath$FileLoader.getResource,0.0,0.0,0.0,0.0,0.0
URLClassPath$JarLoader$2.getInputStream,0.0,0.0,0.0,0.0,0.0
URLClassPath$JarLoader.getResource,0.0,0.0002475964601885165,0.0,5.8194690237678915e-05,0.00030579115042619545
URLClassPath.getLoader,0.0,0.030741333333329138,0.0,0.005400000001827721,0.03614133333515686
URLJarFile.getEntry,0.0,0.0,0.0,0.0,0.0
Unsafe.defineClass,0.0,0.0,0.0,0.0,0.0
Unsafe.park,0.0,0.0,0.0,0.0,0.0
Utf8Info.<init>,0.0,0.0030564180991422465,0.0,0.0004845505557681993,0.0035409686549104456
VarArgsChecker$RealVarArgsChecker.fixedArgs,0.0,0.0,0.0,0.0,0.0
WebappClassLoader.getResourceAsStream,0.0017435024271691465,0.0,0.00012953883493731694,0.0,0.0018730412621064635
XML11Configuration.<init>,0.0,0.0,0.0,0.0,0.0
XMLEntityScanner.checkBeforeLoad,0.0,0.0005055862068893544,0.0,9.563218388961576e-05,0.0006012183907789702
XMLSecurityManager.isOverLimit,0.0,0.0,0.0,0.0,0.0
ZoneInfoFile.getZoneInfo,0.0,0.0,0.0,0.0,0.0
