method,package1,package2,dram1,dram2,energy
$Proxy0.syscall|GLIBC.gettid|GLIBC.getThreadId,0.0,0.0,0.0,0.0,0.0
ASCIICaseInsensitiveComparator.isUpper|ASCIICaseInsensitiveComparator.toLower|ASCIICaseInsensitiveComparator.lowerCaseHashCode,0.0635865999996895,0.0,0.0039239999983692545,0.0,0.06751059999805877
AbstractAlgorithmConstraints.getAlgorithms|DisabledAlgorithmConstraints.<init>|DisabledAlgorithmConstraints.<init>,0.0,0.0,0.0,0.0,0.0
AbstractDOMParser.startDocument|XMLDTDValidator.startDocument|XMLDocumentScannerImpl.startEntity,0.0,0.0,0.0,0.0,0.0
AttributeInfo.read|CodeAttribute.<init>|AttributeInfo.read,0.0,0.0,0.0,0.0,0.0
AttributeInfo.read|MethodInfo.read|MethodInfo.<init>,0.0,0.0,0.0,0.0,0.0
AugmentationsImpl$SmallContainer.clear|AugmentationsImpl.removeAllItems|XMLAttributesImpl.addAttribute,0.00040980384953822393,0.0,1.733967063406568e-05,0.0,0.00042714352017228963
Benchmark.fileFromInputStream|Benchmark.unpackZipStream|Benchmark.unpackZipFileResource,0.0,0.26060825554983846,0.0,0.031122666663658392,0.29173092221349683
Benchmark.unpackZipStream|Benchmark.unpackZipFileResource|Benchmark.prepare,0.0,0.0,0.0,0.0,0.0
Chaperone.main,0.0,0.0,0.0,0.0,0.0
CharOperation.hashCode|HashtableOfObject.get|MethodVerifier.computeInheritedMethods,0.0,0.0005080909090261762,0.0,0.00010753246755626463,0.0006156233765824408
ClassFile.<init>|ClassFilePool.acquire|ClassFile.getNewInstance,0.0,0.003167637681210603,0.0,0.00047391304352735784,0.003641550724737961
ClassFileStruct.utf8At|ClassFileReader.<init>|JDTCompiler$1.findType,0.0,0.0,0.0,0.0,0.0
ClassScope.buildFields|ClassScope.buildFieldsAndMethods|CompilationUnitScope.buildFieldsAndMethods,0.0,0.0,0.0,0.0,0.0
Client.run,0.0,0.0,0.0,0.0,0.0
CodeAttribute.<init>|AttributeInfo.read|MethodInfo.read,0.0,0.0,0.0,0.0,0.0
Compiler.initializeParser|Compiler.<init>|Compiler.<init>,0.0,0.003187705685593263,0.0,0.0005365886287857159,0.003724294314378979
CompositeName.get|NamingContext.bind|NamingContext.bind,0.059643599999981235,0.0,0.002489999998942949,0.0,0.062133599998924184
ContextConfig.createWebXmlDigester|ContextConfig.createWebDigester|ContextConfig.init,0.02618045999981405,0.0,0.0019223999985842968,0.0,0.028102859998398348
ContextConfig.init|ContextConfig.lifecycleEvent|LifecycleSupport.fireLifecycleEvent,0.0,0.0,0.0,0.0,0.0
CookieSpecBase.match|HttpMethodBase.addCookieRequestHeader|HttpMethodBase.addRequestHeaders,0.0,0.0,0.0,0.0,0.0
DTDGrammar.<init>|XMLDTDValidator.doctypeDecl|XMLDocumentScannerImpl.scanDoctypeDecl,0.0,0.0,0.0,0.0,0.0
DacapoClassLoader.loadClass|ClassLoader.loadClass|ClassLoader.defineClass1,0.0,0.0,0.0,0.0,0.0
DacapoClassLoader.loadClass|ClassLoader.loadClass|URI.<clinit>,0.0,0.0,0.0,0.0,0.0
DefaultMBeanServerInterceptor.getListenerWrapper|DefaultMBeanServerInterceptor.addNotificationListener|JmxMBeanServer.addNotificationListener,0.0,0.0,0.0,0.0,0.0
DeferredDocumentImpl.getNodeObject|DeferredDocumentImpl.synchronizeChildren|CoreDocumentImpl.getDocumentElement,0.0,0.0017912463766718413,0.0,0.00031369565228975466,0.002104942028961596
DigestBase.engineUpdate|DigestBase.engineUpdate|MessageDigest$Delegate.engineUpdate,0.00537911023580769,0.0,0.0004805258572502209,0.0,0.005859636093057911
DirectJDKLog.<init>|DirectJDKLog.getInstance|LogFactory.getInstance,0.0,0.06617942856973967,0.0,0.008704285715274245,0.07488371428501392
DirectJDKLog.log|DirectJDKLog.error|StandardWrapperValve.invoke,0.0,0.0,0.0,0.0,0.0
EPollArrayWrapper.setUpdateEvents|EPollArrayWrapper.remove|EPollSelectorImpl.implDereg,0.003678232063305557,0.0,0.0003640923366268731,0.0,0.00404232439993243
ErrorReportValve.getPartialServletStackTrace|ErrorReportValve.report|ErrorReportValve.invoke,0.0,0.0,0.0,0.0,0.0
ExtensionValidator.getManifest|ExtensionValidator.addSystemResource|ExtensionValidator.<clinit>,0.0,0.0,0.0,0.0,0.0
GeneratedMethodAccessor35.invoke|DelegatingMethodAccessorImpl.invoke|Method.invoke,0.0,0.0,0.0,0.0,0.0
Generator$TagHandlerInfo.<init>|Generator$GenerateVisitor.getTagHandlerInfo|Generator$GenerateVisitor.visit,0.0,0.0,0.0,0.0,0.0
GetPropertyAction.run|GetPropertyAction.run|AccessController.doPrivileged,0.0,0.04321638888844366,0.0,0.0026000000010147533,0.045816388889458416
Handler.parseURL|URL.<init>|URL.<init>,0.10075068000049214,0.0,0.006135000000795117,0.0,0.10688568000128726
Http11NioProtocol$Http11ConnectionHandler.process|NioEndpoint$SocketProcessor.run|ThreadPoolExecutor.runWorker,0.0,0.0,0.0,0.0,0.0
HttpConnection.flushRequestOutputStream|MultiThreadedHttpConnectionManager$HttpConnectionAdapter.flushRequestOutputStream|HttpMethodBase.writeRequest,0.0,0.0,0.0,0.0,0.0
HttpConnection.isStale|HttpConnection.closeIfStale|MultiThreadedHttpConnectionManager$HttpConnectionAdapter.closeIfStale,0.006315415094368805,0.0,0.0006984905662390684,0.0,0.007013905660607873
HttpParser.readRawLine|HttpParser.readLine|HttpConnection.readLine,0.0,0.0,0.0,0.0,0.0
IOStatus.normalize|SocketChannelImpl.read|NioChannel.read,0.0,0.0,0.0,0.0,0.0
IOUtil.makePipe|EPollSelectorImpl.<init>|EPollSelectorProvider.openSelector,0.0606167032008541,0.0,0.003749743191278775,0.0,0.06436644639213288
ImmutableDescriptor.<init>|ImmutableDescriptor.<init>|ImmutableDescriptor.<clinit>,0.0,0.0743206666666083,0.0,0.004015000001042305,0.07833566666765061
ImmutableDescriptor.makeMap|ImmutableDescriptor.makeMap|ImmutableDescriptor.<init>,0.0,0.0,0.0,0.0,0.0
InnerClassInfo.getEnclosingTypeName|InnerClassInfo.initialize|ClassFileReader.initialize,0.0,0.008213977777631954,0.0,0.0013646666666318195,0.009578644444263774
IntrospectionUtils.capitalize|IntrospectionUtils.setProperty|NioEndpoint.setProperty,0.0,0.0,0.0,0.0,0.0
IntrospectionUtils.findMethods|IntrospectionUtils.setProperty|SetPropertiesRule.begin,0.0,0.0,0.0,0.0,0.0
IntrospectionUtils.findMethod|IntrospectionUtils.callMethod1|SetNextRule.end,0.06595460000025924,0.0,0.003575999998429325,0.0,0.06953059999868856
IntrospectionUtils.setProperty|NioEndpoint.setProperty|GeneratedMethodAccessor1.invoke,0.06774906249916057,0.10469566666870377,0.0044671874979940185,0.01420499999949243,0.1911169166653508
JDTCompiler$1.findType|LookupEnvironment.askForType|PackageBinding.getTypeOrPackage,0.0,-0.0011025591401673694,0.0,-0.00026322580653027466,-0.001365784946697644
JasperLoader.loadClass|JasperLoader.loadClass|JspCompilationContext.load,0.0,0.0,0.0,0.0,0.0
JmxMBeanServer.<init>|JmxMBeanServer.newMBeanServer|MBeanServerBuilder.newMBeanServer,0.0,0.025492333331688617,0.0,0.001959999998992619,0.027452333330681235
JmxMBeanServer.newMBeanServerDelegate|MBeanServerBuilder.newMBeanServerDelegate|MBeanServerFactory.newMBeanServer,0.0,0.04380599999733801,0.0,0.004131428571002158,0.04793742856834017
JspCompilationContext.getServletPackageName|JspCompilationContext.load|JspServletWrapper.getServlet,0.0,0.0,0.0,0.0,0.0
JspServletWrapper.service|JspServlet.serviceJspFile|JspServlet.service,0.0,0.0,0.0,0.0,0.0
Launcher$AppClassLoader.loadClass|ClassLoader.loadClass|ClassLoader.loadClass,0.0,0.0,0.0,0.0,0.0
Launcher$AppClassLoader.loadClass|ClassLoader.loadClass|ConfigFile.<init>,0.0,0.0,0.0,0.0,0.0
LogFactoryImpl.createLogFromClass|LogFactoryImpl.discoverLogImplementation|LogFactoryImpl.newInstance,0.0,0.0,0.0,0.0,0.0
LookupEnvironment.createBinaryTypeFrom|LookupEnvironment.createBinaryTypeFrom|Compiler.accept,0.0,0.0035665797101725157,0.0,0.0007860869564878607,0.004352666666660376
LookupEnvironment.methodVerifier|Compiler.process|Compiler.compile,0.0,0.0,0.0,0.0,0.0
MBeanServerBuilder.newMBeanServerDelegate|MBeanServerFactory.newMBeanServer|MBeanServerFactory.createMBeanServer,0.0,0.0,0.0,0.0,0.0
MemberrefInfo.<init>|MethodrefInfo.<init>|ConstPool.readOne,0.0,0.04495657143083268,0.0,0.005005714286068853,0.04996228571690153
MemoryUserDatabase.open|MemoryUserDatabaseFactory.getObjectInstance|ResourceFactory.getObjectInstance,0.0,0.0,0.0,0.0,0.0
MessageBytes.duplicate|CoyoteAdapter.postParseRequest|CoyoteAdapter.service,0.0,0.0,0.0,0.0,0.0
MethodDeclaration.resolveStatements|AbstractMethodDeclaration.resolve|TypeDeclaration.resolve,0.0,0.0,0.0,0.0,0.0
MethodInfo.decodeLocalVariableAttribute|MethodInfo.decodeCodeAttribute|MethodInfo.readCodeAttribute,0.0,0.0,0.0,0.0,0.0
NioEndpoint$Poller.run,0.0,0.0,0.0,0.0,0.0
NioEndpoint$PollerEvent.run|NioEndpoint$Poller.events|NioEndpoint$Poller.run,0.0,0.013067740740721262,0.0,0.0020841666666658256,0.015151907407387087
NioEndpoint.isWorkerAvailable|NioEndpoint$Poller.processKey|NioEndpoint$Poller.run,0.0,0.0,0.0,0.0,0.0
NioEndpoint.start|Http11NioProtocol.start|Connector.start,0.0,0.0,0.0,0.0,0.0
Notification.<init>|MBeanServerNotification.<init>|DefaultMBeanServerInterceptor.sendNotification,0.0,0.05090333333646413,0.0,0.005879999999403178,0.056783333335867305
NotificationBroadcasterSupport.removeNotificationListener|MBeanServerDelegate.removeNotificationListener|DefaultMBeanServerInterceptor.removeNotificationListener,0.0,0.0,0.0,0.0,0.0
ObjectCreateRule.begin|Rule.begin|Digester.startElement,0.0,0.0,0.0,0.0,0.0
Page.fetch|HttpGet.fetch|Client.run,0.008288413615213843,0.0,0.0004318883692505801,0.0,0.008720301984464423
Page.stringDigest|Page.fetch|HttpGet.fetch,0.0,0.0,0.0,0.0,0.0
Page.writeLog|Page.fetch|HttpGet.fetch,0.0,0.0,0.0,0.0,0.0
Parser.consumeClassHeaderName1|Parser.consumeRule|Parser.parse,0.0,0.0008266340580609024,0.0,0.00014342391297258723,0.0009700579710334896
Parser.consumeStatementSwitch|Parser.consumeRule|Parser.parse,0.0,0.0,0.0,0.0,0.0
Parser.initTables|Parser.<clinit>|Compiler.initializeParser,0.0,0.0,0.0,0.0,0.0
Parser.parse|Parser.parse|CommandLineArgs.<init>,0.0,0.0,0.0,0.0,0.0
ParserController.doParse|ParserController.parseDirectives|Compiler.generateJava,0.0,0.0011012801932984207,0.0,0.00022391304344567027,0.001325193236744091
Reflection.getCallerClass|Class.forName|ReflectionSocketFactory.createSocket,0.0,0.0,0.0,0.0,0.0
ReflectionSocketFactory.createSocket|DefaultProtocolSocketFactory.createSocket|HttpConnection.open,0.0,0.0,0.0,0.0,0.0
RequestUtil.filter|ErrorReportValve.report|ErrorReportValve.invoke,0.0,0.0,0.0,0.0,0.0
Resource.getBytes|URLClassLoader.defineClass|URLClassLoader.access$100,0.0,0.06859095833533503,0.0,0.012534375001147659,0.0811253333364827
Scanner.<init>|Scanner.<init>|AbstractCommentParser.<init>,0.0,0.0,0.0,0.0,0.0
Scanner.getNextToken|Parser.parse|Parser.parse,0.0,0.008616575133617101,0.0,0.0016011899313762904,0.010217765064993391
ServletException.<init>|JasperException.<init>|JspCompilationContext.load,0.0,0.0,0.0,0.0,0.0
ServletException.<init>|JasperException.<init>|JspServletWrapper.getServlet,0.0,0.0,0.0,0.0,0.0
SimpleLog.isLevelEnabled|SimpleLog.trace|HttpConnection.write,0.0,0.0,0.0,0.0,0.0
StandardHost.start|ContainerBase.start|StandardEngine.start,0.046227999999973686,0.0,0.0028440000009140928,0.0,0.04907200000088778
StandardMBeanIntrospector.getPerInterfaceMap|MBeanIntrospector.getPerInterface|MBeanSupport.<init>,0.0,0.04911300000094343,0.0,0.0019750000016453364,0.051088000002588764
TeeOutputStream.write|FilterOutputStream.write|PrintStream.write,0.007754184016702343,0.01723111038366781,0.0007065339533053557,0.0033346236431328097,0.029026451996808318
TestHarness.rmdir|TestHarness.makeCleanScratch|TestHarness.main,0.0,0.1685379999980796,0.0,0.024699999999332548,0.19323799999741215
TestHarness.rmdir|TestHarness.rmdir|TestHarness.rmdir,0.0,0.07366966666692558,0.0,0.012340000001131557,0.08600966666805714
TldConfig.tldScanJar|TldConfig.execute|TldConfig.lifecycleEvent,0.0,0.0,0.0,0.0,0.0
Tomcat.<init>|NativeConstructorAccessorImpl.newInstance0|NativeConstructorAccessorImpl.newInstance,0.0,0.041503888888756696,0.0,0.002891666665366049,0.044395555554122744
TypeDeclaration.generateCode|TypeDeclaration.generateCode|CompilationUnitDeclaration.generateCode,0.0,0.0027014637681017834,0.0,0.00041391304346135536,0.0031153768115631387
URLClassPath$FileLoader.getResource|URLClassPath$FileLoader.findResource|URLClassPath.findResource,0.0,0.0,0.0,0.0,0.0
URLClassPath$FileLoader.getResource|URLClassPath.getResource|URLClassLoader$1.run,0.05805660000041826,0.0,0.0028559999991557557,0.0,0.06091259999957402
URLClassPath$JarLoader$2.getManifest|URLClassLoader.defineClass|URLClassLoader.access$100,0.0,0.0,0.0,0.0,0.0
URLClassPath$JarLoader.getResource|URLClassPath$JarLoader.findResource|URLClassPath.findResource,0.0,0.0,0.0,0.0,0.0
UTF_8$Decoder.decodeArrayLoop|UTF_8$Decoder.decodeLoop|CharsetDecoder.decode,0.0,0.032861399999819685,0.0,0.0051539999985834575,0.03801539999840314
UTF_8$Encoder.encode|StringCoding$StringEncoder.encode|StringCoding.encode,0.008930988299015069,0.0,0.0005603664914608118,0.0,0.00949135479047588
Unsafe.getAndSetObject|AtomicReferenceFieldUpdater$AtomicReferenceFieldUpdaterImpl.getAndSet|SelectionKey.attach,0.0,0.0,0.0,0.0,0.0
Unsafe.park|LockSupport.parkNanos|AbstractQueuedSynchronizer$ConditionObject.awaitNanos,0.0,0.0,0.0,0.0,0.0
Unsafe.putLong|DirectLongBufferU.put|PerfCounter.add,0.0,0.09232566666711743,0.0,0.01277000000118278,0.10509566666830021
Unsafe.unpark|LockSupport.unpark|AbstractQueuedSynchronizer.unparkSuccessor,0.0,0.0,0.0,0.0,0.0
Utf8Info.<init>|ConstPool.readOne|ConstPool.read,0.0,0.041992000000651133,0.0,0.001431428571647432,0.04342342857229856
Util.newObjectName|MBeanServerDelegate.<clinit>|JmxMBeanServer.newMBeanServerDelegate,0.0,0.0,0.0,0.0,0.0
WebappClassLoader.loadClass|WebappClassLoader.loadClass|WebAnnotationSet.loadApplicationServletAnnotations,0.0924193999999261,0.0,0.004647000000113622,0.0,0.09706640000003972
XML11Configuration.setFeature|XIncludeAwareParserConfiguration.setFeature|XIncludeAwareParserConfiguration.<init>,0.0,0.0,0.0,0.0,0.0
XMLDocumentFragmentScannerImpl$FragmentContentDriver.next|XMLDocumentScannerImpl.next|XMLNSDocumentScannerImpl.next,0.0,0.0005528564515829672,0.0,9.309677418098556e-05,0.0006459532257639528
XMLDocumentFragmentScannerImpl.<init>|XMLDocumentScannerImpl.<init>|XMLNSDocumentScannerImpl.<init>,0.0,0.0,0.0,0.0,0.0
XMLDocumentFragmentScannerImpl.scanAttribute|XMLDocumentFragmentScannerImpl.scanStartElement|XMLDocumentScannerImpl$ContentDriver.scanRootElementHook,0.0,0.0,0.0,0.0,0.0
ZoneInfoFile.load|ZoneInfoFile.access$000|ZoneInfoFile$1.run,0.0,0.0,0.0,0.0,0.0
