method,package1,package2,dram1,dram2,energy
ApplicationFilterChain.internalDoFilter|ApplicationFilterChain.doFilter|StandardWrapperValve.invoke,0.0,0.0,0.0,0.0,0.0
AttributeMap.<init>|ElementImpl.getAttributes|ParserUtils.convert,0.0,0.0,0.0,0.0,0.0
BinaryTypeBinding.createMethods|BinaryTypeBinding.cachePartsFrom|LookupEnvironment.createBinaryTypeFrom,0.0014804410968974092,0.0,0.00017123770449916053,0.0,0.0016516788013965697
ClassFile.<init>|ClassFilePool.acquire|ClassFile.getNewInstance,0.0065804831692543395,0.0,0.000694438762757205,0.0,0.0072749219320115445
ClassFile.read|ClassFile.<init>|CtClassType.<init>,0.0,0.0,0.0,0.0,0.0
Client.run|Thread.run|end.end,0.01161121797752488,0.0,0.0011263820224996196,0.0,0.0127376000000245
Compiler.<init>|Compiler.<init>|JDTCompiler.generateClass,0.007504167120319787,0.0,0.0010653001226641873,0.0,0.008569467242983974
Compiler.initializeParser|Compiler.<init>|Compiler.<init>,0.0,0.0,0.0,0.0,0.0
Config.parse|TestHarness.<init>|TestHarness.main,0.0568126790893152,0.0,0.010109669705687328,0.0,0.06692234879500253
ConfigFile.<init>|ConfigFile.<init>|Config.parse,0.0,0.0,0.0,0.0,0.0
DefaultProxySelector.select|SocksSocketImpl.connect|Socket.connect,0.0,0.0,0.0,0.0,0.0
DeferredDocumentImpl.getNodeObject|DeferredElementNSImpl.synchronizeData|ElementImpl.getNodeName,0.00604071013470675,0.0,0.0007245314975557566,0.0,0.006765241632262506
DirectJDKLog.<init>|DirectJDKLog.getInstance|LogFactory.getInstance,0.04984400521549777,0.0,0.0033442603136557467,0.0,0.05318826552915352
EPollArrayWrapper.epollCtl|EPollArrayWrapper.updateRegistrations|EPollArrayWrapper.poll,0.0,0.0,0.0,0.0,0.0
EPollArrayWrapper.interrupt|EPollArrayWrapper.interrupt|EPollSelectorImpl.wakeup,0.0015237067909995676,0.0,0.00018075286609048729,0.0,0.0017044596570900549
ElementImpl.getAttributes|DeferredElementNSImpl.synchronizeData|ElementImpl.getNodeName,0.0,0.0,0.0,0.0,0.0
FileDispatcherImpl.write0|SocketDispatcher.write|IOUtil.writeFromNativeBuffer,0.0,0.0,0.0,0.0,0.0
HashtableOfObject.<init>|ConstantPool.<init>|ClassFile.<init>,0.0,0.0009566750647290156,0.0,0.00018020919717743215,0.0011368842619064478
Header.toExternalForm|HttpMethodBase.writeRequestHeaders|HttpMethodBase.writeRequest,0.0,0.009529720590754864,0.0,0.0015296234867585006,0.011059344077513364
Http11NioProcessor.<init>|Http11NioProtocol$Http11ConnectionHandler.createProcessor|Http11NioProtocol$Http11ConnectionHandler.process,0.0,0.010773313725390015,0.0,0.0013279411764861102,0.012101254901876125
HttpMethodBase.writeRequestHeaders|HttpMethodBase.writeRequest|HttpMethodBase.execute,0.0,0.0,0.0,0.0,0.0
ImmutableDescriptor.makeMap|ImmutableDescriptor.makeMap|ImmutableDescriptor.<init>,0.02643369647394856,0.0,0.0003264494045020666,0.0,0.026760145878450627
IntrospectionUtils.setProperty|NioEndpoint.setProperty|GeneratedMethodAccessor1.invoke,0.05259200000000419,0.0,0.004915000000134265,0.0,0.057507000000138454
JDTCompiler.generateClass|Compiler.compile|Compiler.compile,0.0010415856278169126,0.0,0.00017248668148037142,0.0,0.001214072309297284
JmxMBeanServer.<init>|JmxMBeanServer.newMBeanServer|MBeanServerBuilder.newMBeanServer,0.0,0.0,0.0,0.0,0.0
JspServletWrapper.getServlet|JspServletWrapper.service|JspServlet.serviceJspFile,0.0,0.0,0.0,0.0,0.0
JspServletWrapper.service|JspServlet.serviceJspFile|JspServlet.service,0.0,0.0,0.0,0.0,0.0
LookupEnvironment.buildTypeBindings|Compiler.internalBeginToCompile|Compiler.beginToCompile,0.005255174316886767,0.0,0.0007803591172766334,0.0,0.006035533434163401
MBeanServerDelegate.<clinit>|JmxMBeanServer.newMBeanServerDelegate|MBeanServerBuilder.newMBeanServerDelegate,0.0266753552250739,0.0,0.0013128069765354427,0.0,0.02798816220160934
MessageBytes.setChars|Mapper.internalMapExtensionWrapper|Mapper.internalMapWrapper,0.0,0.0,0.0,0.0,0.0
MethodInfo.decodeAnnotations|MethodInfo.decodeMethodAnnotations|MethodInfo.createMethod,0.0,0.0,0.0,0.0,0.0
NamingContextListener.lifecycleEvent|LifecycleSupport.fireLifecycleEvent|StandardServer.start,0.03606270370370045,0.0,0.001687777777584011,0.0,0.03775048148128446
NioEndpoint$Poller.run|Thread.run|end.end,0.01161121797752488,0.006513240913841225,0.0011263820224996196,0.001165607507963248,0.02041644842182897
NotificationBroadcasterSupport.<clinit>|MBeanServerDelegate.<init>|MBeanServerDelegateImpl.<init>,0.0,0.0,0.0,0.0,0.0
NotificationBroadcasterSupport.removeNotificationListener|MBeanServerDelegate.removeNotificationListener|DefaultMBeanServerInterceptor.removeNotificationListener,0.0,0.0,0.0,0.0,0.0
Page.stringDigest|Page.fetch|HttpGet.fetch,0.026504112528742428,0.0,0.002633662069097279,0.0,0.029137774597839707
Parser.getTypeReference|Parser.consumeClassHeaderExtends|Parser.consumeRule,0.0,0.0,0.0,0.0,0.0
Parser.initTables|Parser.<clinit>|Compiler.initializeParser,0.007214325818593597,0.0,0.0008822173982290369,0.0,0.008096543216822634
Parser.readReadableNameTable|Parser.initTables|Parser.<clinit>,0.0007474789008181093,0.0,0.00011520814500135672,0.0,0.0008626870458194661
ParserConfigurationSettings.getPropertyState|XML11Configuration.getPropertyState|ParserConfigurationSettings.getProperty,0.041832564102384284,0.0,0.0036500000006083454,0.0,0.04548256410299263
PerfCounter.add|PerfCounter.addTime|ClassLoader.loadClass,0.05599782222157551,0.0,0.004433333333387661,0.0,0.06043115555496317
Repository.<init>|Repository.<init>|JmxMBeanServer.<init>,0.02127446023928364,0.0,0.0003193757106506817,0.0,0.02159383594993432
Scanner.<init>|Parser.initializeScanner|Parser.<init>,0.0,0.0,0.0,0.0,0.0
ServerSocketChannelImpl.accept|NioEndpoint$Acceptor.run|Thread.run,0.0,0.0,0.0,0.0,0.0
SimpleLog.isLevelEnabled|SimpleLog.isDebugEnabled|HttpMethodBase.shouldCloseConnection,0.0,0.0,0.0,0.0,0.0
SimpleNode.setImage|ELParser.Integer|ELParser.Literal,0.00625550913272257,0.0,0.0007024357364863687,0.0,0.006957944869208939
SmapUtil.generateSmap|Compiler.generateJava|Compiler.compile,0.006919829598842323,0.0,0.0011015047228499727,0.0,0.008021334321692296
SocketAdaptor.setSoTimeout|SocketProperties.setProperties|NioEndpoint.setSocketOptions,0.0,0.007773064818673555,0.0,0.001058541951918898,0.008831606770592453
StandardEngine.init|StandardEngine.start|StandardService.start,0.0,0.0,0.0,0.0,0.0
ThreadCoreMapInjector.transform|TransformerManager.transform|InstrumentationImpl.transform,0.03634431111099224,0.0,0.00456399999675341,0.0,0.04090831110774565
TypeDeclaration.generateCode|TypeDeclaration.generateCode|CompilationUnitDeclaration.generateCode,0.002869911966177968,0.0,0.000375207546885456,0.0,0.003245119513063424
URLClassPath$JarLoader.getResource|URLClassPath$JarLoader.getResource|URLClassPath.getResource,0.0,0.0,0.0,0.0,0.0
URLClassPath.getNextLoader|URLClassPath.findResource|URLClassLoader$2.run,0.0,0.0,0.0,0.0,0.0
UTF_8$Encoder.encodeArrayLoop|UTF_8$Encoder.encodeLoop|CharsetEncoder.encode,0.01771022167515601,0.016575447101795152,0.0017193587382485758,0.0023775975005260706,0.03838262501572581
Util$BufferCache.get|Util.getTemporaryDirectBuffer|IOUtil.read,0.0,0.0,0.0,0.0,0.0
VarArgsChecker$RealVarArgsChecker.isVarArgs|Function.isVarArgs|Function.invoke,0.0,0.0,0.0,0.0,0.0
WebappLoader.start|StandardContext.start|ContainerBase.addChildInternal,0.030654944444904686,0.0,0.0030945833326162147,0.0,0.0337495277775209
XML11Configuration.<init>|XIncludeAwareParserConfiguration.<init>|XIncludeAwareParserConfiguration.<init>,0.008456925000003442,0.0,0.0008424999999988358,0.0,0.009299425000002278
XMLDocumentScannerImpl$PrologDriver.next|XMLDocumentScannerImpl.next|XMLDocumentFragmentScannerImpl.scanDocument,0.04589833333375282,0.0,0.002560000000812579,0.0,0.048458333334565395
XMLEncodingDetector.createReader|XMLEncodingDetector.createInitialReader|XMLEncodingDetector.getEncoding,0.0008902772409745734,0.0,0.00013479418580035886,0.0,0.0010250714267749322
