method,hits
AbstractQueuedSynchronizer.shouldParkAfterFailedAcquire,1
AbstractStringBuilder.append,3
AbstractStringBuilder.ensureCapacityInternal,1
ArrayList$Itr.remove,1
Arrays.copyOf,2
Arrays.copyOfRange,1
BufferedInputStream.read,5
Class.getDeclaredConstructors0,2
ClassLoader.defineClass1,1
DataInputStream.<init>,1
FileOutputStream.open0,6
FileOutputStream.write,10
FileOutputStream.writeBytes,23
HashMap.getNode,1
Inflater.inflateBytes,14
InflaterInputStream.ensureOpen,1
Logger.demandLogger,1
Logger.logp,1
MessageDigest$Delegate.engineUpdate,1
Object.clone,4
OutputStreamWriter.<init>,1
Pattern$CharProperty.match,3
Pattern$Slice.match,1
Pattern$Start.match,2
Pattern.newSlice,1
PlainSocketImpl.socketClose0,1
PlainSocketImpl.socketCreate,1
PrintStream.write,1
Properties.loadConvert,1
Provider$Service.newInstance,1
ReentrantLock$Sync.tryRelease,1
ServerSocket.setImpl,1
SocketOutputStream.socketWrite0,4
String.charAt,1
String.equals,2
String.regionMatches,1
String.startsWith,1
Thread.sleep,1
ThreadPoolExecutor.getMaximumPoolSize,1
Throwable.fillInStackTrace,3
Throwable.getStackTraceElement,4
TreeMap.navigableKeySet,1
URI.match,1
URLStreamHandler.parseURL,1
UnixFileSystem.delete0,5
UnixFileSystem.getBooleanAttributes0,4
ZipFile.getEntryBytes,2
ZipFile.read,1
