method,package1,package2,dram1,dram2,energy
AbstractRepository.getReifier|MethodRepository.getReturnType|Method.getGenericReturnType,0.0,0.003097707865134488,0.0,0.0005578651685487437,0.0036555730336832316
AbstractSelectionKey.isValid|SelectionKeyImpl.ensureValid|SelectionKeyImpl.readyOps,0.0,0.0,0.0,0.0,0.0
AbstractStringBuilder.<init>|StringBuilder.<init>|Handler.parseURL,0.0,0.0,0.0,0.0,0.0
AbstractStringBuilder.append|StringBuffer.append|Matcher.appendReplacement,0.009985874772065115,0.012553570932073715,0.0011016656534507798,0.001571158940142348,0.02521227029773196
AbstractStringBuilder.ensureCapacityInternal|AbstractStringBuilder.append|StringBuffer.append,0.05737074577419561,0.0,0.006835222507493216,0.0,0.06420596828168883
AccessController.doPrivileged|URLClassLoader.findClass|JasperLoader.loadClass,0.0,0.0,0.0,0.0,0.0
Arrays.copyOf|Resource.getBytes|URLClassLoader.defineClass,0.0,0.04827879999938887,0.0,0.0065940000000409785,0.054872799999429844
BufferedInputStream.<init>|BufferedInputStream.<init>|ClassPool.makeClass,0.0,0.0669963333348278,0.0,0.010979999999108259,0.07797633333393605
BufferedInputStream.read|DataInputStream.readInt|AttributeInfo.<init>,0.0,0.08038333333388438,0.0,0.010990000000068296,0.09137333333395267
BufferedInputStream.read|DataInputStream.readUnsignedByte|ConstPool.readOne,0.0,0.0016130431415583985,0.0,0.00022219579646699195,0.0018352389380253903
BufferedInputStream.read|DataInputStream.readUnsignedShort|MemberrefInfo.<init>,0.0,0.0,0.0,0.0,0.0
BufferedInputStream.read|DataInputStream.readUnsignedShort|MethodInfo.read,0.0,0.07987466666963883,0.0,0.011005000000295695,0.09087966666993452
CalendarSystem.<clinit>|Date.<clinit>|Notification.<init>,0.0,0.0774943333332582,0.0,0.011020000000523092,0.0885143333337813
Catalina.createStartDigester|Catalina.load|Catalina.load,0.0,0.0,0.0,0.0,0.0
CatalinaProperties.loadProperties|CatalinaProperties.<clinit>|Bootstrap.createClassLoader,0.0,0.07147200000084315,0.0,0.011009999999563052,0.0824820000004062
Chaperone.retire|Chaperone.dismiss|Chaperone.main,0.0,0.0,0.0,0.0,0.0
CharsetEncoder.<init>|CharsetEncoder.<init>|UTF_8$Encoder.<init>,0.0,0.0,0.0,0.0,0.0
CharsetEncoder.onMalformedInput|StringCoding$StringEncoder.<init>|StringCoding$StringEncoder.<init>,0.0,0.0,0.0,0.0,0.0
Class.createAnnotationData|Class.annotationData|Class.getAnnotations,0.0,0.09611000000343968,0.0,0.015129999999771824,0.1112400000032115
Class.forName0|Class.forName|Connector.initializeAPR,0.0,0.0,0.0,0.0,0.0
Class.forName0|Class.forName|ProxySelector.<clinit>,0.0,0.0,0.0,0.0,0.0
ClassFile.addField2|ClassFile.read|ClassFile.<init>,0.0,0.0,0.0,0.0,0.0
ClassFile.completeCodeAttribute|AbstractMethodDeclaration.generateCode|AbstractMethodDeclaration.generateCode,0.0,0.0,0.0,0.0,0.0
ClassFile.getSuperclass|CtClassType.getSuperclass|ThreadCoreMapInjector.getSuperClass,0.0,0.08419911111263058,0.0,0.009543333332759276,0.09374244444538986
ClassFileReader.<init>|JDTCompiler$1.findType|JDTCompiler$1.findType,0.0,0.0,0.0,0.0,0.0
ClassLoader.checkName|ClassLoader.preDefineClass|ClassLoader.defineClass,0.0,0.0,0.0,0.0,0.0
ClassLoader.defineClass1|ClassLoader.defineClass|SecureClassLoader.defineClass,0.0,0.002084200590015128,0.0,0.00027247787614464265,0.0023566784661597706
ClassLoader.findBootstrapClass|ClassLoader.findBootstrapClassOrNull|ClassLoader.loadClass,0.0,0.018142750000455028,0.0,0.0020125000003948412,0.02015525000084987
Compiler.initializeParser|Compiler.<init>|Compiler.<init>,0.0,0.0,0.0,0.0,0.0
ConfigFile.<init>|ConfigFile.<init>|Config.parse,0.0,0.012390333334527288,0.0,0.0013599999995979788,0.013750333334125266
CookieSpecBase.match|HttpMethodBase.addCookieRequestHeader|HttpMethodBase.addRequestHeaders,0.0,0.0,0.0,0.0,0.0
DateFormat.format|AuthenticatorBase.<clinit>|Class.forName0,0.0,0.0,0.0,0.0,0.0
DecimalFormatSymbols.getInstance|NumberFormatProviderImpl.getInstance|NumberFormatProviderImpl.getIntegerInstance,0.0,0.06519780000089669,0.0,0.0065369999996619296,0.07173480000055861
DeferredDocumentImpl.getNodeName|DeferredDocumentImpl.getNodeName|DeferredElementNSImpl.synchronizeData,0.0,0.004594377581058289,0.0,0.0005353097345440986,0.005129687315602388
DeferredDocumentImpl.getNodeObject|DeferredDocumentTypeImpl.synchronizeChildren|DocumentTypeImpl.getElements,0.0,0.0,0.0,0.0,0.0
DeferredDocumentImpl.getNodeObject|DeferredElementNSImpl.synchronizeData|ElementImpl.getNodeName,0.0,0.0002458690264905119,0.0,2.8884955795185094e-05,0.000274753982285697
DigestBase.engineUpdate|DigestBase.engineUpdate|MessageDigest$Delegate.engineUpdate,0.01140621465985965,0.0,0.001494628362256554,0.0,0.012900843022116203
DirectJDKLog.<init>|DirectJDKLog.getInstance|LogFactory.getInstance,0.0,0.0,0.0,0.0,0.0
DocumentBuilderFactory.isCoalescing|DocumentBuilderImpl.<init>|DocumentBuilderFactoryImpl.newDocumentBuilder,0.0,0.0,0.0,0.0,0.0
DocumentBuilderImpl.<init>|DocumentBuilderFactoryImpl.newDocumentBuilder|ParserUtils.parseXMLDocument,0.0,0.0,0.0,0.0,0.0
EPollArrayWrapper.epollCtl|EPollArrayWrapper.updateRegistrations|EPollArrayWrapper.poll,0.0,0.0032399620492626737,0.0,0.000540654648914805,0.0037806166981774786
EPollArrayWrapper.epollWait|EPollArrayWrapper.poll|EPollSelectorImpl.doSelect,0.0,0.0,0.0,0.0,0.0
ErrorReportValve.getPartialServletStackTrace|ErrorReportValve.report|ErrorReportValve.invoke,0.0,0.0,0.0,0.0,0.0
FileDispatcherImpl.close0|SocketDispatcher.close|SocketChannelImpl.kill,0.0,0.005647214285826998,0.0,0.0011489285714647154,0.006796142857291713
FileDispatcherImpl.preClose0|SocketDispatcher.preClose|SocketChannelImpl.implCloseSelectableChannel,0.0,0.0,0.0,0.0,0.0
FileOutputStream.close0|FileOutputStream.access$000|FileOutputStream$1.close,0.0,0.0,0.0,0.0,0.0
FileOutputStream.open0|FileOutputStream.open|FileOutputStream.<init>,0.005871684210528895,0.11604833333209776,0.0006761842105653048,0.016454999999647647,0.1390512017528396
FileOutputStream.writeBytes|FileOutputStream.write|BufferedOutputStream.flushBuffer,0.0,0.011133028292304985,0.0,0.0018331701261961788,0.012966198418501164
FileOutputStream.writeBytes|FileOutputStream.write|StreamEncoder.writeBytes,0.0,0.0,0.0,0.0,0.0
FileOutputStream.write|FileOutputStream.write|TeeOutputStream.write,0.0,0.0,0.0,0.0,0.0
HashMap.getNode|HashMap.get|DTDGrammar.startContentModel,0.0,0.002223641975253912,0.0,0.00028166666662501585,0.002505308641878928
IOUtil.drain|EPollSelectorImpl.doSelect|SelectorImpl.lockAndDoSelect,0.006101173076925849,0.007473255813915044,0.0006149999998552421,0.0015006976741566431,0.015690126564852778
Inflater.inflateBytes|Inflater.inflate|InflaterInputStream.read,0.0,0.3809000000037486,0.0,0.056334999998701576,0.43723500000245014
InflaterInputStream.<init>|ZipFile$ZipFileInflaterInputStream.<init>|ZipFile.getInputStream,0.0,0.0,0.0,0.0,0.0
InternalNioInputBuffer.nextRequest|Http11NioProcessor.process|Http11NioProtocol$Http11ConnectionHandler.process,0.0,0.0,0.0,0.0,0.0
IntrospectionUtils.setProperty|NioEndpoint.setProperty|GeneratedMethodAccessor1.invoke,0.0,0.0,0.0,0.0,0.0
JarFile$JarEntryIterator.next|JarFile$JarEntryIterator.nextElement|JarFile$JarEntryIterator.nextElement,0.05459347205263822,0.048360857146326465,0.008298478765881771,0.005605714286295032,0.11685852225114149
JarFile.checkForSpecialAttributes|JarFile.hasClassPathAttribute|JavaUtilJarAccessImpl.jarFileHasClassPathAttribute,0.0,0.0,0.0,0.0,0.0
JkCoyoteHandler.getJkMain|JkCoyoteHandler.setProperty|NativeMethodAccessorImpl.invoke0,0.0,0.0,0.0,0.0,0.0
JmxMBeanServer.<init>|JmxMBeanServer.newMBeanServer|MBeanServerBuilder.newMBeanServer,0.0,0.06498199999623466,0.0,0.010994999999335656,0.07597699999557032
JmxMBeanServer.newMBeanServerDelegate|MBeanServerBuilder.newMBeanServerDelegate|MBeanServerFactory.newMBeanServer,0.0,0.10253933333539557,0.0,0.015129999999771824,0.1176693333351674
JspServletWrapper.getServlet|JspServletWrapper.handleJspException|JspServletWrapper.service,0.0,0.0,0.0,0.0,0.0
Locale.getDefault|String.toUpperCase|StatusLine.<init>,0.0,0.0,0.0,0.0,0.0
Logger.demandLogger|Logger.getLogger|DirectJDKLog.<init>,0.0,0.0666503333292591,0.0,0.011020000000523092,0.0776703333297822
MBeanNotificationInfo.<init>|MBeanNotificationInfo.<init>|MBeanServerDelegate.<clinit>,0.0,0.0,0.0,0.0,0.0
MBeanServerDelegate.<init>|MBeanServerDelegateImpl.<init>|JmxMBeanServer.newMBeanServerDelegate,0.0,0.04376200000115205,0.0,0.006895000001046961,0.05065700000219901
Mapper.internalMapExactWrapper|Mapper.internalMapWrapper|Mapper.internalMap,0.0,0.0,0.0,0.0,0.0
MemberResolver.lookupFieldByJvmName2|TypeChecker.fieldAccess2|TypeChecker.fieldAccess,0.0,0.0,0.0,0.0,0.0
Messages.load|Messages.initializeMessages|Messages.<clinit>,0.0,0.0,0.0,0.0,0.0
Method.getFactory|Method.getGenericInfo|Method.getGenericInfo,0.0,0.0,0.0,0.0,0.0
MethodFinder.<clinit>|Introspector.getPublicDeclaredMethods|Introspector.getTargetMethodInfo,0.0,0.0,0.0,0.0,0.0
Native.invokeInt|Function.invoke|Function.invoke,0.004024828571397977,0.0,0.0005194285714034257,0.0,0.004544257142801403
Net.setIntOption0|Net.setSocketOption|SocketChannelImpl.setOption,0.0,0.0,0.0,0.0,0.0
NioEndpoint$Poller.run|Thread.run|end.end,0.0,0.007425907163199094,0.0,0.0011955053990703615,0.008621412562269455
Object.clone|Method.getParameterTypes|IntrospectionUtils.setProperty,0.0,0.08945700000428282,0.0,0.010930000001584023,0.10038700000586684
Object.hashCode|SocketOptionRegistry$RegistryKey.hashCode|HashMap.hash,0.0,0.010423968408888463,0.0,0.0015656130545539913,0.011989581463442455
Parser.getUnspecifiedReferenceOptimized|Parser.consumeInsideCastExpressionLL1|Parser.consumeRule,0.0,0.0,0.0,0.0,0.0
Parser.initTables|Parser.<clinit>|Compiler.initializeParser,0.0,0.0,0.0,0.0,0.0
Parser.ntAction|Parser.parse|Parser.parse,0.0,0.0,0.0,0.0,0.0
Parser.parse|Parser.parse|CommandLineArgs.<init>,0.0,0.0,0.0,0.0,0.0
ParserController.doParse|ParserController.parseDirectives|Compiler.generateJava,0.0,0.0,0.0,0.0,0.0
Pattern$BmpCharProperty.match|Pattern$Start.match|Matcher.search,0.0,0.0,0.0,0.0,0.0
Pattern$Slice.match|Pattern$Start.match|Matcher.search,0.0,0.0006348785046552237,0.0,8.130841120091815e-05,0.0007161869158561419
Pattern$Start.match|Matcher.search|Matcher.find,0.0,0.0,0.0,0.0,0.0
Pattern.newSlice|Pattern.atom|Pattern.sequence,0.0,0.0348306666710414,0.0,0.005470000001272031,0.04030066667231343
PlainSocketImpl.socketAvailable|AbstractPlainSocketImpl.available|SocketInputStream.available,0.0,0.0,0.0,0.0,0.0
PlainSocketImpl.socketClose0|AbstractPlainSocketImpl.socketPreClose|AbstractPlainSocketImpl.close,0.0,0.0,0.0,0.0,0.0
PlainSocketImpl.socketConnect|AbstractPlainSocketImpl.doConnect|AbstractPlainSocketImpl.connectToAddress,0.0,0.010423968408888463,0.0,0.0015656130545539913,0.011989581463442455
Properties$LineReader.readLine|Properties.load0|Properties.load,0.0,0.08396047321585207,0.0,0.011476852678664986,0.09543732589451705
Properties.loadConvert|Properties.load0|Properties.load,0.0,0.09035233333027766,0.0,0.010920000000623986,0.10127233333090165
Protocol.getProtocol|HttpHost.<init>|HttpMethodBase.setURI,0.0,0.0,0.0,0.0,0.0
RequestUtil.filter|ErrorReportValve.report|ErrorReportValve.invoke,0.0,0.0,0.0,0.0,0.0
SelectorImpl.lockAndDoSelect|SelectorImpl.select|NioEndpoint$Poller.run,0.0,0.01704715109966064,0.0,0.00266267224434687,0.01970982334400751
SelectorImpl.processDeregisterQueue|EPollSelectorImpl.doSelect|SelectorImpl.lockAndDoSelect,0.0,0.0,0.0,0.0,0.0
ServerSocketChannelImpl.accept0|ServerSocketChannelImpl.accept|ServerSocketChannelImpl.accept,0.0,0.021623878324930783,0.0,0.0034140100913931555,0.02503788841632394
Session.<init>|AuthenticatedSession.<init>|AuthenticatedSession.create,0.08194224458402828,0.0,0.014540964435726672,0.0,0.09648320901975495
Socket.checkAddress|Socket.bind|GeneratedMethodAccessor30.invoke,0.0,0.0,0.0,0.0,0.0
Socket.getInputStream|HttpConnection.open|MultiThreadedHttpConnectionManager$HttpConnectionAdapter.open,0.0,0.0,0.0,0.0,0.0
SocketInputStream.socketRead0|SocketInputStream.socketRead|SocketInputStream.read,0.0,0.0,0.0,0.0,0.0
StandardMBeanSupport.getMBeanIntrospector|MBeanSupport.<init>|StandardMBeanSupport.<init>,0.0,0.0,0.0,0.0,0.0
StandardServer.<init>|NativeConstructorAccessorImpl.newInstance0|NativeConstructorAccessorImpl.newInstance,0.0,0.0,0.0,0.0,0.0
String.concat|URLClassLoader$1.run|URLClassLoader$1.run,0.0,0.0,0.0,0.0,0.0
String.equals|IntrospectionUtils.setProperty|NioEndpoint.setProperty,0.0,0.0,0.0,0.0,0.0
String.startsWith|String.startsWith|URLClassPath$FileLoader.getResource,0.0,0.0,0.0,0.0,0.0
StringBuffer.append|ErrorReportValve.report|ErrorReportValve.invoke,0.0,0.003465956250183809,0.0,0.0005372250000800705,0.00400318125026388
StringBuffer.append|RequestUtil.filter|ErrorReportValve.report,0.0,0.0,0.0,0.0,0.0
StringBuffer.length|MessageFormat.subformat|MessageFormat.format,0.0,0.0,0.0,0.0,0.0
TestHarness.rmdir|TestHarness.makeCleanScratch|TestHarness.main,0.0,0.018839500000467524,0.0,0.00270499999957489,0.021544500000042415
Thread.sleep|NioEndpoint$Poller.run|Thread.run,0.0,0.0,0.0,0.0,0.0
ThreadPoolExecutor.isRunning|ThreadPoolExecutor.execute|NioEndpoint.processSocket,0.0,0.0,0.0,0.0,0.0
Throwable.fillInStackTrace|Throwable.fillInStackTrace|Throwable.<init>,0.0,0.0,0.0,0.0,0.0
Throwable.getStackTraceElement|Throwable.getOurStackTrace|Throwable.getStackTrace,0.0,0.0,0.0,0.0,0.0
URL.<init>|URLClassPath$JarLoader.<init>|URLClassPath$3.run,0.0,0.0,0.0,0.0,0.0
URL.getPort|URLStreamHandler.parseURL|Handler.parseURL,0.0,0.0,0.0,0.0,0.0
URLClassLoader.getResourceAsStream|WebappClassLoader.getResourceAsStream|JasperLoader.getResourceAsStream,0.0,0.0,0.0,0.0,0.0
URLClassPath$JarLoader.getClassPath|URLClassPath.getLoader|URLClassPath.getNextLoader,0.0,0.0,0.0,0.0,0.0
URLClassPath.getNextLoader|URLClassPath.findResource|URLClassLoader$2.run,0.0021809415073232442,0.0,0.00031030162696226235,0.0,0.0024912431342855065
URLClassPath.knownToNotExist|Launcher$AppClassLoader.loadClass|ClassLoader.loadClass,0.0,0.1491493333305698,0.0,0.02060500000031121,0.169754333330881
UTF_8$Decoder.decode|ZipCoder.toString|ZipFile.getZipEntry,0.0,0.0,0.0,0.0,0.0
UTF_8.updatePositions|UTF_8.access$200|UTF_8$Encoder.encodeArrayLoop,0.0,0.0,0.0,0.0,0.0
UnixFileSystem.delete0|UnixFileSystem.delete|File.delete,0.0,0.05755591666578161,0.0,0.007564999997460593,0.0651209166632422
UnixFileSystem.getBooleanAttributes0|UnixFileSystem.getBooleanAttributes|File.exists,0.0,0.05737120881856841,0.0,0.008376719576075246,0.06574792839464365
UnixFileSystem.getBooleanAttributes0|UnixFileSystem.getBooleanAttributes|File.isDirectory,0.0,0.0,0.0,0.0,0.0
Unsafe.park|LockSupport.parkNanos|AbstractQueuedSynchronizer$ConditionObject.awaitNanos,0.0,0.0,0.0,0.0,0.0
Util.offerFirstTemporaryDirectBuffer|IOUtil.read|SocketChannelImpl.read,0.004326250666955833,0.0,0.0004296739350214924,0.0,0.0047559246019773255
XML11Configuration.<init>|XIncludeAwareParserConfiguration.<init>|XIncludeAwareParserConfiguration.<init>,0.0,0.0,0.0,0.0,0.0
XMLAttributesImpl.addAttribute|XMLAttributesImpl.addAttribute|XMLDocumentFragmentScannerImpl.scanAttribute,0.0,0.0,0.0,0.0,0.0
XMLDocumentFragmentScannerImpl.scanDocument|XML11Configuration.parse|XML11Configuration.parse,0.043449641022179804,0.0,0.005188340683805879,0.0,0.04863798170598568
XMLEntityManager.setScannerVersion|XMLEntityManager.<init>|XML11Configuration.<init>,0.0,0.10655946666762853,0.0,0.010967999999411405,0.11752746666703993
ZipFile.access$1300|ZipFile$ZipFileInputStream.read|ZipFile$ZipFileInflaterInputStream.fill,0.0,0.0,0.0,0.0,0.0
ZipFile.close|ZipFile.close|TldConfig.tldScanJar,0.0,0.0,0.0,0.0,0.0
ZipFile.freeEntry|ZipFile.access$1000|ZipFile$ZipEntryIterator.next,0.0,0.0,0.0,0.0,0.0
ZipFile.getEntryBytes|ZipFile.getZipEntry|ZipFile.access$900,0.0,0.045044000001507815,0.0,0.0057239999994635575,0.05076800000097137
ZipFile.getZipEntry|ZipFile.access$900|ZipFile$ZipEntryIterator.next,0.0,0.0,0.0,0.0,0.0
ZipFile.read|ZipFile.access$1400|ZipFile$ZipFileInputStream.read,0.0,0.08022066666550623,0.0,0.010999999998603016,0.09122066666410925
ZipInputStream.readLOC|ZipInputStream.getNextEntry|Benchmark.unpackZipStream,0.0,0.05893966666189954,0.0,0.009639999999005036,0.06857966666090458
ZoneInfoFile.load|ZoneInfoFile.access$000|ZoneInfoFile$1.run,0.02263683583207773,0.0,0.001972830419231942,0.0,0.024609666251309673
