method,hits
AbstractDOMParser.startDocument,2
AbstractQueuedSynchronizer.release,1
AbstractStringBuilder.<init>,1
AbstractStringBuilder.append,1
AbstractStringBuilder.ensureCapacityInternal,1
AccessController.doPrivileged,1
Arrays.copyOf,2
Arrays.copyOfRange,3
AtomicLong.getAndIncrement,1
BinaryTypeBinding.createMethod,1
BufferedInputStream.read,4
CharOperation.splitOn,1
Class.createAnnotationData,1
Class.forName0,3
Class.getDeclaredConstructors0,3
ClassFile.<init>,2
ClassLoader.defineClass1,6
ClassLoader.findBootstrapClass,1
Compiler.<init>,2
Compiler.initializeParser,1
Config.parse,1
CopyOnWriteArrayList.iterator,1
CtClassType.getClassFile3,1
CtClassType.getInterfaces,1
DTDDVFactoryImpl.<clinit>,1
DataInputStream.readInt,1
DataInputStream.readUnsignedShort,1
Date.<init>,1
Digester.startElement,1
DirectJDKLog.<init>,1
EPollArrayWrapper.epollCtl,1
FileDirContext.list,1
FileDispatcherImpl.read0,1
FileDispatcherImpl.write0,1
FileOutputStream.<init>,1
FileOutputStream.open0,2
FileOutputStream.write,9
FileOutputStream.writeBytes,20
Formatter.parse,1
HashMap.hash,1
Http11NioProtocol.<init>,2
HttpConnection.closeSocketAndStreams,1
HttpMethodBase.getPath,1
IOUtil.drain,1
ImmutableDescriptor.makeMap,1
InetAddress$Cache.getPolicy,1
Inflater.inflateBytes,16
Inflater.needsDictionary,1
InternalNioInputBuffer.endRequest,1
JarFile$JarEntryIterator.hasMoreElements,1
JasperLoader.loadClass,1
JmxMBeanServer.<init>,1
JspServletWrapper.service,3
Logger.demandLogger,1
LongVector.elementAt,1
LookupEnvironment.createRawType,1
MBeanNotificationInfo.<init>,1
MBeanServerBuilder.newMBeanServerDelegate,1
MessageFormat.<init>,1
MessageFormat.applyPattern,1
Method.getName,1
MultiThreadedHttpConnectionManager$ConnectionPool.getHostPool,1
NativeObject.getInt,1
NioEndpoint$Poller.run,1
Node$ELExpression.getType,1
Notification.<init>,1
NotificationBroadcasterSupport.<clinit>,1
Object.clone,3
Object.hashCode,1
Parser.initTables,1
Parser.initialize,1
Parser.initializeScanner,1
Parser.parse,1
Parser.parsePlugin,1
Pattern$LastNode.match,1
Pattern$Slice.match,1
Pattern$Start.match,2
Pattern.newSlice,1
PerfCounter.get,1
PlainSocketImpl.socketBind,1
PlainSocketImpl.socketClose0,1
Properties$LineReader.readLine,2
PropertyChangeSupport.firePropertyChange,1
Reflection.getClassAccessFlags,1
Repository.<init>,1
SAXParserFactoryImpl.newSAXParser,1
SHA.implCompress,9
SelectorImpl.processDeregisterQueue,1
ServerSocketChannelImpl.accept0,1
SignatureWrapper.atEnd,1
StandardMBeanSupport.getMBeanIntrospector,1
StandardServer.<init>,1
StandardWrapper.<init>,1
String.startsWith,1
StringBuffer.append,2
StringBuilder.append,1
StringBuilder.toString,1
SymbolTable.addSymbol,1
Thread.blockedOn,1
ThreadLocal$ThreadLocalMap.getEntry,1
Throwable.<init>,1
Throwable.fillInStackTrace,1
Throwable.getStackTraceElement,5
TreeMap.navigableKeySet,1
TryStatement.resolve,1
TypeDeclaration.generateCode,1
UTF_8$Decoder.decode,1
UnixFileSystem.createDirectory,1
UnixFileSystem.delete0,7
UnixFileSystem.getBooleanAttributes0,2
UnixFileSystem.list,1
Unsafe.park,1
Unsafe.unpark,1
Vector.size,1
WeakHashMap.get,1
XMLDTDValidator.doctypeDecl,1
XMLEntityScanner.scanData,1
ZipFile.getEntry,2
ZipFile.getEntryBytes,2
ZipFile.getZipEntry,1
ZipInputStream.readLOC,1
