method,hits
AbstractDOMParser.startDocument,1
AbstractStringBuilder.append,6
ArrayList.elementData,1
Arrays.copyOf,2
Arrays.copyOfRange,1
Arrays.sort,1
Binding.isValidBinding,1
BlockScope.getBinding,1
BufferedInputStream.<init>,1
BufferedInputStream.read,2
Class.getDeclaredConstructors0,1
ClassFile.<init>,1
ClassFile.addAttribute,1
ClassFileStruct.utf8At,1
ClassLoader.defineClass1,3
ClassLoader.findBootstrapClass,1
Client.run,1
Compiler.initializeParser,2
CoyoteAdapter.postParseRequest,1
DefaultMBeanServerInterceptor.createClassLoaderContext,1
DefaultMBeanServerInterceptor.registerMBean,1
DigestBase.engineUpdate,1
Digester.getRules,1
Digester.ignorableWhitespace,1
DisabledAlgorithmConstraints$Constraints.<init>,1
ELResolverImpl.<clinit>,1
EPollArrayWrapper.epollWait,2
Enum.ordinal,1
FileDispatcherImpl.preClose0,2
FileDispatcherImpl.read0,1
FileOutputStream.close0,1
FileOutputStream.open0,2
FileOutputStream.write,13
FileOutputStream.writeBytes,16
Function.invoke,1
Generator$GenerateVisitor.getTagHandlerInfo,1
HashMap.getNode,1
IOUtil.drain,2
ImmutableDescriptor.makeMap,1
Inflater.inflateBytes,15
JarFile.getEntry,1
JspServletWrapper.getServlet,1
JspServletWrapper.service,2
JstlBaseTLV.isJspTag,1
Locale.equals,1
Logger.<init>,1
LookupEnvironment.buildTypeBindings,1
LookupEnvironment.createArrayType,1
LookupEnvironment.methodVerifier,1
MBeanInfo.<init>,1
Mark.<init>,1
Math.min,1
MethodInfo.createMethod,1
NamedNodeMapImpl.findNamePoint,1
Native.invokeInt,1
NioEndpoint$Poller.run,1
Object.clone,5
Options.hasOption,1
Page.stringDigest,2
Parser.consumeRule,1
Parser.consumeToken,1
Parser.initTables,2
Parser.parse,1
Pattern$LastNode.match,1
Pattern$Start.match,1
PlainSocketImpl.socketClose0,1
PlainSocketImpl.socketConnect,1
PlainSocketImpl.socketCreate,1
Properties$LineReader.readLine,1
Protocol.equals,1
Reflection.getCallerClass,1
Request.<init>,1
RequestUtil.filter,1
SAXParserImpl.<init>,1
Scanner.scanIdentifierOrKeyword,1
ServerSocketChannelImpl.accept0,2
SimpleDateFormat.initializeCalendar,2
SimpleLog.isLevelEnabled,1
SocketInputStream.socketRead0,2
SocketOptionRegistry$RegistryKey.hashCode,1
SocksSocketImpl.<init>,1
StandardContext.start,1
StandardWrapper.<init>,1
StreamEncoder.write,1
String.charAt,1
String.length,1
String.toCharArray,2
StringBuffer.append,6
StringBuffer.toString,1
StringBuilder.append,1
StringBuilder.toString,1
Thread.isInterrupted,1
Thread.sleep,1
Throwable.<init>,1
Throwable.fillInStackTrace,5
Throwable.getStackTraceElement,6
TldConfig.tldScanJar,1
TreeMap.values,1
URLClassLoader.getResourceAsStream,1
URLStreamHandler.toExternalForm,1
UnixFileSystem.delete0,4
UnixFileSystem.getBooleanAttributes0,1
Unsafe.defineClass,1
Unsafe.park,1
Vector.size,1
XML11Configuration.<init>,1
XMLEntityScanner.checkBeforeLoad,1
ZipFile.getEntry,2
ZipFile.getInputStream,1
ZipFile.getNextEntry,2
ZipFile.read,1
ZoneInfoFile.getZoneInfo,1
