method,package1,package2,dram1,dram2,energy
chappie,0.0,0.0,0.0,0.0,0.0
com.sun.jmx.interceptor,0.0,0.0,0.0,0.0,0.0
com.sun.jmx.mbeanserver,0.1267719875129979,0.0,0.015656119891133198,0.0,0.1424281074041311
com.sun.org.apache.xerces.internal.dom,0.0,0.0,0.0,0.0,0.0
com.sun.org.apache.xerces.internal.impl,0.10283497404755651,0.0,0.012216261412751171,0.0,0.11505123546030768
com.sun.org.apache.xerces.internal.impl.dtd,0.0,0.0,0.0,0.0,0.0
com.sun.org.apache.xerces.internal.parsers,0.0,0.0,0.0,0.0,0.0
com.sun.org.apache.xerces.internal.util,0.0,0.0,0.0,0.0,0.0
com.sun.org.apache.xerces.internal.utils,0.011099918367286516,0.0,0.0014811428570264606,0.0,0.012581061224312975
java.beans,0.04148047800625082,0.0,0.005543642370518334,0.0,0.04702412037676915
java.io,0.4983920665987772,0.0040996506025086175,0.05970058221358192,0.0005246385543099437,0.5627169379691777
java.lang,0.5015820047053896,0.005298444444576042,0.06177173938897831,0.0008440476190622171,0.5694962361580062
java.lang.reflect,0.0,0.0,0.0,0.0,0.0
java.net,0.0,0.0,0.0,0.0,0.0
java.text,0.0,0.0,0.0,0.0,0.0
java.util,0.09741890603077702,0.0,0.006483502877596763,0.0,0.10390240890837378
java.util.concurrent,0.0,0.0,0.0,0.0,0.0
java.util.concurrent.locks,0.05411602089014842,0.0,0.0056377485224913294,0.0,0.059753769412639754
java.util.jar,0.0,0.0,0.0,0.0,0.0
java.util.logging,0.04197893332921941,0.0,0.004920978006069043,0.0,0.04689991133528845
java.util.regex,0.0,0.003667217101337875,0.0,0.0005509684272338906,0.0042181855285717655
java.util.zip,0.8072190919562234,0.0,0.10588872406710202,0.0,0.9131078160233255
javassist.bytecode,0.04262473650279963,0.0,0.0057954995427470105,0.0,0.04842023604554664
javax.management,0.1426802864193231,0.0,0.021371675431350712,0.0,0.1640519618506738
javax.naming,0.037703490899603086,0.0,0.00462418128419206,0.0,0.04232767218379514
org.apache.catalina.core,0.03643660733776275,0.0,0.004690316011806848,0.0,0.0411269233495696
org.apache.catalina.startup,0.0,0.0,0.0,0.0,0.0
org.apache.catalina.util,0.0479582075153735,0.0,0.006417031290300057,0.0,0.054375238805673555
org.apache.commons.httpclient,0.0,0.0,0.0,0.0,0.0
org.apache.commons.logging.impl,0.0,0.0,0.0,0.0,0.0
org.apache.juli.logging,0.0,0.0,0.0,0.0,0.0
org.apache.tomcat.util,0.056905539952020225,0.0,0.006422911886834647,0.0,0.06332845183885487
org.apache.tomcat.util.digester,0.0,0.0,0.0,0.0,0.0
org.apache.tomcat.util.net,0.06943474762456803,0.0,0.007658745114057865,0.0,0.0770934927386259
org.dacapo.harness,0.05352449600206841,0.0,0.0037310189302706257,0.0,0.05725551493233904
org.dacapo.parser,0.16094829225056104,0.0,0.020259046641799377,0.0,0.1812073388923604
org.dacapo.tomcat,0.0,0.02661647850760651,0.0,0.003961987640577477,0.030578466148183988
org.eclipse.jdt.internal.compiler,0.0026227418240314915,0.0,0.0003950450058019461,0.0,0.003017786829833438
org.eclipse.jdt.internal.compiler.classfmt,0.0,0.0,0.0,0.0,0.0
org.eclipse.jdt.internal.compiler.lookup,0.0,0.0,0.0,0.0,0.0
org.eclipse.jdt.internal.compiler.parser,0.002156603227965459,0.0,0.0003735285560009776,0.0,0.0025301317839664366
sun.misc,0.0,0.0,0.0,0.0,0.0
sun.nio.ch,0.1330602829542183,0.009690711898648157,0.018804848253936416,0.0013120101266164814,0.16286785323341932
sun.nio.cs,0.0,0.0,0.0,0.0,0.0
sun.reflect,0.07830717322085673,0.0,0.010608997895108588,0.0,0.08891617111596532
sun.util.calendar,0.0,0.0,0.0,0.0,0.0
sun.util.resources,0.0,0.0,0.0,0.0,0.0
