method,package1,package2,dram1,dram2,energy
com.sun.jmx.mbeanserver,0.054463666666075966,0.0,0.004740000001523488,0.0,0.05920366666759946
com.sun.jna,0.0,0.006110340902394337,0.0,0.0012076056704798054,0.007317946572874143
com.sun.org.apache.xerces.internal.impl,0.08483280000000377,0.0,0.004810500002349728,0.0,0.0896433000023535
com.sun.org.apache.xerces.internal.parsers,0.07000733333431222,0.0,0.005359999997987567,0.0,0.0753673333322998
com.sun.org.apache.xerces.internal.util,0.0,0.0,0.0,0.0,0.0
java.io,0.5616590895274484,0.03469973921896731,0.03520853374404582,0.006246104449606379,0.6378134669400679
java.lang,0.48441367625613896,0.023195703489447904,0.029046329247799544,0.003956305095773956,0.5406120140891604
java.net,0.009241435294097756,0.008713376011297465,0.0005094705883119091,0.0016617293861486482,0.020126011279855777
java.nio,0.0,0.0,0.0,0.0,0.0
java.nio.channels.spi,0.0,0.0041107621216168976,0.0,0.000753200000978968,0.004863962122595865
java.security,0.012807845896531129,0.0,0.0009345495093999248,0.0,0.013742395405931054
java.util,0.15024833333397206,0.0,0.011299999998300336,0.0,0.1615483333322724
java.util.concurrent,0.0,0.0,0.0,0.0,0.0
java.util.jar,0.12664379999938924,0.0,0.008157000000452778,0.0,0.134800799999842
java.util.logging,0.0,0.0,0.0,0.0,0.0
java.util.regex,0.0,0.0,0.0,0.0,0.0
java.util.zip,0.6596899393943728,0.0,0.04248854544756328,0.0,0.7021784848419361
javassist,0.0,0.0,0.0,0.0,0.0
javax.management,0.04762766666802538,0.0,0.00413999999727821,0.0,0.05176766666530359
org.apache.catalina.users,0.0,0.0,0.0,0.0,0.0
org.apache.catalina.util,0.0,0.0,0.0,0.0,0.0
org.apache.commons.httpclient,0.0,0.0,0.0,0.0,0.0
org.apache.coyote.http11,0.03796399999919231,0.0,0.0023649999978564056,0.0,0.04032899999704872
org.apache.jasper.compiler,0.0023209592360792838,0.0,0.00016382306069771035,0.0,0.002484782296776994
org.apache.naming.resources,0.0,0.0,0.0,0.0,0.0
org.apache.tomcat.util,0.14792900000005224,0.0,0.008935000002869248,0.0,0.1568640000029215
org.apache.tomcat.util.buf,0.0,0.0,0.0,0.0,0.0
org.apache.tomcat.util.digester,0.0,0.0,0.0,0.0,0.0
org.apache.tomcat.util.net,0.0,0.0,0.0,0.0,0.0
org.dacapo.parser,0.0,0.0,0.0,0.0,0.0
org.dacapo.tomcat,0.005423086203364815,0.011827844501602692,0.00031276375563394693,0.0023781457498461504,0.019941840210447606
org.eclipse.jdt.internal.compiler,0.010397054545451695,0.0,0.0007082727272063492,0.0,0.011105327272658044
org.eclipse.jdt.internal.compiler.classfmt,0.0,0.0,0.0,0.0,0.0
org.eclipse.jdt.internal.compiler.lookup,0.0,0.0,0.0,0.0,0.0
sun.misc,0.0,0.0,0.0,0.0,0.0
sun.net.www.protocol.jar,0.0,0.0,0.0,0.0,0.0
sun.nio.ch,0.003977204950994755,0.03462182963368696,0.00039158723630980353,0.0058596921237875285,0.04485031394477904
sun.reflect.generics.factory,0.0,0.0,0.0,0.0,0.0
sun.reflect.generics.repository,0.0009857928992489998,0.0,8.749246913285891e-05,0.0,0.0010732853683818586
sun.security.provider,0.012807845896531129,0.0,0.0009345495093999248,0.0,0.013742395405931054
sun.security.util,0.0,0.0,0.0,0.0,0.0
sun.util.calendar,0.0,0.0,0.0,0.0,0.0
