method,package1,package2,dram1,dram2,energy
AbstractDOMParser.startDocument,0.0,0.07729854166124518,0.0,0.01364062500063786,0.09093916666188304
AbstractMapDecorator.get,0.0506197063466211,0.0015987220200185212,0.00640353168030549,0.000307731160350018,0.058929691207295125
AccessorGenerator.emitBoxingContantPoolEntries,0.0,0.04835999999583388,0.0,0.0054250000005898365,0.05378499999642372
AccessorGenerator.typeSizeInStackSlots,0.0,0.031873777780371405,0.0,0.002493333333404735,0.03436711111377614
AttributeInfo.<init>,0.0,0.35999766666791405,0.0,0.06780700000187305,0.4278046666697871
BenchmarkState.getState,0.378495498850482,0.022484639297470903,0.05161292113275625,0.003317128237230697,0.4559101875179398
Buffer.clear,0.0,0.0,0.0,0.0,0.0
Buffer.ensureCapacity,0.09370596396179115,0.007032266553908041,0.010156115920900323,0.001169647083547845,0.11206399352014736
Buffer.fastSkipLenString,0.03685882070230483,0.014292872481576365,0.0052690108797401325,0.002449901312054945,0.058870605375676274
Buffer.getByteBuffer,0.003049030243737144,0.0034389317553398407,0.00041821710673281765,0.0009199371133213199,0.007826116219131122
Buffer.readByte,0.0020436153846257205,0.0,0.00025552447558212964,0.0,0.0022991398602078502
Buffer.readFieldLength,0.05196646936593109,0.025308596997467438,0.005791705979751844,0.00422535551401155,0.08729212785716194
Buffer.readInt,0.0,0.0,0.0,0.0,0.0
Buffer.readLong,0.012968160684094216,0.0,0.0012471061219863516,0.0,0.014215266806080568
Buffer.readLongInt,0.024090901417187102,0.0,0.0028880902574518552,0.0,0.026978991674638957
Buffer.setBufLength,0.01021404601732907,0.0,0.000927565519359862,0.0,0.011141611536688932
Buffer.writeByte,0.03400314256629778,0.0,0.003360202879925858,0.0,0.03736334544622364
Buffer.writeBytesNoNull,0.003820569280818686,0.004335051282303026,0.0005059266566484402,0.0007430769231480856,0.009404624142918238
Buffer.writeLongInt,0.0,0.0,0.0,0.0,0.0
BundleHandler.getBundle,0.0,0.0559283333326069,0.0,0.0033499999990453944,0.05927833333165229
ByteArrayAccess.b2iBig64,0.0,0.04835999999583388,0.0,0.0054250000005898365,0.05378499999642372
ByteArrayRow.isFloatingPointNumber,0.0,0.061381000006804236,0.0,0.005495000002459467,0.0668760000092637
CalendarProviderImpl.getInstance,0.01128408799601258,0.008541999663128033,0.0013329443133951425,0.001498013045554439,0.022657045018090193
Catalog.getOriginalTableNames,0.0,0.07450366666307673,0.0,0.01051499999933488,0.0850186666624116
Category.getEffectiveLevel,0.005368870920557186,0.0,0.000830525011170974,0.0,0.00619939593172816
Category.isDebugEnabled,0.008987837427527092,0.0,0.000947194095302478,0.0,0.00993503152282957
Chaperone.main,0.0,0.06886800000211224,0.0,0.01133999999971517,0.08020800000182741
ClassFile.read,0.0,0.049417999999908105,0.0,0.007275000001148631,0.05669300000105674
ClassPool.makeClass,0.0,0.039114076175375406,0.0,0.006105072326657224,0.04521914850203263
Collation.<init>,0.0,0.03717033333183887,0.0,0.0040349999981117435,0.04120533332995061
ConnectionImpl.clientPrepareStatement,0.0,0.0,0.0,0.0,0.0
ConnectionImpl.commit,0.0,0.0017039909093661911,0.0,0.0003380454544888132,0.0020420363638550044
ConnectionImpl.coreConnect,0.0,0.09796166666395342,0.0,0.007380000000315097,0.10534166666426852
ConnectionImpl.createStatement,0.0,0.04671233332677123,0.0,0.002660000000711685,0.04937233332748291
ConnectionImpl.execSQL,0.02697809437832884,0.006940816731236144,0.0027519182050825715,0.0012674000153806984,0.03793822933002826
ConnectionImpl.getCatalog,0.021612073942020013,0.0,0.0029102080329003713,0.0,0.024522281974920384
ConnectionImpl.getCharsetConverter,0.023825422288251442,-0.0034860020371522563,0.003039449577550689,-0.0007074339356696083,0.022671435892980266
ConnectionImpl.getCharsetNameForIndex,0.11538137742253754,0.0,0.012987224937616471,0.0,0.12836860236015402
ConnectionImpl.getMetaData,0.0,0.14980033333995377,0.0,0.00923500000014125,0.159035333340095
ConnectionImpl.getServerCharacterEncoding,0.18522115584248622,0.031061218101152303,0.020370219624083478,0.004863916800379641,0.24151651036810165
ConnectionImpl.nativeSQL,0.0,0.0,0.0,0.0,0.0
ConnectionPropertiesImpl$BooleanConnectionProperty.getValueAsBoolean,0.25277615129475867,0.050149420277062144,0.027934662126943004,0.0041771172002184505,0.3350373508989823
ConnectionPropertiesImpl.<init>,0.0,0.1353353333349029,0.0,0.010720000000825772,0.14605533333572868
ConnectionPropertiesImpl.getCacheResultSetMetadata,0.0,0.0,0.0,0.0,0.0
ConnectionPropertiesImpl.getEnablePacketDebug,0.0,0.0,0.0,0.0,0.0
ConnectionPropertiesImpl.getGatherPerformanceMetrics,0.0,0.0,0.0,0.0,0.0
ConnectionPropertiesImpl.getMaintainTimeStats,0.01008888568013324,0.00353297520638636,0.001285478157245632,0.0005444628099934006,0.015451801853758634
ConstPool.readOne,0.07009971329236186,0.0,0.010604625634919871,0.0,0.08070433892728174
CounterGenerator.nextInt,0.0,0.00215922077919671,0.0,0.00037558441554565083,0.002534805194742361
DBWorkload.main,0.0,0.04932127225100956,0.0,0.008072893580350201,0.05739416583135976
DOMParser.<init>,0.0,0.045576472145374136,0.0,0.0021488766068461047,0.04772534875222024
DOMParser.parse,0.0,0.03317500000169578,0.0,0.005506249998082542,0.038681249999778324
DTDDVFactoryImpl.<clinit>,0.0,0.008341666665122222,0.0,0.0017250000003817454,0.010066666665503968
DateFormatSymbolsProviderImpl.getInstance,0.0028631617114737297,0.0,0.0003815754767843061,0.0,0.0032447371882580356
DefaultConfigurationNode.createSubNodes,0.0,0.039114076175375406,0.0,0.006105072326657224,0.04521914850203263
DigestBase.engineReset,0.0,0.05091849999735132,0.0,0.00428250000004482,0.05520099999739614
DistributionStatistics.computeStatistics,0.0,1.7418261831336301,0.0,0.2766428730968798,2.01846905623051
DocumentBuilderFactory.newInstance,0.0,0.05396787205499382,0.0,0.009765778753498213,0.06373365080849204
ElementImpl.getAttributes,0.0,0.03186033332409958,0.0,0.005019999996875414,0.03688033332097499
Field.<init>,0.006225790043344249,0.00716424790136113,0.0008620443435925575,0.0010018230976870787,0.015253905385985016
Field.checkForImplicitTemporaryTable,0.021729336992251897,0.0014677788461155545,0.0026447374024668228,0.00018173076918733734,0.02602358401002161
Field.determineNeedsQuoting,0.0,0.007063111110862034,0.0,0.0011433333331499144,0.008206444444011949
Field.getSQLType,0.0,0.0,0.0,0.0,0.0
Field.isNativeNumericType,0.01683661883370954,0.0,0.0024216703845705853,0.0,0.019258289218280124
Field.isUnsigned,0.0,0.0014004615384312655,0.0,0.0002706593406581125,0.001671120879089378
FloatingDecimal$BinaryToASCIIBuffer.dtoa,0.2560959968785791,3.786348561409537,0.041131237619314226,0.7585250385642206,4.842100834471651
FloatingDecimal$BinaryToASCIIBuffer.getDigits,0.11682798332513082,0.0,0.01775083969619003,0.0,0.13457882302132085
FloatingDecimal$BinaryToASCIIBuffer.roundup,0.05066286322848478,0.0387207999980698,0.008088145055091409,0.0057439999984732525,0.10321580828011924
FloatingDecimal.getBinaryToASCIIBuffer,0.05552484490096213,0.044799666667434686,0.008818914081529532,0.005660000002535526,0.11480342565246186
FormattedFloatingDecimal.applyPrecision,0.0,0.03977433333056979,0.0,0.005039999998795489,0.044814333329365276
FormattedFloatingDecimal.getMantissa,0.0,0.040201666658200935,0.0,0.004139999999703528,0.04434166665790446
GeneratedConstructorAccessor1.newInstance,0.031194513143204757,0.008481483812571553,0.0037512496763782354,0.0010672464013574193,0.04449449303351197
GeneratedConstructorAccessor2.newInstance,0.04074103016124356,0.004382418618432121,0.005657429904957088,0.0007758435854987262,0.05155672227013149
Histogram._put,0.03457263954422074,0.0,0.004625219964770775,0.0,0.03919785950899152
Histogram.put,0.0,0.0037855333331713657,0.0,0.00055066666666082,0.004336199999832186
InsertTweet.run,0.002366552336601173,0.0,0.0002614158775336641,0.0,0.002627968214134837
JDBC4ResultSet.<init>,0.027505255464242623,0.0,0.0035166351967752833,0.0,0.031021890661017907
JDBCConnection.createStatement,0.0,0.07450366666307673,0.0,0.01051499999933488,0.0850186666624116
JDBCConnection.getMetaData,0.0,0.040018666671433785,0.0,0.005805000000691507,0.04582366667212529
JDBCStatementBase.performPostExecute,0.0,0.11952733333843449,0.0,0.014660000000731086,0.13418733333916558
JarFileFactory.get,0.0,0.10900899999736188,0.0,0.009734999999636784,0.11874399999699867
LatencyRecord.addLatency,0.015784046542888376,0.0009486651584312188,0.0024517747192263697,9.447963799274109e-05,0.019278966058538703
Launcher$AppClassLoader.loadClass,0.25680155525670817,0.5525189253140257,0.037663971171401314,0.07268600884891946,0.9196704605910546
LocaleProviderAdapter.getAdapter,0.0,0.0,0.0,0.0,0.0
LocationInfo.<init>,0.0,0.16017666666690883,0.0,0.024744999997589424,0.18492166666449825
LogFactory.createFactory,0.0,0.015416003652661037,0.0,0.0025380174207353845,0.01795402107339642
Logger.newStore,0.0,0.06581633333310795,0.0,0.00855999999960962,0.07437633333271756
MemberrefInfo.<init>,0.0,0.06819666666948856,0.0,0.006104999997963508,0.07430166666745207
Messages.getString,0.16587011820884232,0.018298937887649663,0.020458300714534906,0.0012981374096468121,0.20592549422067372
MysqlDefs.mysqlToJavaType,0.03082825748633449,0.0050664739007521475,0.003303260909481006,0.0005936426579006908,0.03979163495446834
MysqlIO.<init>,0.0,0.04732266666057209,0.0,0.0039349999982126365,0.05125766665878473
MysqlIO.buildResultSetWithRows,0.0,0.03173800000028374,0.0,0.004210000001573159,0.0359480000018569
MysqlIO.buildResultSetWithUpdates,0.019703025883044,0.005969339206296696,0.002428612010425247,0.0009758719220695741,0.029076849021835518
MysqlIO.checkTransactionState,0.027009488592184994,0.004337813448050534,0.0030736755298740176,0.0006168105022885265,0.035037788072398074
MysqlIO.clearInputStream,0.0,0.0,0.0,0.0,0.0
MysqlIO.getResultSet,0.07297468387608405,0.012763871125081955,0.008365309947230604,0.0019266781319385161,0.09603054308033512
MysqlIO.nextRow,0.008990193850509766,0.0,0.0011533659077304502,0.0,0.010143559758240215
MysqlIO.nextRowFast,0.4094106685122152,0.1329048915783692,0.04733206586319541,0.014706520073468472,0.6043541460272484
MysqlIO.readFully,0.023449139711725422,0.00784103774381857,0.0035844370624883567,0.0010135301663612116,0.035888144684393566
MysqlIO.readPacket,0.0982255547018023,0.002133522222478253,0.011928914923790605,0.00024733333322930984,0.11253532518130048
MysqlIO.readResultsForQueryOrUpdate,0.002034801218253299,0.006242731196971079,0.00025960937926711977,0.0010851531349007207,0.00962229492939222
MysqlIO.readSingleRowSet,0.0649589130863224,0.02677283328478338,0.008588622848905294,0.0042086021123655965,0.10452897133237668
MysqlIO.reuseAndReadPacket,0.040384316670383585,0.02122557957462825,0.004494822240465848,0.0032557538898731813,0.06936047237535085
MysqlIO.send,5.309340013952203,0.7992702938463115,0.6266003185256652,0.10293640949355198,6.838147035817731
MysqlIO.sendCommand,0.015687721396045462,0.024074617798521068,0.0016044340034272798,0.0032789512604334647,0.04464572445842727
MysqlIO.setServerSlowQueryFlags,0.011714110130011788,0.0,0.0013306177993960707,0.0,0.013044727929407859
MysqlIO.sqlQueryDirect,0.008046256097948921,0.0030459748403238833,0.0010440759289901329,0.00035630806553164516,0.012492614932794584
MysqlIO.unpackField,0.12572149495672036,0.0052305571427038195,0.01433578597368727,0.0004061292517452993,0.14569396732485673
MysqlIO.useBufferRowExplicit,0.0,0.0,0.0,0.0,0.0
MysqlIO.versionMeetsMinimum,0.0,0.0,0.0,0.0,0.0
NativeConstructorAccessorImpl.newInstance,0.0,0.049255333336380616,0.0,0.004040000002229741,0.053295333338610355
NonRegisteringDriver.connect,0.0,0.06118774999777088,0.0,0.008819999999104768,0.07000774999687565
ParallelListResourceBundle.keySet,0.0,0.054613866589960564,0.0,0.00591135397327395,0.06052522056323451
Parser.<clinit>,0.054270478069088135,0.0,0.007955207648884874,0.0,0.06222568571797301
Parser.parsePostfix,0.0,0.04671233332677123,0.0,0.002660000000711685,0.04937233332748291
ParserDQL$CompileContext.getSchemaObjectNames,0.0,0.057271388884853676,0.0,0.007849999999760056,0.06512138888461373
Phase.chooseTransaction,0.0,0.0,0.0,0.0,0.0
Phase.isLatencyRun,0.0,0.0024583703704626745,0.0,0.00021916666662070413,0.0026775370370833787
Phase.totalWeight,0.0,0.0,0.0,0.0,0.0
PreparedStatement.checkAllParametersSet,0.0,0.0017350961535647425,0.0,0.00021980769231679287,0.0019549038458815354
PreparedStatement.checkBounds,0.013124421341757272,0.002656690909961154,0.0020722682364418036,0.00037145454539726913,0.0182248350335575
PreparedStatement.execute,0.0,0.0,0.0,0.0,0.0
PreparedStatement.executeInternal,0.07867534052038441,0.0026305641450014156,0.011469722757877748,0.00020745428435088532,0.09298308170761446
PreparedStatement.executeQuery,0.08488353583477637,0.010977398037163182,0.008662187176022768,0.001448788006914273,0.10597190905487659
PreparedStatement.fillSendPacket,0.0492014681525835,0.009196437230151587,0.006239137250754172,0.0013022186147250404,0.0659392612482143
PreparedStatement.setDate,0.057035926196817216,0.012496962993081003,0.006767423474037821,0.001567396252966192,0.07786770891690223
PreparedStatement.setInternal,0.13485934472548572,0.005665148757220913,0.016671534036831824,0.0005773535592351679,0.15777338107877362
PreparedStatement.setLong,0.08248384273886455,0.006843260100855467,0.009032361061008453,0.0010244042206345033,0.09938386812136298
PreparedStatement.setString,0.03268690256290432,0.002172988636382136,0.003580117678030458,0.00030767045452442045,0.03874767933184133
PropertySetter.introspect,0.0,0.0,0.0,0.0,0.0
RandomDistribution$FlatHistogram.nextValue,0.033583577325821276,0.0,0.0039707703356413205,0.0,0.037554347661462595
ReadAheadInputStream.available,1.1429507424672463,0.1454381453826309,0.12974172940652115,0.02017201965930023,1.4383026369156984
ReadAheadInputStream.checkClosed,0.02647396421572759,0.0020278968493293898,0.003526435616306503,0.00019930249092249598,0.03222759917228598
ReadAheadInputStream.fill,7.653486908472949,1.346980181769508,0.9078754553114899,0.18020254332396765,10.088545088877916
ReadAheadInputStream.read,0.8091079959981642,0.13353716604362206,0.09958468507146914,0.018484009409151545,1.060713856522407
ReadAheadInputStream.readFromUnderlyingStreamIfNecessary,0.06741364883734095,0.017253746632833543,0.007907823432331804,0.0020186694283528834,0.09459388833085917
Reflection.quickCheckMemberAccess,0.0,0.0,0.0,0.0,0.0
Resource.getByteBuffer,0.057433704610096836,0.0,0.007024781689445546,0.0,0.06445848629954239
Resource.getBytes,0.06446378735026402,0.043136499996762716,0.007770305356684388,0.0049312499995721746,0.12030184270328328
ResultSetImpl.<clinit>,0.0,0.04821800000111882,0.0,0.0014749999997244836,0.0496930000008433
ResultSetImpl.<init>,0.0663192939394612,0.0087476473984696,0.0076338737794508175,0.0008486438063795807,0.08354945892376121
ResultSetImpl.checkColumnBounds,0.0,0.0,0.0,0.0,0.0
ResultSetImpl.getInstance,0.01689273371211696,0.001966700757706845,0.0021986881920507432,0.0003013676948060717,0.021359490356680617
ResultSetImpl.initializeWithMetadata,0.0031850761842117234,0.001739052631897834,0.000408990203011294,0.00028679425833450466,0.005619913277455356
ResultSetImpl.realClose,0.03772330720652373,0.0023681538461600075,0.005118213273706143,0.00033646153841310965,0.045546135864802995
ResultSetImpl.setDefaultTimeZone,0.0,0.0,0.0,0.0,0.0
ResultSetImpl.setResultSetConcurrency,0.031740305792791856,0.004266205128097238,0.004039918931084233,0.0005280769231224742,0.0405745067750958
ResultSetImpl.setResultSetType,0.06355095261617053,0.0020131174254761916,0.00708096793986894,0.0002878778135893273,0.07293291579510498
ResultSetRow.<init>,0.0,0.0009981016041698523,0.0,0.00015449197865607974,0.001152593582825932
Results.writeAllCSVAbsoluteTiming,0.8588233895797706,4.706330804982472,0.13585063673670675,0.6320024325614078,6.333007263860357
Results.writeCSV,0.0,0.04675266666648288,0.0,0.005429999999857197,0.052182666666340076
RowStoreAVLMemory.getNewCachedObject,0.0,0.0938891111177832,0.0,0.014130000000780758,0.10801911111856395
SQLError.createSQLException,1.813814101197121,0.3021430402341941,0.22060951545262475,0.04327512412199618,2.379841781005936
SQLStmt.setSQL,0.0,0.03786233333327497,0.0,0.004039999999804422,0.04190233333307939
SimpleCharStream.backup,0.0,0.0441690000006929,0.0,0.006114999998923546,0.05028399999961644
SimplePathInterpreter.createNullPointer,0.018558756078503515,0.0,0.0022762922893225426,0.0,0.020835048367826056
SingleByteCharsetConverter.<clinit>,0.0,0.6122031666745897,0.0,0.019320000004275546,0.6315231666788653
StandardSocketFactory.connect,0.0,0.09464500000467524,0.0,0.003765000001294538,0.09841000000596978
StatementImpl.checkClosed,0.0,0.0008400017916024272,0.0,8.043418079259544e-05,0.0009204359723950226
StatementImpl.clearWarnings,0.0,0.0014991153846494855,0.0,0.0002401153845802093,0.0017392307692296947
StatementImpl.closeAllOpenResults,0.012695980744571058,0.0,0.0010298088713922263,0.0,0.013725789615963284
StatementImpl.createStreamingResultSet,0.00648282768833545,0.0,0.000538223262179466,0.0,0.007021050950514916
StatementImpl.removeOpenResultSet,0.07374425336838485,0.013200799317110108,0.00801670113217766,0.0020731240877584142,0.09703487790543103
StatementImpl.resetCancelledState,0.05591795584355541,0.0005467015250684719,0.006151501091934609,4.8017429196179056e-05,0.06266417588975466
StatementImpl.statementBegins,0.0192808945886476,0.0,0.0014872674060061016,0.0,0.0207681619946537
StrSubstitutor.replace,0.07170059774758011,0.0,0.01032638262648568,0.0,0.08202698037406579
StrSubstitutor.substitute,0.0,0.0441690000006929,0.0,0.006114999998923546,0.05028399999961644
StreamEncoder.flushBuffer,0.0,0.0974630000006679,0.0,0.01299250000010943,0.11045550000077733
StreamEncoder.implWrite,0.0,0.18906616666936316,0.0,0.024002499998459825,0.21306866666782298
StreamEncoder.write,0.043962987824853,0.1046223999893603,0.006627626818331579,0.01387000000201321,0.1690830146345581
StreamEncoder.writeBytes,3.0940317159495985,13.628149864244797,0.4745442342117857,1.7873912737935145,18.984117088199692
StringUtil.<clinit>,0.0,0.054613866589960564,0.0,0.00591135397327395,0.06052522056323451
StringUtil.formatMaps,0.0,0.09191899999859744,0.0,0.013729999998759013,0.10564899999735645
StringUtil.join,0.14086999276668133,0.7313859944509911,0.02117028433771391,0.09256366666611737,0.9859899382215037
StringUtils.getBytes,0.1114411757601301,0.006114993215957966,0.013069733858911152,0.0004695851180888057,0.13109548795308804
StringUtils.getBytesWrapped,0.0,0.0,0.0,0.0,0.0
StringUtils.getLong,0.0,0.0030261538462824076,0.0,0.0005765034964917084,0.003602657342774116
StringUtils.toString,0.0,0.04203288888998536,0.0,0.00558666666620411,0.04761955555618947
SubmittedProcedure.<init>,0.0,0.0,0.0,0.0,0.0
SubmittedProcedure.getStartTime,0.0,0.0,0.0,0.0,0.0
ThreadBench$TimeBucketIterator.calculateNext,0.0,0.29883860000118145,0.0,0.048614000001543894,0.3474526000027254
ThreadBench.runRateLimitedMultiPhase,0.03084785546318282,0.27931335690372683,0.005560950519563891,0.058192990196821774,0.3739151530832953
Tokenizer.parseTokens,0.0,0.2860919999948237,0.0,0.043525000000954606,0.3296169999957783
Tokens.<clinit>,0.0,0.2571006666694302,0.0,0.03483999999783312,0.2919406666672633
TraceTransactionGenerator.nextTransaction,0.06586079028476521,0.016274244862224518,0.008540188536525488,0.0021733521119201536,0.09284857579543537
TransactionSelector.readAll,0.0,15.255576720249135,0.0,1.688507737887145,16.94408445813628
TransactionSelector.readNextTransaction,0.0,6.141926048836412,0.0,0.7307462696340826,6.872672318470495
TransactionType.getName,0.19703821293096474,0.4421247777742489,0.032135967626797365,0.06551666666928213,0.7368156250012932
TransactionType.getProcedureClass,0.0,0.002139945510452093,0.0,0.00035629506953652,0.002496240579988613
TwitterWorker.doSelectTweetsForUid,0.003538034762897272,0.0,0.000417301549984859,0.0,0.003955336312882131
TwitterWorker.executeWork,0.06743652150943714,0.013351432464178775,0.00886646041179684,0.0019565473351160823,0.09161096172052884
URLClassPath$FileLoader.getResource,0.0,0.04892999999962437,0.0,0.004854999999224674,0.053784999998849045
UTF_8$Encoder.encode,0.03378531489751529,0.0017334000003756955,0.0034394450296047286,0.00028585714296371274,0.03924401707045942
UTF_8$Encoder.encodeArrayLoop,0.1044905596300731,0.19425500000943427,0.01688266843840734,0.02769499999946371,0.3433232280773785
UTF_8.updatePositions,0.0,0.04066449999663746,0.0,0.005820000000312575,0.046484499996950035
UserTypeModifier.<init>,0.07095762381194094,0.0,0.010770420395405631,0.0,0.08172804420734657
Utf8Info.<init>,0.061788403988312576,0.05295450408004539,0.0077905722228316845,0.002595369308013107,0.12512884959920276
Util.handleNewInstance,0.02689366157697358,0.0007318030302577434,0.003236157160484588,8.310606059203196e-05,0.03094472782830794
Worker.doWork,0.08156711962593419,0.012760380534264544,0.01018158016782531,0.0013849220145383404,0.10589400234256237
Worker.getProcedure,0.0435696140112006,0.008102226296503038,0.00541809743907542,0.0012984864693227408,0.0583884242161018
Worker.rng,0.0,0.0,0.0,0.0,0.0
Worker.run,0.1761392510471063,0.03452293483870982,0.02068212782530085,0.0031233138639643002,0.23446762757508127
WorkloadState.addToQueue,0.3026670576012239,0.0,0.03278126423673447,0.0,0.33544832183795836
WorkloadState.fetchWork,0.056032828875044946,0.011922126422348946,0.006882854941143846,0.0013991012086053906,0.07623691144714315
WorkloadState.finishedWork,0.03551145808100269,0.0017474679803370216,0.004902874334989912,0.00018502463052723684,0.04234682502685686
WorkloadState.getCurrentPhase,0.2282384137714264,0.005491919921446851,0.03160770003097855,0.0008021067039751882,0.26614014042782697
WorkloadState.getGlobalState,0.027212757001861033,-0.011267577487225547,0.003314362855481964,-0.0027314393936561216,0.016528102976461328
WorkloadState.stayAwake,0.02335453603972454,0.0,0.0031653532925394927,0.0,0.02651988933226403
WorkloadState.switchToNextPhase,0.0,0.0,0.0,0.0,0.0
XML11Configuration.<init>,0.0,0.055051407482564485,0.0,0.00487891936948425,0.059930326852048736
XMLEntityManager.<clinit>,0.0,0.02155712431475477,0.0,0.0032687431677282885,0.02482586748248306
ZoneInfo.clone,0.028338793850264755,0.0020228791207965503,0.0034416812409576126,0.00015510989008931913,0.03395846410210824
ZoneInfo.getOffsets,0.0,0.0,0.0,0.0,0.0
