method,package1,package2,dram1,dram2,energy
AbstractMapDecorator.get|ListOrderedMap$ListOrderedMapEntry.getValue|ListOrderedMap$ValuesView$1.next,0.05895555554889144,0.0,0.007324444442659755,0.0,0.0662799999915512
AbstractMapDecorator.get|ListOrderedMap.getValue|TransactionTypes.getType,0.0,0.0,0.0,0.0,0.0
AttributeInfo.<init>|ExceptionsAttribute.<init>|AttributeInfo.read,0.0,0.052521731081795656,0.0,0.008631194704203204,0.06115292578599886
AttributeInfo.<init>|LineNumberAttribute.<init>|AttributeInfo.read,0.0,0.05953285278439348,0.0,0.010779064760631736,0.07031191754502522
AttributeInfo.read|CodeAttribute.<init>|AttributeInfo.read,0.0,0.06290699999469021,0.0,0.008215000001655426,0.07112199999634564
AttributeInfo.read|MethodInfo.read|MethodInfo.<init>,0.0,0.14764377776817933,0.0,0.022104444448443783,0.1697482222166231
BaseCalendar.getFixedDate|BaseCalendar.getCalendarDateFromFixedDate|GregorianCalendar.computeFields,0.0,0.0,0.0,0.0,0.0
BaseConfiguration.<init>|AbstractFileConfiguration.<init>|AbstractHierarchicalFileConfiguration$FileConfigurationDelegate.<init>,0.0,0.0610429166748266,0.0,0.010220000000723907,0.07126291667555051
BenchmarkState.getState|ThreadBench.runRateLimitedMultiPhase|ThreadBench.runRateLimitedBenchmark,0.13896225721126762,0.0,0.023364970837471674,0.0,0.16232722804873928
BenchmarkState.getState|WorkloadState.getGlobalState|Worker.run,0.14767688545189886,0.018094487794201933,0.018637890727654694,0.0020649490077185636,0.18647421298147407
Buffer.clear|MysqlIO.sqlQueryDirect|ConnectionImpl.execSQL,0.010120416573602572,0.004213168399312872,0.0014272198843777973,0.0004988884602698653,0.016259693317563106
Buffer.clear|PreparedStatement.fillSendPacket|PreparedStatement.fillSendPacket,0.0,0.00217556666660433,0.0,0.0003653333333204501,0.0025408999999247802
Buffer.ensureCapacity|Buffer.writeBytesNoNull|PreparedStatement.fillSendPacket,0.042322299440983285,0.0,0.005036993289612466,0.0,0.04735929273059575
Buffer.ensureCapacity|Buffer.writeByte|MysqlIO.sqlQueryDirect,0.026829318126517156,0.0013465097501930302,0.0033600407108683866,-1.6958995553481744e-05,0.031518909592025086
Buffer.ensureCapacity|Buffer.writeStringNoNull|MysqlIO.sqlQueryDirect,0.02050247097573523,0.0007067272728130793,0.0023017945338087986,7.880382776220272e-05,0.02358979661011931
Buffer.fastSkipLenString|MysqlIO.unpackField|MysqlIO.getResultSet,0.015414125739124965,0.0,0.0019232751427235245,0.0,0.01733740088184849
Buffer.getByteBuffer|MysqlIO.reuseAndReadPacket|MysqlIO.reuseAndReadPacket,0.0,0.003530724664587301,0.0,0.0005084615383740762,0.004039186202961377
Buffer.newReadLength|MysqlIO.buildResultSetWithUpdates|MysqlIO.readResultsForQueryOrUpdate,0.004998821985977541,0.0026205454544049336,0.0011416523726661026,0.0003923376623953862,0.009153357475443963
Buffer.readByte|MysqlIO.buildResultSetWithUpdates|MysqlIO.readResultsForQueryOrUpdate,0.0044811887394660115,0.0,0.0009209668743866336,0.0,0.005402155613852645
Buffer.readByte|MysqlIO.unpackField|MysqlIO.getResultSet,0.015908991942684154,0.0033505314686726392,0.0020292866000619124,0.00043132867152441184,0.021720138682943115
Buffer.readFieldLength|Buffer.fastSkipLenString|MysqlIO.unpackField,0.009163054017583628,0.008981342782934953,0.000926096531936972,0.0010691252496768321,0.020139618582132385
Buffer.readFieldLength|MysqlIO.readResultsForQueryOrUpdate|MysqlIO.readAllResults,0.0,0.0036803157897992867,0.0,0.0005547368418774569,0.0042350526316767435
Buffer.readInt|MysqlIO.readServerStatusForResultSets|MysqlIO.getResultSet,0.0,0.000584253501133478,0.0,5.156650572642849e-05,0.0006358200068599065
Buffer.setPosition|MysqlIO.reuseAndReadPacket|MysqlIO.reuseAndReadPacket,0.0,0.0,0.0,0.0,0.0
Buffer.setWasMultiPacket|MysqlIO.reuseAndReadPacket|MysqlIO.reuseAndReadPacket,0.0,0.0049379807695424036,0.0,0.0006311538460207746,0.0055691346155631784
Buffer.writeBytesNoNull|PreparedStatement.fillSendPacket|PreparedStatement.fillSendPacket,0.015054244285956827,0.0,0.001372654103516075,0.0,0.0164268983894729
Buffer.writeByte|MysqlIO.sqlQueryDirect|ConnectionImpl.execSQL,0.00938697443935426,0.0,0.0010408826838172532,0.0,0.010427857123171513
Buffer.writeStringNoNull|MysqlIO.sqlQueryDirect|ConnectionImpl.execSQL,0.00383758627642904,0.013836969697105376,0.0005546336673978598,0.0017045454544793097,0.019933735095411582
BundleHandler.getBundle|BundleHandler.getBundleHandle|DITableInfo.setupBundles,0.0,0.07838933332823217,0.0,0.012374999998428391,0.09076433332666056
BundleHandler.getString|DITableInfo.getColRemarks|DatabaseInformationMain.SYSTEM_COLUMNS,0.0,0.04634600000119664,0.0,0.006633333333108263,0.0529793333343049
ByteArrayRow.<init>|MysqlIO.nextRowFast|MysqlIO.nextRow,0.0009734116024713373,0.0,8.608553573042385e-05,0.0,0.0010594971382017612
CalendarProviderImpl.getInstance|Calendar.createCalendar|Calendar.getInstance,0.0,0.0,0.0,0.0,0.0
Catalog.getOriginalTableNames|Catalog.<init>|BenchmarkModule.<init>,0.0,0.04337566667042362,0.0,0.0068799999983942435,0.05025566666881787
ClassFile.read|ClassFile.<init>|CtClassType.getClassFile3,0.0,0.15474474073939576,0.0,0.02443555555833478,0.17918029629773052
ClassPool.makeClass|ClassPool.makeClass|ThreadCoreMapInjector.transform,0.0,0.07960999999583387,0.0,0.012340000001131557,0.09194999999696543
CodeAttribute.<init>|AttributeInfo.read|MethodInfo.read,0.0,0.12333166666212493,0.0,0.01787999999942258,0.1412116666615475
ConnectionImpl.clientPrepareStatement|ConnectionImpl.prepareStatement|ConnectionImpl.prepareStatement,0.0,0.044112568048354284,0.0,0.008565603194149889,0.05267817124250417
ConnectionImpl.commit|TwitterWorker.executeWork|Worker.doWork,0.005667843628705857,0.0032549127438686693,0.0007432873557694514,0.0004738490420835722,0.010139892770427551
ConnectionImpl.coreConnect|ConnectionImpl.connectOneTryOnly|ConnectionImpl.createNewIO,0.0,0.03598797793917356,0.0,0.00636432352713834,0.0423523014663119
ConnectionImpl.createStatement|ConnectionImpl.createStatement|ConnectionImpl.getMetadataSafeStatement,0.0,0.1153514260188102,0.0,0.014479870468927009,0.1298312964877372
ConnectionImpl.execSQL|ConnectionImpl.commit|TwitterWorker.executeWork,0.04405991043545171,0.00577939797577579,0.005366285238565529,0.0007383443408265886,0.05594393799061962
ConnectionImpl.execSQL|PreparedStatement.executeInternal|PreparedStatement.executeQuery,0.03802320078563164,0.0027357388656349714,0.004128798677099448,0.00040290190928644936,0.045290640237652516
ConnectionImpl.getCatalog|PreparedStatement.executeQuery|GetFollowers.run,0.000891314049586673,0.0,0.00010782024793484158,0.0,0.0009991342975215146
ConnectionImpl.getCatalog|PreparedStatement.executeQuery|GetUserTweets.run,0.02718988424739764,0.002985966265448494,0.0036132783732577872,0.00037080019337191295,0.034159929079475834
ConnectionImpl.getCharsetConverter|StringUtils.getBytes|Buffer.writeStringNoNull,0.020309378215999496,0.004216411363780604,0.0021584355833035064,0.0004071818180157359,0.02709140698109934
ConnectionImpl.getCharsetNameForIndex|Field.<init>|MysqlIO.unpackField,0.10226946503824097,0.007203859690499096,0.013676859997876219,0.0009917731771007254,0.12414195790371702
ConnectionImpl.getId|ResultSetImpl.<init>|JDBC4ResultSet.<init>,0.002045246225254109,0.0,0.00023168364284324405,0.0,0.002276929868097353
ConnectionImpl.getServerCharacterEncoding|MysqlIO.sqlQueryDirect|ConnectionImpl.execSQL,0.007883398671328277,0.028375620446092074,0.0009644717455602897,0.003995001141232149,0.04121849200421279
ConnectionImpl.getServerCharacterEncoding|PreparedStatement.setInternal|PreparedStatement.setLong,0.05163321971066392,0.0030198307694473234,0.006313669327489281,0.0005199230769693924,0.06148664288456992
ConnectionImpl.transactionBegun|MysqlIO.checkTransactionState|MysqlIO.readServerStatusForResultSets,0.018916861855137003,0.002173372558339906,0.0020307152370953514,0.00031988144546275967,0.02344083109603502
ConnectionImpl.useMaxRows|PreparedStatement.executeQuery|GetUserTweets.run,0.027395249746618673,0.0,0.002975228074542857,0.0,0.03037047782116153
ConnectionPropertiesImpl$BooleanConnectionProperty.getValueAsBoolean|ConnectionPropertiesImpl.getEnablePacketDebug|MysqlIO.sendCommand,0.002243941176307051,0.0,0.00027126050419702403,0.0,0.0025152016805040753
ConnectionPropertiesImpl$BooleanConnectionProperty.getValueAsBoolean|ConnectionPropertiesImpl.getEnableQueryTimeouts|PreparedStatement.executeInternal,0.02031491339769297,0.0030477121428256386,0.0023267269111642225,0.0005023024210971339,0.02619165487277996
ConnectionPropertiesImpl$BooleanConnectionProperty.getValueAsBoolean|ConnectionPropertiesImpl.getGatherPerformanceMetrics|ConnectionImpl.execSQL,0.005940424214000799,0.0,0.0007118386640372938,0.0,0.0066522628780380936
ConnectionPropertiesImpl$BooleanConnectionProperty.getValueAsBoolean|ConnectionPropertiesImpl.getHoldResultsOpenOverStatementClose|PreparedStatement.executeQuery,0.0,0.0020078692617732036,0.0,0.00034206380852960664,0.0023499330703028102
ConnectionPropertiesImpl$BooleanConnectionProperty.getValueAsBoolean|ConnectionPropertiesImpl.getPadCharsWithSpace|ResultSetImpl.<init>,0.0020244818710861453,0.0,0.00027190017196295684,0.0,0.002296382043049102
ConnectionPropertiesImpl$BooleanConnectionProperty.getValueAsBoolean|ConnectionPropertiesImpl.getRetainStatementAfterResultSetClose|ResultSetImpl.<init>,0.004030076555159103,0.0,0.0005791866029130905,0.0,0.004609263158072194
ConnectionPropertiesImpl$BooleanConnectionProperty.getValueAsBoolean|ConnectionPropertiesImpl.getUseCursorFetch|MysqlIO.getResultSet,0.0801115231159441,0.020585119862619242,0.009521028242607848,0.003286992694881728,0.11350466391605292
ConnectionPropertiesImpl$BooleanConnectionProperty.getValueAsBoolean|ConnectionPropertiesImpl.getUseFastDateParsing|ResultSetImpl.<init>,0.0059455077032522724,0.0,0.0008091151143866268,0.0,0.006754622817638899
ConnectionPropertiesImpl$BooleanConnectionProperty.getValueAsBoolean|ConnectionPropertiesImpl.getUseStreamLengthsInPrepStmts|PreparedStatement.fillSendPacket,0.0,0.0017149473684472275,0.0,0.00027845864662553945,0.001993406015072767
ConnectionPropertiesImpl.getCacheResultSetMetadata|PreparedStatement.executeQuery|GetFollowers.run,0.012341729860289256,0.0,0.00112038111362272,0.0,0.013462110973911975
ConnectionPropertiesImpl.getGatherPerformanceMetrics|ConnectionImpl.execSQL|PreparedStatement.executeInternal,0.0,0.0,0.0,0.0,0.0
ConnectionPropertiesImpl.getMaintainTimeStats|ConnectionImpl.execSQL|ConnectionImpl.commit,0.01378073188346684,0.0,0.0017733160403326648,0.0,0.015554047923799505
ConnectionPropertiesImpl.getMaintainTimeStats|ConnectionImpl.execSQL|PreparedStatement.executeInternal,0.0,0.0,0.0,0.0,0.0
ConnectionPropertiesImpl.getRetainStatementAfterResultSetClose|ResultSetImpl.<init>|JDBC4ResultSet.<init>,0.0,0.013144757607743649,0.0,0.0016645856708801092,0.014809343278623759
ConnectionPropertiesImpl.getUseFastDateParsing|ResultSetImpl.<init>|JDBC4ResultSet.<init>,0.0,0.0,0.0,0.0,0.0
ConstPool.readOne|ConstPool.read|ConstPool.<init>,0.0,0.13006566666687527,0.0,0.01816000000205046,0.14822566666892573
CounterGenerator.nextInt|TraceTransactionGenerator.nextTransaction|TraceTransactionGenerator.nextTransaction,0.0,0.0,0.0,0.0,0.0
DBWorkload.main|NativeMethodAccessorImpl.invoke0|NativeMethodAccessorImpl.invoke,0.0,0.0879412916704799,0.0,0.011978749999798309,0.09992004167027821
DBWorkload.runWorkload|DBWorkload.main|NativeMethodAccessorImpl.invoke0,0.06908296296131555,0.0,0.011022222224036577,0.0,0.08010518518535213
DatabaseInformation.newDatabaseInformation|Database.reopen|Database.open,0.0,0.06837404761990044,0.0,0.010049999998175605,0.07842404761807605
DatabaseMetaData.<clinit>|ConnectionImpl.getMetaData|ConnectionImpl.<init>,0.0,0.020300278291052992,0.0,0.0035046564684376395,0.02380493475949063
DateFormatSymbolsProviderImpl.getInstance|DateFormatSymbols.getProviderInstance|DateFormatSymbols.getInstanceRef,0.0,0.0,0.0,0.0,0.0
DefaultConfigurationNode.createSubNodes|DefaultConfigurationNode.initSubNodes|DefaultConfigurationNode.<init>,0.0,0.0610429166748266,0.0,0.010220000000723907,0.07126291667555051
DistributionStatistics.computeStatistics|ThreadBench$TimeBucketIterator.calculateNext|ThreadBench$TimeBucketIterator.next,0.12049146667122841,0.0,0.01673200000077486,0.0,0.13722346667200327
DistributionStatistics.computeStatistics|ThreadBench.runRateLimitedMultiPhase|ThreadBench.runRateLimitedBenchmark,0.42167074529050363,0.0,0.0541689593591529,0.0,0.4758397046496565
DocumentBuilderImpl.<init>|DocumentBuilderFactoryImpl.newDocumentBuilder|XMLConfiguration.createDocumentBuilder,0.0,0.06803377777234547,0.0,0.009764444447312226,0.0777982222196577
Expression.resolveCheckOrGenExpression|Expression.getCheckSelect|Constraint.prepareCheckConstraint,0.0,0.03810125000179848,0.0,0.005023333333156188,0.04312458333495467
Field.<init>|MysqlIO.unpackField|MysqlIO.getResultSet,0.0317832501432985,0.005974762059415404,0.0037492314618370612,0.000915325997101078,0.04242256966165204
Field.checkForImplicitTemporaryTable|Field.<init>|MysqlIO.unpackField,0.0,0.0028321364377038804,0.0,0.0003187083608063114,0.003150844798510192
Field.getSQLType|MysqlIO.useBufferRowExplicit|MysqlIO.readSingleRowSet,0.0,0.0,0.0,0.0,0.0
Field.isUnsigned|Field.<init>|MysqlIO.unpackField,0.027602240644071387,0.003928871511315392,0.002971416444902319,0.0006661417248494241,0.035168670325138526
FloatingDecimal$BinaryToASCIIBuffer.dtoa|FloatingDecimal$BinaryToASCIIBuffer.access$100|FloatingDecimal.getBinaryToASCIIConverter,1.3737564659646724,0.0,0.22829625386432387,0.0,1.6020527198289962
FloatingDecimal$BinaryToASCIIBuffer.estimateDecExp|FloatingDecimal$BinaryToASCIIBuffer.dtoa|FloatingDecimal$BinaryToASCIIBuffer.access$100,0.03276205313096678,0.0,0.008726611262049653,0.0,0.04148866439301643
FloatingDecimal$BinaryToASCIIBuffer.getDigits|FormattedFloatingDecimal.<init>|FormattedFloatingDecimal.valueOf,0.0376633429354836,0.0,0.006510933369691212,0.0,0.044174276305174814
FloatingDecimal.getBinaryToASCIIBuffer|FloatingDecimal.getBinaryToASCIIConverter|FormattedFloatingDecimal.valueOf,0.07081847157317353,0.0600179999989147,0.008295358298365677,0.007610000002993425,0.1467418298734473
FloatingDecimal.getBinaryToASCIIConverter|FormattedFloatingDecimal.valueOf|Formatter$FormatSpecifier.print,0.03552186657245037,0.0,0.010192912046357135,0.0,0.0457147786188075
FormattedFloatingDecimal.<init>|FormattedFloatingDecimal.valueOf|Formatter$FormatSpecifier.print,0.08942817960531926,0.0,0.011817542040061055,0.0,0.10124572164538032
FormattedFloatingDecimal.fillDecimal|FormattedFloatingDecimal.<init>|FormattedFloatingDecimal.valueOf,0.03230681724522681,0.0,0.00533059244834635,0.0,0.03763740969357316
FormattedFloatingDecimal.getMantissa|Formatter$FormatSpecifier.print|Formatter$FormatSpecifier.print,0.03182936089441246,0.0,0.0044873719232391696,0.0,0.03631673281765163
GeneratedConstructorAccessor1.newInstance|DelegatingConstructorAccessorImpl.newInstance|Constructor.newInstance,0.05727117410730677,0.013789863999064067,0.007210441784830986,0.0022176315247369716,0.0804891114159388
GeneratedConstructorAccessor2.newInstance|DelegatingConstructorAccessorImpl.newInstance|Constructor.newInstance,0.013538796102642333,0.0014077179486123032,0.0017116749893876864,0.00016538461540431646,0.01682357365604664
GetUserTweets.run|TwitterWorker.doSelectTweetsForUid|TwitterWorker.executeWork,0.003023601950521205,0.0,0.000345301540395058,0.0,0.003368903490916263
Gregorian.newCalendarDate|GregorianCalendar.<init>|Calendar$Builder.build,0.0,0.06115733333475265,0.0,0.007760000002842085,0.06891733333759474
Histogram._put|Histogram.put|Worker.doWork,0.12849579251360863,0.02086007606299276,0.01727413466934706,0.0010130119088244821,0.16764301515477292
Histogram.put|Worker.doWork|Worker.run,0.0,0.0,0.0,0.0,0.0
IntegerGenerator.setLastInt|CounterGenerator.nextInt|TraceTransactionGenerator.nextTransaction,0.010526591193849289,0.0010795610232782124,0.0012605751282716345,0.00017074402585823568,0.013037471371257372
JDBC4ResultSet.<init>|GeneratedConstructorAccessor2.newInstance|DelegatingConstructorAccessorImpl.newInstance,0.0,0.0038953871706389007,0.0,0.0004417875566164423,0.004337174727255343
JDBCConnection.getMetaData|Catalog.init|Catalog.<init>,0.0,0.13653566665986241,0.0,0.021990000001096632,0.15852566666095905
JDBCStatementBase.performPostExecute|JDBCStatement.fetchResult|JDBCStatement.executeQuery,0.0,0.07267266667137542,0.0,0.010453333332811274,0.0831260000041867
LatencyRecord$LatencyRecordIterator.next|LatencyRecord$LatencyRecordIterator.next|ThreadBench.runRateLimitedMultiPhase,0.04843233001077585,0.0,0.005941848617738832,0.0,0.05437417862851468
LatencyRecord$Sample.compareTo|ComparableTimSort.mergeLo|ComparableTimSort.mergeAt,0.041148648056813016,0.0,0.00530429743296366,0.0,0.04645294548977667
LatencyRecord.addLatency|Worker.run|Thread.run,0.04076176066450421,0.005968304304711429,0.005193150034210446,0.0009087246206359047,0.05283193962406199
Launcher$AppClassLoader.loadClass|ClassLoader.loadClass|Catalog.init,0.0,0.11124666665758316,0.0,0.01540499999828171,0.12665166665586486
Launcher$AppClassLoader.loadClass|ClassLoader.loadClass|Class.getDeclaredFields0,0.0,0.03910084238349094,0.0,0.005351597598105904,0.04445243998159684
Launcher$AppClassLoader.loadClass|ClassLoader.loadClass|ConnectionImpl.coreConnect,0.0,0.020714128130206608,0.0,0.0036035418350065093,0.024317669965213118
Launcher$AppClassLoader.loadClass|ClassLoader.loadClass|ListOrderedMap$ListOrderedIterator.next,0.0,0.07914200000232086,0.0,0.01095500000277146,0.09009700000509231
Launcher$AppClassLoader.loadClass|ClassLoader.loadClass|NonRegisteringDriver.connect,0.0,0.06250067667494999,0.0,0.010673814109773284,0.07317449078472327
Launcher$AppClassLoader.loadClass|ClassLoader.loadClass|ParserDDL.compileCreateSequence,0.0,0.08201100000102693,0.0,0.012340000001131557,0.09435100000215849
Launcher$AppClassLoader.loadClass|ClassLoader.loadClass|Scanner.scanToken,0.0,0.0545043333452971,0.0,0.0071699999971315265,0.061674333342428625
ListOrderedMap.getValue|TransactionTypes.getType|Worker.doWork,0.0067533904764180384,0.008424992858967757,0.0007668571430258452,0.001418291370028663,0.017363531848440302
LocationInfo.<clinit>|LoggingEvent.getLocationInformation|PatternParser$LocationPatternConverter.convert,0.0,0.07914200000232086,0.0,0.01095500000277146,0.09009700000509231
LongVector.addElement|ConstPool.addItem0|ConstPool.readOne,0.0,0.061666308026567335,0.0,0.009834929136538452,0.07150123716310579
MemberrefInfo.<init>|FieldrefInfo.<init>|ConstPool.readOne,0.0,0.0205295181372134,0.0,0.0035556893110320555,0.024085207448245455
MemberrefInfo.<init>|MethodrefInfo.<init>|ConstPool.readOne,0.0,0.07259805555804633,0.0,0.01028750000033243,0.08288555555837876
Messages.getString|ConnectionPropertiesImpl.<init>|ConnectionImpl.<init>,0.06908296296131555,0.13509803184832123,0.011022222224036577,0.02147315315373857,0.23667637018741192
Messages.getString|ResultSetImpl.checkClosed|ResultSetImpl.realClose,0.09407904571016781,0.015311792882019023,0.010616459991310747,0.0022192240890762586,0.12222652267257383
Messages.getString|ResultSetImpl.setRowPositionValidity|ResultSetImpl.<init>,0.07791205373459058,0.005344232610753449,0.010136220089603243,0.0007161230097185306,0.0941086294446658
Messages.getString|ResultSetImpl.setRowPositionValidity|ResultSetImpl.next,0.0,0.0007570017334654742,0.0,6.787847953122574e-05,0.0008248802129967
MethodInfo.read|MethodInfo.<init>|ClassFile.read,0.0,0.07323720832937397,0.0,0.009607499999219726,0.0828447083285937
MysqlDefs.mysqlToJavaType|Field.<init>|MysqlIO.unpackField,0.012536938040132225,0.058614907718789244,0.0018185727338478378,0.010044777301880838,0.08301519579465014
MysqlIO.adjustStartForFieldLength|MysqlIO.unpackField|MysqlIO.getResultSet,0.002046281337226555,0.0,0.000182962972906614,0.0,0.0022292443101331687
MysqlIO.buildResultSetWithRows|MysqlIO.getResultSet|MysqlIO.readResultsForQueryOrUpdate,0.0,0.09866606183037106,0.0,0.017317568524665844,0.1159836303550369
MysqlIO.buildResultSetWithUpdates|MysqlIO.readResultsForQueryOrUpdate|MysqlIO.readAllResults,0.04110781790180999,0.003625656108580513,0.0057978992283714385,0.0004452488687899748,0.05097662210755192
MysqlIO.checkErrorPacket|MysqlIO.sendCommand|MysqlIO.sqlQueryDirect,0.009346397411693163,0.0,0.0014880181320488023,0.0,0.010834415543741965
MysqlIO.checkTransactionState|MysqlIO.nextRowFast|MysqlIO.nextRow,0.0,0.0025311212124175986,0.0,0.00018840909086231312,0.0027195303032799116
MysqlIO.checkTransactionState|MysqlIO.readServerStatusForResultSets|MysqlIO.getResultSet,0.0,0.0,0.0,0.0,0.0
MysqlIO.getResultSet|MysqlIO.readResultsForQueryOrUpdate|MysqlIO.readAllResults,0.02187352431963606,0.0019251832263684748,0.002758333055966551,0.00023118589751125273,0.02678822649948234
MysqlIO.getServerMinorVersion|MysqlIO.versionMeetsMinimum|ConnectionImpl.versionMeetsMinimum,0.0,0.001602608514806741,0.0,0.00029167197180013707,0.001894280486606878
MysqlIO.nextRowFast|MysqlIO.nextRow|MysqlIO.readSingleRowSet,0.39065961253911446,0.07762517288902147,0.05056206078884723,0.011213556729643588,0.5300604029466268
MysqlIO.nextRow|MysqlIO.readSingleRowSet|MysqlIO.getResultSet,0.06402725730444435,0.0,0.007013271245088503,0.0,0.07104052854953286
MysqlIO.readAllResults|MysqlIO.sqlQueryDirect|ConnectionImpl.execSQL,0.0,0.0,0.0,0.0,0.0
MysqlIO.readFully|MysqlIO.nextRowFast|MysqlIO.nextRow,0.026592342926722707,0.0,0.0035051410316352116,0.0,0.03009748395835792
MysqlIO.readFully|MysqlIO.readPacket|MysqlIO.getResultSet,0.0,0.0,0.0,0.0,0.0
MysqlIO.readFully|MysqlIO.reuseAndReadPacket|MysqlIO.reuseAndReadPacket,0.0038339305618167647,0.0,0.0004440978901240746,0.0,0.0042780284519408395
MysqlIO.readPacket|MysqlIO.getResultSet|MysqlIO.readResultsForQueryOrUpdate,0.031299816699991184,0.005032158896478199,0.004107126224646539,0.0006890854698464982,0.041128187290962424
MysqlIO.readResultsForQueryOrUpdate|MysqlIO.readAllResults|MysqlIO.sqlQueryDirect,0.004814183888522373,0.01611316420763972,0.0006209179776487353,0.002593651013288094,0.024141917087098924
MysqlIO.readSingleRowSet|MysqlIO.getResultSet|MysqlIO.readResultsForQueryOrUpdate,0.02833468735487308,0.018639998795031913,0.0035596551068785465,0.002156183924371562,0.05269052518115511
MysqlIO.reuseAndReadPacket|MysqlIO.reuseAndReadPacket|MysqlIO.checkErrorPacket,0.0998299569769052,0.012218626315268145,0.012450493523511526,0.001525595405482513,0.12602467222116737
MysqlIO.sendCommand|MysqlIO.sqlQueryDirect|ConnectionImpl.execSQL,0.0,0.03767984181866568,0.0,0.006632391564376801,0.044312233383042486
MysqlIO.send|MysqlIO.sendCommand|MysqlIO.sqlQueryDirect,4.461966761606366,1.0545008147363186,0.566685786604976,0.14218776763491095,6.225341130582572
MysqlIO.setServerSlowQueryFlags|MysqlIO.buildResultSetWithUpdates|MysqlIO.readResultsForQueryOrUpdate,0.0065099838976879895,0.009603875828525812,0.0007364519689712236,0.000729347947077137,0.017579659642262165
MysqlIO.sqlQueryDirect|ConnectionImpl.execSQL|ConnectionImpl.commit,0.016555370758523383,0.002329790708613476,0.002560369407766664,0.00026033000243363665,0.021705860877337158
MysqlIO.sqlQueryDirect|ConnectionImpl.execSQL|PreparedStatement.executeInternal,0.0,0.002091759165296885,0.0,0.0003594512227406675,0.0024512103880375523
MysqlIO.unpackField|MysqlIO.getResultSet|MysqlIO.readResultsForQueryOrUpdate,0.08028838538761976,0.012282975890999873,0.009026084532105669,0.001382564201546888,0.1029800100122722
MysqlIO.versionMeetsMinimum|ConnectionImpl.versionMeetsMinimum|MysqlIO.getResultSet,0.0,0.014401912853451874,0.0,0.0023846239095876285,0.016786536763039504
MysqlNativePasswordPlugin.nextAuthenticationStep|MysqlIO.proceedHandshakeWithPluggableAuthentication|MysqlIO.doHandshake,0.0,0.06699791221400428,0.0,0.01170179926749224,0.07869971148149651
NativeConstructorAccessorImpl.newInstance|DelegatingConstructorAccessorImpl.newInstance|Constructor.newInstance,0.0,0.05548858203259829,0.0,0.009590060702627938,0.06507864273522622
NonRegisteringDriver.connect|DriverManager.getConnection|DriverManager.getConnection,0.0,0.19329594387039495,0.0,0.0320650766748704,0.22536102054526536
Phase.chooseTransaction|Phase.chooseTransaction|WorkloadState.addToQueue,0.0,0.0,0.0,0.0,0.0
Phase.chooseTransaction|WorkloadState.addToQueue|ThreadBench.runRateLimitedMultiPhase,0.0,0.0,0.0,0.0,0.0
Phase.isLatencyRun|Worker.run|Thread.run,0.010241953049697737,0.0,0.0011858204359309304,0.0,0.011427773485628668
Phase.isSerial|Phase.chooseTransaction|Phase.chooseTransaction,0.0,0.0,0.0,0.0,0.0
Phase.totalWeight|Phase.chooseTransaction|Phase.chooseTransaction,0.0,0.0,0.0,0.0,0.0
PreparedStatement.checkBounds|PreparedStatement.setInternal|PreparedStatement.setInternal,0.030118524286942415,0.002369561683562122,0.004066942185845589,0.0003843886980971334,0.036939416854447266
PreparedStatement.executeInternal|PreparedStatement.executeQuery|GetUserTweets.run,0.04443981477925563,0.03182304539416259,0.005661933904941471,0.004459887639534104,0.0863846817178938
PreparedStatement.executeInternal|PreparedStatement.execute|InsertTweet.run,0.0049561004744706795,0.0,0.000745887777740791,0.0,0.00570198825221147
PreparedStatement.executeQuery|GetUserTweets.run|TwitterWorker.doSelectTweetsForUid,0.025228158974100665,-0.0009062571847075157,0.0028950769231857686,7.614223501846605e-05,0.027293120947597383
PreparedStatement.execute|InsertTweet.run|TwitterWorker.doInsertTweet,0.0041737406897591894,0.0,0.0005518903810714049,0.0,0.004725631070830594
PreparedStatement.fillSendPacket|PreparedStatement.executeQuery|GetUserTweets.run,0.004626476923182894,0.0,0.0004857692307828425,0.0,0.005112246153965736
PreparedStatement.fillSendPacket|PreparedStatement.fillSendPacket|PreparedStatement.executeQuery,0.01251445748509808,0.0019298181818819347,0.001684944329812301,0.00021490909103621643,0.01634412908782853
PreparedStatement.setDate|PreparedStatement.setDate|InsertTweet.run,0.020335215424009023,0.034739903899064624,0.0027810594595450476,0.00395382434525836,0.06181000312787705
PreparedStatement.setInternal|PreparedStatement.setInternal|PreparedStatement.setLong,0.05326312167175173,0.012745929548730208,0.006531548064966554,0.0014091561337771835,0.07394975541922567
PreparedStatement.setInternal|PreparedStatement.setLong|GetFollowers.run,0.030915704667246482,0.002853507816238588,0.0035214648483846062,0.00023457871270935338,0.037525256044579035
PreparedStatement.setInternal|PreparedStatement.setLong|GetUserTweets.run,0.05586618237773842,0.003090645489460202,0.0069371029609211965,0.0005303369057903722,0.06642426773391018
PreparedStatement.setLong|GetFollowers.run|TwitterWorker.doSelectNamesOfPplThatFollowMe,0.0010856666670985182,0.0,0.00012181818160708203,0.0,0.0012074848487056004
PreparedStatement.setLong|GetUserTweets.run|TwitterWorker.doSelectTweetsForUid,0.00617424999919339,0.0021528831166033814,0.0007309090906346682,0.00023766233761153823,0.00929570454404298
Procedure.getPreparedStatementReturnKeys|Procedure.getPreparedStatement|GetFollowers.run,0.040493226979608436,0.0,0.004358244142344881,0.0,0.04485147112195332
Procedure.getPreparedStatementReturnKeys|Procedure.getPreparedStatement|GetUserTweets.run,0.0,0.0,0.0,0.0,0.0
Procedure.getPreparedStatementReturnKeys|Procedure.getPreparedStatement|InsertTweet.run,0.008758526939413432,0.0,0.0011934389142729913,0.0,0.009951965853686424
QuerySpecification.createResultTable|QuerySpecification.createTable|QuerySpecification.resolveTypesPartTwo,0.0,0.10410566666784384,0.0,0.013695000001462176,0.11780066666930601
RandomDistribution$Flat.nextLongImpl|RandomDistribution$DiscreteRNG.nextInt|RandomDistribution$FlatHistogram.nextValue,0.0010470042191759244,0.0,0.00014389777856049785,0.0,0.0011909019977364222
RandomDistribution$FlatHistogram.nextValue|TwitterWorker.executeWork|Worker.doWork,0.0035933090908325874,0.002006541658789714,0.0005181818181881682,0.0004491165439631915,0.006567149111773661
ReadAheadInputStream.available|MysqlIO.clearInputStream|MysqlIO.readAllResults,0.4941060922653032,0.09399686772201227,0.061060768719280706,0.012594239156246884,0.6617579678628431
ReadAheadInputStream.available|MysqlIO.clearInputStream|MysqlIO.sendCommand,0.38569642114901415,0.13724123507104602,0.048859011353960445,0.0209227901167965,0.5927194576908171
ReadAheadInputStream.checkClosed|ReadAheadInputStream.read|MysqlIO.nextRowFast,0.0,0.005056882370822658,0.0,0.0004376914328193908,0.005494573803642049
ReadAheadInputStream.checkClosed|ReadAheadInputStream.read|MysqlIO.readFully,0.003301583123967636,0.005350743589075043,0.000750264368887055,0.00040153846165571263,0.009804129543585446
ReadAheadInputStream.fill|ReadAheadInputStream.readFromUnderlyingStreamIfNecessary|ReadAheadInputStream.read,6.1880144517646585,1.2356501058711753,0.777231002280117,0.16635374014016335,8.367249300056114
ReadAheadInputStream.readFromUnderlyingStreamIfNecessary|ReadAheadInputStream.read|MysqlIO.readFully,0.15930037644810627,0.024605457062424715,0.021079875538894788,0.0021596231673879597,0.20714533221681372
ReadAheadInputStream.read|MysqlIO.nextRowFast|MysqlIO.nextRow,0.026042482508925876,0.01613425623626329,0.0030802778617745165,0.002136199274160339,0.04739321588112402
ReadAheadInputStream.read|MysqlIO.readFully|MysqlIO.nextRowFast,0.4146349173758948,0.09787049593948154,0.05038404091176135,0.01206050127834749,0.5749499555054851
ReadAheadInputStream.read|MysqlIO.readFully|MysqlIO.readPacket,0.27064486483097383,0.04114469095652011,0.033185715643239036,0.004403220333918858,0.34937849176465186
ReadAheadInputStream.read|MysqlIO.readFully|MysqlIO.reuseAndReadPacket,0.06118489780459608,0.04723304437541946,0.007266471363244849,0.007671908084570825,0.12335632162783122
Reflection.quickCheckMemberAccess|Constructor.newInstance|Util.handleNewInstance,0.0,0.0015750802674931925,0.0,0.0001884280936305807,0.0017635083611237732
Resource.getBytes|URLClassLoader.defineClass|URLClassLoader.access$100,0.0,0.2198072044886819,0.0,0.029782745096697504,0.24958994958537942
ResultSetImpl.<clinit>|MysqlIO.buildResultSetWithRows|MysqlIO.getResultSet,0.0,0.11971980435175274,0.0,0.02137666717858131,0.14109647153033406
ResultSetImpl.<init>|JDBC4ResultSet.<init>|GeneratedConstructorAccessor1.newInstance,0.01169419349321221,0.0051609996245141595,0.0014493648657525472,0.0007894431430341258,0.019094001126513042
ResultSetImpl.<init>|JDBC4ResultSet.<init>|GeneratedConstructorAccessor2.newInstance,0.0799109212624878,0.005444355122011276,0.010170943586838475,0.00040270036497098814,0.09592892033630855
ResultSetImpl.checkClosed|ResultSetImpl.realClose|PreparedStatement.executeQuery,0.0,0.004295948717462568,0.0,0.0008461538460463858,0.005142102563508954
ResultSetImpl.checkClosed|ResultSetImpl.setDefaultTimeZone|ResultSetImpl.<init>,0.0,0.0,0.0,0.0,0.0
ResultSetImpl.checkColumnBounds|ResultSetImpl.getLong|ResultSetImpl.getLong,0.0054190665198403576,0.0,0.0006710583967758205,0.0,0.006090124916616178
ResultSetImpl.clearWarnings|ResultSetImpl.next|GetFollowers.run,0.002501324823545481,0.0,0.0002677455347482706,0.0,0.0027690703582937517
ResultSetImpl.close|GetFollowers.run|TwitterWorker.doSelectNamesOfPplThatFollowMe,0.0,0.002807611110727992,0.0,0.00034833333349390023,0.0031559444442218923
ResultSetImpl.close|GetUserTweets.run|TwitterWorker.doSelectTweetsForUid,0.006494432540344282,0.0,0.0009805746508045703,0.0,0.0074750071911488525
ResultSetImpl.getExceptionInterceptor|ResultSetImpl.checkClosed|ResultSetImpl.setDefaultTimeZone,0.005046417430607573,0.0,0.0006565352361399992,0.0,0.005702952666747573
ResultSetImpl.getInstance|MysqlIO.buildResultSetWithRows|MysqlIO.getResultSet,0.03265417239227444,0.0018905897564140575,0.004080763754224035,0.00031845313546915907,0.03894397903838169
ResultSetImpl.getInstance|MysqlIO.buildResultSetWithUpdates|MysqlIO.readResultsForQueryOrUpdate,0.025899234317441056,0.008936501836389157,0.003006722979782838,0.0006649860141556354,0.03850744514776868
ResultSetImpl.getLongWithOverflowCheck|ResultSetImpl.getLong|ResultSetImpl.getLong,0.06405511111262495,0.0,0.008551111110675802,0.0,0.07260622222330075
ResultSetImpl.initializeWithMetadata|ResultSetImpl.<init>|JDBC4ResultSet.<init>,0.0,0.0013190333333720145,0.0,0.00019599999998010591,0.0015150333333521205
ResultSetImpl.next|GetFollowers.run|TwitterWorker.doSelectNamesOfPplThatFollowMe,0.0020315656109241038,0.0,0.00025846153851682784,0.0,0.0022900271494409315
ResultSetImpl.realClose|ResultSetImpl.close|GetFollowers.run,-0.005368525799039283,0.0014951496597278074,-0.00039315169883027935,0.0001844897959599125,-0.004082038042181843
ResultSetImpl.realClose|ResultSetImpl.close|GetUserTweets.run,0.027986571201334326,0.0020453146849335594,0.0037561767047008658,0.00015797202792458263,0.03394603461889334
ResultSetImpl.setDefaultTimeZone|ResultSetImpl.<init>|JDBC4ResultSet.<init>,0.002475621212259725,0.006958878938997977,0.00030795454541944446,0.0007782014407922209,0.010520656137469369
ResultSetImpl.setResultSetConcurrency|MysqlIO.buildResultSetWithRows|MysqlIO.getResultSet,0.006777255033380152,0.01193117872895794,0.0009269253355250148,0.0016901444451832516,0.02132550354304636
ResultSetImpl.setResultSetType|MysqlIO.buildResultSetWithRows|MysqlIO.getResultSet,0.0,0.0,0.0,0.0,0.0
Results.writeAllCSVAbsoluteTiming|DBWorkload.writeOutputs|DBWorkload.main,4.833508083948378,0.216037444450194,0.7978747828631013,0.03132000000240859,5.878740311264083
RowDataStatic.size|ResultSetImpl.<init>|JDBC4ResultSet.<init>,0.002362932773119136,0.0007649962681030682,0.00030693277313585286,6.818556643471848e-05,0.0035030473807927754
SQLError.createSQLException|SQLError.createSQLException|ResultSetImpl.checkClosed,0.005507313489742263,0.0,0.0005943605344089442,0.0,0.006101674024151208
SQLError.createSQLException|SQLError.createSQLException|SQLError.createSQLException,1.3250009681716042,0.40340887532045305,0.16738716133670062,0.05506550095295892,1.9508625057817168
Session.<init>|SessionManager.<init>|Database.reopen,0.0,0.058394666666302976,0.0,0.008444444444547923,0.0668391111108509
SingleByteCharsetConverter.<clinit>|ConnectionImpl.getCharsetConverter|StringUtils.getBytes,0.0,0.777931666589049,0.0,0.1223144022868817,0.9002460688759307
SqlInvariants.<clinit>|GranteeManager.<clinit>|Database.reopen,0.0,0.031270333332940936,0.0,0.004079999998793936,0.03535033333173487
StandardSocketFactory.<clinit>|Class.forName0|Class.forName,0.0,0.0205295181372134,0.0,0.0035556893110320555,0.024085207448245455
StandardSocketFactory.connect|MysqlIO.<init>|ConnectionImpl.coreConnect,0.0,0.01990074287548449,0.0,0.0035842125617504494,0.023484955437234938
Statement.setParent|ParserRoutine.compileSQLProcedureStatementOrNull|ParserRoutine.compileSQLProcedureStatementList,0.0,0.056657638889899116,0.0,0.008836666663531407,0.06549430555343053
StatementImpl.checkClosed|PreparedStatement.checkBounds|PreparedStatement.setInternal,0.0,0.0013721818181114608,0.0,0.00017236363637493924,0.0015445454544864002
StatementImpl.checkClosed|PreparedStatement.setInternal|PreparedStatement.setLong,0.006510410256361446,0.0,0.0008323076923634523,0.0,0.0073427179487248985
StatementImpl.checkClosed|StatementImpl.createStreamingResultSet|PreparedStatement.executeQuery,0.0,0.0,0.0,0.0,0.0
StatementImpl.checkForDml|PreparedStatement.executeQuery|GetUserTweets.run,0.007118937741444288,0.0,0.0010568987082320107,0.0,0.008175836449676298
StatementImpl.clearWarnings|PreparedStatement.executeQuery|GetFollowers.run,0.0,0.00081079289938472,0.0,0.00011449704139070457,0.0009252899407754245
StatementImpl.clearWarnings|PreparedStatement.executeQuery|GetUserTweets.run,0.05247807915324555,0.001472088416434934,0.006868969822115898,0.00026370028920157405,0.06108283768099795
StatementImpl.closeAllOpenResults|PreparedStatement.executeQuery|GetUserTweets.run,0.03186324553557692,0.0007298039580913458,0.0034761829572387813,6.344864769777595e-05,0.036132681098604826
StatementImpl.createStreamingResultSet|PreparedStatement.executeQuery|GetUserTweets.run,0.0022329791205532227,0.0,0.0005402694424747343,0.0,0.002773248563027957
StatementImpl.executeQuery|ConnectionImpl.loadServerVariables|ConnectionImpl.initializePropsFromServer,0.0,0.042015915266499934,0.0,0.0028536947535319893,0.044869610020031925
StatementImpl.removeOpenResultSet|ResultSetImpl.realClose|ResultSetImpl.close,0.05851760718657056,0.016808017190140263,0.0073845054010483946,0.0019062055945618726,0.08461633537232108
StatementImpl.resetCancelledState|PreparedStatement.executeInternal|PreparedStatement.executeQuery,0.0,0.0,0.0,0.0,0.0
StatementImpl.statementBegins|PreparedStatement.executeInternal|PreparedStatement.executeQuery,0.0,0.0012825324677094188,0.0,0.00014123376623301028,0.0014237662339424292
StreamEncoder.flushBuffer|OutputStreamWriter.flushBuffer|PrintStream.write,0.040400898416362144,0.0,0.010153963956510558,0.0,0.050554862372872704
StreamEncoder.implWrite|StreamEncoder.write|OutputStreamWriter.write,0.029244614485489682,0.0,0.0086466041453002,0.0,0.03789121863078988
StreamEncoder.writeBytes|StreamEncoder.implFlushBuffer|StreamEncoder.flushBuffer,15.640693909898099,0.42788107406792086,2.747462585418021,0.05894388889444396,18.874981458278484
StringUtil.join|Results.writeAllCSVAbsoluteTiming|DBWorkload.writeOutputs,0.12264460893420098,0.0,0.027570401645870005,0.0,0.15021501058007097
StringUtil.join|StringUtil.join|StringUtil.join,0.630387907524003,0.039896666673788175,0.12984590718154898,0.005064999997557607,0.8051954813768978
StringUtils.getBytes|PreparedStatement.setInternal|PreparedStatement.setLong,0.015994270454306746,0.009968303876544916,0.0022087299006545514,0.0014058194323778176,0.029577123663884028
StringUtils.getBytes|StringUtils.getBytes|Buffer.writeStringNoNull,0.02338697356385914,0.0124095231011497,0.003329347458740754,0.00193458154089487,0.04106042566464446
TextGenerator.randomFastChars|TextGenerator.randomChars|TextGenerator.randomStr,0.0,0.003504191152032035,0.0,0.000700823350713602,0.004205014502745637
TextGenerator.randomStr|TwitterWorker.executeWork|Worker.doWork,0.0018968172662237718,0.0,0.00019369410002693734,0.0,0.002090511366250709
ThreadBench$TimeBucketIterator.calculateNext|ThreadBench$TimeBucketIterator.<init>|ThreadBench$TimeBucketIterable.iterator,0.035308833335875534,0.0,0.005460000000311993,0.0,0.04076883333618753
ThreadBench$TimeBucketIterator.calculateNext|ThreadBench$TimeBucketIterator.next|ThreadBench$TimeBucketIterator.next,0.28845200000699456,0.0,0.041939999999885916,0.0,0.33039200000688046
ThreadBench.createWorkerThreads|ThreadBench.runRateLimitedMultiPhase|ThreadBench.runRateLimitedBenchmark,0.021492063492861768,0.0,0.0036571428571487703,0.0,0.025149206350010538
ThreadBench.runRateLimitedMultiPhase|ThreadBench.runRateLimitedBenchmark|DBWorkload.runWorkload,0.324026174888933,0.0,0.04464634258613954,0.0,0.3686725174750725
ThreadLocalCoders.<clinit>|Charset.decode|StringUtils.toString,0.0,0.06699791221400428,0.0,0.01170179926749224,0.07869971148149651
Tokenizer.parseTokens|TransactionSelector.readNextTransaction|TransactionSelector.readAll,0.0,0.1345716159688291,0.0,0.02419052261316369,0.15876213858199278
Tokens.<clinit>|Scanner.scanToken|Scanner.scanNext,0.0,0.21134433332675445,0.0,0.030520000000251457,0.2418643333270059
TraceTransactionGenerator.nextTransaction|TraceTransactionGenerator.nextTransaction|TwitterWorker.executeWork,0.03611280575525111,0.0031563658388779744,0.00461420897870542,0.0005246732941777908,0.04440805386701229
TransactionSelector.readAll|TwitterBenchmark.makeWorkersImpl|BenchmarkModule.makeWorkers,0.0,15.72666158641796,0.0,2.6429350160420206,18.36959660245998
TransactionSelector.readNextTransaction|TransactionSelector.readAll|TwitterBenchmark.makeWorkersImpl,0.0,6.203416114598835,0.0,1.0440815693874477,7.247497683986283
TransactionType.getName|Results.writeAllCSVAbsoluteTiming|DBWorkload.writeOutputs,0.2941941173834534,0.022261925925569682,0.04797245128862454,0.003193333333237441,0.3676218279308851
TransactionType.toString|String.valueOf|StringBuilder.append,0.0,0.08998600000631995,0.0,0.013739999997293731,0.10372600000361369
TreeCompiler.locationPath|XPathParser.AbsoluteLocationPath|XPathParser.LocationPath,0.0,0.11769600000116046,0.0,0.015040000000832757,0.1327360000019932
TwitterWorker.doInsertTweet|TwitterWorker.executeWork|Worker.doWork,0.0,0.0,0.0,0.0,0.0
TwitterWorker.doSelectTweetsForUid|TwitterWorker.executeWork|Worker.doWork,0.001758435897332115,0.0,0.0002286923076518668,0.0,0.0019871282049839815
TwitterWorker.executeWork|Worker.doWork|Worker.run,0.05611483705329612,0.01116979875825733,0.006980537490277811,0.0017412824032715772,0.07600645570510284
URLClassPath$JarLoader.getResource|URLClassPath.getResource|URLClassLoader$1.run,0.0,0.06868323745678435,0.0,0.012416221568862379,0.08109945902564673
UTF_8$Encoder.encodeArrayLoop|UTF_8$Encoder.encodeLoop|CharsetEncoder.encode,0.2549168434702331,0.0,0.037898103778554154,0.0,0.2928149472487872
UTF_8$Encoder.encodeBufferLoop|UTF_8$Encoder.encodeLoop|CharsetEncoder.encode,0.05895555554889144,0.0,0.007324444442659755,0.0,0.0662799999915512
UTF_8$Encoder.encode|StringCoding$StringEncoder.encode|StringCoding.encode,0.0,0.0010696083915393826,0.0,0.00014916083913245988,0.0012187692306718425
UTF_8.updatePositions|UTF_8.access$200|UTF_8$Encoder.encodeArrayLoop,0.05434850782571675,0.0,0.009434821185414166,0.0,0.06378332901113092
Util.handleNewInstance|ResultSetImpl.getInstance|MysqlIO.buildResultSetWithRows,0.020567916992429106,0.001773062721768822,0.003290386871145186,0.0002675825906178686,0.025898949175960983
Worker.doWork|Worker.run|Thread.run,0.06806436297693155,0.0346907444182131,0.009180595466466702,0.005822625461878623,0.11775832832348997
Worker.getProcedure|TwitterWorker.doSelectNamesOfPplThatFollowMe|TwitterWorker.executeWork,0.0035903935755089702,0.0,0.00045026078915344297,0.0,0.004040654364662413
Worker.getProcedure|TwitterWorker.doSelectTweetsForUid|TwitterWorker.executeWork,0.04014363025029406,0.0,0.005850995539392552,0.0,0.04599462578968661
Worker.run,0.034811395019405306,0.009133843433878854,0.005344934421924842,0.0010530236111855353,0.050343196486394536
Worker.run|Thread.run|end.end,0.2615704673615082,0.025372166589855454,0.03120904755235419,0.0030932356224978,0.32124491712621567
WorkloadConfiguration.getTraceReader|ThreadBench.runRateLimitedMultiPhase|ThreadBench.runRateLimitedBenchmark,0.0,0.0,0.0,0.0,0.0
WorkloadState.addToQueue|ThreadBench.runRateLimitedMultiPhase|ThreadBench.runRateLimitedBenchmark,0.0330055149202381,0.0,0.005014263178007372,0.0,0.03801977809824547
WorkloadState.fetchWork|Worker.run|Thread.run,0.24068386231090833,0.008658756787158852,0.040420508671355555,0.0011470016315226596,0.2909101294009454
WorkloadState.finishedWork|Worker.run|Thread.run,0.020237687026825588,0.004075347619740998,0.0022457740552174884,0.00044846206855945456,0.02700727077034353
WorkloadState.getCurrentPhase|ThreadBench.runRateLimitedMultiPhase|ThreadBench.runRateLimitedBenchmark,0.07680958983604251,0.0,0.011722603907479128,0.0,0.08853219374352164
WorkloadState.getCurrentPhase|Worker.run|Thread.run,0.013715870157155025,0.0039362744408862746,0.0020123093404670997,0.0004695865899138388,0.020134040528422235
WorkloadState.getGlobalState|Worker.run|Thread.run,0.0013670319341345242,0.0058547397666237596,0.00022805832927777335,0.0009639364768149528,0.00841376650685101
WorkloadState.stayAwake|Worker.run|Thread.run,0.0036835252886397744,0.0022465576923703053,0.0005023577763331236,0.0,0.006432440757343204
WorkloadState.switchToNextPhase|ThreadBench.runRateLimitedMultiPhase|ThreadBench.runRateLimitedBenchmark,0.0,0.0,0.0,0.0,0.0
XMLDocumentFragmentScannerImpl.<init>|XMLDocumentScannerImpl.<init>|XMLNSDocumentScannerImpl.<init>,0.0,0.06744399999539988,0.0,0.009619999999510279,0.07706399999491016
XMLEntityManager.<init>|XML11Configuration.<init>|XIncludeAwareParserConfiguration.<init>,0.0,0.11527499999889793,0.0,0.016480000003260404,0.13175500000215834
XMLEntityManager.expandSystemIdStrictOff|XMLEntityManager.expandSystemId|XMLEntityManager.setupCurrentEntity,0.0,0.0974574814705799,0.0,0.01341333333187288,0.11087081480245277
XMLEntityScanner.skipChar|XMLDocumentFragmentScannerImpl.scanAttribute|XMLDocumentFragmentScannerImpl.scanStartElement,0.0,0.06629748147463907,0.0,0.009795555556020527,0.0760930370306596
ZoneInfo.clone|TimeZone.getDefault|SimpleDateFormat.initializeCalendar,0.011375908209287798,0.0,0.0016727292982554572,0.0,0.013048637507543256
