method,package1,package2,dram1,dram2,energy
AbstractConfiguration.getDouble,0.12083250000109225,0.0,0.014833333332515191,0.0,0.13566583333360743
AbstractDOMParser.startDocument,0.0,0.044088694190521416,0.0,0.0016993723985271804,0.0457880665890486
BaseCalendar.isLeapYear,0.005492563694062676,0.0,0.0005843460611201296,0.0,0.006076909755182805
BenchmarkState.getState,0.2866496403162396,0.10708998811826845,0.03920881887874708,0.019033654061462613,0.4519821013747177
Buffer.<init>,0.004511384231971781,0.0,0.000743491425663213,0.0,0.005254875657634994
Buffer.clear,0.0044169352218805,0.0,0.0004117144807379023,0.0,0.004828649702618403
Buffer.ensureCapacity,0.07186944318144066,0.01302274372326236,0.008333937884222506,0.001765841810950805,0.09499196659987633
Buffer.fastSkipLenString,0.027979826815165424,0.00816375524407233,0.003072169652737114,0.0009818881118879327,0.0401976398238628
Buffer.getByteBuffer,0.021563145101765286,0.0,0.003442174766080664,0.0,0.02500531986784595
Buffer.newReadLength,0.005147973027359125,0.0,0.0005534479865699154,0.0,0.00570142101392904
Buffer.readByte,0.03315606516918373,0.0,0.003441618949072073,0.0,0.0365976841182558
Buffer.readFieldLength,0.012240725850355978,0.002749492063663811,0.0015039017430210054,0.0003542857143440328,0.016848405371384826
Buffer.readLong,0.009432428872846536,0.0,0.0008362727120784702,0.0,0.010268701584925006
Buffer.setPosition,0.0,0.0,0.0,0.0,0.0
Buffer.writeByte,0.0536460252274937,0.0,0.006433987702236324,0.0,0.060080012929730024
Buffer.writeBytesNoNull,0.03729893103635003,0.0,0.004845397708499753,0.0,0.04214432874484978
Buffer.writeLongInt,0.014228037589103418,0.0,0.002202630326553503,0.0,0.01643066791565692
Buffer.writeStringNoNull,0.029697211272678013,0.004679382716184826,0.002804705694479456,0.0005240740741741049,0.0377053737575164
ByteArrayRow.<init>,0.0,0.0,0.0,0.0,0.0
Category.setHierarchy,0.05847999999920527,0.0,0.009912000000864887,0.0,0.06839200000007016
Chaperone.retire,0.0,0.0,0.0,0.0,0.0
ConnectionImpl.checkClosed,0.0,0.0,0.0,0.0,0.0
ConnectionImpl.clientPrepareStatement,0.0,0.0,0.0,0.0,0.0
ConnectionImpl.coreConnect,0.0,0.04132100000667075,0.0,0.0005999999993946402,0.04192100000606539
ConnectionImpl.createStatement,0.0,0.07926399999996647,0.0,0.011199999998401228,0.0904639999983677
ConnectionImpl.execSQL,0.043355842505579945,0.009259388968628249,0.004487973931388525,0.0011815874762166167,0.05828479288181333
ConnectionImpl.getCatalog,0.056214635748346425,0.0,0.005820845392118643,0.0,0.06203548114046507
ConnectionImpl.getCharsetConverter,0.002366449895650357,0.0,0.0003191312222431429,0.0,0.0026855811178935
ConnectionImpl.getCharsetNameForIndex,0.037481375554774723,0.0,0.003963061483222515,0.0,0.04144443703799724
ConnectionImpl.getId,0.0,0.003552109889614467,0.0,0.000325054945078791,0.003877164834693258
ConnectionImpl.getMetaData,0.0,0.05470800000087668,0.0,0.0022600000011152588,0.05696800000199194
ConnectionImpl.getServerCharacterEncoding,0.0033607058859925656,0.0,0.00039235642596362045,0.0,0.0037530623119561863
ConnectionImpl.nativeSQL,0.0,0.0,0.0,0.0,0.0
ConnectionImpl.transactionBegun,0.018142684738874308,0.0,0.002143729168621155,0.0,0.020286413907495464
ConnectionImpl.useMaxRows,0.007090336534808431,0.0,0.0008036867250940191,0.0,0.00789402325990245
ConnectionPropertiesImpl$BooleanConnectionProperty.getValueAsBoolean,0.09871323630791391,0.01613633274506364,0.012337807125786738,0.002384938639750357,0.12957231481851467
ConnectionPropertiesImpl.<init>,0.0,0.04844166666346912,0.0,0.001964999998259979,0.0504066666617291
ConnectionPropertiesImpl.getGatherPerformanceMetrics,0.005300859840126986,0.0,0.0007089205721013128,0.0,0.0060097804122282985
ConnectionPropertiesImpl.getMaintainTimeStats,0.013326513665833279,0.00781642112265874,0.0014917226881296392,0.0011112633689181702,0.023745920845539826
ConnectionPropertiesImpl.getUseFastIntParsing,0.008929559455983081,0.0,0.0009840318561641053,0.0,0.009913591312147186
ConnectionPropertiesImpl.getUseUnicode,0.0033268400985558377,0.0,0.00039686130896779686,0.0,0.0037237014075236345
ConstPool.readOne,0.0,0.052680162472784814,0.0,0.007294828660443555,0.05997499113322837
DBWorkload.main,0.0,0.054467304211703566,0.0,0.006635457744091162,0.06110276195579473
DatabaseInformationMain.<clinit>,0.0,0.025553767517220608,0.0,0.005314650730531976,0.030868418247752584
DatabaseInformationMain.SYSTEM_COLUMNS,0.0,0.02566726619576625,0.0,0.0013729388749023554,0.027040205070668608
DateFormatSymbolsProviderImpl.getInstance,0.005804397743905632,0.0,0.0006825112783035616,0.0,0.006486909022209194
DefaultProxySelector.select,0.0,0.055399666666441284,0.0,0.0022550000018478986,0.05765466666828918
DeferredDocumentImpl.getNodeValueString,0.0,0.05530986955894221,0.0,0.0073418210998711,0.0626516906588133
DistributionStatistics.computeStatistics,0.0698131499448889,0.0,0.007859888376483564,0.0,0.07767303832137246
Field.<init>,0.04440082401605808,0.002542352321185003,0.005145103258025895,0.0005132749568509463,0.05260155455211992
Field.checkForImplicitTemporaryTable,0.018727669167693244,0.002263580246995214,0.0021006892220111584,0.0002457407407533021,0.02333767937745292
Field.isBinary,0.0034251666249787835,0.0,0.0004824012121676432,0.0,0.003907567837146427
FloatingDecimal$BinaryToASCIIBuffer.dtoa,1.2007086163428713,0.0,0.15954069595530743,0.0,1.3602493122981787
FloatingDecimal.getBinaryToASCIIBuffer,0.07622685900654419,0.0,0.006830081912720037,0.0,0.08305694091926423
FormatData.getContents,0.0,0.06475425020198569,0.0,0.006415369926704492,0.07116962012869019
FormattedFloatingDecimal.<init>,0.09183736854626373,0.0,0.00917659008515709,0.0,0.10101395863142082
FormattedFloatingDecimal.create,0.03317024946062681,0.0,0.005952325611739313,0.0,0.03912257507236613
FormattedFloatingDecimal.fillDecimal,0.037488491872140026,0.0,0.006411654622388601,0.0,0.04390014649452863
FormattedFloatingDecimal.getBuffer,0.09542981035870997,0.0,0.013357874958767852,0.0,0.10878768531747782
GeneratedConstructorAccessor1.newInstance,0.023517018765659013,0.0,0.002809960366671155,0.0,0.026326979132330168
GetFollowers.run,0.0,0.0034083048315800626,0.0,0.0005427730450787186,0.003951077876658781
GetUserTweets.run,0.007258692261507924,0.0,0.0009249252755665619,0.0,0.008183617537074486
HashIndex.resetTables,0.0711566666682807,0.0,0.008016666666258566,0.0,0.07917333333453927
HierarchicalConfiguration.createSubnodeConfiguration,0.0,0.05865568976871429,0.0,0.00718115222011892,0.06583684198883322
Histogram._put,0.025765437387990683,0.0061921839823027135,0.003327474440754029,0.0007537662335128463,0.03603886204456027
Histogram.put,0.0,0.0,0.0,0.0,0.0
InstrumentationImpl.transform,0.06810527777512712,0.0,0.009141666663102416,0.0,0.07724694443822953
JDBCConnection.createStatement,0.0,0.04704367269423993,0.0,0.005710492422142832,0.05275416511638276
JDBCConnection.getMetaData,0.0,0.05271503382731077,0.0,0.007257071792158467,0.05997210561946924
JDBCStatementBase.performPostExecute,0.0,0.029346048376119576,0.0,0.002274797039272179,0.03162084541539176
JRELocaleProviderAdapter.getDecimalFormatSymbolsProvider,0.0,0.06475425020198569,0.0,0.006415369926704492,0.07116962012869019
LatencyRecord$LatencyRecordIterator.next,0.17887887441975406,0.0,0.023485465244605517,0.0,0.20236433966435957
LatencyRecord.addLatency,0.030601220656282953,0.0026491656057192644,0.004790845094611551,0.0003350865800949126,0.03837631793670868
Like.compare,0.0,0.05560518732441893,0.0,0.006819842605556557,0.062425029929975485
ListOrderedMap.entrySet,0.0,0.05656032750972684,0.0,0.00932169488430365,0.06588202239403049
ListOrderedMap.getValue,0.0,0.0009868041957383391,0.0,0.00020181818180790801,0.0011886223775462472
LocaleProviderAdapter.getAdapter,0.0,0.0,0.0,0.0,0.0
Logger.newStore,0.0,0.07161149152858284,0.0,0.009953607602211641,0.08156509913079449
Messages.getString,0.006296177985040352,0.004009142857311027,0.0006720135652698014,0.0,0.010977334407621182
MysqlDefs.mysqlToJavaType,0.025558543413243456,0.0025817882111427827,0.0032395419227898323,0.0002643757128053795,0.03164424925998145
MysqlIO.adjustStartForFieldLength,0.006618692458986654,0.0,0.0007756136588331588,0.0,0.007394306117819813
MysqlIO.buildResultSetWithRows,0.001984456628797084,0.13260900000265488,0.00031978990213461697,0.0036500000011680336,0.1385632465347546
MysqlIO.buildResultSetWithUpdates,0.0,0.0015412929295585724,0.0,0.00023696969686290062,0.001778262626421473
MysqlIO.checkErrorPacket,0.006635874361145656,0.0,0.0008580010902634686,0.0,0.007493875451409124
MysqlIO.checkTransactionState,0.008942073140009494,0.003269215461848331,0.001059565036287406,0.0005524719490137348,0.013823325587158965
MysqlIO.getExceptionInterceptor,0.0039756827593500285,0.0,0.0004549339942482593,0.0,0.004430616753598288
MysqlIO.getResultSet,0.023090364593762003,0.0011693749997489665,0.0028250888558624208,0.00015272727283776146,0.027237555722211152
MysqlIO.getServerMajorVersion,0.0,0.0027407111112821713,0.0,0.0003122222222844829,0.003052933333566654
MysqlIO.getServerMinorVersion,0.03801551535750355,0.0,0.004754584097788972,0.0,0.04277009945529252
MysqlIO.invokeStatementInterceptorsPost,0.0,0.0038269111110518375,0.0,0.0005018333333686718,0.00432874444442051
MysqlIO.loadAuthenticationPlugins,0.0,0.03796366666210815,0.0,0.0033199999985905984,0.04128366666069875
MysqlIO.nextRow,0.01726481875903615,0.002934468434368039,0.0018773733421591885,0.0004291477272099746,0.022505808262773354
MysqlIO.nextRowFast,0.47061259469698274,0.08488477884365475,0.05606010350214005,0.009783085019519942,0.6213405620622975
MysqlIO.readFully,0.012227803384465797,0.0,0.0013871703539416775,0.0,0.013614973738407475
MysqlIO.readPacket,0.05286092731185585,0.004952233938049103,0.005706222056339388,0.0006785522940481844,0.06419793560029254
MysqlIO.readResultsForQueryOrUpdate,0.017371258511248655,0.00250245000012607,0.0017173004806576675,0.0003264999999373685,0.021917508991969762
MysqlIO.readServerStatusForResultSets,0.012197700286852086,0.0,0.0016956113555281064,0.0,0.013893311642380193
MysqlIO.readSingleRowSet,0.011043595626188014,0.0014732923076595536,0.0012894563746288041,0.00017076923082081174,0.013977113539297183
MysqlIO.reuseAndReadPacket,0.15997329632094212,0.016537242334558902,0.01907206874412432,0.0023420229482142754,0.19792463034783964
MysqlIO.send,0.05302259893256177,0.01793851664419689,0.006957389870931988,0.0017683629033192468,0.0796868683510099
MysqlIO.sendCommand,0.027918328853455587,0.0,0.004050954400785253,0.0,0.03196928325424084
MysqlIO.setServerSlowQueryFlags,0.0034906246838644233,0.002381915966158404,0.0004009467715856311,0.00013361344548791428,0.006407100867096373
MysqlIO.sqlQueryDirect,0.030054997413135914,0.008788911689385044,0.0033171460395792986,0.0009543257917904894,0.043115380933890744
MysqlIO.unpackField,0.05751470596873481,0.05425196340716539,0.006242641595240039,0.0017377132881251773,0.11974702425926542
MysqlIO.useBufferRowExplicit,0.0,0.0048394254954497755,0.0,0.0007329843246925156,0.005572409820142291
MysqlIO.versionMeetsMinimum,0.0,0.0,0.0,0.0,0.0
NonRegisteringDriver.connect,0.0,0.18204733333550394,0.0,0.015559999997397728,0.19760733333290167
ParseUtil.encodePath,0.0,0.03865566666354425,0.0,0.004719999999603411,0.04337566666314766
Phase.chooseTransaction,0.0,0.0,0.0,0.0,0.0
Phase.isLatencyRun,0.014111661861119895,0.0,0.0020307712776143853,0.0,0.01614243313873428
Phase.totalWeight,0.0,0.0,0.0,0.0,0.0
PreparedStatement.checkBounds,0.011141112924044898,0.0,0.0015636825017972,0.0,0.012704795425842097
PreparedStatement.execute,0.0047802628412101835,0.0,0.0006480787860893558,0.0,0.005428341627299539
PreparedStatement.executeInternal,0.06619455228653763,0.002674770370276287,0.007559556339027071,0.00036666666662500013,0.07679554566246599
PreparedStatement.executeQuery,0.07878872869115669,0.005813464587112577,0.008202078895538669,0.0007291617932720497,0.09353343396707998
PreparedStatement.fillSendPacket,0.013807595427264,0.012682099885659921,0.0016509803907527906,0.002081100721927405,0.03022177642560412
PreparedStatement.setInternal,0.08437272430920767,0.015239290326113975,0.009302397332815605,0.0018730541957570589,0.11078746616389432
Procedure.getPreparedStatementReturnKeys,0.011130005681985756,0.0037555113641164184,0.0019321383311096943,0.0004448295453722963,0.017262484922584167
RandomDistribution$Flat.nextLongImpl,0.0031893953181894065,0.0,0.0003582895111233935,0.0,0.0035476848293128
RandomDistribution$FlatHistogram.nextValue,0.0066730509911957355,0.002811748792016924,0.0006933734393364232,0.00031884057966965264,0.010497013802218737
ReadAheadInputStream.available,0.0021400171857053588,0.002927848484956264,0.00028867712348704035,0.00033500000008092627,0.005691542794229589
ReadAheadInputStream.fill,0.022625870275319523,0.003289568518488927,0.0025903865223708997,0.00047677777775216205,0.02898260309393151
ReadAheadInputStream.read,1.0058357186109534,0.1325054059818173,0.12342186633024704,0.018000977146139786,1.2797639680691577
ReadAheadInputStream.readFromUnderlyingStreamIfNecessary,0.05505082096902773,-0.0019311125823484668,0.006401848710642756,-0.0002760606070682332,0.05924549649025379
ResultSetImpl.<clinit>,0.0,0.06105533333417649,0.0,0.0028549999988172203,0.0639103333329937
ResultSetImpl.<init>,0.10504639616871758,0.014647190909922992,0.013052816517218298,0.0023031103284735194,0.1350495139243324
ResultSetImpl.checkClosed,0.009533053044793145,0.0,0.001490162250776485,0.0,0.011023215295569629
ResultSetImpl.checkColumnBounds,0.0,0.006556928571496558,0.0,0.0005496428571599868,0.007106571428656544
ResultSetImpl.clearWarnings,0.004789984567219064,0.0,0.0004730135875115291,0.0,0.005262998154730593
ResultSetImpl.close,0.0,0.0,0.0,0.0,0.0
ResultSetImpl.getExceptionInterceptor,0.01601521140066501,0.0,0.00244970549495257,0.0,0.018464916895617578
ResultSetImpl.getInstance,0.005817150270676088,0.0017845555553249715,0.0006550995419515089,0.00022476190485851093,0.00848156727281108
ResultSetImpl.next,0.0,0.001814028846218627,0.0,0.0002591826923190428,0.00207321153853767
ResultSetImpl.realClose,0.018402199873109457,0.0016313068180434955,0.0023327782428644037,0.00021528409086551452,0.022581569024882873
ResultSetImpl.setDefaultTimeZone,0.050015885353333914,0.0020345079363939702,0.007341167655847886,0.0002615873016005569,0.059653148247176324
ResultSetImpl.setResultSetConcurrency,0.03839937252025631,0.005281411376573073,0.005008087074768446,0.0009189597901508246,0.04960783076174865
ResultSetImpl.setResultSetType,0.03604083133179449,0.0,0.003703689334670769,0.0,0.039744520666465256
ResultSetImpl.setRowPositionValidity,0.0,0.0,0.0,0.0,0.0
Results.writeAllCSVAbsoluteTiming,0.6467667456874275,0.0,0.0774210896725694,0.0,0.724187835359997
RowDataStatic.size,0.002986268482882917,0.0,0.0004696459956185665,0.0,0.0034559144785014837
SQLError.createSQLException,0.020266494252866307,0.0,0.002377469568806848,0.0,0.022643963821673156
Session.<init>,0.22165933333356708,0.0,0.028165000003355086,0.0,0.24982433333692217
SessionContext.<init>,0.08492033333459402,0.0,0.015129999997346506,0.0,0.10005033333194052
SingleByteCharsetConverter.<clinit>,0.0,0.7535851333309741,0.0,0.02840200000209734,0.7819871333330715
StatementImpl.checkClosed,0.0,0.0,0.0,0.0,0.0
StatementImpl.clearWarnings,0.011757867480965769,0.0,0.001549169227406786,0.0,0.013307036708372555
StatementImpl.closeAllOpenResults,0.023628652538585895,0.005262184615891714,0.003140144241412771,0.00040799999976745603,0.03243898139565783
StatementImpl.createStreamingResultSet,0.005979770429108577,0.0,0.0008560052391709093,0.0,0.006835775668279487
StatementImpl.removeOpenResultSet,0.007188165139692558,0.0,0.000805057886491315,0.0,0.007993223026183873
StatementImpl.resetCancelledState,0.0,0.005068615384036573,0.0,0.00011472527494533806,0.0051833406589819105
StrSubstitutor.replace,0.0,0.03721499822440322,0.0,0.006667832858681057,0.04388283108308427
StreamEncoder.flushBuffer,0.032735701495919395,0.0,0.004310561957922051,0.0,0.037046263453841446
StreamEncoder.implFlushBuffer,0.07473166903392152,0.0,0.008765851284885866,0.0,0.08349752031880739
StringUtil.join,0.06296210464416713,0.0,0.007283910014948964,0.0,0.07024601465911609
StringUtils.getBytes,0.005918125707996972,0.0,0.0005896356539756325,0.0,0.006507761361972604
SubmittedProcedure.<init>,0.0,0.0,0.0,0.0,0.0
SubmittedProcedure.getStartTime,0.016576235015746094,0.0,0.002466933221175616,0.0,0.01904316823692171
ThreadBench$TimeBucketIterator.calculateNext,0.04016271292220529,0.0,0.005272920100965941,0.0,0.04543563302317123
ThreadBench.runRateLimitedBenchmark,0.0,0.015042611110402504,0.0,0.0023960416671494986,0.017438652777552
ThreadBench.runRateLimitedMultiPhase,0.08314613219062383,0.048229221153843135,0.010790068003084182,0.009721730769167781,0.15188715211671894
Tokenizer.parseTokens,0.04498299999977462,0.1082165429519315,0.0,0.011557201374893123,0.16475674432659926
Tokens.<clinit>,0.0,0.0746904421866058,0.0,0.004530859922959573,0.07922130210956536
TraceTransactionGenerator.nextTransaction,0.0,0.0009772840237379976,0.0,0.00017005917164993048,0.0011473431953879282
TransactionSelector.readAll,0.04683433333411813,0.16842114359282798,0.0005999999993946402,0.010149313647148127,0.22600479057348888
TransactionSelector.readNextTransaction,0.0,0.0453494457717897,0.0,0.0032557590917923693,0.048605204863582066
TwitterBenchmark.makeWorkersImpl,0.0,0.038506052830423465,0.0,0.007689056603758561,0.04619510943418203
TwitterWorker.doSelectNamesOfPplThatFollowMe,0.009432428872846536,0.009355815046385822,0.0008362727120784702,0.000987981741948835,0.020612498373259666
TwitterWorker.doSelectTweetsForUid,0.0,0.003186030769183373,0.0,0.00019015384616348176,0.003376184615346855
TwitterWorker.executeWork,0.09594389521621795,0.01679472151537159,0.012017757948430742,0.002434760972448529,0.1271911356524688
URLClassPath.findResource,0.0,0.045422545327521734,0.0,0.007693397677556244,0.05311594300507798
URLClassPath.getResource,0.05489242254600828,0.0,0.006813424254545446,0.0,0.06170584680055373
UTF_8$Encoder.encode,0.03023030232134849,0.003698500000329939,0.003158257611094706,0.0004194230770316119,0.03750648300980475
UTF_8$Encoder.encodeArrayLoop,0.0416336622246438,0.0,0.004947333877186905,0.0,0.0465809961018307
Worker.doWork,0.22555493381584837,0.012769412628816996,0.02861326306606347,0.001749863407036702,0.26868747291776557
Worker.getProcedure,0.019913305713371642,0.0,0.002451518469264762,0.0,0.022364824182636404
Worker.rng,0.004436823529544364,0.0,0.0005817647057614332,0.0,0.0050185882353057975
Worker.run,0.19991712106398488,0.03241978987851186,0.02415538173945887,0.004676513407302566,0.2611688060892582
WorkloadConfiguration.getTraceReader,0.0,0.0,0.0,0.0,0.0
WorkloadState.addToQueue,0.005369692885366183,0.02702329807568906,0.0005737987892123867,0.0054923076921533295,0.03845909744242096
WorkloadState.fetchWork,0.08739146315293145,0.02881438585912272,0.011192075332185282,0.00359202310077709,0.13098994744501652
WorkloadState.finishedWork,0.02841492264355523,0.008753022726357978,0.004123513897477933,0.0014330113637532288,0.042724470631144366
WorkloadState.getCurrentPhase,0.06632144679835139,0.06322347807802908,0.00841538776361591,0.011647960890466024,0.1496082735304624
WorkloadState.getGlobalState,0.02721957987488595,0.0012942564103585214,0.00336777342423629,0.0001053846154275398,0.031986994324908306
WorkloadState.stayAwake,0.0,0.006416771181435914,0.0,0.0006094456254505883,0.007026216806886502
XMLEntityManager.expandSystemIdStrictOff,0.0,0.04844255070720135,0.0,0.0021250106119474104,0.05056756131914876
ZoneInfo.<clinit>,0.04569499999828015,0.0,0.005514999997103587,0.0,0.05120999999538374
ZoneInfo.getTransitionIndex,0.0,0.0,0.0,0.0,0.0
