method,RefEnergy,CoAppEnergy
Strings$py.test$8,15.758445999935038,26.91467956570633
Arithmetic$py.test$5,9.681992420253316,21.430723361230907
Strings$py.test$5,9.492781922781823,16.211366683063687
Arithmetic$py.test$2,8.272825832904108,17.418820543968312
Arithmetic$py.test$8,7.5824646093406365,17.279068399075268
Constructs$py.test$2,7.032092747245231,12.235753566953138
PyType.fromClass,6.634579596250947,14.019230440575573
Arithmetic$py.test$14,5.799733665543302,13.942654294066452
PyFrame.getlocal,5.765864589427117,12.406662545812088
Lists$py.test$2,5.421924802616234,10.548757419252258
BaseParser.setupParser,5.375782457059731,10.294509650688825
Unicode$py.test$5,5.004720952626268,9.446920522097463
PyFrame.setline,4.595578060490478,7.615935646791625
PyFrame.setlocal,4.473114217226366,8.648683232735094
Tuples$py.test$5,4.405970125747087,8.4423197619275
Arithmetic$py.test$11,4.238949490165041,6.443548829941528
Strings$py.test$11,3.989169700205756,5.825434612207572
Numbers$py.test$2,3.871670756273424,7.168484954076465
PyFrame.<init>,3.0551909242156783,5.926866804074288
Lookups$py.test$7,2.868019935661512,5.823854626612562
Lookups$py.test$12,2.7873253885747755,5.886730535293959
Lookups$py.test$2,2.787324737183144,6.485515153341272
Lookups$py.test$22,2.6837169154275755,3.591304990964625
Dict$py.test$14,2.677325191046356,6.701569595374541
PyStringMap.__finditem__,2.5788599941910486,8.463604769340726
Lookups$py.test$17,2.549010397080904,6.203609361980008
Lists$py.test$8,2.383398314604137,4.649861412423549
Unicode$py.test$17,2.3465110797477897,3.7817902399121266
Dict$py.test$5,2.2647690948939005,4.8126262640062585
Numbers$py.test$11,2.245828965241857,3.7411414563034895
Constructs$py.test$8,2.209338361047406,3.578650877807409
Numbers$py.test$5,2.2090138902704406,5.1443953825203135
Strings$py.test$20,2.1778543762873137,4.1461602472158265
Strings$py.test$2,2.08607429288108,3.962591180533912
Dict$py.test$2,2.0777064544436668,4.782379004824128
PyObject.getType,2.0089920685732627,4.62488057276404
Dict$py.test$8,1.9192602965384824,3.8599424476271538
Numbers$py.test$8,1.8827166435896399,4.6524204202289186
Exceptions$py.test$2,1.878805097329276,3.023982283682891
Dict$py.test$11,1.8548636769489808,3.382959136091139
Calls$py.test$2,1.8431002909466137,4.107053492997654
Exceptions$py.test$5,1.815516093333412,4.070597219878638
PyList.pyget,1.779415394096037,3.9062968600510226
PyBaseCode.call,1.6612035536658123,4.729730883837084
Unicode$py.test$20,1.642107823737068,3.3318308611053618
PyObject.<init>,1.6206729976557699,3.0310965283729447
PyString.str_title,1.6124813151043962,2.433722372770031
Calls$py.test$13,1.5492724783831417,2.0592111159376527
PyType.lookup,1.5432007712640643,1.9396345356718148
PythonParser.atom,1.4463330509436607,1.272071142242732
PyFrame.doGetglobal,1.4397802143025318,2.4322505343359326
Py.getThreadState,1.4255174647395308,3.482127616710615
PythonParser.<clinit>,1.4029511302202635,2.0385887765618502
PyTableCode.call,1.3410286657325363,3.0175592018660837
Constructs$py.test$5,1.222221999727712,2.5306537962927247
PyFrame.getglobal,1.1434521016504966,1.6956137049238706
Strings$py.test$14,1.1410982289771407,3.5490825520243687
PyObject._gt,1.094044009625858,1.4995415409480992
Tuples$py.test$2,1.0779647949524804,1.825089817846368
PyObject._eq,1.0378176623573647,1.775803084916115
PyUnicode.<init>,1.0331750082662206,0.9741978841361959
unicodedata$py.init_unicodedata$4,0.9974286058340176,2.887207669520727
PyObject._lt,0.991432027285076,2.6263643294016488
PySequence.<init>,0.9322353185157836,1.9961048976578573
Strings$py.test$17,0.9291540770006872,1.5005812037249069
PyInteger.divide,0.92546121651366,1.6227154092730711
Py.newInteger,0.8917330773291655,1.1125274522133537
Calls$py.test$16,0.8819740014525286,2.161742691132631
unicodedata$py.init_east_asian_width$5,0.8762274294380473,1.6048597967112193
RewriteRuleElementStream.<init>,0.8714155307445095,3.1147127606479974
Unicode$py.test$8,0.8635312149799462,1.3515744459129375
PyObject.__call__,0.8215534740646754,1.3264358929853302
bisect$py.bisect_left$4,0.7978750334812497,0.957419757335619
PyTuple.<init>,0.7589203970485339,3.773837926793479
Module.PyCode,0.7546551487545153,1.0532585390994171
imp.import_name,0.7476454807859361,1.4897824721308468
PythonParser.trailer,0.7381719622488181,0.4843897521025858
Unicode$py.test$11,0.7226254290362034,2.0540444453199465
ClassReader.accept,0.6965323929841947,1.247166582577925
PyList$list_append_exposer.__call__,0.6817204309395319,0.7705491196155478
PyArray$PyExposer.<init>,0.6763892521292092,0.9159812073124559
PyObject.__getattr__,0.6755088808162952,0.9915753505228264
Py.<clinit>,0.6709931600640637,0.20951811473977028
BuiltinFunctions.__call__,0.6577776006056967,0.6479846578676883
Benchmark.fileFromInputStream,0.6367062646477148,0.12801684562973414
Instances$py.test$2,0.6164829206700981,1.0465503842636006
PyType.isSubType,0.6112861402799461,1.2491248132546415
PackageManager.checkAccess,0.5867438676894813,1.2255615650585792
PyObject._try__cmp__,0.5855835680040157,0.8444671849415469
PythonParser.<init>,0.5799157052337234,0.5557733063430258
Frame.a,0.5692170322556733,1.1567864826189602
PyList.list___len__,0.5664076527293778,0.9682669925491028
ThreadStateMapping.getThreadState,0.5639167803067903,2.2187794865580095
PySequence$1.len,0.5193418515858533,0.7438971860008032
PyDictionary.__finditem__,0.5165386630184979,1.0080147439050615
DFA.predict,0.5075613028978229,0.4872477731575805
PyDictionary.<init>,0.5072837343715297,0.7459087623820665
PythonParser.comparison,0.4943374251601026,0.30478460162305665
NewInstances$py.test$3,0.4903959090843658,0.4054181332893511
PyInteger.canCoerce,0.49034670007474795,0.4636687168834404
PyObject.object___findattr__,0.4892507890282815,0.7920401499684162
Unicode$py.test$2,0.4844592149364729,0.9179908050566428
PyFunction.__call__,0.4762613761777357,0.7867635767546497
PythonLexer.mTRIQUOTE,0.4631300281330131,0.6046874687994853
PyString.str___add__,0.4628505477874677,0.7718797991063743
CommonTokenStream.fillBuffer,0.4620878639750389,0.7664584964843301
unicodedata$py.get_numeric$3,0.4618930806382545,0.4749675555541923
PyObject._div,0.4468071080141269,1.1842719923779002
PyList.size,0.4454353466959883,0.6387419866459692
__builtin__.fillWithBuiltins,0.4436626441901053,0.9942577166989832
PythonParser.term,0.44265023440462997,0.6053382700537925
PyTuple.getslice,0.4300564352213303,2.019711712374918
PyObject.isDataDescr,0.4273681253794835,0.8322247344077627
SequenceIndexDelegate.fixindex,0.42685840096636696,1.0078966977644177
PythonLexer.<clinit>,0.4219364235890421,0.3878759792638286
PyFrame.getLocals,0.4217664513328068,0.8995946315609273
PyUnicode$PyExposer.<init>,0.41787610761877736,0.8071933741560213
unicodedata$py.get$11,0.3938713651016056,1.5905972267967785
PyInteger$PyExposer.<init>,0.3905126230626016,0.13648597152332534
PyFastSequenceIter.__iternext__,0.3873208571421856,0.5288750687469232
Chaperone.retire,0.3864549510277732,0.2800554996442021
PyType.fastGetDict,0.3846140258326534,0.6074476098512899
PythonParser.power,0.3789432198063109,0.2411495616666472
PyXRange.pyget,0.3763370778273975,0.5539286925420197
PySlice.indicesEx,0.373097336751807,0.5173407419510556
MakeProxies.makeProxy,0.3651136422464989,0.10300490468872901
PythonParser.test,0.3623357373803007,0.4424109901091712
PyString.str_isupper,0.35537977900692297,0.07993399999833901
Generic.list,0.3504400629317881,0.2702197013463222
PyStringMap.__setitem__,0.34896195882255066,0.164602384940357
PyType.invoke_new_,0.34859267900296265,0.7008196362966881
PythonParser.factor,0.3474053990621113,0.1995738694156486
PyObject._ge,0.3439418305246392,0.4613562393545214
PyString.coerce,0.33753599216574176,0.3583990130113721
PySystemState.<init>,0.32236511958913894,0.03171600000152668
AttributeInfo.read,0.3218638297055272,0.2664261401702802
PyString.str_islower,0.3193735513658455,0.5097575438221484
PyString.atof,0.31856004762203305,0.1631228201695764
PySequence.sliceLength,0.31231202589910484,1.4392821621050456
CachedJarsPackageManager.getZipPackages,0.3096895327537926,0.642811366251391
AnnotationReader.<init>,0.30697509822481983,0.4576134519469647
PyJavaType.wrapJavaObject,0.30387069944413597,0.18669553109163733
ClassReader.readConst,0.3022728493937428,0.09177233333684852
PyInstance$PyExposer.<init>,0.30114933333000704,0.4327274189552559
PythonParser.expr,0.3007578433296029,0.6965302599243497
POSIXFactory.loadLibC,0.2985307052759571,0.4754980758223698
Calls$py.test$27,0.2959576176037664,0.3927965725778749
CachedJarsPackageManager.addZipEntry,0.2905026984970465,0.3719121417767369
unicodedata$py.get_int$1,0.2865455380477746,0.24618360059150385
Native.initIDs,0.28585300823118603,0.8119166765072838
Module.compile,0.2829506835451131,0.4966673648102257
PyObject.__getitem__,0.27837556074846903,0.5065581521957911
PyObject._cmp_unsafe,0.27837026355251066,0.4055983372809357
ClassPool.compress,0.27728100512111953,0.1875159654777766
PyObjectDerived.<init>,0.2759343112156742,0.15164477776973706
DFA.unpackEncodedString,0.2668481829410868,0.4452615834367997
PyString.str___lt__,0.2654643660723235,0.4454735342190495
unicodedata$py.get_codepoint$9,0.2654329555367162,0.5803265997700561
PythonTokenSource.enqueueHiddens,0.26370218162863346,0.08799959279845446
PythonParser.suite,0.2615054670057351,0.2897439141640251
CodeCompiler.set,0.2580996058319476,0.0
Imports$py.test$2,0.25524256013296226,0.4705984198666815
PyInteger.int___add__,0.2538354881153404,0.2035442042995841
PythonLexer$DFA44.specialStateTransition,0.24688526241119604,0.6445226407425306
PythonParser.and_test,0.2413307528762723,0.1845881959483744
PyFloat.<init>,0.2409126566100893,0.2978052369940967
PyBaseString.<init>,0.23923808306236105,0.6210248425471405
PyString.getslice,0.23885644568249065,0.21595572137781674
PyInstance.instance___setattr__,0.2370837436401701,0.20917233332875185
PyClass.__findattr_ex__,0.2369122740742939,0.20374378178331248
PythonParser.listmaker,0.23517914645617705,0.040043111110106916
__builtin__.range,0.2339117325331613,0.12316773921135445
CommonTokenStream.LT,0.2295197412193858,1.1289548602228754
PyString.str_isspace,0.228227939393202,0.041800571426782486
For$PyExposer.<init>,0.2259097129613447,0.1211901259431401
PyBaseException$exposed___new__.createOfSubtype,0.2253741043225869,0.27210424918649834
PyString.str___eq__,0.2249213333385948,0.3735181873020467
PyUnicode$unicode_isdigit_exposer.bind,0.2199878958346062,0.07868621406708029
PyString.<init>,0.21902032199950505,0.6714054783731175
PyInteger.coerce,0.2182621558771085,0.464643537966005
Imports$py.test$8,0.2169029311895418,0.19401173245583173
Lists$py.test$5,0.21619684886173798,0.0
PythonParser.except_clause,0.21391651351468927,0.211197315221626
PythonParser.testlist_gexp,0.21370661080093872,0.41885377834217663
If$PyExposer.<init>,0.21188074320706207,0.2224635684291196
PyInteger.int___sub__,0.20925035974249726,0.0
Instances$py.__init__$7,0.2086075549136447,0.2454755142855444
PyFile$PyExposer.<init>,0.20825251534818465,0.21154745637579836
PyInteger._sub,0.20675905879882933,0.15628634406897718
BaseTreeAdaptor.nil,0.20646900000004584,0.09594174569874032
ArgParser.<init>,0.2056770001085092,0.2821855666575478
Unicode$py.test$14,0.2053736866522836,0.19174386421230352
PythonParser.expr_stmt,0.20152266666930999,0.52168394429961
Yield$PyExposer.<init>,0.20038032613564635,0.411502825669463
Py.newLong,0.19925147338740845,0.3253391948591093
PyObjectDerived.__setattr__,0.1988015415103169,0.2610864117745775
RuleBasedBreakIterator.following,0.19818466812361468,0.0
PyInstance.__findattr_ex__,0.19674652395766007,1.1645361963350436
PySequence$1.getItem,0.1958072996881905,0.6313416759333355
Calls$py.f$28,0.19560096020507253,0.44565682463878015
PyLong.canCoerce,0.19498068813237887,0.6805221733774048
PythonParser.and_expr,0.19475199999578766,0.12157800000022688
PythonTokenSource.insertImaginaryIndentDedentTokens,0.1944318179491007,0.19013188250416274
Calls$py.call_function,0.19286002383867254,0.1534020437119153
Generic.concurrentMap,0.18590135333958824,0.21439333528516336
PyObject._sub,0.18563687250599767,0.15034200000566975
PyString.str_partition,0.18474944443975494,0.054539851845927634
ArgParser.getList,0.18401439703624245,0.19478854769457354
imp.readCode,0.1833613333340812,0.06236944376741323
PyLong$PyExposer.<init>,0.18189280329161125,0.3414008183446382
unicodedata$py.get_yn$2,0.18152054544925428,0.0
PythonParser.try_stmt,0.18143090203910525,0.11209194612945794
PythonParser.return_stmt,0.18052676190321407,0.14577365908875012
ImportFunction.__call__,0.17892798849339836,0.2219043662429711
PySlice$PyExposer.<init>,0.17788018490840452,0.17544228777095222
ClassReader.<init>,0.1769158927607966,0.14989125025672864
PyInteger.int___mod__,0.17639499999495456,0.0
PythonParser.arith_expr,0.17610082499306906,0.8657448480452774
PythonLexer.mCOMMENT,0.17257722007630905,0.2799345745790853
CommonToken.getType,0.17104898759712042,0.0
PythonParser.or_test,0.17016624349388393,0.17577633334180326
Py.ImportError,0.1684397777765601,0.03729985714172861
PythonParser.stmt,0.16422608637732278,0.14283739131091006
PyException.isExceptionInstance,0.16401959897040053,0.09738708333649508
PyFloat$exposed___new__.new_impl,0.16248611618243267,0.2537105924441106
ConstPool.readOne,0.1620085802569705,0.25452110884362944
PyFloat$PyExposer.<init>,0.15946541416808646,0.17037352544437828
PyString$PyExposer.<init>,0.158476371431884,0.016777747424518662
PyUnicode.unicode___add__,0.15727409145864216,0.4809536916426704
PyFloat.__sub__,0.15724669786832818,0.0
UnsafeFieldAccessorFactory.newFieldAccessor,0.15644818128999038,0.23259841395923586
Num$PyExposer.<init>,0.15534333333016548,0.0
PyList.setslicePyList,0.15470899999976004,0.07452300000052976
US_ASCII$Decoder.decodeArrayLoop,0.15437162695693565,0.4751382153815658
ClassWriter.b,0.15282566666636352,0.07777466667054493
PyInteger.getValue,0.1526896512840026,0.3419543799282169
AST.<init>,0.15150563256265925,0.0
ZoneInfoFile.load,0.1513817254186254,0.042490370370311815
exceptions.classDictInit,0.1513701755508984,0.037732552561878976
ClassDef$PyExposer.<init>,0.1509516666640896,0.0180812307699876
SequenceIndexDelegate.checkIdx,0.14827203317084542,0.1944604275548306
WrappedIterIterator.hasNext,0.1482497500011151,0.058746970510863
PyString$str_title_exposer.bind,0.14790112324103272,0.2088103333328036
imp.compileSource,0.1474453333285055,0.4026927220214512
PyComplex.canCoerce,0.1470514182412202,0.2334697271509347
PyFunction.function___get__,0.14572502260279013,0.10040951500064617
PyComplex.complex___add__,0.14493089787336094,0.17749998571089548
SyspathJavaLoader.replacePathItem,0.14461058333411833,0.0
PythonParser.break_stmt,0.14406149999801224,0.10848534963214763
arguments$PyExposer.<init>,0.14336694537182965,0.3912363672257284
PyException.doRaise,0.14328833333274812,0.2429213715229011
operator.classDictInit,0.142726406597697,0.0
PyType.type___call__,0.14270372997512346,0.0
Calls$py.g$5,0.1423792954051526,0.20474800001708596
PyObject._basic_add,0.14175294500011054,0.3463469316968031
PyInteger.int___cmp__,0.1411423593702411,0.29569970659882217
PythonLexer.mCLASS,0.14098633333499794,0.0
DacapoClassLoader.loadClass,0.14072835896947186,0.047071499999704725
PyComplex._sub,0.14070770000600885,0.05566077570698027
PyFrozenSet.<clinit>,0.14022699999622998,0.0
PyBaseException$PyExposer.<init>,0.13956628786951192,0.03547359057177603
ClassPool.get0,0.13853051007026682,0.0
PythonParser.simple_stmt,0.13808866666598382,0.1363824137483094
os$py.from_jnastat$15,0.13794100000268372,0.0
ClassWriter.a,0.1370692173639918,0.262870888883501
PythonLexer.mTokens,0.1362805192911775,0.1275581045641358
PyFile.createBuffer,0.1340947814476363,0.03819481745490715
PythonParser.exec_stmt,0.13331395557381115,0.06910099999974287
PyList.pyset,0.13324754166690886,0.13939656564242608
PyObject.__not__,0.1319559999998698,0.1041539505853724
ISO_8859_1.newEncoder,0.13170650673043732,0.0
ScopeInfo.<init>,0.1312663435873596,0.0
Return.traverse,0.13055066666856874,0.12648658333132012
MethodAccessorGenerator.generate,0.12952694949291818,0.2708878985508225
PythonParser.raise_stmt,0.12897207603238575,0.03137630705197024
Call$PyExposer.<init>,0.1285655632777917,0.17289444444173166
Lexer.emit,0.12824966729275333,0.08242837671679877
PythonParser.file_input,0.12817366667028787,0.08051533333612798
PyObjectDerived.dispatch__init__,0.12684600000405527,0.27885705519730103
SequenceIndexDelegate.checkIdxAndFindItem,0.12642923540325265,0.2819696742521228
ClassFile.addMethod,0.1264272202621057,0.5353574993069917
PyEnumerate.<clinit>,0.12636676190249135,0.0
PyObject.fastGetDict,0.12628500000209894,0.15233058570787802
imp.import_logic,0.12575165463911325,0.1632820000098339
PyList$list_append_exposer.bind,0.12488800000441685,0.31610413972849805
imp.import_next,0.1243747333304782,0.6149812090042275
__builtin__.globals,0.1238639393947475,0.0
ConfigFileTokenManager.jjMoveNfa_0,0.12378533333200414,0.07838403799650444
PySequenceIter.__iternext__,0.12289013770195813,0.2301404399544756
CodeCompiler.seqSet,0.12237599999995533,0.13330578333128262
PyInteger.int___mul__,0.1223034974726299,0.4788935389965111
ClassWriter.<init>,0.12157627056078107,0.06212305063696241
PyFloat.float___mul__,0.1215036666665886,0.204486428652604
RuleBasedBreakIterator.setText,0.12135799999911492,0.0
CachedJarsPackageManager.listToString,0.12124768609015113,0.353962047726869
PyComplex._mul,0.12101200000082216,0.04697759837081925
PyType.type___new__,0.1204950000004222,0.03926594871863458
CommonTokenStream.LB,0.120384333335096,0.07378277339912892
PyDictionary.dict___setitem__,0.1203243333317611,0.32503127005940546
PyException.isExceptionClass,0.12005047599369074,0.22852550926243698
PyDictionary.dict_iteritems,0.12003855723391285,0.0
JavaImportHelper.buildLoadedPackages,0.11978046243553706,0.4314002160602255
JRELocaleProviderAdapter.getBreakIteratorProvider,0.1194802237149831,0.2584136242002232
PyTuple.fromArrayNoCopy,0.11894916666602108,0.3456281205116284
CommonTokenStream.skipOffTokenChannels,0.11884999999892898,0.10544200000246444
FieldWriter.a,0.11713397679218625,0.10816612121062012
List.<init>,0.11693633333379692,0.0
__builtin__.ord,0.11691933332986082,0.11311366756109227
excepthandler$PyExposer.<init>,0.11681809579630616,0.0
PyString$str_istitle_exposer.bind,0.11643181027125367,0.08485266666078435
PyClass.classobj___new__,0.11603266379548036,0.0
jython.newInterpreter,0.1159238018630246,0.0
CommonToken.setStopIndex,0.11577466666494728,0.0
PythonParser.import_name,0.11513946956527048,0.0
Code.sigSize,0.11484831555322865,0.0
PyString.str_istitle,0.11458266666522833,0.3357054754013279
ScopesCompiler.visitFunctionDef,0.1144391860212998,0.0
PyObject.equals,0.11432637037037068,0.08369349459954438
PyFloat.float___hash__,0.11430970298442905,0.3976776666719767
PyFunction$PyExposer.<init>,0.11410499999813813,0.2404127704293194
GrammarActions.castExpr,0.11410233333541933,0.0
PyString.str___ge__,0.1129706556673296,0.10904399999283973
BreakIteratorProviderImpl.getBreakInstance,0.11179133333340964,0.2007982184460083
PyClass.__setattr__,0.1109487263331716,0.7177535058491991
PyUnicode$unicode_isspace_exposer.bind,0.1103523333343522,0.03997871543117969
PyJavaType.init,0.11010198666887287,0.5725940609186232
URLClassPath$JarLoader.getResource,0.1100058715456671,0.07027153968235887
PySequence.seq___setslice__,0.10952966666809516,0.2140871249460576
PyMethod$PyExposer.<init>,0.10947941201428964,0.2255628857767433
PyUnicode$unicode_isspace_exposer.__call__,0.1091674271944458,0.053199132324143375
PyObject._basic_sub,0.10860838239440963,0.5346816811683182
PythonParser.small_stmt,0.10850874685898462,0.07619200000044657
RewriteRuleElementStream.add,0.10777251851929273,0.3709862511486081
Imports$py.test$5,0.10748733333518123,0.5108834563153579
TextIOBase.readChunk,0.10720999999951647,0.0
PyString.str___gt__,0.10670561753413543,0.13557054609020114
PyLong.long___div__,0.10660479999884652,0.01965323076896871
PyString.atoi,0.10601966666460308,0.4323127913108999
ScopeInfo.cook,0.10564771929465787,0.0
aliases$py.<init>,0.10546939266144507,0.11465500000485915
PyString.str_isalnum,0.10450752945733653,0.30575580836210997
ClassWriter.visitMethod,0.10389425746386116,0.5273795952598224
CodeCompiler.visitNum,0.10341999999945982,0.0
PythonParser.term_op,0.10312333333422433,0.0
Module.write,0.10270231406340292,0.0
PySequence$1.<init>,0.10263119510581377,0.03272844444210123
os$py.get_os_type$1,0.10237733333633514,0.0
LongVector.elementAt,0.10203200000008414,0.04317026315881154
PyReflectedFunction.addArgs,0.10203033333527854,0.0
PythonParser.comp_op,0.1019764334637074,0.1117106388880226
PyObject.__get__,0.10157333333578816,0.0
PyUnicode$unicode_isnumeric_exposer.<init>,0.10104566666753577,0.0
PythonParser$term_return.<init>,0.10100977777727638,0.0
PythonLexer.mNAME,0.10066166666607992,0.2455220436810883
PyOverridableNew.new_impl,0.1001876666608344,0.10063142092646626
PyNone$PyExposer.<init>,0.09982126060872266,0.0
PyComplex.complex___div__,0.09961433333470872,0.07002286357447733
PyUnicode.unicode_isupper,0.09901033333395996,0.0
POSIXFactory.loadLinuxPOSIX,0.09891666666347496,0.24851704073893416
PyObject._basic_mul,0.09878056410077704,0.11796766666581485
IfExp$repr_descriptor.<init>,0.09787709335531784,0.0
site$py.addsitedir$7,0.0971394920230384,0.0
zipimporter$PyExposer.<init>,0.09694832503799317,0.03963226666722525
unicodedata$py.digit$14,0.09688594101456943,0.0
Py.newBoolean,0.09562099999796676,0.364213622939402
Delete$PyExposer.<init>,0.09550039588569406,0.240242108726468
Library$Handler.<init>,0.0951995385451166,0.16809747957851695
PyObject.__gt__,0.09515258361136388,0.0
PyObject.delete_token,0.09410466468691124,0.04564372519240872
PyTuple.tuple_new,0.0935302541921702,0.2303126660660563
PyString.repeat,0.09251666666871944,0.0
PyFrame.setupEnv,0.0924833519410714,0.5306502290851974
GrammarActions.makeBoolOp,0.09164483598057896,0.20531906905446684
PyObject._is,0.091409933526289,0.2049884846189914
PyObject._ne,0.09102333333369944,0.2982961588334922
CodeCompiler.visitName,0.09079071410282663,0.2625492420394381
UniversalIOWrapper.read,0.09072365265056127,0.3193968980033673
PythonParser.not_test,0.090441666667175,0.09807750000042384
package$py.<init>,0.0902412403105305,0.0
Module.getScopeInfo,0.08993727800179797,0.0
PyObject.object___setattr__,0.08942174876863293,0.21519737778464876
URLJarFile$URLJarFileEntry.<init>,0.0893953333331107,0.0
GrammarActions.extractString,0.08910584615212147,0.0
MethodWriter.visitMaxs,0.08874499999789501,0.14910317933551742
PythonParser.xor_expr,0.0879302777785698,0.4748994866086671
PyFloat.float_new,0.08745116910244721,0.0
PyJavaPackage.addPlaceholders,0.08728466666677072,0.06122099999871958
__builtin__.cmp,0.08726704113956307,0.0
Py.initClassExceptions,0.08713142883085677,0.15657540520445415
SequenceIndexDelegate.getSlice,0.08636633333420225,0.12963172313802707
PyType.getProxyType,0.08590633332945193,0.0
MethodWriter.visitLabel,0.08584628571614822,0.040988518519076964
CodeFlag$1.iterator,0.0858046734248875,0.0
ProxyGenerator$ConstantPool.getFieldRef,0.08557300000150765,0.0
PythonTokenSource.nextToken,0.08551651428497277,0.06439381533885817
CommandLine$py.<init>,0.08528599999651001,0.0
ProxyMaker.callMethod,0.08504950467640626,0.05070218508276862
PyUnicode$unicode_isspace_exposer.<init>,0.08489347368339893,0.0
ANTLRStringStream.LA,0.08476820672103239,0.2732501847670036
PyXRange.<clinit>,0.08460499999879781,0.0
Py.newString,0.08379112779957472,0.14681753233773218
ConstantSet.getEnumClass,0.08359500000127201,0.0
PythonParser.yield_stmt,0.08306666666855259,0.057940358140855415
PyInteger.__div__,0.08206982302530412,0.0
Module.findConstant,0.08168806536253337,0.0
PyClass.lookup,0.0815990032233496,0.6421275574491898
PerfCounter.add,0.08153659259227829,0.08655303282525588
Index.<init>,0.08125388229628162,0.0
PythonParser$testlist_return.getTree,0.08099833333350641,0.0
PyUnicode$unicode_isupper_exposer.__call__,0.08096800000142441,0.0
zipimporter.<clinit>,0.0808792293544621,0.0
PyException.tracebackHere,0.08047120685674773,0.18984455716772933
Handler.parseURL,0.07974600000064433,0.16564588135635486
BaseNativePOSIX.<init>,0.0796506666689917,0.0
CommonTokenStream.consume,0.07906871799481224,0.16423573634292493
PyDictionary.dict_get,0.07854366666530646,0.0
PyObject$object___init___exposer.<init>,0.07797199999792306,0.048610836968702865
Expr.traverse,0.07790241904762554,0.0
PyDictionary$PyExposer.<init>,0.0778173333334659,0.10856333178316437
CommonTree.<init>,0.07757779166574133,0.0
SequenceIndexDelegate.checkIdxAndSetItem,0.07753828571419162,0.3878636415446596
PyUnicode.fromSubstring,0.07728668102980048,0.19845962432838765
Str$PyExposer.<init>,0.07720733333311121,0.02852879153997433
PyReflectedFunction.isPackagedProtected,0.0771626666658752,0.0
ConstantSet.iterator,0.07716133333209048,0.0
Gregorian.newCalendarDate,0.07704348521266344,0.09966210373168813
CtClassType.getInterfaces,0.07688315939938703,0.0
PyString$str_isalnum_exposer.bind,0.07663666666485369,0.0879461113461655
ANTLRStringStream.consume,0.07624917748950695,0.16218874604812147
Reflection.getCallerClass,0.07607033333382181,0.0961899243525444
PyComplex$PyExposer.<init>,0.07596666819991929,0.2631643501719676
Py.makeClass,0.07595399999991059,0.0953956666647476
TextIOInputStream.read,0.07584841895169635,1.8208847090843012
Time._timefields,0.07577466666649949,0.4224930059095285
StringIO$py.readline$11,0.07545338402739042,0.4116583333467739
PythonParser.augassign,0.07514945163478237,0.0
CodeAttribute.getMaxStack,0.07495240106190232,0.0
MethodWriter.visitLdcInsn,0.07485366666514892,0.06250722382008721
Subscript.<clinit>,0.0747433333308436,0.0
CachedJarsPackageManager.filterByName,0.07453394570430663,0.06081756862855114
PyTuple.size,0.07428905438477112,0.1377500875181525
ZoneInfoFile.<clinit>,0.07424205617893867,0.0
ANTLRStringStream.rewind,0.07410986666606427,0.1399836666660121
BinOp$PyExposer.<init>,0.07406048712190635,0.0
CommonTokenStream.LA,0.07394466666786077,0.2827351548354955
ImportFrom.accept,0.07388700000107443,0.0
PyList.<init>,0.07347899999876971,0.3889699405233679
PyObject._cmpeq_unsafe,0.07339778977425462,0.2599599858786648
PySequence$1.getSlice,0.07297399999697518,0.19874682809868105
Suite$PyExposer.<init>,0.07270539665375324,0.06430138888794723
PyString._isdecimal,0.07163800000125775,0.0
ArgParser.check,0.07150249999722291,0.1827218816789508
ParseUtil.encodePath,0.07143833333490572,0.0
Numbers$py.f$0,0.07131933333342506,0.0
unicodedata$py.category$16,0.07082105555592634,0.0
PyTraceback$PyExposer.<init>,0.07017030000206431,0.0
Native.<clinit>,0.06976966666479713,0.0
PythonParser.flow_stmt,0.06972866666183107,0.0
PythonParser.shift_expr,0.0696214726200041,0.5720256328928762
Py.newUnicode,0.06940666666681257,0.0
NoFieldException.getExpr,0.06933733333426062,0.0
PyFunction.<clinit>,0.06928194444400207,0.0
unicodedata$py.call_function,0.06905634847030734,0.2671834884499052
ProxyMaker.mapType,0.06895168702527933,0.0
PySlice.calculateSliceIndex,0.06893818182244572,0.0509331631404467
VisitorBase.visitStr,0.0687836546063101,0.0
ClassWriter.newNameType,0.06846526561449115,0.26936709054000674
Import.<clinit>,0.06845009620193143,0.0
PyObject.__repr__,0.06837666666797304,0.0
PyComplex.<init>,0.06832850000137114,0.2712853333299184
ASCIICaseInsensitiveComparator.compare,0.06769027681341631,0.14869196245142433
BaseParser.<init>,0.06766924901366148,0.0
PythonParser.del_stmt,0.06766699999813378,0.1341137754620042
PythonParser.synpred8_Python_fragment,0.06757833333297943,0.0
NumberFormatProviderImpl.getInstance,0.06757549742964955,0.0
GrammarActions.makeFor,0.06754171899504649,0.06329382540074192
__builtin__.intern,0.06677309999904536,0.0
PyUnicode$unicode_isalnum_exposer.__call__,0.06675193351272511,0.035854550622731615
SequenceIndexDelegate.checkIdxAndSetSlice,0.06634000000243151,0.06617646386199867
getopt$py.do_longs$6,0.06623733333253767,0.0
PyUnicode$unicode_upper_exposer.bind,0.06620433333470524,0.049305010596962864
ArgParser.asInt,0.066188095236915,0.14535441761754642
keyword$PyExposer.<init>,0.06579800000015114,0.1704426190510622
PySequence.__finditem__,0.0652381588187283,0.0
AttributeInfo.remove,0.06509566666015114,0.0
PyString.__add__,0.0649519965009365,0.05777683213910345
PySet$PyExposer.<init>,0.06479799999760871,0.3625514207812688
PythonParser$DFA37.<init>,0.06479119606726656,0.0
PyLong.<init>,0.06452137205906089,0.0
PySequence.__lt__,0.064285433334832,0.0
Py.unpackSequence,0.06422360632129533,0.19664333332487632
Assign.traverse,0.06383554838921357,0.0
PyString.str_new,0.06383378093644056,0.0
PyList.__len__,0.06379530854580273,0.2031029127186788
GrammarActions.makeTryFinally,0.06358424362432373,0.0
PyList$exposed___new__.createOfType,0.06347630769372559,0.12664804325017825
Calls$py.f1$4,0.06344600000011269,0.09868800000185728
ClassPool.getDefault,0.06344274959779672,0.036788592594179874
PythonParser.subscript,0.06305126985358397,0.12671622062039636
Generic.map,0.0629495477407689,0.00809073333281655
ClassWriter.visitField,0.06293266667004598,0.04189693333319156
PySlice.getStep,0.06286309091030322,0.1994719999947847
PySequence.seq___getitem__,0.06274645610041331,0.27867594471568724
PySystemState$DefaultBuiltinsHolder.fillin,0.06262225925645368,0.12798209258408458
Call.traverse,0.06260341181368351,0.09460548501742114
PyString$str_isspace_exposer.bind,0.0622460000013234,0.04503333333317035
PythonParser.list_for,0.06198932735685937,0.04859733333432815
FloatingDecimal$BinaryToASCIIBuffer.dtoa,0.061803106408055225,0.20993904855790926
PySequence.seq___setitem__,0.061762999997881714,0.07097652593523468
Type.getArgumentTypes,0.06169307407361446,0.0
Version.getVersion,0.061543686208952064,0.0
PyDictionary.dict_items,0.06111358687638965,0.0
PyObject$object___setattr___exposer.bind,0.06098733333055861,0.22562917914882416
Attribute$PyExposer.<init>,0.060978029885374034,0.09884866666531404
PyObject$1.<init>,0.0606276666640042,0.0
imp.importName,0.06021033333793941,0.0
Dict$PyExposer.<init>,0.06019800000285613,0.0
PythonParser.testlist,0.06007931502107065,0.14198752226980718
PyFloat.__div__,0.0600256666681768,0.044450355498731
ProxyGenerator.code_astore,0.05985433333262336,0.0
PythonParser$small_stmt_return.<init>,0.0598482500005654,0.0
Frame.b,0.05970700000276944,0.1888985819879906
PyString.str___len__,0.059621333336205375,0.1132923333425424
MethodWriter.visitFieldInsn,0.05956633333213781,0.0
PythonParser.synpred2_Python_fragment,0.05943233333528041,0.0
PyUnicode.getCodePointCount,0.059158750000278815,0.12703517511578585
PyObject$1$1.next,0.05900650000148744,0.20252764777725826
WrappedIterIterator.getNext,0.059003333335567724,0.0
PyInteger.int___div__,0.0589569999986755,0.11490601189861036
ClassReader.readLabel,0.0588731577588279,0.0
PyString$str_isalpha_exposer.bind,0.058826065114219235,0.0
PyString._isnumeric,0.05882482482312831,0.0
PythonParser.arglist,0.058811000000180975,0.12586105079958032
Javac.compileStmnt,0.05880632798650987,0.0
Future.<init>,0.058579385039360624,0.07469992660451771
PyFloat.float___sub__,0.05855266666427875,0.26049439410339703
PyModule$PyExposer.<init>,0.05834933333244406,0.07774119047744099
ParseUtil.canonizeString,0.057588888886837386,0.02770699999954169
GrammarActions.makeAssignTargets,0.05718752701316882,0.0
PyUnicode$unicode_isalnum_exposer.bind,0.05716860172761785,0.0
ScopesCompiler.visitName,0.056884844968011015,0.13021644444377284
PyInstance.ifindlocal,0.05673366666936393,0.4454572920651106
Benchmark.unpackZipStream,0.056418252778187614,0.07263378779084509
CodeCompiler.makeArray,0.05636466667056085,0.1823566985605856
RewriteRuleElementStream._next,0.056308666668580074,0.0
MethodWriter.<init>,0.056182666665336,0.06597890909192343
unaryopType.values,0.05575281243103467,0.02472189102035696
BaseRecognizer.match,0.055678333331646485,0.0
PyObject$exposed___new__.createOfSubtype,0.05557866666640621,0.15978430661898785
PyString.unicodeJoin,0.05548218479043797,0.0
Lexer.match,0.05531285959605596,0.032722615430241096
ClassPool.createCtClass,0.055216071813604564,0.0
Compare$PyExposer.<init>,0.05512821529389257,0.1516928813183161
PyUnicode.isBasicPlane,0.055050474490129286,0.06988537816813556
CodeAttribute.<init>,0.054973034838856925,0.021491892396212173
Py.py2int,0.05462659999902826,0.0866744999978066
Return$PyExposer.<init>,0.05457821407708308,0.1221667326889284
Native.loadLibrary,0.05454998272100714,0.0683841426654803
Assign$PyExposer.<init>,0.05444861539021635,0.0
PyObject._basic_div,0.05436537948797066,0.4784960555124345
ClassPoolTail.find,0.05426131714511442,0.0
Module.PyString,0.054114999999001163,0.0
__builtin__.map,0.05395503738540422,0.0
PyInteger.__mul__,0.05386574219029327,0.07138431098341486
PyBaseException.<clinit>,0.0534762222216361,0.0
PyClass.isSubClass,0.05337500000011156,0.0
PyObject$PyExposer.<init>,0.05328300000044029,0.0
PyJavaPackage.addPackage,0.05308963534504962,0.10787772044295672
PyComplex._div,0.05306000000018684,0.19634822190811005
PyString$str_title_exposer.__call__,0.05301742857305465,0.0
Py.make_array,0.05281501796629502,0.0712313333400137
ReflectedArgs.<init>,0.05275390476370895,0.0
PythonTree.isNil,0.05241320000059203,0.1049929221329178
FunctionDef.<clinit>,0.05221300000024106,0.0
BaseLocale.getLanguage,0.05207266666366195,0.08786333333409857
BaseTypeBuilder.getDict,0.05182534627587414,0.2315480297873084
__builtin__.__import__,0.051466999996894934,0.3818327279169805
PyFloat.float___div__,0.051053787939134634,0.25662666668176826
PyFloat.isFinite,0.050730224588088416,0.0
PythonParser.subscriptlist,0.0502317500013305,0.2337459230803711
PythonLexer$DFA43.specialStateTransition,0.05017499999909584,0.09690174814741062
Calls$py.j$19,0.04997685714001167,0.041125500002817714
PyObject._floordiv,0.0498724333330756,0.05384206705518104
PyString$str_title_exposer.<init>,0.04970481353338538,0.06415439712595211
PyLong.long___add__,0.04945670143246788,0.044187960251564094
ANTLRStringStream.seek,0.04939113969375287,0.2595686685736233
PyList$PyExposer.<init>,0.04908291666672287,0.25075223285194315
PySystemState.initPackages,0.048958557682048105,0.05711703054790662
ExceptHandler.traverse,0.04892043797833817,0.0
ProxyGenerator$ConstantPool$IndirectEntry.<init>,0.04850183389547585,0.0
PackageManager.<init>,0.0483703333302401,0.0
PyBaseException.BaseException___init__,0.04827997749386157,0.040999685909119794
ClassFile.getInterfaces,0.0481063605378171,0.0
PyString$str_islower_exposer.bind,0.04808421854323842,0.06350425000664472
ScopesCompiler.beginScope,0.04800625730623621,0.05973853846248507
PyArray.setup,0.04797539478172212,0.12294401476615882
PyString.str_isdecimal,0.0477275000007972,0.0
BaseRecognizer.pushFollow,0.04759085045318053,0.2630750007139788
Global$PyExposer.<init>,0.047506784215125414,0.08846824780171737
PyObject._mul,0.04747599999730786,0.19834569724513107
ScopesCompiler.visitImport,0.047057274354214335,0.0
PyFile.file___init__,0.04674831272570842,0.05819050000051599
imp.caseok,0.04662565280446921,0.07498249999480322
IfExp$PyExposer.<init>,0.0465405714265736,0.2692248907894001
FloatingDecimal.parseDouble,0.04646855914330863,0.2676308205353118
PythonLexer.mDOT,0.04644152625766165,0.0
PyList.getslice,0.04578989871828559,0.023429171422731758
Frame.c,0.045580571432115635,0.08536897222393236
CachedJarsPackageManager.outCreateCacheFile,0.04513391697069753,0.0
Yield.<clinit>,0.04510165489952777,0.0
FunctionDef.accept,0.04501485714406174,0.0
ScopesCompiler.endScope,0.04500542856944125,0.0
mod$PyExposer.<init>,0.04498433333113401,0.02104148880023241
PyList.list_append,0.04464809955598978,0.4424347332849216
MethodWriter.visitVarInsn,0.0442655045911245,0.0
Dict$py.call_function,0.04368380082553636,0.08102299999882233
ExceptHandler$PyExposer.<init>,0.04340733333325867,0.16434847207128422
_sre.getlower,0.043078552267129686,0.21047945397484905
PythonParser.synpred3_Python,0.042996732213293525,0.0
PyList.list___init__,0.04289536927393277,0.033835540740187936
PyList.fromList,0.04282381290239149,0.1645617338274566
comprehension$PyExposer.<init>,0.04271857407924752,0.10754235531220774
PyTuple.getList,0.04258787357152413,0.0
PyObject.hackCheck,0.04224554685803029,0.1594119679548393
PySequence.cmp,0.04154592914850653,0.1396543049547643
BoolOp$PyExposer.<init>,0.041464198979370086,0.0437749476787897
ClassFile.endFields,0.04141735209625684,0.0
unicodedata$py.decomposition$13,0.041127722220995484,0.06452119944042511
Call.getInternalFunc,0.04111749999841171,0.0
PythonParser.import_from,0.04092150955185725,0.1451530387589552
PythonParser.defparameter,0.04086210037866342,0.13239499998841592
UniversalIOWrapper.<init>,0.040798611110706894,0.0
bisect$py.call_function,0.040599024183034106,0.09052517835121933
ArgParser.getOptionalArg,0.04048091492173187,0.06586799999665043
PyDictionary$dict_has_key_exposer.<init>,0.040309826732574,0.0
PySet.<clinit>,0.03986932103277002,0.0
exceptions.bindStaticJavaMethod,0.03972197408821712,0.0
GrammarActions.makeWhile,0.03964173043622612,0.0
PyUnicode.unicode_isspace,0.03960575142974696,0.050789631428744805
CtClassType.getClassFile3,0.03938496969887196,0.06549296296388665
PythonTree.<init>,0.03935354004884521,0.0
CodeCompiler.visitFunctionDef,0.03915793497337989,0.10499393333302576
Unsafe.putLong,0.039039722223606084,0.0
ClassicPyObjectAdapter.<init>,0.038970402733378914,0.0
PyList$list_sort_exposer.bind,0.03858285714211107,0.0
PyType.createType,0.0385670762714478,0.12089194842042128
Num.<clinit>,0.038520393951531735,0.0
Descriptor.toCtClass,0.038241213198252175,0.0
PyObject.__eq__,0.03801226666643439,0.2268923785737213
PyInteger.int_hashCode,0.03790730711011405,0.0
PyString$str_isupper_exposer.bind,0.03761505768570194,0.21654704765380176
Calls$py.k$20,0.035584762321798434,0.0
VisitorBase.visitAttribute,0.03476674639147171,0.0
MethodWriter.a,0.03472066666533161,0.3214195257319397
PyLong.<clinit>,0.034480185187055236,0.0
Py.getSystemState,0.03428081270483392,0.1509460000045995
PyObject.__lt__,0.03410091666633737,0.3458690018600749
PyInteger.__add__,0.03406888888922467,0.3366483935357049
PyString.str_isalpha,0.02998570289202715,0.0393342805689904
PythonLexer.mIF,0.02917760716047988,0.0
ThreadCoreMapInjector.isRunnable,0.0240642569705791,0.12464500000957435
PyType$PyExposer.<init>,0.02398948062020158,0.05221900000166594
PythonParser.elif_clause,0.020047666219508337,0.12481377093427895
While$PyExposer.<init>,0.019376591632032456,0.32023494287560395
URLClassPath$JarLoader.checkResource,0.01436479728167827,0.0
ConfigFile.<init>,0.006185307314841196,0.15602307458324255
UTF_8$Encoder.encode,0.00362236907362884,0.10220424710903768
URLClassPath$FileLoader.getResource,0.0,0.0
TestHarness.main,0.0,0.042380158088777056
Subscript$PyExposer.<init>,0.0,0.2848191819079116
TryExcept$PyExposer.<init>,0.0,0.20595950219809045
PythonParser.pass_stmt,0.0,0.06457277777439298
TryExcept.<init>,0.0,0.0
Subscript.setValue,0.0,0.0
SyspathJavaLoader.loadClass,0.0,0.0688829939819722
TryExcept.traverse,0.0,0.0
Tuple$PyExposer.<init>,0.0,0.0747208819223584
PythonParser.dotted_name,0.0,0.038313636364226564
PythonParser.lambdef,0.0,0.0
Tuple.<init>,0.0,0.0
unicodedata$py.check_segments$8,0.0,0.4323391452791893
unicodedata$py.decimal$12,0.0,0.16363059022017956
Tuples$py.call_function,0.0,0.0
TestHarness.twoDecimalPlaces,0.0,0.0
TimeZoneNames.getContents,0.0,0.0
unicodedata$py.numeric$15,0.0,0.058713909683547276
Time$1.<init>,0.0,0.0
TimeZoneNameUtility.retrieveDisplayNamesImpl,0.0,0.04718550000361573
PythonParser.synpred10_Python_fragment,0.0,0.0
stmt.<init>,0.0,0.111592333332131
importer.makeSearchOrder,0.0,0.0
US_ASCII.newDecoder,0.0,0.0
UTF_8$Decoder.decode,0.0,0.17447499826847304
UTF_8$Encoder.encodeArrayLoop,0.0,0.02637900000195259
UnaryOp$PyExposer.<init>,0.0,0.0
PythonParser.varargslist,0.0,0.25763469131162753
errno.classDictInit,0.0,0.0
__builtin__.reload,0.0,0.0
Visitor.traverse,0.0,0.14199103496765714
While.<init>,0.0,0.0
PythonTree.getChild,0.0,0.0
While.accept,0.0,0.0
RuleBasedBreakIterator.readTables,0.0,0.0
PythonTree.getLine,0.0,0.04637833333617891
RuleBasedBreakIterator.handleNext,0.0,0.07334132801554519
PythonTreeAdaptor.create,0.0,0.0
Yield$_fields_descriptor.<init>,0.0,0.0
ReflectedArgs.precedence,0.0,0.092536907615425
ZoneInfo.<clinit>,0.0,0.0
ZoneInfo.getTimeZone,0.0,0.01427877777758921
imp.loadFromSource,0.0,0.0
US_ASCII$Decoder.decodeLoop,0.0,0.0
sre_compile$py._compile$3,0.0,0.0
PythonParser.synpred6_Python_fragment,0.0,0.0
StringIO$py.next$5,0.0,0.06088852940913912
site$py.makepath$1,0.0,0.0
StringIO$py.call_function,0.0,0.0
URLClassPath$JarLoader$2.getCodeSigners,0.0,0.0
URLClassPath$JarLoader$2.getInputStream,0.0,0.0
StringFormatter.formatFloatDecimal,0.0,0.08709808094794108
re$py.f$0,0.0,0.0
pybench$py.<init>,0.0,0.0
posixpath$py.f$0,0.0,0.0
pkgutil$py.<init>,0.0,0.0
SignatureFileVerifier.<clinit>,0.0,0.03946108805086481
URLClassPath.check,0.0,0.0
URLClassPath.getLookupCache,0.0,0.08384750000257353
URLClassPath.getNextLoader,0.0,0.03659820000029866
SequenceIndexDelegate.checkIdxAndGetItem,0.0,0.08010391745837518
os$py.<init>,0.0,0.21031740000091506
Resource.cachedInputStream,0.0,0.10580028672397547
URLClassPath.getResource,0.0,0.12226700633200753
URLUtil.urlNoFragString,0.0,0.03419163636532506
TransformerManager.transform,0.0,0.0
$Proxy1.<clinit>,0.0,0.0
PythonParser.compound_stmt,0.0,0.2415741005285129
PyBuiltinMethod.makeDescriptor,0.0,0.0
MethodAccessorGenerator.emitInvoke,0.0,0.10998926646744923
LongVector.addElement,0.0,0.09074742435715076
LocaleResources.getDecimalFormatSymbolsData,0.0,0.0
ListComp$PyExposer.<init>,0.0,0.026683363638850016
List$PyExposer.<init>,0.0,0.0
Linux64HeapFileStat.ino,0.0,0.0
Lambda$PyExposer.<init>,0.0,0.12054104938642135
Label.a,0.0,0.0
JarFileFactory.getConnection,0.0,0.0
Instances$py.call_function,0.0,0.05579800000365745
Instances$py.__init__$5,0.0,0.16460967887396194
IfExp.<clinit>,0.0,0.0
ISO_8859_1.newDecoder,0.0,0.0
GrammarActions.makeTryExcept,0.0,0.15018443308231202
GrammarActions.makeFuncdef,0.0,0.08097527063344014
GrammarActions.makeBinOp,0.0,0.07019733333011875
GrammarActions.extractStrings,0.0,0.0
GrammarActions.castStmts,0.0,0.1042657243538613
GrammarActions.castExprs,0.0,0.04066388142332628
Generic.set,0.0,0.030652888891280674
Generic.concurrentSet,0.0,0.0
FunctionDef$PyExposer.<init>,0.0,0.24181068373360265
Function.convertArgument,0.0,0.0
Frame.d,0.0,0.0
FormattedFloatingDecimal.<clinit>,0.0,0.12134951725589095
MethodWriter.e,0.0,0.0
MethodWriter.visitLineNumber,0.0,0.09470711017105207
MinFunction.__call__,0.0,0.0
Py.KeyError,0.0,0.0
PyBoolean$PyExposer.<init>,0.0,0.0
PyBaseExceptionDerived.dispatch__init__,0.0,0.18388668704960529
PyBaseExceptionDerived.<init>,0.0,0.03572157444292118
PyBaseException$BaseException___init___exposer.__call__,0.0,0.057322087590240337
Py.recursiveIsInstance,0.0,0.12719396429185148
Py.newCode,0.0,0.09185560231833037
Py.makeException,0.0,0.030885149619609725
Py.makeCharacter,0.0,0.0
Py.isSubClass,0.0,0.0
Py.findClassEx,0.0,0.0
Py.compile_flags,0.0,0.0
ProxyGenerator.code_ipush,0.0,0.0
Module$PyExposer.<init>,0.0,0.2035343794181219
Print$PyExposer.<init>,0.0,0.06862366666609887
PlatformUtil.isCaseInsensitive,0.0,0.02545650000017001
Pass$PyExposer.<init>,0.0,0.0652297500014356
Option.<init>,0.0,0.0
OpenListResourceBundle.<init>,0.0,0.0
NewInstances$py.__init__$8,0.0,0.08662890329562645
NativeString.<init>,0.0,0.017218888887631085
NativeMethodAccessorImpl.invoke,0.0,0.19420812064098747
Native.loadNativeLibraryFromJar,0.0,0.022064333333522267
NameAndTypeInfo.<init>,0.0,0.0
Module.traverse,0.0,0.0
For.traverse,0.0,0.0
FloatingDecimal$BinaryToASCIIBuffer.getChars,0.0,0.049220333326957175
FieldInfo.read,0.0,0.1371032075986479
ByteVector.putByte,0.0,0.0
ClassFileAssembler.opc_if_icmpeq,0.0,0.0
ClassFile.read,0.0,0.08316804449188109
ClassFile.addField2,0.0,0.0
ClassFile.addAttribute,0.0,0.016517407951913504
Calls$py.h$6,0.0,0.16760486715707498
Calls$py.f$18,0.0,0.027472444443750032
Calls$py.<init>,0.0,0.0
CalendarSystem.<clinit>,0.0,0.0
BytecodeLoader$Loader.loadClass,0.0,0.0
ByteVectorFactory.create,0.0,0.0
ByteVector.putUTF8,0.0,0.20469177688091852
Break$PyExposer.<init>,0.0,0.0
ClassWriter.newUTF8,0.0,0.07939056910378517
BinOp.<init>,0.0,0.0
Benchmark.prepareJars,0.0,0.0
AugAssign$PyExposer.<init>,0.0,0.11395266585864147
AttributeInfo.<init>,0.0,0.10997077196851122
Attribute.setValue,0.0,0.03181077777197869
AstAdapters.<clinit>,0.0,0.0
ArgParser.getRequiredArg,0.0,0.0
ArgParser.getArg,0.0,0.0
AnnotationParser.parseSig,0.0,0.18042870237673966
AnnotationParser.parseAnnotations,0.0,0.0
ANTLRStringStream.getLine,0.0,0.0
ClassWriter.c,0.0,0.1864352786146536
ClassicPyObjectAdapter$9.adapt,0.0,0.2254487042418921
Expr$PyExposer.<init>,0.0,0.1584957915346719
CommonToken.getText,0.0,0.0568802500001766
Exec$PyExposer.<init>,0.0,0.13219338400493344
Errno$StringTable.generateTable,0.0,0.11905353393980185
EmptyVisitor.visitInsn,0.0,0.0
CurrencyNames_en_US.getContents,0.0,0.0
CtClassType.getMethod0,0.0,0.0
ConstPool.read,0.0,0.09015927331962806
ConstPool.addItem,0.0,0.0
Config.parse,0.0,0.09219566666797616
CompilerFlags.isFlagSet,0.0,0.7263233619183298
CommonTokenStream.getTokens,0.0,0.08178866975894401
CommonToken.setTokenIndex,0.0,0.0
CommonToken.<init>,0.0,0.09520235091844197
Code.freeLocal,0.0,0.0
CommandLineArgs.extractBenchmarkSet,0.0,0.0
CodeCompiler.visitSubscript,0.0,0.0
CodeCompiler.visitImportFrom,0.0,0.0
CodeCompiler.visitBoolOp,0.0,0.0
CodeCompiler.visitBinOp,0.0,0.0
CodeCompiler.suite,0.0,0.0
CodeCompiler.stackProduce,0.0,0.07960777777690155
CodeCompiler.loadFrame,0.0,0.0
CodeCompiler.<init>,0.0,0.0
Code.invokevirtual,0.0,0.0
Code.getLocal,0.0,0.0
PyBuiltinCallable.<init>,0.0,0.0
PyClass.__call__,0.0,0.17177453030097894
PythonParser.classdef,0.0,0.0
PyComplex.__add__,0.0,0.0
PyType.init,0.0,0.05313826805813526
PyType.findMostDerivedMetatype,0.0,0.0
PyType.attachSubclass,0.0,0.0
PyType.<init>,0.0,0.0
PyTuple.pyget,0.0,0.2718738664393892
PyTraceback.<init>,0.0,0.0
PyTableCode.<init>,0.0,0.0
PySystemState.initStaticFields,0.0,0.13454854487023332
PySystemState.getPath,0.0,0.0
PySystemState.getClassLoader,0.0,0.0
PySystemState.doInitialize,0.0,0.0
PySystemState.<clinit>,0.0,0.042324465596986674
PySuper$PyExposer.<init>,0.0,0.04468294444450293
PyStringMap.<init>,0.0,0.1662851403460145
PyStringConstant.get,0.0,0.0
PyString.str_isdigit,0.0,0.07697420104606653
PyString.fromSubstring,0.0,0.2291524961560378
PyString.decode_UnicodeEscape,0.0,0.07724311268631913
PyString.createInstance,0.0,0.2399210833445977
PyString._isalnum,0.0,0.13296719736949936
PyString.__int__,0.0,0.15776280952085805
PyString$str_upper_exposer.bind,0.0,0.06137630956955365
PyString$str_split_exposer.bind,0.0,0.1218946666649572
PyString$str_rstrip_exposer.bind,0.0,0.08954233333740072
PyString$str_lower_exposer.bind,0.0,0.0
PyType.instDict,0.0,0.04482014284717546
PyType.newType,0.0,0.24540296983125515
PyUnicode$unicode_isdecimal_exposer.bind,0.0,0.0
PythonLexer.mRPAREN,0.0,0.0
PythonParser.attr,0.0,0.0
PythonParser.argument,0.0,0.062117957388187435
PythonParser$suite_scope.<init>,0.0,0.0
PythonParser$defparameter_return.getTree,0.0,0.0
PythonParser$DFA34.specialStateTransition,0.0,0.0
PythonParser$DFA29.<init>,0.0,0.0
PythonParser$DFA136.<init>,0.0,0.055613333331469526
PythonLexer.nextToken,0.0,0.01150054545536422
PythonLexer.mTRY,0.0,0.0
PythonLexer.mSTRING,0.0,0.13269860538012326
PythonLexer.mSTAR,0.0,0.0
PythonLexer.mNEWLINE,0.0,0.04718550000361573
PyUnicode$unicode_islower_exposer.__call__,0.0,0.0
PythonLexer.mDELETE,0.0,0.0
PythonLexer.<init>,0.0,0.09879429257963863
PythonLexer$DFA15.<init>,0.0,0.0
PyXRange.getLenOfRange,0.0,0.0
PyUnicode.unicode_upper,0.0,0.0
PyUnicode.unicode_new,0.0,0.2006133011351072
PyUnicode.unicode_isdecimal,0.0,0.0
PyUnicode.unicode___len__,0.0,0.05695533333710045
PyUnicode.getslice,0.0,0.13291582529320786
PyUnicode$unicode_zfill_exposer.<init>,0.0,0.0
PyUnicode$unicode_istitle_exposer.bind,0.0,0.04458600000483178
PyString$str_isspace_exposer.__call__,0.0,0.0
PyString$str_isspace_exposer.<init>,0.0,0.0
PyString$str_isdigit_exposer.bind,0.0,0.0509331631404467
PyFloat.__cmp__,0.0,0.1539488002645028
PyIterator.<init>,0.0,0.07570060606061209
PyInteger.toString,0.0,0.0
PyInteger.<clinit>,0.0,0.0444692801110968
PyInstance.__init__,0.0,0.19537176994600636
PyInstance.<init>,0.0,0.0
PyFrame.getname,0.0,0.0
PyFloat.float___cmp__,0.0,0.24157810818197226
PyFloat.float___add__,0.0,0.24598868812971386
PyFloat.coerce,0.0,0.046838733961867794
PyFloat.canCoerce,0.0,0.1244066665503042
PyFloat.__eq__,0.0,0.09159833333736364
PyFloat.__add__,0.0,0.0
PyJavaType.getCollectionProxies,0.0,0.08511407554203287
PyFile$newlines_descriptor.<init>,0.0,0.0
PyException.fillInStackTrace,0.0,0.0
PyException.<init>,0.0,0.0732113333348631
PyEnumerate$PyExposer.<init>,0.0,0.0
PyDictionary.dict___delitem__,0.0,0.02992716666631168
PyDictionary$dict_iteritems_exposer.<init>,0.0,0.0
PyDictionary$dict_items_exposer.bind,0.0,0.09466399999776813
PyDictionary$dict_has_key_exposer.__call__,0.0,0.07958750000094975
PyDictionary$dict_get_exposer.bind,0.0,0.3355332031508254
PyComplex.coerce,0.0,0.07366833333799147
PyComplex.__radd__,0.0,0.0
PyJavaPackage.<init>,0.0,0.0
PyList.__iter__,0.0,0.0
PyString$str_isalpha_exposer.__call__,0.0,0.0
PyObject._add,0.0,0.059771666667074876
PyStaticMethod$PyExposer.<init>,0.0,0.0
PySlice.<init>,0.0,0.1921126511394648
PySequence.seq___getslice__,0.0,0.0
PySequence.seq___finditem__,0.0,0.4606861007468828
PySequence$1.setItem,0.0,0.0
PyReflectedFunction._doget,0.0,0.05795650000012149
PyReflectedFunction.__call__,0.0,0.0
PyObject.object___hash__,0.0,0.0
PyObject.asName,0.0,0.0
PyObject._isnot,0.0,0.2656704615588149
PyObject._cmp,0.0,0.2728130141150311
PyObject$object___setattr___exposer.__call__,0.0,0.0
PyList.list___iter__,0.0,0.10481040740085988
PyObject$object___init___exposer.__call__,0.0,0.10085178054486953
PyModule.<clinit>,0.0,0.0
PyModule$module_toString_exposer.<init>,0.0,0.0
PyMethodDescr.method_descriptor___get__,0.0,0.2428152621091184
PyMethod.__call__,0.0,0.0
PyLong.long___sub__,0.0,0.22256131735027984
PyLong.long___mul__,0.0,0.05778033332777946
PyLong.long___cmp__,0.0,0.3306351896852874
PyLong.__cmp__,0.0,0.18448106667189373
PyList.sort,0.0,0.0
PyList.pyadd,0.0,0.20261552380803285
PyLong.coerce,0.0,0.2638276695456812
