,type,dram1,dram2,package1,package2
0,app,48.11828027748796,16.341098894244784,312.20309442961894,99.50103037978141
1,sys+app,48.11828027748796,16.341098894244784,312.20309442961894,99.50103037978141
2,total,127.93710749999964,127.93710749999964,846.3843871999968,846.3843871999968
