method,RefEnergy,CoAppEnergy
KDTree.intersect,11.574927359284876,26.009013643457852
KDTree.buildTree,9.754328613282214,11.294393242208749
BoundingIntervalHierarchy.intersect,9.64100978774422,26.076955701259077
TriangleMesh$WaldTriangle.intersect,6.761275140768348,12.107719179160654
TriangleMeshLight$TriangleLight.getSamples,2.7907221427421804,7.029509798841856
Ray.transform,2.4629865798770147,6.439186707034802
InstantGI.getIrradiance,1.6204143282132113,3.0642500882679613
Ray.isInside,1.3059364920495158,2.3807513911828666
TriangleMesh.intersectPrimitive,1.149178418771493,2.995127250249332
Ray.<init>,0.97919017674801,3.0738012909839783
Geometry.intersect,0.8253084509149841,1.75364246362417
Instance.intersect,0.7550322397689349,1.499959238717992
Vector3.dot,0.7424340291454843,1.2513120038507153
Ray.getMax,0.7154955515792142,1.2472584712839327
KDTree$BuildTask.<init>,0.6541102619887468,0.06922675132988179
AppContext$2.run,0.6337857438347105,1.2463103958305346
Color.blend,0.4026796088793967,0.6431807776238003
NullAccelerator.intersect,0.3823727151987348,0.8753326961935091
BucketRenderer.renderBucket,0.3380174225344162,0.4047216382532016
Matrix4.transformPZ,0.3348579509255647,0.964850233271465
PNGImageReaderSpi.createReaderInstance,0.3225719028245555,0.4948501074860906
Benchmark$BenchmarkScene.buildCornellBox,0.3157685348696978,0.2402470357924173
Sphere.intersectPrimitive,0.302655822245661,0.4435539577579236
Color.copy,0.29747311733155923,0.7029500046163908
Benchmark.kernelMain,0.2581683303640251,0.014614899098756524
LightSample.setShadowRay,0.2464145855079295,0.8792928433249517
Matrix4.transformPX,0.20736758289469398,0.7277162808432607
ShadingState.addSample,0.1978840992330243,0.3390139987159997
ImageIO.<clinit>,0.19592566666688072,0.04082666666969696
Scene.trace,0.18412270600763406,0.4798609089281367
BoundingBox.getMaximum,0.17982002866582011,0.9244421479465228
TriangleMesh.getPoint,0.1771440993379178,0.2332338865740722
Benchmark.<init>,0.17382156818263955,0.4866672475673637
IntersectionState.getStackTop,0.1725884384906098,0.5276425824043399
PNGImageReader.<init>,0.16330068108285728,0.5059845724769289
InputStreamImageInputStreamSpi.createInputStreamInstance,0.16283826963691614,0.3278477172862809
IIORegistry.registerStandardSpis,0.15410658808589373,0.6217145029316258
InstanceList.intersectPrimitive,0.1513041270006833,0.5808958319723528
IntersectionState.getStack,0.14806874811586304,0.341519281231881
Chaperone.retire,0.14501890452267668,0.0
ServiceRegistry.<init>,0.14261531884351594,0.0
SHA.implCompress,0.1345970137171957,0.14075498813594506
TriangleMeshLight$TriangleLight.intersectTriangleKensler,0.12966716340055695,0.2559839234104726
SunToolkit.<clinit>,0.12749033333238913,0.014787272728316368
ShadingState.traceShadow,0.12204345218579557,0.3002570549801445
Ray.setMax,0.11817976136858982,0.26997394835208066
ByteInterleavedRaster.putByteData,0.11730709656617247,0.19619774595198955
FileCacheImageInputStream.<init>,0.11651533333376088,0.16373552601008265
Ray.getMin,0.11477493302411572,0.5671167500889167
TriangleMesh.prepareShadingState,0.1102180564723922,0.01953978744436233
AbstractAlgorithmConstraints.getAlgorithms,0.10795811110923144,0.04237600000245341
InnerClassesAttribute.<init>,0.10661833333506364,0.029972121212102305
UnixPath.resolve,0.10497166666997752,0.0
BoundingIntervalHierarchy.build,0.10492128888985866,0.07275579717177233
BucketRenderer.refineSamples,0.10374540104552384,0.34126457300796154
Scene.traceShadow,0.10295436953282618,0.13735067459549355
SunToolkit.createNewAppContext,0.09968913792695884,0.023096400001183303
Color.<init>,0.09663219573943267,0.2189496565981126
ImageTypeSpecifier$Interleaved.<init>,0.09604560672976103,0.13412726617807455
Instance.update,0.09523466666845098,0.0
AttributeInfo.read,0.08863666666729841,0.0
SubRegistry.<init>,0.08844133333453404,0.0
Config.parse,0.08736624999801279,0.0
Matrix4.transformPY,0.08449622660425198,0.07702397634109873
DSAKeyFactory.engineGeneratePublic,0.08382533333497122,0.0
StreamCloser.createCloseAction,0.08363233333269211,0.03586885714269425
DerInputStream.getUnalignedBitString,0.08205098070183127,0.09623219314809388
LongVector.addElement,0.08181728819200175,0.018423124999268715
MetaIndex.mayContain,0.08090666666733644,0.0
X509Factory.engineGenerateCertPath,0.08017856900372894,0.0
ConstPool.readOne,0.07770399093408009,0.06969778688267134
KDTree.radix12,0.07640140732218614,0.2352526820317944
SunflowAPI.reset,0.07544441522821843,0.08807466666864154
SignerInfo.verify,0.07507526171134885,0.1919734488772389
Solvers.solveQuadric,0.07365025099692597,0.2487365742004989
ByteInterleavedRaster.getDataElements,0.07359649999762041,0.4189450501538803
Vector3.normalize,0.07292380346950009,0.053591527971978116
CtClassType.getMethod0,0.07233168603142724,0.02571978947385663
CalendarSystem.<clinit>,0.07199017775156999,0.1420179913011296
BytecodeDescriptor.unparseSig,0.07155000000057042,0.0
Instance.transformNormalObjectToWorld,0.0709887952407439,0.0
TriangleMeshLight.access$2900,0.07093753376508166,0.06129261555700869
BucketRenderer$ImageSample.isDifferent,0.06887319354966437,0.012261696969455277
Gregorian.newCalendarDate,0.06887019393931255,0.0
DisabledAlgorithmConstraints.<init>,0.06703199999901699,0.077948316986298
Vector3.<init>,0.06673389623955872,0.10940621257163144
MapMaker.make,0.0654297777784652,0.0
PNGImageReader.getDefaultReadParam,0.06514735905114848,0.008612953510146909
X509Factory.<clinit>,0.06441277169097516,0.09903874689196222
Vector3.<clinit>,0.06398030065444094,0.057624150534995484
DigestBase.engineUpdate,0.06295766666759542,0.0
Color.madd,0.06295257497668053,0.1913467214670136
ConfigFile.<init>,0.06279466666455846,0.3819843948147941
RDN.<init>,0.061725583143206926,0.0
IntersectionState.setIntersection,0.06063299852854799,0.14285776043820933
UnixChannelFactory$Flags.toFlags,0.06011866666691883,0.0
PNGImageReader.decodePass,0.059244000002460474,0.0
ShadingState.getGeoNormal,0.05877601827863462,0.016809368902555157
PNGImageWriterSpi.<clinit>,0.05866404532601195,0.0
ISO_8859_1.newEncoder,0.05792323446983505,0.02319030986615802
SignatureFileVerifier.<clinit>,0.05783066666481317,0.150446087501262
ImageTypeSpecifier.createBufferedImage,0.05721634836535242,0.12058185637866475
X509CertInfo.parse,0.05718056277120007,0.4193441191139601
RAFImageInputStreamSpi.<clinit>,0.05675687499812435,0.0
NormalizerBase.<clinit>,0.05586692943681287,0.05952151169334136
PartiallyOrderedSet.add,0.05550455555526746,0.03929473316314532
AlgorithmId.<clinit>,0.05418779316543895,0.05022456787532824
OIDMap$OIDInfo.<init>,0.05413833333174504,0.0
DerInputStream.readVector,0.05327432585990916,0.1169098365044732
ShadingState.getNormal,0.05175324700661753,0.0028190576981842784
JvstCodeGen.recordParams,0.050931382040829566,0.0
AppContext.<clinit>,0.050105899451370416,0.030984374999206917
InstanceList.getNumPrimitives,0.049940837209527834,0.06840936565766774
TriangleMeshLight.access$2600,0.0495229775255021,0.08451797126468104
PlatformLogger.<clinit>,0.04861938111313309,0.0
LocaleUtils.toLower,0.04753524999796355,0.0
Color.black,0.045745877054127686,0.02263793770931504
ImageTypeSpecifier$Packed.<init>,0.045356666664398894,0.0
Vector3.div,0.04187389089284434,0.02088287545424027
ImageIO.getImageReaders,0.03953455473506163,0.04117129225945085
SimpleCharStream.FillBuff,0.03732966666494677,0.0
BucketRenderer$ImageSample.processed,0.035417995462370726,0.13984958086775268
QMC.halton,0.03412426744668095,0.13176309020964375
LightSample.traceShadow,0.03403208557894824,0.061189363431715035
Camera.updateCameraMatrix,0.0322130323416615,0.11348448012817568
ShadingState.getPoint,0.031989021593059344,0.3935100249009356
LightSample.setRadiance,0.031819693152528465,0.3753372591537404
LightServer.traceRefraction,0.029467297297496524,0.0
BoundingBox.getMinimum,0.029359341720169106,0.13577459657620325
ShadingState.getRandom,0.0277157179482926,0.0490301767593266
Point3.normal,0.0270091276594185,0.0
Vector3.length,0.026654182128899584,0.004175063502080135
GetPropertyAction.run,0.026570333331619626,0.0
IIORegistry.<clinit>,0.026168444444515944,0.04857439447266867
Benchmark.imageUpdate,0.025591538461202826,0.010185227309428837
Point3.<init>,0.02553066863920841,0.05204398238323008
MathUtils.clamp,0.023882395114853548,0.07482628312557447
GlassShader.getRadiance,0.022699012068575882,0.020858800000066617
Ray.dot,0.02269064102606185,0.00813926666604756
Ray.getDirection,0.0216616666659125,0.0
BucketRenderer$ImageSample.bilerp,0.021376230430291004,0.0213543621372106
OrthoNormalBasis.<init>,0.02095977486227012,0.03038339270260025
ConfigFileTokenManager.jjCheckNAddStates,0.015127466666793531,0.0
ShadingState.diffuse,0.014652186046627913,0.0
PlatformLogger.<init>,0.014515173443622756,0.0
BucketRenderer$ImageSample.sampled,0.012395495084739831,0.10666251233062504
CtClassType.getModifiers,0.009538333331875036,0.0
BucketRenderer$ImageSample.set,0.007841512195005724,0.0
LightServer.getShader,0.007300155192606366,0.0
Color.isNan,0.007209151443333006,0.0
TestHarness.main,0.007138055220389816,0.21857973933598093
LightServer.getRadiance,0.00564228426717766,0.0
LightServer.getScene,0.0051969563245230005,0.04676759724970203
IntArray.add,0.0023845356459962627,0.11051305951969352
IntersectionState.hit,0.002180109082917824,0.16903459143665428
ShadingState.init,0.0021609609347474487,0.015136463414553254
BucketRenderer$ImageSample.<init>,0.0017371046099450473,0.019045162471662047
LightSample.dot,0.00015000407102465512,0.013950653061106186
CommandLineArgs.<clinit>,0.0,0.0
TriangleMeshLight.access$2800,0.0,0.0
TriangleMeshLight.access$2700,0.0,0.0
Callback.init,0.0,0.0
CodeAttribute.<init>,0.0,0.0
Color.<clinit>,0.0,0.0
Color.mul,0.0,0.05213741473741466
PKCS7.parseSignedData,0.0,0.10926141645537063
Config.printThreadModel,0.0,0.0
Bytecode.<init>,0.0,0.0
TestHarness.twoDecimalPlaces,0.0,0.0
ConfigFile.configOption,0.0,0.0
SunflowAPI.options,0.0,0.0
SunToolkit.initEQ,0.0,0.0
ConfigFileTokenManager.jjFillToken,0.0,0.0
ConstPool.addUtf8Info,0.0,0.0
ConstPool.makeItemsCache,0.0,0.0
SubImageInputStream.read,0.0,0.0
ConstPool.write,0.0,0.0
Sphere.prepareShadingState,0.0,0.0
TriangleMesh$WaldTriangle.<init>,0.0,0.0
TypeData$ClassName.<init>,0.0,0.0
CtClass.<init>,0.0,0.0
BoundingIntervalHierarchy.<init>,0.0,0.0
AlgorithmId.decodeParams,0.0,0.0
BaseLocale$Cache.createObject,0.0,0.0
X509CertPath.<clinit>,0.0,0.0
BaseLocale$Key.<init>,0.0,0.0
X509CertInfo.get,0.0,0.0
X509CertImpl.parse,0.0,0.15547356550702152
X500Name.parseDER,0.0,0.1574633738967142
Benchmark.initialize,0.0,0.0
BezierMesh.getPatchPoint,0.0,0.0
BucketRenderer$BucketThread.run,0.0,0.0
URLClassPath$FileLoader.getResource,0.0,0.0
Vector3.cross,0.0,0.0
BucketRenderer$ImageSample.checkNanInf,0.0,0.0
Utf8Info.<init>,0.0,0.0
Unsafe.defineAnonymousClass,0.0,0.07679881136300618
BucketRenderer.computeSubPixel,0.0,0.02387648404386555
ByteArrayAccess.b2iBig64,0.0,0.1745268432224318
UTF_8$Decoder.decode,0.0,0.0
URLClassPath.findResource,0.0,0.0
URLClassPath$Loader.getBaseURL,0.0,0.0
ContentInfo.<clinit>,0.0,0.031810063653025245
DisabledAlgorithmConstraints$Constraints.<init>,0.0,0.2284264826091415
CurrencyNameProviderImpl.getString,0.0,0.0
DacapoClassLoader.loadClass,0.0,0.0
KDTree.unpackObject,0.0,0.0
KDTree.unpackSplit,0.0,0.0
Lex.isBlank,0.0,0.0
LightServer$1.run,0.0,0.05038497794125492
QMC.<clinit>,0.0,0.0
Point3.sub,0.0,0.0
AbstractCalendar.getTime,0.0,0.0
LightServer.initLightSamples,0.0,0.0
LightServer.shadeHit,0.0,0.0
LocaleProviderAdapter.<clinit>,0.0,0.0
PlatformLogger$JavaLoggerProxy.<clinit>,0.0,0.02986861111073975
PinholeLens.getRay,0.0,0.012614051233854714
PerfCounter.get,0.0,0.0
MapMaker.validateTypeData,0.0,0.0
Matrix4.transformVX,0.0,0.0
MemoryCache.<init>,0.0,0.0
PNGImageReader.readImage,0.0,0.013221966740528468
NullAccelerator.build,0.0,0.0
OrthoNormalBasis.makeFromW,0.0,0.0
PKCS7.<init>,0.0,0.0
PNGImageDataEnumeration.nextElement,0.0,0.0
KDTree.unpackAxis,0.0,0.0
KDTree.build,0.0,0.06617930894403466
ReflectionFactory.checkInitted,0.0,0.0
Geometry.prepareShadingState,0.0,0.014929741856618288
SignatureFileVerifier.processImpl,0.0,0.0
PKCS9Attribute.<clinit>,0.0,0.0
Disposer.<clinit>,0.0,0.0
ShadingState.getV,0.0,0.0
ShadingState.getResult,0.0,0.0
Disposer.add,0.0,0.0
ExceptionTable.<init>,0.0,0.0
GIFImageReaderSpi.canDecodeInput,0.0,0.0
Geometry.build,0.0,0.0
ShadingState.createState,0.0,0.0
Instance.transformVectorObjectToWorld,0.0,0.0
IIORegistry.getDefaultInstance,0.0,0.1291237809840093
ShadingState.<init>,0.0,0.03747115016217609
ISO_8859_1$Encoder.implReplaceWith,0.0,0.0
Instance.getModifier,0.0,0.0
Instance.prepareShadingState,0.0,0.0
Scene.render,0.0,0.059970463192630726
Scene.getRadiance,0.0,0.028425177778101187
Scene.<init>,0.0,0.06594127871626924
SPILocaleProviderAdapter.findInstalledProvider,0.0,0.0
X509Factory.engineGenerateCertificate,0.0,0.22906897628745296
