method,RefEnergy,CoAppEnergy
ChiVertex.<init>,325.2078036487434,241.4548055813699
DegreeData.getDegree,243.4383896157635,155.95756372034373
GraphChiEngine$3.run,151.68443817009486,91.9845672505873
GraphChiEngine.initVertices,91.47146071821558,66.18037780310225
VertexData.getVertexValuePtr,76.30055564455657,15.265900359394278
Unsafe.park,52.500629703523074,0.040123799998764295
GraphChiEngine$2.run,28.79605069778634,25.756692156274447
GraphChiEngine.determineNextWindow,16.214594894531945,10.910449645096863
Pagerank.update,13.645267146982961,2.34211796834196
ChiVertex.numOutEdges,11.275550914582048,0.5032208375497287
ChiVertex.setValue,7.636924566915826,0.6908403411213372
DataBlockManager.getRawBlock,6.295079914218457,1.8895605231886856
DataBlockManager.writeValue,6.248367883007351,8.817482358231908
VertexAggregator.foreach,3.7380844867513434,3.0176208335968564
DataBlockManager.dereference,3.532129514795983,7.183152368214389
ChiVertex.getValue,3.3405262412553545,2.292192598404716
DegreeData.load,1.8601386809570852,0.3828244521531854
ChiPointer.<init>,1.8129782392823344,3.5353650620758823
ChiVertex.setDataPtr,1.625705596304461,1.6410742862033412
VertexData$1.hasNext,1.6150004768262785,0.4378741508541046
FloatConverter.setValue,1.4426394866089025,8.796251150529537
NOPLoggerFactory.getLogger,0.8741910312695232,0.5051217477526919
JmxMBeanServer.<init>,0.8702827529902502,0.7789625203577392
Toplist$1.callback,0.7184843168674964,0.7114511349119755
NumberFormatProviderImpl.getInstance,0.716121007255943,0.7641468900708759
MBeanServerBuilder.newMBeanServerDelegate,0.5825553259391869,0.5584318439040121
MBeanInfo.<init>,0.5186857809034067,0.3568428190993665
SubstituteLoggerFactory.<init>,0.5047097506336171,0.12456241666478088
ImmutableDescriptor.makeMap,0.4321011513437149,0.7300134941155656
Util.newObjectName,0.3729633676577361,0.1501028703694963
Pagerank.main,0.33944465789415396,0.11723331233771865
DefaultMXBeanMappingFactory.<clinit>,0.3348466543696667,0.28097706092399305
MXBeanSupport.getMBeanIntrospector,0.32835537627752426,0.2634750334021805
MXBeanIntrospector.getMBeanAttributeInfo,0.31482685938416183,0.11830240317920275
JmxMBeanServer.newMBeanServerDelegate,0.2712809057028845,0.1510883495981845
Chaperone.retire,0.2673794874298145,0.01858028201643513
MXBeanIntrospector.mFrom,0.25151760281470115,0.11134395899624208
Gregorian.newCalendarDate,0.2385461927536436,0.3570906928332304
LoggerFactory.bind,0.22594333333230074,0.0
ExponentiallyDecayingSample.<init>,0.2181938898895706,0.3143313571594141
MXBeanIntrospector.getMBeanOperationInfo,0.20012450000664705,0.0
DiagnosticCommandImpl.getMBeanInfo,0.183150102572444,0.08753090909907989
MBeanServerDelegateImpl.<clinit>,0.17085433332890498,0.04226778102342935
ChiVertex.inEdge,0.1695527085855587,1.3363814043716675
StandardMBean.<clinit>,0.16804444139030156,0.17301668102997336
MXBeanMappingFactory.<clinit>,0.16599473133935605,0.238282147904047
AnnotationParser.parseSig,0.15288343063983914,0.2755493510133589
Repository.<init>,0.15175115467366812,0.21482060128169786
LoggerFactory.<clinit>,0.15002633333763998,0.17543814335857538
DiagnosticCommandImpl.getDiagnosticCommandInfo,0.14267041666456254,0.05396399033787015
ManagementFactory.createMemoryManager,0.1388463333363082,0.0
AnnotationParser.parseAnnotation2,0.1364173076151678,0.032897083334925505
ConstPool.readOne,0.13540953476374085,0.10522188256414863
ExceptionTable.<init>,0.13012066667094285,0.0
ManagementFactory.createMemoryPool,0.12766533333585053,0.10940548554362993
ManagementFactoryHelper.getClassLoadingMXBean,0.12330750000223313,0.08947503076599858
Gregorian$Date.setNormalizedYear,0.12005535296111255,0.0
LocaleData$1.run,0.1067669333400166,0.3196555990930461
StreamEncoder.implWrite,0.1060557161803351,0.0
MBeanNotificationInfo.<init>,0.10595529038424106,0.26613478622700376
Handler.parseURL,0.10568366665878176,0.0
DefaultMBeanServerInterceptor.registerDynamicMBean,0.09941982611676782,0.08732824270379866
MemoryImpl.getMemoryManagers0,0.09651740105251476,0.07580300000214872
GraphChiEngine.<init>,0.0954791977559956,0.0
ReflectUtil.checkPackageAccess,0.092508690867782,0.0
SignatureParser.parseFormalTypeParameter,0.092508690867782,0.0
FloatConverter.getValue,0.09083807490556696,0.04485459795655953
SimpleType.<clinit>,0.09078793615460763,0.15630393551553226
GraphChiContext.getIteration,0.09074628861500524,0.13929896039450246
ManagementFactoryHelper.getDiagnosticCommandMBean,0.09030533333498167,0.1144124821145241
SignatureParser.parseMethodTypeSignature,0.08980359027247943,0.03827971428368723
CalendarDataUtility.retrieveFirstDayOfWeek,0.08816966666199734,0.043680964412373915
CoreReflectionFactory.makeTypeVariable,0.08760433333615461,0.04074066391880042
MBeanIntrospector.getPerInterface,0.08678677969849613,0.03574887037353215
GraphChiEngine.<clinit>,0.0845583333381607,0.0
Resource.getBytes,0.0845583333381607,0.0
AnnotationParser.parseEnumValue,0.0817429999927602,0.0
ChiVertex.numInEdges,0.08086414454426367,0.12517714310721767
UTF_8$Decoder.decode,0.08078866666740699,0.0
LoggerFactory.getILoggerFactory,0.08073533860822837,0.0
Metrics.<clinit>,0.08073533860822837,0.08313828270314477
ManagementFactory.createGarbageCollector,0.08026600000448525,0.0
ObjectName.construct,0.07848133333754959,0.13119221543998486
DefaultMBeanServerInterceptor.makeResourceContextFor,0.07807866667038373,0.03706742868937303
URLClassPath$FileLoader.getResource,0.07807866667038373,0.0
ImmutableDescriptor.fieldIndex,0.07775533333430454,0.0
CompositeType.equals,0.07775533333430454,0.0
VertexData.load,0.07600033333559016,0.0
AttributeInfo.<init>,0.07594910346949975,0.0
ChiLogger$SingleLineFormatter.format,0.07501833333905475,0.0
ZoneInfoFile.getZoneInfo,0.07425633333332368,0.0828836666708715
SignatureParser.parseTypeVariableSignature,0.07256366666600418,0.0
ArrayType.<clinit>,0.07235111111589908,0.0
AttributeInfo.remove,0.06922733332855083,0.12136640000826444
JmxReporter.<clinit>,0.06830358459932485,0.019808330183306067
MemoryShard.loadAdjChunk,0.06825345870190733,0.14237343536122246
ParseUtil.encodePath,0.06801834456807315,0.0
DefaultMXBeanMappingFactory$CompositeMapping.<init>,0.06724416666252689,0.0
StandardMBeanSupport.getMBeanIntrospector,0.06642216518782541,0.0
Unsafe.compareAndSwapObject,0.06632099999963734,0.0
LocaleServiceProviderPool.<clinit>,0.0658272247973049,0.0
UTF_8$Encoder.encodeArrayLoop,0.0637150251685495,0.0
ClassPool.createCtClass,0.06324139259258206,0.0
VertexData$1.next,0.057550532356289326,0.35002285246018805
FileChannelImpl.getMappedBufferPool,0.05698154047288793,0.04674463767804665
MXBeanLookup.<clinit>,0.056714047619780536,0.0
MBeanServerDelegateImpl.<init>,0.053890025534319985,0.0
DefaultMBeanServerInterceptor.sendNotification,0.05185099999774442,0.06276975000309902
StandardMBean.getMBeanInfo,0.051744599996891336,0.0
NotificationBroadcasterSupport.<clinit>,0.04926933333869482,0.24271956755621274
Introspector.getMXBeanInterface,0.04452166667397249,0.18828310011719984
LocaleData.getBundle,0.04008232847428154,0.0
MemoryPoolImpl.<init>,0.0398090269776493,0.08381404374815704
ConstPool.makeItemsCache,0.035584151982517034,0.0
StreamEncoder.write,0.03513766666583251,0.0
Histogram.updateVariance,0.03502445577732785,0.0
DefaultMBeanServerInterceptor.registerMBean,0.03315287499511517,0.09225093939665274
ExceptionTable.shiftPc,0.03313299999839122,0.0
MetaIndex.mayContain,0.032359845086846376,0.0
MBeanServerDelegate.<init>,0.032359845086846376,0.03921200000028572
MBeanServerFactory.checkMBeanServerBuilder,0.02978276332955884,0.0
DataBlockManager.allocateBlock,0.02946583852890498,0.0
ImmutableDescriptor.<init>,0.028583589829721305,0.0
LongVector.addElement,0.02809863344775275,0.05542065123836128
TimerContext.stop,0.028053154236775717,0.0
JRELocaleProviderAdapter.getDecimalFormatSymbolsProvider,0.027730909028736647,0.0
ParallelListResourceBundle.keySet,0.025220984844926964,0.08590899999899193
JRELocaleProviderAdapter.getNumberFormatProvider,0.02383105753699094,0.1036278818131238
MemoryShard.loadVertices,0.02143766666874095,0.0
URLJarFile.getEntry,0.021355666660383577,0.0
MemoryShard.loadAdj,0.020748333332448958,0.0
ConstantPool.<clinit>,0.020608496497902813,0.0
ShardIndex.sparserIndex,0.017160857510702586,0.0
MXBeanIntrospector.<clinit>,0.011247333330781352,0.0
ClassFile.read,0.007158402922232236,0.022177015457299068
JRELocaleProviderAdapter.getLocaleResources,0.006493004894681271,0.030321000000791774
TypeChecker.atMethodCallCore,0.0,0.0
Tracer.<init>,0.0,0.0
ChiLogger.getLogger,0.0,0.0
Unsafe.putObject,0.0,0.0
Unsafe.unpark,0.0,0.0
ChiVertex.addOutEdge,0.0,0.0
DateFormatProviderImpl.getInstance,0.0,0.0
ZoneInfo.getTimeZone,0.0,0.0
ZoneInfoFile$Checksum.update,0.0,0.0
CtClassType.getInterfaces,0.0,0.0
ZoneInfoFile.load,0.0,0.0
