method,RefEnergy,CoAppEnergy
UTF8Reader.read,2.7121526509069924,2.509628240738208
SimpleJavaNode.childrenAccept,1.218416327266687,1.3054383366644131
JavaParserTokenManager.jjMoveNfa_0,0.7384710242485778,1.385393961247777
XML11Configuration.<init>,0.5481660910694243,0.6048994221719185
SimpleNode.<init>,0.36309143838628055,1.3613106778108814
XPathReader.LA,0.3040874361296395,0.7651743276324121
DocumentBuilderImpl.<init>,0.2585206134822693,0.279061301186438
Chaperone.retire,0.25744755504339506,0.0881523333343163
URLClassPath.getNextLoader,0.25743298865173675,0.14961730023539518
AbstractDOMParser.startDocument,0.24617872006029864,0.3590223916496518
ClassScope.findVariableHere,0.2391688201668256,1.152047355962857
DefaultNameStep.evaluate,0.2330044057018728,0.21915081533983324
JJTJavaParserState.closeNodeScope,0.2310652337682886,0.08155669789637457
JavaParserVisitorAdapter.visit,0.2163278685697564,0.5125507328194541
JavaParser.jj_3R_111,0.21152205402662155,0.0
XPathLexer.LA,0.19936873229135288,0.5591807101704389
JJTJavaParserState.openNodeScope,0.19316569096981612,0.8868085346251198
DacapoClassLoader.loadClass,0.1876698385823395,0.4724083395742267
PMDASMClassLoader.getImportedClasses,0.1875988891023499,0.2697668530160224
XMLDTDValidator.<init>,0.17311116134026355,0.03935037267159304
DeferredDocumentImpl.getNodeObject,0.16837381926841374,0.13220619210141976
DisabledAlgorithmConstraints$Constraints.<init>,0.16687964876769024,0.0495297019332304
XMLEntityScanner.scanData,0.16389801710829782,0.13918369142079776
TestHarness.main,0.15348699389366954,0.0
JavaParser.jj_3R_183,0.1524235142836655,0.0
Report.<init>,0.1519574535575325,0.08198169779659388
RuleViolation.<init>,0.14745947905005022,0.0
UTF_8$Encoder.encode,0.14680178844100172,0.0
XMLEntityScanner.scanLiteral,0.13216299999961242,0.06838399659766498
XMLEntityManager.createReader,0.13156266666192096,0.025796773975524857
XPathLexer.identifier,0.12831799974234753,0.3058773223955483
AbstractJavaRule.addViolation,0.1264898666665734,0.0
JavaCharStream.UpdateLineColumn,0.1262702222213395,0.0
JavaParser.jj_3R_134,0.1233268428241348,0.06784841881369569
NodeIterator.getNextSibling,0.1145856666698819,0.0
XMLChar.isName,0.1139672882712508,0.0864153709112538
URLClassPath.getResource,0.11189694827769574,0.03046800474538508
ScopeAndDeclarationFinder.createLocalScope,0.10968187916224624,0.0
JaxenHandler.peekFrame,0.1077846969337212,0.26013986374127074
XPathLexer.nextToken,0.0996233934093912,0.2579095770745823
ClassFileAssembler.emitConstantPoolUTF8,0.09883130928545604,0.0
MetaIndex.mayContain,0.0973768366934524,0.0
DeferredDocumentImpl.ensureCapacity,0.09517759145501667,0.0
DeferredDocumentImpl.<clinit>,0.09328033333440544,0.09109307163024097
Report.addRuleViolation,0.09244950000134446,0.0
DefaultXPathFactory.createEqualityExpr,0.09185574675306174,0.0
DefaultEqualityExpr.evaluateSetSet,0.09184739812467778,0.08835424390244731
TeeOutputStream.write,0.08906625000039033,0.08116266666381004
AccessorGenerator.emitCommonConstantPoolEntries,0.08818736664664209,0.0
PMD.processFiles,0.08703905580065305,0.0
DefaultXPathFactory.createFunctionCallExpr,0.0869191970183355,0.0
DeferredAttrImpl.synchronizeData,0.08643338501211484,0.0
Java15Parser.parse,0.08624940149468538,0.02152641275676649
NodeImpl.isOwned,0.08619633333243351,0.0
ParseUtil.encodePath,0.08538266666437265,0.15113181150365476
DeferredDocumentImpl.setChunkValue,0.08493157912758298,0.05952029629501069
NameFinder.<init>,0.0843289999999494,0.0
JavaParser.jj_3R_215,0.08430438758954346,0.12532939999582596
DTDDVFactory.getInstance,0.08407388888762972,0.028190225736573725
JavaParser.jj_3R_203,0.08363451207675833,0.0
OccurrenceFinder.visit,0.08141479999831064,0.0
ClassPool.getCached,0.08132699999744847,0.0
LongVector.addElement,0.07811771420904702,0.0
XMLEntityManager.getPropertyDefault,0.0778743200333277,0.0
StreamEncoder.implWrite,0.07705199999691102,0.0
JavaParserTokenManager.getNextToken,0.07529095425901683,0.15283904223219588
SimpleJavaNode.jjtOpen,0.07476390140753472,0.0
Token.getTokenType,0.07280283371464058,0.3679349150876179
JavaParser.MultiplicativeExpression,0.0723989999993743,0.058556571425664776
Comment.<init>,0.07084658979392124,0.0
SimpleNode.jjtGetNumChildren,0.07032660000113537,0.09239750000005316
JaxenHandler.popFrame,0.07032035333655998,0.06412181277927376
TestHarness.runBenchmark,0.06982640621276219,0.0
JavaParser.jj_3R_210,0.06958150429063042,0.06554514674136745
Benchmark.run,0.06903033332976823,0.0
SimpleNode.getScope,0.06863863969788901,0.0
XMLEntityManager.setScannerVersion,0.06826757236531411,0.09594603220270086
XPathRule.getRuleChainVisits,0.06655811809625968,0.0
JavaParser.PrimaryExpression,0.06632087499807918,0.1888280110904352
Benchmark.initialize,0.06519966666504234,0.0
JavaParser.jj_3R_206,0.06505913513408175,0.0
AttributeInfo.remove,0.06441166666748661,0.0
AbstractJavaRule.visit,0.06407309266441817,0.280452910000663
AbstractReportNode.getChildAt,0.0636150442012866,0.03147293998989492
SimpleNode.findChildrenOfType,0.06311729220656813,0.2933219417330648
SecuritySupport.getSystemClassLoader,0.06283942856992195,0.0
Benchmark.unpackZipStream,0.06275997817411931,0.4588846103650768
DeferredDocumentImpl.getChunkIndex,0.06256088711994298,0.011191287805091996
Verifier.isXMLLetter,0.06178523676644766,0.09842480529344176
JavaParser.jj_3R_61,0.06034349714339313,0.0
XMLScanner.<init>,0.05994560000059816,0.0
JavaParser.jj_3R_83,0.058988888027297376,0.06921860256411065
JavaParserTokenManager.SkipLexicalActions,0.05863912938880767,0.060757923013213214
XMLAttributesImpl.setValue,0.05677338095223864,0.0
Tracer.setFieldTarget,0.05564024496900172,0.0
Benchmark.fileFromInputStream,0.05540571428615035,0.32544797246447665
NodeImpl.<init>,0.05398169999987961,0.0
CommonAbstractRule.hashCode,0.0537499084730684,0.12420833348309325
JavaParserTokenManager.jjStopStringLiteralDfa_0,0.05363562916223773,0.0
Verifier.isXMLNCNameCharacter,0.05335079870845269,0.07301933770350627
XPathLexer.getXPath,0.05265161315525015,0.1289909849661728
DeferredDocumentImpl.synchronizeChildren,0.05194108617715339,0.0
XMLEntityManager.<init>,0.051041066665978484,0.05552138630261369
NameOccurrence.getImage,0.05099021052649876,0.0
ClassTypeResolver.visit,0.05064918756883854,0.0
JavaParser.jj_3_28,0.05056164273584742,0.06963744500362283
DefaultXPathFactory.createFilterExpr,0.04975866666791263,0.034470163191594516
JavaParser.jj_3R_89,0.048445961949352086,0.0
PMD.<clinit>,0.04776310419244043,0.05484307692103567
NodeImpl.needsSyncData,0.047570019607662786,0.03668319550088718
AugmentationsImpl.<init>,0.04755575819566147,0.0
Callback$1.<clinit>,0.04745203700389821,0.0
JavaParser.jj_3R_287,0.04699076955438829,0.0
JavaParser.jj_3R_324,0.04585338232619693,0.0
SimpleNode.getFirstChildOfType,0.04568410681944615,0.0
DeferredDocumentImpl.createDeferredAttribute,0.04559299999891663,0.0
Pmd.<init>,0.04539421268738805,0.0
JavaParser.jj_3R_216,0.04498000619753534,0.06469014073672508
RuleSets.<init>,0.0441663333355488,0.03254055904797698
JavaParser.ConditionalOrExpression,0.04386705006772003,0.0737982083094521
ClassScope.addVariableNameOccurrence,0.04383892790231365,0.08977288558395692
XMLDocumentFragmentScannerImpl$FragmentContentDispatcher.dispatch,0.043491320938309534,0.08993501108915805
ImageFinderFunction.<init>,0.04190056211223943,0.0
UTF8.utf8Length,0.04109901960774328,0.022655233586713144
ClassFileAssembler.emitByte,0.040922048502832736,0.09151364021420773
AttributeAxisIterator.<init>,0.04088847826073027,0.0
NodeImpl.isSpecified,0.040797923650702776,0.0
Reflection.quickCheckMemberAccess,0.040551637098307766,0.0
JavaParser.jj_3R_240,0.040386480055849855,0.09512826562485087
SingletonList.get,0.04027573083049712,0.0
JavaParser.jj_2_21,0.040256992682744325,0.0
JavaParser.RelationalExpression,0.04009149583532056,0.015290885427494396
MultiLineComment.<init>,0.03918120854594962,0.0
JavaParser.<init>,0.03912758823507294,0.12544554081821974
JavaParserTokenManager.jjCheckNAddStates,0.03897834382764297,0.08929845558356922
PredicateSet.getText,0.03824011723219232,0.0
RuleSetFactory.parsePropertyNode,0.03785735582385996,0.0
XMLEntityManager.<clinit>,0.036461492469313635,0.10917310640770894
XPathReader.nameTest,0.0358922329266102,0.0
JavaParser.jj_3R_135,0.03401169999888225,0.0
XPathReader.LT,0.033758225616655695,0.1347222412415319
JavaParser.jj_3_20,0.03143755348833744,0.0
JavaParser.jj_3R_80,0.03123154545458172,0.05660285630774081
DefaultXPathFactory.createLiteralExpr,0.030939195338409126,0.0
JavaParser.jj_3R_91,0.030894003518986544,0.0
JavaParser.CompilationUnit,0.030269545022153118,0.0
UTF_8$Decoder.decodeArrayLoop,0.02886042857155969,0.03635679860264253
JavaParser.jj_3_44,0.02844703543793908,0.0
RuleSetFactory.parseSingleRuleNode,0.027895666666154284,0.0
XPathReader.orExpr,0.027217934660514385,0.07049695986011409
URLClassPath.getLoader,0.027205672105488,0.04251804308064995
AbstractDOMParser.characters,0.02567263695104849,0.017606457799142085
JaxenHandler.endFunction,0.02521647215030124,0.0
XPathReader.relationalExpr,0.024600553366504317,0.0
ASTPrimaryPrefix.jjtAccept,0.023578167615018925,0.0
DeferredDocumentImpl.createChunk,0.02329302840964622,0.0
JavaParser.jj_3R_68,0.022821036951331208,0.0
JavaParser.ConditionalAndExpression,0.022382219907774045,0.38282200000122657
JavaParser.jj_3R_144,0.022073375000218217,0.0
JaxenHandler.getXPathFactory,0.021993093717413568,0.05404949630645246
XPathReader.andExpr,0.0218572448979177,0.06595952961209679
AbstractScope.getEnclosingClassScope,0.02117918181862809,0.0
DefaultExpr.convertToList,0.02102268749968061,0.0
ConfigFileTokenManager.jjMoveNfa_0,0.01970293289746618,0.0
JaxenHandler.pushFrame,0.01964376709850912,0.1720401679391779
CodeAttribute.<init>,0.019176703009876082,0.10819777490210113
Type.getSort,0.018995571428690933,0.0
XPathReader.pathExpr,0.018569483870974623,0.0972316118054811
DefaultLocationPath.isReverseAxis,0.01856825254708027,0.0
XPathReader.predicate,0.018166102777649944,0.0
RuleSetFactory.parseTextNode,0.01792286490780945,0.0
JavaCharStream.readChar,0.017231562499546268,0.09290431511770754
DefaultNameStep.matches,0.016928696969636912,0.2443009999945692
PredicateSet.applyPredicate,0.01665686678017908,0.0
AttrImpl.getNodeName,0.016497861655448313,0.0
JavaParser.jj_3_24,0.01535556037157818,0.0
XPathLexer.dots,0.014935392156878472,0.0
JavaParser.jj_3R_187,0.014300762453179178,0.05753427049467809
ImageFinderFunction.applyTo,0.013678017898804922,0.0
XPathReader.steps,0.012741296828567832,0.0
XPathRule.createXPath,0.01222300000032798,0.017752122946050698
XMLString.toString,0.012188600412992641,0.03423538652627246
JavaParser.jj_3R_130,0.011805571427527995,0.0
XMLEntityScanner.load,0.011745285412151932,0.035148311271018744
JaxenHandler.push,0.011416102564395169,0.0
JaxenHandler.startPathExpr,0.011352721691437228,0.0
JavaParser.jj_3_31,0.010919456372382641,0.0
JavaParser.jj_3R_119,0.01054751378755292,0.10623377632140504
Verifier.isXMLCombiningChar,0.010181339895993232,0.0
CommonAbstractRule.getProperties,0.008860541295280043,0.013555036337022607
PMD.doPMD,0.007792250000420608,0.0689295876206429
XPathLexer.isIdentifierChar,0.0075245917285820295,0.14015541885900012
XMLDocumentFragmentScannerImpl.scanCDATASection,0.007521221064623734,0.16365530913427315
JavaParser.jj_3R_161,0.007452677670004863,0.0
JavaParser.ClassOrInterfaceDeclaration,0.007451712791604666,0.012477864185407864
SimpleCharStream.getEndLine,0.007286536191543747,0.0
Unsafe.defineClass,0.00717443749999802,0.06737382878941353
JavaParser.jj_3_22,0.007049839206335319,0.0
AttributeInfo.read,0.005521179822251796,0.23929323912102216
XPathLexer.currentPosition,0.005281823062735687,0.1561627620178731
XPathReader.isNodeTypeName,0.005114796295957705,0.023854747396216663
JavaParser.EqualityExpression,0.005087126707395815,0.02847851914874088
DefaultStep.evaluate,0.004592590909107293,0.0361465979753668
XPathReader.match,0.004464975368431707,0.0
DefaultFunctionCallExpr.addParameter,0.0040663026313797175,0.0
JavaParser.jj_3R_170,0.0032665094044013075,0.0
JarFileFactory.getCachedJarFile,0.0031827448004075826,0.0
Token.setTokenType,0.002311174422206222,0.15688525961506875
MethodAccessorGenerator.emitInvoke,0.0019455483873776574,0.03293781742690801
XMLChar.isInvalid,0.0019034837837279077,0.03835312851226231
XMLEntityScanner.scanContent,0.0016985964972930177,0.09377464140769877
DocumentNavigator.getElementName,0.001425140035196349,0.03433986625344128
XMLEntityScanner.skipSpaces,0.0010948951807827935,0.0
XMLEntityScanner.scanName,0.00087473859843247,0.03367704950242405
DeferredDocumentImpl.createDeferredTextNode,0.0003665403508899831,0.05174604919708886
Unsafe.getIntVolatile,0.0003193097770485628,0.0
PMD.main,0.0,0.04138075394094479
XPathReader.getXPathHandler,0.0,0.026161949766113284
PMD.processFile,0.0,0.0
XPathReader.functionCall,0.0,0.03015075033729805
Resource.getBytes,0.0,0.0
RuleContext.<init>,0.0,0.0
XPathReader.step,0.0,0.05962837503380836
RuleSet.applies,0.0,0.0
ParentNode.item,0.0,0.0
ViolationNode.equalsNode,0.0,0.0
PMD.collect,0.0,0.0
XPathReader.unionExpr,0.0,0.0
RuleSet.getRules,0.0,0.0
Type.a,0.0,0.0
XPathReaderFactory.createReader,0.0,0.0
XPathRule.evaluate,0.0,0.0835474575571765
Option.<init>,0.0,0.0
XPathReader.additiveExpr,0.0,0.0
XPathReader.equalityExpr,0.0,0.01564727027024477
Type.getReturnType,0.0,0.0
XPathReader.setUpParse,0.0,0.0
XPathReader.predicates,0.0,0.030935552619414226
PMDASMVisitor.parseClassName,0.0,0.0
XPathReader.absoluteLocationPath,0.0,0.0
PMDASMVisitor.addTypes,0.0,0.0
URLClassPath.getLookupCache,0.0,0.0
ParentNode.nodeListGetLength,0.0,0.0
URLClassPath$JarLoader.checkResource,0.0,0.0
ParentNode.nodeListItem,0.0,0.0
Verifier.isXMLNCNameStartCharacter,0.0,0.0
XPathReader.relativeLocationPath,0.0,0.0
PerfCounter.add,0.0,0.0
XPathReader.nodeTypeTest,0.0,0.048864528227075606
URLClassPath$JarLoader.<init>,0.0,0.0
PMDASMVisitor.<init>,0.0,0.1795146068458463
PredicateSet.<init>,0.0,0.023854747396216663
URLClassPath$JarLoader$2.getInputStream,0.0,0.0
PredicateSet.evaluatePredicates,0.0,0.0
RuleSetFactory.createRuleSets,0.0,0.09183000001151716
Token.getTokenBegin,0.0,0.0
RuleSetFactory.parseRuleNode,0.0,0.0
XMLEntityScanner.skipDeclSpaces,0.0,0.030222499436138733
SimpleNode.jjtAddChild,0.0,0.2021777658083071
Token.newToken,0.0,0.0
SimpleNode.jjtGetChild,0.0,0.1009668625853828
XMLEntityScanner.scanChar,0.0,0.0606121940475375
Token.getTokenText,0.0,0.06249142641423217
SingleObjectIterator.<init>,0.0,0.040550918393097934
XMLDocumentScannerImpl.reset,0.0,0.0
SourceFileScope.findVariableHere,0.0,0.0
SourceType.getId,0.0,0.0
XMLDocumentScannerImpl.<init>,0.0,0.029902744846210336
XMLDocumentFragmentScannerImpl.scanStartElement,0.0,0.0
SourceType.hashCode,0.0,0.0
XMLDocumentFragmentScannerImpl.scanEndElement,0.0,0.0
StreamEncoder.writeBytes,0.0,0.0
SymbolFacade.initializeWith,0.0,0.0
SymbolTable$Entry.<init>,0.0,0.0
XMLDocumentFragmentScannerImpl.scanContent,0.0,0.0
SymbolTable.addSymbol,0.0,0.010659035087694958
SymbolTable.hash,0.0,0.0
XMLDocumentFragmentScannerImpl.scanAttribute,0.0,0.13413539052715773
XMLDocumentFragmentScannerImpl$ElementStack.pushElement,0.0,0.0
XMLDocumentFragmentScannerImpl.<init>,0.0,0.0
TestHarness.twoDecimalPlaces,0.0,0.0
SimpleNode.getImage,0.0,0.4604347813261239
XMLNSDocumentScannerImpl.createContentDispatcher,0.0,0.09504834735594647
RuleSetFactory.parseRuleSetNode,0.0,0.0
Token.setParseText,0.0,0.02843128853767572
XML11Configuration.checkFeature,0.0,0.0
XPathLexer.whitespace,0.0,0.0
TransformerManager.transform,0.0,0.0
XPathLexer.setPreviousToken,0.0,0.02406756249839996
XPathLexer.leftBracket,0.0,0.0
ScopeAndDeclarationFinder.createClassScope,0.0,0.0
XPathLexer.identifierOrOperatorName,0.0,0.056001598571561687
XPathLexer.hasMoreChars,0.0,0.15577827463951674
ScopeAndDeclarationFinder.createSourceFileScope,0.0,0.0
ScopeAndDeclarationFinder.visit,0.0,0.0
Search.<init>,0.0,0.0
XMLChar.isValid,0.0,0.03071819238305251
XPathLexer.doubleColon,0.0,0.0
SecuritySupport.getContextClassLoader,0.0,0.0
Token.setTokenBegin,0.0,0.1392599305000808
SimpleCharStream.<init>,0.0,0.0
XPathLexer.consume,0.0,0.2027912626248408
SimpleFunctionContext.getFunction,0.0,0.0
UnnecessaryConversionTemporary.visit,0.0,0.0
XPathFunctionContext.getInstance,0.0,0.0
XMLString.setValues,0.0,0.0
XMLScanner.scanAttributeValue,0.0,0.0
XMLScanner.isUnchangedByNormalization,0.0,0.024558860438752685
XPathFunctionContext.registerXPathFunctions,0.0,0.0
ASCIICaseInsensitiveComparator.toLower,0.0,0.0
NodeIterator.next,0.0,0.0
DefaultEqualityExpr.evaluate,0.0,0.10098474537339892
DefaultAllNodeStep.getText,0.0,0.0
CtClassType.removeClassFile,0.0,0.0
CtBehavior.insertAfter,0.0,0.0
Context.<init>,0.0,0.1380959988226616
ConstantAttribute.<init>,0.0,0.0
ConstPool.readOne,0.0,0.0854090569412178
ConstPool.getUtf8Info,0.0,0.0
ConfigFile.threadModel,0.0,0.0
ConfigFile.<init>,0.0,0.0
Config.parse,0.0,0.0
Config.addSize,0.0,0.0
CommonAbstractRule.setName,0.0,0.0
CommonAbstractRule.getPriority,0.0,0.015830644549736546
CommonAbstractRule.getName,0.0,0.0
CommonAbstractRule.getBooleanProperty,0.0,0.0
CommandLineOptions.createRenderer,0.0,0.0
CommandLineArgs.makeOption,0.0,0.0
CommandLineArgs.<clinit>,0.0,0.0
CodeIterator.insertGap2,0.0,0.0
DefaultAndExpr.getOperator,0.0,0.0
DefaultEqualsExpr.evaluateObjectObject,0.0,0.0
ClassTypeResolver.rollupTypeUnary,0.0,0.0
DefaultLocationPath.<init>,0.0,0.0
Descriptor.toJavaName,0.0,0.0
DeprecatedAttribute.<init>,0.0,0.0
DeferredDocumentImpl.getNodeName,0.0,0.02177567986330434
DeferredDocumentImpl.getLastChild,0.0,0.0
DeferredDocumentImpl.appendChild,0.0,0.0
DefaultXPathFactory.getIterableAxis,0.0,0.06237944903277541
DefaultXPathFactory.createRelativeLocationPath,0.0,0.0
DefaultXPathFactory.createPredicateSet,0.0,0.0
DefaultXPathFactory.createPredicate,0.0,0.0
DefaultXPathFactory.createAbsoluteLocationPath,0.0,0.0
DefaultTruthExpr.eitherIsNumber,0.0,0.12947933076951673
DefaultTruthExpr.bothAreSets,0.0,0.0
DefaultStep.getAxisName,0.0,0.0
DefaultPathExpr.simplify,0.0,0.0
DefaultNameStep.hasNamespace,0.0,0.0
DefaultNameStep.<init>,0.0,0.022072170296272547
DefaultLocationPath.simplify,0.0,0.04618481651654085
DefaultLocationPath.getText,0.0,0.0
DefaultLocationPath.evaluate,0.0,0.08029163916898857
ClassUtil.<clinit>,0.0,0.0
ClassTypeResolver.rollupTypeBinaryNumericPromotion,0.0,0.0
NodeImpl.ownerDocument,0.0,0.0
AttributeAxisIterator.hasNext,0.0,0.0
Attribute.<init>,0.0,0.0
Applier.apply,0.0,0.0
AbstractRuleChainVisitor.visitAll,0.0,0.04317145237945666
AbstractReportNode.getChildCount,0.0,0.0
AbstractNameDeclaration.getImage,0.0,0.08497283333493517
AbstractDOMParser.endElement,0.0,0.0
AbstractAlgorithmConstraints.getAlgorithms,0.0,0.0
ASTVariableInitializer.jjtAccept,0.0,0.0
ASTReturnStatement.jjtAccept,0.0,0.0
ASTPrimaryExpression.jjtAccept,0.0,0.0
ASTIfStatement.jjtAccept,0.0,0.0
ASTFormalParameters.jjtAccept,0.0,0.0
ASTEmptyStatement.<init>,0.0,0.0
ASTClassOrInterfaceType.jjtAccept,0.0,0.0
ASTClassOrInterfaceDeclaration.jjtAccept,0.0,0.0
ASTClassOrInterfaceBodyDeclaration.<init>,0.0,0.0
ASTCastExpression.jjtAccept,0.0,0.0
ASTBooleanLiteral.jjtAccept,0.0,0.0
ASTAssignmentOperator.jjtAccept,0.0,0.0
Attribute.getName,0.0,0.0
AttributeAxisIterator.next,0.0,0.0
ClassTypeResolver.processOnDemand,0.0,0.0
AttributeMap.setNamedItem,0.0,0.0
ClassTypeResolver.populateType,0.0,0.0
ClassTypeResolver.<init>,0.0,0.0
ClassScope.<init>,0.0,0.0
ClassReader.readLabel,0.0,0.0
ClassReader.readInt,0.0,0.0
ClassReader.accept,0.0,0.03898306738946671
ClassReader.a,0.0,0.13564827422950554
ClassReader.<init>,0.0,0.0
ClassPool.get,0.0,0.0
ClassPool.compress,0.0,0.0
ClassFile.addMethod2,0.0,0.0
ByteVectorImpl.add,0.0,0.0
ByteVectorImpl.<init>,0.0,0.0
BaseXPath.selectNodes,0.0,0.0
BaseXPath.createNamespaceContext,0.0,0.0
BaseXPath.<init>,0.0,0.016972916367356684
Axis.lookup,0.0,0.06563265380064756
AvoidUsingOctalValues.visit,0.0,0.0
AugmentationsImpl$AugmentationsItemsContainer.<init>,0.0,0.0
DocumentBuilderFactory.newInstance,0.0,0.0
DocumentNavigator.isDocument,0.0,0.0
ElementImpl.getNodeName,0.0,0.0
JaxenHandler.<init>,0.0,0.12070125000309415
JavaParserTokenManager.jjStopAtPos,0.0,0.0
JavaParserTokenManager.jjMoveStringLiteralDfa2_0,0.0,0.49883708759706197
JavaParserTokenManager.jjMoveStringLiteralDfa0_0,0.0,0.0
JavaParserTokenManager.jjFillToken,0.0,0.12096339306262308
JavaParserTokenManager.<init>,0.0,0.0
JavaParser.jj_scan_token,0.0,0.10211723754771873
JavaParser.jj_save,0.0,0.019680090771400958
JavaParser.jj_consume_token,0.0,0.0
JavaParser.jj_3_40,0.0,0.11347159999859288
ASTAllocationExpression.jjtAccept,0.0,0.0
JavaParser.jj_3R_99,0.0,0.0
JavaParser.jj_3R_87,0.0,0.0
JavaParser.jj_3R_84,0.0,0.07186416666741023
JavaParser.jj_3R_81,0.0,0.0
JavaParser.jj_3R_79,0.0,0.0
JavaParser.jj_3R_77,0.0,0.215345060517442
JavaParser.jj_3R_74,0.0,0.0
JavaParser.jj_3R_384,0.0,0.14406136904767666
JavaParser.jj_3R_351,0.0,0.0
JavaTypeHandler.getTypeResolutionFacade,0.0,0.0
JaxenHandler.addPredicates,0.0,0.0
FactoryFinder.<clinit>,0.0,0.0
JaxenHandler.addSteps,0.0,0.02455048609148928
NamespaceSupport.reset,0.0,0.0
NamedNodeMapImpl.getNamedItem,0.0,0.0
NamedNodeMapImpl.<init>,0.0,0.0
NameOccurrence.isMethodOrConstructorInvocation,0.0,0.0
NameFinder.checkForNameChild,0.0,0.08327134059559728
NameFinder.add,0.0,0.0
MethodNameDeclaration.getParameterCount,0.0,0.0
MethodAccessorGenerator.generate,0.0,0.08007416666663401
LocaleUtils.toLowerString,0.0,0.0
LocalScope.findVariableHere,0.0,0.0
Lex.getString,0.0,0.0
JaxenHandler.number,0.0,0.0
JaxenHandler.endStep,0.0,0.0
JaxenHandler.endRelativeLocationPath,0.0,0.0
JaxenHandler.endPredicate,0.0,0.0
JaxenHandler.endLocationPath,0.0,0.0
JaxenHandler.endFilterExpr,0.0,0.0
JaxenHandler.endEqualityExpr,0.0,0.02843128853767572
JaxenHandler.endAllNodeStep,0.0,0.0
JavaParser.jj_3R_350,0.0,0.0
JavaParser.jj_3R_313,0.0,0.0
JavaParser.jj_3R_260,0.0,0.0
JavaParser.jj_3R_249,0.0,0.0
JavaParser.FormalParameter,0.0,0.0
JavaParser.ExclusiveOrExpression,0.0,0.035376302521526716
JavaParser.ConstructorDeclaration,0.0,0.015290885427494396
JavaParser.ClassOrInterfaceBodyDeclaration,0.0,0.0
JavaParser.ClassOrInterfaceBody,0.0,0.0
JavaParser.Block,0.0,0.04580730663342019
JavaParser.ArgumentList,0.0,0.0
JavaParser.AndExpression,0.0,0.0
JavaCharStream.GetImage,0.0,0.0
JavaCharStream.BeginToken,0.0,0.0
JarURLConnection.connect,0.0,0.0
JJTJavaParserState.nodeArity,0.0,0.2778137698697137
IterableSelfAxis.<init>,0.0,0.0
IterableChildAxis.iterator,0.0,0.0
InnerClassesAttribute.<init>,0.0,0.0
ImageFinderFunction.getDecl,0.0,0.0
FloatingDecimal.readJavaFormatString,0.0,0.0
FloatingDecimal$BinaryToASCIIBuffer.toJavaFormatString,0.0,0.0
Filters.buildRegexFilterIncludeOverExclude,0.0,0.0
JavaParser.IfStatement,0.0,0.09642455389755787
JavaParser.Literal,0.0,0.12347872352567367
JavaParser.PostfixExpression,0.0,0.0
JavaParser.jj_3R_152,0.0,0.0
JavaParser.jj_3R_241,0.0,0.0
JavaParser.jj_3R_233,0.0,0.0
JavaParser.jj_3R_226,0.0,0.0
JavaParser.jj_3R_218,0.0,0.05709125000062916
JavaParser.jj_3R_204,0.0,0.0
JavaParser.jj_3R_201,0.0,0.13224050871512294
JavaParser.jj_3R_189,0.0,0.0
JavaParser.jj_3R_173,0.0,0.0
JavaParser.jj_3R_137,0.0,0.07002341803296136
JavaParser.PrimarySuffix,0.0,0.10029700000063713
JavaParser.jj_3R_133,0.0,0.0
JavaParser.jj_3R_131,0.0,0.0
JavaParser.jj_3R_117,0.0,0.0
JavaParser.isNextTokenAnAssert,0.0,0.015290885427494396
JavaParser.getToken,0.0,0.0
JavaParser.VariableDeclaratorId,0.0,0.03181083117640601
JavaParser.UnaryExpression,0.0,0.0
JavaParser.ShiftExpression,0.0,0.08536801282036924
XPathRule.initializeXPathExpression,0.0,0.05471283294028617
