+-----------+-----------+-------------+
| State     |   Average |   Deviation |
|-----------+-----------+-------------|
| inactive  |  8.53783  |    2.73684  |
| no socket |  3.00548  |    0.108757 |
| socket 1  |  0.694113 |    0.460962 |
| socket 2  |  0.306015 |    0.460847 |
+-----------+-----------+-------------+